{
    "assets": [],
    "assets_url": "https://api.github.com/repos/PrismarineJS/bedrock-protocol/releases/140442197/assets",
    "author": {
        "avatar_url": "https://avatars.githubusercontent.com/in/15368?v=4",
        "events_url": "https://api.github.com/users/github-actions%5Bbot%5D/events{/privacy}",
        "followers_url": "https://api.github.com/users/github-actions%5Bbot%5D/followers",
        "following_url": "https://api.github.com/users/github-actions%5Bbot%5D/following{/other_user}",
        "gists_url": "https://api.github.com/users/github-actions%5Bbot%5D/gists{/gist_id}",
        "gravatar_id": "",
        "html_url": "https://github.com/apps/github-actions",
        "id": 41898282,
        "login": "github-actions[bot]",
        "node_id": "MDM6Qm90NDE4OTgyODI=",
        "organizations_url": "https://api.github.com/users/github-actions%5Bbot%5D/orgs",
        "received_events_url": "https://api.github.com/users/github-actions%5Bbot%5D/received_events",
        "repos_url": "https://api.github.com/users/github-actions%5Bbot%5D/repos",
        "site_admin": false,
        "starred_url": "https://api.github.com/users/github-actions%5Bbot%5D/starred{/owner}{/repo}",
        "subscriptions_url": "https://api.github.com/users/github-actions%5Bbot%5D/subscriptions",
        "type": "Bot",
        "url": "https://api.github.com/users/github-actions%5Bbot%5D",
        "user_view_type": "public"
    },
    "body": "3.34.0",
    "created_at": "2024-02-08T02:05:28Z",
    "draft": false,
    "html_url": "https://github.com/PrismarineJS/bedrock-protocol/releases/tag/3.34.0",
    "id": 140442197,
    "name": "Release 3.34.0",
    "node_id": "RE_kwDOAxQ-8c4IXvpV",
    "prerelease": false,
    "published_at": "2024-02-08T02:06:51Z",
    "tag_name": "3.34.0",
    "tarball_url": "https://api.github.com/repos/PrismarineJS/bedrock-protocol/tarball/3.34.0",
    "target_commitish": "0132302e5343b7ca5bb493f606b6dc20ef46c1fb",
    "upload_url": "https://uploads.github.com/repos/PrismarineJS/bedrock-protocol/releases/140442197/assets{?name,label}",
    "url": "https://api.github.com/repos/PrismarineJS/bedrock-protocol/releases/140442197",
    "zipball_url": "https://api.github.com/repos/PrismarineJS/bedrock-protocol/zipball/3.34.0"
}