{
    "assets": [],
    "assets_url": "https://api.github.com/repos/PrismarineJS/mineflayer/releases/38381473/assets",
    "author": {
        "avatar_url": "https://avatars.githubusercontent.com/in/15368?v=4",
        "events_url": "https://api.github.com/users/github-actions%5Bbot%5D/events{/privacy}",
        "followers_url": "https://api.github.com/users/github-actions%5Bbot%5D/followers",
        "following_url": "https://api.github.com/users/github-actions%5Bbot%5D/following{/other_user}",
        "gists_url": "https://api.github.com/users/github-actions%5Bbot%5D/gists{/gist_id}",
        "gravatar_id": "",
        "html_url": "https://github.com/apps/github-actions",
        "id": 41898282,
        "login": "github-actions[bot]",
        "node_id": "MDM6Qm90NDE4OTgyODI=",
        "organizations_url": "https://api.github.com/users/github-actions%5Bbot%5D/orgs",
        "received_events_url": "https://api.github.com/users/github-actions%5Bbot%5D/received_events",
        "repos_url": "https://api.github.com/users/github-actions%5Bbot%5D/repos",
        "site_admin": false,
        "starred_url": "https://api.github.com/users/github-actions%5Bbot%5D/starred{/owner}{/repo}",
        "subscriptions_url": "https://api.github.com/users/github-actions%5Bbot%5D/subscriptions",
        "type": "Bot",
        "url": "https://api.github.com/users/github-actions%5Bbot%5D",
        "user_view_type": "public"
    },
    "body": "3.1.0",
    "created_at": "2021-02-20T23:38:47Z",
    "draft": false,
    "html_url": "https://github.com/PrismarineJS/mineflayer/releases/tag/3.1.0",
    "id": 38381473,
    "name": "Release 3.1.0",
    "node_id": "MDc6UmVsZWFzZTM4MzgxNDcz",
    "prerelease": false,
    "published_at": "2021-02-20T23:39:26Z",
    "tag_name": "3.1.0",
    "tarball_url": "https://api.github.com/repos/PrismarineJS/mineflayer/tarball/3.1.0",
    "target_commitish": "72b8eccf55383fd41782d34594f075fd4878003d",
    "upload_url": "https://uploads.github.com/repos/PrismarineJS/mineflayer/releases/38381473/assets{?name,label}",
    "url": "https://api.github.com/repos/PrismarineJS/mineflayer/releases/38381473",
    "zipball_url": "https://api.github.com/repos/PrismarineJS/mineflayer/zipball/3.1.0"
}