{
    "assets": [],
    "assets_url": "https://api.github.com/repos/PrismarineJS/mineflayer/releases/46720942/assets",
    "author": {
        "avatar_url": "https://avatars.githubusercontent.com/in/15368?v=4",
        "events_url": "https://api.github.com/users/github-actions%5Bbot%5D/events{/privacy}",
        "followers_url": "https://api.github.com/users/github-actions%5Bbot%5D/followers",
        "following_url": "https://api.github.com/users/github-actions%5Bbot%5D/following{/other_user}",
        "gists_url": "https://api.github.com/users/github-actions%5Bbot%5D/gists{/gist_id}",
        "gravatar_id": "",
        "html_url": "https://github.com/apps/github-actions",
        "id": 41898282,
        "login": "github-actions[bot]",
        "node_id": "MDM6Qm90NDE4OTgyODI=",
        "organizations_url": "https://api.github.com/users/github-actions%5Bbot%5D/orgs",
        "received_events_url": "https://api.github.com/users/github-actions%5Bbot%5D/received_events",
        "repos_url": "https://api.github.com/users/github-actions%5Bbot%5D/repos",
        "site_admin": false,
        "starred_url": "https://api.github.com/users/github-actions%5Bbot%5D/starred{/owner}{/repo}",
        "subscriptions_url": "https://api.github.com/users/github-actions%5Bbot%5D/subscriptions",
        "type": "Bot",
        "url": "https://api.github.com/users/github-actions%5Bbot%5D",
        "user_view_type": "public"
    },
    "body": "3.9.0",
    "created_at": "2021-07-24T22:23:33Z",
    "draft": false,
    "html_url": "https://github.com/PrismarineJS/mineflayer/releases/tag/3.9.0",
    "id": 46720942,
    "name": "Release 3.9.0",
    "node_id": "MDc6UmVsZWFzZTQ2NzIwOTQy",
    "prerelease": false,
    "published_at": "2021-07-24T22:24:04Z",
    "tag_name": "3.9.0",
    "tarball_url": "https://api.github.com/repos/PrismarineJS/mineflayer/tarball/3.9.0",
    "target_commitish": "6b047446c62228c31368aa408f76aefae8dd28e6",
    "upload_url": "https://uploads.github.com/repos/PrismarineJS/mineflayer/releases/46720942/assets{?name,label}",
    "url": "https://api.github.com/repos/PrismarineJS/mineflayer/releases/46720942",
    "zipball_url": "https://api.github.com/repos/PrismarineJS/mineflayer/zipball/3.9.0"
}