{
    "active_lock_reason": null,
    "assignee": null,
    "assignees": [],
    "author_association": "NONE",
    "body": "I am creating a bot that can find a tree and mine/collect its wood but when there is a tall tree, the bot looks up and mines nothing and doesn't even bother to mine/dig blocks in front of it that obscures it.\r\n\r\nBot does mine blocks that are in front of it, e.g on the right or left, but doesn't when the block is upwards\r\n\r\n```\r\nconst blocks = bot.findBlocks({\r\n        matching: MinecraftData.blocksByName.oak_log.id,\r\n        maxDistance: 64,\r\n        count: Amount\r\n})\r\n\r\nif (blocks.length === 0) {\r\n        console.log(\"No blocks found\")\r\n        await LookAround()\r\n        GetWood2()\r\n        return\r\n}\r\n\r\nconsole.log(\"Found Wood\")\r\n\r\nconst targets = []\r\nfor (let i = 0; i < Math.min(blocks.length, Amount); i++) {\r\n  targets.push(bot.blockAt(blocks[i]))\r\n }\r\n    \r\ntry {\r\n        await bot.collectBlock.collect(targets)\r\n} catch (err) {\r\n        console.log(err)\r\n}\r\n\r\n```\r\n\r\n![image](https://user-images.githubusercontent.com/86912923/184534659-56040d46-13b9-4fa2-9ac7-f30bc2f136eb.png)\r\n",
    "closed_at": null,
    "comment_data": [],
    "comments": 0,
    "comments_url": "https://api.github.com/repos/PrismarineJS/mineflayer-collectblock/issues/109/comments",
    "created_at": "2022-08-14T11:27:26Z",
    "event_data": [],
    "events_url": "https://api.github.com/repos/PrismarineJS/mineflayer-collectblock/issues/109/events",
    "html_url": "https://github.com/PrismarineJS/mineflayer-collectblock/issues/109",
    "id": 1338214738,
    "labels": [],
    "labels_url": "https://api.github.com/repos/PrismarineJS/mineflayer-collectblock/issues/109/labels{/name}",
    "locked": false,
    "milestone": null,
    "node_id": "I_kwDOEdyOa85Pw4lS",
    "number": 109,
    "performed_via_github_app": null,
    "reactions": {
        "+1": 0,
        "-1": 0,
        "confused": 0,
        "eyes": 0,
        "heart": 0,
        "hooray": 0,
        "laugh": 0,
        "rocket": 0,
        "total_count": 0,
        "url": "https://api.github.com/repos/PrismarineJS/mineflayer-collectblock/issues/109/reactions"
    },
    "repository_url": "https://api.github.com/repos/PrismarineJS/mineflayer-collectblock",
    "state": "open",
    "state_reason": null,
    "timeline_url": "https://api.github.com/repos/PrismarineJS/mineflayer-collectblock/issues/109/timeline",
    "title": "Bot doesn't check whether it can reach the block",
    "updated_at": "2022-08-14T11:35:36Z",
    "url": "https://api.github.com/repos/PrismarineJS/mineflayer-collectblock/issues/109",
    "user": {
        "avatar_url": "https://avatars.githubusercontent.com/u/86912923?v=4",
        "events_url": "https://api.github.com/users/depthso/events{/privacy}",
        "followers_url": "https://api.github.com/users/depthso/followers",
        "following_url": "https://api.github.com/users/depthso/following{/other_user}",
        "gists_url": "https://api.github.com/users/depthso/gists{/gist_id}",
        "gravatar_id": "",
        "html_url": "https://github.com/depthso",
        "id": 86912923,
        "login": "depthso",
        "node_id": "MDQ6VXNlcjg2OTEyOTIz",
        "organizations_url": "https://api.github.com/users/depthso/orgs",
        "received_events_url": "https://api.github.com/users/depthso/received_events",
        "repos_url": "https://api.github.com/users/depthso/repos",
        "site_admin": false,
        "starred_url": "https://api.github.com/users/depthso/starred{/owner}{/repo}",
        "subscriptions_url": "https://api.github.com/users/depthso/subscriptions",
        "type": "User",
        "url": "https://api.github.com/users/depthso"
    }
}