{
    "assets": [],
    "assets_url": "https://api.github.com/repos/PrismarineJS/node-minecraft-protocol/releases/193362546/assets",
    "author": {
        "avatar_url": "https://avatars.githubusercontent.com/in/15368?v=4",
        "events_url": "https://api.github.com/users/github-actions%5Bbot%5D/events{/privacy}",
        "followers_url": "https://api.github.com/users/github-actions%5Bbot%5D/followers",
        "following_url": "https://api.github.com/users/github-actions%5Bbot%5D/following{/other_user}",
        "gists_url": "https://api.github.com/users/github-actions%5Bbot%5D/gists{/gist_id}",
        "gravatar_id": "",
        "html_url": "https://github.com/apps/github-actions",
        "id": 41898282,
        "login": "github-actions[bot]",
        "node_id": "MDM6Qm90NDE4OTgyODI=",
        "organizations_url": "https://api.github.com/users/github-actions%5Bbot%5D/orgs",
        "received_events_url": "https://api.github.com/users/github-actions%5Bbot%5D/received_events",
        "repos_url": "https://api.github.com/users/github-actions%5Bbot%5D/repos",
        "site_admin": false,
        "starred_url": "https://api.github.com/users/github-actions%5Bbot%5D/starred{/owner}{/repo}",
        "subscriptions_url": "https://api.github.com/users/github-actions%5Bbot%5D/subscriptions",
        "type": "Bot",
        "url": "https://api.github.com/users/github-actions%5Bbot%5D",
        "user_view_type": "public"
    },
    "body": "1.52.0",
    "created_at": "2025-01-06T18:51:40Z",
    "draft": false,
    "html_url": "https://github.com/PrismarineJS/node-minecraft-protocol/releases/tag/1.52.0",
    "id": 193362546,
    "name": "Release 1.52.0",
    "node_id": "RE_kwDOAHDUK84Lhnpy",
    "prerelease": false,
    "published_at": "2025-01-06T18:54:17Z",
    "tag_name": "1.52.0",
    "tarball_url": "https://api.github.com/repos/PrismarineJS/node-minecraft-protocol/tarball/1.52.0",
    "target_commitish": "d38f24aedf08499dce7bdbb547b35bb8b182c2ff",
    "upload_url": "https://uploads.github.com/repos/PrismarineJS/node-minecraft-protocol/releases/193362546/assets{?name,label}",
    "url": "https://api.github.com/repos/PrismarineJS/node-minecraft-protocol/releases/193362546",
    "zipball_url": "https://api.github.com/repos/PrismarineJS/node-minecraft-protocol/zipball/1.52.0"
}