{
    "active_lock_reason": null,
    "assignee": null,
    "assignees": [],
    "author_association": "NONE",
    "body": "![image](https://user-images.githubusercontent.com/53388005/109465182-d8639080-7a78-11eb-9179-bd9a8e2151a4.png)\r\nprismarine viewer causes the bot to crash, don't know the reason\r\n\r\nrunning on google cloud ubuntu",
    "closed_at": "2021-03-09T12:41:54Z",
    "comment_data": [
        {
            "author_association": "MEMBER",
            "body": "for what code ?",
            "created_at": "2021-03-07T19:42:44Z",
            "html_url": "https://github.com/PrismarineJS/prismarine-viewer/issues/147#issuecomment-792339898",
            "id": 792339898,
            "issue_url": "https://api.github.com/repos/PrismarineJS/prismarine-viewer/issues/147",
            "node_id": "MDEyOklzc3VlQ29tbWVudDc5MjMzOTg5OA==",
            "performed_via_github_app": null,
            "reactions": {
                "+1": 0,
                "-1": 0,
                "confused": 0,
                "eyes": 0,
                "heart": 0,
                "hooray": 0,
                "laugh": 0,
                "rocket": 0,
                "total_count": 0,
                "url": "https://api.github.com/repos/PrismarineJS/prismarine-viewer/issues/comments/792339898/reactions"
            },
            "updated_at": "2021-03-07T19:42:44Z",
            "url": "https://api.github.com/repos/PrismarineJS/prismarine-viewer/issues/comments/792339898",
            "user": {
                "avatar_url": "https://avatars.githubusercontent.com/u/2346494?v=4",
                "events_url": "https://api.github.com/users/rom1504/events{/privacy}",
                "followers_url": "https://api.github.com/users/rom1504/followers",
                "following_url": "https://api.github.com/users/rom1504/following{/other_user}",
                "gists_url": "https://api.github.com/users/rom1504/gists{/gist_id}",
                "gravatar_id": "",
                "html_url": "https://github.com/rom1504",
                "id": 2346494,
                "login": "rom1504",
                "node_id": "MDQ6VXNlcjIzNDY0OTQ=",
                "organizations_url": "https://api.github.com/users/rom1504/orgs",
                "received_events_url": "https://api.github.com/users/rom1504/received_events",
                "repos_url": "https://api.github.com/users/rom1504/repos",
                "site_admin": false,
                "starred_url": "https://api.github.com/users/rom1504/starred{/owner}{/repo}",
                "subscriptions_url": "https://api.github.com/users/rom1504/subscriptions",
                "type": "User",
                "url": "https://api.github.com/users/rom1504"
            }
        },
        {
            "author_association": "CONTRIBUTOR",
            "body": "It can't connect to the minecraft server",
            "created_at": "2021-03-09T10:07:53Z",
            "html_url": "https://github.com/PrismarineJS/prismarine-viewer/issues/147#issuecomment-793658666",
            "id": 793658666,
            "issue_url": "https://api.github.com/repos/PrismarineJS/prismarine-viewer/issues/147",
            "node_id": "MDEyOklzc3VlQ29tbWVudDc5MzY1ODY2Ng==",
            "performed_via_github_app": null,
            "reactions": {
                "+1": 0,
                "-1": 0,
                "confused": 0,
                "eyes": 0,
                "heart": 0,
                "hooray": 0,
                "laugh": 0,
                "rocket": 0,
                "total_count": 0,
                "url": "https://api.github.com/repos/PrismarineJS/prismarine-viewer/issues/comments/793658666/reactions"
            },
            "updated_at": "2021-03-09T10:07:53Z",
            "url": "https://api.github.com/repos/PrismarineJS/prismarine-viewer/issues/comments/793658666",
            "user": {
                "avatar_url": "https://avatars.githubusercontent.com/u/57371001?v=4",
                "events_url": "https://api.github.com/users/3top1a/events{/privacy}",
                "followers_url": "https://api.github.com/users/3top1a/followers",
                "following_url": "https://api.github.com/users/3top1a/following{/other_user}",
                "gists_url": "https://api.github.com/users/3top1a/gists{/gist_id}",
                "gravatar_id": "",
                "html_url": "https://github.com/3top1a",
                "id": 57371001,
                "login": "3top1a",
                "node_id": "MDQ6VXNlcjU3MzcxMDAx",
                "organizations_url": "https://api.github.com/users/3top1a/orgs",
                "received_events_url": "https://api.github.com/users/3top1a/received_events",
                "repos_url": "https://api.github.com/users/3top1a/repos",
                "site_admin": false,
                "starred_url": "https://api.github.com/users/3top1a/starred{/owner}{/repo}",
                "subscriptions_url": "https://api.github.com/users/3top1a/subscriptions",
                "type": "User",
                "url": "https://api.github.com/users/3top1a"
            }
        },
        {
            "author_association": "MEMBER",
            "body": "No code ,can't help, reopen if you want to provide details",
            "created_at": "2021-03-09T12:41:54Z",
            "html_url": "https://github.com/PrismarineJS/prismarine-viewer/issues/147#issuecomment-793834101",
            "id": 793834101,
            "issue_url": "https://api.github.com/repos/PrismarineJS/prismarine-viewer/issues/147",
            "node_id": "MDEyOklzc3VlQ29tbWVudDc5MzgzNDEwMQ==",
            "performed_via_github_app": null,
            "reactions": {
                "+1": 0,
                "-1": 0,
                "confused": 0,
                "eyes": 0,
                "heart": 0,
                "hooray": 0,
                "laugh": 0,
                "rocket": 0,
                "total_count": 0,
                "url": "https://api.github.com/repos/PrismarineJS/prismarine-viewer/issues/comments/793834101/reactions"
            },
            "updated_at": "2021-03-09T12:41:54Z",
            "url": "https://api.github.com/repos/PrismarineJS/prismarine-viewer/issues/comments/793834101",
            "user": {
                "avatar_url": "https://avatars.githubusercontent.com/u/2346494?v=4",
                "events_url": "https://api.github.com/users/rom1504/events{/privacy}",
                "followers_url": "https://api.github.com/users/rom1504/followers",
                "following_url": "https://api.github.com/users/rom1504/following{/other_user}",
                "gists_url": "https://api.github.com/users/rom1504/gists{/gist_id}",
                "gravatar_id": "",
                "html_url": "https://github.com/rom1504",
                "id": 2346494,
                "login": "rom1504",
                "node_id": "MDQ6VXNlcjIzNDY0OTQ=",
                "organizations_url": "https://api.github.com/users/rom1504/orgs",
                "received_events_url": "https://api.github.com/users/rom1504/received_events",
                "repos_url": "https://api.github.com/users/rom1504/repos",
                "site_admin": false,
                "starred_url": "https://api.github.com/users/rom1504/starred{/owner}{/repo}",
                "subscriptions_url": "https://api.github.com/users/rom1504/subscriptions",
                "type": "User",
                "url": "https://api.github.com/users/rom1504"
            }
        }
    ],
    "comments": 3,
    "comments_url": "https://api.github.com/repos/PrismarineJS/prismarine-viewer/issues/147/comments",
    "created_at": "2021-03-01T07:29:10Z",
    "event_data": [
        {
            "actor": {
                "avatar_url": "https://avatars.githubusercontent.com/u/2346494?v=4",
                "events_url": "https://api.github.com/users/rom1504/events{/privacy}",
                "followers_url": "https://api.github.com/users/rom1504/followers",
                "following_url": "https://api.github.com/users/rom1504/following{/other_user}",
                "gists_url": "https://api.github.com/users/rom1504/gists{/gist_id}",
                "gravatar_id": "",
                "html_url": "https://github.com/rom1504",
                "id": 2346494,
                "login": "rom1504",
                "node_id": "MDQ6VXNlcjIzNDY0OTQ=",
                "organizations_url": "https://api.github.com/users/rom1504/orgs",
                "received_events_url": "https://api.github.com/users/rom1504/received_events",
                "repos_url": "https://api.github.com/users/rom1504/repos",
                "site_admin": false,
                "starred_url": "https://api.github.com/users/rom1504/starred{/owner}{/repo}",
                "subscriptions_url": "https://api.github.com/users/rom1504/subscriptions",
                "type": "User",
                "url": "https://api.github.com/users/rom1504"
            },
            "commit_id": null,
            "commit_url": null,
            "created_at": "2021-03-09T12:41:54Z",
            "event": "closed",
            "id": 4427860866,
            "node_id": "MDExOkNsb3NlZEV2ZW50NDQyNzg2MDg2Ng==",
            "performed_via_github_app": null,
            "state_reason": null,
            "url": "https://api.github.com/repos/PrismarineJS/prismarine-viewer/issues/events/4427860866"
        }
    ],
    "events_url": "https://api.github.com/repos/PrismarineJS/prismarine-viewer/issues/147/events",
    "html_url": "https://github.com/PrismarineJS/prismarine-viewer/issues/147",
    "id": 818568101,
    "labels": [],
    "labels_url": "https://api.github.com/repos/PrismarineJS/prismarine-viewer/issues/147/labels{/name}",
    "locked": false,
    "milestone": null,
    "node_id": "MDU6SXNzdWU4MTg1NjgxMDE=",
    "number": 147,
    "performed_via_github_app": null,
    "reactions": {
        "+1": 0,
        "-1": 0,
        "confused": 0,
        "eyes": 0,
        "heart": 0,
        "hooray": 0,
        "laugh": 0,
        "rocket": 0,
        "total_count": 0,
        "url": "https://api.github.com/repos/PrismarineJS/prismarine-viewer/issues/147/reactions"
    },
    "repository_url": "https://api.github.com/repos/PrismarineJS/prismarine-viewer",
    "state": "closed",
    "state_reason": "completed",
    "timeline_url": "https://api.github.com/repos/PrismarineJS/prismarine-viewer/issues/147/timeline",
    "title": "bot crashes",
    "updated_at": "2021-03-09T12:41:54Z",
    "url": "https://api.github.com/repos/PrismarineJS/prismarine-viewer/issues/147",
    "user": {
        "avatar_url": "https://avatars.githubusercontent.com/u/53388005?v=4",
        "events_url": "https://api.github.com/users/josephisticated/events{/privacy}",
        "followers_url": "https://api.github.com/users/josephisticated/followers",
        "following_url": "https://api.github.com/users/josephisticated/following{/other_user}",
        "gists_url": "https://api.github.com/users/josephisticated/gists{/gist_id}",
        "gravatar_id": "",
        "html_url": "https://github.com/josephisticated",
        "id": 53388005,
        "login": "josephisticated",
        "node_id": "MDQ6VXNlcjUzMzg4MDA1",
        "organizations_url": "https://api.github.com/users/josephisticated/orgs",
        "received_events_url": "https://api.github.com/users/josephisticated/received_events",
        "repos_url": "https://api.github.com/users/josephisticated/repos",
        "site_admin": false,
        "starred_url": "https://api.github.com/users/josephisticated/starred{/owner}{/repo}",
        "subscriptions_url": "https://api.github.com/users/josephisticated/subscriptions",
        "type": "User",
        "url": "https://api.github.com/users/josephisticated"
    }
}