{
    "active_lock_reason": null,
    "assignee": null,
    "assignees": [],
    "author_association": "NONE",
    "body": "hi theere,e\r\nafter inteegrating this into my bot, and visiing the webpag, i only see mobs and players but no blocks.\r\ni get this mass spam of errors in my browser console (tested chrome)\r\n![image](https://user-images.githubusercontent.com/30929430/150690714-c1faf8ea-90e9-42a0-9fe9-b6b05ac75be5.png)\r\n\r\nusing mc 1.18.1 and latest repo / module versions available using npm i",
    "closed_at": "2022-01-26T00:03:21Z",
    "comment_data": [
        {
            "author_association": "MEMBER",
            "body": "1.18 is not currently supported",
            "created_at": "2022-01-23T18:40:50Z",
            "html_url": "https://github.com/PrismarineJS/prismarine-viewer/issues/240#issuecomment-1019542776",
            "id": 1019542776,
            "issue_url": "https://api.github.com/repos/PrismarineJS/prismarine-viewer/issues/240",
            "node_id": "IC_kwDOEC0DT848xPz4",
            "performed_via_github_app": null,
            "reactions": {
                "+1": 0,
                "-1": 0,
                "confused": 0,
                "eyes": 0,
                "heart": 0,
                "hooray": 0,
                "laugh": 0,
                "rocket": 0,
                "total_count": 0,
                "url": "https://api.github.com/repos/PrismarineJS/prismarine-viewer/issues/comments/1019542776/reactions"
            },
            "updated_at": "2022-01-23T18:40:50Z",
            "url": "https://api.github.com/repos/PrismarineJS/prismarine-viewer/issues/comments/1019542776",
            "user": {
                "avatar_url": "https://avatars.githubusercontent.com/u/13713600?v=4",
                "events_url": "https://api.github.com/users/extremeheat/events{/privacy}",
                "followers_url": "https://api.github.com/users/extremeheat/followers",
                "following_url": "https://api.github.com/users/extremeheat/following{/other_user}",
                "gists_url": "https://api.github.com/users/extremeheat/gists{/gist_id}",
                "gravatar_id": "",
                "html_url": "https://github.com/extremeheat",
                "id": 13713600,
                "login": "extremeheat",
                "node_id": "MDQ6VXNlcjEzNzEzNjAw",
                "organizations_url": "https://api.github.com/users/extremeheat/orgs",
                "received_events_url": "https://api.github.com/users/extremeheat/received_events",
                "repos_url": "https://api.github.com/users/extremeheat/repos",
                "site_admin": false,
                "starred_url": "https://api.github.com/users/extremeheat/starred{/owner}{/repo}",
                "subscriptions_url": "https://api.github.com/users/extremeheat/subscriptions",
                "type": "User",
                "url": "https://api.github.com/users/extremeheat"
            }
        },
        {
            "author_association": "MEMBER",
            "body": "https://github.com/PrismarineJS/prismarine-viewer/pull/241 put instructions on what to do there if you want it",
            "created_at": "2022-01-23T20:35:09Z",
            "html_url": "https://github.com/PrismarineJS/prismarine-viewer/issues/240#issuecomment-1019561965",
            "id": 1019561965,
            "issue_url": "https://api.github.com/repos/PrismarineJS/prismarine-viewer/issues/240",
            "node_id": "IC_kwDOEC0DT848xUft",
            "performed_via_github_app": null,
            "reactions": {
                "+1": 0,
                "-1": 0,
                "confused": 0,
                "eyes": 0,
                "heart": 0,
                "hooray": 0,
                "laugh": 0,
                "rocket": 0,
                "total_count": 0,
                "url": "https://api.github.com/repos/PrismarineJS/prismarine-viewer/issues/comments/1019561965/reactions"
            },
            "updated_at": "2022-01-23T20:35:09Z",
            "url": "https://api.github.com/repos/PrismarineJS/prismarine-viewer/issues/comments/1019561965",
            "user": {
                "avatar_url": "https://avatars.githubusercontent.com/u/2346494?v=4",
                "events_url": "https://api.github.com/users/rom1504/events{/privacy}",
                "followers_url": "https://api.github.com/users/rom1504/followers",
                "following_url": "https://api.github.com/users/rom1504/following{/other_user}",
                "gists_url": "https://api.github.com/users/rom1504/gists{/gist_id}",
                "gravatar_id": "",
                "html_url": "https://github.com/rom1504",
                "id": 2346494,
                "login": "rom1504",
                "node_id": "MDQ6VXNlcjIzNDY0OTQ=",
                "organizations_url": "https://api.github.com/users/rom1504/orgs",
                "received_events_url": "https://api.github.com/users/rom1504/received_events",
                "repos_url": "https://api.github.com/users/rom1504/repos",
                "site_admin": false,
                "starred_url": "https://api.github.com/users/rom1504/starred{/owner}{/repo}",
                "subscriptions_url": "https://api.github.com/users/rom1504/subscriptions",
                "type": "User",
                "url": "https://api.github.com/users/rom1504"
            }
        },
        {
            "author_association": "MEMBER",
            "body": "done",
            "created_at": "2022-01-26T00:03:21Z",
            "html_url": "https://github.com/PrismarineJS/prismarine-viewer/issues/240#issuecomment-1021723455",
            "id": 1021723455,
            "issue_url": "https://api.github.com/repos/PrismarineJS/prismarine-viewer/issues/240",
            "node_id": "IC_kwDOEC0DT8485kM_",
            "performed_via_github_app": null,
            "reactions": {
                "+1": 0,
                "-1": 0,
                "confused": 0,
                "eyes": 0,
                "heart": 0,
                "hooray": 0,
                "laugh": 0,
                "rocket": 0,
                "total_count": 0,
                "url": "https://api.github.com/repos/PrismarineJS/prismarine-viewer/issues/comments/1021723455/reactions"
            },
            "updated_at": "2022-01-26T00:03:21Z",
            "url": "https://api.github.com/repos/PrismarineJS/prismarine-viewer/issues/comments/1021723455",
            "user": {
                "avatar_url": "https://avatars.githubusercontent.com/u/2346494?v=4",
                "events_url": "https://api.github.com/users/rom1504/events{/privacy}",
                "followers_url": "https://api.github.com/users/rom1504/followers",
                "following_url": "https://api.github.com/users/rom1504/following{/other_user}",
                "gists_url": "https://api.github.com/users/rom1504/gists{/gist_id}",
                "gravatar_id": "",
                "html_url": "https://github.com/rom1504",
                "id": 2346494,
                "login": "rom1504",
                "node_id": "MDQ6VXNlcjIzNDY0OTQ=",
                "organizations_url": "https://api.github.com/users/rom1504/orgs",
                "received_events_url": "https://api.github.com/users/rom1504/received_events",
                "repos_url": "https://api.github.com/users/rom1504/repos",
                "site_admin": false,
                "starred_url": "https://api.github.com/users/rom1504/starred{/owner}{/repo}",
                "subscriptions_url": "https://api.github.com/users/rom1504/subscriptions",
                "type": "User",
                "url": "https://api.github.com/users/rom1504"
            }
        }
    ],
    "comments": 3,
    "comments_url": "https://api.github.com/repos/PrismarineJS/prismarine-viewer/issues/240/comments",
    "created_at": "2022-01-23T17:37:08Z",
    "event_data": [
        {
            "actor": {
                "avatar_url": "https://avatars.githubusercontent.com/u/2346494?v=4",
                "events_url": "https://api.github.com/users/rom1504/events{/privacy}",
                "followers_url": "https://api.github.com/users/rom1504/followers",
                "following_url": "https://api.github.com/users/rom1504/following{/other_user}",
                "gists_url": "https://api.github.com/users/rom1504/gists{/gist_id}",
                "gravatar_id": "",
                "html_url": "https://github.com/rom1504",
                "id": 2346494,
                "login": "rom1504",
                "node_id": "MDQ6VXNlcjIzNDY0OTQ=",
                "organizations_url": "https://api.github.com/users/rom1504/orgs",
                "received_events_url": "https://api.github.com/users/rom1504/received_events",
                "repos_url": "https://api.github.com/users/rom1504/repos",
                "site_admin": false,
                "starred_url": "https://api.github.com/users/rom1504/starred{/owner}{/repo}",
                "subscriptions_url": "https://api.github.com/users/rom1504/subscriptions",
                "type": "User",
                "url": "https://api.github.com/users/rom1504"
            },
            "commit_id": null,
            "commit_url": null,
            "created_at": "2022-01-23T20:35:18Z",
            "event": "renamed",
            "id": 5938702490,
            "node_id": "RTE_lADOEC0DT85CRsz8zwAAAAFh-Wia",
            "performed_via_github_app": null,
            "rename": {
                "from": "MAss Spam of errors in console",
                "to": "Support 1.18"
            },
            "url": "https://api.github.com/repos/PrismarineJS/prismarine-viewer/issues/events/5938702490"
        },
        {
            "actor": {
                "avatar_url": "https://avatars.githubusercontent.com/u/2346494?v=4",
                "events_url": "https://api.github.com/users/rom1504/events{/privacy}",
                "followers_url": "https://api.github.com/users/rom1504/followers",
                "following_url": "https://api.github.com/users/rom1504/following{/other_user}",
                "gists_url": "https://api.github.com/users/rom1504/gists{/gist_id}",
                "gravatar_id": "",
                "html_url": "https://github.com/rom1504",
                "id": 2346494,
                "login": "rom1504",
                "node_id": "MDQ6VXNlcjIzNDY0OTQ=",
                "organizations_url": "https://api.github.com/users/rom1504/orgs",
                "received_events_url": "https://api.github.com/users/rom1504/received_events",
                "repos_url": "https://api.github.com/users/rom1504/repos",
                "site_admin": false,
                "starred_url": "https://api.github.com/users/rom1504/starred{/owner}{/repo}",
                "subscriptions_url": "https://api.github.com/users/rom1504/subscriptions",
                "type": "User",
                "url": "https://api.github.com/users/rom1504"
            },
            "commit_id": null,
            "commit_url": null,
            "created_at": "2022-01-26T00:03:21Z",
            "event": "closed",
            "id": 5953553994,
            "node_id": "CE_lADOEC0DT85CRsz8zwAAAAFi3AZK",
            "performed_via_github_app": null,
            "state_reason": null,
            "url": "https://api.github.com/repos/PrismarineJS/prismarine-viewer/issues/events/5953553994"
        }
    ],
    "events_url": "https://api.github.com/repos/PrismarineJS/prismarine-viewer/issues/240/events",
    "html_url": "https://github.com/PrismarineJS/prismarine-viewer/issues/240",
    "id": 1111936252,
    "labels": [],
    "labels_url": "https://api.github.com/repos/PrismarineJS/prismarine-viewer/issues/240/labels{/name}",
    "locked": false,
    "milestone": null,
    "node_id": "I_kwDOEC0DT85CRsz8",
    "number": 240,
    "performed_via_github_app": null,
    "reactions": {
        "+1": 0,
        "-1": 0,
        "confused": 0,
        "eyes": 0,
        "heart": 0,
        "hooray": 0,
        "laugh": 0,
        "rocket": 0,
        "total_count": 0,
        "url": "https://api.github.com/repos/PrismarineJS/prismarine-viewer/issues/240/reactions"
    },
    "repository_url": "https://api.github.com/repos/PrismarineJS/prismarine-viewer",
    "state": "closed",
    "state_reason": "completed",
    "timeline_url": "https://api.github.com/repos/PrismarineJS/prismarine-viewer/issues/240/timeline",
    "title": "Support 1.18",
    "updated_at": "2022-01-26T00:03:21Z",
    "url": "https://api.github.com/repos/PrismarineJS/prismarine-viewer/issues/240",
    "user": {
        "avatar_url": "https://avatars.githubusercontent.com/u/30929430?v=4",
        "events_url": "https://api.github.com/users/NoobKeksTV/events{/privacy}",
        "followers_url": "https://api.github.com/users/NoobKeksTV/followers",
        "following_url": "https://api.github.com/users/NoobKeksTV/following{/other_user}",
        "gists_url": "https://api.github.com/users/NoobKeksTV/gists{/gist_id}",
        "gravatar_id": "",
        "html_url": "https://github.com/NoobKeksTV",
        "id": 30929430,
        "login": "NoobKeksTV",
        "node_id": "MDQ6VXNlcjMwOTI5NDMw",
        "organizations_url": "https://api.github.com/users/NoobKeksTV/orgs",
        "received_events_url": "https://api.github.com/users/NoobKeksTV/received_events",
        "repos_url": "https://api.github.com/users/NoobKeksTV/repos",
        "site_admin": false,
        "starred_url": "https://api.github.com/users/NoobKeksTV/starred{/owner}{/repo}",
        "subscriptions_url": "https://api.github.com/users/NoobKeksTV/subscriptions",
        "type": "User",
        "url": "https://api.github.com/users/NoobKeksTV"
    }
}