{
    "active_lock_reason": null,
    "assignee": null,
    "assignees": [],
    "author_association": "NONE",
    "body": "Is it possible to render what a map shows and make it show on the viewer site?",
    "closed_at": null,
    "comment_data": [],
    "comments": 0,
    "comments_url": "https://api.github.com/repos/PrismarineJS/prismarine-viewer/issues/280/comments",
    "created_at": "2022-07-05T12:19:26Z",
    "event_data": [
        {
            "actor": {
                "avatar_url": "https://avatars.githubusercontent.com/u/2346494?v=4",
                "events_url": "https://api.github.com/users/rom1504/events{/privacy}",
                "followers_url": "https://api.github.com/users/rom1504/followers",
                "following_url": "https://api.github.com/users/rom1504/following{/other_user}",
                "gists_url": "https://api.github.com/users/rom1504/gists{/gist_id}",
                "gravatar_id": "",
                "html_url": "https://github.com/rom1504",
                "id": 2346494,
                "login": "rom1504",
                "node_id": "MDQ6VXNlcjIzNDY0OTQ=",
                "organizations_url": "https://api.github.com/users/rom1504/orgs",
                "received_events_url": "https://api.github.com/users/rom1504/received_events",
                "repos_url": "https://api.github.com/users/rom1504/repos",
                "site_admin": false,
                "starred_url": "https://api.github.com/users/rom1504/starred{/owner}{/repo}",
                "subscriptions_url": "https://api.github.com/users/rom1504/subscriptions",
                "type": "User",
                "url": "https://api.github.com/users/rom1504"
            },
            "commit_id": null,
            "commit_url": null,
            "created_at": "2023-12-17T21:40:43Z",
            "event": "labeled",
            "id": 11269377795,
            "label": {
                "color": "16A2E2",
                "name": "new feature"
            },
            "node_id": "LE_lADOEC0DT85NJEYqzwAAAAKftQ8D",
            "performed_via_github_app": null,
            "url": "https://api.github.com/repos/PrismarineJS/prismarine-viewer/issues/events/11269377795"
        }
    ],
    "events_url": "https://api.github.com/repos/PrismarineJS/prismarine-viewer/issues/280/events",
    "html_url": "https://github.com/PrismarineJS/prismarine-viewer/issues/280",
    "id": 1294222890,
    "labels": [
        {
            "color": "16A2E2",
            "default": false,
            "description": "",
            "id": 2604097850,
            "name": "new feature",
            "node_id": "MDU6TGFiZWwyNjA0MDk3ODUw",
            "url": "https://api.github.com/repos/PrismarineJS/prismarine-viewer/labels/new%20feature"
        }
    ],
    "labels_url": "https://api.github.com/repos/PrismarineJS/prismarine-viewer/issues/280/labels{/name}",
    "locked": false,
    "milestone": null,
    "node_id": "I_kwDOEC0DT85NJEYq",
    "number": 280,
    "performed_via_github_app": null,
    "reactions": {
        "+1": 0,
        "-1": 0,
        "confused": 0,
        "eyes": 0,
        "heart": 0,
        "hooray": 0,
        "laugh": 0,
        "rocket": 0,
        "total_count": 0,
        "url": "https://api.github.com/repos/PrismarineJS/prismarine-viewer/issues/280/reactions"
    },
    "repository_url": "https://api.github.com/repos/PrismarineJS/prismarine-viewer",
    "state": "open",
    "state_reason": null,
    "timeline_url": "https://api.github.com/repos/PrismarineJS/prismarine-viewer/issues/280/timeline",
    "title": "Rendering Maps",
    "updated_at": "2023-12-17T21:40:43Z",
    "url": "https://api.github.com/repos/PrismarineJS/prismarine-viewer/issues/280",
    "user": {
        "avatar_url": "https://avatars.githubusercontent.com/u/86297089?v=4",
        "events_url": "https://api.github.com/users/ItzAaronUwU/events{/privacy}",
        "followers_url": "https://api.github.com/users/ItzAaronUwU/followers",
        "following_url": "https://api.github.com/users/ItzAaronUwU/following{/other_user}",
        "gists_url": "https://api.github.com/users/ItzAaronUwU/gists{/gist_id}",
        "gravatar_id": "",
        "html_url": "https://github.com/ItzAaronUwU",
        "id": 86297089,
        "login": "ItzAaronUwU",
        "node_id": "MDQ6VXNlcjg2Mjk3MDg5",
        "organizations_url": "https://api.github.com/users/ItzAaronUwU/orgs",
        "received_events_url": "https://api.github.com/users/ItzAaronUwU/received_events",
        "repos_url": "https://api.github.com/users/ItzAaronUwU/repos",
        "site_admin": false,
        "starred_url": "https://api.github.com/users/ItzAaronUwU/starred{/owner}{/repo}",
        "subscriptions_url": "https://api.github.com/users/ItzAaronUwU/subscriptions",
        "type": "User",
        "url": "https://api.github.com/users/ItzAaronUwU"
    }
}