{
    "active_lock_reason": null,
    "assignee": null,
    "assignees": [],
    "author_association": "NONE",
    "body": "- [ x] I have carefully read the [FAQ](https://github.com/PrismarineJS/mineflayer/blob/master/docs/FAQ.md) and it does not contain an answer to my question.\r\n- [x ] I have carefully read the [API documentation](https://github.com/PrismarineJS/mineflayer/blob/master/docs/api.md) and it does not contain an answer to my question.\r\n- [x ] I have carefully read the [examples](https://github.com/PrismarineJS/mineflayer/tree/master/examples) and they do not contain an answer to my question.\r\n\r\n<!-- To mark the checkbox, insert `x` into it: [x] -->\r\n\r\n## Versions\r\n - mineflayer: #.#.#\r\n - server: spigot #.#.#\r\n - node: #.#.#\r\n\r\n## Detailed description of a question\r\n\r\n`bot.on('chat', (message) => {`\r\n\t`console.log(message)`\r\n`})`\r\n![image](https://user-images.githubusercontent.com/58649986/89281245-9ea9e300-d66b-11ea-8f3a-83abc41cb6ad.png)\r\n\r\n",
    "closed_at": "2020-08-04T12:52:42Z",
    "comment_data": [
        {
            "author_association": "MEMBER",
            "body": "Can you show your entire code? Also tell us information about the server you are connecting to.",
            "created_at": "2020-08-04T11:33:30Z",
            "html_url": "https://github.com/PrismarineJS/mineflayer/issues/1208#issuecomment-668542854",
            "id": 668542854,
            "issue_url": "https://api.github.com/repos/PrismarineJS/mineflayer/issues/1208",
            "node_id": "MDEyOklzc3VlQ29tbWVudDY2ODU0Mjg1NA==",
            "performed_via_github_app": null,
            "reactions": {
                "+1": 0,
                "-1": 0,
                "confused": 0,
                "eyes": 0,
                "heart": 0,
                "hooray": 0,
                "laugh": 0,
                "rocket": 0,
                "total_count": 0,
                "url": "https://api.github.com/repos/PrismarineJS/mineflayer/issues/comments/668542854/reactions"
            },
            "updated_at": "2020-08-04T11:33:30Z",
            "url": "https://api.github.com/repos/PrismarineJS/mineflayer/issues/comments/668542854",
            "user": {
                "avatar_url": "https://avatars.githubusercontent.com/u/3118172?v=4",
                "events_url": "https://api.github.com/users/TheDudeFromCI/events{/privacy}",
                "followers_url": "https://api.github.com/users/TheDudeFromCI/followers",
                "following_url": "https://api.github.com/users/TheDudeFromCI/following{/other_user}",
                "gists_url": "https://api.github.com/users/TheDudeFromCI/gists{/gist_id}",
                "gravatar_id": "",
                "html_url": "https://github.com/TheDudeFromCI",
                "id": 3118172,
                "login": "TheDudeFromCI",
                "node_id": "MDQ6VXNlcjMxMTgxNzI=",
                "organizations_url": "https://api.github.com/users/TheDudeFromCI/orgs",
                "received_events_url": "https://api.github.com/users/TheDudeFromCI/received_events",
                "repos_url": "https://api.github.com/users/TheDudeFromCI/repos",
                "site_admin": false,
                "starred_url": "https://api.github.com/users/TheDudeFromCI/starred{/owner}{/repo}",
                "subscriptions_url": "https://api.github.com/users/TheDudeFromCI/subscriptions",
                "type": "User",
                "url": "https://api.github.com/users/TheDudeFromCI"
            }
        },
        {
            "author_association": "MEMBER",
            "body": "You've been asked in other issues to fill the template correctly. If you don't provide enough information we cannot solve your issues.\r\n\r\nThe error you shown have nothing to do with the chat message. Please reopen when you can fill the template properly",
            "created_at": "2020-08-04T12:52:42Z",
            "html_url": "https://github.com/PrismarineJS/mineflayer/issues/1208#issuecomment-668577930",
            "id": 668577930,
            "issue_url": "https://api.github.com/repos/PrismarineJS/mineflayer/issues/1208",
            "node_id": "MDEyOklzc3VlQ29tbWVudDY2ODU3NzkzMA==",
            "performed_via_github_app": null,
            "reactions": {
                "+1": 0,
                "-1": 0,
                "confused": 0,
                "eyes": 0,
                "heart": 0,
                "hooray": 0,
                "laugh": 0,
                "rocket": 0,
                "total_count": 0,
                "url": "https://api.github.com/repos/PrismarineJS/mineflayer/issues/comments/668577930/reactions"
            },
            "updated_at": "2020-08-04T12:52:42Z",
            "url": "https://api.github.com/repos/PrismarineJS/mineflayer/issues/comments/668577930",
            "user": {
                "avatar_url": "https://avatars.githubusercontent.com/u/1977472?v=4",
                "events_url": "https://api.github.com/users/Karang/events{/privacy}",
                "followers_url": "https://api.github.com/users/Karang/followers",
                "following_url": "https://api.github.com/users/Karang/following{/other_user}",
                "gists_url": "https://api.github.com/users/Karang/gists{/gist_id}",
                "gravatar_id": "",
                "html_url": "https://github.com/Karang",
                "id": 1977472,
                "login": "Karang",
                "node_id": "MDQ6VXNlcjE5Nzc0NzI=",
                "organizations_url": "https://api.github.com/users/Karang/orgs",
                "received_events_url": "https://api.github.com/users/Karang/received_events",
                "repos_url": "https://api.github.com/users/Karang/repos",
                "site_admin": false,
                "starred_url": "https://api.github.com/users/Karang/starred{/owner}{/repo}",
                "subscriptions_url": "https://api.github.com/users/Karang/subscriptions",
                "type": "User",
                "url": "https://api.github.com/users/Karang"
            }
        }
    ],
    "comments": 2,
    "comments_url": "https://api.github.com/repos/PrismarineJS/mineflayer/issues/1208/comments",
    "created_at": "2020-08-04T10:00:35Z",
    "event_data": [
        {
            "actor": null,
            "commit_id": null,
            "commit_url": null,
            "created_at": "2020-08-04T10:00:35Z",
            "event": "labeled",
            "id": 3619504695,
            "label": {
                "color": "d8f263",
                "name": "question"
            },
            "node_id": "MDEyOkxhYmVsZWRFdmVudDM2MTk1MDQ2OTU=",
            "performed_via_github_app": null,
            "url": "https://api.github.com/repos/PrismarineJS/mineflayer/issues/events/3619504695"
        },
        {
            "actor": {
                "avatar_url": "https://avatars.githubusercontent.com/u/1977472?v=4",
                "events_url": "https://api.github.com/users/Karang/events{/privacy}",
                "followers_url": "https://api.github.com/users/Karang/followers",
                "following_url": "https://api.github.com/users/Karang/following{/other_user}",
                "gists_url": "https://api.github.com/users/Karang/gists{/gist_id}",
                "gravatar_id": "",
                "html_url": "https://github.com/Karang",
                "id": 1977472,
                "login": "Karang",
                "node_id": "MDQ6VXNlcjE5Nzc0NzI=",
                "organizations_url": "https://api.github.com/users/Karang/orgs",
                "received_events_url": "https://api.github.com/users/Karang/received_events",
                "repos_url": "https://api.github.com/users/Karang/repos",
                "site_admin": false,
                "starred_url": "https://api.github.com/users/Karang/starred{/owner}{/repo}",
                "subscriptions_url": "https://api.github.com/users/Karang/subscriptions",
                "type": "User",
                "url": "https://api.github.com/users/Karang"
            },
            "commit_id": null,
            "commit_url": null,
            "created_at": "2020-08-04T12:52:42Z",
            "event": "closed",
            "id": 3620095869,
            "node_id": "MDExOkNsb3NlZEV2ZW50MzYyMDA5NTg2OQ==",
            "performed_via_github_app": null,
            "state_reason": null,
            "url": "https://api.github.com/repos/PrismarineJS/mineflayer/issues/events/3620095869"
        }
    ],
    "events_url": "https://api.github.com/repos/PrismarineJS/mineflayer/issues/1208/events",
    "html_url": "https://github.com/PrismarineJS/mineflayer/issues/1208",
    "id": 672668016,
    "labels": [
        {
            "color": "d8f263",
            "default": true,
            "description": "",
            "id": 1208461827,
            "name": "question",
            "node_id": "MDU6TGFiZWwxMjA4NDYxODI3",
            "url": "https://api.github.com/repos/PrismarineJS/mineflayer/labels/question"
        }
    ],
    "labels_url": "https://api.github.com/repos/PrismarineJS/mineflayer/issues/1208/labels{/name}",
    "locked": false,
    "milestone": null,
    "node_id": "MDU6SXNzdWU2NzI2NjgwMTY=",
    "number": 1208,
    "performed_via_github_app": null,
    "reactions": {
        "+1": 0,
        "-1": 0,
        "confused": 0,
        "eyes": 0,
        "heart": 0,
        "hooray": 0,
        "laugh": 0,
        "rocket": 0,
        "total_count": 0,
        "url": "https://api.github.com/repos/PrismarineJS/mineflayer/issues/1208/reactions"
    },
    "repository_url": "https://api.github.com/repos/PrismarineJS/mineflayer",
    "state": "closed",
    "state_reason": "completed",
    "timeline_url": "https://api.github.com/repos/PrismarineJS/mineflayer/issues/1208/timeline",
    "title": "when the chat is displayed in the console, an error is displayed",
    "updated_at": "2020-08-04T12:52:42Z",
    "url": "https://api.github.com/repos/PrismarineJS/mineflayer/issues/1208",
    "user": {
        "avatar_url": "https://avatars.githubusercontent.com/u/10137?v=4",
        "events_url": "https://api.github.com/users/ghost/events{/privacy}",
        "followers_url": "https://api.github.com/users/ghost/followers",
        "following_url": "https://api.github.com/users/ghost/following{/other_user}",
        "gists_url": "https://api.github.com/users/ghost/gists{/gist_id}",
        "gravatar_id": "",
        "html_url": "https://github.com/ghost",
        "id": 10137,
        "login": "ghost",
        "node_id": "MDQ6VXNlcjEwMTM3",
        "organizations_url": "https://api.github.com/users/ghost/orgs",
        "received_events_url": "https://api.github.com/users/ghost/received_events",
        "repos_url": "https://api.github.com/users/ghost/repos",
        "site_admin": false,
        "starred_url": "https://api.github.com/users/ghost/starred{/owner}{/repo}",
        "subscriptions_url": "https://api.github.com/users/ghost/subscriptions",
        "type": "User",
        "url": "https://api.github.com/users/ghost"
    }
}