{
    "active_lock_reason": null,
    "assignee": null,
    "assignees": [],
    "author_association": "NONE",
    "body": "- [ x] The [FAQ](https://github.com/PrismarineJS/mineflayer/blob/master/docs/FAQ.md) doesn't contain a resolution to my issue \r\n\r\n## Versions\r\n - mineflayer: latest\r\n - server: vanilla/spigot/paper latest / vanilla / spigot\r\n - node: latest\r\n\r\n## Detailed description of a problem\r\nThe bot does not handle mining blocks well. If it mines sand under sand, it somehow gets stuck everytime (maybe it doesnt see all block updates or the \"client\" doesn't take falling blocks into consideration).\r\nIf you let it mine ores for long enough exactly the same getting stuck happens. It just thinks the block it mined was mined but it wasn't!\r\n\r\n\r\n## Your current code\r\n```js\r\n\r\n/*\r\nAny collect block example\r\n*/\r\n\r\n\r\n```\r\n\r\n## Expected behavior\r\nI expect it to recognize if the server lags or rather waits for confirmation or block updates.\r\n",
    "closed_at": "2021-03-11T22:59:50Z",
    "comment_data": [
        {
            "author_association": "MEMBER",
            "body": "Can you send any collect block example so people that want to work on\nfixing this can reproduce?\n\nOn Sat, Mar 6, 2021, 19:54 Sinan Akkoyun <notifications@github.com> wrote:\n\n>\n>    - [ x] The FAQ\n>    <https://github.com/PrismarineJS/mineflayer/blob/master/docs/FAQ.md>\n>    doesn't contain a resolution to my issue\n>\n> Versions\n>\n>    - mineflayer: latest\n>    - server: vanilla/spigot/paper latest\n>    - node: latest\n>\n> Detailed description of a problem\n>\n> The bot does not handle mining blocks well. If it mines sand under sand,\n> it somehow gets stuck everytime (maybe it doesnt see all block updates or\n> the \"client\" doesn't take falling blocks into consideration).\n> If you let it mine ores for long enough exactly the same getting stuck\n> happens. It just thinks the block it mined was mined but it wasn't!\n> Your current code\n>\n> /*Any collect block example*/\n>\n> Expected behavior\n>\n> I expect it to recognize if the server lags or rather waits for\n> confirmation or block updates.\n>\n> —\n> You are receiving this because you are subscribed to this thread.\n> Reply to this email directly, view it on GitHub\n> <https://github.com/PrismarineJS/mineflayer/issues/1737>, or unsubscribe\n> <https://github.com/notifications/unsubscribe-auth/AAR437TPXUHVRF2GODA3Z23TCJ27JANCNFSM4YXACOQQ>\n> .\n>\n",
            "created_at": "2021-03-06T19:07:44Z",
            "html_url": "https://github.com/PrismarineJS/mineflayer/issues/1737#issuecomment-792027938",
            "id": 792027938,
            "issue_url": "https://api.github.com/repos/PrismarineJS/mineflayer/issues/1737",
            "node_id": "MDEyOklzc3VlQ29tbWVudDc5MjAyNzkzOA==",
            "performed_via_github_app": null,
            "reactions": {
                "+1": 0,
                "-1": 0,
                "confused": 0,
                "eyes": 0,
                "heart": 0,
                "hooray": 0,
                "laugh": 0,
                "rocket": 0,
                "total_count": 0,
                "url": "https://api.github.com/repos/PrismarineJS/mineflayer/issues/comments/792027938/reactions"
            },
            "updated_at": "2021-03-06T19:07:44Z",
            "url": "https://api.github.com/repos/PrismarineJS/mineflayer/issues/comments/792027938",
            "user": {
                "avatar_url": "https://avatars.githubusercontent.com/u/2346494?v=4",
                "events_url": "https://api.github.com/users/rom1504/events{/privacy}",
                "followers_url": "https://api.github.com/users/rom1504/followers",
                "following_url": "https://api.github.com/users/rom1504/following{/other_user}",
                "gists_url": "https://api.github.com/users/rom1504/gists{/gist_id}",
                "gravatar_id": "",
                "html_url": "https://github.com/rom1504",
                "id": 2346494,
                "login": "rom1504",
                "node_id": "MDQ6VXNlcjIzNDY0OTQ=",
                "organizations_url": "https://api.github.com/users/rom1504/orgs",
                "received_events_url": "https://api.github.com/users/rom1504/received_events",
                "repos_url": "https://api.github.com/users/rom1504/repos",
                "site_admin": false,
                "starred_url": "https://api.github.com/users/rom1504/starred{/owner}{/repo}",
                "subscriptions_url": "https://api.github.com/users/rom1504/subscriptions",
                "type": "User",
                "url": "https://api.github.com/users/rom1504"
            }
        },
        {
            "author_association": "CONTRIBUTOR",
            "body": "Hi Sinan had a similar issue, you must be check is still mining before to do next action => bot.pathfinder.isMining()",
            "created_at": "2021-03-06T19:16:03Z",
            "html_url": "https://github.com/PrismarineJS/mineflayer/issues/1737#issuecomment-792030495",
            "id": 792030495,
            "issue_url": "https://api.github.com/repos/PrismarineJS/mineflayer/issues/1737",
            "node_id": "MDEyOklzc3VlQ29tbWVudDc5MjAzMDQ5NQ==",
            "performed_via_github_app": null,
            "reactions": {
                "+1": 0,
                "-1": 0,
                "confused": 0,
                "eyes": 0,
                "heart": 0,
                "hooray": 0,
                "laugh": 0,
                "rocket": 0,
                "total_count": 0,
                "url": "https://api.github.com/repos/PrismarineJS/mineflayer/issues/comments/792030495/reactions"
            },
            "updated_at": "2021-03-06T19:16:03Z",
            "url": "https://api.github.com/repos/PrismarineJS/mineflayer/issues/comments/792030495",
            "user": {
                "avatar_url": "https://avatars.githubusercontent.com/u/20754836?v=4",
                "events_url": "https://api.github.com/users/sefirosweb/events{/privacy}",
                "followers_url": "https://api.github.com/users/sefirosweb/followers",
                "following_url": "https://api.github.com/users/sefirosweb/following{/other_user}",
                "gists_url": "https://api.github.com/users/sefirosweb/gists{/gist_id}",
                "gravatar_id": "",
                "html_url": "https://github.com/sefirosweb",
                "id": 20754836,
                "login": "sefirosweb",
                "node_id": "MDQ6VXNlcjIwNzU0ODM2",
                "organizations_url": "https://api.github.com/users/sefirosweb/orgs",
                "received_events_url": "https://api.github.com/users/sefirosweb/received_events",
                "repos_url": "https://api.github.com/users/sefirosweb/repos",
                "site_admin": false,
                "starred_url": "https://api.github.com/users/sefirosweb/starred{/owner}{/repo}",
                "subscriptions_url": "https://api.github.com/users/sefirosweb/subscriptions",
                "type": "User",
                "url": "https://api.github.com/users/sefirosweb"
            }
        },
        {
            "author_association": "NONE",
            "body": "> Can you send any collect block example so people that want to work on\n> fixing this can reproduce?\n> \n> On Sat, Mar 6, 2021, 19:54 Sinan Akkoyun <notifications@github.com> wrote:\n> \n> >\n> >    - [ x] The FAQ\n> >    <https://github.com/PrismarineJS/mineflayer/blob/master/docs/FAQ.md>\n> >    doesn't contain a resolution to my issue\n> >\n> > Versions\n> >\n> >    - mineflayer: latest\n> >    - server: vanilla/spigot/paper latest\n> >    - node: latest\n> >\n> > Detailed description of a problem\n> >\n> > The bot does not handle mining blocks well. If it mines sand under sand,\n> > it somehow gets stuck everytime (maybe it doesnt see all block updates or\n> > the \"client\" doesn't take falling blocks into consideration).\n> > If you let it mine ores for long enough exactly the same getting stuck\n> > happens. It just thinks the block it mined was mined but it wasn't!\n> > Your current code\n> >\n> > /*Any collect block example*/\n> >\n> > Expected behavior\n> >\n> > I expect it to recognize if the server lags or rather waits for\n> > confirmation or block updates.\n> >\n> > —\n> > You are receiving this because you are subscribed to this thread.\n> > Reply to this email directly, view it on GitHub\n> > <https://github.com/PrismarineJS/mineflayer/issues/1737>, or unsubscribe\n> > <https://github.com/notifications/unsubscribe-auth/AAR437TPXUHVRF2GODA3Z23TCJ27JANCNFSM4YXACOQQ>\n> > .\n> >\n> \n\nOf course, sorry, here is my code:\n\n```js\nif (args[0] === 'collect') {\n        let count = 1\n        if (args.length === 3)\n            count = parseInt(args[1])\n\n        let type = args[1]\n        if (args.length === 3)\n            type = args[2]\n\n        const blockType = mcData.blocksByName[type]\n        if (!blockType) {\n            bot.chat(\"I don't know any blocks with that name: \" + type)\n            return\n        }\n\n        const blocks = bot.findBlocks({\n            matching: blockType.id,\n            maxDistance: 64,\n            count: count\n          })\n\n          if (blocks.length === 0) {\n            bot.chat(\"I don't see that block nearby.\")\n            return\n          }\n\n          const targets = []\n          for (let i = 0; i < Math.min(blocks.length, count); i++) {\n            targets.push(bot.blockAt(blocks[i]))\n          }\n\n          bot.chat(`Found ${targets.length} ${type}(s)`)\n\n          collect = targets\n\n          bot.collectBlock.collect(collect, err => {\n            if (err) {\n              // An error occurred, report it.\n              bot.chat(err.message)\n              console.log(err)\n              collect = undefined\n            } else {\n              // All blocks have been collected.\n              bot.chat('Done')\n              collect = undefined\n            }\n          })\n    }\n```\n\nI took this from an example\n\nWhen you let it mine sand on a server or for example diamond_ore for a very long time it starts to stop mid operation",
            "created_at": "2021-03-07T08:27:13Z",
            "html_url": "https://github.com/PrismarineJS/mineflayer/issues/1737#issuecomment-792238044",
            "id": 792238044,
            "issue_url": "https://api.github.com/repos/PrismarineJS/mineflayer/issues/1737",
            "node_id": "MDEyOklzc3VlQ29tbWVudDc5MjIzODA0NA==",
            "performed_via_github_app": null,
            "reactions": {
                "+1": 0,
                "-1": 0,
                "confused": 0,
                "eyes": 0,
                "heart": 0,
                "hooray": 0,
                "laugh": 0,
                "rocket": 0,
                "total_count": 0,
                "url": "https://api.github.com/repos/PrismarineJS/mineflayer/issues/comments/792238044/reactions"
            },
            "updated_at": "2021-03-07T08:27:13Z",
            "url": "https://api.github.com/repos/PrismarineJS/mineflayer/issues/comments/792238044",
            "user": {
                "avatar_url": "https://avatars.githubusercontent.com/u/43215895?v=4",
                "events_url": "https://api.github.com/users/SinanAkkoyun/events{/privacy}",
                "followers_url": "https://api.github.com/users/SinanAkkoyun/followers",
                "following_url": "https://api.github.com/users/SinanAkkoyun/following{/other_user}",
                "gists_url": "https://api.github.com/users/SinanAkkoyun/gists{/gist_id}",
                "gravatar_id": "",
                "html_url": "https://github.com/SinanAkkoyun",
                "id": 43215895,
                "login": "SinanAkkoyun",
                "node_id": "MDQ6VXNlcjQzMjE1ODk1",
                "organizations_url": "https://api.github.com/users/SinanAkkoyun/orgs",
                "received_events_url": "https://api.github.com/users/SinanAkkoyun/received_events",
                "repos_url": "https://api.github.com/users/SinanAkkoyun/repos",
                "site_admin": false,
                "starred_url": "https://api.github.com/users/SinanAkkoyun/starred{/owner}{/repo}",
                "subscriptions_url": "https://api.github.com/users/SinanAkkoyun/subscriptions",
                "type": "User",
                "url": "https://api.github.com/users/SinanAkkoyun"
            }
        },
        {
            "author_association": "CONTRIBUTOR",
            "body": "The collect block plugin doesn't support minelfayer 3.X\r\n\r\nso you will constantly have issues while using it. Currently, the best alternative is making your own mine function.",
            "created_at": "2021-03-07T22:19:54Z",
            "html_url": "https://github.com/PrismarineJS/mineflayer/issues/1737#issuecomment-792364003",
            "id": 792364003,
            "issue_url": "https://api.github.com/repos/PrismarineJS/mineflayer/issues/1737",
            "node_id": "MDEyOklzc3VlQ29tbWVudDc5MjM2NDAwMw==",
            "performed_via_github_app": null,
            "reactions": {
                "+1": 0,
                "-1": 0,
                "confused": 0,
                "eyes": 0,
                "heart": 0,
                "hooray": 0,
                "laugh": 0,
                "rocket": 0,
                "total_count": 0,
                "url": "https://api.github.com/repos/PrismarineJS/mineflayer/issues/comments/792364003/reactions"
            },
            "updated_at": "2021-03-07T22:19:54Z",
            "url": "https://api.github.com/repos/PrismarineJS/mineflayer/issues/comments/792364003",
            "user": {
                "avatar_url": "https://avatars.githubusercontent.com/u/72399198?v=4",
                "events_url": "https://api.github.com/users/Zn10plays/events{/privacy}",
                "followers_url": "https://api.github.com/users/Zn10plays/followers",
                "following_url": "https://api.github.com/users/Zn10plays/following{/other_user}",
                "gists_url": "https://api.github.com/users/Zn10plays/gists{/gist_id}",
                "gravatar_id": "",
                "html_url": "https://github.com/Zn10plays",
                "id": 72399198,
                "login": "Zn10plays",
                "node_id": "MDQ6VXNlcjcyMzk5MTk4",
                "organizations_url": "https://api.github.com/users/Zn10plays/orgs",
                "received_events_url": "https://api.github.com/users/Zn10plays/received_events",
                "repos_url": "https://api.github.com/users/Zn10plays/repos",
                "site_admin": false,
                "starred_url": "https://api.github.com/users/Zn10plays/starred{/owner}{/repo}",
                "subscriptions_url": "https://api.github.com/users/Zn10plays/subscriptions",
                "type": "User",
                "url": "https://api.github.com/users/Zn10plays"
            }
        },
        {
            "author_association": "MEMBER",
            "body": "can you open collect block issues on collect block repo ?",
            "created_at": "2021-03-11T22:59:50Z",
            "html_url": "https://github.com/PrismarineJS/mineflayer/issues/1737#issuecomment-797106480",
            "id": 797106480,
            "issue_url": "https://api.github.com/repos/PrismarineJS/mineflayer/issues/1737",
            "node_id": "MDEyOklzc3VlQ29tbWVudDc5NzEwNjQ4MA==",
            "performed_via_github_app": null,
            "reactions": {
                "+1": 0,
                "-1": 0,
                "confused": 0,
                "eyes": 0,
                "heart": 0,
                "hooray": 0,
                "laugh": 0,
                "rocket": 0,
                "total_count": 0,
                "url": "https://api.github.com/repos/PrismarineJS/mineflayer/issues/comments/797106480/reactions"
            },
            "updated_at": "2021-03-11T22:59:50Z",
            "url": "https://api.github.com/repos/PrismarineJS/mineflayer/issues/comments/797106480",
            "user": {
                "avatar_url": "https://avatars.githubusercontent.com/u/2346494?v=4",
                "events_url": "https://api.github.com/users/rom1504/events{/privacy}",
                "followers_url": "https://api.github.com/users/rom1504/followers",
                "following_url": "https://api.github.com/users/rom1504/following{/other_user}",
                "gists_url": "https://api.github.com/users/rom1504/gists{/gist_id}",
                "gravatar_id": "",
                "html_url": "https://github.com/rom1504",
                "id": 2346494,
                "login": "rom1504",
                "node_id": "MDQ6VXNlcjIzNDY0OTQ=",
                "organizations_url": "https://api.github.com/users/rom1504/orgs",
                "received_events_url": "https://api.github.com/users/rom1504/received_events",
                "repos_url": "https://api.github.com/users/rom1504/repos",
                "site_admin": false,
                "starred_url": "https://api.github.com/users/rom1504/starred{/owner}{/repo}",
                "subscriptions_url": "https://api.github.com/users/rom1504/subscriptions",
                "type": "User",
                "url": "https://api.github.com/users/rom1504"
            }
        }
    ],
    "comments": 5,
    "comments_url": "https://api.github.com/repos/PrismarineJS/mineflayer/issues/1737/comments",
    "created_at": "2021-03-06T18:54:31Z",
    "event_data": [
        {
            "actor": {
                "avatar_url": "https://avatars.githubusercontent.com/u/43215895?v=4",
                "events_url": "https://api.github.com/users/SinanAkkoyun/events{/privacy}",
                "followers_url": "https://api.github.com/users/SinanAkkoyun/followers",
                "following_url": "https://api.github.com/users/SinanAkkoyun/following{/other_user}",
                "gists_url": "https://api.github.com/users/SinanAkkoyun/gists{/gist_id}",
                "gravatar_id": "",
                "html_url": "https://github.com/SinanAkkoyun",
                "id": 43215895,
                "login": "SinanAkkoyun",
                "node_id": "MDQ6VXNlcjQzMjE1ODk1",
                "organizations_url": "https://api.github.com/users/SinanAkkoyun/orgs",
                "received_events_url": "https://api.github.com/users/SinanAkkoyun/received_events",
                "repos_url": "https://api.github.com/users/SinanAkkoyun/repos",
                "site_admin": false,
                "starred_url": "https://api.github.com/users/SinanAkkoyun/starred{/owner}{/repo}",
                "subscriptions_url": "https://api.github.com/users/SinanAkkoyun/subscriptions",
                "type": "User",
                "url": "https://api.github.com/users/SinanAkkoyun"
            },
            "commit_id": null,
            "commit_url": null,
            "created_at": "2021-03-06T18:54:31Z",
            "event": "labeled",
            "id": 4417170909,
            "label": {
                "color": "bfdadc",
                "name": "Stage1"
            },
            "node_id": "MDEyOkxhYmVsZWRFdmVudDQ0MTcxNzA5MDk=",
            "performed_via_github_app": null,
            "url": "https://api.github.com/repos/PrismarineJS/mineflayer/issues/events/4417170909"
        },
        {
            "actor": {
                "avatar_url": "https://avatars.githubusercontent.com/u/43215895?v=4",
                "events_url": "https://api.github.com/users/SinanAkkoyun/events{/privacy}",
                "followers_url": "https://api.github.com/users/SinanAkkoyun/followers",
                "following_url": "https://api.github.com/users/SinanAkkoyun/following{/other_user}",
                "gists_url": "https://api.github.com/users/SinanAkkoyun/gists{/gist_id}",
                "gravatar_id": "",
                "html_url": "https://github.com/SinanAkkoyun",
                "id": 43215895,
                "login": "SinanAkkoyun",
                "node_id": "MDQ6VXNlcjQzMjE1ODk1",
                "organizations_url": "https://api.github.com/users/SinanAkkoyun/orgs",
                "received_events_url": "https://api.github.com/users/SinanAkkoyun/received_events",
                "repos_url": "https://api.github.com/users/SinanAkkoyun/repos",
                "site_admin": false,
                "starred_url": "https://api.github.com/users/SinanAkkoyun/starred{/owner}{/repo}",
                "subscriptions_url": "https://api.github.com/users/SinanAkkoyun/subscriptions",
                "type": "User",
                "url": "https://api.github.com/users/SinanAkkoyun"
            },
            "commit_id": null,
            "commit_url": null,
            "created_at": "2021-03-06T18:54:31Z",
            "event": "labeled",
            "id": 4417170910,
            "label": {
                "color": "ba232f",
                "name": "possible bug"
            },
            "node_id": "MDEyOkxhYmVsZWRFdmVudDQ0MTcxNzA5MTA=",
            "performed_via_github_app": null,
            "url": "https://api.github.com/repos/PrismarineJS/mineflayer/issues/events/4417170910"
        },
        {
            "actor": {
                "avatar_url": "https://avatars.githubusercontent.com/u/2346494?v=4",
                "events_url": "https://api.github.com/users/rom1504/events{/privacy}",
                "followers_url": "https://api.github.com/users/rom1504/followers",
                "following_url": "https://api.github.com/users/rom1504/following{/other_user}",
                "gists_url": "https://api.github.com/users/rom1504/gists{/gist_id}",
                "gravatar_id": "",
                "html_url": "https://github.com/rom1504",
                "id": 2346494,
                "login": "rom1504",
                "node_id": "MDQ6VXNlcjIzNDY0OTQ=",
                "organizations_url": "https://api.github.com/users/rom1504/orgs",
                "received_events_url": "https://api.github.com/users/rom1504/received_events",
                "repos_url": "https://api.github.com/users/rom1504/repos",
                "site_admin": false,
                "starred_url": "https://api.github.com/users/rom1504/starred{/owner}{/repo}",
                "subscriptions_url": "https://api.github.com/users/rom1504/subscriptions",
                "type": "User",
                "url": "https://api.github.com/users/rom1504"
            },
            "commit_id": null,
            "commit_url": null,
            "created_at": "2021-03-11T22:59:50Z",
            "event": "closed",
            "id": 4447867472,
            "node_id": "MDExOkNsb3NlZEV2ZW50NDQ0Nzg2NzQ3Mg==",
            "performed_via_github_app": null,
            "state_reason": null,
            "url": "https://api.github.com/repos/PrismarineJS/mineflayer/issues/events/4447867472"
        }
    ],
    "events_url": "https://api.github.com/repos/PrismarineJS/mineflayer/issues/1737/events",
    "html_url": "https://github.com/PrismarineJS/mineflayer/issues/1737",
    "id": 823720942,
    "labels": [
        {
            "color": "ba232f",
            "default": false,
            "description": "",
            "id": 1346729768,
            "name": "possible bug",
            "node_id": "MDU6TGFiZWwxMzQ2NzI5NzY4",
            "url": "https://api.github.com/repos/PrismarineJS/mineflayer/labels/possible%20bug"
        },
        {
            "color": "bfdadc",
            "default": false,
            "description": "just created by someone new to the project, we don't know yet if it deserves an implementation / a f",
            "id": 2720118317,
            "name": "Stage1",
            "node_id": "MDU6TGFiZWwyNzIwMTE4MzE3",
            "url": "https://api.github.com/repos/PrismarineJS/mineflayer/labels/Stage1"
        }
    ],
    "labels_url": "https://api.github.com/repos/PrismarineJS/mineflayer/issues/1737/labels{/name}",
    "locked": false,
    "milestone": null,
    "node_id": "MDU6SXNzdWU4MjM3MjA5NDI=",
    "number": 1737,
    "performed_via_github_app": null,
    "reactions": {
        "+1": 0,
        "-1": 0,
        "confused": 0,
        "eyes": 0,
        "heart": 0,
        "hooray": 0,
        "laugh": 0,
        "rocket": 0,
        "total_count": 0,
        "url": "https://api.github.com/repos/PrismarineJS/mineflayer/issues/1737/reactions"
    },
    "repository_url": "https://api.github.com/repos/PrismarineJS/mineflayer",
    "state": "closed",
    "state_reason": "completed",
    "timeline_url": "https://api.github.com/repos/PrismarineJS/mineflayer/issues/1737/timeline",
    "title": "Block updates messed up",
    "updated_at": "2021-03-11T22:59:51Z",
    "url": "https://api.github.com/repos/PrismarineJS/mineflayer/issues/1737",
    "user": {
        "avatar_url": "https://avatars.githubusercontent.com/u/43215895?v=4",
        "events_url": "https://api.github.com/users/SinanAkkoyun/events{/privacy}",
        "followers_url": "https://api.github.com/users/SinanAkkoyun/followers",
        "following_url": "https://api.github.com/users/SinanAkkoyun/following{/other_user}",
        "gists_url": "https://api.github.com/users/SinanAkkoyun/gists{/gist_id}",
        "gravatar_id": "",
        "html_url": "https://github.com/SinanAkkoyun",
        "id": 43215895,
        "login": "SinanAkkoyun",
        "node_id": "MDQ6VXNlcjQzMjE1ODk1",
        "organizations_url": "https://api.github.com/users/SinanAkkoyun/orgs",
        "received_events_url": "https://api.github.com/users/SinanAkkoyun/received_events",
        "repos_url": "https://api.github.com/users/SinanAkkoyun/repos",
        "site_admin": false,
        "starred_url": "https://api.github.com/users/SinanAkkoyun/starred{/owner}{/repo}",
        "subscriptions_url": "https://api.github.com/users/SinanAkkoyun/subscriptions",
        "type": "User",
        "url": "https://api.github.com/users/SinanAkkoyun"
    }
}