{
    "active_lock_reason": null,
    "assignee": null,
    "assignees": [],
    "author_association": "CONTRIBUTOR",
    "body": "Implement support for the remaining Block Entities.\n- [ ] Anvils (https://github.com/andrewrk/mineflayer/issues/120)\n- [ ] Brewing Stands (https://github.com/andrewrk/mineflayer/issues/119)\n- [ ] Beacon\n\nComment if I've missed some.\n\nA more modular approach to this might be to split the implementation of inventories out of the inventory plugin and have the inventory plugin as a generic base class.\n\nThen Chests, Furnaces, Anvils etc would become their own file.\n",
    "closed_at": "2016-04-15T14:05:52Z",
    "comment_data": [
        {
            "author_association": "MEMBER",
            "body": "tile entities are now called block entities (see http://minecraft.gamepedia.com/Block_entity). Changing the title of that issue.\n",
            "created_at": "2015-04-01T10:55:31Z",
            "html_url": "https://github.com/PrismarineJS/mineflayer/issues/179#issuecomment-88439002",
            "id": 88439002,
            "issue_url": "https://api.github.com/repos/PrismarineJS/mineflayer/issues/179",
            "node_id": "MDEyOklzc3VlQ29tbWVudDg4NDM5MDAy",
            "performed_via_github_app": null,
            "reactions": {
                "+1": 0,
                "-1": 0,
                "confused": 0,
                "eyes": 0,
                "heart": 0,
                "hooray": 0,
                "laugh": 0,
                "rocket": 0,
                "total_count": 0,
                "url": "https://api.github.com/repos/PrismarineJS/mineflayer/issues/comments/88439002/reactions"
            },
            "updated_at": "2015-04-01T10:55:31Z",
            "url": "https://api.github.com/repos/PrismarineJS/mineflayer/issues/comments/88439002",
            "user": {
                "avatar_url": "https://avatars.githubusercontent.com/u/2346494?v=4",
                "events_url": "https://api.github.com/users/rom1504/events{/privacy}",
                "followers_url": "https://api.github.com/users/rom1504/followers",
                "following_url": "https://api.github.com/users/rom1504/following{/other_user}",
                "gists_url": "https://api.github.com/users/rom1504/gists{/gist_id}",
                "gravatar_id": "",
                "html_url": "https://github.com/rom1504",
                "id": 2346494,
                "login": "rom1504",
                "node_id": "MDQ6VXNlcjIzNDY0OTQ=",
                "organizations_url": "https://api.github.com/users/rom1504/orgs",
                "received_events_url": "https://api.github.com/users/rom1504/received_events",
                "repos_url": "https://api.github.com/users/rom1504/repos",
                "site_admin": false,
                "starred_url": "https://api.github.com/users/rom1504/starred{/owner}{/repo}",
                "subscriptions_url": "https://api.github.com/users/rom1504/subscriptions",
                "type": "User",
                "url": "https://api.github.com/users/rom1504"
            }
        },
        {
            "author_association": "MEMBER",
            "body": "This is contained in #237 \n",
            "created_at": "2015-05-25T17:22:22Z",
            "html_url": "https://github.com/PrismarineJS/mineflayer/issues/179#issuecomment-105272537",
            "id": 105272537,
            "issue_url": "https://api.github.com/repos/PrismarineJS/mineflayer/issues/179",
            "node_id": "MDEyOklzc3VlQ29tbWVudDEwNTI3MjUzNw==",
            "performed_via_github_app": null,
            "reactions": {
                "+1": 0,
                "-1": 0,
                "confused": 0,
                "eyes": 0,
                "heart": 0,
                "hooray": 0,
                "laugh": 0,
                "rocket": 0,
                "total_count": 0,
                "url": "https://api.github.com/repos/PrismarineJS/mineflayer/issues/comments/105272537/reactions"
            },
            "updated_at": "2015-05-25T17:22:22Z",
            "url": "https://api.github.com/repos/PrismarineJS/mineflayer/issues/comments/105272537",
            "user": {
                "avatar_url": "https://avatars.githubusercontent.com/u/2346494?v=4",
                "events_url": "https://api.github.com/users/rom1504/events{/privacy}",
                "followers_url": "https://api.github.com/users/rom1504/followers",
                "following_url": "https://api.github.com/users/rom1504/following{/other_user}",
                "gists_url": "https://api.github.com/users/rom1504/gists{/gist_id}",
                "gravatar_id": "",
                "html_url": "https://github.com/rom1504",
                "id": 2346494,
                "login": "rom1504",
                "node_id": "MDQ6VXNlcjIzNDY0OTQ=",
                "organizations_url": "https://api.github.com/users/rom1504/orgs",
                "received_events_url": "https://api.github.com/users/rom1504/received_events",
                "repos_url": "https://api.github.com/users/rom1504/repos",
                "site_admin": false,
                "starred_url": "https://api.github.com/users/rom1504/starred{/owner}{/repo}",
                "subscriptions_url": "https://api.github.com/users/rom1504/subscriptions",
                "type": "User",
                "url": "https://api.github.com/users/rom1504"
            }
        },
        {
            "author_association": "MEMBER",
            "body": "Could be closed as it's contained in #237.\n",
            "created_at": "2016-04-15T14:02:42Z",
            "html_url": "https://github.com/PrismarineJS/mineflayer/issues/179#issuecomment-210475015",
            "id": 210475015,
            "issue_url": "https://api.github.com/repos/PrismarineJS/mineflayer/issues/179",
            "node_id": "MDEyOklzc3VlQ29tbWVudDIxMDQ3NTAxNQ==",
            "performed_via_github_app": null,
            "reactions": {
                "+1": 0,
                "-1": 0,
                "confused": 0,
                "eyes": 0,
                "heart": 0,
                "hooray": 0,
                "laugh": 0,
                "rocket": 0,
                "total_count": 0,
                "url": "https://api.github.com/repos/PrismarineJS/mineflayer/issues/comments/210475015/reactions"
            },
            "updated_at": "2016-04-15T14:02:42Z",
            "url": "https://api.github.com/repos/PrismarineJS/mineflayer/issues/comments/210475015",
            "user": {
                "avatar_url": "https://avatars.githubusercontent.com/u/2612164?v=4",
                "events_url": "https://api.github.com/users/Gjum/events{/privacy}",
                "followers_url": "https://api.github.com/users/Gjum/followers",
                "following_url": "https://api.github.com/users/Gjum/following{/other_user}",
                "gists_url": "https://api.github.com/users/Gjum/gists{/gist_id}",
                "gravatar_id": "",
                "html_url": "https://github.com/Gjum",
                "id": 2612164,
                "login": "Gjum",
                "node_id": "MDQ6VXNlcjI2MTIxNjQ=",
                "organizations_url": "https://api.github.com/users/Gjum/orgs",
                "received_events_url": "https://api.github.com/users/Gjum/received_events",
                "repos_url": "https://api.github.com/users/Gjum/repos",
                "site_admin": false,
                "starred_url": "https://api.github.com/users/Gjum/starred{/owner}{/repo}",
                "subscriptions_url": "https://api.github.com/users/Gjum/subscriptions",
                "type": "User",
                "url": "https://api.github.com/users/Gjum"
            }
        },
        {
            "author_association": "MEMBER",
            "body": "Yeah let's close it\n",
            "created_at": "2016-04-15T14:05:52Z",
            "html_url": "https://github.com/PrismarineJS/mineflayer/issues/179#issuecomment-210475871",
            "id": 210475871,
            "issue_url": "https://api.github.com/repos/PrismarineJS/mineflayer/issues/179",
            "node_id": "MDEyOklzc3VlQ29tbWVudDIxMDQ3NTg3MQ==",
            "performed_via_github_app": null,
            "reactions": {
                "+1": 0,
                "-1": 0,
                "confused": 0,
                "eyes": 0,
                "heart": 0,
                "hooray": 0,
                "laugh": 0,
                "rocket": 0,
                "total_count": 0,
                "url": "https://api.github.com/repos/PrismarineJS/mineflayer/issues/comments/210475871/reactions"
            },
            "updated_at": "2016-04-15T14:05:52Z",
            "url": "https://api.github.com/repos/PrismarineJS/mineflayer/issues/comments/210475871",
            "user": {
                "avatar_url": "https://avatars.githubusercontent.com/u/2346494?v=4",
                "events_url": "https://api.github.com/users/rom1504/events{/privacy}",
                "followers_url": "https://api.github.com/users/rom1504/followers",
                "following_url": "https://api.github.com/users/rom1504/following{/other_user}",
                "gists_url": "https://api.github.com/users/rom1504/gists{/gist_id}",
                "gravatar_id": "",
                "html_url": "https://github.com/rom1504",
                "id": 2346494,
                "login": "rom1504",
                "node_id": "MDQ6VXNlcjIzNDY0OTQ=",
                "organizations_url": "https://api.github.com/users/rom1504/orgs",
                "received_events_url": "https://api.github.com/users/rom1504/received_events",
                "repos_url": "https://api.github.com/users/rom1504/repos",
                "site_admin": false,
                "starred_url": "https://api.github.com/users/rom1504/starred{/owner}{/repo}",
                "subscriptions_url": "https://api.github.com/users/rom1504/subscriptions",
                "type": "User",
                "url": "https://api.github.com/users/rom1504"
            }
        }
    ],
    "comments": 4,
    "comments_url": "https://api.github.com/repos/PrismarineJS/mineflayer/issues/179/comments",
    "created_at": "2014-04-21T23:47:43Z",
    "event_data": [
        {
            "actor": {
                "avatar_url": "https://avatars.githubusercontent.com/u/834342?v=4",
                "events_url": "https://api.github.com/users/nevercast/events{/privacy}",
                "followers_url": "https://api.github.com/users/nevercast/followers",
                "following_url": "https://api.github.com/users/nevercast/following{/other_user}",
                "gists_url": "https://api.github.com/users/nevercast/gists{/gist_id}",
                "gravatar_id": "",
                "html_url": "https://github.com/nevercast",
                "id": 834342,
                "login": "nevercast",
                "node_id": "MDQ6VXNlcjgzNDM0Mg==",
                "organizations_url": "https://api.github.com/users/nevercast/orgs",
                "received_events_url": "https://api.github.com/users/nevercast/received_events",
                "repos_url": "https://api.github.com/users/nevercast/repos",
                "site_admin": false,
                "starred_url": "https://api.github.com/users/nevercast/starred{/owner}{/repo}",
                "subscriptions_url": "https://api.github.com/users/nevercast/subscriptions",
                "type": "User",
                "url": "https://api.github.com/users/nevercast"
            },
            "commit_id": null,
            "commit_url": null,
            "created_at": "2014-04-21T23:47:47Z",
            "event": "milestoned",
            "id": 113683269,
            "milestone": {
                "title": "Stable 1.7"
            },
            "node_id": "MDE1Ok1pbGVzdG9uZWRFdmVudDExMzY4MzI2OQ==",
            "performed_via_github_app": null,
            "url": "https://api.github.com/repos/PrismarineJS/mineflayer/issues/events/113683269"
        },
        {
            "actor": {
                "avatar_url": "https://avatars.githubusercontent.com/u/834342?v=4",
                "events_url": "https://api.github.com/users/nevercast/events{/privacy}",
                "followers_url": "https://api.github.com/users/nevercast/followers",
                "following_url": "https://api.github.com/users/nevercast/following{/other_user}",
                "gists_url": "https://api.github.com/users/nevercast/gists{/gist_id}",
                "gravatar_id": "",
                "html_url": "https://github.com/nevercast",
                "id": 834342,
                "login": "nevercast",
                "node_id": "MDQ6VXNlcjgzNDM0Mg==",
                "organizations_url": "https://api.github.com/users/nevercast/orgs",
                "received_events_url": "https://api.github.com/users/nevercast/received_events",
                "repos_url": "https://api.github.com/users/nevercast/repos",
                "site_admin": false,
                "starred_url": "https://api.github.com/users/nevercast/starred{/owner}{/repo}",
                "subscriptions_url": "https://api.github.com/users/nevercast/subscriptions",
                "type": "User",
                "url": "https://api.github.com/users/nevercast"
            },
            "commit_id": null,
            "commit_url": null,
            "created_at": "2014-04-21T23:47:49Z",
            "event": "labeled",
            "id": 113683274,
            "label": {
                "color": "444444",
                "name": "enhancement"
            },
            "node_id": "MDEyOkxhYmVsZWRFdmVudDExMzY4MzI3NA==",
            "performed_via_github_app": null,
            "url": "https://api.github.com/repos/PrismarineJS/mineflayer/issues/events/113683274"
        },
        {
            "actor": {
                "avatar_url": "https://avatars.githubusercontent.com/u/2346494?v=4",
                "events_url": "https://api.github.com/users/rom1504/events{/privacy}",
                "followers_url": "https://api.github.com/users/rom1504/followers",
                "following_url": "https://api.github.com/users/rom1504/following{/other_user}",
                "gists_url": "https://api.github.com/users/rom1504/gists{/gist_id}",
                "gravatar_id": "",
                "html_url": "https://github.com/rom1504",
                "id": 2346494,
                "login": "rom1504",
                "node_id": "MDQ6VXNlcjIzNDY0OTQ=",
                "organizations_url": "https://api.github.com/users/rom1504/orgs",
                "received_events_url": "https://api.github.com/users/rom1504/received_events",
                "repos_url": "https://api.github.com/users/rom1504/repos",
                "site_admin": false,
                "starred_url": "https://api.github.com/users/rom1504/starred{/owner}{/repo}",
                "subscriptions_url": "https://api.github.com/users/rom1504/subscriptions",
                "type": "User",
                "url": "https://api.github.com/users/rom1504"
            },
            "commit_id": null,
            "commit_url": null,
            "created_at": "2015-03-24T14:49:23Z",
            "event": "labeled",
            "id": 263592587,
            "label": {
                "color": "c7def8",
                "name": "inventory"
            },
            "node_id": "MDEyOkxhYmVsZWRFdmVudDI2MzU5MjU4Nw==",
            "performed_via_github_app": null,
            "url": "https://api.github.com/repos/PrismarineJS/mineflayer/issues/events/263592587"
        },
        {
            "actor": {
                "avatar_url": "https://avatars.githubusercontent.com/u/2346494?v=4",
                "events_url": "https://api.github.com/users/rom1504/events{/privacy}",
                "followers_url": "https://api.github.com/users/rom1504/followers",
                "following_url": "https://api.github.com/users/rom1504/following{/other_user}",
                "gists_url": "https://api.github.com/users/rom1504/gists{/gist_id}",
                "gravatar_id": "",
                "html_url": "https://github.com/rom1504",
                "id": 2346494,
                "login": "rom1504",
                "node_id": "MDQ6VXNlcjIzNDY0OTQ=",
                "organizations_url": "https://api.github.com/users/rom1504/orgs",
                "received_events_url": "https://api.github.com/users/rom1504/received_events",
                "repos_url": "https://api.github.com/users/rom1504/repos",
                "site_admin": false,
                "starred_url": "https://api.github.com/users/rom1504/starred{/owner}{/repo}",
                "subscriptions_url": "https://api.github.com/users/rom1504/subscriptions",
                "type": "User",
                "url": "https://api.github.com/users/rom1504"
            },
            "commit_id": null,
            "commit_url": null,
            "created_at": "2015-03-31T11:21:58Z",
            "event": "demilestoned",
            "id": 269463540,
            "milestone": {
                "title": "1.1.0"
            },
            "node_id": "MDE3OkRlbWlsZXN0b25lZEV2ZW50MjY5NDYzNTQw",
            "performed_via_github_app": null,
            "url": "https://api.github.com/repos/PrismarineJS/mineflayer/issues/events/269463540"
        },
        {
            "actor": {
                "avatar_url": "https://avatars.githubusercontent.com/u/2346494?v=4",
                "events_url": "https://api.github.com/users/rom1504/events{/privacy}",
                "followers_url": "https://api.github.com/users/rom1504/followers",
                "following_url": "https://api.github.com/users/rom1504/following{/other_user}",
                "gists_url": "https://api.github.com/users/rom1504/gists{/gist_id}",
                "gravatar_id": "",
                "html_url": "https://github.com/rom1504",
                "id": 2346494,
                "login": "rom1504",
                "node_id": "MDQ6VXNlcjIzNDY0OTQ=",
                "organizations_url": "https://api.github.com/users/rom1504/orgs",
                "received_events_url": "https://api.github.com/users/rom1504/received_events",
                "repos_url": "https://api.github.com/users/rom1504/repos",
                "site_admin": false,
                "starred_url": "https://api.github.com/users/rom1504/starred{/owner}{/repo}",
                "subscriptions_url": "https://api.github.com/users/rom1504/subscriptions",
                "type": "User",
                "url": "https://api.github.com/users/rom1504"
            },
            "commit_id": null,
            "commit_url": null,
            "created_at": "2015-03-31T11:21:58Z",
            "event": "demilestoned",
            "id": 269463541,
            "milestone": {
                "title": "1.1.0"
            },
            "node_id": "MDE3OkRlbWlsZXN0b25lZEV2ZW50MjY5NDYzNTQx",
            "performed_via_github_app": null,
            "url": "https://api.github.com/repos/PrismarineJS/mineflayer/issues/events/269463541"
        },
        {
            "actor": {
                "avatar_url": "https://avatars.githubusercontent.com/u/2346494?v=4",
                "events_url": "https://api.github.com/users/rom1504/events{/privacy}",
                "followers_url": "https://api.github.com/users/rom1504/followers",
                "following_url": "https://api.github.com/users/rom1504/following{/other_user}",
                "gists_url": "https://api.github.com/users/rom1504/gists{/gist_id}",
                "gravatar_id": "",
                "html_url": "https://github.com/rom1504",
                "id": 2346494,
                "login": "rom1504",
                "node_id": "MDQ6VXNlcjIzNDY0OTQ=",
                "organizations_url": "https://api.github.com/users/rom1504/orgs",
                "received_events_url": "https://api.github.com/users/rom1504/received_events",
                "repos_url": "https://api.github.com/users/rom1504/repos",
                "site_admin": false,
                "starred_url": "https://api.github.com/users/rom1504/starred{/owner}{/repo}",
                "subscriptions_url": "https://api.github.com/users/rom1504/subscriptions",
                "type": "User",
                "url": "https://api.github.com/users/rom1504"
            },
            "commit_id": null,
            "commit_url": null,
            "created_at": "2015-04-01T10:55:39Z",
            "event": "renamed",
            "id": 270506964,
            "node_id": "MDE3OlJlbmFtZWRUaXRsZUV2ZW50MjcwNTA2OTY0",
            "performed_via_github_app": null,
            "rename": {
                "from": "Expand TileEntity support",
                "to": "Expand Block Entity support"
            },
            "url": "https://api.github.com/repos/PrismarineJS/mineflayer/issues/events/270506964"
        },
        {
            "actor": {
                "avatar_url": "https://avatars.githubusercontent.com/u/2346494?v=4",
                "events_url": "https://api.github.com/users/rom1504/events{/privacy}",
                "followers_url": "https://api.github.com/users/rom1504/followers",
                "following_url": "https://api.github.com/users/rom1504/following{/other_user}",
                "gists_url": "https://api.github.com/users/rom1504/gists{/gist_id}",
                "gravatar_id": "",
                "html_url": "https://github.com/rom1504",
                "id": 2346494,
                "login": "rom1504",
                "node_id": "MDQ6VXNlcjIzNDY0OTQ=",
                "organizations_url": "https://api.github.com/users/rom1504/orgs",
                "received_events_url": "https://api.github.com/users/rom1504/received_events",
                "repos_url": "https://api.github.com/users/rom1504/repos",
                "site_admin": false,
                "starred_url": "https://api.github.com/users/rom1504/starred{/owner}{/repo}",
                "subscriptions_url": "https://api.github.com/users/rom1504/subscriptions",
                "type": "User",
                "url": "https://api.github.com/users/rom1504"
            },
            "commit_id": null,
            "commit_url": null,
            "created_at": "2016-04-15T14:05:52Z",
            "event": "closed",
            "id": 628970252,
            "node_id": "MDExOkNsb3NlZEV2ZW50NjI4OTcwMjUy",
            "performed_via_github_app": null,
            "state_reason": null,
            "url": "https://api.github.com/repos/PrismarineJS/mineflayer/issues/events/628970252"
        }
    ],
    "events_url": "https://api.github.com/repos/PrismarineJS/mineflayer/issues/179/events",
    "html_url": "https://github.com/PrismarineJS/mineflayer/issues/179",
    "id": 31934633,
    "labels": [
        {
            "color": "444444",
            "default": false,
            "description": "",
            "id": 111395,
            "name": "new feature",
            "node_id": "MDU6TGFiZWwxMTEzOTU=",
            "url": "https://api.github.com/repos/PrismarineJS/mineflayer/labels/new%20feature"
        },
        {
            "color": "c7def8",
            "default": false,
            "description": null,
            "id": 191409385,
            "name": "inventory",
            "node_id": "MDU6TGFiZWwxOTE0MDkzODU=",
            "url": "https://api.github.com/repos/PrismarineJS/mineflayer/labels/inventory"
        }
    ],
    "labels_url": "https://api.github.com/repos/PrismarineJS/mineflayer/issues/179/labels{/name}",
    "locked": false,
    "milestone": null,
    "node_id": "MDU6SXNzdWUzMTkzNDYzMw==",
    "number": 179,
    "performed_via_github_app": null,
    "reactions": {
        "+1": 0,
        "-1": 0,
        "confused": 0,
        "eyes": 0,
        "heart": 0,
        "hooray": 0,
        "laugh": 0,
        "rocket": 0,
        "total_count": 0,
        "url": "https://api.github.com/repos/PrismarineJS/mineflayer/issues/179/reactions"
    },
    "repository_url": "https://api.github.com/repos/PrismarineJS/mineflayer",
    "state": "closed",
    "state_reason": "completed",
    "timeline_url": "https://api.github.com/repos/PrismarineJS/mineflayer/issues/179/timeline",
    "title": "Expand Block Entity support",
    "updated_at": "2016-04-15T14:05:53Z",
    "url": "https://api.github.com/repos/PrismarineJS/mineflayer/issues/179",
    "user": {
        "avatar_url": "https://avatars.githubusercontent.com/u/834342?v=4",
        "events_url": "https://api.github.com/users/nevercast/events{/privacy}",
        "followers_url": "https://api.github.com/users/nevercast/followers",
        "following_url": "https://api.github.com/users/nevercast/following{/other_user}",
        "gists_url": "https://api.github.com/users/nevercast/gists{/gist_id}",
        "gravatar_id": "",
        "html_url": "https://github.com/nevercast",
        "id": 834342,
        "login": "nevercast",
        "node_id": "MDQ6VXNlcjgzNDM0Mg==",
        "organizations_url": "https://api.github.com/users/nevercast/orgs",
        "received_events_url": "https://api.github.com/users/nevercast/received_events",
        "repos_url": "https://api.github.com/users/nevercast/repos",
        "site_admin": false,
        "starred_url": "https://api.github.com/users/nevercast/starred{/owner}{/repo}",
        "subscriptions_url": "https://api.github.com/users/nevercast/subscriptions",
        "type": "User",
        "url": "https://api.github.com/users/nevercast"
    }
}