{
    "active_lock_reason": null,
    "assignee": null,
    "assignees": [],
    "author_association": "CONTRIBUTOR",
    "body": "## Is your feature request related to a problem? Please describe.\r\nSuppose one wants to open all double chest in the proximity of the bot. \r\nThe following code snipped returns two blocks per double chest, and there is no clear way to tell which block belongs to which double chest.\r\n``bot.findBlocks({\r\n\t\t\tmatching: this.mcData.blocksByName[\"chest\"].id,\r\n\t\t\tmaxDistance: 6,\r\n\t\t\tcount: 64,\r\n})``\r\n\r\n## Describe the solution you'd like\r\nAn easy way to identify the blocks a double chest is made up of.\r\n\r\n## Describe alternatives you've considered\r\nTried using StateId, but was unable to correctly parse the different states easily. Requires advanced Minecraft knowledge for a problem many developers will run into.\r\n\r\n",
    "closed_at": "2021-04-11T16:58:35Z",
    "comment_data": [
        {
            "author_association": "MEMBER",
            "body": "here's how you would parse stateId, `const chests = bot.findBlocks({ matching: mcData.blocksByName.chest.id, maxDistance: 6, count: 64 }).map(o => bot.blockAt(o)).map(o => o.getProperties())` but it isnt helpful in this context,",
            "created_at": "2021-04-11T15:30:28Z",
            "html_url": "https://github.com/PrismarineJS/mineflayer/issues/1846#issuecomment-817326193",
            "id": 817326193,
            "issue_url": "https://api.github.com/repos/PrismarineJS/mineflayer/issues/1846",
            "node_id": "MDEyOklzc3VlQ29tbWVudDgxNzMyNjE5Mw==",
            "performed_via_github_app": null,
            "reactions": {
                "+1": 0,
                "-1": 0,
                "confused": 0,
                "eyes": 0,
                "heart": 0,
                "hooray": 0,
                "laugh": 0,
                "rocket": 0,
                "total_count": 0,
                "url": "https://api.github.com/repos/PrismarineJS/mineflayer/issues/comments/817326193/reactions"
            },
            "updated_at": "2021-04-11T15:30:28Z",
            "url": "https://api.github.com/repos/PrismarineJS/mineflayer/issues/comments/817326193",
            "user": {
                "avatar_url": "https://avatars.githubusercontent.com/u/43508353?v=4",
                "events_url": "https://api.github.com/users/u9g/events{/privacy}",
                "followers_url": "https://api.github.com/users/u9g/followers",
                "following_url": "https://api.github.com/users/u9g/following{/other_user}",
                "gists_url": "https://api.github.com/users/u9g/gists{/gist_id}",
                "gravatar_id": "",
                "html_url": "https://github.com/u9g",
                "id": 43508353,
                "login": "u9g",
                "node_id": "MDQ6VXNlcjQzNTA4MzUz",
                "organizations_url": "https://api.github.com/users/u9g/orgs",
                "received_events_url": "https://api.github.com/users/u9g/received_events",
                "repos_url": "https://api.github.com/users/u9g/repos",
                "site_admin": false,
                "starred_url": "https://api.github.com/users/u9g/starred{/owner}{/repo}",
                "subscriptions_url": "https://api.github.com/users/u9g/subscriptions",
                "type": "User",
                "url": "https://api.github.com/users/u9g"
            }
        },
        {
            "author_association": "CONTRIBUTOR",
            "body": "Actually this really helped me, for whatever reason this function wasn't present in the type definitions.\r\nBlock#getProperties returns `{ waterlogged: false, type: 'left', facing: 'south' }` which allows me to calculate the position of the second block, but I agree that it would be beneficial to have that functionality exposed by default.",
            "created_at": "2021-04-11T15:47:43Z",
            "html_url": "https://github.com/PrismarineJS/mineflayer/issues/1846#issuecomment-817328513",
            "id": 817328513,
            "issue_url": "https://api.github.com/repos/PrismarineJS/mineflayer/issues/1846",
            "node_id": "MDEyOklzc3VlQ29tbWVudDgxNzMyODUxMw==",
            "performed_via_github_app": null,
            "reactions": {
                "+1": 0,
                "-1": 0,
                "confused": 0,
                "eyes": 0,
                "heart": 0,
                "hooray": 0,
                "laugh": 0,
                "rocket": 0,
                "total_count": 0,
                "url": "https://api.github.com/repos/PrismarineJS/mineflayer/issues/comments/817328513/reactions"
            },
            "updated_at": "2021-04-11T15:47:43Z",
            "url": "https://api.github.com/repos/PrismarineJS/mineflayer/issues/comments/817328513",
            "user": {
                "avatar_url": "https://avatars.githubusercontent.com/u/53787471?v=4",
                "events_url": "https://api.github.com/users/constantins2001/events{/privacy}",
                "followers_url": "https://api.github.com/users/constantins2001/followers",
                "following_url": "https://api.github.com/users/constantins2001/following{/other_user}",
                "gists_url": "https://api.github.com/users/constantins2001/gists{/gist_id}",
                "gravatar_id": "",
                "html_url": "https://github.com/constantins2001",
                "id": 53787471,
                "login": "constantins2001",
                "node_id": "MDQ6VXNlcjUzNzg3NDcx",
                "organizations_url": "https://api.github.com/users/constantins2001/orgs",
                "received_events_url": "https://api.github.com/users/constantins2001/received_events",
                "repos_url": "https://api.github.com/users/constantins2001/repos",
                "site_admin": false,
                "starred_url": "https://api.github.com/users/constantins2001/starred{/owner}{/repo}",
                "subscriptions_url": "https://api.github.com/users/constantins2001/subscriptions",
                "type": "User",
                "url": "https://api.github.com/users/constantins2001"
            }
        }
    ],
    "comments": 2,
    "comments_url": "https://api.github.com/repos/PrismarineJS/mineflayer/issues/1846/comments",
    "created_at": "2021-04-11T15:07:28Z",
    "event_data": [
        {
            "actor": {
                "avatar_url": "https://avatars.githubusercontent.com/u/53787471?v=4",
                "events_url": "https://api.github.com/users/constantins2001/events{/privacy}",
                "followers_url": "https://api.github.com/users/constantins2001/followers",
                "following_url": "https://api.github.com/users/constantins2001/following{/other_user}",
                "gists_url": "https://api.github.com/users/constantins2001/gists{/gist_id}",
                "gravatar_id": "",
                "html_url": "https://github.com/constantins2001",
                "id": 53787471,
                "login": "constantins2001",
                "node_id": "MDQ6VXNlcjUzNzg3NDcx",
                "organizations_url": "https://api.github.com/users/constantins2001/orgs",
                "received_events_url": "https://api.github.com/users/constantins2001/received_events",
                "repos_url": "https://api.github.com/users/constantins2001/repos",
                "site_admin": false,
                "starred_url": "https://api.github.com/users/constantins2001/starred{/owner}{/repo}",
                "subscriptions_url": "https://api.github.com/users/constantins2001/subscriptions",
                "type": "User",
                "url": "https://api.github.com/users/constantins2001"
            },
            "commit_id": null,
            "commit_url": null,
            "created_at": "2021-04-11T15:07:28Z",
            "event": "labeled",
            "id": 4578645464,
            "label": {
                "color": "bfdadc",
                "name": "Stage1"
            },
            "node_id": "MDEyOkxhYmVsZWRFdmVudDQ1Nzg2NDU0NjQ=",
            "performed_via_github_app": null,
            "url": "https://api.github.com/repos/PrismarineJS/mineflayer/issues/events/4578645464"
        },
        {
            "actor": {
                "avatar_url": "https://avatars.githubusercontent.com/u/53787471?v=4",
                "events_url": "https://api.github.com/users/constantins2001/events{/privacy}",
                "followers_url": "https://api.github.com/users/constantins2001/followers",
                "following_url": "https://api.github.com/users/constantins2001/following{/other_user}",
                "gists_url": "https://api.github.com/users/constantins2001/gists{/gist_id}",
                "gravatar_id": "",
                "html_url": "https://github.com/constantins2001",
                "id": 53787471,
                "login": "constantins2001",
                "node_id": "MDQ6VXNlcjUzNzg3NDcx",
                "organizations_url": "https://api.github.com/users/constantins2001/orgs",
                "received_events_url": "https://api.github.com/users/constantins2001/received_events",
                "repos_url": "https://api.github.com/users/constantins2001/repos",
                "site_admin": false,
                "starred_url": "https://api.github.com/users/constantins2001/starred{/owner}{/repo}",
                "subscriptions_url": "https://api.github.com/users/constantins2001/subscriptions",
                "type": "User",
                "url": "https://api.github.com/users/constantins2001"
            },
            "commit_id": null,
            "commit_url": null,
            "created_at": "2021-04-11T15:07:29Z",
            "event": "labeled",
            "id": 4578645465,
            "label": {
                "color": "444444",
                "name": "new feature"
            },
            "node_id": "MDEyOkxhYmVsZWRFdmVudDQ1Nzg2NDU0NjU=",
            "performed_via_github_app": null,
            "url": "https://api.github.com/repos/PrismarineJS/mineflayer/issues/events/4578645465"
        },
        {
            "actor": {
                "avatar_url": "https://avatars.githubusercontent.com/u/53787471?v=4",
                "events_url": "https://api.github.com/users/constantins2001/events{/privacy}",
                "followers_url": "https://api.github.com/users/constantins2001/followers",
                "following_url": "https://api.github.com/users/constantins2001/following{/other_user}",
                "gists_url": "https://api.github.com/users/constantins2001/gists{/gist_id}",
                "gravatar_id": "",
                "html_url": "https://github.com/constantins2001",
                "id": 53787471,
                "login": "constantins2001",
                "node_id": "MDQ6VXNlcjUzNzg3NDcx",
                "organizations_url": "https://api.github.com/users/constantins2001/orgs",
                "received_events_url": "https://api.github.com/users/constantins2001/received_events",
                "repos_url": "https://api.github.com/users/constantins2001/repos",
                "site_admin": false,
                "starred_url": "https://api.github.com/users/constantins2001/starred{/owner}{/repo}",
                "subscriptions_url": "https://api.github.com/users/constantins2001/subscriptions",
                "type": "User",
                "url": "https://api.github.com/users/constantins2001"
            },
            "commit_id": null,
            "commit_url": null,
            "created_at": "2021-04-11T16:58:35Z",
            "event": "closed",
            "id": 4578757740,
            "node_id": "MDExOkNsb3NlZEV2ZW50NDU3ODc1Nzc0MA==",
            "performed_via_github_app": null,
            "state_reason": null,
            "url": "https://api.github.com/repos/PrismarineJS/mineflayer/issues/events/4578757740"
        }
    ],
    "events_url": "https://api.github.com/repos/PrismarineJS/mineflayer/issues/1846/events",
    "html_url": "https://github.com/PrismarineJS/mineflayer/issues/1846",
    "id": 855329910,
    "labels": [
        {
            "color": "444444",
            "default": false,
            "description": "",
            "id": 111395,
            "name": "new feature",
            "node_id": "MDU6TGFiZWwxMTEzOTU=",
            "url": "https://api.github.com/repos/PrismarineJS/mineflayer/labels/new%20feature"
        },
        {
            "color": "bfdadc",
            "default": false,
            "description": "just created by someone new to the project, we don't know yet if it deserves an implementation / a f",
            "id": 2720118317,
            "name": "Stage1",
            "node_id": "MDU6TGFiZWwyNzIwMTE4MzE3",
            "url": "https://api.github.com/repos/PrismarineJS/mineflayer/labels/Stage1"
        }
    ],
    "labels_url": "https://api.github.com/repos/PrismarineJS/mineflayer/issues/1846/labels{/name}",
    "locked": false,
    "milestone": null,
    "node_id": "MDU6SXNzdWU4NTUzMjk5MTA=",
    "number": 1846,
    "performed_via_github_app": null,
    "reactions": {
        "+1": 0,
        "-1": 0,
        "confused": 0,
        "eyes": 0,
        "heart": 0,
        "hooray": 0,
        "laugh": 0,
        "rocket": 0,
        "total_count": 0,
        "url": "https://api.github.com/repos/PrismarineJS/mineflayer/issues/1846/reactions"
    },
    "repository_url": "https://api.github.com/repos/PrismarineJS/mineflayer",
    "state": "closed",
    "state_reason": "completed",
    "timeline_url": "https://api.github.com/repos/PrismarineJS/mineflayer/issues/1846/timeline",
    "title": "DoubleChest Handling",
    "updated_at": "2021-04-11T16:58:35Z",
    "url": "https://api.github.com/repos/PrismarineJS/mineflayer/issues/1846",
    "user": {
        "avatar_url": "https://avatars.githubusercontent.com/u/53787471?v=4",
        "events_url": "https://api.github.com/users/constantins2001/events{/privacy}",
        "followers_url": "https://api.github.com/users/constantins2001/followers",
        "following_url": "https://api.github.com/users/constantins2001/following{/other_user}",
        "gists_url": "https://api.github.com/users/constantins2001/gists{/gist_id}",
        "gravatar_id": "",
        "html_url": "https://github.com/constantins2001",
        "id": 53787471,
        "login": "constantins2001",
        "node_id": "MDQ6VXNlcjUzNzg3NDcx",
        "organizations_url": "https://api.github.com/users/constantins2001/orgs",
        "received_events_url": "https://api.github.com/users/constantins2001/received_events",
        "repos_url": "https://api.github.com/users/constantins2001/repos",
        "site_admin": false,
        "starred_url": "https://api.github.com/users/constantins2001/starred{/owner}{/repo}",
        "subscriptions_url": "https://api.github.com/users/constantins2001/subscriptions",
        "type": "User",
        "url": "https://api.github.com/users/constantins2001"
    }
}