{
    "active_lock_reason": null,
    "assignee": null,
    "assignees": [],
    "author_association": "NONE",
    "body": "I have the source code of a baritone fork that has elytra support. It can also be controlled by commands. How can I integrate this with mineflayer? I have the source code of the jar.",
    "closed_at": "2021-05-03T21:05:59Z",
    "comment_data": [
        {
            "author_association": "CONTRIBUTOR",
            "body": "This called as plugins in mineflayer, you can look to Pathfinder plugin for this.",
            "created_at": "2021-05-02T20:41:04Z",
            "html_url": "https://github.com/PrismarineJS/mineflayer/issues/1886#issuecomment-830868649",
            "id": 830868649,
            "issue_url": "https://api.github.com/repos/PrismarineJS/mineflayer/issues/1886",
            "node_id": "MDEyOklzc3VlQ29tbWVudDgzMDg2ODY0OQ==",
            "performed_via_github_app": null,
            "reactions": {
                "+1": 0,
                "-1": 0,
                "confused": 0,
                "eyes": 0,
                "heart": 0,
                "hooray": 0,
                "laugh": 0,
                "rocket": 0,
                "total_count": 0,
                "url": "https://api.github.com/repos/PrismarineJS/mineflayer/issues/comments/830868649/reactions"
            },
            "updated_at": "2021-05-02T20:41:04Z",
            "url": "https://api.github.com/repos/PrismarineJS/mineflayer/issues/comments/830868649",
            "user": {
                "avatar_url": "https://avatars.githubusercontent.com/u/73744616?v=4",
                "events_url": "https://api.github.com/users/KaffinPX/events{/privacy}",
                "followers_url": "https://api.github.com/users/KaffinPX/followers",
                "following_url": "https://api.github.com/users/KaffinPX/following{/other_user}",
                "gists_url": "https://api.github.com/users/KaffinPX/gists{/gist_id}",
                "gravatar_id": "",
                "html_url": "https://github.com/KaffinPX",
                "id": 73744616,
                "login": "KaffinPX",
                "node_id": "MDQ6VXNlcjczNzQ0NjE2",
                "organizations_url": "https://api.github.com/users/KaffinPX/orgs",
                "received_events_url": "https://api.github.com/users/KaffinPX/received_events",
                "repos_url": "https://api.github.com/users/KaffinPX/repos",
                "site_admin": false,
                "starred_url": "https://api.github.com/users/KaffinPX/starred{/owner}{/repo}",
                "subscriptions_url": "https://api.github.com/users/KaffinPX/subscriptions",
                "type": "User",
                "url": "https://api.github.com/users/KaffinPX"
            }
        },
        {
            "author_association": "NONE",
            "body": "But that doesn't have elytra. I wanted to load in my mod not that one.",
            "created_at": "2021-05-02T20:48:49Z",
            "html_url": "https://github.com/PrismarineJS/mineflayer/issues/1886#issuecomment-830869680",
            "id": 830869680,
            "issue_url": "https://api.github.com/repos/PrismarineJS/mineflayer/issues/1886",
            "node_id": "MDEyOklzc3VlQ29tbWVudDgzMDg2OTY4MA==",
            "performed_via_github_app": null,
            "reactions": {
                "+1": 0,
                "-1": 0,
                "confused": 0,
                "eyes": 0,
                "heart": 0,
                "hooray": 0,
                "laugh": 0,
                "rocket": 0,
                "total_count": 0,
                "url": "https://api.github.com/repos/PrismarineJS/mineflayer/issues/comments/830869680/reactions"
            },
            "updated_at": "2021-05-02T20:48:49Z",
            "url": "https://api.github.com/repos/PrismarineJS/mineflayer/issues/comments/830869680",
            "user": {
                "avatar_url": "https://avatars.githubusercontent.com/u/61201959?v=4",
                "events_url": "https://api.github.com/users/Apophis52/events{/privacy}",
                "followers_url": "https://api.github.com/users/Apophis52/followers",
                "following_url": "https://api.github.com/users/Apophis52/following{/other_user}",
                "gists_url": "https://api.github.com/users/Apophis52/gists{/gist_id}",
                "gravatar_id": "",
                "html_url": "https://github.com/Apophis52",
                "id": 61201959,
                "login": "Apophis52",
                "node_id": "MDQ6VXNlcjYxMjAxOTU5",
                "organizations_url": "https://api.github.com/users/Apophis52/orgs",
                "received_events_url": "https://api.github.com/users/Apophis52/received_events",
                "repos_url": "https://api.github.com/users/Apophis52/repos",
                "site_admin": false,
                "starred_url": "https://api.github.com/users/Apophis52/starred{/owner}{/repo}",
                "subscriptions_url": "https://api.github.com/users/Apophis52/subscriptions",
                "type": "User",
                "url": "https://api.github.com/users/Apophis52"
            }
        },
        {
            "author_association": "MEMBER",
            "body": "JavaScript is not Java. You’d need to write a clean room implementation and add support in prismarine-physics. ",
            "created_at": "2021-05-02T22:00:25Z",
            "html_url": "https://github.com/PrismarineJS/mineflayer/issues/1886#issuecomment-830910748",
            "id": 830910748,
            "issue_url": "https://api.github.com/repos/PrismarineJS/mineflayer/issues/1886",
            "node_id": "MDEyOklzc3VlQ29tbWVudDgzMDkxMDc0OA==",
            "performed_via_github_app": null,
            "reactions": {
                "+1": 0,
                "-1": 0,
                "confused": 0,
                "eyes": 0,
                "heart": 0,
                "hooray": 0,
                "laugh": 0,
                "rocket": 0,
                "total_count": 0,
                "url": "https://api.github.com/repos/PrismarineJS/mineflayer/issues/comments/830910748/reactions"
            },
            "updated_at": "2021-05-02T22:00:25Z",
            "url": "https://api.github.com/repos/PrismarineJS/mineflayer/issues/comments/830910748",
            "user": {
                "avatar_url": "https://avatars.githubusercontent.com/u/13713600?v=4",
                "events_url": "https://api.github.com/users/extremeheat/events{/privacy}",
                "followers_url": "https://api.github.com/users/extremeheat/followers",
                "following_url": "https://api.github.com/users/extremeheat/following{/other_user}",
                "gists_url": "https://api.github.com/users/extremeheat/gists{/gist_id}",
                "gravatar_id": "",
                "html_url": "https://github.com/extremeheat",
                "id": 13713600,
                "login": "extremeheat",
                "node_id": "MDQ6VXNlcjEzNzEzNjAw",
                "organizations_url": "https://api.github.com/users/extremeheat/orgs",
                "received_events_url": "https://api.github.com/users/extremeheat/received_events",
                "repos_url": "https://api.github.com/users/extremeheat/repos",
                "site_admin": false,
                "starred_url": "https://api.github.com/users/extremeheat/starred{/owner}{/repo}",
                "subscriptions_url": "https://api.github.com/users/extremeheat/subscriptions",
                "type": "User",
                "url": "https://api.github.com/users/extremeheat"
            }
        },
        {
            "author_association": "NONE",
            "body": "@extremeheat How could I do that? Can you dm me at ZVH1#8342? Discord.",
            "created_at": "2021-05-03T15:09:07Z",
            "html_url": "https://github.com/PrismarineJS/mineflayer/issues/1886#issuecomment-831323012",
            "id": 831323012,
            "issue_url": "https://api.github.com/repos/PrismarineJS/mineflayer/issues/1886",
            "node_id": "MDEyOklzc3VlQ29tbWVudDgzMTMyMzAxMg==",
            "performed_via_github_app": null,
            "reactions": {
                "+1": 0,
                "-1": 0,
                "confused": 0,
                "eyes": 0,
                "heart": 0,
                "hooray": 0,
                "laugh": 0,
                "rocket": 0,
                "total_count": 0,
                "url": "https://api.github.com/repos/PrismarineJS/mineflayer/issues/comments/831323012/reactions"
            },
            "updated_at": "2021-05-03T15:09:07Z",
            "url": "https://api.github.com/repos/PrismarineJS/mineflayer/issues/comments/831323012",
            "user": {
                "avatar_url": "https://avatars.githubusercontent.com/u/61201959?v=4",
                "events_url": "https://api.github.com/users/Apophis52/events{/privacy}",
                "followers_url": "https://api.github.com/users/Apophis52/followers",
                "following_url": "https://api.github.com/users/Apophis52/following{/other_user}",
                "gists_url": "https://api.github.com/users/Apophis52/gists{/gist_id}",
                "gravatar_id": "",
                "html_url": "https://github.com/Apophis52",
                "id": 61201959,
                "login": "Apophis52",
                "node_id": "MDQ6VXNlcjYxMjAxOTU5",
                "organizations_url": "https://api.github.com/users/Apophis52/orgs",
                "received_events_url": "https://api.github.com/users/Apophis52/received_events",
                "repos_url": "https://api.github.com/users/Apophis52/repos",
                "site_admin": false,
                "starred_url": "https://api.github.com/users/Apophis52/starred{/owner}{/repo}",
                "subscriptions_url": "https://api.github.com/users/Apophis52/subscriptions",
                "type": "User",
                "url": "https://api.github.com/users/Apophis52"
            }
        },
        {
            "author_association": "CONTRIBUTOR",
            "body": "you would probably need to rewrite it for mineflayer, not sure if you can integrate otherwise",
            "created_at": "2021-05-03T15:10:02Z",
            "html_url": "https://github.com/PrismarineJS/mineflayer/issues/1886#issuecomment-831323610",
            "id": 831323610,
            "issue_url": "https://api.github.com/repos/PrismarineJS/mineflayer/issues/1886",
            "node_id": "MDEyOklzc3VlQ29tbWVudDgzMTMyMzYxMA==",
            "performed_via_github_app": null,
            "reactions": {
                "+1": 0,
                "-1": 0,
                "confused": 0,
                "eyes": 0,
                "heart": 0,
                "hooray": 0,
                "laugh": 0,
                "rocket": 0,
                "total_count": 0,
                "url": "https://api.github.com/repos/PrismarineJS/mineflayer/issues/comments/831323610/reactions"
            },
            "updated_at": "2021-05-03T15:10:02Z",
            "url": "https://api.github.com/repos/PrismarineJS/mineflayer/issues/comments/831323610",
            "user": {
                "avatar_url": "https://avatars.githubusercontent.com/u/15858616?v=4",
                "events_url": "https://api.github.com/users/aesthetic0001/events{/privacy}",
                "followers_url": "https://api.github.com/users/aesthetic0001/followers",
                "following_url": "https://api.github.com/users/aesthetic0001/following{/other_user}",
                "gists_url": "https://api.github.com/users/aesthetic0001/gists{/gist_id}",
                "gravatar_id": "",
                "html_url": "https://github.com/aesthetic0001",
                "id": 15858616,
                "login": "aesthetic0001",
                "node_id": "MDQ6VXNlcjE1ODU4NjE2",
                "organizations_url": "https://api.github.com/users/aesthetic0001/orgs",
                "received_events_url": "https://api.github.com/users/aesthetic0001/received_events",
                "repos_url": "https://api.github.com/users/aesthetic0001/repos",
                "site_admin": false,
                "starred_url": "https://api.github.com/users/aesthetic0001/starred{/owner}{/repo}",
                "subscriptions_url": "https://api.github.com/users/aesthetic0001/subscriptions",
                "type": "User",
                "url": "https://api.github.com/users/aesthetic0001"
            }
        },
        {
            "author_association": "NONE",
            "body": "Do you have any experience in doing that or could you help with it? If so plz dm me aesthetic",
            "created_at": "2021-05-03T15:11:13Z",
            "html_url": "https://github.com/PrismarineJS/mineflayer/issues/1886#issuecomment-831324356",
            "id": 831324356,
            "issue_url": "https://api.github.com/repos/PrismarineJS/mineflayer/issues/1886",
            "node_id": "MDEyOklzc3VlQ29tbWVudDgzMTMyNDM1Ng==",
            "performed_via_github_app": null,
            "reactions": {
                "+1": 0,
                "-1": 0,
                "confused": 0,
                "eyes": 0,
                "heart": 0,
                "hooray": 0,
                "laugh": 0,
                "rocket": 0,
                "total_count": 0,
                "url": "https://api.github.com/repos/PrismarineJS/mineflayer/issues/comments/831324356/reactions"
            },
            "updated_at": "2021-05-03T15:11:13Z",
            "url": "https://api.github.com/repos/PrismarineJS/mineflayer/issues/comments/831324356",
            "user": {
                "avatar_url": "https://avatars.githubusercontent.com/u/61201959?v=4",
                "events_url": "https://api.github.com/users/Apophis52/events{/privacy}",
                "followers_url": "https://api.github.com/users/Apophis52/followers",
                "following_url": "https://api.github.com/users/Apophis52/following{/other_user}",
                "gists_url": "https://api.github.com/users/Apophis52/gists{/gist_id}",
                "gravatar_id": "",
                "html_url": "https://github.com/Apophis52",
                "id": 61201959,
                "login": "Apophis52",
                "node_id": "MDQ6VXNlcjYxMjAxOTU5",
                "organizations_url": "https://api.github.com/users/Apophis52/orgs",
                "received_events_url": "https://api.github.com/users/Apophis52/received_events",
                "repos_url": "https://api.github.com/users/Apophis52/repos",
                "site_admin": false,
                "starred_url": "https://api.github.com/users/Apophis52/starred{/owner}{/repo}",
                "subscriptions_url": "https://api.github.com/users/Apophis52/subscriptions",
                "type": "User",
                "url": "https://api.github.com/users/Apophis52"
            }
        },
        {
            "author_association": "CONTRIBUTOR",
            "body": "nope not a java dev sry",
            "created_at": "2021-05-03T15:12:19Z",
            "html_url": "https://github.com/PrismarineJS/mineflayer/issues/1886#issuecomment-831325085",
            "id": 831325085,
            "issue_url": "https://api.github.com/repos/PrismarineJS/mineflayer/issues/1886",
            "node_id": "MDEyOklzc3VlQ29tbWVudDgzMTMyNTA4NQ==",
            "performed_via_github_app": null,
            "reactions": {
                "+1": 0,
                "-1": 0,
                "confused": 0,
                "eyes": 0,
                "heart": 0,
                "hooray": 0,
                "laugh": 0,
                "rocket": 0,
                "total_count": 0,
                "url": "https://api.github.com/repos/PrismarineJS/mineflayer/issues/comments/831325085/reactions"
            },
            "updated_at": "2021-05-03T15:12:19Z",
            "url": "https://api.github.com/repos/PrismarineJS/mineflayer/issues/comments/831325085",
            "user": {
                "avatar_url": "https://avatars.githubusercontent.com/u/15858616?v=4",
                "events_url": "https://api.github.com/users/aesthetic0001/events{/privacy}",
                "followers_url": "https://api.github.com/users/aesthetic0001/followers",
                "following_url": "https://api.github.com/users/aesthetic0001/following{/other_user}",
                "gists_url": "https://api.github.com/users/aesthetic0001/gists{/gist_id}",
                "gravatar_id": "",
                "html_url": "https://github.com/aesthetic0001",
                "id": 15858616,
                "login": "aesthetic0001",
                "node_id": "MDQ6VXNlcjE1ODU4NjE2",
                "organizations_url": "https://api.github.com/users/aesthetic0001/orgs",
                "received_events_url": "https://api.github.com/users/aesthetic0001/received_events",
                "repos_url": "https://api.github.com/users/aesthetic0001/repos",
                "site_admin": false,
                "starred_url": "https://api.github.com/users/aesthetic0001/starred{/owner}{/repo}",
                "subscriptions_url": "https://api.github.com/users/aesthetic0001/subscriptions",
                "type": "User",
                "url": "https://api.github.com/users/aesthetic0001"
            }
        },
        {
            "author_association": "NONE",
            "body": "Well can you link a tutorial or smth on how I would do that, bc I have absolutely 0 ideas on that.\r\n",
            "created_at": "2021-05-03T15:13:01Z",
            "html_url": "https://github.com/PrismarineJS/mineflayer/issues/1886#issuecomment-831325525",
            "id": 831325525,
            "issue_url": "https://api.github.com/repos/PrismarineJS/mineflayer/issues/1886",
            "node_id": "MDEyOklzc3VlQ29tbWVudDgzMTMyNTUyNQ==",
            "performed_via_github_app": null,
            "reactions": {
                "+1": 0,
                "-1": 0,
                "confused": 0,
                "eyes": 0,
                "heart": 0,
                "hooray": 0,
                "laugh": 0,
                "rocket": 0,
                "total_count": 0,
                "url": "https://api.github.com/repos/PrismarineJS/mineflayer/issues/comments/831325525/reactions"
            },
            "updated_at": "2021-05-03T15:13:01Z",
            "url": "https://api.github.com/repos/PrismarineJS/mineflayer/issues/comments/831325525",
            "user": {
                "avatar_url": "https://avatars.githubusercontent.com/u/61201959?v=4",
                "events_url": "https://api.github.com/users/Apophis52/events{/privacy}",
                "followers_url": "https://api.github.com/users/Apophis52/followers",
                "following_url": "https://api.github.com/users/Apophis52/following{/other_user}",
                "gists_url": "https://api.github.com/users/Apophis52/gists{/gist_id}",
                "gravatar_id": "",
                "html_url": "https://github.com/Apophis52",
                "id": 61201959,
                "login": "Apophis52",
                "node_id": "MDQ6VXNlcjYxMjAxOTU5",
                "organizations_url": "https://api.github.com/users/Apophis52/orgs",
                "received_events_url": "https://api.github.com/users/Apophis52/received_events",
                "repos_url": "https://api.github.com/users/Apophis52/repos",
                "site_admin": false,
                "starred_url": "https://api.github.com/users/Apophis52/starred{/owner}{/repo}",
                "subscriptions_url": "https://api.github.com/users/Apophis52/subscriptions",
                "type": "User",
                "url": "https://api.github.com/users/Apophis52"
            }
        }
    ],
    "comments": 8,
    "comments_url": "https://api.github.com/repos/PrismarineJS/mineflayer/issues/1886/comments",
    "created_at": "2021-05-02T20:26:00Z",
    "event_data": [
        {
            "actor": {
                "avatar_url": "https://avatars.githubusercontent.com/u/61201959?v=4",
                "events_url": "https://api.github.com/users/Apophis52/events{/privacy}",
                "followers_url": "https://api.github.com/users/Apophis52/followers",
                "following_url": "https://api.github.com/users/Apophis52/following{/other_user}",
                "gists_url": "https://api.github.com/users/Apophis52/gists{/gist_id}",
                "gravatar_id": "",
                "html_url": "https://github.com/Apophis52",
                "id": 61201959,
                "login": "Apophis52",
                "node_id": "MDQ6VXNlcjYxMjAxOTU5",
                "organizations_url": "https://api.github.com/users/Apophis52/orgs",
                "received_events_url": "https://api.github.com/users/Apophis52/received_events",
                "repos_url": "https://api.github.com/users/Apophis52/repos",
                "site_admin": false,
                "starred_url": "https://api.github.com/users/Apophis52/starred{/owner}{/repo}",
                "subscriptions_url": "https://api.github.com/users/Apophis52/subscriptions",
                "type": "User",
                "url": "https://api.github.com/users/Apophis52"
            },
            "commit_id": null,
            "commit_url": null,
            "created_at": "2021-05-02T20:26:00Z",
            "event": "labeled",
            "id": 4675224238,
            "label": {
                "color": "bfdadc",
                "name": "Stage1"
            },
            "node_id": "MDEyOkxhYmVsZWRFdmVudDQ2NzUyMjQyMzg=",
            "performed_via_github_app": null,
            "url": "https://api.github.com/repos/PrismarineJS/mineflayer/issues/events/4675224238"
        },
        {
            "actor": {
                "avatar_url": "https://avatars.githubusercontent.com/u/61201959?v=4",
                "events_url": "https://api.github.com/users/Apophis52/events{/privacy}",
                "followers_url": "https://api.github.com/users/Apophis52/followers",
                "following_url": "https://api.github.com/users/Apophis52/following{/other_user}",
                "gists_url": "https://api.github.com/users/Apophis52/gists{/gist_id}",
                "gravatar_id": "",
                "html_url": "https://github.com/Apophis52",
                "id": 61201959,
                "login": "Apophis52",
                "node_id": "MDQ6VXNlcjYxMjAxOTU5",
                "organizations_url": "https://api.github.com/users/Apophis52/orgs",
                "received_events_url": "https://api.github.com/users/Apophis52/received_events",
                "repos_url": "https://api.github.com/users/Apophis52/repos",
                "site_admin": false,
                "starred_url": "https://api.github.com/users/Apophis52/starred{/owner}{/repo}",
                "subscriptions_url": "https://api.github.com/users/Apophis52/subscriptions",
                "type": "User",
                "url": "https://api.github.com/users/Apophis52"
            },
            "commit_id": null,
            "commit_url": null,
            "created_at": "2021-05-02T20:26:00Z",
            "event": "labeled",
            "id": 4675224239,
            "label": {
                "color": "444444",
                "name": "new feature"
            },
            "node_id": "MDEyOkxhYmVsZWRFdmVudDQ2NzUyMjQyMzk=",
            "performed_via_github_app": null,
            "url": "https://api.github.com/repos/PrismarineJS/mineflayer/issues/events/4675224239"
        },
        {
            "actor": {
                "avatar_url": "https://avatars.githubusercontent.com/u/13713600?v=4",
                "events_url": "https://api.github.com/users/extremeheat/events{/privacy}",
                "followers_url": "https://api.github.com/users/extremeheat/followers",
                "following_url": "https://api.github.com/users/extremeheat/following{/other_user}",
                "gists_url": "https://api.github.com/users/extremeheat/gists{/gist_id}",
                "gravatar_id": "",
                "html_url": "https://github.com/extremeheat",
                "id": 13713600,
                "login": "extremeheat",
                "node_id": "MDQ6VXNlcjEzNzEzNjAw",
                "organizations_url": "https://api.github.com/users/extremeheat/orgs",
                "received_events_url": "https://api.github.com/users/extremeheat/received_events",
                "repos_url": "https://api.github.com/users/extremeheat/repos",
                "site_admin": false,
                "starred_url": "https://api.github.com/users/extremeheat/starred{/owner}{/repo}",
                "subscriptions_url": "https://api.github.com/users/extremeheat/subscriptions",
                "type": "User",
                "url": "https://api.github.com/users/extremeheat"
            },
            "commit_id": null,
            "commit_url": null,
            "created_at": "2021-05-03T15:09:07Z",
            "event": "mentioned",
            "id": 4678642521,
            "node_id": "MDE0Ok1lbnRpb25lZEV2ZW50NDY3ODY0MjUyMQ==",
            "performed_via_github_app": null,
            "url": "https://api.github.com/repos/PrismarineJS/mineflayer/issues/events/4678642521"
        },
        {
            "actor": {
                "avatar_url": "https://avatars.githubusercontent.com/u/13713600?v=4",
                "events_url": "https://api.github.com/users/extremeheat/events{/privacy}",
                "followers_url": "https://api.github.com/users/extremeheat/followers",
                "following_url": "https://api.github.com/users/extremeheat/following{/other_user}",
                "gists_url": "https://api.github.com/users/extremeheat/gists{/gist_id}",
                "gravatar_id": "",
                "html_url": "https://github.com/extremeheat",
                "id": 13713600,
                "login": "extremeheat",
                "node_id": "MDQ6VXNlcjEzNzEzNjAw",
                "organizations_url": "https://api.github.com/users/extremeheat/orgs",
                "received_events_url": "https://api.github.com/users/extremeheat/received_events",
                "repos_url": "https://api.github.com/users/extremeheat/repos",
                "site_admin": false,
                "starred_url": "https://api.github.com/users/extremeheat/starred{/owner}{/repo}",
                "subscriptions_url": "https://api.github.com/users/extremeheat/subscriptions",
                "type": "User",
                "url": "https://api.github.com/users/extremeheat"
            },
            "commit_id": null,
            "commit_url": null,
            "created_at": "2021-05-03T15:09:07Z",
            "event": "subscribed",
            "id": 4678642527,
            "node_id": "MDE1OlN1YnNjcmliZWRFdmVudDQ2Nzg2NDI1Mjc=",
            "performed_via_github_app": null,
            "url": "https://api.github.com/repos/PrismarineJS/mineflayer/issues/events/4678642527"
        },
        {
            "actor": {
                "avatar_url": "https://avatars.githubusercontent.com/u/61201959?v=4",
                "events_url": "https://api.github.com/users/Apophis52/events{/privacy}",
                "followers_url": "https://api.github.com/users/Apophis52/followers",
                "following_url": "https://api.github.com/users/Apophis52/following{/other_user}",
                "gists_url": "https://api.github.com/users/Apophis52/gists{/gist_id}",
                "gravatar_id": "",
                "html_url": "https://github.com/Apophis52",
                "id": 61201959,
                "login": "Apophis52",
                "node_id": "MDQ6VXNlcjYxMjAxOTU5",
                "organizations_url": "https://api.github.com/users/Apophis52/orgs",
                "received_events_url": "https://api.github.com/users/Apophis52/received_events",
                "repos_url": "https://api.github.com/users/Apophis52/repos",
                "site_admin": false,
                "starred_url": "https://api.github.com/users/Apophis52/starred{/owner}{/repo}",
                "subscriptions_url": "https://api.github.com/users/Apophis52/subscriptions",
                "type": "User",
                "url": "https://api.github.com/users/Apophis52"
            },
            "commit_id": null,
            "commit_url": null,
            "created_at": "2021-05-03T21:05:59Z",
            "event": "closed",
            "id": 4680213376,
            "node_id": "MDExOkNsb3NlZEV2ZW50NDY4MDIxMzM3Ng==",
            "performed_via_github_app": null,
            "state_reason": null,
            "url": "https://api.github.com/repos/PrismarineJS/mineflayer/issues/events/4680213376"
        }
    ],
    "events_url": "https://api.github.com/repos/PrismarineJS/mineflayer/issues/1886/events",
    "html_url": "https://github.com/PrismarineJS/mineflayer/issues/1886",
    "id": 874036174,
    "labels": [
        {
            "color": "444444",
            "default": false,
            "description": "",
            "id": 111395,
            "name": "new feature",
            "node_id": "MDU6TGFiZWwxMTEzOTU=",
            "url": "https://api.github.com/repos/PrismarineJS/mineflayer/labels/new%20feature"
        },
        {
            "color": "bfdadc",
            "default": false,
            "description": "just created by someone new to the project, we don't know yet if it deserves an implementation / a f",
            "id": 2720118317,
            "name": "Stage1",
            "node_id": "MDU6TGFiZWwyNzIwMTE4MzE3",
            "url": "https://api.github.com/repos/PrismarineJS/mineflayer/labels/Stage1"
        }
    ],
    "labels_url": "https://api.github.com/repos/PrismarineJS/mineflayer/issues/1886/labels{/name}",
    "locked": false,
    "milestone": null,
    "node_id": "MDU6SXNzdWU4NzQwMzYxNzQ=",
    "number": 1886,
    "performed_via_github_app": null,
    "reactions": {
        "+1": 0,
        "-1": 0,
        "confused": 0,
        "eyes": 0,
        "heart": 0,
        "hooray": 0,
        "laugh": 0,
        "rocket": 0,
        "total_count": 0,
        "url": "https://api.github.com/repos/PrismarineJS/mineflayer/issues/1886/reactions"
    },
    "repository_url": "https://api.github.com/repos/PrismarineJS/mineflayer",
    "state": "closed",
    "state_reason": "completed",
    "timeline_url": "https://api.github.com/repos/PrismarineJS/mineflayer/issues/1886/timeline",
    "title": "Integrations",
    "updated_at": "2021-05-03T21:05:59Z",
    "url": "https://api.github.com/repos/PrismarineJS/mineflayer/issues/1886",
    "user": {
        "avatar_url": "https://avatars.githubusercontent.com/u/61201959?v=4",
        "events_url": "https://api.github.com/users/Apophis52/events{/privacy}",
        "followers_url": "https://api.github.com/users/Apophis52/followers",
        "following_url": "https://api.github.com/users/Apophis52/following{/other_user}",
        "gists_url": "https://api.github.com/users/Apophis52/gists{/gist_id}",
        "gravatar_id": "",
        "html_url": "https://github.com/Apophis52",
        "id": 61201959,
        "login": "Apophis52",
        "node_id": "MDQ6VXNlcjYxMjAxOTU5",
        "organizations_url": "https://api.github.com/users/Apophis52/orgs",
        "received_events_url": "https://api.github.com/users/Apophis52/received_events",
        "repos_url": "https://api.github.com/users/Apophis52/repos",
        "site_admin": false,
        "starred_url": "https://api.github.com/users/Apophis52/starred{/owner}{/repo}",
        "subscriptions_url": "https://api.github.com/users/Apophis52/subscriptions",
        "type": "User",
        "url": "https://api.github.com/users/Apophis52"
    }
}