{
    "active_lock_reason": null,
    "assignee": null,
    "assignees": [],
    "author_association": "MEMBER",
    "body": null,
    "closed_at": "2021-08-15T11:05:38Z",
    "comment_data": [
        {
            "author_association": "MEMBER",
            "body": "will be closed by https://github.com/PrismarineJS/mineflayer/pull/2098",
            "created_at": "2021-08-15T03:48:00Z",
            "html_url": "https://github.com/PrismarineJS/mineflayer/issues/2099#issuecomment-898991049",
            "id": 898991049,
            "issue_url": "https://api.github.com/repos/PrismarineJS/mineflayer/issues/2099",
            "node_id": "IC_kwDOABOYWc41lYPJ",
            "performed_via_github_app": null,
            "reactions": {
                "+1": 0,
                "-1": 0,
                "confused": 0,
                "eyes": 0,
                "heart": 0,
                "hooray": 0,
                "laugh": 0,
                "rocket": 0,
                "total_count": 0,
                "url": "https://api.github.com/repos/PrismarineJS/mineflayer/issues/comments/898991049/reactions"
            },
            "updated_at": "2021-08-15T03:48:00Z",
            "url": "https://api.github.com/repos/PrismarineJS/mineflayer/issues/comments/898991049",
            "user": {
                "avatar_url": "https://avatars.githubusercontent.com/u/43508353?v=4",
                "events_url": "https://api.github.com/users/u9g/events{/privacy}",
                "followers_url": "https://api.github.com/users/u9g/followers",
                "following_url": "https://api.github.com/users/u9g/following{/other_user}",
                "gists_url": "https://api.github.com/users/u9g/gists{/gist_id}",
                "gravatar_id": "",
                "html_url": "https://github.com/u9g",
                "id": 43508353,
                "login": "u9g",
                "node_id": "MDQ6VXNlcjQzNTA4MzUz",
                "organizations_url": "https://api.github.com/users/u9g/orgs",
                "received_events_url": "https://api.github.com/users/u9g/received_events",
                "repos_url": "https://api.github.com/users/u9g/repos",
                "site_admin": false,
                "starred_url": "https://api.github.com/users/u9g/starred{/owner}{/repo}",
                "subscriptions_url": "https://api.github.com/users/u9g/subscriptions",
                "type": "User",
                "url": "https://api.github.com/users/u9g"
            }
        }
    ],
    "comments": 1,
    "comments_url": "https://api.github.com/repos/PrismarineJS/mineflayer/issues/2099/comments",
    "created_at": "2021-08-15T03:47:42Z",
    "event_data": [
        {
            "actor": {
                "avatar_url": "https://avatars.githubusercontent.com/u/43508353?v=4",
                "events_url": "https://api.github.com/users/u9g/events{/privacy}",
                "followers_url": "https://api.github.com/users/u9g/followers",
                "following_url": "https://api.github.com/users/u9g/following{/other_user}",
                "gists_url": "https://api.github.com/users/u9g/gists{/gist_id}",
                "gravatar_id": "",
                "html_url": "https://github.com/u9g",
                "id": 43508353,
                "login": "u9g",
                "node_id": "MDQ6VXNlcjQzNTA4MzUz",
                "organizations_url": "https://api.github.com/users/u9g/orgs",
                "received_events_url": "https://api.github.com/users/u9g/received_events",
                "repos_url": "https://api.github.com/users/u9g/repos",
                "site_admin": false,
                "starred_url": "https://api.github.com/users/u9g/starred{/owner}{/repo}",
                "subscriptions_url": "https://api.github.com/users/u9g/subscriptions",
                "type": "User",
                "url": "https://api.github.com/users/u9g"
            },
            "commit_id": null,
            "commit_url": null,
            "created_at": "2021-08-15T03:48:12Z",
            "event": "connected",
            "id": 5159306684,
            "node_id": "MDE0OkNvbm5lY3RlZEV2ZW50NTE1OTMwNjY4NA==",
            "performed_via_github_app": null,
            "url": "https://api.github.com/repos/PrismarineJS/mineflayer/issues/events/5159306684"
        },
        {
            "actor": {
                "avatar_url": "https://avatars.githubusercontent.com/u/2346494?v=4",
                "events_url": "https://api.github.com/users/rom1504/events{/privacy}",
                "followers_url": "https://api.github.com/users/rom1504/followers",
                "following_url": "https://api.github.com/users/rom1504/following{/other_user}",
                "gists_url": "https://api.github.com/users/rom1504/gists{/gist_id}",
                "gravatar_id": "",
                "html_url": "https://github.com/rom1504",
                "id": 2346494,
                "login": "rom1504",
                "node_id": "MDQ6VXNlcjIzNDY0OTQ=",
                "organizations_url": "https://api.github.com/users/rom1504/orgs",
                "received_events_url": "https://api.github.com/users/rom1504/received_events",
                "repos_url": "https://api.github.com/users/rom1504/repos",
                "site_admin": false,
                "starred_url": "https://api.github.com/users/rom1504/starred{/owner}{/repo}",
                "subscriptions_url": "https://api.github.com/users/rom1504/subscriptions",
                "type": "User",
                "url": "https://api.github.com/users/rom1504"
            },
            "commit_id": null,
            "commit_url": null,
            "created_at": "2021-08-15T11:05:38Z",
            "event": "closed",
            "id": 5159609999,
            "node_id": "MDExOkNsb3NlZEV2ZW50NTE1OTYwOTk5OQ==",
            "performed_via_github_app": null,
            "state_reason": null,
            "url": "https://api.github.com/repos/PrismarineJS/mineflayer/issues/events/5159609999"
        }
    ],
    "events_url": "https://api.github.com/repos/PrismarineJS/mineflayer/issues/2099/events",
    "html_url": "https://github.com/PrismarineJS/mineflayer/issues/2099",
    "id": 971043239,
    "labels": [],
    "labels_url": "https://api.github.com/repos/PrismarineJS/mineflayer/issues/2099/labels{/name}",
    "locked": false,
    "milestone": null,
    "node_id": "MDU6SXNzdWU5NzEwNDMyMzk=",
    "number": 2099,
    "performed_via_github_app": null,
    "reactions": {
        "+1": 0,
        "-1": 0,
        "confused": 0,
        "eyes": 0,
        "heart": 0,
        "hooray": 0,
        "laugh": 0,
        "rocket": 0,
        "total_count": 0,
        "url": "https://api.github.com/repos/PrismarineJS/mineflayer/issues/2099/reactions"
    },
    "repository_url": "https://api.github.com/repos/PrismarineJS/mineflayer",
    "state": "closed",
    "state_reason": "completed",
    "timeline_url": "https://api.github.com/repos/PrismarineJS/mineflayer/issues/2099/timeline",
    "title": "Enchanting workflow is borked, API consumers shouldn't need to worry about the `ready` event, make it internal to `.enchant()`",
    "updated_at": "2021-08-15T11:05:38Z",
    "url": "https://api.github.com/repos/PrismarineJS/mineflayer/issues/2099",
    "user": {
        "avatar_url": "https://avatars.githubusercontent.com/u/43508353?v=4",
        "events_url": "https://api.github.com/users/u9g/events{/privacy}",
        "followers_url": "https://api.github.com/users/u9g/followers",
        "following_url": "https://api.github.com/users/u9g/following{/other_user}",
        "gists_url": "https://api.github.com/users/u9g/gists{/gist_id}",
        "gravatar_id": "",
        "html_url": "https://github.com/u9g",
        "id": 43508353,
        "login": "u9g",
        "node_id": "MDQ6VXNlcjQzNTA4MzUz",
        "organizations_url": "https://api.github.com/users/u9g/orgs",
        "received_events_url": "https://api.github.com/users/u9g/received_events",
        "repos_url": "https://api.github.com/users/u9g/repos",
        "site_admin": false,
        "starred_url": "https://api.github.com/users/u9g/starred{/owner}{/repo}",
        "subscriptions_url": "https://api.github.com/users/u9g/subscriptions",
        "type": "User",
        "url": "https://api.github.com/users/u9g"
    }
}