{
    "active_lock_reason": null,
    "assignee": null,
    "assignees": [],
    "author_association": "NONE",
    "body": "I have been having trouble with the mineflayer library. The script seems to immediately exits and does nothing with my server.\n\nI have a boot2docker instance running minecraft 1.8.1 in a container. Here is my script.\n\nThe connect and end events fire.\n\n``` javascript\nvar mineflayer = require('mineflayer');\n\nvar bot = mineflayer.createBot({\n  host: '192.168.59.103',\n  port: 25565,\n  verbose: true\n});\n\nbot.on('login', function() {\n  console.log('login'); \n});\n\nbot.on('connect', function() {\n  console.log('connect');  \n  console.log(arguments);\n  bot.on('chat', function(username, message) {\n    if(username === bot.username) return;\n    bot.chat(message);  \n  });\n  bot.on('error', function(err) {\n    console.log(err);\n  });\n\n  bot.on('end', function() {\n    console.log('end');  \n    console.log(arguments);\n  });\n});\n```\n",
    "closed_at": "2015-03-29T15:22:57Z",
    "comment_data": [
        {
            "author_association": "MEMBER",
            "body": "If the end event fires, it means the client was disconnected from the server. Since there is no more work to be done by the nodejs VM (the socket has been closed since the server kicked you), it will quit.\n",
            "created_at": "2015-03-28T14:13:18Z",
            "html_url": "https://github.com/PrismarineJS/mineflayer/issues/242#issuecomment-87233411",
            "id": 87233411,
            "issue_url": "https://api.github.com/repos/PrismarineJS/mineflayer/issues/242",
            "node_id": "MDEyOklzc3VlQ29tbWVudDg3MjMzNDEx",
            "performed_via_github_app": null,
            "reactions": {
                "+1": 0,
                "-1": 0,
                "confused": 0,
                "eyes": 0,
                "heart": 0,
                "hooray": 0,
                "laugh": 0,
                "rocket": 0,
                "total_count": 0,
                "url": "https://api.github.com/repos/PrismarineJS/mineflayer/issues/comments/87233411/reactions"
            },
            "updated_at": "2015-03-28T14:13:18Z",
            "url": "https://api.github.com/repos/PrismarineJS/mineflayer/issues/comments/87233411",
            "user": {
                "avatar_url": "https://avatars.githubusercontent.com/u/1069318?v=4",
                "events_url": "https://api.github.com/users/roblabla/events{/privacy}",
                "followers_url": "https://api.github.com/users/roblabla/followers",
                "following_url": "https://api.github.com/users/roblabla/following{/other_user}",
                "gists_url": "https://api.github.com/users/roblabla/gists{/gist_id}",
                "gravatar_id": "",
                "html_url": "https://github.com/roblabla",
                "id": 1069318,
                "login": "roblabla",
                "node_id": "MDQ6VXNlcjEwNjkzMTg=",
                "organizations_url": "https://api.github.com/users/roblabla/orgs",
                "received_events_url": "https://api.github.com/users/roblabla/received_events",
                "repos_url": "https://api.github.com/users/roblabla/repos",
                "site_admin": false,
                "starred_url": "https://api.github.com/users/roblabla/starred{/owner}{/repo}",
                "subscriptions_url": "https://api.github.com/users/roblabla/subscriptions",
                "type": "User",
                "url": "https://api.github.com/users/roblabla"
            }
        },
        {
            "author_association": "NONE",
            "body": "Is there a reason that it gets disconnected from the server? Any additional\nconfiguration that is required?\n\n-Matt\n\nOn Saturday, March 28, 2015, Robin Lambertz notifications@github.com\nwrote:\n\n> If the end event fires, it means the client was disconnected from the\n> server. Since there is no more work to be done by the nodejs VM (the socket\n> has been closed since the server kicked you), it will quit.\n> \n> —\n> Reply to this email directly or view it on GitHub\n> https://github.com/andrewrk/mineflayer/issues/242#issuecomment-87233411.\n\n## \n\n_--_\n_Matthew Dobson_ | _apigee https://apigee.com/_ | m: +1.734.634.5472 |\ntwitter @mdobs http://twitter.com/mdobs @apigee\nhttps://twitter.com/apigee\n",
            "created_at": "2015-03-28T14:25:57Z",
            "html_url": "https://github.com/PrismarineJS/mineflayer/issues/242#issuecomment-87235376",
            "id": 87235376,
            "issue_url": "https://api.github.com/repos/PrismarineJS/mineflayer/issues/242",
            "node_id": "MDEyOklzc3VlQ29tbWVudDg3MjM1Mzc2",
            "performed_via_github_app": null,
            "reactions": {
                "+1": 0,
                "-1": 0,
                "confused": 0,
                "eyes": 0,
                "heart": 0,
                "hooray": 0,
                "laugh": 0,
                "rocket": 0,
                "total_count": 0,
                "url": "https://api.github.com/repos/PrismarineJS/mineflayer/issues/comments/87235376/reactions"
            },
            "updated_at": "2015-03-28T14:25:57Z",
            "url": "https://api.github.com/repos/PrismarineJS/mineflayer/issues/comments/87235376",
            "user": {
                "avatar_url": "https://avatars.githubusercontent.com/u/934320?v=4",
                "events_url": "https://api.github.com/users/mdobson/events{/privacy}",
                "followers_url": "https://api.github.com/users/mdobson/followers",
                "following_url": "https://api.github.com/users/mdobson/following{/other_user}",
                "gists_url": "https://api.github.com/users/mdobson/gists{/gist_id}",
                "gravatar_id": "",
                "html_url": "https://github.com/mdobson",
                "id": 934320,
                "login": "mdobson",
                "node_id": "MDQ6VXNlcjkzNDMyMA==",
                "organizations_url": "https://api.github.com/users/mdobson/orgs",
                "received_events_url": "https://api.github.com/users/mdobson/received_events",
                "repos_url": "https://api.github.com/users/mdobson/repos",
                "site_admin": false,
                "starred_url": "https://api.github.com/users/mdobson/starred{/owner}{/repo}",
                "subscriptions_url": "https://api.github.com/users/mdobson/subscriptions",
                "type": "User",
                "url": "https://api.github.com/users/mdobson"
            }
        },
        {
            "author_association": "MEMBER",
            "body": "How did you install mineflayer ?\n\nThe last version is not released on npm, you need to npm install git://github.com/andrewrk/mineflayer.git#master\n",
            "created_at": "2015-03-28T15:02:03Z",
            "html_url": "https://github.com/PrismarineJS/mineflayer/issues/242#issuecomment-87241318",
            "id": 87241318,
            "issue_url": "https://api.github.com/repos/PrismarineJS/mineflayer/issues/242",
            "node_id": "MDEyOklzc3VlQ29tbWVudDg3MjQxMzE4",
            "performed_via_github_app": null,
            "reactions": {
                "+1": 0,
                "-1": 0,
                "confused": 0,
                "eyes": 0,
                "heart": 0,
                "hooray": 0,
                "laugh": 0,
                "rocket": 0,
                "total_count": 0,
                "url": "https://api.github.com/repos/PrismarineJS/mineflayer/issues/comments/87241318/reactions"
            },
            "updated_at": "2015-03-28T15:03:42Z",
            "url": "https://api.github.com/repos/PrismarineJS/mineflayer/issues/comments/87241318",
            "user": {
                "avatar_url": "https://avatars.githubusercontent.com/u/2346494?v=4",
                "events_url": "https://api.github.com/users/rom1504/events{/privacy}",
                "followers_url": "https://api.github.com/users/rom1504/followers",
                "following_url": "https://api.github.com/users/rom1504/following{/other_user}",
                "gists_url": "https://api.github.com/users/rom1504/gists{/gist_id}",
                "gravatar_id": "",
                "html_url": "https://github.com/rom1504",
                "id": 2346494,
                "login": "rom1504",
                "node_id": "MDQ6VXNlcjIzNDY0OTQ=",
                "organizations_url": "https://api.github.com/users/rom1504/orgs",
                "received_events_url": "https://api.github.com/users/rom1504/received_events",
                "repos_url": "https://api.github.com/users/rom1504/repos",
                "site_admin": false,
                "starred_url": "https://api.github.com/users/rom1504/starred{/owner}{/repo}",
                "subscriptions_url": "https://api.github.com/users/rom1504/subscriptions",
                "type": "User",
                "url": "https://api.github.com/users/rom1504"
            }
        },
        {
            "author_association": "NONE",
            "body": "Installed via npm on an OSX system.\n\n-Matt\n\nOn Saturday, March 28, 2015, Romain Beaumont notifications@github.com\nwrote:\n\n> How did you install mineflayer ?\n> \n> —\n> Reply to this email directly or view it on GitHub\n> https://github.com/andrewrk/mineflayer/issues/242#issuecomment-87241318.\n\n## \n\n_--_\n_Matthew Dobson_ | _apigee https://apigee.com/_ | m: +1.734.634.5472 |\ntwitter @mdobs http://twitter.com/mdobs @apigee\nhttps://twitter.com/apigee\n",
            "created_at": "2015-03-28T16:00:56Z",
            "html_url": "https://github.com/PrismarineJS/mineflayer/issues/242#issuecomment-87254661",
            "id": 87254661,
            "issue_url": "https://api.github.com/repos/PrismarineJS/mineflayer/issues/242",
            "node_id": "MDEyOklzc3VlQ29tbWVudDg3MjU0NjYx",
            "performed_via_github_app": null,
            "reactions": {
                "+1": 0,
                "-1": 0,
                "confused": 0,
                "eyes": 0,
                "heart": 0,
                "hooray": 0,
                "laugh": 0,
                "rocket": 0,
                "total_count": 0,
                "url": "https://api.github.com/repos/PrismarineJS/mineflayer/issues/comments/87254661/reactions"
            },
            "updated_at": "2015-03-28T16:00:56Z",
            "url": "https://api.github.com/repos/PrismarineJS/mineflayer/issues/comments/87254661",
            "user": {
                "avatar_url": "https://avatars.githubusercontent.com/u/934320?v=4",
                "events_url": "https://api.github.com/users/mdobson/events{/privacy}",
                "followers_url": "https://api.github.com/users/mdobson/followers",
                "following_url": "https://api.github.com/users/mdobson/following{/other_user}",
                "gists_url": "https://api.github.com/users/mdobson/gists{/gist_id}",
                "gravatar_id": "",
                "html_url": "https://github.com/mdobson",
                "id": 934320,
                "login": "mdobson",
                "node_id": "MDQ6VXNlcjkzNDMyMA==",
                "organizations_url": "https://api.github.com/users/mdobson/orgs",
                "received_events_url": "https://api.github.com/users/mdobson/received_events",
                "repos_url": "https://api.github.com/users/mdobson/repos",
                "site_admin": false,
                "starred_url": "https://api.github.com/users/mdobson/starred{/owner}{/repo}",
                "subscriptions_url": "https://api.github.com/users/mdobson/subscriptions",
                "type": "User",
                "url": "https://api.github.com/users/mdobson"
            }
        },
        {
            "author_association": "CONTRIBUTOR",
            "body": "Have you tried any of the other examples?\n",
            "created_at": "2015-03-28T16:02:05Z",
            "html_url": "https://github.com/PrismarineJS/mineflayer/issues/242#issuecomment-87254887",
            "id": 87254887,
            "issue_url": "https://api.github.com/repos/PrismarineJS/mineflayer/issues/242",
            "node_id": "MDEyOklzc3VlQ29tbWVudDg3MjU0ODg3",
            "performed_via_github_app": null,
            "reactions": {
                "+1": 0,
                "-1": 0,
                "confused": 0,
                "eyes": 0,
                "heart": 0,
                "hooray": 0,
                "laugh": 0,
                "rocket": 0,
                "total_count": 0,
                "url": "https://api.github.com/repos/PrismarineJS/mineflayer/issues/comments/87254887/reactions"
            },
            "updated_at": "2015-03-28T16:02:05Z",
            "url": "https://api.github.com/repos/PrismarineJS/mineflayer/issues/comments/87254887",
            "user": {
                "avatar_url": "https://avatars.githubusercontent.com/u/7506359?v=4",
                "events_url": "https://api.github.com/users/demipixel/events{/privacy}",
                "followers_url": "https://api.github.com/users/demipixel/followers",
                "following_url": "https://api.github.com/users/demipixel/following{/other_user}",
                "gists_url": "https://api.github.com/users/demipixel/gists{/gist_id}",
                "gravatar_id": "",
                "html_url": "https://github.com/demipixel",
                "id": 7506359,
                "login": "demipixel",
                "node_id": "MDQ6VXNlcjc1MDYzNTk=",
                "organizations_url": "https://api.github.com/users/demipixel/orgs",
                "received_events_url": "https://api.github.com/users/demipixel/received_events",
                "repos_url": "https://api.github.com/users/demipixel/repos",
                "site_admin": false,
                "starred_url": "https://api.github.com/users/demipixel/starred{/owner}{/repo}",
                "subscriptions_url": "https://api.github.com/users/demipixel/subscriptions",
                "type": "User",
                "url": "https://api.github.com/users/demipixel"
            }
        },
        {
            "author_association": "NONE",
            "body": "I have not. Is there a better example to try aside from the echo server in\nthe readme?\n\n-Matt\nOn Saturday, March 28, 2015, demipixel notifications@github.com wrote:\n\n> Have you tried any of the other examples?\n> \n> —\n> Reply to this email directly or view it on GitHub\n> https://github.com/andrewrk/mineflayer/issues/242#issuecomment-87254887.\n\n## \n\n_--_\n_Matthew Dobson_ | _apigee https://apigee.com/_ | m: +1.734.634.5472 |\ntwitter @mdobs http://twitter.com/mdobs @apigee\nhttps://twitter.com/apigee\n",
            "created_at": "2015-03-28T16:03:42Z",
            "html_url": "https://github.com/PrismarineJS/mineflayer/issues/242#issuecomment-87255236",
            "id": 87255236,
            "issue_url": "https://api.github.com/repos/PrismarineJS/mineflayer/issues/242",
            "node_id": "MDEyOklzc3VlQ29tbWVudDg3MjU1MjM2",
            "performed_via_github_app": null,
            "reactions": {
                "+1": 0,
                "-1": 0,
                "confused": 0,
                "eyes": 0,
                "heart": 0,
                "hooray": 0,
                "laugh": 0,
                "rocket": 0,
                "total_count": 0,
                "url": "https://api.github.com/repos/PrismarineJS/mineflayer/issues/comments/87255236/reactions"
            },
            "updated_at": "2015-03-28T16:03:42Z",
            "url": "https://api.github.com/repos/PrismarineJS/mineflayer/issues/comments/87255236",
            "user": {
                "avatar_url": "https://avatars.githubusercontent.com/u/934320?v=4",
                "events_url": "https://api.github.com/users/mdobson/events{/privacy}",
                "followers_url": "https://api.github.com/users/mdobson/followers",
                "following_url": "https://api.github.com/users/mdobson/following{/other_user}",
                "gists_url": "https://api.github.com/users/mdobson/gists{/gist_id}",
                "gravatar_id": "",
                "html_url": "https://github.com/mdobson",
                "id": 934320,
                "login": "mdobson",
                "node_id": "MDQ6VXNlcjkzNDMyMA==",
                "organizations_url": "https://api.github.com/users/mdobson/orgs",
                "received_events_url": "https://api.github.com/users/mdobson/received_events",
                "repos_url": "https://api.github.com/users/mdobson/repos",
                "site_admin": false,
                "starred_url": "https://api.github.com/users/mdobson/starred{/owner}{/repo}",
                "subscriptions_url": "https://api.github.com/users/mdobson/subscriptions",
                "type": "User",
                "url": "https://api.github.com/users/mdobson"
            }
        },
        {
            "author_association": "MEMBER",
            "body": "`Installed via npm on an OSX system.`\nso you did `npm install git://github.com/andrewrk/mineflayer.git#master` ?\n`npm install mineflayer` won't get you the last version.\n",
            "created_at": "2015-03-28T16:26:12Z",
            "html_url": "https://github.com/PrismarineJS/mineflayer/issues/242#issuecomment-87258505",
            "id": 87258505,
            "issue_url": "https://api.github.com/repos/PrismarineJS/mineflayer/issues/242",
            "node_id": "MDEyOklzc3VlQ29tbWVudDg3MjU4NTA1",
            "performed_via_github_app": null,
            "reactions": {
                "+1": 0,
                "-1": 0,
                "confused": 0,
                "eyes": 0,
                "heart": 0,
                "hooray": 0,
                "laugh": 0,
                "rocket": 0,
                "total_count": 0,
                "url": "https://api.github.com/repos/PrismarineJS/mineflayer/issues/comments/87258505/reactions"
            },
            "updated_at": "2015-03-28T16:26:18Z",
            "url": "https://api.github.com/repos/PrismarineJS/mineflayer/issues/comments/87258505",
            "user": {
                "avatar_url": "https://avatars.githubusercontent.com/u/2346494?v=4",
                "events_url": "https://api.github.com/users/rom1504/events{/privacy}",
                "followers_url": "https://api.github.com/users/rom1504/followers",
                "following_url": "https://api.github.com/users/rom1504/following{/other_user}",
                "gists_url": "https://api.github.com/users/rom1504/gists{/gist_id}",
                "gravatar_id": "",
                "html_url": "https://github.com/rom1504",
                "id": 2346494,
                "login": "rom1504",
                "node_id": "MDQ6VXNlcjIzNDY0OTQ=",
                "organizations_url": "https://api.github.com/users/rom1504/orgs",
                "received_events_url": "https://api.github.com/users/rom1504/received_events",
                "repos_url": "https://api.github.com/users/rom1504/repos",
                "site_admin": false,
                "starred_url": "https://api.github.com/users/rom1504/starred{/owner}{/repo}",
                "subscriptions_url": "https://api.github.com/users/rom1504/subscriptions",
                "type": "User",
                "url": "https://api.github.com/users/rom1504"
            }
        },
        {
            "author_association": "NONE",
            "body": "I went off the registry. I'll try using repo based install.\n\nOn Saturday, March 28, 2015, Romain Beaumont notifications@github.com\nwrote:\n\n> Installed via npm on an OSX system.\n> so you did do npm install git://github.com/andrewrk/mineflayer.git#master\n> ?\n> npm install mineflayer won't get you the last version.\n> \n> —\n> Reply to this email directly or view it on GitHub\n> https://github.com/andrewrk/mineflayer/issues/242#issuecomment-87258505.\n\n## \n\n_--_\n_Matthew Dobson_ | _apigee https://apigee.com/_ | m: +1.734.634.5472 |\ntwitter @mdobs http://twitter.com/mdobs @apigee\nhttps://twitter.com/apigee\n",
            "created_at": "2015-03-28T16:27:27Z",
            "html_url": "https://github.com/PrismarineJS/mineflayer/issues/242#issuecomment-87258581",
            "id": 87258581,
            "issue_url": "https://api.github.com/repos/PrismarineJS/mineflayer/issues/242",
            "node_id": "MDEyOklzc3VlQ29tbWVudDg3MjU4NTgx",
            "performed_via_github_app": null,
            "reactions": {
                "+1": 0,
                "-1": 0,
                "confused": 0,
                "eyes": 0,
                "heart": 0,
                "hooray": 0,
                "laugh": 0,
                "rocket": 0,
                "total_count": 0,
                "url": "https://api.github.com/repos/PrismarineJS/mineflayer/issues/comments/87258581/reactions"
            },
            "updated_at": "2015-03-28T16:27:27Z",
            "url": "https://api.github.com/repos/PrismarineJS/mineflayer/issues/comments/87258581",
            "user": {
                "avatar_url": "https://avatars.githubusercontent.com/u/934320?v=4",
                "events_url": "https://api.github.com/users/mdobson/events{/privacy}",
                "followers_url": "https://api.github.com/users/mdobson/followers",
                "following_url": "https://api.github.com/users/mdobson/following{/other_user}",
                "gists_url": "https://api.github.com/users/mdobson/gists{/gist_id}",
                "gravatar_id": "",
                "html_url": "https://github.com/mdobson",
                "id": 934320,
                "login": "mdobson",
                "node_id": "MDQ6VXNlcjkzNDMyMA==",
                "organizations_url": "https://api.github.com/users/mdobson/orgs",
                "received_events_url": "https://api.github.com/users/mdobson/received_events",
                "repos_url": "https://api.github.com/users/mdobson/repos",
                "site_admin": false,
                "starred_url": "https://api.github.com/users/mdobson/starred{/owner}{/repo}",
                "subscriptions_url": "https://api.github.com/users/mdobson/subscriptions",
                "type": "User",
                "url": "https://api.github.com/users/mdobson"
            }
        },
        {
            "author_association": "CONTRIBUTOR",
            "body": "Yes, there is an \"examples\" folder. I'm sure this isn't your problem, but once you get it fixed, try running some of those. MOST work :P\n",
            "created_at": "2015-03-28T16:45:04Z",
            "html_url": "https://github.com/PrismarineJS/mineflayer/issues/242#issuecomment-87263326",
            "id": 87263326,
            "issue_url": "https://api.github.com/repos/PrismarineJS/mineflayer/issues/242",
            "node_id": "MDEyOklzc3VlQ29tbWVudDg3MjYzMzI2",
            "performed_via_github_app": null,
            "reactions": {
                "+1": 0,
                "-1": 0,
                "confused": 0,
                "eyes": 0,
                "heart": 0,
                "hooray": 0,
                "laugh": 0,
                "rocket": 0,
                "total_count": 0,
                "url": "https://api.github.com/repos/PrismarineJS/mineflayer/issues/comments/87263326/reactions"
            },
            "updated_at": "2015-03-28T16:45:04Z",
            "url": "https://api.github.com/repos/PrismarineJS/mineflayer/issues/comments/87263326",
            "user": {
                "avatar_url": "https://avatars.githubusercontent.com/u/7506359?v=4",
                "events_url": "https://api.github.com/users/demipixel/events{/privacy}",
                "followers_url": "https://api.github.com/users/demipixel/followers",
                "following_url": "https://api.github.com/users/demipixel/following{/other_user}",
                "gists_url": "https://api.github.com/users/demipixel/gists{/gist_id}",
                "gravatar_id": "",
                "html_url": "https://github.com/demipixel",
                "id": 7506359,
                "login": "demipixel",
                "node_id": "MDQ6VXNlcjc1MDYzNTk=",
                "organizations_url": "https://api.github.com/users/demipixel/orgs",
                "received_events_url": "https://api.github.com/users/demipixel/received_events",
                "repos_url": "https://api.github.com/users/demipixel/repos",
                "site_admin": false,
                "starred_url": "https://api.github.com/users/demipixel/starred{/owner}{/repo}",
                "subscriptions_url": "https://api.github.com/users/demipixel/subscriptions",
                "type": "User",
                "url": "https://api.github.com/users/demipixel"
            }
        },
        {
            "author_association": "MEMBER",
            "body": "So, this issue was about an old mineflayer version (which obviously doesn't work on 1.8 servers), closing.\n",
            "created_at": "2015-03-29T15:22:57Z",
            "html_url": "https://github.com/PrismarineJS/mineflayer/issues/242#issuecomment-87427193",
            "id": 87427193,
            "issue_url": "https://api.github.com/repos/PrismarineJS/mineflayer/issues/242",
            "node_id": "MDEyOklzc3VlQ29tbWVudDg3NDI3MTkz",
            "performed_via_github_app": null,
            "reactions": {
                "+1": 0,
                "-1": 0,
                "confused": 0,
                "eyes": 0,
                "heart": 0,
                "hooray": 0,
                "laugh": 0,
                "rocket": 0,
                "total_count": 0,
                "url": "https://api.github.com/repos/PrismarineJS/mineflayer/issues/comments/87427193/reactions"
            },
            "updated_at": "2015-03-29T15:22:57Z",
            "url": "https://api.github.com/repos/PrismarineJS/mineflayer/issues/comments/87427193",
            "user": {
                "avatar_url": "https://avatars.githubusercontent.com/u/2346494?v=4",
                "events_url": "https://api.github.com/users/rom1504/events{/privacy}",
                "followers_url": "https://api.github.com/users/rom1504/followers",
                "following_url": "https://api.github.com/users/rom1504/following{/other_user}",
                "gists_url": "https://api.github.com/users/rom1504/gists{/gist_id}",
                "gravatar_id": "",
                "html_url": "https://github.com/rom1504",
                "id": 2346494,
                "login": "rom1504",
                "node_id": "MDQ6VXNlcjIzNDY0OTQ=",
                "organizations_url": "https://api.github.com/users/rom1504/orgs",
                "received_events_url": "https://api.github.com/users/rom1504/received_events",
                "repos_url": "https://api.github.com/users/rom1504/repos",
                "site_admin": false,
                "starred_url": "https://api.github.com/users/rom1504/starred{/owner}{/repo}",
                "subscriptions_url": "https://api.github.com/users/rom1504/subscriptions",
                "type": "User",
                "url": "https://api.github.com/users/rom1504"
            }
        },
        {
            "author_association": "CONTRIBUTOR",
            "body": "I am having this problem with node 14.3.0 and mineflayer 2.15.0, I execute [echo.js](https://github.com/PrismarineJS/mineflayer/blob/master/examples/echo.js) and it simply exits without printing any output whatsoever",
            "created_at": "2020-05-20T16:54:38Z",
            "html_url": "https://github.com/PrismarineJS/mineflayer/issues/242#issuecomment-631598567",
            "id": 631598567,
            "issue_url": "https://api.github.com/repos/PrismarineJS/mineflayer/issues/242",
            "node_id": "MDEyOklzc3VlQ29tbWVudDYzMTU5ODU2Nw==",
            "performed_via_github_app": null,
            "reactions": {
                "+1": 0,
                "-1": 0,
                "confused": 0,
                "eyes": 0,
                "heart": 0,
                "hooray": 0,
                "laugh": 0,
                "rocket": 0,
                "total_count": 0,
                "url": "https://api.github.com/repos/PrismarineJS/mineflayer/issues/comments/631598567/reactions"
            },
            "updated_at": "2020-05-20T16:54:38Z",
            "url": "https://api.github.com/repos/PrismarineJS/mineflayer/issues/comments/631598567",
            "user": {
                "avatar_url": "https://avatars.githubusercontent.com/u/53862811?v=4",
                "events_url": "https://api.github.com/users/x4e/events{/privacy}",
                "followers_url": "https://api.github.com/users/x4e/followers",
                "following_url": "https://api.github.com/users/x4e/following{/other_user}",
                "gists_url": "https://api.github.com/users/x4e/gists{/gist_id}",
                "gravatar_id": "",
                "html_url": "https://github.com/x4e",
                "id": 53862811,
                "login": "x4e",
                "node_id": "MDQ6VXNlcjUzODYyODEx",
                "organizations_url": "https://api.github.com/users/x4e/orgs",
                "received_events_url": "https://api.github.com/users/x4e/received_events",
                "repos_url": "https://api.github.com/users/x4e/repos",
                "site_admin": false,
                "starred_url": "https://api.github.com/users/x4e/starred{/owner}{/repo}",
                "subscriptions_url": "https://api.github.com/users/x4e/subscriptions",
                "type": "User",
                "url": "https://api.github.com/users/x4e"
            }
        },
        {
            "author_association": "MEMBER",
            "body": "Can you try again ?\n\nOn Wed, May 20, 2020, 18:54 cookiedragon234 <notifications@github.com>\nwrote:\n\n> I am having this problem with node 14.3.0 and mineflayer 2.15.0, I execute\n> echo.js\n> <https://github.com/PrismarineJS/mineflayer/blob/master/examples/echo.js>\n> and it simply exits without printing any output whatsoever\n>\n> —\n> You are receiving this because you modified the open/close state.\n> Reply to this email directly, view it on GitHub\n> <https://github.com/PrismarineJS/mineflayer/issues/242#issuecomment-631598567>,\n> or unsubscribe\n> <https://github.com/notifications/unsubscribe-auth/AAR437WF623YYXNG54QA6WLRSQDN3ANCNFSM4A6ZN4YQ>\n> .\n>\n",
            "created_at": "2020-05-20T19:34:22Z",
            "html_url": "https://github.com/PrismarineJS/mineflayer/issues/242#issuecomment-631681482",
            "id": 631681482,
            "issue_url": "https://api.github.com/repos/PrismarineJS/mineflayer/issues/242",
            "node_id": "MDEyOklzc3VlQ29tbWVudDYzMTY4MTQ4Mg==",
            "performed_via_github_app": null,
            "reactions": {
                "+1": 0,
                "-1": 0,
                "confused": 0,
                "eyes": 0,
                "heart": 0,
                "hooray": 0,
                "laugh": 0,
                "rocket": 0,
                "total_count": 0,
                "url": "https://api.github.com/repos/PrismarineJS/mineflayer/issues/comments/631681482/reactions"
            },
            "updated_at": "2020-05-20T19:34:22Z",
            "url": "https://api.github.com/repos/PrismarineJS/mineflayer/issues/comments/631681482",
            "user": {
                "avatar_url": "https://avatars.githubusercontent.com/u/2346494?v=4",
                "events_url": "https://api.github.com/users/rom1504/events{/privacy}",
                "followers_url": "https://api.github.com/users/rom1504/followers",
                "following_url": "https://api.github.com/users/rom1504/following{/other_user}",
                "gists_url": "https://api.github.com/users/rom1504/gists{/gist_id}",
                "gravatar_id": "",
                "html_url": "https://github.com/rom1504",
                "id": 2346494,
                "login": "rom1504",
                "node_id": "MDQ6VXNlcjIzNDY0OTQ=",
                "organizations_url": "https://api.github.com/users/rom1504/orgs",
                "received_events_url": "https://api.github.com/users/rom1504/received_events",
                "repos_url": "https://api.github.com/users/rom1504/repos",
                "site_admin": false,
                "starred_url": "https://api.github.com/users/rom1504/starred{/owner}{/repo}",
                "subscriptions_url": "https://api.github.com/users/rom1504/subscriptions",
                "type": "User",
                "url": "https://api.github.com/users/rom1504"
            }
        },
        {
            "author_association": "CONTRIBUTOR",
            "body": "Sorry, I forgot to bind the “kick” event, my bad!",
            "created_at": "2020-05-21T22:17:40Z",
            "html_url": "https://github.com/PrismarineJS/mineflayer/issues/242#issuecomment-632374840",
            "id": 632374840,
            "issue_url": "https://api.github.com/repos/PrismarineJS/mineflayer/issues/242",
            "node_id": "MDEyOklzc3VlQ29tbWVudDYzMjM3NDg0MA==",
            "performed_via_github_app": null,
            "reactions": {
                "+1": 0,
                "-1": 0,
                "confused": 0,
                "eyes": 0,
                "heart": 0,
                "hooray": 0,
                "laugh": 0,
                "rocket": 0,
                "total_count": 0,
                "url": "https://api.github.com/repos/PrismarineJS/mineflayer/issues/comments/632374840/reactions"
            },
            "updated_at": "2020-05-21T22:17:40Z",
            "url": "https://api.github.com/repos/PrismarineJS/mineflayer/issues/comments/632374840",
            "user": {
                "avatar_url": "https://avatars.githubusercontent.com/u/53862811?v=4",
                "events_url": "https://api.github.com/users/x4e/events{/privacy}",
                "followers_url": "https://api.github.com/users/x4e/followers",
                "following_url": "https://api.github.com/users/x4e/following{/other_user}",
                "gists_url": "https://api.github.com/users/x4e/gists{/gist_id}",
                "gravatar_id": "",
                "html_url": "https://github.com/x4e",
                "id": 53862811,
                "login": "x4e",
                "node_id": "MDQ6VXNlcjUzODYyODEx",
                "organizations_url": "https://api.github.com/users/x4e/orgs",
                "received_events_url": "https://api.github.com/users/x4e/received_events",
                "repos_url": "https://api.github.com/users/x4e/repos",
                "site_admin": false,
                "starred_url": "https://api.github.com/users/x4e/starred{/owner}{/repo}",
                "subscriptions_url": "https://api.github.com/users/x4e/subscriptions",
                "type": "User",
                "url": "https://api.github.com/users/x4e"
            }
        }
    ],
    "comments": 13,
    "comments_url": "https://api.github.com/repos/PrismarineJS/mineflayer/issues/242/comments",
    "created_at": "2015-03-28T13:56:04Z",
    "event_data": [
        {
            "actor": {
                "avatar_url": "https://avatars.githubusercontent.com/u/4744496?v=4",
                "events_url": "https://api.github.com/users/mdobs/events{/privacy}",
                "followers_url": "https://api.github.com/users/mdobs/followers",
                "following_url": "https://api.github.com/users/mdobs/following{/other_user}",
                "gists_url": "https://api.github.com/users/mdobs/gists{/gist_id}",
                "gravatar_id": "",
                "html_url": "https://github.com/mdobs",
                "id": 4744496,
                "login": "mdobs",
                "node_id": "MDQ6VXNlcjQ3NDQ0OTY=",
                "organizations_url": "https://api.github.com/users/mdobs/orgs",
                "received_events_url": "https://api.github.com/users/mdobs/received_events",
                "repos_url": "https://api.github.com/users/mdobs/repos",
                "site_admin": false,
                "starred_url": "https://api.github.com/users/mdobs/starred{/owner}{/repo}",
                "subscriptions_url": "https://api.github.com/users/mdobs/subscriptions",
                "type": "User",
                "url": "https://api.github.com/users/mdobs"
            },
            "commit_id": null,
            "commit_url": null,
            "created_at": "2015-03-28T14:25:57Z",
            "event": "mentioned",
            "id": 267588338,
            "node_id": "MDE0Ok1lbnRpb25lZEV2ZW50MjY3NTg4MzM4",
            "performed_via_github_app": null,
            "url": "https://api.github.com/repos/PrismarineJS/mineflayer/issues/events/267588338"
        },
        {
            "actor": {
                "avatar_url": "https://avatars.githubusercontent.com/u/4744496?v=4",
                "events_url": "https://api.github.com/users/mdobs/events{/privacy}",
                "followers_url": "https://api.github.com/users/mdobs/followers",
                "following_url": "https://api.github.com/users/mdobs/following{/other_user}",
                "gists_url": "https://api.github.com/users/mdobs/gists{/gist_id}",
                "gravatar_id": "",
                "html_url": "https://github.com/mdobs",
                "id": 4744496,
                "login": "mdobs",
                "node_id": "MDQ6VXNlcjQ3NDQ0OTY=",
                "organizations_url": "https://api.github.com/users/mdobs/orgs",
                "received_events_url": "https://api.github.com/users/mdobs/received_events",
                "repos_url": "https://api.github.com/users/mdobs/repos",
                "site_admin": false,
                "starred_url": "https://api.github.com/users/mdobs/starred{/owner}{/repo}",
                "subscriptions_url": "https://api.github.com/users/mdobs/subscriptions",
                "type": "User",
                "url": "https://api.github.com/users/mdobs"
            },
            "commit_id": null,
            "commit_url": null,
            "created_at": "2015-03-28T14:25:57Z",
            "event": "subscribed",
            "id": 267588339,
            "node_id": "MDE1OlN1YnNjcmliZWRFdmVudDI2NzU4ODMzOQ==",
            "performed_via_github_app": null,
            "url": "https://api.github.com/repos/PrismarineJS/mineflayer/issues/events/267588339"
        },
        {
            "actor": {
                "avatar_url": "https://avatars.githubusercontent.com/u/199705?v=4",
                "events_url": "https://api.github.com/users/apigee-internal/events{/privacy}",
                "followers_url": "https://api.github.com/users/apigee-internal/followers",
                "following_url": "https://api.github.com/users/apigee-internal/following{/other_user}",
                "gists_url": "https://api.github.com/users/apigee-internal/gists{/gist_id}",
                "gravatar_id": "",
                "html_url": "https://github.com/apigee-internal",
                "id": 199705,
                "login": "apigee-internal",
                "node_id": "MDEyOk9yZ2FuaXphdGlvbjE5OTcwNQ==",
                "organizations_url": "https://api.github.com/users/apigee-internal/orgs",
                "received_events_url": "https://api.github.com/users/apigee-internal/received_events",
                "repos_url": "https://api.github.com/users/apigee-internal/repos",
                "site_admin": false,
                "starred_url": "https://api.github.com/users/apigee-internal/starred{/owner}{/repo}",
                "subscriptions_url": "https://api.github.com/users/apigee-internal/subscriptions",
                "type": "Organization",
                "url": "https://api.github.com/users/apigee-internal"
            },
            "commit_id": null,
            "commit_url": null,
            "created_at": "2015-03-28T14:25:57Z",
            "event": "mentioned",
            "id": 267588340,
            "node_id": "MDE0Ok1lbnRpb25lZEV2ZW50MjY3NTg4MzQw",
            "performed_via_github_app": null,
            "url": "https://api.github.com/repos/PrismarineJS/mineflayer/issues/events/267588340"
        },
        {
            "actor": {
                "avatar_url": "https://avatars.githubusercontent.com/u/199705?v=4",
                "events_url": "https://api.github.com/users/apigee-internal/events{/privacy}",
                "followers_url": "https://api.github.com/users/apigee-internal/followers",
                "following_url": "https://api.github.com/users/apigee-internal/following{/other_user}",
                "gists_url": "https://api.github.com/users/apigee-internal/gists{/gist_id}",
                "gravatar_id": "",
                "html_url": "https://github.com/apigee-internal",
                "id": 199705,
                "login": "apigee-internal",
                "node_id": "MDEyOk9yZ2FuaXphdGlvbjE5OTcwNQ==",
                "organizations_url": "https://api.github.com/users/apigee-internal/orgs",
                "received_events_url": "https://api.github.com/users/apigee-internal/received_events",
                "repos_url": "https://api.github.com/users/apigee-internal/repos",
                "site_admin": false,
                "starred_url": "https://api.github.com/users/apigee-internal/starred{/owner}{/repo}",
                "subscriptions_url": "https://api.github.com/users/apigee-internal/subscriptions",
                "type": "Organization",
                "url": "https://api.github.com/users/apigee-internal"
            },
            "commit_id": null,
            "commit_url": null,
            "created_at": "2015-03-28T14:25:57Z",
            "event": "subscribed",
            "id": 267588341,
            "node_id": "MDE1OlN1YnNjcmliZWRFdmVudDI2NzU4ODM0MQ==",
            "performed_via_github_app": null,
            "url": "https://api.github.com/repos/PrismarineJS/mineflayer/issues/events/267588341"
        },
        {
            "actor": {
                "avatar_url": "https://avatars.githubusercontent.com/u/4744496?v=4",
                "events_url": "https://api.github.com/users/mdobs/events{/privacy}",
                "followers_url": "https://api.github.com/users/mdobs/followers",
                "following_url": "https://api.github.com/users/mdobs/following{/other_user}",
                "gists_url": "https://api.github.com/users/mdobs/gists{/gist_id}",
                "gravatar_id": "",
                "html_url": "https://github.com/mdobs",
                "id": 4744496,
                "login": "mdobs",
                "node_id": "MDQ6VXNlcjQ3NDQ0OTY=",
                "organizations_url": "https://api.github.com/users/mdobs/orgs",
                "received_events_url": "https://api.github.com/users/mdobs/received_events",
                "repos_url": "https://api.github.com/users/mdobs/repos",
                "site_admin": false,
                "starred_url": "https://api.github.com/users/mdobs/starred{/owner}{/repo}",
                "subscriptions_url": "https://api.github.com/users/mdobs/subscriptions",
                "type": "User",
                "url": "https://api.github.com/users/mdobs"
            },
            "commit_id": null,
            "commit_url": null,
            "created_at": "2015-03-28T16:00:56Z",
            "event": "mentioned",
            "id": 267618703,
            "node_id": "MDE0Ok1lbnRpb25lZEV2ZW50MjY3NjE4NzAz",
            "performed_via_github_app": null,
            "url": "https://api.github.com/repos/PrismarineJS/mineflayer/issues/events/267618703"
        },
        {
            "actor": {
                "avatar_url": "https://avatars.githubusercontent.com/u/4744496?v=4",
                "events_url": "https://api.github.com/users/mdobs/events{/privacy}",
                "followers_url": "https://api.github.com/users/mdobs/followers",
                "following_url": "https://api.github.com/users/mdobs/following{/other_user}",
                "gists_url": "https://api.github.com/users/mdobs/gists{/gist_id}",
                "gravatar_id": "",
                "html_url": "https://github.com/mdobs",
                "id": 4744496,
                "login": "mdobs",
                "node_id": "MDQ6VXNlcjQ3NDQ0OTY=",
                "organizations_url": "https://api.github.com/users/mdobs/orgs",
                "received_events_url": "https://api.github.com/users/mdobs/received_events",
                "repos_url": "https://api.github.com/users/mdobs/repos",
                "site_admin": false,
                "starred_url": "https://api.github.com/users/mdobs/starred{/owner}{/repo}",
                "subscriptions_url": "https://api.github.com/users/mdobs/subscriptions",
                "type": "User",
                "url": "https://api.github.com/users/mdobs"
            },
            "commit_id": null,
            "commit_url": null,
            "created_at": "2015-03-28T16:00:56Z",
            "event": "subscribed",
            "id": 267618704,
            "node_id": "MDE1OlN1YnNjcmliZWRFdmVudDI2NzYxODcwNA==",
            "performed_via_github_app": null,
            "url": "https://api.github.com/repos/PrismarineJS/mineflayer/issues/events/267618704"
        },
        {
            "actor": {
                "avatar_url": "https://avatars.githubusercontent.com/u/199705?v=4",
                "events_url": "https://api.github.com/users/apigee-internal/events{/privacy}",
                "followers_url": "https://api.github.com/users/apigee-internal/followers",
                "following_url": "https://api.github.com/users/apigee-internal/following{/other_user}",
                "gists_url": "https://api.github.com/users/apigee-internal/gists{/gist_id}",
                "gravatar_id": "",
                "html_url": "https://github.com/apigee-internal",
                "id": 199705,
                "login": "apigee-internal",
                "node_id": "MDEyOk9yZ2FuaXphdGlvbjE5OTcwNQ==",
                "organizations_url": "https://api.github.com/users/apigee-internal/orgs",
                "received_events_url": "https://api.github.com/users/apigee-internal/received_events",
                "repos_url": "https://api.github.com/users/apigee-internal/repos",
                "site_admin": false,
                "starred_url": "https://api.github.com/users/apigee-internal/starred{/owner}{/repo}",
                "subscriptions_url": "https://api.github.com/users/apigee-internal/subscriptions",
                "type": "Organization",
                "url": "https://api.github.com/users/apigee-internal"
            },
            "commit_id": null,
            "commit_url": null,
            "created_at": "2015-03-28T16:00:56Z",
            "event": "mentioned",
            "id": 267618705,
            "node_id": "MDE0Ok1lbnRpb25lZEV2ZW50MjY3NjE4NzA1",
            "performed_via_github_app": null,
            "url": "https://api.github.com/repos/PrismarineJS/mineflayer/issues/events/267618705"
        },
        {
            "actor": {
                "avatar_url": "https://avatars.githubusercontent.com/u/199705?v=4",
                "events_url": "https://api.github.com/users/apigee-internal/events{/privacy}",
                "followers_url": "https://api.github.com/users/apigee-internal/followers",
                "following_url": "https://api.github.com/users/apigee-internal/following{/other_user}",
                "gists_url": "https://api.github.com/users/apigee-internal/gists{/gist_id}",
                "gravatar_id": "",
                "html_url": "https://github.com/apigee-internal",
                "id": 199705,
                "login": "apigee-internal",
                "node_id": "MDEyOk9yZ2FuaXphdGlvbjE5OTcwNQ==",
                "organizations_url": "https://api.github.com/users/apigee-internal/orgs",
                "received_events_url": "https://api.github.com/users/apigee-internal/received_events",
                "repos_url": "https://api.github.com/users/apigee-internal/repos",
                "site_admin": false,
                "starred_url": "https://api.github.com/users/apigee-internal/starred{/owner}{/repo}",
                "subscriptions_url": "https://api.github.com/users/apigee-internal/subscriptions",
                "type": "Organization",
                "url": "https://api.github.com/users/apigee-internal"
            },
            "commit_id": null,
            "commit_url": null,
            "created_at": "2015-03-28T16:00:56Z",
            "event": "subscribed",
            "id": 267618706,
            "node_id": "MDE1OlN1YnNjcmliZWRFdmVudDI2NzYxODcwNg==",
            "performed_via_github_app": null,
            "url": "https://api.github.com/repos/PrismarineJS/mineflayer/issues/events/267618706"
        },
        {
            "actor": {
                "avatar_url": "https://avatars.githubusercontent.com/u/4744496?v=4",
                "events_url": "https://api.github.com/users/mdobs/events{/privacy}",
                "followers_url": "https://api.github.com/users/mdobs/followers",
                "following_url": "https://api.github.com/users/mdobs/following{/other_user}",
                "gists_url": "https://api.github.com/users/mdobs/gists{/gist_id}",
                "gravatar_id": "",
                "html_url": "https://github.com/mdobs",
                "id": 4744496,
                "login": "mdobs",
                "node_id": "MDQ6VXNlcjQ3NDQ0OTY=",
                "organizations_url": "https://api.github.com/users/mdobs/orgs",
                "received_events_url": "https://api.github.com/users/mdobs/received_events",
                "repos_url": "https://api.github.com/users/mdobs/repos",
                "site_admin": false,
                "starred_url": "https://api.github.com/users/mdobs/starred{/owner}{/repo}",
                "subscriptions_url": "https://api.github.com/users/mdobs/subscriptions",
                "type": "User",
                "url": "https://api.github.com/users/mdobs"
            },
            "commit_id": null,
            "commit_url": null,
            "created_at": "2015-03-28T16:03:42Z",
            "event": "mentioned",
            "id": 267619917,
            "node_id": "MDE0Ok1lbnRpb25lZEV2ZW50MjY3NjE5OTE3",
            "performed_via_github_app": null,
            "url": "https://api.github.com/repos/PrismarineJS/mineflayer/issues/events/267619917"
        },
        {
            "actor": {
                "avatar_url": "https://avatars.githubusercontent.com/u/4744496?v=4",
                "events_url": "https://api.github.com/users/mdobs/events{/privacy}",
                "followers_url": "https://api.github.com/users/mdobs/followers",
                "following_url": "https://api.github.com/users/mdobs/following{/other_user}",
                "gists_url": "https://api.github.com/users/mdobs/gists{/gist_id}",
                "gravatar_id": "",
                "html_url": "https://github.com/mdobs",
                "id": 4744496,
                "login": "mdobs",
                "node_id": "MDQ6VXNlcjQ3NDQ0OTY=",
                "organizations_url": "https://api.github.com/users/mdobs/orgs",
                "received_events_url": "https://api.github.com/users/mdobs/received_events",
                "repos_url": "https://api.github.com/users/mdobs/repos",
                "site_admin": false,
                "starred_url": "https://api.github.com/users/mdobs/starred{/owner}{/repo}",
                "subscriptions_url": "https://api.github.com/users/mdobs/subscriptions",
                "type": "User",
                "url": "https://api.github.com/users/mdobs"
            },
            "commit_id": null,
            "commit_url": null,
            "created_at": "2015-03-28T16:03:42Z",
            "event": "subscribed",
            "id": 267619918,
            "node_id": "MDE1OlN1YnNjcmliZWRFdmVudDI2NzYxOTkxOA==",
            "performed_via_github_app": null,
            "url": "https://api.github.com/repos/PrismarineJS/mineflayer/issues/events/267619918"
        },
        {
            "actor": {
                "avatar_url": "https://avatars.githubusercontent.com/u/199705?v=4",
                "events_url": "https://api.github.com/users/apigee-internal/events{/privacy}",
                "followers_url": "https://api.github.com/users/apigee-internal/followers",
                "following_url": "https://api.github.com/users/apigee-internal/following{/other_user}",
                "gists_url": "https://api.github.com/users/apigee-internal/gists{/gist_id}",
                "gravatar_id": "",
                "html_url": "https://github.com/apigee-internal",
                "id": 199705,
                "login": "apigee-internal",
                "node_id": "MDEyOk9yZ2FuaXphdGlvbjE5OTcwNQ==",
                "organizations_url": "https://api.github.com/users/apigee-internal/orgs",
                "received_events_url": "https://api.github.com/users/apigee-internal/received_events",
                "repos_url": "https://api.github.com/users/apigee-internal/repos",
                "site_admin": false,
                "starred_url": "https://api.github.com/users/apigee-internal/starred{/owner}{/repo}",
                "subscriptions_url": "https://api.github.com/users/apigee-internal/subscriptions",
                "type": "Organization",
                "url": "https://api.github.com/users/apigee-internal"
            },
            "commit_id": null,
            "commit_url": null,
            "created_at": "2015-03-28T16:03:42Z",
            "event": "mentioned",
            "id": 267619919,
            "node_id": "MDE0Ok1lbnRpb25lZEV2ZW50MjY3NjE5OTE5",
            "performed_via_github_app": null,
            "url": "https://api.github.com/repos/PrismarineJS/mineflayer/issues/events/267619919"
        },
        {
            "actor": {
                "avatar_url": "https://avatars.githubusercontent.com/u/199705?v=4",
                "events_url": "https://api.github.com/users/apigee-internal/events{/privacy}",
                "followers_url": "https://api.github.com/users/apigee-internal/followers",
                "following_url": "https://api.github.com/users/apigee-internal/following{/other_user}",
                "gists_url": "https://api.github.com/users/apigee-internal/gists{/gist_id}",
                "gravatar_id": "",
                "html_url": "https://github.com/apigee-internal",
                "id": 199705,
                "login": "apigee-internal",
                "node_id": "MDEyOk9yZ2FuaXphdGlvbjE5OTcwNQ==",
                "organizations_url": "https://api.github.com/users/apigee-internal/orgs",
                "received_events_url": "https://api.github.com/users/apigee-internal/received_events",
                "repos_url": "https://api.github.com/users/apigee-internal/repos",
                "site_admin": false,
                "starred_url": "https://api.github.com/users/apigee-internal/starred{/owner}{/repo}",
                "subscriptions_url": "https://api.github.com/users/apigee-internal/subscriptions",
                "type": "Organization",
                "url": "https://api.github.com/users/apigee-internal"
            },
            "commit_id": null,
            "commit_url": null,
            "created_at": "2015-03-28T16:03:42Z",
            "event": "subscribed",
            "id": 267619920,
            "node_id": "MDE1OlN1YnNjcmliZWRFdmVudDI2NzYxOTkyMA==",
            "performed_via_github_app": null,
            "url": "https://api.github.com/repos/PrismarineJS/mineflayer/issues/events/267619920"
        },
        {
            "actor": {
                "avatar_url": "https://avatars.githubusercontent.com/u/4744496?v=4",
                "events_url": "https://api.github.com/users/mdobs/events{/privacy}",
                "followers_url": "https://api.github.com/users/mdobs/followers",
                "following_url": "https://api.github.com/users/mdobs/following{/other_user}",
                "gists_url": "https://api.github.com/users/mdobs/gists{/gist_id}",
                "gravatar_id": "",
                "html_url": "https://github.com/mdobs",
                "id": 4744496,
                "login": "mdobs",
                "node_id": "MDQ6VXNlcjQ3NDQ0OTY=",
                "organizations_url": "https://api.github.com/users/mdobs/orgs",
                "received_events_url": "https://api.github.com/users/mdobs/received_events",
                "repos_url": "https://api.github.com/users/mdobs/repos",
                "site_admin": false,
                "starred_url": "https://api.github.com/users/mdobs/starred{/owner}{/repo}",
                "subscriptions_url": "https://api.github.com/users/mdobs/subscriptions",
                "type": "User",
                "url": "https://api.github.com/users/mdobs"
            },
            "commit_id": null,
            "commit_url": null,
            "created_at": "2015-03-28T16:27:27Z",
            "event": "mentioned",
            "id": 267626291,
            "node_id": "MDE0Ok1lbnRpb25lZEV2ZW50MjY3NjI2Mjkx",
            "performed_via_github_app": null,
            "url": "https://api.github.com/repos/PrismarineJS/mineflayer/issues/events/267626291"
        },
        {
            "actor": {
                "avatar_url": "https://avatars.githubusercontent.com/u/4744496?v=4",
                "events_url": "https://api.github.com/users/mdobs/events{/privacy}",
                "followers_url": "https://api.github.com/users/mdobs/followers",
                "following_url": "https://api.github.com/users/mdobs/following{/other_user}",
                "gists_url": "https://api.github.com/users/mdobs/gists{/gist_id}",
                "gravatar_id": "",
                "html_url": "https://github.com/mdobs",
                "id": 4744496,
                "login": "mdobs",
                "node_id": "MDQ6VXNlcjQ3NDQ0OTY=",
                "organizations_url": "https://api.github.com/users/mdobs/orgs",
                "received_events_url": "https://api.github.com/users/mdobs/received_events",
                "repos_url": "https://api.github.com/users/mdobs/repos",
                "site_admin": false,
                "starred_url": "https://api.github.com/users/mdobs/starred{/owner}{/repo}",
                "subscriptions_url": "https://api.github.com/users/mdobs/subscriptions",
                "type": "User",
                "url": "https://api.github.com/users/mdobs"
            },
            "commit_id": null,
            "commit_url": null,
            "created_at": "2015-03-28T16:27:27Z",
            "event": "subscribed",
            "id": 267626292,
            "node_id": "MDE1OlN1YnNjcmliZWRFdmVudDI2NzYyNjI5Mg==",
            "performed_via_github_app": null,
            "url": "https://api.github.com/repos/PrismarineJS/mineflayer/issues/events/267626292"
        },
        {
            "actor": {
                "avatar_url": "https://avatars.githubusercontent.com/u/199705?v=4",
                "events_url": "https://api.github.com/users/apigee-internal/events{/privacy}",
                "followers_url": "https://api.github.com/users/apigee-internal/followers",
                "following_url": "https://api.github.com/users/apigee-internal/following{/other_user}",
                "gists_url": "https://api.github.com/users/apigee-internal/gists{/gist_id}",
                "gravatar_id": "",
                "html_url": "https://github.com/apigee-internal",
                "id": 199705,
                "login": "apigee-internal",
                "node_id": "MDEyOk9yZ2FuaXphdGlvbjE5OTcwNQ==",
                "organizations_url": "https://api.github.com/users/apigee-internal/orgs",
                "received_events_url": "https://api.github.com/users/apigee-internal/received_events",
                "repos_url": "https://api.github.com/users/apigee-internal/repos",
                "site_admin": false,
                "starred_url": "https://api.github.com/users/apigee-internal/starred{/owner}{/repo}",
                "subscriptions_url": "https://api.github.com/users/apigee-internal/subscriptions",
                "type": "Organization",
                "url": "https://api.github.com/users/apigee-internal"
            },
            "commit_id": null,
            "commit_url": null,
            "created_at": "2015-03-28T16:27:27Z",
            "event": "mentioned",
            "id": 267626293,
            "node_id": "MDE0Ok1lbnRpb25lZEV2ZW50MjY3NjI2Mjkz",
            "performed_via_github_app": null,
            "url": "https://api.github.com/repos/PrismarineJS/mineflayer/issues/events/267626293"
        },
        {
            "actor": {
                "avatar_url": "https://avatars.githubusercontent.com/u/199705?v=4",
                "events_url": "https://api.github.com/users/apigee-internal/events{/privacy}",
                "followers_url": "https://api.github.com/users/apigee-internal/followers",
                "following_url": "https://api.github.com/users/apigee-internal/following{/other_user}",
                "gists_url": "https://api.github.com/users/apigee-internal/gists{/gist_id}",
                "gravatar_id": "",
                "html_url": "https://github.com/apigee-internal",
                "id": 199705,
                "login": "apigee-internal",
                "node_id": "MDEyOk9yZ2FuaXphdGlvbjE5OTcwNQ==",
                "organizations_url": "https://api.github.com/users/apigee-internal/orgs",
                "received_events_url": "https://api.github.com/users/apigee-internal/received_events",
                "repos_url": "https://api.github.com/users/apigee-internal/repos",
                "site_admin": false,
                "starred_url": "https://api.github.com/users/apigee-internal/starred{/owner}{/repo}",
                "subscriptions_url": "https://api.github.com/users/apigee-internal/subscriptions",
                "type": "Organization",
                "url": "https://api.github.com/users/apigee-internal"
            },
            "commit_id": null,
            "commit_url": null,
            "created_at": "2015-03-28T16:27:27Z",
            "event": "subscribed",
            "id": 267626294,
            "node_id": "MDE1OlN1YnNjcmliZWRFdmVudDI2NzYyNjI5NA==",
            "performed_via_github_app": null,
            "url": "https://api.github.com/repos/PrismarineJS/mineflayer/issues/events/267626294"
        },
        {
            "actor": {
                "avatar_url": "https://avatars.githubusercontent.com/u/2346494?v=4",
                "events_url": "https://api.github.com/users/rom1504/events{/privacy}",
                "followers_url": "https://api.github.com/users/rom1504/followers",
                "following_url": "https://api.github.com/users/rom1504/following{/other_user}",
                "gists_url": "https://api.github.com/users/rom1504/gists{/gist_id}",
                "gravatar_id": "",
                "html_url": "https://github.com/rom1504",
                "id": 2346494,
                "login": "rom1504",
                "node_id": "MDQ6VXNlcjIzNDY0OTQ=",
                "organizations_url": "https://api.github.com/users/rom1504/orgs",
                "received_events_url": "https://api.github.com/users/rom1504/received_events",
                "repos_url": "https://api.github.com/users/rom1504/repos",
                "site_admin": false,
                "starred_url": "https://api.github.com/users/rom1504/starred{/owner}{/repo}",
                "subscriptions_url": "https://api.github.com/users/rom1504/subscriptions",
                "type": "User",
                "url": "https://api.github.com/users/rom1504"
            },
            "commit_id": null,
            "commit_url": null,
            "created_at": "2015-03-29T15:22:57Z",
            "event": "closed",
            "id": 267928228,
            "node_id": "MDExOkNsb3NlZEV2ZW50MjY3OTI4MjI4",
            "performed_via_github_app": null,
            "state_reason": null,
            "url": "https://api.github.com/repos/PrismarineJS/mineflayer/issues/events/267928228"
        }
    ],
    "events_url": "https://api.github.com/repos/PrismarineJS/mineflayer/issues/242/events",
    "html_url": "https://github.com/PrismarineJS/mineflayer/issues/242",
    "id": 64945358,
    "labels": [],
    "labels_url": "https://api.github.com/repos/PrismarineJS/mineflayer/issues/242/labels{/name}",
    "locked": false,
    "milestone": null,
    "node_id": "MDU6SXNzdWU2NDk0NTM1OA==",
    "number": 242,
    "performed_via_github_app": null,
    "reactions": {
        "+1": 0,
        "-1": 0,
        "confused": 0,
        "eyes": 0,
        "heart": 0,
        "hooray": 0,
        "laugh": 0,
        "rocket": 0,
        "total_count": 0,
        "url": "https://api.github.com/repos/PrismarineJS/mineflayer/issues/242/reactions"
    },
    "repository_url": "https://api.github.com/repos/PrismarineJS/mineflayer",
    "state": "closed",
    "state_reason": "completed",
    "timeline_url": "https://api.github.com/repos/PrismarineJS/mineflayer/issues/242/timeline",
    "title": "Script Immediately exits",
    "updated_at": "2020-05-21T22:17:41Z",
    "url": "https://api.github.com/repos/PrismarineJS/mineflayer/issues/242",
    "user": {
        "avatar_url": "https://avatars.githubusercontent.com/u/934320?v=4",
        "events_url": "https://api.github.com/users/mdobson/events{/privacy}",
        "followers_url": "https://api.github.com/users/mdobson/followers",
        "following_url": "https://api.github.com/users/mdobson/following{/other_user}",
        "gists_url": "https://api.github.com/users/mdobson/gists{/gist_id}",
        "gravatar_id": "",
        "html_url": "https://github.com/mdobson",
        "id": 934320,
        "login": "mdobson",
        "node_id": "MDQ6VXNlcjkzNDMyMA==",
        "organizations_url": "https://api.github.com/users/mdobson/orgs",
        "received_events_url": "https://api.github.com/users/mdobson/received_events",
        "repos_url": "https://api.github.com/users/mdobson/repos",
        "site_admin": false,
        "starred_url": "https://api.github.com/users/mdobson/starred{/owner}{/repo}",
        "subscriptions_url": "https://api.github.com/users/mdobson/subscriptions",
        "type": "User",
        "url": "https://api.github.com/users/mdobson"
    }
}