{
    "active_lock_reason": null,
    "assignee": null,
    "assignees": [],
    "author_association": "NONE",
    "body": "- [ ] The [FAQ](https://github.com/PrismarineJS/mineflayer/blob/master/docs/FAQ.md) doesn't contain a resolution to my issue \r\n\r\n## Versions\r\n - mineflayer: 4.6.0\r\n - server: vanilla/spigot/paper 1.12.2\r\n - node: 18.6.0\r\n\r\n## Detailed description of a problem\r\nA clear and concise description of what the problem is, with as much context as possible.\r\nWhat are you building? What problem are you trying to solve?\r\n\r\nI'm trying to get an arbitrary amount of bots inside of a server. The maximum that will go in is 7 before all of them mysteriously disconnect.\r\n\r\n## What did you try yet?\r\n\r\nSee if my way of handling requests is bad. I don't see anything bad here.\r\n\r\nIf I do it separately outside a loop everything seems to work out fine.\r\n\r\n\r\nDid you try any method from the API?  mineflayer.createBot(), bot.on(), \r\nDid you try any example? Any error from those?  \r\n\r\n## Your current code\r\n```js\r\n\r\n/*\r\nfunction generateinstance(user,ip,port,profile,ver) {\r\n    let u=\"Notch\"; if(user!==\"\" && user!==undefined){u=user}\r\n    let h=\"localhost\"; if(ip!==\"\" && ip!==undefined){h=ip}\r\n    let p=25565; if(port!==\"\" && port!==undefined){p=port}\r\n    \r\n    let instance = mineflayer.createBot({username: u,port: p,host: h})\r\n    if (instance===undefined){console.log(\"wtf\");return}\r\n    let numba = bots.indexOf(instance)\r\n    bots.push(instance)\r\n\r\n    if (profile===true && activeprofile!==undefined){\r\n\r\n\r\n    if (activeprofile.loginchat!==\"\") {instance.on(\"login\",()=>{instance.chat(activeprofile.loginchat.toString())})}\r\n\r\n    instance.on(\"error\",(err)=>{\r\n    console.log(\"Instance #\"+(numba+1)+\" had the following error: \"+err)\r\n    })\r\n    \r\n    instance.on(\"end\",(a)=>{console.log(a)})\r\n\r\n    if (activeprofile.disableai===false){\r\n    instance.on(\"physicsTick\",()=>{\r\n    const player = (entity) => entity.type === \"player\"; let closestplr = instance.nearestEntity(player)\r\n    if (!closestplr) return; instance.lookAt(closestplr.position.offset(0,closestplr.height,0))\r\n    })\r\n\r\n    instance.on(\"kicked\",()=>{\r\n    if(numba>=0){ bots.splice(numba,numba); \r\n    setTimeout(function(){generateinstance(u,h,p,profile)},10000)\r\n    }});\r\n    \r\n\r\n  \r\n  }\r\n    }else{console.log(\"Instance #\"+(numba+1)+\" was to have a profile but there's none to give!\")}\r\n}\r\n\r\n\r\n\r\nfunction generatebots() {\r\nif (Object.keys(targetlist).length>0){} else {console.log(\"You don't have any servers to log into!\"); addserver(selectserver);  return}\r\nif (currenttarget!==undefined && currenttarget!==\"\"){} else {console.log(\"You have to select a server!\"); selectserver(generatebots); return}\r\n\r\nlet bulk = [{\r\n name: \"prefix\",\r\n type: \"Input\",\r\n message: \"Type your desired bot prefix\",\r\n},\r\n{\r\nname: \"count\",\r\ntype: \"Numeral\",\r\nmessage: \"How many bots do you want to generate in bulk?\",\r\ninitial: 5\r\n},\r\n{\r\nname: \"profile\",\r\ntype: \"Confirm\",\r\nmessage: \"Do you want to use a profile?\",\r\ninitial: true\r\n},\r\n{\r\n name: \"delay\",\r\n type: \"Numeral\",\r\n message: \"Set a delay in between each bot (ms)\",\r\n initial: 1\r\n}\r\n]\r\n\r\nprompt(bulk)\r\n.then(answer=>{\r\n  let i=0\r\n\r\n  for (i;i<answer.count;i++){\r\n  let z=i\r\n  setTimeout(function(){generateinstance(answer.prefix+((z).toString()),currenttarget[0],currenttarget[1],answer.profile)},answer.delay*i)}\r\n  \r\n  commandandconquer();\r\n})\r\n.catch()\r\n\r\n\r\n}\r\n*/\r\n\r\n\r\n```\r\n\r\n## Expected behavior\r\nA clear and concise description of what you expected to happen.\r\nIf I input to generate 20 bots, it should generate 20 bots with the same prefix (with diff numbers) without any leaving.\r\n\r\n\r\n## Additional context\r\nAdd any other context about the problem here.\r\n",
    "closed_at": null,
    "comment_data": [
        {
            "author_association": "NONE",
            "body": "Did some testing, every instance involved in the same loop will get kicked if it goes over 5 (??? why)",
            "created_at": "2022-07-28T01:15:46Z",
            "html_url": "https://github.com/PrismarineJS/mineflayer/issues/2716#issuecomment-1197540914",
            "id": 1197540914,
            "issue_url": "https://api.github.com/repos/PrismarineJS/mineflayer/issues/2716",
            "node_id": "IC_kwDOABOYWc5HYQYy",
            "performed_via_github_app": null,
            "reactions": {
                "+1": 0,
                "-1": 0,
                "confused": 0,
                "eyes": 0,
                "heart": 0,
                "hooray": 0,
                "laugh": 0,
                "rocket": 0,
                "total_count": 0,
                "url": "https://api.github.com/repos/PrismarineJS/mineflayer/issues/comments/1197540914/reactions"
            },
            "updated_at": "2022-07-28T01:15:46Z",
            "url": "https://api.github.com/repos/PrismarineJS/mineflayer/issues/comments/1197540914",
            "user": {
                "avatar_url": "https://avatars.githubusercontent.com/u/91347019?v=4",
                "events_url": "https://api.github.com/users/AdolfRoxler/events{/privacy}",
                "followers_url": "https://api.github.com/users/AdolfRoxler/followers",
                "following_url": "https://api.github.com/users/AdolfRoxler/following{/other_user}",
                "gists_url": "https://api.github.com/users/AdolfRoxler/gists{/gist_id}",
                "gravatar_id": "",
                "html_url": "https://github.com/AdolfRoxler",
                "id": 91347019,
                "login": "AdolfRoxler",
                "node_id": "MDQ6VXNlcjkxMzQ3MDE5",
                "organizations_url": "https://api.github.com/users/AdolfRoxler/orgs",
                "received_events_url": "https://api.github.com/users/AdolfRoxler/received_events",
                "repos_url": "https://api.github.com/users/AdolfRoxler/repos",
                "site_admin": false,
                "starred_url": "https://api.github.com/users/AdolfRoxler/starred{/owner}{/repo}",
                "subscriptions_url": "https://api.github.com/users/AdolfRoxler/subscriptions",
                "type": "User",
                "url": "https://api.github.com/users/AdolfRoxler"
            }
        },
        {
            "author_association": "NONE",
            "body": "Also, how do I prevent clients from timing out?",
            "created_at": "2022-07-28T01:28:40Z",
            "html_url": "https://github.com/PrismarineJS/mineflayer/issues/2716#issuecomment-1197547678",
            "id": 1197547678,
            "issue_url": "https://api.github.com/repos/PrismarineJS/mineflayer/issues/2716",
            "node_id": "IC_kwDOABOYWc5HYSCe",
            "performed_via_github_app": null,
            "reactions": {
                "+1": 0,
                "-1": 0,
                "confused": 0,
                "eyes": 0,
                "heart": 0,
                "hooray": 0,
                "laugh": 0,
                "rocket": 0,
                "total_count": 0,
                "url": "https://api.github.com/repos/PrismarineJS/mineflayer/issues/comments/1197547678/reactions"
            },
            "updated_at": "2022-07-28T01:28:40Z",
            "url": "https://api.github.com/repos/PrismarineJS/mineflayer/issues/comments/1197547678",
            "user": {
                "avatar_url": "https://avatars.githubusercontent.com/u/91347019?v=4",
                "events_url": "https://api.github.com/users/AdolfRoxler/events{/privacy}",
                "followers_url": "https://api.github.com/users/AdolfRoxler/followers",
                "following_url": "https://api.github.com/users/AdolfRoxler/following{/other_user}",
                "gists_url": "https://api.github.com/users/AdolfRoxler/gists{/gist_id}",
                "gravatar_id": "",
                "html_url": "https://github.com/AdolfRoxler",
                "id": 91347019,
                "login": "AdolfRoxler",
                "node_id": "MDQ6VXNlcjkxMzQ3MDE5",
                "organizations_url": "https://api.github.com/users/AdolfRoxler/orgs",
                "received_events_url": "https://api.github.com/users/AdolfRoxler/received_events",
                "repos_url": "https://api.github.com/users/AdolfRoxler/repos",
                "site_admin": false,
                "starred_url": "https://api.github.com/users/AdolfRoxler/starred{/owner}{/repo}",
                "subscriptions_url": "https://api.github.com/users/AdolfRoxler/subscriptions",
                "type": "User",
                "url": "https://api.github.com/users/AdolfRoxler"
            }
        },
        {
            "author_association": "CONTRIBUTOR",
            "body": "Are you waiting between creating each bot?\nYour code isn't really well formatted",
            "created_at": "2022-07-28T08:15:20Z",
            "html_url": "https://github.com/PrismarineJS/mineflayer/issues/2716#issuecomment-1197815717",
            "id": 1197815717,
            "issue_url": "https://api.github.com/repos/PrismarineJS/mineflayer/issues/2716",
            "node_id": "IC_kwDOABOYWc5HZTel",
            "performed_via_github_app": null,
            "reactions": {
                "+1": 0,
                "-1": 0,
                "confused": 0,
                "eyes": 0,
                "heart": 0,
                "hooray": 0,
                "laugh": 0,
                "rocket": 0,
                "total_count": 0,
                "url": "https://api.github.com/repos/PrismarineJS/mineflayer/issues/comments/1197815717/reactions"
            },
            "updated_at": "2022-07-28T08:15:20Z",
            "url": "https://api.github.com/repos/PrismarineJS/mineflayer/issues/comments/1197815717",
            "user": {
                "avatar_url": "https://avatars.githubusercontent.com/u/68395930?v=4",
                "events_url": "https://api.github.com/users/amoraschi/events{/privacy}",
                "followers_url": "https://api.github.com/users/amoraschi/followers",
                "following_url": "https://api.github.com/users/amoraschi/following{/other_user}",
                "gists_url": "https://api.github.com/users/amoraschi/gists{/gist_id}",
                "gravatar_id": "",
                "html_url": "https://github.com/amoraschi",
                "id": 68395930,
                "login": "amoraschi",
                "node_id": "MDQ6VXNlcjY4Mzk1OTMw",
                "organizations_url": "https://api.github.com/users/amoraschi/orgs",
                "received_events_url": "https://api.github.com/users/amoraschi/received_events",
                "repos_url": "https://api.github.com/users/amoraschi/repos",
                "site_admin": false,
                "starred_url": "https://api.github.com/users/amoraschi/starred{/owner}{/repo}",
                "subscriptions_url": "https://api.github.com/users/amoraschi/subscriptions",
                "type": "User",
                "url": "https://api.github.com/users/amoraschi"
            }
        },
        {
            "author_association": "NONE",
            "body": "> Are you waiting between creating each bot?\n> Your code isn't really well formatted\n\nI eventually just set a higher delay to 4500ms for bigger bot counts and there's no more bullshit disconnections.\n\nThis is a snippet, of course, this'll prompt you hoe many bots do you want to generate, the delay in between joins and if you want to use a common profile for eac one.\n\n\nI'm not very fluid in js (in fact, I hate it, it's just mediocre at everything without any redeeming qualities with unnecessarily weird and badly documented syntax like it's c++ while being a wannabe C), I come from coding in lua.",
            "created_at": "2022-07-28T10:56:09Z",
            "html_url": "https://github.com/PrismarineJS/mineflayer/issues/2716#issuecomment-1197987981",
            "id": 1197987981,
            "issue_url": "https://api.github.com/repos/PrismarineJS/mineflayer/issues/2716",
            "node_id": "IC_kwDOABOYWc5HZ9iN",
            "performed_via_github_app": null,
            "reactions": {
                "+1": 0,
                "-1": 0,
                "confused": 0,
                "eyes": 0,
                "heart": 0,
                "hooray": 0,
                "laugh": 0,
                "rocket": 0,
                "total_count": 0,
                "url": "https://api.github.com/repos/PrismarineJS/mineflayer/issues/comments/1197987981/reactions"
            },
            "updated_at": "2022-07-28T10:56:09Z",
            "url": "https://api.github.com/repos/PrismarineJS/mineflayer/issues/comments/1197987981",
            "user": {
                "avatar_url": "https://avatars.githubusercontent.com/u/91347019?v=4",
                "events_url": "https://api.github.com/users/AdolfRoxler/events{/privacy}",
                "followers_url": "https://api.github.com/users/AdolfRoxler/followers",
                "following_url": "https://api.github.com/users/AdolfRoxler/following{/other_user}",
                "gists_url": "https://api.github.com/users/AdolfRoxler/gists{/gist_id}",
                "gravatar_id": "",
                "html_url": "https://github.com/AdolfRoxler",
                "id": 91347019,
                "login": "AdolfRoxler",
                "node_id": "MDQ6VXNlcjkxMzQ3MDE5",
                "organizations_url": "https://api.github.com/users/AdolfRoxler/orgs",
                "received_events_url": "https://api.github.com/users/AdolfRoxler/received_events",
                "repos_url": "https://api.github.com/users/AdolfRoxler/repos",
                "site_admin": false,
                "starred_url": "https://api.github.com/users/AdolfRoxler/starred{/owner}{/repo}",
                "subscriptions_url": "https://api.github.com/users/AdolfRoxler/subscriptions",
                "type": "User",
                "url": "https://api.github.com/users/AdolfRoxler"
            }
        }
    ],
    "comments": 4,
    "comments_url": "https://api.github.com/repos/PrismarineJS/mineflayer/issues/2716/comments",
    "created_at": "2022-07-28T01:12:39Z",
    "event_data": [
        {
            "actor": {
                "avatar_url": "https://avatars.githubusercontent.com/u/91347019?v=4",
                "events_url": "https://api.github.com/users/AdolfRoxler/events{/privacy}",
                "followers_url": "https://api.github.com/users/AdolfRoxler/followers",
                "following_url": "https://api.github.com/users/AdolfRoxler/following{/other_user}",
                "gists_url": "https://api.github.com/users/AdolfRoxler/gists{/gist_id}",
                "gravatar_id": "",
                "html_url": "https://github.com/AdolfRoxler",
                "id": 91347019,
                "login": "AdolfRoxler",
                "node_id": "MDQ6VXNlcjkxMzQ3MDE5",
                "organizations_url": "https://api.github.com/users/AdolfRoxler/orgs",
                "received_events_url": "https://api.github.com/users/AdolfRoxler/received_events",
                "repos_url": "https://api.github.com/users/AdolfRoxler/repos",
                "site_admin": false,
                "starred_url": "https://api.github.com/users/AdolfRoxler/starred{/owner}{/repo}",
                "subscriptions_url": "https://api.github.com/users/AdolfRoxler/subscriptions",
                "type": "User",
                "url": "https://api.github.com/users/AdolfRoxler"
            },
            "commit_id": null,
            "commit_url": null,
            "created_at": "2022-07-28T01:12:40Z",
            "event": "labeled",
            "id": 7077424736,
            "label": {
                "color": "ba232f",
                "name": "possible bug"
            },
            "node_id": "LE_lADOABOYWc5Osb9uzwAAAAGl2O5g",
            "performed_via_github_app": null,
            "url": "https://api.github.com/repos/PrismarineJS/mineflayer/issues/events/7077424736"
        },
        {
            "actor": {
                "avatar_url": "https://avatars.githubusercontent.com/u/91347019?v=4",
                "events_url": "https://api.github.com/users/AdolfRoxler/events{/privacy}",
                "followers_url": "https://api.github.com/users/AdolfRoxler/followers",
                "following_url": "https://api.github.com/users/AdolfRoxler/following{/other_user}",
                "gists_url": "https://api.github.com/users/AdolfRoxler/gists{/gist_id}",
                "gravatar_id": "",
                "html_url": "https://github.com/AdolfRoxler",
                "id": 91347019,
                "login": "AdolfRoxler",
                "node_id": "MDQ6VXNlcjkxMzQ3MDE5",
                "organizations_url": "https://api.github.com/users/AdolfRoxler/orgs",
                "received_events_url": "https://api.github.com/users/AdolfRoxler/received_events",
                "repos_url": "https://api.github.com/users/AdolfRoxler/repos",
                "site_admin": false,
                "starred_url": "https://api.github.com/users/AdolfRoxler/starred{/owner}{/repo}",
                "subscriptions_url": "https://api.github.com/users/AdolfRoxler/subscriptions",
                "type": "User",
                "url": "https://api.github.com/users/AdolfRoxler"
            },
            "commit_id": null,
            "commit_url": null,
            "created_at": "2022-07-28T01:12:40Z",
            "event": "labeled",
            "id": 7077424737,
            "label": {
                "color": "bfdadc",
                "name": "Stage1"
            },
            "node_id": "LE_lADOABOYWc5Osb9uzwAAAAGl2O5h",
            "performed_via_github_app": null,
            "url": "https://api.github.com/repos/PrismarineJS/mineflayer/issues/events/7077424737"
        }
    ],
    "events_url": "https://api.github.com/repos/PrismarineJS/mineflayer/issues/2716/events",
    "html_url": "https://github.com/PrismarineJS/mineflayer/issues/2716",
    "id": 1320271726,
    "labels": [
        {
            "color": "ba232f",
            "default": false,
            "description": "",
            "id": 1346729768,
            "name": "possible bug",
            "node_id": "MDU6TGFiZWwxMzQ2NzI5NzY4",
            "url": "https://api.github.com/repos/PrismarineJS/mineflayer/labels/possible%20bug"
        },
        {
            "color": "bfdadc",
            "default": false,
            "description": "just created by someone new to the project, we don't know yet if it deserves an implementation / a f",
            "id": 2720118317,
            "name": "Stage1",
            "node_id": "MDU6TGFiZWwyNzIwMTE4MzE3",
            "url": "https://api.github.com/repos/PrismarineJS/mineflayer/labels/Stage1"
        }
    ],
    "labels_url": "https://api.github.com/repos/PrismarineJS/mineflayer/issues/2716/labels{/name}",
    "locked": false,
    "milestone": null,
    "node_id": "I_kwDOABOYWc5Osb9u",
    "number": 2716,
    "performed_via_github_app": null,
    "reactions": {
        "+1": 0,
        "-1": 0,
        "confused": 0,
        "eyes": 0,
        "heart": 0,
        "hooray": 0,
        "laugh": 0,
        "rocket": 0,
        "total_count": 0,
        "url": "https://api.github.com/repos/PrismarineJS/mineflayer/issues/2716/reactions"
    },
    "repository_url": "https://api.github.com/repos/PrismarineJS/mineflayer",
    "state": "open",
    "state_reason": null,
    "timeline_url": "https://api.github.com/repos/PrismarineJS/mineflayer/issues/2716/timeline",
    "title": "Bots suddendly disconnect at the same time when creating instances inside a loop",
    "updated_at": "2022-07-28T10:56:09Z",
    "url": "https://api.github.com/repos/PrismarineJS/mineflayer/issues/2716",
    "user": {
        "avatar_url": "https://avatars.githubusercontent.com/u/91347019?v=4",
        "events_url": "https://api.github.com/users/AdolfRoxler/events{/privacy}",
        "followers_url": "https://api.github.com/users/AdolfRoxler/followers",
        "following_url": "https://api.github.com/users/AdolfRoxler/following{/other_user}",
        "gists_url": "https://api.github.com/users/AdolfRoxler/gists{/gist_id}",
        "gravatar_id": "",
        "html_url": "https://github.com/AdolfRoxler",
        "id": 91347019,
        "login": "AdolfRoxler",
        "node_id": "MDQ6VXNlcjkxMzQ3MDE5",
        "organizations_url": "https://api.github.com/users/AdolfRoxler/orgs",
        "received_events_url": "https://api.github.com/users/AdolfRoxler/received_events",
        "repos_url": "https://api.github.com/users/AdolfRoxler/repos",
        "site_admin": false,
        "starred_url": "https://api.github.com/users/AdolfRoxler/starred{/owner}{/repo}",
        "subscriptions_url": "https://api.github.com/users/AdolfRoxler/subscriptions",
        "type": "User",
        "url": "https://api.github.com/users/AdolfRoxler"
    }
}