{
    "active_lock_reason": null,
    "assignee": null,
    "assignees": [],
    "author_association": "CONTRIBUTOR",
    "body": "Hello, I'd like to know the best way of parsing the JSON that arrives in the 'message' event. Thanks!\n",
    "closed_at": "2015-04-27T05:05:18Z",
    "comment_data": [
        {
            "author_association": "CONTRIBUTOR",
            "body": "I would recommend using on 'chat' or on 'whisper'. If you need something else for a server with custom messages, you're going to need to write your own parser. If you don't care about colors, you can just try doing \"json.toString()\" to get the string of text. From that, you'll be able to use regex. Otherwise, you'll need to know exactly what each time of message contains so you can parse it manually.\n\nIf you have more questions, visit us in the gitter! (Link in the README)\n",
            "created_at": "2015-04-27T02:38:21Z",
            "html_url": "https://github.com/PrismarineJS/mineflayer/issues/273#issuecomment-96478366",
            "id": 96478366,
            "issue_url": "https://api.github.com/repos/PrismarineJS/mineflayer/issues/273",
            "node_id": "MDEyOklzc3VlQ29tbWVudDk2NDc4MzY2",
            "performed_via_github_app": null,
            "reactions": {
                "+1": 0,
                "-1": 1,
                "confused": 0,
                "eyes": 0,
                "heart": 0,
                "hooray": 0,
                "laugh": 0,
                "rocket": 0,
                "total_count": 1,
                "url": "https://api.github.com/repos/PrismarineJS/mineflayer/issues/comments/96478366/reactions"
            },
            "updated_at": "2015-04-27T02:38:21Z",
            "url": "https://api.github.com/repos/PrismarineJS/mineflayer/issues/comments/96478366",
            "user": {
                "avatar_url": "https://avatars.githubusercontent.com/u/7506359?v=4",
                "events_url": "https://api.github.com/users/demipixel/events{/privacy}",
                "followers_url": "https://api.github.com/users/demipixel/followers",
                "following_url": "https://api.github.com/users/demipixel/following{/other_user}",
                "gists_url": "https://api.github.com/users/demipixel/gists{/gist_id}",
                "gravatar_id": "",
                "html_url": "https://github.com/demipixel",
                "id": 7506359,
                "login": "demipixel",
                "node_id": "MDQ6VXNlcjc1MDYzNTk=",
                "organizations_url": "https://api.github.com/users/demipixel/orgs",
                "received_events_url": "https://api.github.com/users/demipixel/received_events",
                "repos_url": "https://api.github.com/users/demipixel/repos",
                "site_admin": false,
                "starred_url": "https://api.github.com/users/demipixel/starred{/owner}{/repo}",
                "subscriptions_url": "https://api.github.com/users/demipixel/subscriptions",
                "type": "User",
                "url": "https://api.github.com/users/demipixel"
            }
        },
        {
            "author_association": "CONTRIBUTOR",
            "body": "Listening to the chat event didn't help because It was not getting emitted. Probably because I joined a 1.8.1 server with a 1.8.3 protocol. But yeah, I already wrote a parser myself to color the chat with html span tags. Thanks!\n",
            "created_at": "2015-04-27T05:05:18Z",
            "html_url": "https://github.com/PrismarineJS/mineflayer/issues/273#issuecomment-96506657",
            "id": 96506657,
            "issue_url": "https://api.github.com/repos/PrismarineJS/mineflayer/issues/273",
            "node_id": "MDEyOklzc3VlQ29tbWVudDk2NTA2NjU3",
            "performed_via_github_app": null,
            "reactions": {
                "+1": 0,
                "-1": 0,
                "confused": 0,
                "eyes": 0,
                "heart": 0,
                "hooray": 0,
                "laugh": 0,
                "rocket": 0,
                "total_count": 0,
                "url": "https://api.github.com/repos/PrismarineJS/mineflayer/issues/comments/96506657/reactions"
            },
            "updated_at": "2015-04-27T05:05:18Z",
            "url": "https://api.github.com/repos/PrismarineJS/mineflayer/issues/comments/96506657",
            "user": {
                "avatar_url": "https://avatars.githubusercontent.com/u/4448627?v=4",
                "events_url": "https://api.github.com/users/AlexKvazos/events{/privacy}",
                "followers_url": "https://api.github.com/users/AlexKvazos/followers",
                "following_url": "https://api.github.com/users/AlexKvazos/following{/other_user}",
                "gists_url": "https://api.github.com/users/AlexKvazos/gists{/gist_id}",
                "gravatar_id": "",
                "html_url": "https://github.com/AlexKvazos",
                "id": 4448627,
                "login": "AlexKvazos",
                "node_id": "MDQ6VXNlcjQ0NDg2Mjc=",
                "organizations_url": "https://api.github.com/users/AlexKvazos/orgs",
                "received_events_url": "https://api.github.com/users/AlexKvazos/received_events",
                "repos_url": "https://api.github.com/users/AlexKvazos/repos",
                "site_admin": false,
                "starred_url": "https://api.github.com/users/AlexKvazos/starred{/owner}{/repo}",
                "subscriptions_url": "https://api.github.com/users/AlexKvazos/subscriptions",
                "type": "User",
                "url": "https://api.github.com/users/AlexKvazos"
            }
        },
        {
            "author_association": "MEMBER",
            "body": "1.8.1 and 1.8.3 protocols are the same ^^.\n",
            "created_at": "2015-04-27T12:49:28Z",
            "html_url": "https://github.com/PrismarineJS/mineflayer/issues/273#issuecomment-96638383",
            "id": 96638383,
            "issue_url": "https://api.github.com/repos/PrismarineJS/mineflayer/issues/273",
            "node_id": "MDEyOklzc3VlQ29tbWVudDk2NjM4Mzgz",
            "performed_via_github_app": null,
            "reactions": {
                "+1": 0,
                "-1": 0,
                "confused": 0,
                "eyes": 0,
                "heart": 0,
                "hooray": 0,
                "laugh": 0,
                "rocket": 0,
                "total_count": 0,
                "url": "https://api.github.com/repos/PrismarineJS/mineflayer/issues/comments/96638383/reactions"
            },
            "updated_at": "2015-04-27T12:49:28Z",
            "url": "https://api.github.com/repos/PrismarineJS/mineflayer/issues/comments/96638383",
            "user": {
                "avatar_url": "https://avatars.githubusercontent.com/u/1069318?v=4",
                "events_url": "https://api.github.com/users/roblabla/events{/privacy}",
                "followers_url": "https://api.github.com/users/roblabla/followers",
                "following_url": "https://api.github.com/users/roblabla/following{/other_user}",
                "gists_url": "https://api.github.com/users/roblabla/gists{/gist_id}",
                "gravatar_id": "",
                "html_url": "https://github.com/roblabla",
                "id": 1069318,
                "login": "roblabla",
                "node_id": "MDQ6VXNlcjEwNjkzMTg=",
                "organizations_url": "https://api.github.com/users/roblabla/orgs",
                "received_events_url": "https://api.github.com/users/roblabla/received_events",
                "repos_url": "https://api.github.com/users/roblabla/repos",
                "site_admin": false,
                "starred_url": "https://api.github.com/users/roblabla/starred{/owner}{/repo}",
                "subscriptions_url": "https://api.github.com/users/roblabla/subscriptions",
                "type": "User",
                "url": "https://api.github.com/users/roblabla"
            }
        },
        {
            "author_association": "MEMBER",
            "body": "Likely due to a non vanilla server as usual.\n",
            "created_at": "2015-04-27T13:59:02Z",
            "html_url": "https://github.com/PrismarineJS/mineflayer/issues/273#issuecomment-96665397",
            "id": 96665397,
            "issue_url": "https://api.github.com/repos/PrismarineJS/mineflayer/issues/273",
            "node_id": "MDEyOklzc3VlQ29tbWVudDk2NjY1Mzk3",
            "performed_via_github_app": null,
            "reactions": {
                "+1": 0,
                "-1": 0,
                "confused": 0,
                "eyes": 0,
                "heart": 0,
                "hooray": 0,
                "laugh": 0,
                "rocket": 0,
                "total_count": 0,
                "url": "https://api.github.com/repos/PrismarineJS/mineflayer/issues/comments/96665397/reactions"
            },
            "updated_at": "2015-04-27T13:59:02Z",
            "url": "https://api.github.com/repos/PrismarineJS/mineflayer/issues/comments/96665397",
            "user": {
                "avatar_url": "https://avatars.githubusercontent.com/u/2346494?v=4",
                "events_url": "https://api.github.com/users/rom1504/events{/privacy}",
                "followers_url": "https://api.github.com/users/rom1504/followers",
                "following_url": "https://api.github.com/users/rom1504/following{/other_user}",
                "gists_url": "https://api.github.com/users/rom1504/gists{/gist_id}",
                "gravatar_id": "",
                "html_url": "https://github.com/rom1504",
                "id": 2346494,
                "login": "rom1504",
                "node_id": "MDQ6VXNlcjIzNDY0OTQ=",
                "organizations_url": "https://api.github.com/users/rom1504/orgs",
                "received_events_url": "https://api.github.com/users/rom1504/received_events",
                "repos_url": "https://api.github.com/users/rom1504/repos",
                "site_admin": false,
                "starred_url": "https://api.github.com/users/rom1504/starred{/owner}{/repo}",
                "subscriptions_url": "https://api.github.com/users/rom1504/subscriptions",
                "type": "User",
                "url": "https://api.github.com/users/rom1504"
            }
        }
    ],
    "comments": 4,
    "comments_url": "https://api.github.com/repos/PrismarineJS/mineflayer/issues/273/comments",
    "created_at": "2015-04-27T02:36:18Z",
    "event_data": [
        {
            "actor": {
                "avatar_url": "https://avatars.githubusercontent.com/u/4448627?v=4",
                "events_url": "https://api.github.com/users/AlexKvazos/events{/privacy}",
                "followers_url": "https://api.github.com/users/AlexKvazos/followers",
                "following_url": "https://api.github.com/users/AlexKvazos/following{/other_user}",
                "gists_url": "https://api.github.com/users/AlexKvazos/gists{/gist_id}",
                "gravatar_id": "",
                "html_url": "https://github.com/AlexKvazos",
                "id": 4448627,
                "login": "AlexKvazos",
                "node_id": "MDQ6VXNlcjQ0NDg2Mjc=",
                "organizations_url": "https://api.github.com/users/AlexKvazos/orgs",
                "received_events_url": "https://api.github.com/users/AlexKvazos/received_events",
                "repos_url": "https://api.github.com/users/AlexKvazos/repos",
                "site_admin": false,
                "starred_url": "https://api.github.com/users/AlexKvazos/starred{/owner}{/repo}",
                "subscriptions_url": "https://api.github.com/users/AlexKvazos/subscriptions",
                "type": "User",
                "url": "https://api.github.com/users/AlexKvazos"
            },
            "commit_id": null,
            "commit_url": null,
            "created_at": "2015-04-27T05:05:18Z",
            "event": "closed",
            "id": 290497267,
            "node_id": "MDExOkNsb3NlZEV2ZW50MjkwNDk3MjY3",
            "performed_via_github_app": null,
            "state_reason": null,
            "url": "https://api.github.com/repos/PrismarineJS/mineflayer/issues/events/290497267"
        }
    ],
    "events_url": "https://api.github.com/repos/PrismarineJS/mineflayer/issues/273/events",
    "html_url": "https://github.com/PrismarineJS/mineflayer/issues/273",
    "id": 71158360,
    "labels": [],
    "labels_url": "https://api.github.com/repos/PrismarineJS/mineflayer/issues/273/labels{/name}",
    "locked": false,
    "milestone": null,
    "node_id": "MDU6SXNzdWU3MTE1ODM2MA==",
    "number": 273,
    "performed_via_github_app": null,
    "reactions": {
        "+1": 0,
        "-1": 0,
        "confused": 0,
        "eyes": 0,
        "heart": 0,
        "hooray": 0,
        "laugh": 0,
        "rocket": 0,
        "total_count": 0,
        "url": "https://api.github.com/repos/PrismarineJS/mineflayer/issues/273/reactions"
    },
    "repository_url": "https://api.github.com/repos/PrismarineJS/mineflayer",
    "state": "closed",
    "state_reason": "completed",
    "timeline_url": "https://api.github.com/repos/PrismarineJS/mineflayer/issues/273/timeline",
    "title": "Parse the JSON received on 'message' event.",
    "updated_at": "2015-04-27T13:59:02Z",
    "url": "https://api.github.com/repos/PrismarineJS/mineflayer/issues/273",
    "user": {
        "avatar_url": "https://avatars.githubusercontent.com/u/4448627?v=4",
        "events_url": "https://api.github.com/users/AlexKvazos/events{/privacy}",
        "followers_url": "https://api.github.com/users/AlexKvazos/followers",
        "following_url": "https://api.github.com/users/AlexKvazos/following{/other_user}",
        "gists_url": "https://api.github.com/users/AlexKvazos/gists{/gist_id}",
        "gravatar_id": "",
        "html_url": "https://github.com/AlexKvazos",
        "id": 4448627,
        "login": "AlexKvazos",
        "node_id": "MDQ6VXNlcjQ0NDg2Mjc=",
        "organizations_url": "https://api.github.com/users/AlexKvazos/orgs",
        "received_events_url": "https://api.github.com/users/AlexKvazos/received_events",
        "repos_url": "https://api.github.com/users/AlexKvazos/repos",
        "site_admin": false,
        "starred_url": "https://api.github.com/users/AlexKvazos/starred{/owner}{/repo}",
        "subscriptions_url": "https://api.github.com/users/AlexKvazos/subscriptions",
        "type": "User",
        "url": "https://api.github.com/users/AlexKvazos"
    }
}