{
    "active_lock_reason": null,
    "assignee": null,
    "assignees": [],
    "author_association": "NONE",
    "body": "- [x] The [FAQ](https://github.com/PrismarineJS/mineflayer/blob/master/docs/FAQ.md) doesn't contain a resolution to my issue \r\n\r\n## Versions\r\n - mineflayer: 4.5.1\r\n - server: vanilla 1.12.2\r\n - node: 19.0.0\r\n - minecraft-data: 3.16.0\r\n\r\n## Detailed description of a problem\r\nI was creating a crafter bot that would craft repeaters from raw materials (redstone dust, logs, stone)\r\nBut when I tried to craft redstone torches, the ```bot.recipesAll()``` returned empty array for redstone torch id\r\n\r\n## What did you try yet?\r\nI tried reinstalling mineflayer, minecraft-data and updated node\r\n\r\n## Your current code\r\n```js\r\nconst mineflayer = require(\"mineflayer\")\r\nconst mcData = require(\"minecraft-data\")\r\nconst bot = mineflayer.createBot()\r\n\r\nactualMCData = mcData(bot.version) //bot.version is 1.12.2\r\nconsole.log(bot.recipesAll(actualMCData.itemsByName.redstone_torch.id))\r\n// actualMCData.itemsByName.redstone_torch.id returns id of redstone torch\r\n// but bot.recipesAll returns empty array\r\n```\r\n\r\n## Expected behavior\r\nTo recieve Recipe for redstone torch\r\n\r\n## Additional context\r\nnone\r\n",
    "closed_at": "2023-01-25T05:10:48Z",
    "comment_data": [
        {
            "author_association": "NONE",
            "body": "Could it maybe be that you're using the itemsByName instead of the itemsById since you're using the id of the redstone torch?",
            "created_at": "2023-01-22T19:16:51Z",
            "html_url": "https://github.com/PrismarineJS/mineflayer/issues/2816#issuecomment-1399579230",
            "id": 1399579230,
            "issue_url": "https://api.github.com/repos/PrismarineJS/mineflayer/issues/2816",
            "node_id": "IC_kwDOABOYWc5Ta-Je",
            "performed_via_github_app": null,
            "reactions": {
                "+1": 0,
                "-1": 0,
                "confused": 0,
                "eyes": 0,
                "heart": 0,
                "hooray": 0,
                "laugh": 0,
                "rocket": 0,
                "total_count": 0,
                "url": "https://api.github.com/repos/PrismarineJS/mineflayer/issues/comments/1399579230/reactions"
            },
            "updated_at": "2023-01-22T19:16:51Z",
            "url": "https://api.github.com/repos/PrismarineJS/mineflayer/issues/comments/1399579230",
            "user": {
                "avatar_url": "https://avatars.githubusercontent.com/u/19214465?v=4",
                "events_url": "https://api.github.com/users/MightyPiggie/events{/privacy}",
                "followers_url": "https://api.github.com/users/MightyPiggie/followers",
                "following_url": "https://api.github.com/users/MightyPiggie/following{/other_user}",
                "gists_url": "https://api.github.com/users/MightyPiggie/gists{/gist_id}",
                "gravatar_id": "",
                "html_url": "https://github.com/MightyPiggie",
                "id": 19214465,
                "login": "MightyPiggie",
                "node_id": "MDQ6VXNlcjE5MjE0NDY1",
                "organizations_url": "https://api.github.com/users/MightyPiggie/orgs",
                "received_events_url": "https://api.github.com/users/MightyPiggie/received_events",
                "repos_url": "https://api.github.com/users/MightyPiggie/repos",
                "site_admin": false,
                "starred_url": "https://api.github.com/users/MightyPiggie/starred{/owner}{/repo}",
                "subscriptions_url": "https://api.github.com/users/MightyPiggie/subscriptions",
                "type": "User",
                "url": "https://api.github.com/users/MightyPiggie"
            }
        },
        {
            "author_association": "NONE",
            "body": "I doubt it. `bot.recipesAll()` requires numerical id, which `actualMCData.itemsByName.redstone_torch.id` already returns.",
            "created_at": "2023-01-23T05:26:57Z",
            "html_url": "https://github.com/PrismarineJS/mineflayer/issues/2816#issuecomment-1399825978",
            "id": 1399825978,
            "issue_url": "https://api.github.com/repos/PrismarineJS/mineflayer/issues/2816",
            "node_id": "IC_kwDOABOYWc5Tb6Y6",
            "performed_via_github_app": null,
            "reactions": {
                "+1": 0,
                "-1": 0,
                "confused": 0,
                "eyes": 0,
                "heart": 0,
                "hooray": 0,
                "laugh": 0,
                "rocket": 0,
                "total_count": 0,
                "url": "https://api.github.com/repos/PrismarineJS/mineflayer/issues/comments/1399825978/reactions"
            },
            "updated_at": "2023-01-23T05:26:57Z",
            "url": "https://api.github.com/repos/PrismarineJS/mineflayer/issues/comments/1399825978",
            "user": {
                "avatar_url": "https://avatars.githubusercontent.com/u/49732296?v=4",
                "events_url": "https://api.github.com/users/RodionGromo/events{/privacy}",
                "followers_url": "https://api.github.com/users/RodionGromo/followers",
                "following_url": "https://api.github.com/users/RodionGromo/following{/other_user}",
                "gists_url": "https://api.github.com/users/RodionGromo/gists{/gist_id}",
                "gravatar_id": "",
                "html_url": "https://github.com/RodionGromo",
                "id": 49732296,
                "login": "RodionGromo",
                "node_id": "MDQ6VXNlcjQ5NzMyMjk2",
                "organizations_url": "https://api.github.com/users/RodionGromo/orgs",
                "received_events_url": "https://api.github.com/users/RodionGromo/received_events",
                "repos_url": "https://api.github.com/users/RodionGromo/repos",
                "site_admin": false,
                "starred_url": "https://api.github.com/users/RodionGromo/starred{/owner}{/repo}",
                "subscriptions_url": "https://api.github.com/users/RodionGromo/subscriptions",
                "type": "User",
                "url": "https://api.github.com/users/RodionGromo"
            }
        },
        {
            "author_association": "NONE",
            "body": "You were right. However I found why it goes wrong. \r\n\r\nYou get the id 76 back which is the redstone torch id. However to be precise its the id for the active redstone torch:\r\n`{\r\n    \"id\": 76,\r\n    \"displayName\": \"Redstone Torch (active)\",\r\n    \"name\": \"redstone_torch\",\r\n    \"stackSize\": 64\r\n  },`\r\n\r\nHowever the itemsByName has no recipe for id 76, but it has a recipe for id 75 which is for the inactive redstone torch:\r\n\r\n`{\r\n    \"id\": 75,\r\n    \"displayName\": \"Redstone Torch (inactive)\",\r\n    \"name\": \"unlit_redstone_torch\",\r\n    \"stackSize\": 64\r\n  },`\r\n\r\nAnd here is the recipe for 75.\r\n  \r\n  ` \"75\": [\r\n    {\r\n      \"inShape\": [\r\n        [\r\n          331\r\n        ],\r\n        [\r\n          280\r\n        ]\r\n      ],\r\n      \"result\": {\r\n        \"count\": 1,\r\n        \"id\": 75,\r\n        \"metadata\": 0\r\n      }\r\n    }\r\n  ],`\r\n\r\nWhen I do \r\n`console.log(bot.recipesAll(actualMCData.itemsByName.redstone_torch.id-1))` it works fine for me.",
            "created_at": "2023-01-24T15:34:29Z",
            "html_url": "https://github.com/PrismarineJS/mineflayer/issues/2816#issuecomment-1402149287",
            "id": 1402149287,
            "issue_url": "https://api.github.com/repos/PrismarineJS/mineflayer/issues/2816",
            "node_id": "IC_kwDOABOYWc5Tkxmn",
            "performed_via_github_app": null,
            "reactions": {
                "+1": 0,
                "-1": 0,
                "confused": 0,
                "eyes": 0,
                "heart": 0,
                "hooray": 0,
                "laugh": 0,
                "rocket": 0,
                "total_count": 0,
                "url": "https://api.github.com/repos/PrismarineJS/mineflayer/issues/comments/1402149287/reactions"
            },
            "updated_at": "2023-01-24T15:34:29Z",
            "url": "https://api.github.com/repos/PrismarineJS/mineflayer/issues/comments/1402149287",
            "user": {
                "avatar_url": "https://avatars.githubusercontent.com/u/19214465?v=4",
                "events_url": "https://api.github.com/users/MightyPiggie/events{/privacy}",
                "followers_url": "https://api.github.com/users/MightyPiggie/followers",
                "following_url": "https://api.github.com/users/MightyPiggie/following{/other_user}",
                "gists_url": "https://api.github.com/users/MightyPiggie/gists{/gist_id}",
                "gravatar_id": "",
                "html_url": "https://github.com/MightyPiggie",
                "id": 19214465,
                "login": "MightyPiggie",
                "node_id": "MDQ6VXNlcjE5MjE0NDY1",
                "organizations_url": "https://api.github.com/users/MightyPiggie/orgs",
                "received_events_url": "https://api.github.com/users/MightyPiggie/received_events",
                "repos_url": "https://api.github.com/users/MightyPiggie/repos",
                "site_admin": false,
                "starred_url": "https://api.github.com/users/MightyPiggie/starred{/owner}{/repo}",
                "subscriptions_url": "https://api.github.com/users/MightyPiggie/subscriptions",
                "type": "User",
                "url": "https://api.github.com/users/MightyPiggie"
            }
        },
        {
            "author_association": "NONE",
            "body": "Oh, right! I figured `itemsByName` won't give me any block id's (especially something like active redstone torch) , so I haven't thought about that. Thank you!",
            "created_at": "2023-01-25T05:10:48Z",
            "html_url": "https://github.com/PrismarineJS/mineflayer/issues/2816#issuecomment-1403105345",
            "id": 1403105345,
            "issue_url": "https://api.github.com/repos/PrismarineJS/mineflayer/issues/2816",
            "node_id": "IC_kwDOABOYWc5TobBB",
            "performed_via_github_app": null,
            "reactions": {
                "+1": 0,
                "-1": 0,
                "confused": 0,
                "eyes": 0,
                "heart": 0,
                "hooray": 0,
                "laugh": 0,
                "rocket": 0,
                "total_count": 0,
                "url": "https://api.github.com/repos/PrismarineJS/mineflayer/issues/comments/1403105345/reactions"
            },
            "updated_at": "2023-01-25T05:10:48Z",
            "url": "https://api.github.com/repos/PrismarineJS/mineflayer/issues/comments/1403105345",
            "user": {
                "avatar_url": "https://avatars.githubusercontent.com/u/49732296?v=4",
                "events_url": "https://api.github.com/users/RodionGromo/events{/privacy}",
                "followers_url": "https://api.github.com/users/RodionGromo/followers",
                "following_url": "https://api.github.com/users/RodionGromo/following{/other_user}",
                "gists_url": "https://api.github.com/users/RodionGromo/gists{/gist_id}",
                "gravatar_id": "",
                "html_url": "https://github.com/RodionGromo",
                "id": 49732296,
                "login": "RodionGromo",
                "node_id": "MDQ6VXNlcjQ5NzMyMjk2",
                "organizations_url": "https://api.github.com/users/RodionGromo/orgs",
                "received_events_url": "https://api.github.com/users/RodionGromo/received_events",
                "repos_url": "https://api.github.com/users/RodionGromo/repos",
                "site_admin": false,
                "starred_url": "https://api.github.com/users/RodionGromo/starred{/owner}{/repo}",
                "subscriptions_url": "https://api.github.com/users/RodionGromo/subscriptions",
                "type": "User",
                "url": "https://api.github.com/users/RodionGromo"
            }
        }
    ],
    "comments": 4,
    "comments_url": "https://api.github.com/repos/PrismarineJS/mineflayer/issues/2816/comments",
    "created_at": "2022-10-23T11:20:23Z",
    "event_data": [
        {
            "actor": {
                "avatar_url": "https://avatars.githubusercontent.com/u/49732296?v=4",
                "events_url": "https://api.github.com/users/RodionGromo/events{/privacy}",
                "followers_url": "https://api.github.com/users/RodionGromo/followers",
                "following_url": "https://api.github.com/users/RodionGromo/following{/other_user}",
                "gists_url": "https://api.github.com/users/RodionGromo/gists{/gist_id}",
                "gravatar_id": "",
                "html_url": "https://github.com/RodionGromo",
                "id": 49732296,
                "login": "RodionGromo",
                "node_id": "MDQ6VXNlcjQ5NzMyMjk2",
                "organizations_url": "https://api.github.com/users/RodionGromo/orgs",
                "received_events_url": "https://api.github.com/users/RodionGromo/received_events",
                "repos_url": "https://api.github.com/users/RodionGromo/repos",
                "site_admin": false,
                "starred_url": "https://api.github.com/users/RodionGromo/starred{/owner}{/repo}",
                "subscriptions_url": "https://api.github.com/users/RodionGromo/subscriptions",
                "type": "User",
                "url": "https://api.github.com/users/RodionGromo"
            },
            "commit_id": null,
            "commit_url": null,
            "created_at": "2022-10-23T11:20:23Z",
            "event": "labeled",
            "id": 7648219756,
            "label": {
                "color": "ba232f",
                "name": "possible bug"
            },
            "node_id": "LE_lADOABOYWc5Un9SmzwAAAAHH3pJs",
            "performed_via_github_app": null,
            "url": "https://api.github.com/repos/PrismarineJS/mineflayer/issues/events/7648219756"
        },
        {
            "actor": {
                "avatar_url": "https://avatars.githubusercontent.com/u/49732296?v=4",
                "events_url": "https://api.github.com/users/RodionGromo/events{/privacy}",
                "followers_url": "https://api.github.com/users/RodionGromo/followers",
                "following_url": "https://api.github.com/users/RodionGromo/following{/other_user}",
                "gists_url": "https://api.github.com/users/RodionGromo/gists{/gist_id}",
                "gravatar_id": "",
                "html_url": "https://github.com/RodionGromo",
                "id": 49732296,
                "login": "RodionGromo",
                "node_id": "MDQ6VXNlcjQ5NzMyMjk2",
                "organizations_url": "https://api.github.com/users/RodionGromo/orgs",
                "received_events_url": "https://api.github.com/users/RodionGromo/received_events",
                "repos_url": "https://api.github.com/users/RodionGromo/repos",
                "site_admin": false,
                "starred_url": "https://api.github.com/users/RodionGromo/starred{/owner}{/repo}",
                "subscriptions_url": "https://api.github.com/users/RodionGromo/subscriptions",
                "type": "User",
                "url": "https://api.github.com/users/RodionGromo"
            },
            "commit_id": null,
            "commit_url": null,
            "created_at": "2022-10-23T11:20:23Z",
            "event": "labeled",
            "id": 7648219757,
            "label": {
                "color": "bfdadc",
                "name": "Stage1"
            },
            "node_id": "LE_lADOABOYWc5Un9SmzwAAAAHH3pJt",
            "performed_via_github_app": null,
            "url": "https://api.github.com/repos/PrismarineJS/mineflayer/issues/events/7648219757"
        },
        {
            "actor": {
                "avatar_url": "https://avatars.githubusercontent.com/u/49732296?v=4",
                "events_url": "https://api.github.com/users/RodionGromo/events{/privacy}",
                "followers_url": "https://api.github.com/users/RodionGromo/followers",
                "following_url": "https://api.github.com/users/RodionGromo/following{/other_user}",
                "gists_url": "https://api.github.com/users/RodionGromo/gists{/gist_id}",
                "gravatar_id": "",
                "html_url": "https://github.com/RodionGromo",
                "id": 49732296,
                "login": "RodionGromo",
                "node_id": "MDQ6VXNlcjQ5NzMyMjk2",
                "organizations_url": "https://api.github.com/users/RodionGromo/orgs",
                "received_events_url": "https://api.github.com/users/RodionGromo/received_events",
                "repos_url": "https://api.github.com/users/RodionGromo/repos",
                "site_admin": false,
                "starred_url": "https://api.github.com/users/RodionGromo/starred{/owner}{/repo}",
                "subscriptions_url": "https://api.github.com/users/RodionGromo/subscriptions",
                "type": "User",
                "url": "https://api.github.com/users/RodionGromo"
            },
            "commit_id": null,
            "commit_url": null,
            "created_at": "2023-01-25T05:10:48Z",
            "event": "closed",
            "id": 8351229145,
            "node_id": "CE_lADOABOYWc5Un9SmzwAAAAHxxaTZ",
            "performed_via_github_app": null,
            "state_reason": null,
            "url": "https://api.github.com/repos/PrismarineJS/mineflayer/issues/events/8351229145"
        }
    ],
    "events_url": "https://api.github.com/repos/PrismarineJS/mineflayer/issues/2816/events",
    "html_url": "https://github.com/PrismarineJS/mineflayer/issues/2816",
    "id": 1419760806,
    "labels": [
        {
            "color": "ba232f",
            "default": false,
            "description": "",
            "id": 1346729768,
            "name": "possible bug",
            "node_id": "MDU6TGFiZWwxMzQ2NzI5NzY4",
            "url": "https://api.github.com/repos/PrismarineJS/mineflayer/labels/possible%20bug"
        },
        {
            "color": "bfdadc",
            "default": false,
            "description": "just created by someone new to the project, we don't know yet if it deserves an implementation / a f",
            "id": 2720118317,
            "name": "Stage1",
            "node_id": "MDU6TGFiZWwyNzIwMTE4MzE3",
            "url": "https://api.github.com/repos/PrismarineJS/mineflayer/labels/Stage1"
        }
    ],
    "labels_url": "https://api.github.com/repos/PrismarineJS/mineflayer/issues/2816/labels{/name}",
    "locked": false,
    "milestone": null,
    "node_id": "I_kwDOABOYWc5Un9Sm",
    "number": 2816,
    "performed_via_github_app": null,
    "reactions": {
        "+1": 0,
        "-1": 0,
        "confused": 0,
        "eyes": 0,
        "heart": 0,
        "hooray": 0,
        "laugh": 0,
        "rocket": 0,
        "total_count": 0,
        "url": "https://api.github.com/repos/PrismarineJS/mineflayer/issues/2816/reactions"
    },
    "repository_url": "https://api.github.com/repos/PrismarineJS/mineflayer",
    "state": "closed",
    "state_reason": "completed",
    "timeline_url": "https://api.github.com/repos/PrismarineJS/mineflayer/issues/2816/timeline",
    "title": "No recipe for redstone torch?",
    "updated_at": "2023-01-25T05:10:48Z",
    "url": "https://api.github.com/repos/PrismarineJS/mineflayer/issues/2816",
    "user": {
        "avatar_url": "https://avatars.githubusercontent.com/u/49732296?v=4",
        "events_url": "https://api.github.com/users/RodionGromo/events{/privacy}",
        "followers_url": "https://api.github.com/users/RodionGromo/followers",
        "following_url": "https://api.github.com/users/RodionGromo/following{/other_user}",
        "gists_url": "https://api.github.com/users/RodionGromo/gists{/gist_id}",
        "gravatar_id": "",
        "html_url": "https://github.com/RodionGromo",
        "id": 49732296,
        "login": "RodionGromo",
        "node_id": "MDQ6VXNlcjQ5NzMyMjk2",
        "organizations_url": "https://api.github.com/users/RodionGromo/orgs",
        "received_events_url": "https://api.github.com/users/RodionGromo/received_events",
        "repos_url": "https://api.github.com/users/RodionGromo/repos",
        "site_admin": false,
        "starred_url": "https://api.github.com/users/RodionGromo/starred{/owner}{/repo}",
        "subscriptions_url": "https://api.github.com/users/RodionGromo/subscriptions",
        "type": "User",
        "url": "https://api.github.com/users/RodionGromo"
    }
}