{
    "active_lock_reason": null,
    "assignee": null,
    "assignees": [],
    "author_association": "NONE",
    "body": "## Versions\r\n - mineflayer: #.#.#\r\n - server: vanilla/spigot/paper 1.8.9\r\n - node: #.#.#\r\n\r\n## Detailed description of a problem\r\nI'm trying to make bots drop all inventory items using a discord command, but the bot only drops one item and crashes\r\n\r\n\r\n## Current code\r\n```js\r\n\r\n/*\r\nelse if (message.content.startsWith('+drop')) {\r\nlet split = message.content.split(' ')\r\nif (split[1] == bot.username || split[1] == 'all') {\r\nchannel.send(Dropping Items: ${username})\r\nfor (item of bot.inventory.items()) {\r\nbot.tossStack(item);\r\nawait utils.sleep(3000);\r\n}\r\nreturn;\r\n}\r\n}\r\n*/\r\n\r\n\r\n```\r\n\r\n\r\n",
    "closed_at": "2022-12-10T05:47:51Z",
    "comment_data": [
        {
            "author_association": "MEMBER",
            "body": "You can join the Discord for questions like this. This is a duplicate question to the one opened in https://github.com/PrismarineJS/mineflayer/issues/1241.\r\n\r\nNote: since tossStack is returning a promise, you need to await it : \r\n```js\r\nawait bot.tossStack(item)\r\n```",
            "created_at": "2022-12-10T05:47:51Z",
            "html_url": "https://github.com/PrismarineJS/mineflayer/issues/2856#issuecomment-1345147847",
            "id": 1345147847,
            "issue_url": "https://api.github.com/repos/PrismarineJS/mineflayer/issues/2856",
            "node_id": "IC_kwDOABOYWc5QLVPH",
            "performed_via_github_app": null,
            "reactions": {
                "+1": 0,
                "-1": 0,
                "confused": 0,
                "eyes": 0,
                "heart": 0,
                "hooray": 0,
                "laugh": 0,
                "rocket": 0,
                "total_count": 0,
                "url": "https://api.github.com/repos/PrismarineJS/mineflayer/issues/comments/1345147847/reactions"
            },
            "updated_at": "2022-12-10T05:49:39Z",
            "url": "https://api.github.com/repos/PrismarineJS/mineflayer/issues/comments/1345147847",
            "user": {
                "avatar_url": "https://avatars.githubusercontent.com/u/13713600?v=4",
                "events_url": "https://api.github.com/users/extremeheat/events{/privacy}",
                "followers_url": "https://api.github.com/users/extremeheat/followers",
                "following_url": "https://api.github.com/users/extremeheat/following{/other_user}",
                "gists_url": "https://api.github.com/users/extremeheat/gists{/gist_id}",
                "gravatar_id": "",
                "html_url": "https://github.com/extremeheat",
                "id": 13713600,
                "login": "extremeheat",
                "node_id": "MDQ6VXNlcjEzNzEzNjAw",
                "organizations_url": "https://api.github.com/users/extremeheat/orgs",
                "received_events_url": "https://api.github.com/users/extremeheat/received_events",
                "repos_url": "https://api.github.com/users/extremeheat/repos",
                "site_admin": false,
                "starred_url": "https://api.github.com/users/extremeheat/starred{/owner}{/repo}",
                "subscriptions_url": "https://api.github.com/users/extremeheat/subscriptions",
                "type": "User",
                "url": "https://api.github.com/users/extremeheat"
            }
        },
        {
            "author_association": "NONE",
            "body": "\r\nNormal items worked normally, but when the bot has enchanted items in inventory, it drops one and crashes.",
            "created_at": "2022-12-10T23:19:43Z",
            "html_url": "https://github.com/PrismarineJS/mineflayer/issues/2856#issuecomment-1345406664",
            "id": 1345406664,
            "issue_url": "https://api.github.com/repos/PrismarineJS/mineflayer/issues/2856",
            "node_id": "IC_kwDOABOYWc5QMUbI",
            "performed_via_github_app": null,
            "reactions": {
                "+1": 0,
                "-1": 0,
                "confused": 0,
                "eyes": 0,
                "heart": 0,
                "hooray": 0,
                "laugh": 0,
                "rocket": 0,
                "total_count": 0,
                "url": "https://api.github.com/repos/PrismarineJS/mineflayer/issues/comments/1345406664/reactions"
            },
            "updated_at": "2022-12-10T23:19:43Z",
            "url": "https://api.github.com/repos/PrismarineJS/mineflayer/issues/comments/1345406664",
            "user": {
                "avatar_url": "https://avatars.githubusercontent.com/u/67024712?v=4",
                "events_url": "https://api.github.com/users/ruizaoo/events{/privacy}",
                "followers_url": "https://api.github.com/users/ruizaoo/followers",
                "following_url": "https://api.github.com/users/ruizaoo/following{/other_user}",
                "gists_url": "https://api.github.com/users/ruizaoo/gists{/gist_id}",
                "gravatar_id": "",
                "html_url": "https://github.com/ruizaoo",
                "id": 67024712,
                "login": "ruizaoo",
                "node_id": "MDQ6VXNlcjY3MDI0NzEy",
                "organizations_url": "https://api.github.com/users/ruizaoo/orgs",
                "received_events_url": "https://api.github.com/users/ruizaoo/received_events",
                "repos_url": "https://api.github.com/users/ruizaoo/repos",
                "site_admin": false,
                "starred_url": "https://api.github.com/users/ruizaoo/starred{/owner}{/repo}",
                "subscriptions_url": "https://api.github.com/users/ruizaoo/subscriptions",
                "type": "User",
                "url": "https://api.github.com/users/ruizaoo"
            }
        }
    ],
    "comments": 2,
    "comments_url": "https://api.github.com/repos/PrismarineJS/mineflayer/issues/2856/comments",
    "created_at": "2022-12-09T21:03:40Z",
    "event_data": [
        {
            "actor": {
                "avatar_url": "https://avatars.githubusercontent.com/u/67024712?v=4",
                "events_url": "https://api.github.com/users/ruizaoo/events{/privacy}",
                "followers_url": "https://api.github.com/users/ruizaoo/followers",
                "following_url": "https://api.github.com/users/ruizaoo/following{/other_user}",
                "gists_url": "https://api.github.com/users/ruizaoo/gists{/gist_id}",
                "gravatar_id": "",
                "html_url": "https://github.com/ruizaoo",
                "id": 67024712,
                "login": "ruizaoo",
                "node_id": "MDQ6VXNlcjY3MDI0NzEy",
                "organizations_url": "https://api.github.com/users/ruizaoo/orgs",
                "received_events_url": "https://api.github.com/users/ruizaoo/received_events",
                "repos_url": "https://api.github.com/users/ruizaoo/repos",
                "site_admin": false,
                "starred_url": "https://api.github.com/users/ruizaoo/starred{/owner}{/repo}",
                "subscriptions_url": "https://api.github.com/users/ruizaoo/subscriptions",
                "type": "User",
                "url": "https://api.github.com/users/ruizaoo"
            },
            "commit_id": null,
            "commit_url": null,
            "created_at": "2022-12-09T21:03:40Z",
            "event": "labeled",
            "id": 8002013929,
            "label": {
                "color": "ba232f",
                "name": "possible bug"
            },
            "node_id": "LE_lADOABOYWc5YqMKGzwAAAAHc9Qrp",
            "performed_via_github_app": null,
            "url": "https://api.github.com/repos/PrismarineJS/mineflayer/issues/events/8002013929"
        },
        {
            "actor": {
                "avatar_url": "https://avatars.githubusercontent.com/u/67024712?v=4",
                "events_url": "https://api.github.com/users/ruizaoo/events{/privacy}",
                "followers_url": "https://api.github.com/users/ruizaoo/followers",
                "following_url": "https://api.github.com/users/ruizaoo/following{/other_user}",
                "gists_url": "https://api.github.com/users/ruizaoo/gists{/gist_id}",
                "gravatar_id": "",
                "html_url": "https://github.com/ruizaoo",
                "id": 67024712,
                "login": "ruizaoo",
                "node_id": "MDQ6VXNlcjY3MDI0NzEy",
                "organizations_url": "https://api.github.com/users/ruizaoo/orgs",
                "received_events_url": "https://api.github.com/users/ruizaoo/received_events",
                "repos_url": "https://api.github.com/users/ruizaoo/repos",
                "site_admin": false,
                "starred_url": "https://api.github.com/users/ruizaoo/starred{/owner}{/repo}",
                "subscriptions_url": "https://api.github.com/users/ruizaoo/subscriptions",
                "type": "User",
                "url": "https://api.github.com/users/ruizaoo"
            },
            "commit_id": null,
            "commit_url": null,
            "created_at": "2022-12-09T21:03:41Z",
            "event": "labeled",
            "id": 8002013936,
            "label": {
                "color": "bfdadc",
                "name": "Stage1"
            },
            "node_id": "LE_lADOABOYWc5YqMKGzwAAAAHc9Qrw",
            "performed_via_github_app": null,
            "url": "https://api.github.com/repos/PrismarineJS/mineflayer/issues/events/8002013936"
        },
        {
            "actor": {
                "avatar_url": "https://avatars.githubusercontent.com/u/13713600?v=4",
                "events_url": "https://api.github.com/users/extremeheat/events{/privacy}",
                "followers_url": "https://api.github.com/users/extremeheat/followers",
                "following_url": "https://api.github.com/users/extremeheat/following{/other_user}",
                "gists_url": "https://api.github.com/users/extremeheat/gists{/gist_id}",
                "gravatar_id": "",
                "html_url": "https://github.com/extremeheat",
                "id": 13713600,
                "login": "extremeheat",
                "node_id": "MDQ6VXNlcjEzNzEzNjAw",
                "organizations_url": "https://api.github.com/users/extremeheat/orgs",
                "received_events_url": "https://api.github.com/users/extremeheat/received_events",
                "repos_url": "https://api.github.com/users/extremeheat/repos",
                "site_admin": false,
                "starred_url": "https://api.github.com/users/extremeheat/starred{/owner}{/repo}",
                "subscriptions_url": "https://api.github.com/users/extremeheat/subscriptions",
                "type": "User",
                "url": "https://api.github.com/users/extremeheat"
            },
            "commit_id": null,
            "commit_url": null,
            "created_at": "2022-12-10T05:47:52Z",
            "event": "closed",
            "id": 8003643990,
            "node_id": "CE_lADOABOYWc5YqMKGzwAAAAHdDepW",
            "performed_via_github_app": null,
            "state_reason": null,
            "url": "https://api.github.com/repos/PrismarineJS/mineflayer/issues/events/8003643990"
        }
    ],
    "events_url": "https://api.github.com/repos/PrismarineJS/mineflayer/issues/2856/events",
    "html_url": "https://github.com/PrismarineJS/mineflayer/issues/2856",
    "id": 1487454854,
    "labels": [
        {
            "color": "ba232f",
            "default": false,
            "description": "",
            "id": 1346729768,
            "name": "possible bug",
            "node_id": "MDU6TGFiZWwxMzQ2NzI5NzY4",
            "url": "https://api.github.com/repos/PrismarineJS/mineflayer/labels/possible%20bug"
        },
        {
            "color": "bfdadc",
            "default": false,
            "description": "just created by someone new to the project, we don't know yet if it deserves an implementation / a f",
            "id": 2720118317,
            "name": "Stage1",
            "node_id": "MDU6TGFiZWwyNzIwMTE4MzE3",
            "url": "https://api.github.com/repos/PrismarineJS/mineflayer/labels/Stage1"
        }
    ],
    "labels_url": "https://api.github.com/repos/PrismarineJS/mineflayer/issues/2856/labels{/name}",
    "locked": false,
    "milestone": null,
    "node_id": "I_kwDOABOYWc5YqMKG",
    "number": 2856,
    "performed_via_github_app": null,
    "reactions": {
        "+1": 0,
        "-1": 0,
        "confused": 0,
        "eyes": 0,
        "heart": 0,
        "hooray": 0,
        "laugh": 0,
        "rocket": 0,
        "total_count": 0,
        "url": "https://api.github.com/repos/PrismarineJS/mineflayer/issues/2856/reactions"
    },
    "repository_url": "https://api.github.com/repos/PrismarineJS/mineflayer",
    "state": "closed",
    "state_reason": "completed",
    "timeline_url": "https://api.github.com/repos/PrismarineJS/mineflayer/issues/2856/timeline",
    "title": "Drop all itens in inventory",
    "updated_at": "2022-12-10T23:19:43Z",
    "url": "https://api.github.com/repos/PrismarineJS/mineflayer/issues/2856",
    "user": {
        "avatar_url": "https://avatars.githubusercontent.com/u/67024712?v=4",
        "events_url": "https://api.github.com/users/ruizaoo/events{/privacy}",
        "followers_url": "https://api.github.com/users/ruizaoo/followers",
        "following_url": "https://api.github.com/users/ruizaoo/following{/other_user}",
        "gists_url": "https://api.github.com/users/ruizaoo/gists{/gist_id}",
        "gravatar_id": "",
        "html_url": "https://github.com/ruizaoo",
        "id": 67024712,
        "login": "ruizaoo",
        "node_id": "MDQ6VXNlcjY3MDI0NzEy",
        "organizations_url": "https://api.github.com/users/ruizaoo/orgs",
        "received_events_url": "https://api.github.com/users/ruizaoo/received_events",
        "repos_url": "https://api.github.com/users/ruizaoo/repos",
        "site_admin": false,
        "starred_url": "https://api.github.com/users/ruizaoo/starred{/owner}{/repo}",
        "subscriptions_url": "https://api.github.com/users/ruizaoo/subscriptions",
        "type": "User",
        "url": "https://api.github.com/users/ruizaoo"
    }
}