{
    "active_lock_reason": null,
    "assignee": null,
    "assignees": [],
    "author_association": "NONE",
    "body": "hey guys im just wondering how i can login with a SSID (session id) (with mineflayer) \r\n\r\nim not sure how to do this\r\n\r\nplease if u can help please reply",
    "closed_at": "2023-04-24T16:12:23Z",
    "comment_data": [
        {
            "author_association": "NONE",
            "body": "Your last issue was also closed, and making a duplicate one is forbidden.\r\n\r\nIn any case, stealing someones session token and logging into their account is unethical, and you won't get an answer.\r\n\r\nHowever, $50 can settle it.",
            "created_at": "2023-04-24T11:17:56Z",
            "html_url": "https://github.com/PrismarineJS/mineflayer/issues/3034#issuecomment-1519946395",
            "id": 1519946395,
            "issue_url": "https://api.github.com/repos/PrismarineJS/mineflayer/issues/3034",
            "node_id": "IC_kwDOABOYWc5amIqb",
            "performed_via_github_app": null,
            "reactions": {
                "+1": 1,
                "-1": 0,
                "confused": 0,
                "eyes": 0,
                "heart": 0,
                "hooray": 0,
                "laugh": 0,
                "rocket": 0,
                "total_count": 1,
                "url": "https://api.github.com/repos/PrismarineJS/mineflayer/issues/comments/1519946395/reactions"
            },
            "updated_at": "2023-04-24T11:17:56Z",
            "url": "https://api.github.com/repos/PrismarineJS/mineflayer/issues/comments/1519946395",
            "user": {
                "avatar_url": "https://avatars.githubusercontent.com/u/46723925?v=4",
                "events_url": "https://api.github.com/users/zxxxxo/events{/privacy}",
                "followers_url": "https://api.github.com/users/zxxxxo/followers",
                "following_url": "https://api.github.com/users/zxxxxo/following{/other_user}",
                "gists_url": "https://api.github.com/users/zxxxxo/gists{/gist_id}",
                "gravatar_id": "",
                "html_url": "https://github.com/zxxxxo",
                "id": 46723925,
                "login": "zxxxxo",
                "node_id": "MDQ6VXNlcjQ2NzIzOTI1",
                "organizations_url": "https://api.github.com/users/zxxxxo/orgs",
                "received_events_url": "https://api.github.com/users/zxxxxo/received_events",
                "repos_url": "https://api.github.com/users/zxxxxo/repos",
                "site_admin": false,
                "starred_url": "https://api.github.com/users/zxxxxo/starred{/owner}{/repo}",
                "subscriptions_url": "https://api.github.com/users/zxxxxo/subscriptions",
                "type": "User",
                "url": "https://api.github.com/users/zxxxxo"
            }
        },
        {
            "author_association": "MEMBER",
            "body": "Use the search function instead of creating duplicate issues",
            "created_at": "2023-04-24T16:12:17Z",
            "html_url": "https://github.com/PrismarineJS/mineflayer/issues/3034#issuecomment-1520462636",
            "id": 1520462636,
            "issue_url": "https://api.github.com/repos/PrismarineJS/mineflayer/issues/3034",
            "node_id": "IC_kwDOABOYWc5aoGss",
            "performed_via_github_app": null,
            "reactions": {
                "+1": 0,
                "-1": 0,
                "confused": 0,
                "eyes": 0,
                "heart": 0,
                "hooray": 0,
                "laugh": 0,
                "rocket": 0,
                "total_count": 0,
                "url": "https://api.github.com/repos/PrismarineJS/mineflayer/issues/comments/1520462636/reactions"
            },
            "updated_at": "2023-04-24T16:12:17Z",
            "url": "https://api.github.com/repos/PrismarineJS/mineflayer/issues/comments/1520462636",
            "user": {
                "avatar_url": "https://avatars.githubusercontent.com/u/13713600?v=4",
                "events_url": "https://api.github.com/users/extremeheat/events{/privacy}",
                "followers_url": "https://api.github.com/users/extremeheat/followers",
                "following_url": "https://api.github.com/users/extremeheat/following{/other_user}",
                "gists_url": "https://api.github.com/users/extremeheat/gists{/gist_id}",
                "gravatar_id": "",
                "html_url": "https://github.com/extremeheat",
                "id": 13713600,
                "login": "extremeheat",
                "node_id": "MDQ6VXNlcjEzNzEzNjAw",
                "organizations_url": "https://api.github.com/users/extremeheat/orgs",
                "received_events_url": "https://api.github.com/users/extremeheat/received_events",
                "repos_url": "https://api.github.com/users/extremeheat/repos",
                "site_admin": false,
                "starred_url": "https://api.github.com/users/extremeheat/starred{/owner}{/repo}",
                "subscriptions_url": "https://api.github.com/users/extremeheat/subscriptions",
                "type": "User",
                "url": "https://api.github.com/users/extremeheat"
            }
        }
    ],
    "comments": 2,
    "comments_url": "https://api.github.com/repos/PrismarineJS/mineflayer/issues/3034/comments",
    "created_at": "2023-04-24T08:34:52Z",
    "event_data": [
        {
            "actor": {
                "avatar_url": "https://avatars.githubusercontent.com/u/101437531?v=4",
                "events_url": "https://api.github.com/users/r1shie/events{/privacy}",
                "followers_url": "https://api.github.com/users/r1shie/followers",
                "following_url": "https://api.github.com/users/r1shie/following{/other_user}",
                "gists_url": "https://api.github.com/users/r1shie/gists{/gist_id}",
                "gravatar_id": "",
                "html_url": "https://github.com/r1shie",
                "id": 101437531,
                "login": "r1shie",
                "node_id": "U_kgDOBgvQWw",
                "organizations_url": "https://api.github.com/users/r1shie/orgs",
                "received_events_url": "https://api.github.com/users/r1shie/received_events",
                "repos_url": "https://api.github.com/users/r1shie/repos",
                "site_admin": false,
                "starred_url": "https://api.github.com/users/r1shie/starred{/owner}{/repo}",
                "subscriptions_url": "https://api.github.com/users/r1shie/subscriptions",
                "type": "User",
                "url": "https://api.github.com/users/r1shie"
            },
            "commit_id": null,
            "commit_url": null,
            "created_at": "2023-04-24T08:34:52Z",
            "event": "labeled",
            "id": 9078449574,
            "label": {
                "color": "ba232f",
                "name": "possible bug"
            },
            "node_id": "LE_lADOABOYWc5kLenhzwAAAAIdHiWm",
            "performed_via_github_app": null,
            "url": "https://api.github.com/repos/PrismarineJS/mineflayer/issues/events/9078449574"
        },
        {
            "actor": {
                "avatar_url": "https://avatars.githubusercontent.com/u/101437531?v=4",
                "events_url": "https://api.github.com/users/r1shie/events{/privacy}",
                "followers_url": "https://api.github.com/users/r1shie/followers",
                "following_url": "https://api.github.com/users/r1shie/following{/other_user}",
                "gists_url": "https://api.github.com/users/r1shie/gists{/gist_id}",
                "gravatar_id": "",
                "html_url": "https://github.com/r1shie",
                "id": 101437531,
                "login": "r1shie",
                "node_id": "U_kgDOBgvQWw",
                "organizations_url": "https://api.github.com/users/r1shie/orgs",
                "received_events_url": "https://api.github.com/users/r1shie/received_events",
                "repos_url": "https://api.github.com/users/r1shie/repos",
                "site_admin": false,
                "starred_url": "https://api.github.com/users/r1shie/starred{/owner}{/repo}",
                "subscriptions_url": "https://api.github.com/users/r1shie/subscriptions",
                "type": "User",
                "url": "https://api.github.com/users/r1shie"
            },
            "commit_id": null,
            "commit_url": null,
            "created_at": "2023-04-24T08:34:52Z",
            "event": "labeled",
            "id": 9078449590,
            "label": {
                "color": "bfdadc",
                "name": "Stage1"
            },
            "node_id": "LE_lADOABOYWc5kLenhzwAAAAIdHiW2",
            "performed_via_github_app": null,
            "url": "https://api.github.com/repos/PrismarineJS/mineflayer/issues/events/9078449590"
        },
        {
            "actor": {
                "avatar_url": "https://avatars.githubusercontent.com/u/13713600?v=4",
                "events_url": "https://api.github.com/users/extremeheat/events{/privacy}",
                "followers_url": "https://api.github.com/users/extremeheat/followers",
                "following_url": "https://api.github.com/users/extremeheat/following{/other_user}",
                "gists_url": "https://api.github.com/users/extremeheat/gists{/gist_id}",
                "gravatar_id": "",
                "html_url": "https://github.com/extremeheat",
                "id": 13713600,
                "login": "extremeheat",
                "node_id": "MDQ6VXNlcjEzNzEzNjAw",
                "organizations_url": "https://api.github.com/users/extremeheat/orgs",
                "received_events_url": "https://api.github.com/users/extremeheat/received_events",
                "repos_url": "https://api.github.com/users/extremeheat/repos",
                "site_admin": false,
                "starred_url": "https://api.github.com/users/extremeheat/starred{/owner}{/repo}",
                "subscriptions_url": "https://api.github.com/users/extremeheat/subscriptions",
                "type": "User",
                "url": "https://api.github.com/users/extremeheat"
            },
            "commit_id": null,
            "commit_url": null,
            "created_at": "2023-04-24T16:12:24Z",
            "event": "closed",
            "id": 9083431295,
            "node_id": "CE_lADOABOYWc5kLenhzwAAAAIdail_",
            "performed_via_github_app": null,
            "state_reason": null,
            "url": "https://api.github.com/repos/PrismarineJS/mineflayer/issues/events/9083431295"
        },
        {
            "actor": {
                "avatar_url": "https://avatars.githubusercontent.com/u/13713600?v=4",
                "events_url": "https://api.github.com/users/extremeheat/events{/privacy}",
                "followers_url": "https://api.github.com/users/extremeheat/followers",
                "following_url": "https://api.github.com/users/extremeheat/following{/other_user}",
                "gists_url": "https://api.github.com/users/extremeheat/gists{/gist_id}",
                "gravatar_id": "",
                "html_url": "https://github.com/extremeheat",
                "id": 13713600,
                "login": "extremeheat",
                "node_id": "MDQ6VXNlcjEzNzEzNjAw",
                "organizations_url": "https://api.github.com/users/extremeheat/orgs",
                "received_events_url": "https://api.github.com/users/extremeheat/received_events",
                "repos_url": "https://api.github.com/users/extremeheat/repos",
                "site_admin": false,
                "starred_url": "https://api.github.com/users/extremeheat/starred{/owner}{/repo}",
                "subscriptions_url": "https://api.github.com/users/extremeheat/subscriptions",
                "type": "User",
                "url": "https://api.github.com/users/extremeheat"
            },
            "commit_id": null,
            "commit_url": null,
            "created_at": "2023-04-24T16:12:25Z",
            "event": "locked",
            "id": 9083431577,
            "lock_reason": null,
            "node_id": "LOE_lADOABOYWc5kLenhzwAAAAIdaiqZ",
            "performed_via_github_app": null,
            "url": "https://api.github.com/repos/PrismarineJS/mineflayer/issues/events/9083431577"
        }
    ],
    "events_url": "https://api.github.com/repos/PrismarineJS/mineflayer/issues/3034/events",
    "html_url": "https://github.com/PrismarineJS/mineflayer/issues/3034",
    "id": 1680730593,
    "labels": [
        {
            "color": "ba232f",
            "default": false,
            "description": "",
            "id": 1346729768,
            "name": "possible bug",
            "node_id": "MDU6TGFiZWwxMzQ2NzI5NzY4",
            "url": "https://api.github.com/repos/PrismarineJS/mineflayer/labels/possible%20bug"
        },
        {
            "color": "bfdadc",
            "default": false,
            "description": "just created by someone new to the project, we don't know yet if it deserves an implementation / a f",
            "id": 2720118317,
            "name": "Stage1",
            "node_id": "MDU6TGFiZWwyNzIwMTE4MzE3",
            "url": "https://api.github.com/repos/PrismarineJS/mineflayer/labels/Stage1"
        }
    ],
    "labels_url": "https://api.github.com/repos/PrismarineJS/mineflayer/issues/3034/labels{/name}",
    "locked": true,
    "milestone": null,
    "node_id": "I_kwDOABOYWc5kLenh",
    "number": 3034,
    "performed_via_github_app": null,
    "reactions": {
        "+1": 0,
        "-1": 2,
        "confused": 0,
        "eyes": 0,
        "heart": 0,
        "hooray": 0,
        "laugh": 0,
        "rocket": 0,
        "total_count": 2,
        "url": "https://api.github.com/repos/PrismarineJS/mineflayer/issues/3034/reactions"
    },
    "repository_url": "https://api.github.com/repos/PrismarineJS/mineflayer",
    "state": "closed",
    "state_reason": "completed",
    "timeline_url": "https://api.github.com/repos/PrismarineJS/mineflayer/issues/3034/timeline",
    "title": "Different Ways Of Logging In",
    "updated_at": "2023-04-24T16:12:25Z",
    "url": "https://api.github.com/repos/PrismarineJS/mineflayer/issues/3034",
    "user": {
        "avatar_url": "https://avatars.githubusercontent.com/u/101437531?v=4",
        "events_url": "https://api.github.com/users/r1shie/events{/privacy}",
        "followers_url": "https://api.github.com/users/r1shie/followers",
        "following_url": "https://api.github.com/users/r1shie/following{/other_user}",
        "gists_url": "https://api.github.com/users/r1shie/gists{/gist_id}",
        "gravatar_id": "",
        "html_url": "https://github.com/r1shie",
        "id": 101437531,
        "login": "r1shie",
        "node_id": "U_kgDOBgvQWw",
        "organizations_url": "https://api.github.com/users/r1shie/orgs",
        "received_events_url": "https://api.github.com/users/r1shie/received_events",
        "repos_url": "https://api.github.com/users/r1shie/repos",
        "site_admin": false,
        "starred_url": "https://api.github.com/users/r1shie/starred{/owner}{/repo}",
        "subscriptions_url": "https://api.github.com/users/r1shie/subscriptions",
        "type": "User",
        "url": "https://api.github.com/users/r1shie"
    }
}