{
    "active_lock_reason": null,
    "assignee": null,
    "assignees": [],
    "author_association": "NONE",
    "body": "- [x] The [FAQ](https://github.com/PrismarineJS/mineflayer/blob/master/docs/FAQ.md) doesn't contain a resolution to my issue \r\n\r\n\r\n - server: spigot 1.16.5\r\n\r\n\r\nI use bot.setControlState('forward', true), but the bot doesn't walk, there are walking particles coming from under the feet and that's it\r\npathfinder the same problem\r\n\r\n\r\n\r\n```js\r\nconst mineflayer = require('mineflayer');\r\nconst pathfinder = require('mineflayer-pathfinder').pathfinder\r\nconst Movements = require('mineflayer-pathfinder').Movements\r\nconst { GoalBlock } = require('mineflayer-pathfinder').goals\r\n\r\nconst bot = mineflayer.createBot({\r\n  host: 'play.funtime.su',\r\n  username: '----',\r\n  version: '1.16.5'\r\n});\r\n\r\nbot.loadPlugin(pathfinder);\r\n\r\nbot.once('spawn', () => {\r\n  bot.chat('/an404')\r\n  const mcData = require('minecraft-data')(bot.version);\r\n  const movements = new Movements(bot, mcData);\r\n\r\n  bot.pathfinder.setMovements(movements);\r\n\r\n  const goal = new GoalBlock(0, 85, -18);\r\n\r\n  bot.pathfinder.setGoal(goal);\r\n});\r\n```\r\n\r\n\r\n",
    "closed_at": null,
    "comment_data": [
        {
            "author_association": "MEMBER",
            "body": "Sounds like a server issue loading chunks. Can you reproduce on a vanilla server?",
            "created_at": "2023-05-25T07:23:41Z",
            "html_url": "https://github.com/PrismarineJS/mineflayer/issues/3055#issuecomment-1562409440",
            "id": 1562409440,
            "issue_url": "https://api.github.com/repos/PrismarineJS/mineflayer/issues/3055",
            "node_id": "IC_kwDOABOYWc5dIHng",
            "performed_via_github_app": null,
            "reactions": {
                "+1": 0,
                "-1": 0,
                "confused": 0,
                "eyes": 0,
                "heart": 0,
                "hooray": 0,
                "laugh": 0,
                "rocket": 0,
                "total_count": 0,
                "url": "https://api.github.com/repos/PrismarineJS/mineflayer/issues/comments/1562409440/reactions"
            },
            "updated_at": "2023-05-25T07:23:41Z",
            "url": "https://api.github.com/repos/PrismarineJS/mineflayer/issues/comments/1562409440",
            "user": {
                "avatar_url": "https://avatars.githubusercontent.com/u/13713600?v=4",
                "events_url": "https://api.github.com/users/extremeheat/events{/privacy}",
                "followers_url": "https://api.github.com/users/extremeheat/followers",
                "following_url": "https://api.github.com/users/extremeheat/following{/other_user}",
                "gists_url": "https://api.github.com/users/extremeheat/gists{/gist_id}",
                "gravatar_id": "",
                "html_url": "https://github.com/extremeheat",
                "id": 13713600,
                "login": "extremeheat",
                "node_id": "MDQ6VXNlcjEzNzEzNjAw",
                "organizations_url": "https://api.github.com/users/extremeheat/orgs",
                "received_events_url": "https://api.github.com/users/extremeheat/received_events",
                "repos_url": "https://api.github.com/users/extremeheat/repos",
                "site_admin": false,
                "starred_url": "https://api.github.com/users/extremeheat/starred{/owner}{/repo}",
                "subscriptions_url": "https://api.github.com/users/extremeheat/subscriptions",
                "type": "User",
                "url": "https://api.github.com/users/extremeheat"
            }
        },
        {
            "author_association": "NONE",
            "body": "> Похоже, проблема с сервером при загрузке чанков. Можете ли вы воспроизвести на ванильном сервере?\r\n\r\nYes, on local server this code work. How fix it on the server?",
            "created_at": "2023-05-25T13:31:11Z",
            "html_url": "https://github.com/PrismarineJS/mineflayer/issues/3055#issuecomment-1562915006",
            "id": 1562915006,
            "issue_url": "https://api.github.com/repos/PrismarineJS/mineflayer/issues/3055",
            "node_id": "IC_kwDOABOYWc5dKDC-",
            "performed_via_github_app": null,
            "reactions": {
                "+1": 0,
                "-1": 0,
                "confused": 0,
                "eyes": 0,
                "heart": 0,
                "hooray": 0,
                "laugh": 0,
                "rocket": 0,
                "total_count": 0,
                "url": "https://api.github.com/repos/PrismarineJS/mineflayer/issues/comments/1562915006/reactions"
            },
            "updated_at": "2023-05-25T13:31:11Z",
            "url": "https://api.github.com/repos/PrismarineJS/mineflayer/issues/comments/1562915006",
            "user": {
                "avatar_url": "https://avatars.githubusercontent.com/u/51119065?v=4",
                "events_url": "https://api.github.com/users/helppossum/events{/privacy}",
                "followers_url": "https://api.github.com/users/helppossum/followers",
                "following_url": "https://api.github.com/users/helppossum/following{/other_user}",
                "gists_url": "https://api.github.com/users/helppossum/gists{/gist_id}",
                "gravatar_id": "",
                "html_url": "https://github.com/helppossum",
                "id": 51119065,
                "login": "helppossum",
                "node_id": "MDQ6VXNlcjUxMTE5MDY1",
                "organizations_url": "https://api.github.com/users/helppossum/orgs",
                "received_events_url": "https://api.github.com/users/helppossum/received_events",
                "repos_url": "https://api.github.com/users/helppossum/repos",
                "site_admin": false,
                "starred_url": "https://api.github.com/users/helppossum/starred{/owner}{/repo}",
                "subscriptions_url": "https://api.github.com/users/helppossum/subscriptions",
                "type": "User",
                "url": "https://api.github.com/users/helppossum"
            }
        },
        {
            "author_association": "NONE",
            "body": "> \r\nas I understand the bot at spawning gets stuck in the blocks, I was helped by this solution - the bot should spawn in the water, and from it he can safely get out and move on the blocks, but the question is still open, how do I fix getting stuck in the blocks\r\n",
            "created_at": "2023-05-25T15:57:05Z",
            "html_url": "https://github.com/PrismarineJS/mineflayer/issues/3055#issuecomment-1563146567",
            "id": 1563146567,
            "issue_url": "https://api.github.com/repos/PrismarineJS/mineflayer/issues/3055",
            "node_id": "IC_kwDOABOYWc5dK7lH",
            "performed_via_github_app": null,
            "reactions": {
                "+1": 0,
                "-1": 0,
                "confused": 0,
                "eyes": 0,
                "heart": 0,
                "hooray": 0,
                "laugh": 0,
                "rocket": 0,
                "total_count": 0,
                "url": "https://api.github.com/repos/PrismarineJS/mineflayer/issues/comments/1563146567/reactions"
            },
            "updated_at": "2023-05-25T15:57:05Z",
            "url": "https://api.github.com/repos/PrismarineJS/mineflayer/issues/comments/1563146567",
            "user": {
                "avatar_url": "https://avatars.githubusercontent.com/u/51119065?v=4",
                "events_url": "https://api.github.com/users/helppossum/events{/privacy}",
                "followers_url": "https://api.github.com/users/helppossum/followers",
                "following_url": "https://api.github.com/users/helppossum/following{/other_user}",
                "gists_url": "https://api.github.com/users/helppossum/gists{/gist_id}",
                "gravatar_id": "",
                "html_url": "https://github.com/helppossum",
                "id": 51119065,
                "login": "helppossum",
                "node_id": "MDQ6VXNlcjUxMTE5MDY1",
                "organizations_url": "https://api.github.com/users/helppossum/orgs",
                "received_events_url": "https://api.github.com/users/helppossum/received_events",
                "repos_url": "https://api.github.com/users/helppossum/repos",
                "site_admin": false,
                "starred_url": "https://api.github.com/users/helppossum/starred{/owner}{/repo}",
                "subscriptions_url": "https://api.github.com/users/helppossum/subscriptions",
                "type": "User",
                "url": "https://api.github.com/users/helppossum"
            }
        },
        {
            "author_association": "CONTRIBUTOR",
            "body": "is this still unresolved? you could try having the bot try to force its position out of the block by sending a position packet with `bot._client.write`",
            "created_at": "2023-06-28T23:14:26Z",
            "html_url": "https://github.com/PrismarineJS/mineflayer/issues/3055#issuecomment-1612227579",
            "id": 1612227579,
            "issue_url": "https://api.github.com/repos/PrismarineJS/mineflayer/issues/3055",
            "node_id": "IC_kwDOABOYWc5gGKP7",
            "performed_via_github_app": null,
            "reactions": {
                "+1": 0,
                "-1": 0,
                "confused": 0,
                "eyes": 0,
                "heart": 0,
                "hooray": 0,
                "laugh": 0,
                "rocket": 0,
                "total_count": 0,
                "url": "https://api.github.com/repos/PrismarineJS/mineflayer/issues/comments/1612227579/reactions"
            },
            "updated_at": "2023-06-28T23:14:47Z",
            "url": "https://api.github.com/repos/PrismarineJS/mineflayer/issues/comments/1612227579",
            "user": {
                "avatar_url": "https://avatars.githubusercontent.com/u/112601020?v=4",
                "events_url": "https://api.github.com/users/Jovan-04/events{/privacy}",
                "followers_url": "https://api.github.com/users/Jovan-04/followers",
                "following_url": "https://api.github.com/users/Jovan-04/following{/other_user}",
                "gists_url": "https://api.github.com/users/Jovan-04/gists{/gist_id}",
                "gravatar_id": "",
                "html_url": "https://github.com/Jovan-04",
                "id": 112601020,
                "login": "Jovan-04",
                "node_id": "U_kgDOBrYnvA",
                "organizations_url": "https://api.github.com/users/Jovan-04/orgs",
                "received_events_url": "https://api.github.com/users/Jovan-04/received_events",
                "repos_url": "https://api.github.com/users/Jovan-04/repos",
                "site_admin": false,
                "starred_url": "https://api.github.com/users/Jovan-04/starred{/owner}{/repo}",
                "subscriptions_url": "https://api.github.com/users/Jovan-04/subscriptions",
                "type": "User",
                "url": "https://api.github.com/users/Jovan-04"
            }
        }
    ],
    "comments": 4,
    "comments_url": "https://api.github.com/repos/PrismarineJS/mineflayer/issues/3055/comments",
    "created_at": "2023-05-19T15:29:09Z",
    "event_data": [
        {
            "actor": {
                "avatar_url": "https://avatars.githubusercontent.com/u/51119065?v=4",
                "events_url": "https://api.github.com/users/helppossum/events{/privacy}",
                "followers_url": "https://api.github.com/users/helppossum/followers",
                "following_url": "https://api.github.com/users/helppossum/following{/other_user}",
                "gists_url": "https://api.github.com/users/helppossum/gists{/gist_id}",
                "gravatar_id": "",
                "html_url": "https://github.com/helppossum",
                "id": 51119065,
                "login": "helppossum",
                "node_id": "MDQ6VXNlcjUxMTE5MDY1",
                "organizations_url": "https://api.github.com/users/helppossum/orgs",
                "received_events_url": "https://api.github.com/users/helppossum/received_events",
                "repos_url": "https://api.github.com/users/helppossum/repos",
                "site_admin": false,
                "starred_url": "https://api.github.com/users/helppossum/starred{/owner}{/repo}",
                "subscriptions_url": "https://api.github.com/users/helppossum/subscriptions",
                "type": "User",
                "url": "https://api.github.com/users/helppossum"
            },
            "commit_id": null,
            "commit_url": null,
            "created_at": "2023-05-19T15:29:09Z",
            "event": "labeled",
            "id": 9290498900,
            "label": {
                "color": "F9D0C4",
                "name": "possible bug"
            },
            "node_id": "LE_lADOABOYWc5mXgAkzwAAAAIpwcNU",
            "performed_via_github_app": null,
            "url": "https://api.github.com/repos/PrismarineJS/mineflayer/issues/events/9290498900"
        },
        {
            "actor": {
                "avatar_url": "https://avatars.githubusercontent.com/u/51119065?v=4",
                "events_url": "https://api.github.com/users/helppossum/events{/privacy}",
                "followers_url": "https://api.github.com/users/helppossum/followers",
                "following_url": "https://api.github.com/users/helppossum/following{/other_user}",
                "gists_url": "https://api.github.com/users/helppossum/gists{/gist_id}",
                "gravatar_id": "",
                "html_url": "https://github.com/helppossum",
                "id": 51119065,
                "login": "helppossum",
                "node_id": "MDQ6VXNlcjUxMTE5MDY1",
                "organizations_url": "https://api.github.com/users/helppossum/orgs",
                "received_events_url": "https://api.github.com/users/helppossum/received_events",
                "repos_url": "https://api.github.com/users/helppossum/repos",
                "site_admin": false,
                "starred_url": "https://api.github.com/users/helppossum/starred{/owner}{/repo}",
                "subscriptions_url": "https://api.github.com/users/helppossum/subscriptions",
                "type": "User",
                "url": "https://api.github.com/users/helppossum"
            },
            "commit_id": null,
            "commit_url": null,
            "created_at": "2023-05-19T15:29:09Z",
            "event": "labeled",
            "id": 9290498904,
            "label": {
                "color": "bfdadc",
                "name": "Stage1"
            },
            "node_id": "LE_lADOABOYWc5mXgAkzwAAAAIpwcNY",
            "performed_via_github_app": null,
            "url": "https://api.github.com/repos/PrismarineJS/mineflayer/issues/events/9290498904"
        },
        {
            "actor": {
                "avatar_url": "https://avatars.githubusercontent.com/u/13713600?v=4",
                "events_url": "https://api.github.com/users/extremeheat/events{/privacy}",
                "followers_url": "https://api.github.com/users/extremeheat/followers",
                "following_url": "https://api.github.com/users/extremeheat/following{/other_user}",
                "gists_url": "https://api.github.com/users/extremeheat/gists{/gist_id}",
                "gravatar_id": "",
                "html_url": "https://github.com/extremeheat",
                "id": 13713600,
                "login": "extremeheat",
                "node_id": "MDQ6VXNlcjEzNzEzNjAw",
                "organizations_url": "https://api.github.com/users/extremeheat/orgs",
                "received_events_url": "https://api.github.com/users/extremeheat/received_events",
                "repos_url": "https://api.github.com/users/extremeheat/repos",
                "site_admin": false,
                "starred_url": "https://api.github.com/users/extremeheat/starred{/owner}{/repo}",
                "subscriptions_url": "https://api.github.com/users/extremeheat/subscriptions",
                "type": "User",
                "url": "https://api.github.com/users/extremeheat"
            },
            "commit_id": null,
            "commit_url": null,
            "created_at": "2023-05-25T07:23:53Z",
            "event": "unlabeled",
            "id": 9336360500,
            "label": {
                "color": "F9D0C4",
                "name": "possible bug"
            },
            "node_id": "UNLE_lADOABOYWc5mXgAkzwAAAAIsfY40",
            "performed_via_github_app": null,
            "url": "https://api.github.com/repos/PrismarineJS/mineflayer/issues/events/9336360500"
        },
        {
            "actor": {
                "avatar_url": "https://avatars.githubusercontent.com/u/13713600?v=4",
                "events_url": "https://api.github.com/users/extremeheat/events{/privacy}",
                "followers_url": "https://api.github.com/users/extremeheat/followers",
                "following_url": "https://api.github.com/users/extremeheat/following{/other_user}",
                "gists_url": "https://api.github.com/users/extremeheat/gists{/gist_id}",
                "gravatar_id": "",
                "html_url": "https://github.com/extremeheat",
                "id": 13713600,
                "login": "extremeheat",
                "node_id": "MDQ6VXNlcjEzNzEzNjAw",
                "organizations_url": "https://api.github.com/users/extremeheat/orgs",
                "received_events_url": "https://api.github.com/users/extremeheat/received_events",
                "repos_url": "https://api.github.com/users/extremeheat/repos",
                "site_admin": false,
                "starred_url": "https://api.github.com/users/extremeheat/starred{/owner}{/repo}",
                "subscriptions_url": "https://api.github.com/users/extremeheat/subscriptions",
                "type": "User",
                "url": "https://api.github.com/users/extremeheat"
            },
            "commit_id": null,
            "commit_url": null,
            "created_at": "2023-05-25T07:23:53Z",
            "event": "labeled",
            "id": 9336360510,
            "label": {
                "color": "663399",
                "name": "waiting info from op"
            },
            "node_id": "LE_lADOABOYWc5mXgAkzwAAAAIsfY4-",
            "performed_via_github_app": null,
            "url": "https://api.github.com/repos/PrismarineJS/mineflayer/issues/events/9336360510"
        }
    ],
    "events_url": "https://api.github.com/repos/PrismarineJS/mineflayer/issues/3055/events",
    "html_url": "https://github.com/PrismarineJS/mineflayer/issues/3055",
    "id": 1717436452,
    "labels": [
        {
            "color": "663399",
            "default": false,
            "description": null,
            "id": 241251380,
            "name": "waiting info from op",
            "node_id": "MDU6TGFiZWwyNDEyNTEzODA=",
            "url": "https://api.github.com/repos/PrismarineJS/mineflayer/labels/waiting%20info%20from%20op"
        },
        {
            "color": "bfdadc",
            "default": false,
            "description": "just created by someone new to the project, we don't know yet if it deserves an implementation / a f",
            "id": 2720118317,
            "name": "Stage1",
            "node_id": "MDU6TGFiZWwyNzIwMTE4MzE3",
            "url": "https://api.github.com/repos/PrismarineJS/mineflayer/labels/Stage1"
        }
    ],
    "labels_url": "https://api.github.com/repos/PrismarineJS/mineflayer/issues/3055/labels{/name}",
    "locked": false,
    "milestone": null,
    "node_id": "I_kwDOABOYWc5mXgAk",
    "number": 3055,
    "performed_via_github_app": null,
    "reactions": {
        "+1": 0,
        "-1": 0,
        "confused": 0,
        "eyes": 0,
        "heart": 0,
        "hooray": 0,
        "laugh": 0,
        "rocket": 0,
        "total_count": 0,
        "url": "https://api.github.com/repos/PrismarineJS/mineflayer/issues/3055/reactions"
    },
    "repository_url": "https://api.github.com/repos/PrismarineJS/mineflayer",
    "state": "open",
    "state_reason": null,
    "timeline_url": "https://api.github.com/repos/PrismarineJS/mineflayer/issues/3055/timeline",
    "title": "The bot can't walk",
    "updated_at": "2023-06-28T23:14:47Z",
    "url": "https://api.github.com/repos/PrismarineJS/mineflayer/issues/3055",
    "user": {
        "avatar_url": "https://avatars.githubusercontent.com/u/51119065?v=4",
        "events_url": "https://api.github.com/users/helppossum/events{/privacy}",
        "followers_url": "https://api.github.com/users/helppossum/followers",
        "following_url": "https://api.github.com/users/helppossum/following{/other_user}",
        "gists_url": "https://api.github.com/users/helppossum/gists{/gist_id}",
        "gravatar_id": "",
        "html_url": "https://github.com/helppossum",
        "id": 51119065,
        "login": "helppossum",
        "node_id": "MDQ6VXNlcjUxMTE5MDY1",
        "organizations_url": "https://api.github.com/users/helppossum/orgs",
        "received_events_url": "https://api.github.com/users/helppossum/received_events",
        "repos_url": "https://api.github.com/users/helppossum/repos",
        "site_admin": false,
        "starred_url": "https://api.github.com/users/helppossum/starred{/owner}{/repo}",
        "subscriptions_url": "https://api.github.com/users/helppossum/subscriptions",
        "type": "User",
        "url": "https://api.github.com/users/helppossum"
    }
}