{
    "active_lock_reason": null,
    "assignee": null,
    "assignees": [],
    "author_association": "NONE",
    "body": "As titles states.\r\n\r\nI wonder if Mineflayer is having trouble due to the fact there are two input items for the trade?\r\n\r\nSimple example to recreate issue:\r\n```js\r\nconst gui = await bot.openVillager(villager)\r\nconsole.log('no errors')\r\nawait gui.trade(index, 1).then(success)\r\nconsole.log('errors before getting here')\r\ngui.close()\r\n```\r\nI have verified all of the below:\r\n* The bot has more than sufficient emeralds\r\n* The bot has more than sufficient plain books\r\n* The bot has more than sufficient available empty inv slots\r\n\r\n\r\nPerhaps related - I've noticed Mineflayer will hang indefinitely even for single-input trades. My workaround up to this point for *that* issue is to have a timeout, close & reopen the gui, and try again.",
    "closed_at": "2023-12-30T14:17:30Z",
    "comment_data": [],
    "comments": 0,
    "comments_url": "https://api.github.com/repos/PrismarineJS/mineflayer/issues/3209/comments",
    "created_at": "2023-10-03T13:44:57Z",
    "event_data": [
        {
            "actor": {
                "avatar_url": "https://avatars.githubusercontent.com/u/5511002?v=4",
                "events_url": "https://api.github.com/users/EvModder/events{/privacy}",
                "followers_url": "https://api.github.com/users/EvModder/followers",
                "following_url": "https://api.github.com/users/EvModder/following{/other_user}",
                "gists_url": "https://api.github.com/users/EvModder/gists{/gist_id}",
                "gravatar_id": "",
                "html_url": "https://github.com/EvModder",
                "id": 5511002,
                "login": "EvModder",
                "node_id": "MDQ6VXNlcjU1MTEwMDI=",
                "organizations_url": "https://api.github.com/users/EvModder/orgs",
                "received_events_url": "https://api.github.com/users/EvModder/received_events",
                "repos_url": "https://api.github.com/users/EvModder/repos",
                "site_admin": false,
                "starred_url": "https://api.github.com/users/EvModder/starred{/owner}{/repo}",
                "subscriptions_url": "https://api.github.com/users/EvModder/subscriptions",
                "type": "User",
                "url": "https://api.github.com/users/EvModder"
            },
            "commit_id": null,
            "commit_url": null,
            "created_at": "2023-10-03T13:44:57Z",
            "event": "labeled",
            "id": 10538729994,
            "label": {
                "color": "F9D0C4",
                "name": "possible bug"
            },
            "node_id": "LE_lADOABOYWc5ysMv_zwAAAAJ0KEIK",
            "performed_via_github_app": null,
            "url": "https://api.github.com/repos/PrismarineJS/mineflayer/issues/events/10538729994"
        },
        {
            "actor": {
                "avatar_url": "https://avatars.githubusercontent.com/u/5511002?v=4",
                "events_url": "https://api.github.com/users/EvModder/events{/privacy}",
                "followers_url": "https://api.github.com/users/EvModder/followers",
                "following_url": "https://api.github.com/users/EvModder/following{/other_user}",
                "gists_url": "https://api.github.com/users/EvModder/gists{/gist_id}",
                "gravatar_id": "",
                "html_url": "https://github.com/EvModder",
                "id": 5511002,
                "login": "EvModder",
                "node_id": "MDQ6VXNlcjU1MTEwMDI=",
                "organizations_url": "https://api.github.com/users/EvModder/orgs",
                "received_events_url": "https://api.github.com/users/EvModder/received_events",
                "repos_url": "https://api.github.com/users/EvModder/repos",
                "site_admin": false,
                "starred_url": "https://api.github.com/users/EvModder/starred{/owner}{/repo}",
                "subscriptions_url": "https://api.github.com/users/EvModder/subscriptions",
                "type": "User",
                "url": "https://api.github.com/users/EvModder"
            },
            "commit_id": null,
            "commit_url": null,
            "created_at": "2023-10-03T13:44:57Z",
            "event": "labeled",
            "id": 10538730004,
            "label": {
                "color": "bfdadc",
                "name": "Stage1"
            },
            "node_id": "LE_lADOABOYWc5ysMv_zwAAAAJ0KEIU",
            "performed_via_github_app": null,
            "url": "https://api.github.com/repos/PrismarineJS/mineflayer/issues/events/10538730004"
        },
        {
            "actor": {
                "avatar_url": "https://avatars.githubusercontent.com/u/5511002?v=4",
                "events_url": "https://api.github.com/users/EvModder/events{/privacy}",
                "followers_url": "https://api.github.com/users/EvModder/followers",
                "following_url": "https://api.github.com/users/EvModder/following{/other_user}",
                "gists_url": "https://api.github.com/users/EvModder/gists{/gist_id}",
                "gravatar_id": "",
                "html_url": "https://github.com/EvModder",
                "id": 5511002,
                "login": "EvModder",
                "node_id": "MDQ6VXNlcjU1MTEwMDI=",
                "organizations_url": "https://api.github.com/users/EvModder/orgs",
                "received_events_url": "https://api.github.com/users/EvModder/received_events",
                "repos_url": "https://api.github.com/users/EvModder/repos",
                "site_admin": false,
                "starred_url": "https://api.github.com/users/EvModder/starred{/owner}{/repo}",
                "subscriptions_url": "https://api.github.com/users/EvModder/subscriptions",
                "type": "User",
                "url": "https://api.github.com/users/EvModder"
            },
            "commit_id": null,
            "commit_url": null,
            "created_at": "2023-10-06T15:27:54Z",
            "event": "renamed",
            "id": 10576730113,
            "node_id": "RTE_lADOABOYWc5ysMv_zwAAAAJ2bBgB",
            "performed_via_github_app": null,
            "rename": {
                "from": "villager.doTrade(index, count) fails for enchanted books",
                "to": "villager.trade(index, count) fails for enchanted books"
            },
            "url": "https://api.github.com/repos/PrismarineJS/mineflayer/issues/events/10576730113"
        },
        {
            "actor": {
                "avatar_url": "https://avatars.githubusercontent.com/u/2346494?v=4",
                "events_url": "https://api.github.com/users/rom1504/events{/privacy}",
                "followers_url": "https://api.github.com/users/rom1504/followers",
                "following_url": "https://api.github.com/users/rom1504/following{/other_user}",
                "gists_url": "https://api.github.com/users/rom1504/gists{/gist_id}",
                "gravatar_id": "",
                "html_url": "https://github.com/rom1504",
                "id": 2346494,
                "login": "rom1504",
                "node_id": "MDQ6VXNlcjIzNDY0OTQ=",
                "organizations_url": "https://api.github.com/users/rom1504/orgs",
                "received_events_url": "https://api.github.com/users/rom1504/received_events",
                "repos_url": "https://api.github.com/users/rom1504/repos",
                "site_admin": false,
                "starred_url": "https://api.github.com/users/rom1504/starred{/owner}{/repo}",
                "subscriptions_url": "https://api.github.com/users/rom1504/subscriptions",
                "type": "User",
                "url": "https://api.github.com/users/rom1504"
            },
            "commit_id": null,
            "commit_url": null,
            "created_at": "2023-12-30T14:17:30Z",
            "event": "closed",
            "id": 11360030793,
            "node_id": "CE_lADOABOYWc5ysMv_zwAAAAKlHFBJ",
            "performed_via_github_app": null,
            "state_reason": null,
            "url": "https://api.github.com/repos/PrismarineJS/mineflayer/issues/events/11360030793"
        }
    ],
    "events_url": "https://api.github.com/repos/PrismarineJS/mineflayer/issues/3209/events",
    "html_url": "https://github.com/PrismarineJS/mineflayer/issues/3209",
    "id": 1924189183,
    "labels": [
        {
            "color": "F9D0C4",
            "default": false,
            "description": "",
            "id": 1346729768,
            "name": "possible bug",
            "node_id": "MDU6TGFiZWwxMzQ2NzI5NzY4",
            "url": "https://api.github.com/repos/PrismarineJS/mineflayer/labels/possible%20bug"
        },
        {
            "color": "bfdadc",
            "default": false,
            "description": "just created by someone new to the project, we don't know yet if it deserves an implementation / a f",
            "id": 2720118317,
            "name": "Stage1",
            "node_id": "MDU6TGFiZWwyNzIwMTE4MzE3",
            "url": "https://api.github.com/repos/PrismarineJS/mineflayer/labels/Stage1"
        }
    ],
    "labels_url": "https://api.github.com/repos/PrismarineJS/mineflayer/issues/3209/labels{/name}",
    "locked": false,
    "milestone": null,
    "node_id": "I_kwDOABOYWc5ysMv_",
    "number": 3209,
    "performed_via_github_app": null,
    "reactions": {
        "+1": 0,
        "-1": 0,
        "confused": 0,
        "eyes": 0,
        "heart": 0,
        "hooray": 0,
        "laugh": 0,
        "rocket": 0,
        "total_count": 0,
        "url": "https://api.github.com/repos/PrismarineJS/mineflayer/issues/3209/reactions"
    },
    "repository_url": "https://api.github.com/repos/PrismarineJS/mineflayer",
    "state": "closed",
    "state_reason": "completed",
    "timeline_url": "https://api.github.com/repos/PrismarineJS/mineflayer/issues/3209/timeline",
    "title": "villager.trade(index, count) fails for enchanted books",
    "updated_at": "2023-12-30T14:17:30Z",
    "url": "https://api.github.com/repos/PrismarineJS/mineflayer/issues/3209",
    "user": {
        "avatar_url": "https://avatars.githubusercontent.com/u/5511002?v=4",
        "events_url": "https://api.github.com/users/EvModder/events{/privacy}",
        "followers_url": "https://api.github.com/users/EvModder/followers",
        "following_url": "https://api.github.com/users/EvModder/following{/other_user}",
        "gists_url": "https://api.github.com/users/EvModder/gists{/gist_id}",
        "gravatar_id": "",
        "html_url": "https://github.com/EvModder",
        "id": 5511002,
        "login": "EvModder",
        "node_id": "MDQ6VXNlcjU1MTEwMDI=",
        "organizations_url": "https://api.github.com/users/EvModder/orgs",
        "received_events_url": "https://api.github.com/users/EvModder/received_events",
        "repos_url": "https://api.github.com/users/EvModder/repos",
        "site_admin": false,
        "starred_url": "https://api.github.com/users/EvModder/starred{/owner}{/repo}",
        "subscriptions_url": "https://api.github.com/users/EvModder/subscriptions",
        "type": "User",
        "url": "https://api.github.com/users/EvModder"
    }
}