{
    "active_lock_reason": null,
    "assignee": null,
    "assignees": [],
    "author_association": "NONE",
    "body": "After the login emit nothing else is being called unless on version 1.8 (server is compatible with 1.8, 1.9, 1.10, 1.11). ",
    "closed_at": "2017-02-26T23:47:48Z",
    "comment_data": [
        {
            "author_association": "MEMBER",
            "body": "The CI tests indicate otherwise (https://circleci.com/gh/PrismarineJS/mineflayer/398)\r\nHow are you testing this ?",
            "created_at": "2017-02-20T01:09:13Z",
            "html_url": "https://github.com/PrismarineJS/mineflayer/issues/487#issuecomment-280965602",
            "id": 280965602,
            "issue_url": "https://api.github.com/repos/PrismarineJS/mineflayer/issues/487",
            "node_id": "MDEyOklzc3VlQ29tbWVudDI4MDk2NTYwMg==",
            "performed_via_github_app": null,
            "reactions": {
                "+1": 0,
                "-1": 0,
                "confused": 0,
                "eyes": 0,
                "heart": 0,
                "hooray": 0,
                "laugh": 0,
                "rocket": 0,
                "total_count": 0,
                "url": "https://api.github.com/repos/PrismarineJS/mineflayer/issues/comments/280965602/reactions"
            },
            "updated_at": "2017-02-20T01:09:13Z",
            "url": "https://api.github.com/repos/PrismarineJS/mineflayer/issues/comments/280965602",
            "user": {
                "avatar_url": "https://avatars.githubusercontent.com/u/2346494?v=4",
                "events_url": "https://api.github.com/users/rom1504/events{/privacy}",
                "followers_url": "https://api.github.com/users/rom1504/followers",
                "following_url": "https://api.github.com/users/rom1504/following{/other_user}",
                "gists_url": "https://api.github.com/users/rom1504/gists{/gist_id}",
                "gravatar_id": "",
                "html_url": "https://github.com/rom1504",
                "id": 2346494,
                "login": "rom1504",
                "node_id": "MDQ6VXNlcjIzNDY0OTQ=",
                "organizations_url": "https://api.github.com/users/rom1504/orgs",
                "received_events_url": "https://api.github.com/users/rom1504/received_events",
                "repos_url": "https://api.github.com/users/rom1504/repos",
                "site_admin": false,
                "starred_url": "https://api.github.com/users/rom1504/starred{/owner}{/repo}",
                "subscriptions_url": "https://api.github.com/users/rom1504/subscriptions",
                "type": "User",
                "url": "https://api.github.com/users/rom1504"
            }
        },
        {
            "author_association": "NONE",
            "body": "Joined a server and added every event and tried to set off each one, nothing but login worked",
            "created_at": "2017-02-20T01:35:37Z",
            "html_url": "https://github.com/PrismarineJS/mineflayer/issues/487#issuecomment-280968068",
            "id": 280968068,
            "issue_url": "https://api.github.com/repos/PrismarineJS/mineflayer/issues/487",
            "node_id": "MDEyOklzc3VlQ29tbWVudDI4MDk2ODA2OA==",
            "performed_via_github_app": null,
            "reactions": {
                "+1": 0,
                "-1": 0,
                "confused": 0,
                "eyes": 0,
                "heart": 0,
                "hooray": 0,
                "laugh": 0,
                "rocket": 0,
                "total_count": 0,
                "url": "https://api.github.com/repos/PrismarineJS/mineflayer/issues/comments/280968068/reactions"
            },
            "updated_at": "2017-02-20T01:35:37Z",
            "url": "https://api.github.com/repos/PrismarineJS/mineflayer/issues/comments/280968068",
            "user": {
                "avatar_url": "https://avatars.githubusercontent.com/u/10137?v=4",
                "events_url": "https://api.github.com/users/ghost/events{/privacy}",
                "followers_url": "https://api.github.com/users/ghost/followers",
                "following_url": "https://api.github.com/users/ghost/following{/other_user}",
                "gists_url": "https://api.github.com/users/ghost/gists{/gist_id}",
                "gravatar_id": "",
                "html_url": "https://github.com/ghost",
                "id": 10137,
                "login": "ghost",
                "node_id": "MDQ6VXNlcjEwMTM3",
                "organizations_url": "https://api.github.com/users/ghost/orgs",
                "received_events_url": "https://api.github.com/users/ghost/received_events",
                "repos_url": "https://api.github.com/users/ghost/repos",
                "site_admin": false,
                "starred_url": "https://api.github.com/users/ghost/starred{/owner}{/repo}",
                "subscriptions_url": "https://api.github.com/users/ghost/subscriptions",
                "type": "User",
                "url": "https://api.github.com/users/ghost"
            }
        },
        {
            "author_association": "MEMBER",
            "body": "Do you have a specific code for this ?\r\nAll the example attach other events than login, and they work for other version than 1.8.\r\nDid you specify the version ? Are you using the last version of mineflayer ?",
            "created_at": "2017-02-20T09:59:28Z",
            "html_url": "https://github.com/PrismarineJS/mineflayer/issues/487#issuecomment-281035639",
            "id": 281035639,
            "issue_url": "https://api.github.com/repos/PrismarineJS/mineflayer/issues/487",
            "node_id": "MDEyOklzc3VlQ29tbWVudDI4MTAzNTYzOQ==",
            "performed_via_github_app": null,
            "reactions": {
                "+1": 0,
                "-1": 0,
                "confused": 0,
                "eyes": 0,
                "heart": 0,
                "hooray": 0,
                "laugh": 0,
                "rocket": 0,
                "total_count": 0,
                "url": "https://api.github.com/repos/PrismarineJS/mineflayer/issues/comments/281035639/reactions"
            },
            "updated_at": "2017-02-20T09:59:28Z",
            "url": "https://api.github.com/repos/PrismarineJS/mineflayer/issues/comments/281035639",
            "user": {
                "avatar_url": "https://avatars.githubusercontent.com/u/2346494?v=4",
                "events_url": "https://api.github.com/users/rom1504/events{/privacy}",
                "followers_url": "https://api.github.com/users/rom1504/followers",
                "following_url": "https://api.github.com/users/rom1504/following{/other_user}",
                "gists_url": "https://api.github.com/users/rom1504/gists{/gist_id}",
                "gravatar_id": "",
                "html_url": "https://github.com/rom1504",
                "id": 2346494,
                "login": "rom1504",
                "node_id": "MDQ6VXNlcjIzNDY0OTQ=",
                "organizations_url": "https://api.github.com/users/rom1504/orgs",
                "received_events_url": "https://api.github.com/users/rom1504/received_events",
                "repos_url": "https://api.github.com/users/rom1504/repos",
                "site_admin": false,
                "starred_url": "https://api.github.com/users/rom1504/starred{/owner}{/repo}",
                "subscriptions_url": "https://api.github.com/users/rom1504/subscriptions",
                "type": "User",
                "url": "https://api.github.com/users/rom1504"
            }
        },
        {
            "author_association": "NONE",
            "body": "Latest version of mineflayer, specified the version each time, used the code example for chat so no specific code",
            "created_at": "2017-02-20T15:56:39Z",
            "html_url": "https://github.com/PrismarineJS/mineflayer/issues/487#issuecomment-281115326",
            "id": 281115326,
            "issue_url": "https://api.github.com/repos/PrismarineJS/mineflayer/issues/487",
            "node_id": "MDEyOklzc3VlQ29tbWVudDI4MTExNTMyNg==",
            "performed_via_github_app": null,
            "reactions": {
                "+1": 0,
                "-1": 0,
                "confused": 0,
                "eyes": 0,
                "heart": 0,
                "hooray": 0,
                "laugh": 0,
                "rocket": 0,
                "total_count": 0,
                "url": "https://api.github.com/repos/PrismarineJS/mineflayer/issues/comments/281115326/reactions"
            },
            "updated_at": "2017-02-20T15:56:39Z",
            "url": "https://api.github.com/repos/PrismarineJS/mineflayer/issues/comments/281115326",
            "user": {
                "avatar_url": "https://avatars.githubusercontent.com/u/10137?v=4",
                "events_url": "https://api.github.com/users/ghost/events{/privacy}",
                "followers_url": "https://api.github.com/users/ghost/followers",
                "following_url": "https://api.github.com/users/ghost/following{/other_user}",
                "gists_url": "https://api.github.com/users/ghost/gists{/gist_id}",
                "gravatar_id": "",
                "html_url": "https://github.com/ghost",
                "id": 10137,
                "login": "ghost",
                "node_id": "MDQ6VXNlcjEwMTM3",
                "organizations_url": "https://api.github.com/users/ghost/orgs",
                "received_events_url": "https://api.github.com/users/ghost/received_events",
                "repos_url": "https://api.github.com/users/ghost/repos",
                "site_admin": false,
                "starred_url": "https://api.github.com/users/ghost/starred{/owner}{/repo}",
                "subscriptions_url": "https://api.github.com/users/ghost/subscriptions",
                "type": "User",
                "url": "https://api.github.com/users/ghost"
            }
        },
        {
            "author_association": "MEMBER",
            "body": "which example ? echo.js ? on which server ?",
            "created_at": "2017-02-20T16:03:23Z",
            "html_url": "https://github.com/PrismarineJS/mineflayer/issues/487#issuecomment-281117133",
            "id": 281117133,
            "issue_url": "https://api.github.com/repos/PrismarineJS/mineflayer/issues/487",
            "node_id": "MDEyOklzc3VlQ29tbWVudDI4MTExNzEzMw==",
            "performed_via_github_app": null,
            "reactions": {
                "+1": 0,
                "-1": 0,
                "confused": 0,
                "eyes": 0,
                "heart": 0,
                "hooray": 0,
                "laugh": 0,
                "rocket": 0,
                "total_count": 0,
                "url": "https://api.github.com/repos/PrismarineJS/mineflayer/issues/comments/281117133/reactions"
            },
            "updated_at": "2017-02-20T16:03:23Z",
            "url": "https://api.github.com/repos/PrismarineJS/mineflayer/issues/comments/281117133",
            "user": {
                "avatar_url": "https://avatars.githubusercontent.com/u/2346494?v=4",
                "events_url": "https://api.github.com/users/rom1504/events{/privacy}",
                "followers_url": "https://api.github.com/users/rom1504/followers",
                "following_url": "https://api.github.com/users/rom1504/following{/other_user}",
                "gists_url": "https://api.github.com/users/rom1504/gists{/gist_id}",
                "gravatar_id": "",
                "html_url": "https://github.com/rom1504",
                "id": 2346494,
                "login": "rom1504",
                "node_id": "MDQ6VXNlcjIzNDY0OTQ=",
                "organizations_url": "https://api.github.com/users/rom1504/orgs",
                "received_events_url": "https://api.github.com/users/rom1504/received_events",
                "repos_url": "https://api.github.com/users/rom1504/repos",
                "site_admin": false,
                "starred_url": "https://api.github.com/users/rom1504/starred{/owner}{/repo}",
                "subscriptions_url": "https://api.github.com/users/rom1504/subscriptions",
                "type": "User",
                "url": "https://api.github.com/users/rom1504"
            }
        },
        {
            "author_association": "NONE",
            "body": "chatterbox.js and mc.aliacraft.net",
            "created_at": "2017-02-20T17:24:46Z",
            "html_url": "https://github.com/PrismarineJS/mineflayer/issues/487#issuecomment-281137486",
            "id": 281137486,
            "issue_url": "https://api.github.com/repos/PrismarineJS/mineflayer/issues/487",
            "node_id": "MDEyOklzc3VlQ29tbWVudDI4MTEzNzQ4Ng==",
            "performed_via_github_app": null,
            "reactions": {
                "+1": 0,
                "-1": 0,
                "confused": 0,
                "eyes": 0,
                "heart": 0,
                "hooray": 0,
                "laugh": 0,
                "rocket": 0,
                "total_count": 0,
                "url": "https://api.github.com/repos/PrismarineJS/mineflayer/issues/comments/281137486/reactions"
            },
            "updated_at": "2017-02-20T17:24:46Z",
            "url": "https://api.github.com/repos/PrismarineJS/mineflayer/issues/comments/281137486",
            "user": {
                "avatar_url": "https://avatars.githubusercontent.com/u/10137?v=4",
                "events_url": "https://api.github.com/users/ghost/events{/privacy}",
                "followers_url": "https://api.github.com/users/ghost/followers",
                "following_url": "https://api.github.com/users/ghost/following{/other_user}",
                "gists_url": "https://api.github.com/users/ghost/gists{/gist_id}",
                "gravatar_id": "",
                "html_url": "https://github.com/ghost",
                "id": 10137,
                "login": "ghost",
                "node_id": "MDQ6VXNlcjEwMTM3",
                "organizations_url": "https://api.github.com/users/ghost/orgs",
                "received_events_url": "https://api.github.com/users/ghost/received_events",
                "repos_url": "https://api.github.com/users/ghost/repos",
                "site_admin": false,
                "starred_url": "https://api.github.com/users/ghost/starred{/owner}{/repo}",
                "subscriptions_url": "https://api.github.com/users/ghost/subscriptions",
                "type": "User",
                "url": "https://api.github.com/users/ghost"
            }
        },
        {
            "author_association": "MEMBER",
            "body": " @27therealone what version is that server ?",
            "created_at": "2017-02-24T14:00:08Z",
            "html_url": "https://github.com/PrismarineJS/mineflayer/issues/487#issuecomment-282297564",
            "id": 282297564,
            "issue_url": "https://api.github.com/repos/PrismarineJS/mineflayer/issues/487",
            "node_id": "MDEyOklzc3VlQ29tbWVudDI4MjI5NzU2NA==",
            "performed_via_github_app": null,
            "reactions": {
                "+1": 0,
                "-1": 0,
                "confused": 0,
                "eyes": 0,
                "heart": 0,
                "hooray": 0,
                "laugh": 0,
                "rocket": 0,
                "total_count": 0,
                "url": "https://api.github.com/repos/PrismarineJS/mineflayer/issues/comments/282297564/reactions"
            },
            "updated_at": "2017-02-24T14:00:08Z",
            "url": "https://api.github.com/repos/PrismarineJS/mineflayer/issues/comments/282297564",
            "user": {
                "avatar_url": "https://avatars.githubusercontent.com/u/2346494?v=4",
                "events_url": "https://api.github.com/users/rom1504/events{/privacy}",
                "followers_url": "https://api.github.com/users/rom1504/followers",
                "following_url": "https://api.github.com/users/rom1504/following{/other_user}",
                "gists_url": "https://api.github.com/users/rom1504/gists{/gist_id}",
                "gravatar_id": "",
                "html_url": "https://github.com/rom1504",
                "id": 2346494,
                "login": "rom1504",
                "node_id": "MDQ6VXNlcjIzNDY0OTQ=",
                "organizations_url": "https://api.github.com/users/rom1504/orgs",
                "received_events_url": "https://api.github.com/users/rom1504/received_events",
                "repos_url": "https://api.github.com/users/rom1504/repos",
                "site_admin": false,
                "starred_url": "https://api.github.com/users/rom1504/starred{/owner}{/repo}",
                "subscriptions_url": "https://api.github.com/users/rom1504/subscriptions",
                "type": "User",
                "url": "https://api.github.com/users/rom1504"
            }
        },
        {
            "author_association": "MEMBER",
            "body": "okay I just tried it, for 1.8 and 1.10, it works on this server.",
            "created_at": "2017-02-26T23:47:48Z",
            "html_url": "https://github.com/PrismarineJS/mineflayer/issues/487#issuecomment-282599187",
            "id": 282599187,
            "issue_url": "https://api.github.com/repos/PrismarineJS/mineflayer/issues/487",
            "node_id": "MDEyOklzc3VlQ29tbWVudDI4MjU5OTE4Nw==",
            "performed_via_github_app": null,
            "reactions": {
                "+1": 0,
                "-1": 0,
                "confused": 0,
                "eyes": 0,
                "heart": 0,
                "hooray": 0,
                "laugh": 0,
                "rocket": 0,
                "total_count": 0,
                "url": "https://api.github.com/repos/PrismarineJS/mineflayer/issues/comments/282599187/reactions"
            },
            "updated_at": "2017-02-26T23:47:48Z",
            "url": "https://api.github.com/repos/PrismarineJS/mineflayer/issues/comments/282599187",
            "user": {
                "avatar_url": "https://avatars.githubusercontent.com/u/2346494?v=4",
                "events_url": "https://api.github.com/users/rom1504/events{/privacy}",
                "followers_url": "https://api.github.com/users/rom1504/followers",
                "following_url": "https://api.github.com/users/rom1504/following{/other_user}",
                "gists_url": "https://api.github.com/users/rom1504/gists{/gist_id}",
                "gravatar_id": "",
                "html_url": "https://github.com/rom1504",
                "id": 2346494,
                "login": "rom1504",
                "node_id": "MDQ6VXNlcjIzNDY0OTQ=",
                "organizations_url": "https://api.github.com/users/rom1504/orgs",
                "received_events_url": "https://api.github.com/users/rom1504/received_events",
                "repos_url": "https://api.github.com/users/rom1504/repos",
                "site_admin": false,
                "starred_url": "https://api.github.com/users/rom1504/starred{/owner}{/repo}",
                "subscriptions_url": "https://api.github.com/users/rom1504/subscriptions",
                "type": "User",
                "url": "https://api.github.com/users/rom1504"
            }
        }
    ],
    "comments": 8,
    "comments_url": "https://api.github.com/repos/PrismarineJS/mineflayer/issues/487/comments",
    "created_at": "2017-02-20T00:50:12Z",
    "event_data": [
        {
            "actor": null,
            "commit_id": null,
            "commit_url": null,
            "created_at": "2017-02-24T14:00:08Z",
            "event": "mentioned",
            "id": 976067898,
            "node_id": "MDE0Ok1lbnRpb25lZEV2ZW50OTc2MDY3ODk4",
            "performed_via_github_app": null,
            "url": "https://api.github.com/repos/PrismarineJS/mineflayer/issues/events/976067898"
        },
        {
            "actor": null,
            "commit_id": null,
            "commit_url": null,
            "created_at": "2017-02-24T14:00:08Z",
            "event": "subscribed",
            "id": 976067899,
            "node_id": "MDE1OlN1YnNjcmliZWRFdmVudDk3NjA2Nzg5OQ==",
            "performed_via_github_app": null,
            "url": "https://api.github.com/repos/PrismarineJS/mineflayer/issues/events/976067899"
        },
        {
            "actor": {
                "avatar_url": "https://avatars.githubusercontent.com/u/2346494?v=4",
                "events_url": "https://api.github.com/users/rom1504/events{/privacy}",
                "followers_url": "https://api.github.com/users/rom1504/followers",
                "following_url": "https://api.github.com/users/rom1504/following{/other_user}",
                "gists_url": "https://api.github.com/users/rom1504/gists{/gist_id}",
                "gravatar_id": "",
                "html_url": "https://github.com/rom1504",
                "id": 2346494,
                "login": "rom1504",
                "node_id": "MDQ6VXNlcjIzNDY0OTQ=",
                "organizations_url": "https://api.github.com/users/rom1504/orgs",
                "received_events_url": "https://api.github.com/users/rom1504/received_events",
                "repos_url": "https://api.github.com/users/rom1504/repos",
                "site_admin": false,
                "starred_url": "https://api.github.com/users/rom1504/starred{/owner}{/repo}",
                "subscriptions_url": "https://api.github.com/users/rom1504/subscriptions",
                "type": "User",
                "url": "https://api.github.com/users/rom1504"
            },
            "commit_id": null,
            "commit_url": null,
            "created_at": "2017-02-26T23:47:48Z",
            "event": "closed",
            "id": 977614553,
            "node_id": "MDExOkNsb3NlZEV2ZW50OTc3NjE0NTUz",
            "performed_via_github_app": null,
            "state_reason": null,
            "url": "https://api.github.com/repos/PrismarineJS/mineflayer/issues/events/977614553"
        }
    ],
    "events_url": "https://api.github.com/repos/PrismarineJS/mineflayer/issues/487/events",
    "html_url": "https://github.com/PrismarineJS/mineflayer/issues/487",
    "id": 208761311,
    "labels": [],
    "labels_url": "https://api.github.com/repos/PrismarineJS/mineflayer/issues/487/labels{/name}",
    "locked": false,
    "milestone": null,
    "node_id": "MDU6SXNzdWUyMDg3NjEzMTE=",
    "number": 487,
    "performed_via_github_app": null,
    "reactions": {
        "+1": 0,
        "-1": 0,
        "confused": 0,
        "eyes": 0,
        "heart": 0,
        "hooray": 0,
        "laugh": 0,
        "rocket": 0,
        "total_count": 0,
        "url": "https://api.github.com/repos/PrismarineJS/mineflayer/issues/487/reactions"
    },
    "repository_url": "https://api.github.com/repos/PrismarineJS/mineflayer",
    "state": "closed",
    "state_reason": "completed",
    "timeline_url": "https://api.github.com/repos/PrismarineJS/mineflayer/issues/487/timeline",
    "title": "On any version above 1.8 no events are emitted",
    "updated_at": "2017-02-26T23:47:48Z",
    "url": "https://api.github.com/repos/PrismarineJS/mineflayer/issues/487",
    "user": {
        "avatar_url": "https://avatars.githubusercontent.com/u/10137?v=4",
        "events_url": "https://api.github.com/users/ghost/events{/privacy}",
        "followers_url": "https://api.github.com/users/ghost/followers",
        "following_url": "https://api.github.com/users/ghost/following{/other_user}",
        "gists_url": "https://api.github.com/users/ghost/gists{/gist_id}",
        "gravatar_id": "",
        "html_url": "https://github.com/ghost",
        "id": 10137,
        "login": "ghost",
        "node_id": "MDQ6VXNlcjEwMTM3",
        "organizations_url": "https://api.github.com/users/ghost/orgs",
        "received_events_url": "https://api.github.com/users/ghost/received_events",
        "repos_url": "https://api.github.com/users/ghost/repos",
        "site_admin": false,
        "starred_url": "https://api.github.com/users/ghost/starred{/owner}{/repo}",
        "subscriptions_url": "https://api.github.com/users/ghost/subscriptions",
        "type": "User",
        "url": "https://api.github.com/users/ghost"
    }
}