{
    "active_lock_reason": null,
    "assignee": null,
    "assignees": [],
    "author_association": "NONE",
    "body": "I'm not sure if this is really what's happening, I'm still investigating. \r\n**Under stop I mean I instantly close the node.js process.**\r\n\r\nI use the below function to equip **cobblestone**, everything works. When I suddenly stop the bot and make him join again, he automatically equips a **pickaxe** the moment he joins, the first item in his inventory. Another weird thing is that if I've broken the block under him while he was disconnected, the bot will be hanging in the air for 4-5 seconds before falling. When I call the below function again, mineflayer believes he's already holding cobblestone, while it's clearly not the case.\r\n```js\r\nfunction equipBuildingBlock(cb) {\r\n        // return true if we're already good to go\r\n        if (bot.heldItem && scaffoldBlockTypes[bot.heldItem.type]) { // says cobblestone, is actually pickaxe\r\n            cb();\r\n            return true;\r\n        }\r\n\r\n        var scaffoldingItems = bot.inventory.items().filter(function (item) {\r\n            return scaffoldBlockTypes[item.type];\r\n        });\r\n\r\n        var item = scaffoldingItems[0];\r\n        if (!item) {\r\n            changeState('stop', 'error');\r\n            return false;\r\n        }\r\n\r\n        bot.equip(scaffoldingItems[0], 'hand', function (err) {\r\n            if (err) {\r\n                changeState('stop', 'error', err);\r\n                return;\r\n            }\r\n            cb();\r\n        });\r\n    }\r\n```\r\n\r\nI suppose mineflayer may not be using the `equip` callback in internal code, thus causing this issue.",
    "closed_at": "2018-09-29T17:19:29Z",
    "comment_data": [
        {
            "author_association": "MEMBER",
            "body": "Mineflayer doesn't call bot.equip internally.\r\nHowever you might be re-equiping too early.\r\nWhen are you calling that function ?",
            "created_at": "2017-06-24T11:45:04Z",
            "html_url": "https://github.com/PrismarineJS/mineflayer/issues/542#issuecomment-310833869",
            "id": 310833869,
            "issue_url": "https://api.github.com/repos/PrismarineJS/mineflayer/issues/542",
            "node_id": "MDEyOklzc3VlQ29tbWVudDMxMDgzMzg2OQ==",
            "performed_via_github_app": null,
            "reactions": {
                "+1": 0,
                "-1": 0,
                "confused": 0,
                "eyes": 0,
                "heart": 0,
                "hooray": 0,
                "laugh": 0,
                "rocket": 0,
                "total_count": 0,
                "url": "https://api.github.com/repos/PrismarineJS/mineflayer/issues/comments/310833869/reactions"
            },
            "updated_at": "2017-06-24T11:45:04Z",
            "url": "https://api.github.com/repos/PrismarineJS/mineflayer/issues/comments/310833869",
            "user": {
                "avatar_url": "https://avatars.githubusercontent.com/u/2346494?v=4",
                "events_url": "https://api.github.com/users/rom1504/events{/privacy}",
                "followers_url": "https://api.github.com/users/rom1504/followers",
                "following_url": "https://api.github.com/users/rom1504/following{/other_user}",
                "gists_url": "https://api.github.com/users/rom1504/gists{/gist_id}",
                "gravatar_id": "",
                "html_url": "https://github.com/rom1504",
                "id": 2346494,
                "login": "rom1504",
                "node_id": "MDQ6VXNlcjIzNDY0OTQ=",
                "organizations_url": "https://api.github.com/users/rom1504/orgs",
                "received_events_url": "https://api.github.com/users/rom1504/received_events",
                "repos_url": "https://api.github.com/users/rom1504/repos",
                "site_admin": false,
                "starred_url": "https://api.github.com/users/rom1504/starred{/owner}{/repo}",
                "subscriptions_url": "https://api.github.com/users/rom1504/subscriptions",
                "type": "User",
                "url": "https://api.github.com/users/rom1504"
            }
        },
        {
            "author_association": "NONE",
            "body": "> Mineflayer doesn't call bot.equip internally.\r\n\r\nThat's strange, because I just tried logging in with an entirely empty script and the bot still auto-equipped the pickaxe (first item in inventory).\r\n\r\n> However you might be re-equiping too early.\r\nWhen are you calling that function ?\r\n\r\nI'm giving the bot a good 30 seconds to initialize before calling it, so it's not that. ",
            "created_at": "2017-06-24T12:04:24Z",
            "html_url": "https://github.com/PrismarineJS/mineflayer/issues/542#issuecomment-310834666",
            "id": 310834666,
            "issue_url": "https://api.github.com/repos/PrismarineJS/mineflayer/issues/542",
            "node_id": "MDEyOklzc3VlQ29tbWVudDMxMDgzNDY2Ng==",
            "performed_via_github_app": null,
            "reactions": {
                "+1": 0,
                "-1": 0,
                "confused": 0,
                "eyes": 0,
                "heart": 0,
                "hooray": 0,
                "laugh": 0,
                "rocket": 0,
                "total_count": 0,
                "url": "https://api.github.com/repos/PrismarineJS/mineflayer/issues/comments/310834666/reactions"
            },
            "updated_at": "2017-06-24T12:08:25Z",
            "url": "https://api.github.com/repos/PrismarineJS/mineflayer/issues/comments/310834666",
            "user": {
                "avatar_url": "https://avatars.githubusercontent.com/u/2650170?v=4",
                "events_url": "https://api.github.com/users/ViRb3/events{/privacy}",
                "followers_url": "https://api.github.com/users/ViRb3/followers",
                "following_url": "https://api.github.com/users/ViRb3/following{/other_user}",
                "gists_url": "https://api.github.com/users/ViRb3/gists{/gist_id}",
                "gravatar_id": "",
                "html_url": "https://github.com/ViRb3",
                "id": 2650170,
                "login": "ViRb3",
                "node_id": "MDQ6VXNlcjI2NTAxNzA=",
                "organizations_url": "https://api.github.com/users/ViRb3/orgs",
                "received_events_url": "https://api.github.com/users/ViRb3/received_events",
                "repos_url": "https://api.github.com/users/ViRb3/repos",
                "site_admin": false,
                "starred_url": "https://api.github.com/users/ViRb3/starred{/owner}{/repo}",
                "subscriptions_url": "https://api.github.com/users/ViRb3/subscriptions",
                "type": "User",
                "url": "https://api.github.com/users/ViRb3"
            }
        },
        {
            "author_association": "MEMBER",
            "body": "Please reopen if this is still an issue for you",
            "created_at": "2018-09-29T17:19:29Z",
            "html_url": "https://github.com/PrismarineJS/mineflayer/issues/542#issuecomment-425661222",
            "id": 425661222,
            "issue_url": "https://api.github.com/repos/PrismarineJS/mineflayer/issues/542",
            "node_id": "MDEyOklzc3VlQ29tbWVudDQyNTY2MTIyMg==",
            "performed_via_github_app": null,
            "reactions": {
                "+1": 0,
                "-1": 0,
                "confused": 0,
                "eyes": 0,
                "heart": 0,
                "hooray": 0,
                "laugh": 0,
                "rocket": 0,
                "total_count": 0,
                "url": "https://api.github.com/repos/PrismarineJS/mineflayer/issues/comments/425661222/reactions"
            },
            "updated_at": "2018-09-29T17:19:29Z",
            "url": "https://api.github.com/repos/PrismarineJS/mineflayer/issues/comments/425661222",
            "user": {
                "avatar_url": "https://avatars.githubusercontent.com/u/2346494?v=4",
                "events_url": "https://api.github.com/users/rom1504/events{/privacy}",
                "followers_url": "https://api.github.com/users/rom1504/followers",
                "following_url": "https://api.github.com/users/rom1504/following{/other_user}",
                "gists_url": "https://api.github.com/users/rom1504/gists{/gist_id}",
                "gravatar_id": "",
                "html_url": "https://github.com/rom1504",
                "id": 2346494,
                "login": "rom1504",
                "node_id": "MDQ6VXNlcjIzNDY0OTQ=",
                "organizations_url": "https://api.github.com/users/rom1504/orgs",
                "received_events_url": "https://api.github.com/users/rom1504/received_events",
                "repos_url": "https://api.github.com/users/rom1504/repos",
                "site_admin": false,
                "starred_url": "https://api.github.com/users/rom1504/starred{/owner}{/repo}",
                "subscriptions_url": "https://api.github.com/users/rom1504/subscriptions",
                "type": "User",
                "url": "https://api.github.com/users/rom1504"
            }
        }
    ],
    "comments": 3,
    "comments_url": "https://api.github.com/repos/PrismarineJS/mineflayer/issues/542/comments",
    "created_at": "2017-06-24T10:51:16Z",
    "event_data": [
        {
            "actor": {
                "avatar_url": "https://avatars.githubusercontent.com/u/2346494?v=4",
                "events_url": "https://api.github.com/users/rom1504/events{/privacy}",
                "followers_url": "https://api.github.com/users/rom1504/followers",
                "following_url": "https://api.github.com/users/rom1504/following{/other_user}",
                "gists_url": "https://api.github.com/users/rom1504/gists{/gist_id}",
                "gravatar_id": "",
                "html_url": "https://github.com/rom1504",
                "id": 2346494,
                "login": "rom1504",
                "node_id": "MDQ6VXNlcjIzNDY0OTQ=",
                "organizations_url": "https://api.github.com/users/rom1504/orgs",
                "received_events_url": "https://api.github.com/users/rom1504/received_events",
                "repos_url": "https://api.github.com/users/rom1504/repos",
                "site_admin": false,
                "starred_url": "https://api.github.com/users/rom1504/starred{/owner}{/repo}",
                "subscriptions_url": "https://api.github.com/users/rom1504/subscriptions",
                "type": "User",
                "url": "https://api.github.com/users/rom1504"
            },
            "commit_id": null,
            "commit_url": null,
            "created_at": "2018-09-29T17:19:29Z",
            "event": "closed",
            "id": 1875029035,
            "node_id": "MDExOkNsb3NlZEV2ZW50MTg3NTAyOTAzNQ==",
            "performed_via_github_app": null,
            "state_reason": null,
            "url": "https://api.github.com/repos/PrismarineJS/mineflayer/issues/events/1875029035"
        }
    ],
    "events_url": "https://api.github.com/repos/PrismarineJS/mineflayer/issues/542/events",
    "html_url": "https://github.com/PrismarineJS/mineflayer/issues/542",
    "id": 238310585,
    "labels": [],
    "labels_url": "https://api.github.com/repos/PrismarineJS/mineflayer/issues/542/labels{/name}",
    "locked": false,
    "milestone": null,
    "node_id": "MDU6SXNzdWUyMzgzMTA1ODU=",
    "number": 542,
    "performed_via_github_app": null,
    "reactions": {
        "+1": 0,
        "-1": 0,
        "confused": 0,
        "eyes": 0,
        "heart": 0,
        "hooray": 0,
        "laugh": 0,
        "rocket": 0,
        "total_count": 0,
        "url": "https://api.github.com/repos/PrismarineJS/mineflayer/issues/542/reactions"
    },
    "repository_url": "https://api.github.com/repos/PrismarineJS/mineflayer",
    "state": "closed",
    "state_reason": "completed",
    "timeline_url": "https://api.github.com/repos/PrismarineJS/mineflayer/issues/542/timeline",
    "title": "Problematic reconnect after sudden disconnect",
    "updated_at": "2018-09-29T17:19:29Z",
    "url": "https://api.github.com/repos/PrismarineJS/mineflayer/issues/542",
    "user": {
        "avatar_url": "https://avatars.githubusercontent.com/u/2650170?v=4",
        "events_url": "https://api.github.com/users/ViRb3/events{/privacy}",
        "followers_url": "https://api.github.com/users/ViRb3/followers",
        "following_url": "https://api.github.com/users/ViRb3/following{/other_user}",
        "gists_url": "https://api.github.com/users/ViRb3/gists{/gist_id}",
        "gravatar_id": "",
        "html_url": "https://github.com/ViRb3",
        "id": 2650170,
        "login": "ViRb3",
        "node_id": "MDQ6VXNlcjI2NTAxNzA=",
        "organizations_url": "https://api.github.com/users/ViRb3/orgs",
        "received_events_url": "https://api.github.com/users/ViRb3/received_events",
        "repos_url": "https://api.github.com/users/ViRb3/repos",
        "site_admin": false,
        "starred_url": "https://api.github.com/users/ViRb3/starred{/owner}{/repo}",
        "subscriptions_url": "https://api.github.com/users/ViRb3/subscriptions",
        "type": "User",
        "url": "https://api.github.com/users/ViRb3"
    }
}