{
    "active_lock_reason": null,
    "assignee": null,
    "assignees": [],
    "author_association": "NONE",
    "body": "Server: spigot git-Spigot-93e20b3-b8f84f3 (MC: 1.12.2) (Implementing API version 1.12.2-R0.1-SNAPSHOT), no plugins\r\nClient: npm 5.4.2\r\n\r\nSteps to reproduce:\r\n1. clone repository\r\n2. run any example. In my case I did ```node jumper.js 192.168.0.220 25565 ChanChan```\r\n3. bot connects for a couple of seconds and then simply disconnects. I get this behavior constantly\r\n\r\nOn server side:\r\n```\r\n[22:41:21] [Server thread/INFO]: ChanChan lost connection: Disconnected\r\n[22:41:21] [Server thread/INFO]: ChanChan left the game\r\n```\r\n\r\nI tried to debug the minecraft protocol, nothing seems off, client code is not throwing any errors. \r\n\r\nSame goes with vanilla server",
    "closed_at": "2018-08-26T17:44:21Z",
    "comment_data": [
        {
            "author_association": "MEMBER",
            "body": "We don't support that version yet (it was released yesterday I think ?)\nBut an error should definitely be displayed. If it's not then that's a bug.\n\nOn Thu, Oct 26, 2017, 22:44 Alexandru Dobjanschi <notifications@github.com>\nwrote:\n\n> Server: spigot git-Spigot-93e20b3-b8f84f3 (MC: 1.12.2) (Implementing API\n> version 1.12.2-R0.1-SNAPSHOT), no plugins\n> Client: npm 5.4.2\n>\n> Steps to reproduce:\n>\n>    1. clone repository\n>    2. run any example. In my case I did node jumper.js 192.168.0.220\n>    25565 ChanChan\n>    3. bot connects for a couple of seconds and then simply disconnects. I\n>    get this behavior constantly\n>\n> On server side:\n>\n> [22:41:21] [Server thread/INFO]: ChanChan lost connection: Disconnected\n> [22:41:21] [Server thread/INFO]: ChanChan left the game\n>\n> I tried to debug the minecraft protocol, nothing seems off, client code is\n> not throwing any errors.\n>\n> Same goes with vanilla server\n>\n> —\n> You are receiving this because you are subscribed to this thread.\n> Reply to this email directly, view it on GitHub\n> <https://github.com/PrismarineJS/mineflayer/issues/604>, or mute the\n> thread\n> <https://github.com/notifications/unsubscribe-auth/ACPN_tFP7DyepZsDUio7yCtlnajdMqk0ks5swO9IgaJpZM4QIMF_>\n> .\n>\n",
            "created_at": "2017-10-26T21:12:16Z",
            "html_url": "https://github.com/PrismarineJS/mineflayer/issues/604#issuecomment-339802470",
            "id": 339802470,
            "issue_url": "https://api.github.com/repos/PrismarineJS/mineflayer/issues/604",
            "node_id": "MDEyOklzc3VlQ29tbWVudDMzOTgwMjQ3MA==",
            "performed_via_github_app": null,
            "reactions": {
                "+1": 0,
                "-1": 0,
                "confused": 0,
                "eyes": 0,
                "heart": 0,
                "hooray": 0,
                "laugh": 0,
                "rocket": 0,
                "total_count": 0,
                "url": "https://api.github.com/repos/PrismarineJS/mineflayer/issues/comments/339802470/reactions"
            },
            "updated_at": "2017-10-26T21:12:16Z",
            "url": "https://api.github.com/repos/PrismarineJS/mineflayer/issues/comments/339802470",
            "user": {
                "avatar_url": "https://avatars.githubusercontent.com/u/2346494?v=4",
                "events_url": "https://api.github.com/users/rom1504/events{/privacy}",
                "followers_url": "https://api.github.com/users/rom1504/followers",
                "following_url": "https://api.github.com/users/rom1504/following{/other_user}",
                "gists_url": "https://api.github.com/users/rom1504/gists{/gist_id}",
                "gravatar_id": "",
                "html_url": "https://github.com/rom1504",
                "id": 2346494,
                "login": "rom1504",
                "node_id": "MDQ6VXNlcjIzNDY0OTQ=",
                "organizations_url": "https://api.github.com/users/rom1504/orgs",
                "received_events_url": "https://api.github.com/users/rom1504/received_events",
                "repos_url": "https://api.github.com/users/rom1504/repos",
                "site_admin": false,
                "starred_url": "https://api.github.com/users/rom1504/starred{/owner}{/repo}",
                "subscriptions_url": "https://api.github.com/users/rom1504/subscriptions",
                "type": "User",
                "url": "https://api.github.com/users/rom1504"
            }
        },
        {
            "author_association": "MEMBER",
            "body": "#600 should help",
            "created_at": "2017-10-26T21:37:44Z",
            "html_url": "https://github.com/PrismarineJS/mineflayer/issues/604#issuecomment-339808472",
            "id": 339808472,
            "issue_url": "https://api.github.com/repos/PrismarineJS/mineflayer/issues/604",
            "node_id": "MDEyOklzc3VlQ29tbWVudDMzOTgwODQ3Mg==",
            "performed_via_github_app": null,
            "reactions": {
                "+1": 0,
                "-1": 0,
                "confused": 0,
                "eyes": 0,
                "heart": 0,
                "hooray": 0,
                "laugh": 0,
                "rocket": 0,
                "total_count": 0,
                "url": "https://api.github.com/repos/PrismarineJS/mineflayer/issues/comments/339808472/reactions"
            },
            "updated_at": "2017-10-26T21:37:44Z",
            "url": "https://api.github.com/repos/PrismarineJS/mineflayer/issues/comments/339808472",
            "user": {
                "avatar_url": "https://avatars.githubusercontent.com/u/2346494?v=4",
                "events_url": "https://api.github.com/users/rom1504/events{/privacy}",
                "followers_url": "https://api.github.com/users/rom1504/followers",
                "following_url": "https://api.github.com/users/rom1504/following{/other_user}",
                "gists_url": "https://api.github.com/users/rom1504/gists{/gist_id}",
                "gravatar_id": "",
                "html_url": "https://github.com/rom1504",
                "id": 2346494,
                "login": "rom1504",
                "node_id": "MDQ6VXNlcjIzNDY0OTQ=",
                "organizations_url": "https://api.github.com/users/rom1504/orgs",
                "received_events_url": "https://api.github.com/users/rom1504/received_events",
                "repos_url": "https://api.github.com/users/rom1504/repos",
                "site_admin": false,
                "starred_url": "https://api.github.com/users/rom1504/starred{/owner}{/repo}",
                "subscriptions_url": "https://api.github.com/users/rom1504/subscriptions",
                "type": "User",
                "url": "https://api.github.com/users/rom1504"
            }
        },
        {
            "author_association": "NONE",
            "body": "I could investigate with an earlier server version?",
            "created_at": "2017-10-26T21:38:03Z",
            "html_url": "https://github.com/PrismarineJS/mineflayer/issues/604#issuecomment-339808548",
            "id": 339808548,
            "issue_url": "https://api.github.com/repos/PrismarineJS/mineflayer/issues/604",
            "node_id": "MDEyOklzc3VlQ29tbWVudDMzOTgwODU0OA==",
            "performed_via_github_app": null,
            "reactions": {
                "+1": 0,
                "-1": 0,
                "confused": 0,
                "eyes": 0,
                "heart": 0,
                "hooray": 0,
                "laugh": 0,
                "rocket": 0,
                "total_count": 0,
                "url": "https://api.github.com/repos/PrismarineJS/mineflayer/issues/comments/339808548/reactions"
            },
            "updated_at": "2017-10-26T21:38:03Z",
            "url": "https://api.github.com/repos/PrismarineJS/mineflayer/issues/comments/339808548",
            "user": {
                "avatar_url": "https://avatars.githubusercontent.com/u/481062?v=4",
                "events_url": "https://api.github.com/users/djalexd/events{/privacy}",
                "followers_url": "https://api.github.com/users/djalexd/followers",
                "following_url": "https://api.github.com/users/djalexd/following{/other_user}",
                "gists_url": "https://api.github.com/users/djalexd/gists{/gist_id}",
                "gravatar_id": "",
                "html_url": "https://github.com/djalexd",
                "id": 481062,
                "login": "djalexd",
                "node_id": "MDQ6VXNlcjQ4MTA2Mg==",
                "organizations_url": "https://api.github.com/users/djalexd/orgs",
                "received_events_url": "https://api.github.com/users/djalexd/received_events",
                "repos_url": "https://api.github.com/users/djalexd/repos",
                "site_admin": false,
                "starred_url": "https://api.github.com/users/djalexd/starred{/owner}{/repo}",
                "subscriptions_url": "https://api.github.com/users/djalexd/subscriptions",
                "type": "User",
                "url": "https://api.github.com/users/djalexd"
            }
        },
        {
            "author_association": "MEMBER",
            "body": "yes",
            "created_at": "2017-10-26T21:40:53Z",
            "html_url": "https://github.com/PrismarineJS/mineflayer/issues/604#issuecomment-339809186",
            "id": 339809186,
            "issue_url": "https://api.github.com/repos/PrismarineJS/mineflayer/issues/604",
            "node_id": "MDEyOklzc3VlQ29tbWVudDMzOTgwOTE4Ng==",
            "performed_via_github_app": null,
            "reactions": {
                "+1": 0,
                "-1": 0,
                "confused": 0,
                "eyes": 0,
                "heart": 0,
                "hooray": 0,
                "laugh": 0,
                "rocket": 0,
                "total_count": 0,
                "url": "https://api.github.com/repos/PrismarineJS/mineflayer/issues/comments/339809186/reactions"
            },
            "updated_at": "2017-10-26T21:40:53Z",
            "url": "https://api.github.com/repos/PrismarineJS/mineflayer/issues/comments/339809186",
            "user": {
                "avatar_url": "https://avatars.githubusercontent.com/u/2346494?v=4",
                "events_url": "https://api.github.com/users/rom1504/events{/privacy}",
                "followers_url": "https://api.github.com/users/rom1504/followers",
                "following_url": "https://api.github.com/users/rom1504/following{/other_user}",
                "gists_url": "https://api.github.com/users/rom1504/gists{/gist_id}",
                "gravatar_id": "",
                "html_url": "https://github.com/rom1504",
                "id": 2346494,
                "login": "rom1504",
                "node_id": "MDQ6VXNlcjIzNDY0OTQ=",
                "organizations_url": "https://api.github.com/users/rom1504/orgs",
                "received_events_url": "https://api.github.com/users/rom1504/received_events",
                "repos_url": "https://api.github.com/users/rom1504/repos",
                "site_admin": false,
                "starred_url": "https://api.github.com/users/rom1504/starred{/owner}{/repo}",
                "subscriptions_url": "https://api.github.com/users/rom1504/subscriptions",
                "type": "User",
                "url": "https://api.github.com/users/rom1504"
            }
        },
        {
            "author_association": "NONE",
            "body": "I'll apply that patch tonight and check if it fixes the problem. Otherwise, will go to a previous version of spigot server ",
            "created_at": "2017-10-27T08:50:00Z",
            "html_url": "https://github.com/PrismarineJS/mineflayer/issues/604#issuecomment-339912840",
            "id": 339912840,
            "issue_url": "https://api.github.com/repos/PrismarineJS/mineflayer/issues/604",
            "node_id": "MDEyOklzc3VlQ29tbWVudDMzOTkxMjg0MA==",
            "performed_via_github_app": null,
            "reactions": {
                "+1": 0,
                "-1": 0,
                "confused": 0,
                "eyes": 0,
                "heart": 0,
                "hooray": 0,
                "laugh": 0,
                "rocket": 0,
                "total_count": 0,
                "url": "https://api.github.com/repos/PrismarineJS/mineflayer/issues/comments/339912840/reactions"
            },
            "updated_at": "2017-10-27T08:50:00Z",
            "url": "https://api.github.com/repos/PrismarineJS/mineflayer/issues/comments/339912840",
            "user": {
                "avatar_url": "https://avatars.githubusercontent.com/u/481062?v=4",
                "events_url": "https://api.github.com/users/djalexd/events{/privacy}",
                "followers_url": "https://api.github.com/users/djalexd/followers",
                "following_url": "https://api.github.com/users/djalexd/following{/other_user}",
                "gists_url": "https://api.github.com/users/djalexd/gists{/gist_id}",
                "gravatar_id": "",
                "html_url": "https://github.com/djalexd",
                "id": 481062,
                "login": "djalexd",
                "node_id": "MDQ6VXNlcjQ4MTA2Mg==",
                "organizations_url": "https://api.github.com/users/djalexd/orgs",
                "received_events_url": "https://api.github.com/users/djalexd/received_events",
                "repos_url": "https://api.github.com/users/djalexd/repos",
                "site_admin": false,
                "starred_url": "https://api.github.com/users/djalexd/starred{/owner}{/repo}",
                "subscriptions_url": "https://api.github.com/users/djalexd/subscriptions",
                "type": "User",
                "url": "https://api.github.com/users/djalexd"
            }
        },
        {
            "author_association": "NONE",
            "body": "Patch didn't help, bot's behavior is same: connects for a couple of seconds, but then disconnects.\r\nHowever, reverting the server to `1.12` helped, bot doesn't disconnect anymore!",
            "created_at": "2017-10-30T13:56:56Z",
            "html_url": "https://github.com/PrismarineJS/mineflayer/issues/604#issuecomment-340451332",
            "id": 340451332,
            "issue_url": "https://api.github.com/repos/PrismarineJS/mineflayer/issues/604",
            "node_id": "MDEyOklzc3VlQ29tbWVudDM0MDQ1MTMzMg==",
            "performed_via_github_app": null,
            "reactions": {
                "+1": 0,
                "-1": 0,
                "confused": 0,
                "eyes": 0,
                "heart": 0,
                "hooray": 0,
                "laugh": 0,
                "rocket": 0,
                "total_count": 0,
                "url": "https://api.github.com/repos/PrismarineJS/mineflayer/issues/comments/340451332/reactions"
            },
            "updated_at": "2017-10-30T13:56:56Z",
            "url": "https://api.github.com/repos/PrismarineJS/mineflayer/issues/comments/340451332",
            "user": {
                "avatar_url": "https://avatars.githubusercontent.com/u/481062?v=4",
                "events_url": "https://api.github.com/users/djalexd/events{/privacy}",
                "followers_url": "https://api.github.com/users/djalexd/followers",
                "following_url": "https://api.github.com/users/djalexd/following{/other_user}",
                "gists_url": "https://api.github.com/users/djalexd/gists{/gist_id}",
                "gravatar_id": "",
                "html_url": "https://github.com/djalexd",
                "id": 481062,
                "login": "djalexd",
                "node_id": "MDQ6VXNlcjQ4MTA2Mg==",
                "organizations_url": "https://api.github.com/users/djalexd/orgs",
                "received_events_url": "https://api.github.com/users/djalexd/received_events",
                "repos_url": "https://api.github.com/users/djalexd/repos",
                "site_admin": false,
                "starred_url": "https://api.github.com/users/djalexd/starred{/owner}{/repo}",
                "subscriptions_url": "https://api.github.com/users/djalexd/subscriptions",
                "type": "User",
                "url": "https://api.github.com/users/djalexd"
            }
        },
        {
            "author_association": "MEMBER",
            "body": "What patch ?\n\nOn Mon, Oct 30, 2017, 14:56 Alexandru Dobjanschi <notifications@github.com>\nwrote:\n\n> Patch didn't help, bot's behavior is same: connects for a couple of\n> seconds, but then disconnects.\n> However, reverting the server to 1.12 helped, bot doesn't disconnect\n> anymore!\n>\n> —\n> You are receiving this because you commented.\n> Reply to this email directly, view it on GitHub\n> <https://github.com/PrismarineJS/mineflayer/issues/604#issuecomment-340451332>,\n> or mute the thread\n> <https://github.com/notifications/unsubscribe-auth/ACPN_tP-rTXxaWCWbJ-a3qryk84L-EWUks5sxdWogaJpZM4QIMF_>\n> .\n>\n",
            "created_at": "2017-10-30T14:05:33Z",
            "html_url": "https://github.com/PrismarineJS/mineflayer/issues/604#issuecomment-340453919",
            "id": 340453919,
            "issue_url": "https://api.github.com/repos/PrismarineJS/mineflayer/issues/604",
            "node_id": "MDEyOklzc3VlQ29tbWVudDM0MDQ1MzkxOQ==",
            "performed_via_github_app": null,
            "reactions": {
                "+1": 0,
                "-1": 0,
                "confused": 0,
                "eyes": 0,
                "heart": 0,
                "hooray": 0,
                "laugh": 0,
                "rocket": 0,
                "total_count": 0,
                "url": "https://api.github.com/repos/PrismarineJS/mineflayer/issues/comments/340453919/reactions"
            },
            "updated_at": "2017-10-30T14:05:33Z",
            "url": "https://api.github.com/repos/PrismarineJS/mineflayer/issues/comments/340453919",
            "user": {
                "avatar_url": "https://avatars.githubusercontent.com/u/2346494?v=4",
                "events_url": "https://api.github.com/users/rom1504/events{/privacy}",
                "followers_url": "https://api.github.com/users/rom1504/followers",
                "following_url": "https://api.github.com/users/rom1504/following{/other_user}",
                "gists_url": "https://api.github.com/users/rom1504/gists{/gist_id}",
                "gravatar_id": "",
                "html_url": "https://github.com/rom1504",
                "id": 2346494,
                "login": "rom1504",
                "node_id": "MDQ6VXNlcjIzNDY0OTQ=",
                "organizations_url": "https://api.github.com/users/rom1504/orgs",
                "received_events_url": "https://api.github.com/users/rom1504/received_events",
                "repos_url": "https://api.github.com/users/rom1504/repos",
                "site_admin": false,
                "starred_url": "https://api.github.com/users/rom1504/starred{/owner}{/repo}",
                "subscriptions_url": "https://api.github.com/users/rom1504/subscriptions",
                "type": "User",
                "url": "https://api.github.com/users/rom1504"
            }
        },
        {
            "author_association": "NONE",
            "body": "You suggest applying #600",
            "created_at": "2017-10-30T14:07:10Z",
            "html_url": "https://github.com/PrismarineJS/mineflayer/issues/604#issuecomment-340454413",
            "id": 340454413,
            "issue_url": "https://api.github.com/repos/PrismarineJS/mineflayer/issues/604",
            "node_id": "MDEyOklzc3VlQ29tbWVudDM0MDQ1NDQxMw==",
            "performed_via_github_app": null,
            "reactions": {
                "+1": 0,
                "-1": 0,
                "confused": 0,
                "eyes": 0,
                "heart": 0,
                "hooray": 0,
                "laugh": 0,
                "rocket": 0,
                "total_count": 0,
                "url": "https://api.github.com/repos/PrismarineJS/mineflayer/issues/comments/340454413/reactions"
            },
            "updated_at": "2017-10-30T14:07:10Z",
            "url": "https://api.github.com/repos/PrismarineJS/mineflayer/issues/comments/340454413",
            "user": {
                "avatar_url": "https://avatars.githubusercontent.com/u/481062?v=4",
                "events_url": "https://api.github.com/users/djalexd/events{/privacy}",
                "followers_url": "https://api.github.com/users/djalexd/followers",
                "following_url": "https://api.github.com/users/djalexd/following{/other_user}",
                "gists_url": "https://api.github.com/users/djalexd/gists{/gist_id}",
                "gravatar_id": "",
                "html_url": "https://github.com/djalexd",
                "id": 481062,
                "login": "djalexd",
                "node_id": "MDQ6VXNlcjQ4MTA2Mg==",
                "organizations_url": "https://api.github.com/users/djalexd/orgs",
                "received_events_url": "https://api.github.com/users/djalexd/received_events",
                "repos_url": "https://api.github.com/users/djalexd/repos",
                "site_admin": false,
                "starred_url": "https://api.github.com/users/djalexd/starred{/owner}{/repo}",
                "subscriptions_url": "https://api.github.com/users/djalexd/subscriptions",
                "type": "User",
                "url": "https://api.github.com/users/djalexd"
            }
        },
        {
            "author_association": "MEMBER",
            "body": "Ah yes, did you run npm update too ?\n\nOn Mon, Oct 30, 2017, 15:07 Alexandru Dobjanschi <notifications@github.com>\nwrote:\n\n> You suggest applying #600\n> <https://github.com/PrismarineJS/mineflayer/pull/600>\n>\n> —\n> You are receiving this because you commented.\n> Reply to this email directly, view it on GitHub\n> <https://github.com/PrismarineJS/mineflayer/issues/604#issuecomment-340454413>,\n> or mute the thread\n> <https://github.com/notifications/unsubscribe-auth/ACPN_vib1oDdYxwyZFKkG6fJbKnsmshVks5sxdgOgaJpZM4QIMF_>\n> .\n>\n",
            "created_at": "2017-10-30T15:43:45Z",
            "html_url": "https://github.com/PrismarineJS/mineflayer/issues/604#issuecomment-340485733",
            "id": 340485733,
            "issue_url": "https://api.github.com/repos/PrismarineJS/mineflayer/issues/604",
            "node_id": "MDEyOklzc3VlQ29tbWVudDM0MDQ4NTczMw==",
            "performed_via_github_app": null,
            "reactions": {
                "+1": 0,
                "-1": 0,
                "confused": 0,
                "eyes": 0,
                "heart": 0,
                "hooray": 0,
                "laugh": 0,
                "rocket": 0,
                "total_count": 0,
                "url": "https://api.github.com/repos/PrismarineJS/mineflayer/issues/comments/340485733/reactions"
            },
            "updated_at": "2017-10-30T15:43:45Z",
            "url": "https://api.github.com/repos/PrismarineJS/mineflayer/issues/comments/340485733",
            "user": {
                "avatar_url": "https://avatars.githubusercontent.com/u/2346494?v=4",
                "events_url": "https://api.github.com/users/rom1504/events{/privacy}",
                "followers_url": "https://api.github.com/users/rom1504/followers",
                "following_url": "https://api.github.com/users/rom1504/following{/other_user}",
                "gists_url": "https://api.github.com/users/rom1504/gists{/gist_id}",
                "gravatar_id": "",
                "html_url": "https://github.com/rom1504",
                "id": 2346494,
                "login": "rom1504",
                "node_id": "MDQ6VXNlcjIzNDY0OTQ=",
                "organizations_url": "https://api.github.com/users/rom1504/orgs",
                "received_events_url": "https://api.github.com/users/rom1504/received_events",
                "repos_url": "https://api.github.com/users/rom1504/repos",
                "site_admin": false,
                "starred_url": "https://api.github.com/users/rom1504/starred{/owner}{/repo}",
                "subscriptions_url": "https://api.github.com/users/rom1504/subscriptions",
                "type": "User",
                "url": "https://api.github.com/users/rom1504"
            }
        },
        {
            "author_association": "NONE",
            "body": "`npm --version` --> `5.4.2`. The newest one suggested by npm is `5.5.1` but how can that PR be affected/resolved by newer version of npm? Code is pretty straightforward and just simplifies a couple if IFs",
            "created_at": "2017-11-01T22:17:51Z",
            "html_url": "https://github.com/PrismarineJS/mineflayer/issues/604#issuecomment-341260041",
            "id": 341260041,
            "issue_url": "https://api.github.com/repos/PrismarineJS/mineflayer/issues/604",
            "node_id": "MDEyOklzc3VlQ29tbWVudDM0MTI2MDA0MQ==",
            "performed_via_github_app": null,
            "reactions": {
                "+1": 0,
                "-1": 0,
                "confused": 0,
                "eyes": 0,
                "heart": 0,
                "hooray": 0,
                "laugh": 0,
                "rocket": 0,
                "total_count": 0,
                "url": "https://api.github.com/repos/PrismarineJS/mineflayer/issues/comments/341260041/reactions"
            },
            "updated_at": "2017-11-01T22:17:51Z",
            "url": "https://api.github.com/repos/PrismarineJS/mineflayer/issues/comments/341260041",
            "user": {
                "avatar_url": "https://avatars.githubusercontent.com/u/481062?v=4",
                "events_url": "https://api.github.com/users/djalexd/events{/privacy}",
                "followers_url": "https://api.github.com/users/djalexd/followers",
                "following_url": "https://api.github.com/users/djalexd/following{/other_user}",
                "gists_url": "https://api.github.com/users/djalexd/gists{/gist_id}",
                "gravatar_id": "",
                "html_url": "https://github.com/djalexd",
                "id": 481062,
                "login": "djalexd",
                "node_id": "MDQ6VXNlcjQ4MTA2Mg==",
                "organizations_url": "https://api.github.com/users/djalexd/orgs",
                "received_events_url": "https://api.github.com/users/djalexd/received_events",
                "repos_url": "https://api.github.com/users/djalexd/repos",
                "site_admin": false,
                "starred_url": "https://api.github.com/users/djalexd/starred{/owner}{/repo}",
                "subscriptions_url": "https://api.github.com/users/djalexd/subscriptions",
                "type": "User",
                "url": "https://api.github.com/users/djalexd"
            }
        },
        {
            "author_association": "MEMBER",
            "body": "`npm update` updates the packages not npm itself",
            "created_at": "2017-11-01T22:26:06Z",
            "html_url": "https://github.com/PrismarineJS/mineflayer/issues/604#issuecomment-341261777",
            "id": 341261777,
            "issue_url": "https://api.github.com/repos/PrismarineJS/mineflayer/issues/604",
            "node_id": "MDEyOklzc3VlQ29tbWVudDM0MTI2MTc3Nw==",
            "performed_via_github_app": null,
            "reactions": {
                "+1": 0,
                "-1": 0,
                "confused": 0,
                "eyes": 0,
                "heart": 0,
                "hooray": 0,
                "laugh": 0,
                "rocket": 0,
                "total_count": 0,
                "url": "https://api.github.com/repos/PrismarineJS/mineflayer/issues/comments/341261777/reactions"
            },
            "updated_at": "2017-11-01T22:26:26Z",
            "url": "https://api.github.com/repos/PrismarineJS/mineflayer/issues/comments/341261777",
            "user": {
                "avatar_url": "https://avatars.githubusercontent.com/u/8838132?v=4",
                "events_url": "https://api.github.com/users/plexigras/events{/privacy}",
                "followers_url": "https://api.github.com/users/plexigras/followers",
                "following_url": "https://api.github.com/users/plexigras/following{/other_user}",
                "gists_url": "https://api.github.com/users/plexigras/gists{/gist_id}",
                "gravatar_id": "",
                "html_url": "https://github.com/plexigras",
                "id": 8838132,
                "login": "plexigras",
                "node_id": "MDQ6VXNlcjg4MzgxMzI=",
                "organizations_url": "https://api.github.com/users/plexigras/orgs",
                "received_events_url": "https://api.github.com/users/plexigras/received_events",
                "repos_url": "https://api.github.com/users/plexigras/repos",
                "site_admin": false,
                "starred_url": "https://api.github.com/users/plexigras/starred{/owner}{/repo}",
                "subscriptions_url": "https://api.github.com/users/plexigras/subscriptions",
                "type": "User",
                "url": "https://api.github.com/users/plexigras"
            }
        },
        {
            "author_association": "NONE",
            "body": "Is this issue resolved somewhere? I've been trying for 2-3 days and I'm also getting the random disconnects from server ~20 seconds after join.\r\n\r\nClient side just calls the `end` event.\r\n\r\nServer side:\r\n\r\n> [15:18:14 INFO]: test lost connection: Disconnected\r\n> [15:18:14 INFO]: test left the game",
            "created_at": "2017-11-24T14:22:19Z",
            "html_url": "https://github.com/PrismarineJS/mineflayer/issues/604#issuecomment-346839021",
            "id": 346839021,
            "issue_url": "https://api.github.com/repos/PrismarineJS/mineflayer/issues/604",
            "node_id": "MDEyOklzc3VlQ29tbWVudDM0NjgzOTAyMQ==",
            "performed_via_github_app": null,
            "reactions": {
                "+1": 0,
                "-1": 0,
                "confused": 0,
                "eyes": 0,
                "heart": 0,
                "hooray": 0,
                "laugh": 0,
                "rocket": 0,
                "total_count": 0,
                "url": "https://api.github.com/repos/PrismarineJS/mineflayer/issues/comments/346839021/reactions"
            },
            "updated_at": "2017-11-24T14:22:19Z",
            "url": "https://api.github.com/repos/PrismarineJS/mineflayer/issues/comments/346839021",
            "user": {
                "avatar_url": "https://avatars.githubusercontent.com/u/7149212?v=4",
                "events_url": "https://api.github.com/users/lluiscab/events{/privacy}",
                "followers_url": "https://api.github.com/users/lluiscab/followers",
                "following_url": "https://api.github.com/users/lluiscab/following{/other_user}",
                "gists_url": "https://api.github.com/users/lluiscab/gists{/gist_id}",
                "gravatar_id": "",
                "html_url": "https://github.com/lluiscab",
                "id": 7149212,
                "login": "lluiscab",
                "node_id": "MDQ6VXNlcjcxNDkyMTI=",
                "organizations_url": "https://api.github.com/users/lluiscab/orgs",
                "received_events_url": "https://api.github.com/users/lluiscab/received_events",
                "repos_url": "https://api.github.com/users/lluiscab/repos",
                "site_admin": false,
                "starred_url": "https://api.github.com/users/lluiscab/starred{/owner}{/repo}",
                "subscriptions_url": "https://api.github.com/users/lluiscab/subscriptions",
                "type": "User",
                "url": "https://api.github.com/users/lluiscab"
            }
        },
        {
            "author_association": "MEMBER",
            "body": "The resolution is not to try to use an unimplemented version or to\nimplement it.\n\n(Also displaying an error but if you already know that's the problem, it's\nkind of useless)\n\nOn Fri, Nov 24, 2017, 15:22 lluiscab <notifications@github.com> wrote:\n\n> Is this issue resolved somewhere? I've been trying for 2-3 days and I'm\n> also getting the random disconnects from server ~20 seconds after join.\n>\n> Client side just calls the end event.\n>\n> Server side:\n>\n> [15:18:14 INFO]: test lost connection: Disconnected\n> [15:18:14 INFO]: test left the game\n>\n> —\n> You are receiving this because you commented.\n> Reply to this email directly, view it on GitHub\n> <https://github.com/PrismarineJS/mineflayer/issues/604#issuecomment-346839021>,\n> or mute the thread\n> <https://github.com/notifications/unsubscribe-auth/ACPN_inSlc2Vd_r9bzjlJLApyXueHs1Jks5s5tEbgaJpZM4QIMF_>\n> .\n>\n",
            "created_at": "2017-11-24T15:18:10Z",
            "html_url": "https://github.com/PrismarineJS/mineflayer/issues/604#issuecomment-346850361",
            "id": 346850361,
            "issue_url": "https://api.github.com/repos/PrismarineJS/mineflayer/issues/604",
            "node_id": "MDEyOklzc3VlQ29tbWVudDM0Njg1MDM2MQ==",
            "performed_via_github_app": null,
            "reactions": {
                "+1": 0,
                "-1": 0,
                "confused": 0,
                "eyes": 0,
                "heart": 0,
                "hooray": 0,
                "laugh": 0,
                "rocket": 0,
                "total_count": 0,
                "url": "https://api.github.com/repos/PrismarineJS/mineflayer/issues/comments/346850361/reactions"
            },
            "updated_at": "2017-11-24T15:18:10Z",
            "url": "https://api.github.com/repos/PrismarineJS/mineflayer/issues/comments/346850361",
            "user": {
                "avatar_url": "https://avatars.githubusercontent.com/u/2346494?v=4",
                "events_url": "https://api.github.com/users/rom1504/events{/privacy}",
                "followers_url": "https://api.github.com/users/rom1504/followers",
                "following_url": "https://api.github.com/users/rom1504/following{/other_user}",
                "gists_url": "https://api.github.com/users/rom1504/gists{/gist_id}",
                "gravatar_id": "",
                "html_url": "https://github.com/rom1504",
                "id": 2346494,
                "login": "rom1504",
                "node_id": "MDQ6VXNlcjIzNDY0OTQ=",
                "organizations_url": "https://api.github.com/users/rom1504/orgs",
                "received_events_url": "https://api.github.com/users/rom1504/received_events",
                "repos_url": "https://api.github.com/users/rom1504/repos",
                "site_admin": false,
                "starred_url": "https://api.github.com/users/rom1504/starred{/owner}{/repo}",
                "subscriptions_url": "https://api.github.com/users/rom1504/subscriptions",
                "type": "User",
                "url": "https://api.github.com/users/rom1504"
            }
        },
        {
            "author_association": "NONE",
            "body": "Well, any idea on how to implement a fix for this or how long I'll have to wait for mineflayer to implement one?",
            "created_at": "2017-11-24T15:20:41Z",
            "html_url": "https://github.com/PrismarineJS/mineflayer/issues/604#issuecomment-346850888",
            "id": 346850888,
            "issue_url": "https://api.github.com/repos/PrismarineJS/mineflayer/issues/604",
            "node_id": "MDEyOklzc3VlQ29tbWVudDM0Njg1MDg4OA==",
            "performed_via_github_app": null,
            "reactions": {
                "+1": 0,
                "-1": 0,
                "confused": 0,
                "eyes": 0,
                "heart": 0,
                "hooray": 0,
                "laugh": 0,
                "rocket": 0,
                "total_count": 0,
                "url": "https://api.github.com/repos/PrismarineJS/mineflayer/issues/comments/346850888/reactions"
            },
            "updated_at": "2017-11-24T15:20:41Z",
            "url": "https://api.github.com/repos/PrismarineJS/mineflayer/issues/comments/346850888",
            "user": {
                "avatar_url": "https://avatars.githubusercontent.com/u/7149212?v=4",
                "events_url": "https://api.github.com/users/lluiscab/events{/privacy}",
                "followers_url": "https://api.github.com/users/lluiscab/followers",
                "following_url": "https://api.github.com/users/lluiscab/following{/other_user}",
                "gists_url": "https://api.github.com/users/lluiscab/gists{/gist_id}",
                "gravatar_id": "",
                "html_url": "https://github.com/lluiscab",
                "id": 7149212,
                "login": "lluiscab",
                "node_id": "MDQ6VXNlcjcxNDkyMTI=",
                "organizations_url": "https://api.github.com/users/lluiscab/orgs",
                "received_events_url": "https://api.github.com/users/lluiscab/received_events",
                "repos_url": "https://api.github.com/users/lluiscab/repos",
                "site_admin": false,
                "starred_url": "https://api.github.com/users/lluiscab/starred{/owner}{/repo}",
                "subscriptions_url": "https://api.github.com/users/lluiscab/subscriptions",
                "type": "User",
                "url": "https://api.github.com/users/lluiscab"
            }
        },
        {
            "author_association": "NONE",
            "body": "1.12.2 seems to mostly work (it is listed as supported on minecraft-data)\r\nThe issue of disconnecting 20 seconds after joining seems to be because \"Keep Alive\" was changed in 1.12.2. (which is defaulted to 20 seconds)\r\n\r\nIt works with 25 or more seconds, so using mineflayer you can set the \"checkTimeoutInterval\" option.\r\n`var mineflayer = require('mineflayer');`\r\n`var bot = mineflayer.createBot({`\r\n`  host: \"localhost\", // optional`\r\n`  port: 25565,       // optional`\r\n`  username: \"email@example.com\", // email and password are required only for`\r\n`  password: \"12345678\",          // online-mode=true servers`\r\n`  checkTimeoutInterval: (25 * 10000) // run KeepAlive every 25 seconds`\r\n`});`\r\n\r\nThe original 20 seconds can be found in \"minecraft-protocol\\src\\client\\keepalive.js:7\"\r\n`const checkTimeoutInterval = options.checkTimeoutInterval || 20 * 1000;`",
            "created_at": "2017-12-13T09:35:05Z",
            "html_url": "https://github.com/PrismarineJS/mineflayer/issues/604#issuecomment-351335436",
            "id": 351335436,
            "issue_url": "https://api.github.com/repos/PrismarineJS/mineflayer/issues/604",
            "node_id": "MDEyOklzc3VlQ29tbWVudDM1MTMzNTQzNg==",
            "performed_via_github_app": null,
            "reactions": {
                "+1": 2,
                "-1": 0,
                "confused": 0,
                "eyes": 0,
                "heart": 0,
                "hooray": 0,
                "laugh": 0,
                "rocket": 0,
                "total_count": 2,
                "url": "https://api.github.com/repos/PrismarineJS/mineflayer/issues/comments/351335436/reactions"
            },
            "updated_at": "2017-12-13T09:35:05Z",
            "url": "https://api.github.com/repos/PrismarineJS/mineflayer/issues/comments/351335436",
            "user": {
                "avatar_url": "https://avatars.githubusercontent.com/u/1254968?v=4",
                "events_url": "https://api.github.com/users/BarnabyD/events{/privacy}",
                "followers_url": "https://api.github.com/users/BarnabyD/followers",
                "following_url": "https://api.github.com/users/BarnabyD/following{/other_user}",
                "gists_url": "https://api.github.com/users/BarnabyD/gists{/gist_id}",
                "gravatar_id": "",
                "html_url": "https://github.com/BarnabyD",
                "id": 1254968,
                "login": "BarnabyD",
                "node_id": "MDQ6VXNlcjEyNTQ5Njg=",
                "organizations_url": "https://api.github.com/users/BarnabyD/orgs",
                "received_events_url": "https://api.github.com/users/BarnabyD/received_events",
                "repos_url": "https://api.github.com/users/BarnabyD/repos",
                "site_admin": false,
                "starred_url": "https://api.github.com/users/BarnabyD/starred{/owner}{/repo}",
                "subscriptions_url": "https://api.github.com/users/BarnabyD/subscriptions",
                "type": "User",
                "url": "https://api.github.com/users/BarnabyD"
            }
        },
        {
            "author_association": "NONE",
            "body": "just thought:  Could it be that you are trying to access the game with two clients (bot and normal game) from the same machine. Most of the server implementations don't allow multiple clients with same ip address. And it got the same error when i was stupid enough to do this ;)",
            "created_at": "2018-04-04T13:52:14Z",
            "html_url": "https://github.com/PrismarineJS/mineflayer/issues/604#issuecomment-378607219",
            "id": 378607219,
            "issue_url": "https://api.github.com/repos/PrismarineJS/mineflayer/issues/604",
            "node_id": "MDEyOklzc3VlQ29tbWVudDM3ODYwNzIxOQ==",
            "performed_via_github_app": null,
            "reactions": {
                "+1": 0,
                "-1": 0,
                "confused": 0,
                "eyes": 0,
                "heart": 0,
                "hooray": 0,
                "laugh": 0,
                "rocket": 0,
                "total_count": 0,
                "url": "https://api.github.com/repos/PrismarineJS/mineflayer/issues/comments/378607219/reactions"
            },
            "updated_at": "2018-04-04T13:52:14Z",
            "url": "https://api.github.com/repos/PrismarineJS/mineflayer/issues/comments/378607219",
            "user": {
                "avatar_url": "https://avatars.githubusercontent.com/u/19307322?v=4",
                "events_url": "https://api.github.com/users/thisismexp/events{/privacy}",
                "followers_url": "https://api.github.com/users/thisismexp/followers",
                "following_url": "https://api.github.com/users/thisismexp/following{/other_user}",
                "gists_url": "https://api.github.com/users/thisismexp/gists{/gist_id}",
                "gravatar_id": "",
                "html_url": "https://github.com/thisismexp",
                "id": 19307322,
                "login": "thisismexp",
                "node_id": "MDQ6VXNlcjE5MzA3MzIy",
                "organizations_url": "https://api.github.com/users/thisismexp/orgs",
                "received_events_url": "https://api.github.com/users/thisismexp/received_events",
                "repos_url": "https://api.github.com/users/thisismexp/repos",
                "site_admin": false,
                "starred_url": "https://api.github.com/users/thisismexp/starred{/owner}{/repo}",
                "subscriptions_url": "https://api.github.com/users/thisismexp/subscriptions",
                "type": "User",
                "url": "https://api.github.com/users/thisismexp"
            }
        },
        {
            "author_association": "MEMBER",
            "body": "1.13 supported",
            "created_at": "2018-08-26T17:44:21Z",
            "html_url": "https://github.com/PrismarineJS/mineflayer/issues/604#issuecomment-416055913",
            "id": 416055913,
            "issue_url": "https://api.github.com/repos/PrismarineJS/mineflayer/issues/604",
            "node_id": "MDEyOklzc3VlQ29tbWVudDQxNjA1NTkxMw==",
            "performed_via_github_app": null,
            "reactions": {
                "+1": 0,
                "-1": 0,
                "confused": 0,
                "eyes": 0,
                "heart": 0,
                "hooray": 0,
                "laugh": 0,
                "rocket": 0,
                "total_count": 0,
                "url": "https://api.github.com/repos/PrismarineJS/mineflayer/issues/comments/416055913/reactions"
            },
            "updated_at": "2018-08-26T17:44:21Z",
            "url": "https://api.github.com/repos/PrismarineJS/mineflayer/issues/comments/416055913",
            "user": {
                "avatar_url": "https://avatars.githubusercontent.com/u/2346494?v=4",
                "events_url": "https://api.github.com/users/rom1504/events{/privacy}",
                "followers_url": "https://api.github.com/users/rom1504/followers",
                "following_url": "https://api.github.com/users/rom1504/following{/other_user}",
                "gists_url": "https://api.github.com/users/rom1504/gists{/gist_id}",
                "gravatar_id": "",
                "html_url": "https://github.com/rom1504",
                "id": 2346494,
                "login": "rom1504",
                "node_id": "MDQ6VXNlcjIzNDY0OTQ=",
                "organizations_url": "https://api.github.com/users/rom1504/orgs",
                "received_events_url": "https://api.github.com/users/rom1504/received_events",
                "repos_url": "https://api.github.com/users/rom1504/repos",
                "site_admin": false,
                "starred_url": "https://api.github.com/users/rom1504/starred{/owner}{/repo}",
                "subscriptions_url": "https://api.github.com/users/rom1504/subscriptions",
                "type": "User",
                "url": "https://api.github.com/users/rom1504"
            }
        }
    ],
    "comments": 17,
    "comments_url": "https://api.github.com/repos/PrismarineJS/mineflayer/issues/604/comments",
    "created_at": "2017-10-26T20:44:56Z",
    "event_data": [
        {
            "actor": {
                "avatar_url": "https://avatars.githubusercontent.com/u/2346494?v=4",
                "events_url": "https://api.github.com/users/rom1504/events{/privacy}",
                "followers_url": "https://api.github.com/users/rom1504/followers",
                "following_url": "https://api.github.com/users/rom1504/following{/other_user}",
                "gists_url": "https://api.github.com/users/rom1504/gists{/gist_id}",
                "gravatar_id": "",
                "html_url": "https://github.com/rom1504",
                "id": 2346494,
                "login": "rom1504",
                "node_id": "MDQ6VXNlcjIzNDY0OTQ=",
                "organizations_url": "https://api.github.com/users/rom1504/orgs",
                "received_events_url": "https://api.github.com/users/rom1504/received_events",
                "repos_url": "https://api.github.com/users/rom1504/repos",
                "site_admin": false,
                "starred_url": "https://api.github.com/users/rom1504/starred{/owner}{/repo}",
                "subscriptions_url": "https://api.github.com/users/rom1504/subscriptions",
                "type": "User",
                "url": "https://api.github.com/users/rom1504"
            },
            "commit_id": null,
            "commit_url": null,
            "created_at": "2017-10-26T21:37:18Z",
            "event": "renamed",
            "id": 1312881758,
            "node_id": "MDE3OlJlbmFtZWRUaXRsZUV2ZW50MTMxMjg4MTc1OA==",
            "performed_via_github_app": null,
            "rename": {
                "from": "Bot constantly disconnect",
                "to": "1.12.2 not supported"
            },
            "url": "https://api.github.com/repos/PrismarineJS/mineflayer/issues/events/1312881758"
        },
        {
            "actor": {
                "avatar_url": "https://avatars.githubusercontent.com/u/2346494?v=4",
                "events_url": "https://api.github.com/users/rom1504/events{/privacy}",
                "followers_url": "https://api.github.com/users/rom1504/followers",
                "following_url": "https://api.github.com/users/rom1504/following{/other_user}",
                "gists_url": "https://api.github.com/users/rom1504/gists{/gist_id}",
                "gravatar_id": "",
                "html_url": "https://github.com/rom1504",
                "id": 2346494,
                "login": "rom1504",
                "node_id": "MDQ6VXNlcjIzNDY0OTQ=",
                "organizations_url": "https://api.github.com/users/rom1504/orgs",
                "received_events_url": "https://api.github.com/users/rom1504/received_events",
                "repos_url": "https://api.github.com/users/rom1504/repos",
                "site_admin": false,
                "starred_url": "https://api.github.com/users/rom1504/starred{/owner}{/repo}",
                "subscriptions_url": "https://api.github.com/users/rom1504/subscriptions",
                "type": "User",
                "url": "https://api.github.com/users/rom1504"
            },
            "commit_id": null,
            "commit_url": null,
            "created_at": "2017-10-26T21:37:30Z",
            "event": "renamed",
            "id": 1312882062,
            "node_id": "MDE3OlJlbmFtZWRUaXRsZUV2ZW50MTMxMjg4MjA2Mg==",
            "performed_via_github_app": null,
            "rename": {
                "from": "1.12.2 not supported",
                "to": "1.12.2 not supported and no error displayed"
            },
            "url": "https://api.github.com/repos/PrismarineJS/mineflayer/issues/events/1312882062"
        },
        {
            "actor": {
                "avatar_url": "https://avatars.githubusercontent.com/u/2346494?v=4",
                "events_url": "https://api.github.com/users/rom1504/events{/privacy}",
                "followers_url": "https://api.github.com/users/rom1504/followers",
                "following_url": "https://api.github.com/users/rom1504/following{/other_user}",
                "gists_url": "https://api.github.com/users/rom1504/gists{/gist_id}",
                "gravatar_id": "",
                "html_url": "https://github.com/rom1504",
                "id": 2346494,
                "login": "rom1504",
                "node_id": "MDQ6VXNlcjIzNDY0OTQ=",
                "organizations_url": "https://api.github.com/users/rom1504/orgs",
                "received_events_url": "https://api.github.com/users/rom1504/received_events",
                "repos_url": "https://api.github.com/users/rom1504/repos",
                "site_admin": false,
                "starred_url": "https://api.github.com/users/rom1504/starred{/owner}{/repo}",
                "subscriptions_url": "https://api.github.com/users/rom1504/subscriptions",
                "type": "User",
                "url": "https://api.github.com/users/rom1504"
            },
            "commit_id": null,
            "commit_url": null,
            "created_at": "2017-11-05T14:39:41Z",
            "event": "labeled",
            "id": 1326504998,
            "label": {
                "color": "207de5",
                "name": "protocol support"
            },
            "node_id": "MDEyOkxhYmVsZWRFdmVudDEzMjY1MDQ5OTg=",
            "performed_via_github_app": null,
            "url": "https://api.github.com/repos/PrismarineJS/mineflayer/issues/events/1326504998"
        },
        {
            "actor": {
                "avatar_url": "https://avatars.githubusercontent.com/u/2346494?v=4",
                "events_url": "https://api.github.com/users/rom1504/events{/privacy}",
                "followers_url": "https://api.github.com/users/rom1504/followers",
                "following_url": "https://api.github.com/users/rom1504/following{/other_user}",
                "gists_url": "https://api.github.com/users/rom1504/gists{/gist_id}",
                "gravatar_id": "",
                "html_url": "https://github.com/rom1504",
                "id": 2346494,
                "login": "rom1504",
                "node_id": "MDQ6VXNlcjIzNDY0OTQ=",
                "organizations_url": "https://api.github.com/users/rom1504/orgs",
                "received_events_url": "https://api.github.com/users/rom1504/received_events",
                "repos_url": "https://api.github.com/users/rom1504/repos",
                "site_admin": false,
                "starred_url": "https://api.github.com/users/rom1504/starred{/owner}{/repo}",
                "subscriptions_url": "https://api.github.com/users/rom1504/subscriptions",
                "type": "User",
                "url": "https://api.github.com/users/rom1504"
            },
            "commit_id": null,
            "commit_url": null,
            "created_at": "2018-08-26T17:44:21Z",
            "event": "closed",
            "id": 1809437794,
            "node_id": "MDExOkNsb3NlZEV2ZW50MTgwOTQzNzc5NA==",
            "performed_via_github_app": null,
            "state_reason": null,
            "url": "https://api.github.com/repos/PrismarineJS/mineflayer/issues/events/1809437794"
        }
    ],
    "events_url": "https://api.github.com/repos/PrismarineJS/mineflayer/issues/604/events",
    "html_url": "https://github.com/PrismarineJS/mineflayer/issues/604",
    "id": 268905085,
    "labels": [
        {
            "color": "207de5",
            "default": false,
            "description": null,
            "id": 192723915,
            "name": "protocol support",
            "node_id": "MDU6TGFiZWwxOTI3MjM5MTU=",
            "url": "https://api.github.com/repos/PrismarineJS/mineflayer/labels/protocol%20support"
        }
    ],
    "labels_url": "https://api.github.com/repos/PrismarineJS/mineflayer/issues/604/labels{/name}",
    "locked": false,
    "milestone": null,
    "node_id": "MDU6SXNzdWUyNjg5MDUwODU=",
    "number": 604,
    "performed_via_github_app": null,
    "reactions": {
        "+1": 0,
        "-1": 0,
        "confused": 0,
        "eyes": 0,
        "heart": 0,
        "hooray": 0,
        "laugh": 0,
        "rocket": 0,
        "total_count": 0,
        "url": "https://api.github.com/repos/PrismarineJS/mineflayer/issues/604/reactions"
    },
    "repository_url": "https://api.github.com/repos/PrismarineJS/mineflayer",
    "state": "closed",
    "state_reason": "completed",
    "timeline_url": "https://api.github.com/repos/PrismarineJS/mineflayer/issues/604/timeline",
    "title": "1.12.2 not supported and no error displayed",
    "updated_at": "2018-08-26T17:44:21Z",
    "url": "https://api.github.com/repos/PrismarineJS/mineflayer/issues/604",
    "user": {
        "avatar_url": "https://avatars.githubusercontent.com/u/481062?v=4",
        "events_url": "https://api.github.com/users/djalexd/events{/privacy}",
        "followers_url": "https://api.github.com/users/djalexd/followers",
        "following_url": "https://api.github.com/users/djalexd/following{/other_user}",
        "gists_url": "https://api.github.com/users/djalexd/gists{/gist_id}",
        "gravatar_id": "",
        "html_url": "https://github.com/djalexd",
        "id": 481062,
        "login": "djalexd",
        "node_id": "MDQ6VXNlcjQ4MTA2Mg==",
        "organizations_url": "https://api.github.com/users/djalexd/orgs",
        "received_events_url": "https://api.github.com/users/djalexd/received_events",
        "repos_url": "https://api.github.com/users/djalexd/repos",
        "site_admin": false,
        "starred_url": "https://api.github.com/users/djalexd/starred{/owner}{/repo}",
        "subscriptions_url": "https://api.github.com/users/djalexd/subscriptions",
        "type": "User",
        "url": "https://api.github.com/users/djalexd"
    }
}