{
    "active_lock_reason": null,
    "assignee": null,
    "assignees": [],
    "author_association": "NONE",
    "body": "",
    "closed_at": "2013-01-12T22:01:52Z",
    "comment_data": [
        {
            "author_association": "MEMBER",
            "body": "this is a feature. Use the `rawMessage` parameter if you want the unparsed message from the server: https://github.com/superjoe30/mineflayer/blob/master/doc/api.md#chat-username-message-rawmessage\n",
            "created_at": "2013-01-08T05:57:37Z",
            "html_url": "https://github.com/PrismarineJS/mineflayer/issues/62#issuecomment-11985689",
            "id": 11985689,
            "issue_url": "https://api.github.com/repos/PrismarineJS/mineflayer/issues/62",
            "node_id": "MDEyOklzc3VlQ29tbWVudDExOTg1Njg5",
            "performed_via_github_app": null,
            "reactions": {
                "+1": 0,
                "-1": 0,
                "confused": 0,
                "eyes": 0,
                "heart": 0,
                "hooray": 0,
                "laugh": 0,
                "rocket": 0,
                "total_count": 0,
                "url": "https://api.github.com/repos/PrismarineJS/mineflayer/issues/comments/11985689/reactions"
            },
            "updated_at": "2013-01-08T05:57:37Z",
            "url": "https://api.github.com/repos/PrismarineJS/mineflayer/issues/comments/11985689",
            "user": {
                "avatar_url": "https://avatars.githubusercontent.com/u/106511?v=4",
                "events_url": "https://api.github.com/users/andrewrk/events{/privacy}",
                "followers_url": "https://api.github.com/users/andrewrk/followers",
                "following_url": "https://api.github.com/users/andrewrk/following{/other_user}",
                "gists_url": "https://api.github.com/users/andrewrk/gists{/gist_id}",
                "gravatar_id": "",
                "html_url": "https://github.com/andrewrk",
                "id": 106511,
                "login": "andrewrk",
                "node_id": "MDQ6VXNlcjEwNjUxMQ==",
                "organizations_url": "https://api.github.com/users/andrewrk/orgs",
                "received_events_url": "https://api.github.com/users/andrewrk/received_events",
                "repos_url": "https://api.github.com/users/andrewrk/repos",
                "site_admin": false,
                "starred_url": "https://api.github.com/users/andrewrk/starred{/owner}{/repo}",
                "subscriptions_url": "https://api.github.com/users/andrewrk/subscriptions",
                "type": "User",
                "url": "https://api.github.com/users/andrewrk"
            }
        },
        {
            "author_association": "NONE",
            "body": "The color codes aren't stripped properly though - I still get a character left over from each color code in the formatted text\n",
            "created_at": "2013-01-08T05:59:03Z",
            "html_url": "https://github.com/PrismarineJS/mineflayer/issues/62#issuecomment-11985712",
            "id": 11985712,
            "issue_url": "https://api.github.com/repos/PrismarineJS/mineflayer/issues/62",
            "node_id": "MDEyOklzc3VlQ29tbWVudDExOTg1NzEy",
            "performed_via_github_app": null,
            "reactions": {
                "+1": 0,
                "-1": 0,
                "confused": 0,
                "eyes": 0,
                "heart": 0,
                "hooray": 0,
                "laugh": 0,
                "rocket": 0,
                "total_count": 0,
                "url": "https://api.github.com/repos/PrismarineJS/mineflayer/issues/comments/11985712/reactions"
            },
            "updated_at": "2013-01-08T05:59:03Z",
            "url": "https://api.github.com/repos/PrismarineJS/mineflayer/issues/comments/11985712",
            "user": {
                "avatar_url": "https://avatars.githubusercontent.com/u/425716?v=4",
                "events_url": "https://api.github.com/users/yocontra/events{/privacy}",
                "followers_url": "https://api.github.com/users/yocontra/followers",
                "following_url": "https://api.github.com/users/yocontra/following{/other_user}",
                "gists_url": "https://api.github.com/users/yocontra/gists{/gist_id}",
                "gravatar_id": "",
                "html_url": "https://github.com/yocontra",
                "id": 425716,
                "login": "yocontra",
                "node_id": "MDQ6VXNlcjQyNTcxNg==",
                "organizations_url": "https://api.github.com/users/yocontra/orgs",
                "received_events_url": "https://api.github.com/users/yocontra/received_events",
                "repos_url": "https://api.github.com/users/yocontra/repos",
                "site_admin": false,
                "starred_url": "https://api.github.com/users/yocontra/starred{/owner}{/repo}",
                "subscriptions_url": "https://api.github.com/users/yocontra/subscriptions",
                "type": "User",
                "url": "https://api.github.com/users/yocontra"
            }
        },
        {
            "author_association": "MEMBER",
            "body": "Thanks for the report, will fix.\n",
            "created_at": "2013-01-08T06:02:21Z",
            "html_url": "https://github.com/PrismarineJS/mineflayer/issues/62#issuecomment-11985782",
            "id": 11985782,
            "issue_url": "https://api.github.com/repos/PrismarineJS/mineflayer/issues/62",
            "node_id": "MDEyOklzc3VlQ29tbWVudDExOTg1Nzgy",
            "performed_via_github_app": null,
            "reactions": {
                "+1": 0,
                "-1": 0,
                "confused": 0,
                "eyes": 0,
                "heart": 0,
                "hooray": 0,
                "laugh": 0,
                "rocket": 0,
                "total_count": 0,
                "url": "https://api.github.com/repos/PrismarineJS/mineflayer/issues/comments/11985782/reactions"
            },
            "updated_at": "2013-01-08T06:02:21Z",
            "url": "https://api.github.com/repos/PrismarineJS/mineflayer/issues/comments/11985782",
            "user": {
                "avatar_url": "https://avatars.githubusercontent.com/u/106511?v=4",
                "events_url": "https://api.github.com/users/andrewrk/events{/privacy}",
                "followers_url": "https://api.github.com/users/andrewrk/followers",
                "following_url": "https://api.github.com/users/andrewrk/following{/other_user}",
                "gists_url": "https://api.github.com/users/andrewrk/gists{/gist_id}",
                "gravatar_id": "",
                "html_url": "https://github.com/andrewrk",
                "id": 106511,
                "login": "andrewrk",
                "node_id": "MDQ6VXNlcjEwNjUxMQ==",
                "organizations_url": "https://api.github.com/users/andrewrk/orgs",
                "received_events_url": "https://api.github.com/users/andrewrk/received_events",
                "repos_url": "https://api.github.com/users/andrewrk/repos",
                "site_admin": false,
                "starred_url": "https://api.github.com/users/andrewrk/starred{/owner}{/repo}",
                "subscriptions_url": "https://api.github.com/users/andrewrk/subscriptions",
                "type": "User",
                "url": "https://api.github.com/users/andrewrk"
            }
        },
        {
            "author_association": "MEMBER",
            "body": "A PR for this has a high chance of being accepted.\n",
            "created_at": "2013-01-11T16:29:26Z",
            "html_url": "https://github.com/PrismarineJS/mineflayer/issues/62#issuecomment-12151732",
            "id": 12151732,
            "issue_url": "https://api.github.com/repos/PrismarineJS/mineflayer/issues/62",
            "node_id": "MDEyOklzc3VlQ29tbWVudDEyMTUxNzMy",
            "performed_via_github_app": null,
            "reactions": {
                "+1": 0,
                "-1": 0,
                "confused": 0,
                "eyes": 0,
                "heart": 0,
                "hooray": 0,
                "laugh": 0,
                "rocket": 0,
                "total_count": 0,
                "url": "https://api.github.com/repos/PrismarineJS/mineflayer/issues/comments/12151732/reactions"
            },
            "updated_at": "2013-01-11T16:29:26Z",
            "url": "https://api.github.com/repos/PrismarineJS/mineflayer/issues/comments/12151732",
            "user": {
                "avatar_url": "https://avatars.githubusercontent.com/u/106511?v=4",
                "events_url": "https://api.github.com/users/andrewrk/events{/privacy}",
                "followers_url": "https://api.github.com/users/andrewrk/followers",
                "following_url": "https://api.github.com/users/andrewrk/following{/other_user}",
                "gists_url": "https://api.github.com/users/andrewrk/gists{/gist_id}",
                "gravatar_id": "",
                "html_url": "https://github.com/andrewrk",
                "id": 106511,
                "login": "andrewrk",
                "node_id": "MDQ6VXNlcjEwNjUxMQ==",
                "organizations_url": "https://api.github.com/users/andrewrk/orgs",
                "received_events_url": "https://api.github.com/users/andrewrk/received_events",
                "repos_url": "https://api.github.com/users/andrewrk/repos",
                "site_admin": false,
                "starred_url": "https://api.github.com/users/andrewrk/starred{/owner}{/repo}",
                "subscriptions_url": "https://api.github.com/users/andrewrk/subscriptions",
                "type": "User",
                "url": "https://api.github.com/users/andrewrk"
            }
        },
        {
            "author_association": "MEMBER",
            "body": "Fixed in 6606d7b52f49ed580412a4f7a86b7031dc11f9af\n",
            "created_at": "2013-01-12T22:01:51Z",
            "html_url": "https://github.com/PrismarineJS/mineflayer/issues/62#issuecomment-12185287",
            "id": 12185287,
            "issue_url": "https://api.github.com/repos/PrismarineJS/mineflayer/issues/62",
            "node_id": "MDEyOklzc3VlQ29tbWVudDEyMTg1Mjg3",
            "performed_via_github_app": null,
            "reactions": {
                "+1": 0,
                "-1": 0,
                "confused": 0,
                "eyes": 0,
                "heart": 0,
                "hooray": 0,
                "laugh": 0,
                "rocket": 0,
                "total_count": 0,
                "url": "https://api.github.com/repos/PrismarineJS/mineflayer/issues/comments/12185287/reactions"
            },
            "updated_at": "2013-01-12T22:01:51Z",
            "url": "https://api.github.com/repos/PrismarineJS/mineflayer/issues/comments/12185287",
            "user": {
                "avatar_url": "https://avatars.githubusercontent.com/u/106511?v=4",
                "events_url": "https://api.github.com/users/andrewrk/events{/privacy}",
                "followers_url": "https://api.github.com/users/andrewrk/followers",
                "following_url": "https://api.github.com/users/andrewrk/following{/other_user}",
                "gists_url": "https://api.github.com/users/andrewrk/gists{/gist_id}",
                "gravatar_id": "",
                "html_url": "https://github.com/andrewrk",
                "id": 106511,
                "login": "andrewrk",
                "node_id": "MDQ6VXNlcjEwNjUxMQ==",
                "organizations_url": "https://api.github.com/users/andrewrk/orgs",
                "received_events_url": "https://api.github.com/users/andrewrk/received_events",
                "repos_url": "https://api.github.com/users/andrewrk/repos",
                "site_admin": false,
                "starred_url": "https://api.github.com/users/andrewrk/starred{/owner}{/repo}",
                "subscriptions_url": "https://api.github.com/users/andrewrk/subscriptions",
                "type": "User",
                "url": "https://api.github.com/users/andrewrk"
            }
        }
    ],
    "comments": 5,
    "comments_url": "https://api.github.com/repos/PrismarineJS/mineflayer/issues/62/comments",
    "created_at": "2013-01-08T05:03:24Z",
    "event_data": [
        {
            "actor": {
                "avatar_url": "https://avatars.githubusercontent.com/u/106511?v=4",
                "events_url": "https://api.github.com/users/andrewrk/events{/privacy}",
                "followers_url": "https://api.github.com/users/andrewrk/followers",
                "following_url": "https://api.github.com/users/andrewrk/following{/other_user}",
                "gists_url": "https://api.github.com/users/andrewrk/gists{/gist_id}",
                "gravatar_id": "",
                "html_url": "https://github.com/andrewrk",
                "id": 106511,
                "login": "andrewrk",
                "node_id": "MDQ6VXNlcjEwNjUxMQ==",
                "organizations_url": "https://api.github.com/users/andrewrk/orgs",
                "received_events_url": "https://api.github.com/users/andrewrk/received_events",
                "repos_url": "https://api.github.com/users/andrewrk/repos",
                "site_admin": false,
                "starred_url": "https://api.github.com/users/andrewrk/starred{/owner}{/repo}",
                "subscriptions_url": "https://api.github.com/users/andrewrk/subscriptions",
                "type": "User",
                "url": "https://api.github.com/users/andrewrk"
            },
            "commit_id": null,
            "commit_url": null,
            "created_at": "2013-01-08T05:57:37Z",
            "event": "closed",
            "id": 33678712,
            "node_id": "MDExOkNsb3NlZEV2ZW50MzM2Nzg3MTI=",
            "performed_via_github_app": null,
            "state_reason": null,
            "url": "https://api.github.com/repos/PrismarineJS/mineflayer/issues/events/33678712"
        },
        {
            "actor": {
                "avatar_url": "https://avatars.githubusercontent.com/u/106511?v=4",
                "events_url": "https://api.github.com/users/andrewrk/events{/privacy}",
                "followers_url": "https://api.github.com/users/andrewrk/followers",
                "following_url": "https://api.github.com/users/andrewrk/following{/other_user}",
                "gists_url": "https://api.github.com/users/andrewrk/gists{/gist_id}",
                "gravatar_id": "",
                "html_url": "https://github.com/andrewrk",
                "id": 106511,
                "login": "andrewrk",
                "node_id": "MDQ6VXNlcjEwNjUxMQ==",
                "organizations_url": "https://api.github.com/users/andrewrk/orgs",
                "received_events_url": "https://api.github.com/users/andrewrk/received_events",
                "repos_url": "https://api.github.com/users/andrewrk/repos",
                "site_admin": false,
                "starred_url": "https://api.github.com/users/andrewrk/starred{/owner}{/repo}",
                "subscriptions_url": "https://api.github.com/users/andrewrk/subscriptions",
                "type": "User",
                "url": "https://api.github.com/users/andrewrk"
            },
            "commit_id": null,
            "commit_url": null,
            "created_at": "2013-01-08T06:02:07Z",
            "event": "reopened",
            "id": 33678894,
            "node_id": "MDEzOlJlb3BlbmVkRXZlbnQzMzY3ODg5NA==",
            "performed_via_github_app": null,
            "state_reason": null,
            "url": "https://api.github.com/repos/PrismarineJS/mineflayer/issues/events/33678894"
        },
        {
            "actor": {
                "avatar_url": "https://avatars.githubusercontent.com/u/106511?v=4",
                "events_url": "https://api.github.com/users/andrewrk/events{/privacy}",
                "followers_url": "https://api.github.com/users/andrewrk/followers",
                "following_url": "https://api.github.com/users/andrewrk/following{/other_user}",
                "gists_url": "https://api.github.com/users/andrewrk/gists{/gist_id}",
                "gravatar_id": "",
                "html_url": "https://github.com/andrewrk",
                "id": 106511,
                "login": "andrewrk",
                "node_id": "MDQ6VXNlcjEwNjUxMQ==",
                "organizations_url": "https://api.github.com/users/andrewrk/orgs",
                "received_events_url": "https://api.github.com/users/andrewrk/received_events",
                "repos_url": "https://api.github.com/users/andrewrk/repos",
                "site_admin": false,
                "starred_url": "https://api.github.com/users/andrewrk/starred{/owner}{/repo}",
                "subscriptions_url": "https://api.github.com/users/andrewrk/subscriptions",
                "type": "User",
                "url": "https://api.github.com/users/andrewrk"
            },
            "commit_id": null,
            "commit_url": null,
            "created_at": "2013-01-12T22:01:52Z",
            "event": "closed",
            "id": 34209338,
            "node_id": "MDExOkNsb3NlZEV2ZW50MzQyMDkzMzg=",
            "performed_via_github_app": null,
            "state_reason": null,
            "url": "https://api.github.com/repos/PrismarineJS/mineflayer/issues/events/34209338"
        }
    ],
    "events_url": "https://api.github.com/repos/PrismarineJS/mineflayer/issues/62/events",
    "html_url": "https://github.com/PrismarineJS/mineflayer/issues/62",
    "id": 9758055,
    "labels": [],
    "labels_url": "https://api.github.com/repos/PrismarineJS/mineflayer/issues/62/labels{/name}",
    "locked": false,
    "milestone": null,
    "node_id": "MDU6SXNzdWU5NzU4MDU1",
    "number": 62,
    "performed_via_github_app": null,
    "reactions": {
        "+1": 0,
        "-1": 0,
        "confused": 0,
        "eyes": 0,
        "heart": 0,
        "hooray": 0,
        "laugh": 0,
        "rocket": 0,
        "total_count": 0,
        "url": "https://api.github.com/repos/PrismarineJS/mineflayer/issues/62/reactions"
    },
    "repository_url": "https://api.github.com/repos/PrismarineJS/mineflayer",
    "state": "closed",
    "state_reason": "completed",
    "timeline_url": "https://api.github.com/repos/PrismarineJS/mineflayer/issues/62/timeline",
    "title": "Color codes incorrectly stripped from messages",
    "updated_at": "2013-01-12T22:01:52Z",
    "url": "https://api.github.com/repos/PrismarineJS/mineflayer/issues/62",
    "user": {
        "avatar_url": "https://avatars.githubusercontent.com/u/425716?v=4",
        "events_url": "https://api.github.com/users/yocontra/events{/privacy}",
        "followers_url": "https://api.github.com/users/yocontra/followers",
        "following_url": "https://api.github.com/users/yocontra/following{/other_user}",
        "gists_url": "https://api.github.com/users/yocontra/gists{/gist_id}",
        "gravatar_id": "",
        "html_url": "https://github.com/yocontra",
        "id": 425716,
        "login": "yocontra",
        "node_id": "MDQ6VXNlcjQyNTcxNg==",
        "organizations_url": "https://api.github.com/users/yocontra/orgs",
        "received_events_url": "https://api.github.com/users/yocontra/received_events",
        "repos_url": "https://api.github.com/users/yocontra/repos",
        "site_admin": false,
        "starred_url": "https://api.github.com/users/yocontra/starred{/owner}{/repo}",
        "subscriptions_url": "https://api.github.com/users/yocontra/subscriptions",
        "type": "User",
        "url": "https://api.github.com/users/yocontra"
    }
}