{
    "active_lock_reason": null,
    "assignee": null,
    "assignees": [],
    "author_association": "NONE",
    "body": "",
    "closed_at": "2019-01-25T21:39:34Z",
    "comment_data": [
        {
            "author_association": "MEMBER",
            "body": "1. do you get the error when not using the proxy?\r\n2. do you get the error when connecting to a vanilla server?",
            "created_at": "2018-10-26T10:29:43Z",
            "html_url": "https://github.com/PrismarineJS/mineflayer/issues/732#issuecomment-433364064",
            "id": 433364064,
            "issue_url": "https://api.github.com/repos/PrismarineJS/mineflayer/issues/732",
            "node_id": "MDEyOklzc3VlQ29tbWVudDQzMzM2NDA2NA==",
            "performed_via_github_app": null,
            "reactions": {
                "+1": 0,
                "-1": 0,
                "confused": 0,
                "eyes": 0,
                "heart": 0,
                "hooray": 0,
                "laugh": 0,
                "rocket": 0,
                "total_count": 0,
                "url": "https://api.github.com/repos/PrismarineJS/mineflayer/issues/comments/433364064/reactions"
            },
            "updated_at": "2018-10-26T10:29:43Z",
            "url": "https://api.github.com/repos/PrismarineJS/mineflayer/issues/comments/433364064",
            "user": {
                "avatar_url": "https://avatars.githubusercontent.com/u/8838132?v=4",
                "events_url": "https://api.github.com/users/plexigras/events{/privacy}",
                "followers_url": "https://api.github.com/users/plexigras/followers",
                "following_url": "https://api.github.com/users/plexigras/following{/other_user}",
                "gists_url": "https://api.github.com/users/plexigras/gists{/gist_id}",
                "gravatar_id": "",
                "html_url": "https://github.com/plexigras",
                "id": 8838132,
                "login": "plexigras",
                "node_id": "MDQ6VXNlcjg4MzgxMzI=",
                "organizations_url": "https://api.github.com/users/plexigras/orgs",
                "received_events_url": "https://api.github.com/users/plexigras/received_events",
                "repos_url": "https://api.github.com/users/plexigras/repos",
                "site_admin": false,
                "starred_url": "https://api.github.com/users/plexigras/starred{/owner}{/repo}",
                "subscriptions_url": "https://api.github.com/users/plexigras/subscriptions",
                "type": "User",
                "url": "https://api.github.com/users/plexigras"
            }
        },
        {
            "author_association": "MEMBER",
            "body": "How did you test the proxies ?\nDo they support CONNECT ?\n\nDid you try with a proxy you start yourself ?\n\nOn Fri, Oct 26, 2018, 21:08 DERJP <notifications@github.com> wrote:\n\n>\n>    1. No error without proxies\n>    2. I tried connecting the bots on a local spigot server using a proxy\n>    for each bot, still the same error\n>\n> The proxies are ok, I tested them again\n>\n> —\n> You are receiving this because you are subscribed to this thread.\n> Reply to this email directly, view it on GitHub\n> <https://github.com/PrismarineJS/mineflayer/issues/732#issuecomment-433513352>,\n> or mute the thread\n> <https://github.com/notifications/unsubscribe-auth/ACPN_tINE-TZvg1W7xImTZeWIEXW6RZnks5uo123gaJpZM4X7u4i>\n> .\n>\n",
            "created_at": "2018-10-26T19:55:03Z",
            "html_url": "https://github.com/PrismarineJS/mineflayer/issues/732#issuecomment-433525128",
            "id": 433525128,
            "issue_url": "https://api.github.com/repos/PrismarineJS/mineflayer/issues/732",
            "node_id": "MDEyOklzc3VlQ29tbWVudDQzMzUyNTEyOA==",
            "performed_via_github_app": null,
            "reactions": {
                "+1": 0,
                "-1": 0,
                "confused": 0,
                "eyes": 0,
                "heart": 0,
                "hooray": 0,
                "laugh": 0,
                "rocket": 0,
                "total_count": 0,
                "url": "https://api.github.com/repos/PrismarineJS/mineflayer/issues/comments/433525128/reactions"
            },
            "updated_at": "2018-10-26T19:55:03Z",
            "url": "https://api.github.com/repos/PrismarineJS/mineflayer/issues/comments/433525128",
            "user": {
                "avatar_url": "https://avatars.githubusercontent.com/u/2346494?v=4",
                "events_url": "https://api.github.com/users/rom1504/events{/privacy}",
                "followers_url": "https://api.github.com/users/rom1504/followers",
                "following_url": "https://api.github.com/users/rom1504/following{/other_user}",
                "gists_url": "https://api.github.com/users/rom1504/gists{/gist_id}",
                "gravatar_id": "",
                "html_url": "https://github.com/rom1504",
                "id": 2346494,
                "login": "rom1504",
                "node_id": "MDQ6VXNlcjIzNDY0OTQ=",
                "organizations_url": "https://api.github.com/users/rom1504/orgs",
                "received_events_url": "https://api.github.com/users/rom1504/received_events",
                "repos_url": "https://api.github.com/users/rom1504/repos",
                "site_admin": false,
                "starred_url": "https://api.github.com/users/rom1504/starred{/owner}{/repo}",
                "subscriptions_url": "https://api.github.com/users/rom1504/subscriptions",
                "type": "User",
                "url": "https://api.github.com/users/rom1504"
            }
        },
        {
            "author_association": "MEMBER",
            "body": "I don't know if there is a package to check if CONNECT works, but you could try implementing that check yourself.\r\nMost like most http proxies don't support it.",
            "created_at": "2018-11-04T14:10:49Z",
            "html_url": "https://github.com/PrismarineJS/mineflayer/issues/732#issuecomment-435672932",
            "id": 435672932,
            "issue_url": "https://api.github.com/repos/PrismarineJS/mineflayer/issues/732",
            "node_id": "MDEyOklzc3VlQ29tbWVudDQzNTY3MjkzMg==",
            "performed_via_github_app": null,
            "reactions": {
                "+1": 0,
                "-1": 0,
                "confused": 0,
                "eyes": 0,
                "heart": 0,
                "hooray": 0,
                "laugh": 0,
                "rocket": 0,
                "total_count": 0,
                "url": "https://api.github.com/repos/PrismarineJS/mineflayer/issues/comments/435672932/reactions"
            },
            "updated_at": "2018-11-04T14:10:49Z",
            "url": "https://api.github.com/repos/PrismarineJS/mineflayer/issues/comments/435672932",
            "user": {
                "avatar_url": "https://avatars.githubusercontent.com/u/2346494?v=4",
                "events_url": "https://api.github.com/users/rom1504/events{/privacy}",
                "followers_url": "https://api.github.com/users/rom1504/followers",
                "following_url": "https://api.github.com/users/rom1504/following{/other_user}",
                "gists_url": "https://api.github.com/users/rom1504/gists{/gist_id}",
                "gravatar_id": "",
                "html_url": "https://github.com/rom1504",
                "id": 2346494,
                "login": "rom1504",
                "node_id": "MDQ6VXNlcjIzNDY0OTQ=",
                "organizations_url": "https://api.github.com/users/rom1504/orgs",
                "received_events_url": "https://api.github.com/users/rom1504/received_events",
                "repos_url": "https://api.github.com/users/rom1504/repos",
                "site_admin": false,
                "starred_url": "https://api.github.com/users/rom1504/starred{/owner}{/repo}",
                "subscriptions_url": "https://api.github.com/users/rom1504/subscriptions",
                "type": "User",
                "url": "https://api.github.com/users/rom1504"
            }
        }
    ],
    "comments": 3,
    "comments_url": "https://api.github.com/repos/PrismarineJS/mineflayer/issues/732/comments",
    "created_at": "2018-10-26T08:06:50Z",
    "event_data": [
        {
            "actor": {
                "avatar_url": "https://avatars.githubusercontent.com/u/2346494?v=4",
                "events_url": "https://api.github.com/users/rom1504/events{/privacy}",
                "followers_url": "https://api.github.com/users/rom1504/followers",
                "following_url": "https://api.github.com/users/rom1504/following{/other_user}",
                "gists_url": "https://api.github.com/users/rom1504/gists{/gist_id}",
                "gravatar_id": "",
                "html_url": "https://github.com/rom1504",
                "id": 2346494,
                "login": "rom1504",
                "node_id": "MDQ6VXNlcjIzNDY0OTQ=",
                "organizations_url": "https://api.github.com/users/rom1504/orgs",
                "received_events_url": "https://api.github.com/users/rom1504/received_events",
                "repos_url": "https://api.github.com/users/rom1504/repos",
                "site_admin": false,
                "starred_url": "https://api.github.com/users/rom1504/starred{/owner}{/repo}",
                "subscriptions_url": "https://api.github.com/users/rom1504/subscriptions",
                "type": "User",
                "url": "https://api.github.com/users/rom1504"
            },
            "commit_id": null,
            "commit_url": null,
            "created_at": "2018-11-04T14:10:55Z",
            "event": "labeled",
            "id": 1944836862,
            "label": {
                "color": "663399",
                "name": "waiting info from op"
            },
            "node_id": "MDEyOkxhYmVsZWRFdmVudDE5NDQ4MzY4NjI=",
            "performed_via_github_app": null,
            "url": "https://api.github.com/repos/PrismarineJS/mineflayer/issues/events/1944836862"
        },
        {
            "actor": {
                "avatar_url": "https://avatars.githubusercontent.com/u/30471519?v=4",
                "events_url": "https://api.github.com/users/derjp/events{/privacy}",
                "followers_url": "https://api.github.com/users/derjp/followers",
                "following_url": "https://api.github.com/users/derjp/following{/other_user}",
                "gists_url": "https://api.github.com/users/derjp/gists{/gist_id}",
                "gravatar_id": "",
                "html_url": "https://github.com/derjp",
                "id": 30471519,
                "login": "derjp",
                "node_id": "MDQ6VXNlcjMwNDcxNTE5",
                "organizations_url": "https://api.github.com/users/derjp/orgs",
                "received_events_url": "https://api.github.com/users/derjp/received_events",
                "repos_url": "https://api.github.com/users/derjp/repos",
                "site_admin": false,
                "starred_url": "https://api.github.com/users/derjp/starred{/owner}{/repo}",
                "subscriptions_url": "https://api.github.com/users/derjp/subscriptions",
                "type": "User",
                "url": "https://api.github.com/users/derjp"
            },
            "commit_id": null,
            "commit_url": null,
            "created_at": "2019-01-13T18:49:28Z",
            "event": "renamed",
            "id": 2070664094,
            "node_id": "MDE3OlJlbmFtZWRUaXRsZUV2ZW50MjA3MDY2NDA5NA==",
            "performed_via_github_app": null,
            "rename": {
                "from": "Errors when using http proxies",
                "to": "solved"
            },
            "url": "https://api.github.com/repos/PrismarineJS/mineflayer/issues/events/2070664094"
        },
        {
            "actor": {
                "avatar_url": "https://avatars.githubusercontent.com/u/2346494?v=4",
                "events_url": "https://api.github.com/users/rom1504/events{/privacy}",
                "followers_url": "https://api.github.com/users/rom1504/followers",
                "following_url": "https://api.github.com/users/rom1504/following{/other_user}",
                "gists_url": "https://api.github.com/users/rom1504/gists{/gist_id}",
                "gravatar_id": "",
                "html_url": "https://github.com/rom1504",
                "id": 2346494,
                "login": "rom1504",
                "node_id": "MDQ6VXNlcjIzNDY0OTQ=",
                "organizations_url": "https://api.github.com/users/rom1504/orgs",
                "received_events_url": "https://api.github.com/users/rom1504/received_events",
                "repos_url": "https://api.github.com/users/rom1504/repos",
                "site_admin": false,
                "starred_url": "https://api.github.com/users/rom1504/starred{/owner}{/repo}",
                "subscriptions_url": "https://api.github.com/users/rom1504/subscriptions",
                "type": "User",
                "url": "https://api.github.com/users/rom1504"
            },
            "commit_id": null,
            "commit_url": null,
            "created_at": "2019-01-25T21:39:34Z",
            "event": "closed",
            "id": 2098331982,
            "node_id": "MDExOkNsb3NlZEV2ZW50MjA5ODMzMTk4Mg==",
            "performed_via_github_app": null,
            "state_reason": null,
            "url": "https://api.github.com/repos/PrismarineJS/mineflayer/issues/events/2098331982"
        }
    ],
    "events_url": "https://api.github.com/repos/PrismarineJS/mineflayer/issues/732/events",
    "html_url": "https://github.com/PrismarineJS/mineflayer/issues/732",
    "id": 374271662,
    "labels": [
        {
            "color": "663399",
            "default": false,
            "description": null,
            "id": 241251380,
            "name": "waiting info from op",
            "node_id": "MDU6TGFiZWwyNDEyNTEzODA=",
            "url": "https://api.github.com/repos/PrismarineJS/mineflayer/labels/waiting%20info%20from%20op"
        }
    ],
    "labels_url": "https://api.github.com/repos/PrismarineJS/mineflayer/issues/732/labels{/name}",
    "locked": false,
    "milestone": null,
    "node_id": "MDU6SXNzdWUzNzQyNzE2NjI=",
    "number": 732,
    "performed_via_github_app": null,
    "reactions": {
        "+1": 0,
        "-1": 0,
        "confused": 0,
        "eyes": 0,
        "heart": 0,
        "hooray": 0,
        "laugh": 0,
        "rocket": 0,
        "total_count": 0,
        "url": "https://api.github.com/repos/PrismarineJS/mineflayer/issues/732/reactions"
    },
    "repository_url": "https://api.github.com/repos/PrismarineJS/mineflayer",
    "state": "closed",
    "state_reason": "completed",
    "timeline_url": "https://api.github.com/repos/PrismarineJS/mineflayer/issues/732/timeline",
    "title": "solved",
    "updated_at": "2019-01-25T21:39:34Z",
    "url": "https://api.github.com/repos/PrismarineJS/mineflayer/issues/732",
    "user": {
        "avatar_url": "https://avatars.githubusercontent.com/u/30471519?v=4",
        "events_url": "https://api.github.com/users/derjp/events{/privacy}",
        "followers_url": "https://api.github.com/users/derjp/followers",
        "following_url": "https://api.github.com/users/derjp/following{/other_user}",
        "gists_url": "https://api.github.com/users/derjp/gists{/gist_id}",
        "gravatar_id": "",
        "html_url": "https://github.com/derjp",
        "id": 30471519,
        "login": "derjp",
        "node_id": "MDQ6VXNlcjMwNDcxNTE5",
        "organizations_url": "https://api.github.com/users/derjp/orgs",
        "received_events_url": "https://api.github.com/users/derjp/received_events",
        "repos_url": "https://api.github.com/users/derjp/repos",
        "site_admin": false,
        "starred_url": "https://api.github.com/users/derjp/starred{/owner}{/repo}",
        "subscriptions_url": "https://api.github.com/users/derjp/subscriptions",
        "type": "User",
        "url": "https://api.github.com/users/derjp"
    }
}