{
    "active_lock_reason": null,
    "assignee": null,
    "assignees": [],
    "author_association": "NONE",
    "body": "",
    "closed_at": "2018-10-31T12:23:01Z",
    "comment_data": [
        {
            "author_association": "MEMBER",
            "body": "duplicate of https://github.com/PrismarineJS/mineflayer/issues/731 and https://github.com/PrismarineJS/mineflayer/issues/674\r\n\r\nit is outdated but this is how it has been done in the past\r\n\r\nhttps://github.com/PrismarineJS/mineflayer/blob/25b89c461aa3544e4d9acad8d7e131851340c6b3/mineflayer-script/lib/ray_tracer.js",
            "created_at": "2018-10-31T12:23:01Z",
            "html_url": "https://github.com/PrismarineJS/mineflayer/issues/733#issuecomment-434666929",
            "id": 434666929,
            "issue_url": "https://api.github.com/repos/PrismarineJS/mineflayer/issues/733",
            "node_id": "MDEyOklzc3VlQ29tbWVudDQzNDY2NjkyOQ==",
            "performed_via_github_app": null,
            "reactions": {
                "+1": 0,
                "-1": 0,
                "confused": 0,
                "eyes": 0,
                "heart": 0,
                "hooray": 0,
                "laugh": 0,
                "rocket": 0,
                "total_count": 0,
                "url": "https://api.github.com/repos/PrismarineJS/mineflayer/issues/comments/434666929/reactions"
            },
            "updated_at": "2018-10-31T12:23:01Z",
            "url": "https://api.github.com/repos/PrismarineJS/mineflayer/issues/comments/434666929",
            "user": {
                "avatar_url": "https://avatars.githubusercontent.com/u/8838132?v=4",
                "events_url": "https://api.github.com/users/plexigras/events{/privacy}",
                "followers_url": "https://api.github.com/users/plexigras/followers",
                "following_url": "https://api.github.com/users/plexigras/following{/other_user}",
                "gists_url": "https://api.github.com/users/plexigras/gists{/gist_id}",
                "gravatar_id": "",
                "html_url": "https://github.com/plexigras",
                "id": 8838132,
                "login": "plexigras",
                "node_id": "MDQ6VXNlcjg4MzgxMzI=",
                "organizations_url": "https://api.github.com/users/plexigras/orgs",
                "received_events_url": "https://api.github.com/users/plexigras/received_events",
                "repos_url": "https://api.github.com/users/plexigras/repos",
                "site_admin": false,
                "starred_url": "https://api.github.com/users/plexigras/starred{/owner}{/repo}",
                "subscriptions_url": "https://api.github.com/users/plexigras/subscriptions",
                "type": "User",
                "url": "https://api.github.com/users/plexigras"
            }
        },
        {
            "author_association": "NONE",
            "body": "@plexigras in what way's it outdated?\r\n",
            "created_at": "2018-10-31T13:44:26Z",
            "html_url": "https://github.com/PrismarineJS/mineflayer/issues/733#issuecomment-434692096",
            "id": 434692096,
            "issue_url": "https://api.github.com/repos/PrismarineJS/mineflayer/issues/733",
            "node_id": "MDEyOklzc3VlQ29tbWVudDQzNDY5MjA5Ng==",
            "performed_via_github_app": null,
            "reactions": {
                "+1": 0,
                "-1": 0,
                "confused": 0,
                "eyes": 0,
                "heart": 0,
                "hooray": 0,
                "laugh": 0,
                "rocket": 0,
                "total_count": 0,
                "url": "https://api.github.com/repos/PrismarineJS/mineflayer/issues/comments/434692096/reactions"
            },
            "updated_at": "2018-10-31T13:44:26Z",
            "url": "https://api.github.com/repos/PrismarineJS/mineflayer/issues/comments/434692096",
            "user": {
                "avatar_url": "https://avatars.githubusercontent.com/u/10684786?v=4",
                "events_url": "https://api.github.com/users/nodingneu/events{/privacy}",
                "followers_url": "https://api.github.com/users/nodingneu/followers",
                "following_url": "https://api.github.com/users/nodingneu/following{/other_user}",
                "gists_url": "https://api.github.com/users/nodingneu/gists{/gist_id}",
                "gravatar_id": "",
                "html_url": "https://github.com/nodingneu",
                "id": 10684786,
                "login": "nodingneu",
                "node_id": "MDQ6VXNlcjEwNjg0Nzg2",
                "organizations_url": "https://api.github.com/users/nodingneu/orgs",
                "received_events_url": "https://api.github.com/users/nodingneu/received_events",
                "repos_url": "https://api.github.com/users/nodingneu/repos",
                "site_admin": false,
                "starred_url": "https://api.github.com/users/nodingneu/starred{/owner}{/repo}",
                "subscriptions_url": "https://api.github.com/users/nodingneu/subscriptions",
                "type": "User",
                "url": "https://api.github.com/users/nodingneu"
            }
        },
        {
            "author_association": "MEMBER",
            "body": "it could work if `mf.Point` is replaced with [`Vec3`](https://www.npmjs.com/package/vec3) and \r\n\r\n```js\r\nif (mf.isPhysical(mf.blockAt(cursor).type)) {\r\n```\r\nis replaced with\r\n```js\r\nif (mf.blockAt(cursor).type) {\r\n```",
            "created_at": "2018-10-31T13:53:49Z",
            "html_url": "https://github.com/PrismarineJS/mineflayer/issues/733#issuecomment-434695376",
            "id": 434695376,
            "issue_url": "https://api.github.com/repos/PrismarineJS/mineflayer/issues/733",
            "node_id": "MDEyOklzc3VlQ29tbWVudDQzNDY5NTM3Ng==",
            "performed_via_github_app": null,
            "reactions": {
                "+1": 0,
                "-1": 0,
                "confused": 0,
                "eyes": 0,
                "heart": 0,
                "hooray": 0,
                "laugh": 0,
                "rocket": 0,
                "total_count": 0,
                "url": "https://api.github.com/repos/PrismarineJS/mineflayer/issues/comments/434695376/reactions"
            },
            "updated_at": "2018-10-31T13:53:49Z",
            "url": "https://api.github.com/repos/PrismarineJS/mineflayer/issues/comments/434695376",
            "user": {
                "avatar_url": "https://avatars.githubusercontent.com/u/8838132?v=4",
                "events_url": "https://api.github.com/users/plexigras/events{/privacy}",
                "followers_url": "https://api.github.com/users/plexigras/followers",
                "following_url": "https://api.github.com/users/plexigras/following{/other_user}",
                "gists_url": "https://api.github.com/users/plexigras/gists{/gist_id}",
                "gravatar_id": "",
                "html_url": "https://github.com/plexigras",
                "id": 8838132,
                "login": "plexigras",
                "node_id": "MDQ6VXNlcjg4MzgxMzI=",
                "organizations_url": "https://api.github.com/users/plexigras/orgs",
                "received_events_url": "https://api.github.com/users/plexigras/received_events",
                "repos_url": "https://api.github.com/users/plexigras/repos",
                "site_admin": false,
                "starred_url": "https://api.github.com/users/plexigras/starred{/owner}{/repo}",
                "subscriptions_url": "https://api.github.com/users/plexigras/subscriptions",
                "type": "User",
                "url": "https://api.github.com/users/plexigras"
            }
        },
        {
            "author_association": "MEMBER",
            "body": "you might also check the blocks bounding box\r\n\r\nhttps://github.com/PrismarineJS/prismarine-block#blockboundingbox",
            "created_at": "2018-10-31T14:03:15Z",
            "html_url": "https://github.com/PrismarineJS/mineflayer/issues/733#issuecomment-434698965",
            "id": 434698965,
            "issue_url": "https://api.github.com/repos/PrismarineJS/mineflayer/issues/733",
            "node_id": "MDEyOklzc3VlQ29tbWVudDQzNDY5ODk2NQ==",
            "performed_via_github_app": null,
            "reactions": {
                "+1": 0,
                "-1": 0,
                "confused": 0,
                "eyes": 0,
                "heart": 0,
                "hooray": 0,
                "laugh": 0,
                "rocket": 0,
                "total_count": 0,
                "url": "https://api.github.com/repos/PrismarineJS/mineflayer/issues/comments/434698965/reactions"
            },
            "updated_at": "2018-10-31T14:03:15Z",
            "url": "https://api.github.com/repos/PrismarineJS/mineflayer/issues/comments/434698965",
            "user": {
                "avatar_url": "https://avatars.githubusercontent.com/u/8838132?v=4",
                "events_url": "https://api.github.com/users/plexigras/events{/privacy}",
                "followers_url": "https://api.github.com/users/plexigras/followers",
                "following_url": "https://api.github.com/users/plexigras/following{/other_user}",
                "gists_url": "https://api.github.com/users/plexigras/gists{/gist_id}",
                "gravatar_id": "",
                "html_url": "https://github.com/plexigras",
                "id": 8838132,
                "login": "plexigras",
                "node_id": "MDQ6VXNlcjg4MzgxMzI=",
                "organizations_url": "https://api.github.com/users/plexigras/orgs",
                "received_events_url": "https://api.github.com/users/plexigras/received_events",
                "repos_url": "https://api.github.com/users/plexigras/repos",
                "site_admin": false,
                "starred_url": "https://api.github.com/users/plexigras/starred{/owner}{/repo}",
                "subscriptions_url": "https://api.github.com/users/plexigras/subscriptions",
                "type": "User",
                "url": "https://api.github.com/users/plexigras"
            }
        }
    ],
    "comments": 4,
    "comments_url": "https://api.github.com/repos/PrismarineJS/mineflayer/issues/733/comments",
    "created_at": "2018-10-31T11:26:04Z",
    "event_data": [
        {
            "actor": {
                "avatar_url": "https://avatars.githubusercontent.com/u/8838132?v=4",
                "events_url": "https://api.github.com/users/plexigras/events{/privacy}",
                "followers_url": "https://api.github.com/users/plexigras/followers",
                "following_url": "https://api.github.com/users/plexigras/following{/other_user}",
                "gists_url": "https://api.github.com/users/plexigras/gists{/gist_id}",
                "gravatar_id": "",
                "html_url": "https://github.com/plexigras",
                "id": 8838132,
                "login": "plexigras",
                "node_id": "MDQ6VXNlcjg4MzgxMzI=",
                "organizations_url": "https://api.github.com/users/plexigras/orgs",
                "received_events_url": "https://api.github.com/users/plexigras/received_events",
                "repos_url": "https://api.github.com/users/plexigras/repos",
                "site_admin": false,
                "starred_url": "https://api.github.com/users/plexigras/starred{/owner}{/repo}",
                "subscriptions_url": "https://api.github.com/users/plexigras/subscriptions",
                "type": "User",
                "url": "https://api.github.com/users/plexigras"
            },
            "commit_id": null,
            "commit_url": null,
            "created_at": "2018-10-31T12:23:01Z",
            "event": "closed",
            "id": 1937709400,
            "node_id": "MDExOkNsb3NlZEV2ZW50MTkzNzcwOTQwMA==",
            "performed_via_github_app": null,
            "state_reason": null,
            "url": "https://api.github.com/repos/PrismarineJS/mineflayer/issues/events/1937709400"
        },
        {
            "actor": {
                "avatar_url": "https://avatars.githubusercontent.com/u/8838132?v=4",
                "events_url": "https://api.github.com/users/plexigras/events{/privacy}",
                "followers_url": "https://api.github.com/users/plexigras/followers",
                "following_url": "https://api.github.com/users/plexigras/following{/other_user}",
                "gists_url": "https://api.github.com/users/plexigras/gists{/gist_id}",
                "gravatar_id": "",
                "html_url": "https://github.com/plexigras",
                "id": 8838132,
                "login": "plexigras",
                "node_id": "MDQ6VXNlcjg4MzgxMzI=",
                "organizations_url": "https://api.github.com/users/plexigras/orgs",
                "received_events_url": "https://api.github.com/users/plexigras/received_events",
                "repos_url": "https://api.github.com/users/plexigras/repos",
                "site_admin": false,
                "starred_url": "https://api.github.com/users/plexigras/starred{/owner}{/repo}",
                "subscriptions_url": "https://api.github.com/users/plexigras/subscriptions",
                "type": "User",
                "url": "https://api.github.com/users/plexigras"
            },
            "commit_id": null,
            "commit_url": null,
            "created_at": "2018-10-31T13:44:26Z",
            "event": "mentioned",
            "id": 1937907019,
            "node_id": "MDE0Ok1lbnRpb25lZEV2ZW50MTkzNzkwNzAxOQ==",
            "performed_via_github_app": null,
            "url": "https://api.github.com/repos/PrismarineJS/mineflayer/issues/events/1937907019"
        },
        {
            "actor": {
                "avatar_url": "https://avatars.githubusercontent.com/u/8838132?v=4",
                "events_url": "https://api.github.com/users/plexigras/events{/privacy}",
                "followers_url": "https://api.github.com/users/plexigras/followers",
                "following_url": "https://api.github.com/users/plexigras/following{/other_user}",
                "gists_url": "https://api.github.com/users/plexigras/gists{/gist_id}",
                "gravatar_id": "",
                "html_url": "https://github.com/plexigras",
                "id": 8838132,
                "login": "plexigras",
                "node_id": "MDQ6VXNlcjg4MzgxMzI=",
                "organizations_url": "https://api.github.com/users/plexigras/orgs",
                "received_events_url": "https://api.github.com/users/plexigras/received_events",
                "repos_url": "https://api.github.com/users/plexigras/repos",
                "site_admin": false,
                "starred_url": "https://api.github.com/users/plexigras/starred{/owner}{/repo}",
                "subscriptions_url": "https://api.github.com/users/plexigras/subscriptions",
                "type": "User",
                "url": "https://api.github.com/users/plexigras"
            },
            "commit_id": null,
            "commit_url": null,
            "created_at": "2018-10-31T13:44:26Z",
            "event": "subscribed",
            "id": 1937907020,
            "node_id": "MDE1OlN1YnNjcmliZWRFdmVudDE5Mzc5MDcwMjA=",
            "performed_via_github_app": null,
            "url": "https://api.github.com/repos/PrismarineJS/mineflayer/issues/events/1937907020"
        }
    ],
    "events_url": "https://api.github.com/repos/PrismarineJS/mineflayer/issues/733/events",
    "html_url": "https://github.com/PrismarineJS/mineflayer/issues/733",
    "id": 375916252,
    "labels": [],
    "labels_url": "https://api.github.com/repos/PrismarineJS/mineflayer/issues/733/labels{/name}",
    "locked": false,
    "milestone": null,
    "node_id": "MDU6SXNzdWUzNzU5MTYyNTI=",
    "number": 733,
    "performed_via_github_app": null,
    "reactions": {
        "+1": 0,
        "-1": 0,
        "confused": 0,
        "eyes": 0,
        "heart": 0,
        "hooray": 0,
        "laugh": 0,
        "rocket": 0,
        "total_count": 0,
        "url": "https://api.github.com/repos/PrismarineJS/mineflayer/issues/733/reactions"
    },
    "repository_url": "https://api.github.com/repos/PrismarineJS/mineflayer",
    "state": "closed",
    "state_reason": "completed",
    "timeline_url": "https://api.github.com/repos/PrismarineJS/mineflayer/issues/733/timeline",
    "title": "How can I get the data value of the block the bot is pointing at? The block could be ~20 blocks away.",
    "updated_at": "2018-10-31T14:03:15Z",
    "url": "https://api.github.com/repos/PrismarineJS/mineflayer/issues/733",
    "user": {
        "avatar_url": "https://avatars.githubusercontent.com/u/10684786?v=4",
        "events_url": "https://api.github.com/users/nodingneu/events{/privacy}",
        "followers_url": "https://api.github.com/users/nodingneu/followers",
        "following_url": "https://api.github.com/users/nodingneu/following{/other_user}",
        "gists_url": "https://api.github.com/users/nodingneu/gists{/gist_id}",
        "gravatar_id": "",
        "html_url": "https://github.com/nodingneu",
        "id": 10684786,
        "login": "nodingneu",
        "node_id": "MDQ6VXNlcjEwNjg0Nzg2",
        "organizations_url": "https://api.github.com/users/nodingneu/orgs",
        "received_events_url": "https://api.github.com/users/nodingneu/received_events",
        "repos_url": "https://api.github.com/users/nodingneu/repos",
        "site_admin": false,
        "starred_url": "https://api.github.com/users/nodingneu/starred{/owner}{/repo}",
        "subscriptions_url": "https://api.github.com/users/nodingneu/subscriptions",
        "type": "User",
        "url": "https://api.github.com/users/nodingneu"
    }
}