{
    "active_lock_reason": null,
    "assignee": null,
    "assignees": [],
    "author_association": "NONE",
    "body": "C:\\Users\\kenny\\node_modules\\mineflayer\\lib\\location.js:7\r\n  this.floored = absoluteVector.floored()\r\n                                ^\r\n\r\nTypeError: absoluteVector.floored is not a function\r\n    at new Location (C:\\Users\\kenny\\node_modules\\mineflayer\\lib\\location.js:7:33)\r\n    at Bot.blockAt (C:\\Users\\kenny\\node_modules\\mineflayer\\lib\\plugins\\blocks.js:89:17)\r\n    at dig (C:\\Users\\kenny\\Desktop\\cosmic pvp mining bot\\bot\\index.js:81:22)\r\n    at Bot.<anonymous> (C:\\Users\\kenny\\Desktop\\cosmic pvp mining bot\\bot\\index.js:158:5)\r\n    at Bot.emit (events.js:189:13)\r\n    at checkForChatPatterns (C:\\Users\\kenny\\node_modules\\mineflayer\\lib\\plugins\\chat.js:44:80)\r\n    at Client.bot._client.on (C:\\Users\\kenny\\node_modules\\mineflayer\\lib\\plugins\\chat.js:56:5)\r\n    at Client.emit (events.js:189:13)\r\n    at FullPacketParser.deserializer.on (C:\\Users\\kenny\\node_modules\\minecraft-protocol\\src\\client.js:82:12)\r\n    at FullPacketParser.emit (events.js:189:13)\r\n\r\n\r\nHas something to do with\r\n\r\nbot.entity.position",
    "closed_at": "2019-02-08T23:38:05Z",
    "comment_data": [
        {
            "author_association": "NONE",
            "body": "nevermind not sure how to close this lmao",
            "created_at": "2019-02-08T05:06:42Z",
            "html_url": "https://github.com/PrismarineJS/mineflayer/issues/776#issuecomment-461692177",
            "id": 461692177,
            "issue_url": "https://api.github.com/repos/PrismarineJS/mineflayer/issues/776",
            "node_id": "MDEyOklzc3VlQ29tbWVudDQ2MTY5MjE3Nw==",
            "performed_via_github_app": null,
            "reactions": {
                "+1": 0,
                "-1": 0,
                "confused": 0,
                "eyes": 0,
                "heart": 0,
                "hooray": 0,
                "laugh": 0,
                "rocket": 0,
                "total_count": 0,
                "url": "https://api.github.com/repos/PrismarineJS/mineflayer/issues/comments/461692177/reactions"
            },
            "updated_at": "2019-02-08T05:06:42Z",
            "url": "https://api.github.com/repos/PrismarineJS/mineflayer/issues/comments/461692177",
            "user": {
                "avatar_url": "https://avatars.githubusercontent.com/u/28264073?v=4",
                "events_url": "https://api.github.com/users/KenWa51/events{/privacy}",
                "followers_url": "https://api.github.com/users/KenWa51/followers",
                "following_url": "https://api.github.com/users/KenWa51/following{/other_user}",
                "gists_url": "https://api.github.com/users/KenWa51/gists{/gist_id}",
                "gravatar_id": "",
                "html_url": "https://github.com/KenWa51",
                "id": 28264073,
                "login": "KenWa51",
                "node_id": "MDQ6VXNlcjI4MjY0MDcz",
                "organizations_url": "https://api.github.com/users/KenWa51/orgs",
                "received_events_url": "https://api.github.com/users/KenWa51/received_events",
                "repos_url": "https://api.github.com/users/KenWa51/repos",
                "site_admin": false,
                "starred_url": "https://api.github.com/users/KenWa51/starred{/owner}{/repo}",
                "subscriptions_url": "https://api.github.com/users/KenWa51/subscriptions",
                "type": "User",
                "url": "https://api.github.com/users/KenWa51"
            }
        },
        {
            "author_association": "NONE",
            "body": "BTW\r\nsomething simple that could be added is logging in with session ids",
            "created_at": "2019-02-08T07:08:14Z",
            "html_url": "https://github.com/PrismarineJS/mineflayer/issues/776#issuecomment-461711297",
            "id": 461711297,
            "issue_url": "https://api.github.com/repos/PrismarineJS/mineflayer/issues/776",
            "node_id": "MDEyOklzc3VlQ29tbWVudDQ2MTcxMTI5Nw==",
            "performed_via_github_app": null,
            "reactions": {
                "+1": 0,
                "-1": 0,
                "confused": 0,
                "eyes": 0,
                "heart": 0,
                "hooray": 0,
                "laugh": 0,
                "rocket": 0,
                "total_count": 0,
                "url": "https://api.github.com/repos/PrismarineJS/mineflayer/issues/comments/461711297/reactions"
            },
            "updated_at": "2019-02-08T07:08:14Z",
            "url": "https://api.github.com/repos/PrismarineJS/mineflayer/issues/comments/461711297",
            "user": {
                "avatar_url": "https://avatars.githubusercontent.com/u/28264073?v=4",
                "events_url": "https://api.github.com/users/KenWa51/events{/privacy}",
                "followers_url": "https://api.github.com/users/KenWa51/followers",
                "following_url": "https://api.github.com/users/KenWa51/following{/other_user}",
                "gists_url": "https://api.github.com/users/KenWa51/gists{/gist_id}",
                "gravatar_id": "",
                "html_url": "https://github.com/KenWa51",
                "id": 28264073,
                "login": "KenWa51",
                "node_id": "MDQ6VXNlcjI4MjY0MDcz",
                "organizations_url": "https://api.github.com/users/KenWa51/orgs",
                "received_events_url": "https://api.github.com/users/KenWa51/received_events",
                "repos_url": "https://api.github.com/users/KenWa51/repos",
                "site_admin": false,
                "starred_url": "https://api.github.com/users/KenWa51/starred{/owner}{/repo}",
                "subscriptions_url": "https://api.github.com/users/KenWa51/subscriptions",
                "type": "User",
                "url": "https://api.github.com/users/KenWa51"
            }
        },
        {
            "author_association": "MEMBER",
            "body": "Yes there's an issue for this in node-minecraft-protocol.\nFeel free to contribute\n\nOn Fri, Feb 8, 2019, 08:08 KenWa51 <notifications@github.com> wrote:\n\n> BTW\n> something simple that could be added is logging in with session ids\n>\n> —\n> You are receiving this because you are subscribed to this thread.\n> Reply to this email directly, view it on GitHub\n> <https://github.com/PrismarineJS/mineflayer/issues/776#issuecomment-461711297>,\n> or mute the thread\n> <https://github.com/notifications/unsubscribe-auth/ACPN_phpcdOQESaed2U3EtZWsucx2uZIks5vLSJfgaJpZM4as540>\n> .\n>\n",
            "created_at": "2019-02-08T12:33:32Z",
            "html_url": "https://github.com/PrismarineJS/mineflayer/issues/776#issuecomment-461788884",
            "id": 461788884,
            "issue_url": "https://api.github.com/repos/PrismarineJS/mineflayer/issues/776",
            "node_id": "MDEyOklzc3VlQ29tbWVudDQ2MTc4ODg4NA==",
            "performed_via_github_app": null,
            "reactions": {
                "+1": 0,
                "-1": 0,
                "confused": 0,
                "eyes": 0,
                "heart": 0,
                "hooray": 0,
                "laugh": 0,
                "rocket": 0,
                "total_count": 0,
                "url": "https://api.github.com/repos/PrismarineJS/mineflayer/issues/comments/461788884/reactions"
            },
            "updated_at": "2019-02-08T12:33:32Z",
            "url": "https://api.github.com/repos/PrismarineJS/mineflayer/issues/comments/461788884",
            "user": {
                "avatar_url": "https://avatars.githubusercontent.com/u/2346494?v=4",
                "events_url": "https://api.github.com/users/rom1504/events{/privacy}",
                "followers_url": "https://api.github.com/users/rom1504/followers",
                "following_url": "https://api.github.com/users/rom1504/following{/other_user}",
                "gists_url": "https://api.github.com/users/rom1504/gists{/gist_id}",
                "gravatar_id": "",
                "html_url": "https://github.com/rom1504",
                "id": 2346494,
                "login": "rom1504",
                "node_id": "MDQ6VXNlcjIzNDY0OTQ=",
                "organizations_url": "https://api.github.com/users/rom1504/orgs",
                "received_events_url": "https://api.github.com/users/rom1504/received_events",
                "repos_url": "https://api.github.com/users/rom1504/repos",
                "site_admin": false,
                "starred_url": "https://api.github.com/users/rom1504/starred{/owner}{/repo}",
                "subscriptions_url": "https://api.github.com/users/rom1504/subscriptions",
                "type": "User",
                "url": "https://api.github.com/users/rom1504"
            }
        }
    ],
    "comments": 3,
    "comments_url": "https://api.github.com/repos/PrismarineJS/mineflayer/issues/776/comments",
    "created_at": "2019-02-08T04:40:53Z",
    "event_data": [
        {
            "actor": {
                "avatar_url": "https://avatars.githubusercontent.com/u/2346494?v=4",
                "events_url": "https://api.github.com/users/rom1504/events{/privacy}",
                "followers_url": "https://api.github.com/users/rom1504/followers",
                "following_url": "https://api.github.com/users/rom1504/following{/other_user}",
                "gists_url": "https://api.github.com/users/rom1504/gists{/gist_id}",
                "gravatar_id": "",
                "html_url": "https://github.com/rom1504",
                "id": 2346494,
                "login": "rom1504",
                "node_id": "MDQ6VXNlcjIzNDY0OTQ=",
                "organizations_url": "https://api.github.com/users/rom1504/orgs",
                "received_events_url": "https://api.github.com/users/rom1504/received_events",
                "repos_url": "https://api.github.com/users/rom1504/repos",
                "site_admin": false,
                "starred_url": "https://api.github.com/users/rom1504/starred{/owner}{/repo}",
                "subscriptions_url": "https://api.github.com/users/rom1504/subscriptions",
                "type": "User",
                "url": "https://api.github.com/users/rom1504"
            },
            "commit_id": null,
            "commit_url": null,
            "created_at": "2019-02-08T23:38:05Z",
            "event": "closed",
            "id": 2128400148,
            "node_id": "MDExOkNsb3NlZEV2ZW50MjEyODQwMDE0OA==",
            "performed_via_github_app": null,
            "state_reason": null,
            "url": "https://api.github.com/repos/PrismarineJS/mineflayer/issues/events/2128400148"
        }
    ],
    "events_url": "https://api.github.com/repos/PrismarineJS/mineflayer/issues/776/events",
    "html_url": "https://github.com/PrismarineJS/mineflayer/issues/776",
    "id": 408003823,
    "labels": [],
    "labels_url": "https://api.github.com/repos/PrismarineJS/mineflayer/issues/776/labels{/name}",
    "locked": false,
    "milestone": null,
    "node_id": "MDU6SXNzdWU0MDgwMDM4MjM=",
    "number": 776,
    "performed_via_github_app": null,
    "reactions": {
        "+1": 0,
        "-1": 0,
        "confused": 0,
        "eyes": 0,
        "heart": 0,
        "hooray": 0,
        "laugh": 0,
        "rocket": 0,
        "total_count": 0,
        "url": "https://api.github.com/repos/PrismarineJS/mineflayer/issues/776/reactions"
    },
    "repository_url": "https://api.github.com/repos/PrismarineJS/mineflayer",
    "state": "closed",
    "state_reason": "completed",
    "timeline_url": "https://api.github.com/repos/PrismarineJS/mineflayer/issues/776/timeline",
    "title": "TypeError: absoluteVector.floored is not a function",
    "updated_at": "2019-02-08T23:38:05Z",
    "url": "https://api.github.com/repos/PrismarineJS/mineflayer/issues/776",
    "user": {
        "avatar_url": "https://avatars.githubusercontent.com/u/28264073?v=4",
        "events_url": "https://api.github.com/users/KenWa51/events{/privacy}",
        "followers_url": "https://api.github.com/users/KenWa51/followers",
        "following_url": "https://api.github.com/users/KenWa51/following{/other_user}",
        "gists_url": "https://api.github.com/users/KenWa51/gists{/gist_id}",
        "gravatar_id": "",
        "html_url": "https://github.com/KenWa51",
        "id": 28264073,
        "login": "KenWa51",
        "node_id": "MDQ6VXNlcjI4MjY0MDcz",
        "organizations_url": "https://api.github.com/users/KenWa51/orgs",
        "received_events_url": "https://api.github.com/users/KenWa51/received_events",
        "repos_url": "https://api.github.com/users/KenWa51/repos",
        "site_admin": false,
        "starred_url": "https://api.github.com/users/KenWa51/starred{/owner}{/repo}",
        "subscriptions_url": "https://api.github.com/users/KenWa51/subscriptions",
        "type": "User",
        "url": "https://api.github.com/users/KenWa51"
    }
}