{
    "active_lock_reason": null,
    "assignee": null,
    "assignees": [],
    "author_association": "NONE",
    "body": "<!--\r\nIF YOU ARE POSTING A QUESTION HOW TO USE MINEFLAYER,\r\nPLEASE ASK ON OUR DISCORD SERVER.\r\n\r\nhttps://discord.gg/eybmzRR\r\n-->\r\n\r\n## Versions\r\n - mineflayer: 2.9.0\r\n - server: vanilla 1.12.2\r\n - node: v9.11.1\r\n\r\n## Detailed description of a problem\r\nreturns \"Error: Server rejected transaction.\" while opening a chest\r\n\r\n## Current code\r\n```js\r\nfunction placeInChest() {\r\n\t//bot.lookAt(blockChest); returns \"TypeError: point.minus is not a function\" I'll make another issue for that\r\n    var chest = bot.openChest(blockChest);\r\n    var fishI = bot.inventory.findInventoryItem(349);\r\n    var enchantedBookI = bot.inventory.findInventoryItem(403);\r\n    chest.on('open', function () {\r\n        if (fishI) {\r\n            chest.deposit(fishI.type, null, bot.inventory.count(fishI.type));\r\n        }\r\n\t\tif(enchantedBookI){\r\n\t    chest.deposit(enchantedBookI.type, null, bot.inventory.count(fishI.type));\r\n\t}\r\n        setTimeout(chest.close, 500);\r\n        setTimeout(fish, 500);\r\n    })\r\n}\r\n\r\n```\r\n\r\n## Expected behavior\r\nI expected it to open the chest and store the fish or enchanted book in it.\r\n\r\n## Additional context\r\nI tried using bot.lookAt, to try bypassing it but that returns me \"TypeError: point.minus is not a function\"\r\n",
    "closed_at": "2019-07-26T12:00:11Z",
    "comment_data": [
        {
            "author_association": "NONE",
            "body": "Solved using setTimeout of 1 second : \r\n```js\r\nfunction placeInChest() {\r\n\t//bot.lookAt(blockChest, false);\r\n    var chest = bot.openChest(blockChest);\r\n\tsetTimeout(function(){\r\n    var fishI = bot.inventory.findInventoryItem(349);\r\n    var enchantedBookI = bot.inventory.findInventoryItem(403);\r\n    chest.on('open', function () {\r\n        if (fishI) {\r\n            chest.deposit(fishI.type, null, bot.inventory.count(fishI.type));\r\n        }\r\n\t\tif(enchantedBookI){\r\n\t    chest.deposit(enchantedBookI.type, null, bot.inventory.count(fishI.type));\r\n\t}\r\n        setTimeout(chest.close, 500);\r\n        setTimeout(fish, 500);\r\n    })\r\n}, 1000)}\r\n```",
            "created_at": "2019-07-26T12:00:11Z",
            "html_url": "https://github.com/PrismarineJS/mineflayer/issues/838#issuecomment-515424233",
            "id": 515424233,
            "issue_url": "https://api.github.com/repos/PrismarineJS/mineflayer/issues/838",
            "node_id": "MDEyOklzc3VlQ29tbWVudDUxNTQyNDIzMw==",
            "performed_via_github_app": null,
            "reactions": {
                "+1": 0,
                "-1": 0,
                "confused": 0,
                "eyes": 0,
                "heart": 0,
                "hooray": 0,
                "laugh": 0,
                "rocket": 0,
                "total_count": 0,
                "url": "https://api.github.com/repos/PrismarineJS/mineflayer/issues/comments/515424233/reactions"
            },
            "updated_at": "2019-07-26T12:00:11Z",
            "url": "https://api.github.com/repos/PrismarineJS/mineflayer/issues/comments/515424233",
            "user": {
                "avatar_url": "https://avatars.githubusercontent.com/u/19514584?v=4",
                "events_url": "https://api.github.com/users/Dufftwt/events{/privacy}",
                "followers_url": "https://api.github.com/users/Dufftwt/followers",
                "following_url": "https://api.github.com/users/Dufftwt/following{/other_user}",
                "gists_url": "https://api.github.com/users/Dufftwt/gists{/gist_id}",
                "gravatar_id": "",
                "html_url": "https://github.com/Dufftwt",
                "id": 19514584,
                "login": "Dufftwt",
                "node_id": "MDQ6VXNlcjE5NTE0NTg0",
                "organizations_url": "https://api.github.com/users/Dufftwt/orgs",
                "received_events_url": "https://api.github.com/users/Dufftwt/received_events",
                "repos_url": "https://api.github.com/users/Dufftwt/repos",
                "site_admin": false,
                "starred_url": "https://api.github.com/users/Dufftwt/starred{/owner}{/repo}",
                "subscriptions_url": "https://api.github.com/users/Dufftwt/subscriptions",
                "type": "User",
                "url": "https://api.github.com/users/Dufftwt"
            }
        }
    ],
    "comments": 1,
    "comments_url": "https://api.github.com/repos/PrismarineJS/mineflayer/issues/838/comments",
    "created_at": "2019-07-26T11:51:26Z",
    "event_data": [
        {
            "actor": {
                "avatar_url": "https://avatars.githubusercontent.com/u/19514584?v=4",
                "events_url": "https://api.github.com/users/Dufftwt/events{/privacy}",
                "followers_url": "https://api.github.com/users/Dufftwt/followers",
                "following_url": "https://api.github.com/users/Dufftwt/following{/other_user}",
                "gists_url": "https://api.github.com/users/Dufftwt/gists{/gist_id}",
                "gravatar_id": "",
                "html_url": "https://github.com/Dufftwt",
                "id": 19514584,
                "login": "Dufftwt",
                "node_id": "MDQ6VXNlcjE5NTE0NTg0",
                "organizations_url": "https://api.github.com/users/Dufftwt/orgs",
                "received_events_url": "https://api.github.com/users/Dufftwt/received_events",
                "repos_url": "https://api.github.com/users/Dufftwt/repos",
                "site_admin": false,
                "starred_url": "https://api.github.com/users/Dufftwt/starred{/owner}{/repo}",
                "subscriptions_url": "https://api.github.com/users/Dufftwt/subscriptions",
                "type": "User",
                "url": "https://api.github.com/users/Dufftwt"
            },
            "commit_id": null,
            "commit_url": null,
            "created_at": "2019-07-26T11:51:26Z",
            "event": "labeled",
            "id": 2512349766,
            "label": {
                "color": "ba232f",
                "name": "possible bug"
            },
            "node_id": "MDEyOkxhYmVsZWRFdmVudDI1MTIzNDk3NjY=",
            "performed_via_github_app": null,
            "url": "https://api.github.com/repos/PrismarineJS/mineflayer/issues/events/2512349766"
        },
        {
            "actor": {
                "avatar_url": "https://avatars.githubusercontent.com/u/19514584?v=4",
                "events_url": "https://api.github.com/users/Dufftwt/events{/privacy}",
                "followers_url": "https://api.github.com/users/Dufftwt/followers",
                "following_url": "https://api.github.com/users/Dufftwt/following{/other_user}",
                "gists_url": "https://api.github.com/users/Dufftwt/gists{/gist_id}",
                "gravatar_id": "",
                "html_url": "https://github.com/Dufftwt",
                "id": 19514584,
                "login": "Dufftwt",
                "node_id": "MDQ6VXNlcjE5NTE0NTg0",
                "organizations_url": "https://api.github.com/users/Dufftwt/orgs",
                "received_events_url": "https://api.github.com/users/Dufftwt/received_events",
                "repos_url": "https://api.github.com/users/Dufftwt/repos",
                "site_admin": false,
                "starred_url": "https://api.github.com/users/Dufftwt/starred{/owner}{/repo}",
                "subscriptions_url": "https://api.github.com/users/Dufftwt/subscriptions",
                "type": "User",
                "url": "https://api.github.com/users/Dufftwt"
            },
            "commit_id": null,
            "commit_url": null,
            "created_at": "2019-07-26T12:00:11Z",
            "event": "closed",
            "id": 2512366697,
            "node_id": "MDExOkNsb3NlZEV2ZW50MjUxMjM2NjY5Nw==",
            "performed_via_github_app": null,
            "state_reason": null,
            "url": "https://api.github.com/repos/PrismarineJS/mineflayer/issues/events/2512366697"
        }
    ],
    "events_url": "https://api.github.com/repos/PrismarineJS/mineflayer/issues/838/events",
    "html_url": "https://github.com/PrismarineJS/mineflayer/issues/838",
    "id": 473320941,
    "labels": [
        {
            "color": "ba232f",
            "default": false,
            "description": "",
            "id": 1346729768,
            "name": "possible bug",
            "node_id": "MDU6TGFiZWwxMzQ2NzI5NzY4",
            "url": "https://api.github.com/repos/PrismarineJS/mineflayer/labels/possible%20bug"
        }
    ],
    "labels_url": "https://api.github.com/repos/PrismarineJS/mineflayer/issues/838/labels{/name}",
    "locked": false,
    "milestone": null,
    "node_id": "MDU6SXNzdWU0NzMzMjA5NDE=",
    "number": 838,
    "performed_via_github_app": null,
    "reactions": {
        "+1": 0,
        "-1": 0,
        "confused": 0,
        "eyes": 0,
        "heart": 0,
        "hooray": 0,
        "laugh": 0,
        "rocket": 0,
        "total_count": 0,
        "url": "https://api.github.com/repos/PrismarineJS/mineflayer/issues/838/reactions"
    },
    "repository_url": "https://api.github.com/repos/PrismarineJS/mineflayer",
    "state": "closed",
    "state_reason": "completed",
    "timeline_url": "https://api.github.com/repos/PrismarineJS/mineflayer/issues/838/timeline",
    "title": "Server rejects transaction",
    "updated_at": "2019-07-26T12:00:11Z",
    "url": "https://api.github.com/repos/PrismarineJS/mineflayer/issues/838",
    "user": {
        "avatar_url": "https://avatars.githubusercontent.com/u/19514584?v=4",
        "events_url": "https://api.github.com/users/Dufftwt/events{/privacy}",
        "followers_url": "https://api.github.com/users/Dufftwt/followers",
        "following_url": "https://api.github.com/users/Dufftwt/following{/other_user}",
        "gists_url": "https://api.github.com/users/Dufftwt/gists{/gist_id}",
        "gravatar_id": "",
        "html_url": "https://github.com/Dufftwt",
        "id": 19514584,
        "login": "Dufftwt",
        "node_id": "MDQ6VXNlcjE5NTE0NTg0",
        "organizations_url": "https://api.github.com/users/Dufftwt/orgs",
        "received_events_url": "https://api.github.com/users/Dufftwt/received_events",
        "repos_url": "https://api.github.com/users/Dufftwt/repos",
        "site_admin": false,
        "starred_url": "https://api.github.com/users/Dufftwt/starred{/owner}{/repo}",
        "subscriptions_url": "https://api.github.com/users/Dufftwt/subscriptions",
        "type": "User",
        "url": "https://api.github.com/users/Dufftwt"
    }
}