[
    {
        "color": "d73a4a",
        "default": true,
        "description": "Something isn't working",
        "id": 2428043251,
        "name": "bug",
        "node_id": "MDU6TGFiZWwyNDI4MDQzMjUx",
        "url": "https://api.github.com/repos/PrismarineJS/mineflayer-cmd/labels/bug"
    },
    {
        "color": "0366d6",
        "default": false,
        "description": "Pull requests that update a dependency file",
        "id": 2493965276,
        "name": "dependencies",
        "node_id": "MDU6TGFiZWwyNDkzOTY1Mjc2",
        "url": "https://api.github.com/repos/PrismarineJS/mineflayer-cmd/labels/dependencies"
    },
    {
        "color": "0075ca",
        "default": true,
        "description": "Improvements or additions to documentation",
        "id": 2428043254,
        "name": "documentation",
        "node_id": "MDU6TGFiZWwyNDI4MDQzMjU0",
        "url": "https://api.github.com/repos/PrismarineJS/mineflayer-cmd/labels/documentation"
    },
    {
        "color": "cfd3d7",
        "default": true,
        "description": "This issue or pull request already exists",
        "id": 2428043255,
        "name": "duplicate",
        "node_id": "MDU6TGFiZWwyNDI4MDQzMjU1",
        "url": "https://api.github.com/repos/PrismarineJS/mineflayer-cmd/labels/duplicate"
    },
    {
        "color": "a2eeef",
        "default": true,
        "description": "New feature or request",
        "id": 2428043256,
        "name": "enhancement",
        "node_id": "MDU6TGFiZWwyNDI4MDQzMjU2",
        "url": "https://api.github.com/repos/PrismarineJS/mineflayer-cmd/labels/enhancement"
    },
    {
        "color": "7057ff",
        "default": true,
        "description": "Good for newcomers",
        "id": 2428043258,
        "name": "good first issue",
        "node_id": "MDU6TGFiZWwyNDI4MDQzMjU4",
        "url": "https://api.github.com/repos/PrismarineJS/mineflayer-cmd/labels/good%20first%20issue"
    },
    {
        "color": "008672",
        "default": true,
        "description": "Extra attention is needed",
        "id": 2428043257,
        "name": "help wanted",
        "node_id": "MDU6TGFiZWwyNDI4MDQzMjU3",
        "url": "https://api.github.com/repos/PrismarineJS/mineflayer-cmd/labels/help%20wanted"
    },
    {
        "color": "e4e669",
        "default": true,
        "description": "This doesn't seem right",
        "id": 2428043260,
        "name": "invalid",
        "node_id": "MDU6TGFiZWwyNDI4MDQzMjYw",
        "url": "https://api.github.com/repos/PrismarineJS/mineflayer-cmd/labels/invalid"
    },
    {
        "color": "d876e3",
        "default": true,
        "description": "Further information is requested",
        "id": 2428043263,
        "name": "question",
        "node_id": "MDU6TGFiZWwyNDI4MDQzMjYz",
        "url": "https://api.github.com/repos/PrismarineJS/mineflayer-cmd/labels/question"
    },
    {
        "color": "ffffff",
        "default": true,
        "description": "This will not be worked on",
        "id": 2428043265,
        "name": "wontfix",
        "node_id": "MDU6TGFiZWwyNDI4MDQzMjY1",
        "url": "https://api.github.com/repos/PrismarineJS/mineflayer-cmd/labels/wontfix"
    }
]