{
    "_links": {
        "comments": {
            "href": "https://api.github.com/repos/PrismarineJS/prismarinejs.github.io/issues/28/comments"
        },
        "commits": {
            "href": "https://api.github.com/repos/PrismarineJS/prismarinejs.github.io/pulls/28/commits"
        },
        "html": {
            "href": "https://github.com/PrismarineJS/prismarinejs.github.io/pull/28"
        },
        "issue": {
            "href": "https://api.github.com/repos/PrismarineJS/prismarinejs.github.io/issues/28"
        },
        "review_comment": {
            "href": "https://api.github.com/repos/PrismarineJS/prismarinejs.github.io/pulls/comments{/number}"
        },
        "review_comments": {
            "href": "https://api.github.com/repos/PrismarineJS/prismarinejs.github.io/pulls/28/comments"
        },
        "self": {
            "href": "https://api.github.com/repos/PrismarineJS/prismarinejs.github.io/pulls/28"
        },
        "statuses": {
            "href": "https://api.github.com/repos/PrismarineJS/prismarinejs.github.io/statuses/8de6a059b538a762f438fd8f32d4314281b99737"
        }
    },
    "active_lock_reason": null,
    "additions": 63,
    "assignee": null,
    "assignees": [],
    "author_association": "CONTRIBUTOR",
    "auto_merge": null,
    "base": {
        "label": "PrismarineJS:src",
        "ref": "src",
        "repo": {
            "allow_forking": true,
            "archive_url": "https://api.github.com/repos/PrismarineJS/prismarinejs.github.io/{archive_format}{/ref}",
            "archived": false,
            "assignees_url": "https://api.github.com/repos/PrismarineJS/prismarinejs.github.io/assignees{/user}",
            "blobs_url": "https://api.github.com/repos/PrismarineJS/prismarinejs.github.io/git/blobs{/sha}",
            "branches_url": "https://api.github.com/repos/PrismarineJS/prismarinejs.github.io/branches{/branch}",
            "clone_url": "https://github.com/PrismarineJS/prismarinejs.github.io.git",
            "collaborators_url": "https://api.github.com/repos/PrismarineJS/prismarinejs.github.io/collaborators{/collaborator}",
            "comments_url": "https://api.github.com/repos/PrismarineJS/prismarinejs.github.io/comments{/number}",
            "commits_url": "https://api.github.com/repos/PrismarineJS/prismarinejs.github.io/commits{/sha}",
            "compare_url": "https://api.github.com/repos/PrismarineJS/prismarinejs.github.io/compare/{base}...{head}",
            "contents_url": "https://api.github.com/repos/PrismarineJS/prismarinejs.github.io/contents/{+path}",
            "contributors_url": "https://api.github.com/repos/PrismarineJS/prismarinejs.github.io/contributors",
            "created_at": "2015-02-23T23:08:27Z",
            "default_branch": "src",
            "deployments_url": "https://api.github.com/repos/PrismarineJS/prismarinejs.github.io/deployments",
            "description": "https://prismarinejs.github.io",
            "disabled": false,
            "downloads_url": "https://api.github.com/repos/PrismarineJS/prismarinejs.github.io/downloads",
            "events_url": "https://api.github.com/repos/PrismarineJS/prismarinejs.github.io/events",
            "fork": false,
            "forks": 5,
            "forks_count": 5,
            "forks_url": "https://api.github.com/repos/PrismarineJS/prismarinejs.github.io/forks",
            "full_name": "PrismarineJS/prismarinejs.github.io",
            "git_commits_url": "https://api.github.com/repos/PrismarineJS/prismarinejs.github.io/git/commits{/sha}",
            "git_refs_url": "https://api.github.com/repos/PrismarineJS/prismarinejs.github.io/git/refs{/sha}",
            "git_tags_url": "https://api.github.com/repos/PrismarineJS/prismarinejs.github.io/git/tags{/sha}",
            "git_url": "git://github.com/PrismarineJS/prismarinejs.github.io.git",
            "has_discussions": false,
            "has_downloads": true,
            "has_issues": true,
            "has_pages": true,
            "has_projects": true,
            "has_wiki": true,
            "homepage": "",
            "hooks_url": "https://api.github.com/repos/PrismarineJS/prismarinejs.github.io/hooks",
            "html_url": "https://github.com/PrismarineJS/prismarinejs.github.io",
            "id": 31234934,
            "is_template": false,
            "issue_comment_url": "https://api.github.com/repos/PrismarineJS/prismarinejs.github.io/issues/comments{/number}",
            "issue_events_url": "https://api.github.com/repos/PrismarineJS/prismarinejs.github.io/issues/events{/number}",
            "issues_url": "https://api.github.com/repos/PrismarineJS/prismarinejs.github.io/issues{/number}",
            "keys_url": "https://api.github.com/repos/PrismarineJS/prismarinejs.github.io/keys{/key_id}",
            "labels_url": "https://api.github.com/repos/PrismarineJS/prismarinejs.github.io/labels{/name}",
            "language": "JavaScript",
            "languages_url": "https://api.github.com/repos/PrismarineJS/prismarinejs.github.io/languages",
            "license": {
                "key": "mit",
                "name": "MIT License",
                "node_id": "MDc6TGljZW5zZTEz",
                "spdx_id": "MIT",
                "url": "https://api.github.com/licenses/mit"
            },
            "merges_url": "https://api.github.com/repos/PrismarineJS/prismarinejs.github.io/merges",
            "milestones_url": "https://api.github.com/repos/PrismarineJS/prismarinejs.github.io/milestones{/number}",
            "mirror_url": null,
            "name": "prismarinejs.github.io",
            "node_id": "MDEwOlJlcG9zaXRvcnkzMTIzNDkzNA==",
            "notifications_url": "https://api.github.com/repos/PrismarineJS/prismarinejs.github.io/notifications{?since,all,participating}",
            "open_issues": 8,
            "open_issues_count": 8,
            "owner": {
                "avatar_url": "https://avatars.githubusercontent.com/u/11053411?v=4",
                "events_url": "https://api.github.com/users/PrismarineJS/events{/privacy}",
                "followers_url": "https://api.github.com/users/PrismarineJS/followers",
                "following_url": "https://api.github.com/users/PrismarineJS/following{/other_user}",
                "gists_url": "https://api.github.com/users/PrismarineJS/gists{/gist_id}",
                "gravatar_id": "",
                "html_url": "https://github.com/PrismarineJS",
                "id": 11053411,
                "login": "PrismarineJS",
                "node_id": "MDEyOk9yZ2FuaXphdGlvbjExMDUzNDEx",
                "organizations_url": "https://api.github.com/users/PrismarineJS/orgs",
                "received_events_url": "https://api.github.com/users/PrismarineJS/received_events",
                "repos_url": "https://api.github.com/users/PrismarineJS/repos",
                "site_admin": false,
                "starred_url": "https://api.github.com/users/PrismarineJS/starred{/owner}{/repo}",
                "subscriptions_url": "https://api.github.com/users/PrismarineJS/subscriptions",
                "type": "Organization",
                "url": "https://api.github.com/users/PrismarineJS"
            },
            "private": false,
            "pulls_url": "https://api.github.com/repos/PrismarineJS/prismarinejs.github.io/pulls{/number}",
            "pushed_at": "2023-04-08T23:05:28Z",
            "releases_url": "https://api.github.com/repos/PrismarineJS/prismarinejs.github.io/releases{/id}",
            "size": 11198,
            "ssh_url": "git@github.com:PrismarineJS/prismarinejs.github.io.git",
            "stargazers_count": 9,
            "stargazers_url": "https://api.github.com/repos/PrismarineJS/prismarinejs.github.io/stargazers",
            "statuses_url": "https://api.github.com/repos/PrismarineJS/prismarinejs.github.io/statuses/{sha}",
            "subscribers_url": "https://api.github.com/repos/PrismarineJS/prismarinejs.github.io/subscribers",
            "subscription_url": "https://api.github.com/repos/PrismarineJS/prismarinejs.github.io/subscription",
            "svn_url": "https://github.com/PrismarineJS/prismarinejs.github.io",
            "tags_url": "https://api.github.com/repos/PrismarineJS/prismarinejs.github.io/tags",
            "teams_url": "https://api.github.com/repos/PrismarineJS/prismarinejs.github.io/teams",
            "topics": [
                "github-pages",
                "html",
                "javascript",
                "js-org",
                "react"
            ],
            "trees_url": "https://api.github.com/repos/PrismarineJS/prismarinejs.github.io/git/trees{/sha}",
            "updated_at": "2023-04-05T19:25:01Z",
            "url": "https://api.github.com/repos/PrismarineJS/prismarinejs.github.io",
            "visibility": "public",
            "watchers": 9,
            "watchers_count": 9,
            "web_commit_signoff_required": false
        },
        "sha": "c246bf24ff34c21bdd3c9b6e6c6b9522928b02bb",
        "user": {
            "avatar_url": "https://avatars.githubusercontent.com/u/11053411?v=4",
            "events_url": "https://api.github.com/users/PrismarineJS/events{/privacy}",
            "followers_url": "https://api.github.com/users/PrismarineJS/followers",
            "following_url": "https://api.github.com/users/PrismarineJS/following{/other_user}",
            "gists_url": "https://api.github.com/users/PrismarineJS/gists{/gist_id}",
            "gravatar_id": "",
            "html_url": "https://github.com/PrismarineJS",
            "id": 11053411,
            "login": "PrismarineJS",
            "node_id": "MDEyOk9yZ2FuaXphdGlvbjExMDUzNDEx",
            "organizations_url": "https://api.github.com/users/PrismarineJS/orgs",
            "received_events_url": "https://api.github.com/users/PrismarineJS/received_events",
            "repos_url": "https://api.github.com/users/PrismarineJS/repos",
            "site_admin": false,
            "starred_url": "https://api.github.com/users/PrismarineJS/starred{/owner}{/repo}",
            "subscriptions_url": "https://api.github.com/users/PrismarineJS/subscriptions",
            "type": "Organization",
            "url": "https://api.github.com/users/PrismarineJS"
        }
    },
    "body": "<h3>Snyk has created this PR to upgrade react-router-dom from 4.2.2 to 4.3.1.</h3>\n:information_source: Keep your dependencies up-to-date. This makes it easier to fix existing vulnerabilities and to more quickly identify and fix newly disclosed vulnerabilities when they affect your project.\n<hr/>\n\n- The recommended version is **5 versions** ahead of your current version.\n- The recommended version was released **2 years ago**, on 2018-06-06.\n\n\n<details>\n<summary><b>Release notes</b></summary>\n<br/>\n  <details>\n    <summary>Package name: <b>react-router-dom</b></summary>\n    <ul>\n      <li>\n        <b>4.3.1</b> - 2018-06-06\n      </li>\n      <li>\n        <b>4.3.0</b> - 2018-06-06\n      </li>\n      <li>\n        <b>4.3.0-rc.3</b> - 2018-04-26\n      </li>\n      <li>\n        <b>4.3.0-rc.2</b> - 2018-03-28\n      </li>\n      <li>\n        <b>4.3.0-rc.1</b> - 2018-03-26\n      </li>\n      <li>\n        <b>4.2.2</b> - 2017-08-25\n      </li>\n    </ul>\n    from <a href=\"https://github.com/ReactTraining/react-router/releases\">react-router-dom GitHub release notes</a>\n  </details>\n</details>\n<hr/>\n\n**Note:** *You are seeing this because you or someone else with access to this repository has authorized Snyk to open upgrade PRs.*\n\nFor more information: <img src=\"https://app.snyk.io/badges/merge-advice/empty?pr_id=1337cba8-bbfb-4692-b841-4b37398cdfa1\" width=\"1\" height=\"1\"/>\n\n🧐 [View latest project report](https://app.snyk.io/org/rom1504/project/0e5c2b64-96b1-4d5f-81fe-87e9258bd21c?utm_source&#x3D;github&amp;utm_medium&#x3D;upgrade-pr)\n\n🛠 [Adjust upgrade PR settings](https://app.snyk.io/org/rom1504/project/0e5c2b64-96b1-4d5f-81fe-87e9258bd21c/settings/integration?utm_source&#x3D;github&amp;utm_medium&#x3D;upgrade-pr)\n\n🔕 [Ignore this dependency or unsubscribe from future upgrade PRs](https://app.snyk.io/org/rom1504/project/0e5c2b64-96b1-4d5f-81fe-87e9258bd21c/settings/integration?pkg&#x3D;react-router-dom&amp;utm_source&#x3D;github&amp;utm_medium&#x3D;upgrade-pr#auto-dep-upgrades)\n\n<!--- (snyk:metadata:{\"prId\":\"1337cba8-bbfb-4692-b841-4b37398cdfa1\",\"dependencies\":[{\"name\":\"react-router-dom\",\"from\":\"4.2.2\",\"to\":\"4.3.1\"}],\"packageManager\":\"npm\",\"type\":\"auto\",\"projectUrl\":\"https://app.snyk.io/org/rom1504/project/0e5c2b64-96b1-4d5f-81fe-87e9258bd21c?utm_source=github&utm_medium=upgrade-pr\",\"projectPublicId\":\"0e5c2b64-96b1-4d5f-81fe-87e9258bd21c\",\"env\":\"prod\",\"prType\":\"upgrade\",\"vulns\":[],\"issuesToFix\":[],\"upgrade\":[],\"upgradeInfo\":{\"versionsDiff\":5,\"publishedDate\":\"2018-06-06T19:27:51.418Z\"},\"templateVariants\":[],\"hasFixes\":false,\"isMajorUpgrade\":false,\"isBreakingChange\":false}) --->\n",
    "changed_files": 2,
    "closed_at": "2020-05-04T18:45:34Z",
    "comment_data": [],
    "comment_regular_data": [
        {
            "author_association": "MEMBER",
            "body": "Conflicts, try again",
            "created_at": "2020-05-04T18:45:33Z",
            "html_url": "https://github.com/PrismarineJS/prismarinejs.github.io/pull/28#issuecomment-623638054",
            "id": 623638054,
            "issue_url": "https://api.github.com/repos/PrismarineJS/prismarinejs.github.io/issues/28",
            "node_id": "MDEyOklzc3VlQ29tbWVudDYyMzYzODA1NA==",
            "performed_via_github_app": null,
            "reactions": {
                "+1": 0,
                "-1": 0,
                "confused": 0,
                "eyes": 0,
                "heart": 0,
                "hooray": 0,
                "laugh": 0,
                "rocket": 0,
                "total_count": 0,
                "url": "https://api.github.com/repos/PrismarineJS/prismarinejs.github.io/issues/comments/623638054/reactions"
            },
            "updated_at": "2020-05-04T18:45:33Z",
            "url": "https://api.github.com/repos/PrismarineJS/prismarinejs.github.io/issues/comments/623638054",
            "user": {
                "avatar_url": "https://avatars.githubusercontent.com/u/2346494?v=4",
                "events_url": "https://api.github.com/users/rom1504/events{/privacy}",
                "followers_url": "https://api.github.com/users/rom1504/followers",
                "following_url": "https://api.github.com/users/rom1504/following{/other_user}",
                "gists_url": "https://api.github.com/users/rom1504/gists{/gist_id}",
                "gravatar_id": "",
                "html_url": "https://github.com/rom1504",
                "id": 2346494,
                "login": "rom1504",
                "node_id": "MDQ6VXNlcjIzNDY0OTQ=",
                "organizations_url": "https://api.github.com/users/rom1504/orgs",
                "received_events_url": "https://api.github.com/users/rom1504/received_events",
                "repos_url": "https://api.github.com/users/rom1504/repos",
                "site_admin": false,
                "starred_url": "https://api.github.com/users/rom1504/starred{/owner}{/repo}",
                "subscriptions_url": "https://api.github.com/users/rom1504/subscriptions",
                "type": "User",
                "url": "https://api.github.com/users/rom1504"
            }
        }
    ],
    "comments": 1,
    "comments_url": "https://api.github.com/repos/PrismarineJS/prismarinejs.github.io/issues/28/comments",
    "commit_data": [
        {
            "author": {
                "avatar_url": "https://avatars.githubusercontent.com/u/19733683?v=4",
                "events_url": "https://api.github.com/users/snyk-bot/events{/privacy}",
                "followers_url": "https://api.github.com/users/snyk-bot/followers",
                "following_url": "https://api.github.com/users/snyk-bot/following{/other_user}",
                "gists_url": "https://api.github.com/users/snyk-bot/gists{/gist_id}",
                "gravatar_id": "",
                "html_url": "https://github.com/snyk-bot",
                "id": 19733683,
                "login": "snyk-bot",
                "node_id": "MDQ6VXNlcjE5NzMzNjgz",
                "organizations_url": "https://api.github.com/users/snyk-bot/orgs",
                "received_events_url": "https://api.github.com/users/snyk-bot/received_events",
                "repos_url": "https://api.github.com/users/snyk-bot/repos",
                "site_admin": false,
                "starred_url": "https://api.github.com/users/snyk-bot/starred{/owner}{/repo}",
                "subscriptions_url": "https://api.github.com/users/snyk-bot/subscriptions",
                "type": "User",
                "url": "https://api.github.com/users/snyk-bot"
            },
            "comments_url": "https://api.github.com/repos/PrismarineJS/prismarinejs.github.io/commits/3acea78b7fd84f6736056646f11db7cf41abaf0f/comments",
            "commit": {
                "author": {
                    "date": "2020-05-04T03:06:59Z",
                    "email": "snyk-bot@snyk.io",
                    "name": "snyk-bot"
                },
                "comment_count": 0,
                "committer": {
                    "date": "2020-05-04T03:06:59Z",
                    "email": "romain.rom1@gmail.com",
                    "name": "Romain Beaumont"
                },
                "message": "fix: upgrade react-router-dom from 4.2.2 to 4.3.1\n\nSnyk has created this PR to upgrade react-router-dom from 4.2.2 to 4.3.1.\n\nSee this package in NPM:\nhttps://www.npmjs.com/package/react-router-dom\n\nSee this project in Snyk:\nhttps://app.snyk.io/org/rom1504/project/0e5c2b64-96b1-4d5f-81fe-87e9258bd21c?utm_source=github&utm_medium=upgrade-pr",
                "tree": {
                    "sha": "19c4e67b9e31a792e275e0e4760641eda970f2b1",
                    "url": "https://api.github.com/repos/PrismarineJS/prismarinejs.github.io/git/trees/19c4e67b9e31a792e275e0e4760641eda970f2b1"
                },
                "url": "https://api.github.com/repos/PrismarineJS/prismarinejs.github.io/git/commits/3acea78b7fd84f6736056646f11db7cf41abaf0f",
                "verification": {
                    "payload": null,
                    "reason": "unsigned",
                    "signature": null,
                    "verified": false
                }
            },
            "committer": {
                "avatar_url": "https://avatars.githubusercontent.com/u/2346494?v=4",
                "events_url": "https://api.github.com/users/rom1504/events{/privacy}",
                "followers_url": "https://api.github.com/users/rom1504/followers",
                "following_url": "https://api.github.com/users/rom1504/following{/other_user}",
                "gists_url": "https://api.github.com/users/rom1504/gists{/gist_id}",
                "gravatar_id": "",
                "html_url": "https://github.com/rom1504",
                "id": 2346494,
                "login": "rom1504",
                "node_id": "MDQ6VXNlcjIzNDY0OTQ=",
                "organizations_url": "https://api.github.com/users/rom1504/orgs",
                "received_events_url": "https://api.github.com/users/rom1504/received_events",
                "repos_url": "https://api.github.com/users/rom1504/repos",
                "site_admin": false,
                "starred_url": "https://api.github.com/users/rom1504/starred{/owner}{/repo}",
                "subscriptions_url": "https://api.github.com/users/rom1504/subscriptions",
                "type": "User",
                "url": "https://api.github.com/users/rom1504"
            },
            "html_url": "https://github.com/PrismarineJS/prismarinejs.github.io/commit/3acea78b7fd84f6736056646f11db7cf41abaf0f",
            "node_id": "MDY6Q29tbWl0MzEyMzQ5MzQ6M2FjZWE3OGI3ZmQ4NGY2NzM2MDU2NjQ2ZjExZGI3Y2Y0MWFiYWYwZg==",
            "parents": [
                {
                    "html_url": "https://github.com/PrismarineJS/prismarinejs.github.io/commit/c246bf24ff34c21bdd3c9b6e6c6b9522928b02bb",
                    "sha": "c246bf24ff34c21bdd3c9b6e6c6b9522928b02bb",
                    "url": "https://api.github.com/repos/PrismarineJS/prismarinejs.github.io/commits/c246bf24ff34c21bdd3c9b6e6c6b9522928b02bb"
                }
            ],
            "sha": "3acea78b7fd84f6736056646f11db7cf41abaf0f",
            "url": "https://api.github.com/repos/PrismarineJS/prismarinejs.github.io/commits/3acea78b7fd84f6736056646f11db7cf41abaf0f"
        },
        {
            "author": {
                "avatar_url": "https://avatars.githubusercontent.com/u/19733683?v=4",
                "events_url": "https://api.github.com/users/snyk-bot/events{/privacy}",
                "followers_url": "https://api.github.com/users/snyk-bot/followers",
                "following_url": "https://api.github.com/users/snyk-bot/following{/other_user}",
                "gists_url": "https://api.github.com/users/snyk-bot/gists{/gist_id}",
                "gravatar_id": "",
                "html_url": "https://github.com/snyk-bot",
                "id": 19733683,
                "login": "snyk-bot",
                "node_id": "MDQ6VXNlcjE5NzMzNjgz",
                "organizations_url": "https://api.github.com/users/snyk-bot/orgs",
                "received_events_url": "https://api.github.com/users/snyk-bot/received_events",
                "repos_url": "https://api.github.com/users/snyk-bot/repos",
                "site_admin": false,
                "starred_url": "https://api.github.com/users/snyk-bot/starred{/owner}{/repo}",
                "subscriptions_url": "https://api.github.com/users/snyk-bot/subscriptions",
                "type": "User",
                "url": "https://api.github.com/users/snyk-bot"
            },
            "comments_url": "https://api.github.com/repos/PrismarineJS/prismarinejs.github.io/commits/8de6a059b538a762f438fd8f32d4314281b99737/comments",
            "commit": {
                "author": {
                    "date": "2020-05-04T03:07:01Z",
                    "email": "snyk-bot@snyk.io",
                    "name": "snyk-bot"
                },
                "comment_count": 0,
                "committer": {
                    "date": "2020-05-04T03:07:01Z",
                    "email": "romain.rom1@gmail.com",
                    "name": "Romain Beaumont"
                },
                "message": "fix: upgrade react-router-dom from 4.2.2 to 4.3.1\n\nSnyk has created this PR to upgrade react-router-dom from 4.2.2 to 4.3.1.\n\nSee this package in NPM:\nhttps://www.npmjs.com/package/react-router-dom\n\nSee this project in Snyk:\nhttps://app.snyk.io/org/rom1504/project/0e5c2b64-96b1-4d5f-81fe-87e9258bd21c?utm_source=github&utm_medium=upgrade-pr",
                "tree": {
                    "sha": "73b48cd9731aa650d3a7b3cad8a7cc7d1681f201",
                    "url": "https://api.github.com/repos/PrismarineJS/prismarinejs.github.io/git/trees/73b48cd9731aa650d3a7b3cad8a7cc7d1681f201"
                },
                "url": "https://api.github.com/repos/PrismarineJS/prismarinejs.github.io/git/commits/8de6a059b538a762f438fd8f32d4314281b99737",
                "verification": {
                    "payload": null,
                    "reason": "unsigned",
                    "signature": null,
                    "verified": false
                }
            },
            "committer": {
                "avatar_url": "https://avatars.githubusercontent.com/u/2346494?v=4",
                "events_url": "https://api.github.com/users/rom1504/events{/privacy}",
                "followers_url": "https://api.github.com/users/rom1504/followers",
                "following_url": "https://api.github.com/users/rom1504/following{/other_user}",
                "gists_url": "https://api.github.com/users/rom1504/gists{/gist_id}",
                "gravatar_id": "",
                "html_url": "https://github.com/rom1504",
                "id": 2346494,
                "login": "rom1504",
                "node_id": "MDQ6VXNlcjIzNDY0OTQ=",
                "organizations_url": "https://api.github.com/users/rom1504/orgs",
                "received_events_url": "https://api.github.com/users/rom1504/received_events",
                "repos_url": "https://api.github.com/users/rom1504/repos",
                "site_admin": false,
                "starred_url": "https://api.github.com/users/rom1504/starred{/owner}{/repo}",
                "subscriptions_url": "https://api.github.com/users/rom1504/subscriptions",
                "type": "User",
                "url": "https://api.github.com/users/rom1504"
            },
            "html_url": "https://github.com/PrismarineJS/prismarinejs.github.io/commit/8de6a059b538a762f438fd8f32d4314281b99737",
            "node_id": "MDY6Q29tbWl0MzEyMzQ5MzQ6OGRlNmEwNTliNTM4YTc2MmY0MzhmZDhmMzJkNDMxNDI4MWI5OTczNw==",
            "parents": [
                {
                    "html_url": "https://github.com/PrismarineJS/prismarinejs.github.io/commit/3acea78b7fd84f6736056646f11db7cf41abaf0f",
                    "sha": "3acea78b7fd84f6736056646f11db7cf41abaf0f",
                    "url": "https://api.github.com/repos/PrismarineJS/prismarinejs.github.io/commits/3acea78b7fd84f6736056646f11db7cf41abaf0f"
                }
            ],
            "sha": "8de6a059b538a762f438fd8f32d4314281b99737",
            "url": "https://api.github.com/repos/PrismarineJS/prismarinejs.github.io/commits/8de6a059b538a762f438fd8f32d4314281b99737"
        }
    ],
    "commits": 2,
    "commits_url": "https://api.github.com/repos/PrismarineJS/prismarinejs.github.io/pulls/28/commits",
    "created_at": "2020-05-04T03:07:03Z",
    "deletions": 37,
    "diff_url": "https://github.com/PrismarineJS/prismarinejs.github.io/pull/28.diff",
    "draft": false,
    "head": {
        "label": "PrismarineJS:snyk-upgrade-8029965b2c29f29d37f55be917a811ab",
        "ref": "snyk-upgrade-8029965b2c29f29d37f55be917a811ab",
        "repo": {
            "allow_forking": true,
            "archive_url": "https://api.github.com/repos/PrismarineJS/prismarinejs.github.io/{archive_format}{/ref}",
            "archived": false,
            "assignees_url": "https://api.github.com/repos/PrismarineJS/prismarinejs.github.io/assignees{/user}",
            "blobs_url": "https://api.github.com/repos/PrismarineJS/prismarinejs.github.io/git/blobs{/sha}",
            "branches_url": "https://api.github.com/repos/PrismarineJS/prismarinejs.github.io/branches{/branch}",
            "clone_url": "https://github.com/PrismarineJS/prismarinejs.github.io.git",
            "collaborators_url": "https://api.github.com/repos/PrismarineJS/prismarinejs.github.io/collaborators{/collaborator}",
            "comments_url": "https://api.github.com/repos/PrismarineJS/prismarinejs.github.io/comments{/number}",
            "commits_url": "https://api.github.com/repos/PrismarineJS/prismarinejs.github.io/commits{/sha}",
            "compare_url": "https://api.github.com/repos/PrismarineJS/prismarinejs.github.io/compare/{base}...{head}",
            "contents_url": "https://api.github.com/repos/PrismarineJS/prismarinejs.github.io/contents/{+path}",
            "contributors_url": "https://api.github.com/repos/PrismarineJS/prismarinejs.github.io/contributors",
            "created_at": "2015-02-23T23:08:27Z",
            "default_branch": "src",
            "deployments_url": "https://api.github.com/repos/PrismarineJS/prismarinejs.github.io/deployments",
            "description": "https://prismarinejs.github.io",
            "disabled": false,
            "downloads_url": "https://api.github.com/repos/PrismarineJS/prismarinejs.github.io/downloads",
            "events_url": "https://api.github.com/repos/PrismarineJS/prismarinejs.github.io/events",
            "fork": false,
            "forks": 5,
            "forks_count": 5,
            "forks_url": "https://api.github.com/repos/PrismarineJS/prismarinejs.github.io/forks",
            "full_name": "PrismarineJS/prismarinejs.github.io",
            "git_commits_url": "https://api.github.com/repos/PrismarineJS/prismarinejs.github.io/git/commits{/sha}",
            "git_refs_url": "https://api.github.com/repos/PrismarineJS/prismarinejs.github.io/git/refs{/sha}",
            "git_tags_url": "https://api.github.com/repos/PrismarineJS/prismarinejs.github.io/git/tags{/sha}",
            "git_url": "git://github.com/PrismarineJS/prismarinejs.github.io.git",
            "has_discussions": false,
            "has_downloads": true,
            "has_issues": true,
            "has_pages": true,
            "has_projects": true,
            "has_wiki": true,
            "homepage": "",
            "hooks_url": "https://api.github.com/repos/PrismarineJS/prismarinejs.github.io/hooks",
            "html_url": "https://github.com/PrismarineJS/prismarinejs.github.io",
            "id": 31234934,
            "is_template": false,
            "issue_comment_url": "https://api.github.com/repos/PrismarineJS/prismarinejs.github.io/issues/comments{/number}",
            "issue_events_url": "https://api.github.com/repos/PrismarineJS/prismarinejs.github.io/issues/events{/number}",
            "issues_url": "https://api.github.com/repos/PrismarineJS/prismarinejs.github.io/issues{/number}",
            "keys_url": "https://api.github.com/repos/PrismarineJS/prismarinejs.github.io/keys{/key_id}",
            "labels_url": "https://api.github.com/repos/PrismarineJS/prismarinejs.github.io/labels{/name}",
            "language": "JavaScript",
            "languages_url": "https://api.github.com/repos/PrismarineJS/prismarinejs.github.io/languages",
            "license": {
                "key": "mit",
                "name": "MIT License",
                "node_id": "MDc6TGljZW5zZTEz",
                "spdx_id": "MIT",
                "url": "https://api.github.com/licenses/mit"
            },
            "merges_url": "https://api.github.com/repos/PrismarineJS/prismarinejs.github.io/merges",
            "milestones_url": "https://api.github.com/repos/PrismarineJS/prismarinejs.github.io/milestones{/number}",
            "mirror_url": null,
            "name": "prismarinejs.github.io",
            "node_id": "MDEwOlJlcG9zaXRvcnkzMTIzNDkzNA==",
            "notifications_url": "https://api.github.com/repos/PrismarineJS/prismarinejs.github.io/notifications{?since,all,participating}",
            "open_issues": 8,
            "open_issues_count": 8,
            "owner": {
                "avatar_url": "https://avatars.githubusercontent.com/u/11053411?v=4",
                "events_url": "https://api.github.com/users/PrismarineJS/events{/privacy}",
                "followers_url": "https://api.github.com/users/PrismarineJS/followers",
                "following_url": "https://api.github.com/users/PrismarineJS/following{/other_user}",
                "gists_url": "https://api.github.com/users/PrismarineJS/gists{/gist_id}",
                "gravatar_id": "",
                "html_url": "https://github.com/PrismarineJS",
                "id": 11053411,
                "login": "PrismarineJS",
                "node_id": "MDEyOk9yZ2FuaXphdGlvbjExMDUzNDEx",
                "organizations_url": "https://api.github.com/users/PrismarineJS/orgs",
                "received_events_url": "https://api.github.com/users/PrismarineJS/received_events",
                "repos_url": "https://api.github.com/users/PrismarineJS/repos",
                "site_admin": false,
                "starred_url": "https://api.github.com/users/PrismarineJS/starred{/owner}{/repo}",
                "subscriptions_url": "https://api.github.com/users/PrismarineJS/subscriptions",
                "type": "Organization",
                "url": "https://api.github.com/users/PrismarineJS"
            },
            "private": false,
            "pulls_url": "https://api.github.com/repos/PrismarineJS/prismarinejs.github.io/pulls{/number}",
            "pushed_at": "2023-04-08T23:05:28Z",
            "releases_url": "https://api.github.com/repos/PrismarineJS/prismarinejs.github.io/releases{/id}",
            "size": 11198,
            "ssh_url": "git@github.com:PrismarineJS/prismarinejs.github.io.git",
            "stargazers_count": 9,
            "stargazers_url": "https://api.github.com/repos/PrismarineJS/prismarinejs.github.io/stargazers",
            "statuses_url": "https://api.github.com/repos/PrismarineJS/prismarinejs.github.io/statuses/{sha}",
            "subscribers_url": "https://api.github.com/repos/PrismarineJS/prismarinejs.github.io/subscribers",
            "subscription_url": "https://api.github.com/repos/PrismarineJS/prismarinejs.github.io/subscription",
            "svn_url": "https://github.com/PrismarineJS/prismarinejs.github.io",
            "tags_url": "https://api.github.com/repos/PrismarineJS/prismarinejs.github.io/tags",
            "teams_url": "https://api.github.com/repos/PrismarineJS/prismarinejs.github.io/teams",
            "topics": [
                "github-pages",
                "html",
                "javascript",
                "js-org",
                "react"
            ],
            "trees_url": "https://api.github.com/repos/PrismarineJS/prismarinejs.github.io/git/trees{/sha}",
            "updated_at": "2023-04-05T19:25:01Z",
            "url": "https://api.github.com/repos/PrismarineJS/prismarinejs.github.io",
            "visibility": "public",
            "watchers": 9,
            "watchers_count": 9,
            "web_commit_signoff_required": false
        },
        "sha": "8de6a059b538a762f438fd8f32d4314281b99737",
        "user": {
            "avatar_url": "https://avatars.githubusercontent.com/u/11053411?v=4",
            "events_url": "https://api.github.com/users/PrismarineJS/events{/privacy}",
            "followers_url": "https://api.github.com/users/PrismarineJS/followers",
            "following_url": "https://api.github.com/users/PrismarineJS/following{/other_user}",
            "gists_url": "https://api.github.com/users/PrismarineJS/gists{/gist_id}",
            "gravatar_id": "",
            "html_url": "https://github.com/PrismarineJS",
            "id": 11053411,
            "login": "PrismarineJS",
            "node_id": "MDEyOk9yZ2FuaXphdGlvbjExMDUzNDEx",
            "organizations_url": "https://api.github.com/users/PrismarineJS/orgs",
            "received_events_url": "https://api.github.com/users/PrismarineJS/received_events",
            "repos_url": "https://api.github.com/users/PrismarineJS/repos",
            "site_admin": false,
            "starred_url": "https://api.github.com/users/PrismarineJS/starred{/owner}{/repo}",
            "subscriptions_url": "https://api.github.com/users/PrismarineJS/subscriptions",
            "type": "Organization",
            "url": "https://api.github.com/users/PrismarineJS"
        }
    },
    "html_url": "https://github.com/PrismarineJS/prismarinejs.github.io/pull/28",
    "id": 412716679,
    "issue_url": "https://api.github.com/repos/PrismarineJS/prismarinejs.github.io/issues/28",
    "labels": [],
    "locked": false,
    "maintainer_can_modify": false,
    "merge_commit_sha": "b2292c80bff8aa57f8f5d03f31b274d93b8afffa",
    "mergeable": false,
    "mergeable_state": "dirty",
    "merged": false,
    "merged_at": null,
    "merged_by": null,
    "milestone": null,
    "node_id": "MDExOlB1bGxSZXF1ZXN0NDEyNzE2Njc5",
    "number": 28,
    "patch_url": "https://github.com/PrismarineJS/prismarinejs.github.io/pull/28.patch",
    "rebaseable": false,
    "requested_reviewers": [],
    "requested_teams": [],
    "review_comment_url": "https://api.github.com/repos/PrismarineJS/prismarinejs.github.io/pulls/comments{/number}",
    "review_comments": 0,
    "review_comments_url": "https://api.github.com/repos/PrismarineJS/prismarinejs.github.io/pulls/28/comments",
    "state": "closed",
    "statuses_url": "https://api.github.com/repos/PrismarineJS/prismarinejs.github.io/statuses/8de6a059b538a762f438fd8f32d4314281b99737",
    "title": "[Snyk] Upgrade react-router-dom from 4.2.2 to 4.3.1",
    "updated_at": "2020-05-09T16:57:49Z",
    "url": "https://api.github.com/repos/PrismarineJS/prismarinejs.github.io/pulls/28",
    "user": {
        "avatar_url": "https://avatars.githubusercontent.com/u/19733683?v=4",
        "events_url": "https://api.github.com/users/snyk-bot/events{/privacy}",
        "followers_url": "https://api.github.com/users/snyk-bot/followers",
        "following_url": "https://api.github.com/users/snyk-bot/following{/other_user}",
        "gists_url": "https://api.github.com/users/snyk-bot/gists{/gist_id}",
        "gravatar_id": "",
        "html_url": "https://github.com/snyk-bot",
        "id": 19733683,
        "login": "snyk-bot",
        "node_id": "MDQ6VXNlcjE5NzMzNjgz",
        "organizations_url": "https://api.github.com/users/snyk-bot/orgs",
        "received_events_url": "https://api.github.com/users/snyk-bot/received_events",
        "repos_url": "https://api.github.com/users/snyk-bot/repos",
        "site_admin": false,
        "starred_url": "https://api.github.com/users/snyk-bot/starred{/owner}{/repo}",
        "subscriptions_url": "https://api.github.com/users/snyk-bot/subscriptions",
        "type": "User",
        "url": "https://api.github.com/users/snyk-bot"
    }
}