{
    "_links": {
        "comments": {
            "href": "https://api.github.com/repos/PrismarineJS/prismarinejs.github.io/issues/52/comments"
        },
        "commits": {
            "href": "https://api.github.com/repos/PrismarineJS/prismarinejs.github.io/pulls/52/commits"
        },
        "html": {
            "href": "https://github.com/PrismarineJS/prismarinejs.github.io/pull/52"
        },
        "issue": {
            "href": "https://api.github.com/repos/PrismarineJS/prismarinejs.github.io/issues/52"
        },
        "review_comment": {
            "href": "https://api.github.com/repos/PrismarineJS/prismarinejs.github.io/pulls/comments{/number}"
        },
        "review_comments": {
            "href": "https://api.github.com/repos/PrismarineJS/prismarinejs.github.io/pulls/52/comments"
        },
        "self": {
            "href": "https://api.github.com/repos/PrismarineJS/prismarinejs.github.io/pulls/52"
        },
        "statuses": {
            "href": "https://api.github.com/repos/PrismarineJS/prismarinejs.github.io/statuses/2089b2482fc69b841542f06106310b13e00c3563"
        }
    },
    "active_lock_reason": null,
    "additions": 11,
    "assignee": null,
    "assignees": [],
    "author_association": "CONTRIBUTOR",
    "auto_merge": null,
    "base": {
        "label": "PrismarineJS:src",
        "ref": "src",
        "repo": {
            "allow_forking": true,
            "archive_url": "https://api.github.com/repos/PrismarineJS/prismarinejs.github.io/{archive_format}{/ref}",
            "archived": false,
            "assignees_url": "https://api.github.com/repos/PrismarineJS/prismarinejs.github.io/assignees{/user}",
            "blobs_url": "https://api.github.com/repos/PrismarineJS/prismarinejs.github.io/git/blobs{/sha}",
            "branches_url": "https://api.github.com/repos/PrismarineJS/prismarinejs.github.io/branches{/branch}",
            "clone_url": "https://github.com/PrismarineJS/prismarinejs.github.io.git",
            "collaborators_url": "https://api.github.com/repos/PrismarineJS/prismarinejs.github.io/collaborators{/collaborator}",
            "comments_url": "https://api.github.com/repos/PrismarineJS/prismarinejs.github.io/comments{/number}",
            "commits_url": "https://api.github.com/repos/PrismarineJS/prismarinejs.github.io/commits{/sha}",
            "compare_url": "https://api.github.com/repos/PrismarineJS/prismarinejs.github.io/compare/{base}...{head}",
            "contents_url": "https://api.github.com/repos/PrismarineJS/prismarinejs.github.io/contents/{+path}",
            "contributors_url": "https://api.github.com/repos/PrismarineJS/prismarinejs.github.io/contributors",
            "created_at": "2015-02-23T23:08:27Z",
            "default_branch": "src",
            "deployments_url": "https://api.github.com/repos/PrismarineJS/prismarinejs.github.io/deployments",
            "description": "https://prismarinejs.github.io",
            "disabled": false,
            "downloads_url": "https://api.github.com/repos/PrismarineJS/prismarinejs.github.io/downloads",
            "events_url": "https://api.github.com/repos/PrismarineJS/prismarinejs.github.io/events",
            "fork": false,
            "forks": 5,
            "forks_count": 5,
            "forks_url": "https://api.github.com/repos/PrismarineJS/prismarinejs.github.io/forks",
            "full_name": "PrismarineJS/prismarinejs.github.io",
            "git_commits_url": "https://api.github.com/repos/PrismarineJS/prismarinejs.github.io/git/commits{/sha}",
            "git_refs_url": "https://api.github.com/repos/PrismarineJS/prismarinejs.github.io/git/refs{/sha}",
            "git_tags_url": "https://api.github.com/repos/PrismarineJS/prismarinejs.github.io/git/tags{/sha}",
            "git_url": "git://github.com/PrismarineJS/prismarinejs.github.io.git",
            "has_discussions": false,
            "has_downloads": true,
            "has_issues": true,
            "has_pages": true,
            "has_projects": true,
            "has_wiki": true,
            "homepage": "",
            "hooks_url": "https://api.github.com/repos/PrismarineJS/prismarinejs.github.io/hooks",
            "html_url": "https://github.com/PrismarineJS/prismarinejs.github.io",
            "id": 31234934,
            "is_template": false,
            "issue_comment_url": "https://api.github.com/repos/PrismarineJS/prismarinejs.github.io/issues/comments{/number}",
            "issue_events_url": "https://api.github.com/repos/PrismarineJS/prismarinejs.github.io/issues/events{/number}",
            "issues_url": "https://api.github.com/repos/PrismarineJS/prismarinejs.github.io/issues{/number}",
            "keys_url": "https://api.github.com/repos/PrismarineJS/prismarinejs.github.io/keys{/key_id}",
            "labels_url": "https://api.github.com/repos/PrismarineJS/prismarinejs.github.io/labels{/name}",
            "language": "JavaScript",
            "languages_url": "https://api.github.com/repos/PrismarineJS/prismarinejs.github.io/languages",
            "license": {
                "key": "mit",
                "name": "MIT License",
                "node_id": "MDc6TGljZW5zZTEz",
                "spdx_id": "MIT",
                "url": "https://api.github.com/licenses/mit"
            },
            "merges_url": "https://api.github.com/repos/PrismarineJS/prismarinejs.github.io/merges",
            "milestones_url": "https://api.github.com/repos/PrismarineJS/prismarinejs.github.io/milestones{/number}",
            "mirror_url": null,
            "name": "prismarinejs.github.io",
            "node_id": "MDEwOlJlcG9zaXRvcnkzMTIzNDkzNA==",
            "notifications_url": "https://api.github.com/repos/PrismarineJS/prismarinejs.github.io/notifications{?since,all,participating}",
            "open_issues": 8,
            "open_issues_count": 8,
            "owner": {
                "avatar_url": "https://avatars.githubusercontent.com/u/11053411?v=4",
                "events_url": "https://api.github.com/users/PrismarineJS/events{/privacy}",
                "followers_url": "https://api.github.com/users/PrismarineJS/followers",
                "following_url": "https://api.github.com/users/PrismarineJS/following{/other_user}",
                "gists_url": "https://api.github.com/users/PrismarineJS/gists{/gist_id}",
                "gravatar_id": "",
                "html_url": "https://github.com/PrismarineJS",
                "id": 11053411,
                "login": "PrismarineJS",
                "node_id": "MDEyOk9yZ2FuaXphdGlvbjExMDUzNDEx",
                "organizations_url": "https://api.github.com/users/PrismarineJS/orgs",
                "received_events_url": "https://api.github.com/users/PrismarineJS/received_events",
                "repos_url": "https://api.github.com/users/PrismarineJS/repos",
                "site_admin": false,
                "starred_url": "https://api.github.com/users/PrismarineJS/starred{/owner}{/repo}",
                "subscriptions_url": "https://api.github.com/users/PrismarineJS/subscriptions",
                "type": "Organization",
                "url": "https://api.github.com/users/PrismarineJS"
            },
            "private": false,
            "pulls_url": "https://api.github.com/repos/PrismarineJS/prismarinejs.github.io/pulls{/number}",
            "pushed_at": "2023-04-08T23:05:28Z",
            "releases_url": "https://api.github.com/repos/PrismarineJS/prismarinejs.github.io/releases{/id}",
            "size": 11198,
            "ssh_url": "git@github.com:PrismarineJS/prismarinejs.github.io.git",
            "stargazers_count": 9,
            "stargazers_url": "https://api.github.com/repos/PrismarineJS/prismarinejs.github.io/stargazers",
            "statuses_url": "https://api.github.com/repos/PrismarineJS/prismarinejs.github.io/statuses/{sha}",
            "subscribers_url": "https://api.github.com/repos/PrismarineJS/prismarinejs.github.io/subscribers",
            "subscription_url": "https://api.github.com/repos/PrismarineJS/prismarinejs.github.io/subscription",
            "svn_url": "https://github.com/PrismarineJS/prismarinejs.github.io",
            "tags_url": "https://api.github.com/repos/PrismarineJS/prismarinejs.github.io/tags",
            "teams_url": "https://api.github.com/repos/PrismarineJS/prismarinejs.github.io/teams",
            "topics": [
                "github-pages",
                "html",
                "javascript",
                "js-org",
                "react"
            ],
            "trees_url": "https://api.github.com/repos/PrismarineJS/prismarinejs.github.io/git/trees{/sha}",
            "updated_at": "2023-04-05T19:25:01Z",
            "url": "https://api.github.com/repos/PrismarineJS/prismarinejs.github.io",
            "visibility": "public",
            "watchers": 9,
            "watchers_count": 9,
            "web_commit_signoff_required": false
        },
        "sha": "c22f5fcb5159758cd64de3d303affa4f7d109ec5",
        "user": {
            "avatar_url": "https://avatars.githubusercontent.com/u/11053411?v=4",
            "events_url": "https://api.github.com/users/PrismarineJS/events{/privacy}",
            "followers_url": "https://api.github.com/users/PrismarineJS/followers",
            "following_url": "https://api.github.com/users/PrismarineJS/following{/other_user}",
            "gists_url": "https://api.github.com/users/PrismarineJS/gists{/gist_id}",
            "gravatar_id": "",
            "html_url": "https://github.com/PrismarineJS",
            "id": 11053411,
            "login": "PrismarineJS",
            "node_id": "MDEyOk9yZ2FuaXphdGlvbjExMDUzNDEx",
            "organizations_url": "https://api.github.com/users/PrismarineJS/orgs",
            "received_events_url": "https://api.github.com/users/PrismarineJS/received_events",
            "repos_url": "https://api.github.com/users/PrismarineJS/repos",
            "site_admin": false,
            "starred_url": "https://api.github.com/users/PrismarineJS/starred{/owner}{/repo}",
            "subscriptions_url": "https://api.github.com/users/PrismarineJS/subscriptions",
            "type": "Organization",
            "url": "https://api.github.com/users/PrismarineJS"
        }
    },
    "body": "_Dependabot Preview will be shut down on August 3rd, 2021. In order to keep getting Dependabot updates, please merge this PR and migrate to GitHub-native Dependabot before then._\n\nDependabot has been fully integrated into GitHub, so you no longer have to install and manage a separate app. This pull request migrates your configuration from Dependabot.com to a config file, using the [new syntax][new_syntax]. When merged, we'll swap out `dependabot-preview` (me) for a new `dependabot` app, and you'll be all set!\n\nWith this change, you'll now use the [Dependabot page in GitHub][dependabot_page], rather than the [Dependabot dashboard][dashboard], to monitor your version updates, and you'll configure Dependabot through the new config file rather than a UI.\n\n\n\n\n\n\n\nIf you've got any questions or feedback for us, please let us know by creating an issue in the [dependabot/dependabot-core][issues] repository.\n\n[Learn more about migrating to GitHub-native Dependabot][learn]\n\nPlease note that regular `@dependabot` commands do not work on this pull request.\n\n[dashboard]: https://app.dependabot.com/\n[dependabot_page]: https://github.com/PrismarineJS/prismarinejs.github.io/network/updates\n[issues]: https://github.com/dependabot/dependabot-core/issues/new?assignees=%40dependabot%2Fpreview-migration-reviewers&labels=E%3A+preview-migration&template=migration-issue.md\n[learn]: http://docs.github.com/code-security/supply-chain-security/upgrading-from-dependabotcom-to-github-native-dependabot\n[new_syntax]: https://help.github.com/en/github/administering-a-repository/configuration-options-for-dependency-updates\n[org_secrets_url]: https://github.com/organizations/PrismarineJS/settings/secrets/dependabot\n[repo_secrets_url]: https://github.com/PrismarineJS/prismarinejs.github.io/settings/secrets/dependabot\n",
    "changed_files": 1,
    "closed_at": "2021-05-01T23:03:29Z",
    "comment_data": [],
    "comment_regular_data": [],
    "comments": 0,
    "comments_url": "https://api.github.com/repos/PrismarineJS/prismarinejs.github.io/issues/52/comments",
    "commit_data": [
        {
            "author": {
                "avatar_url": "https://avatars.githubusercontent.com/in/2141?v=4",
                "events_url": "https://api.github.com/users/dependabot-preview%5Bbot%5D/events{/privacy}",
                "followers_url": "https://api.github.com/users/dependabot-preview%5Bbot%5D/followers",
                "following_url": "https://api.github.com/users/dependabot-preview%5Bbot%5D/following{/other_user}",
                "gists_url": "https://api.github.com/users/dependabot-preview%5Bbot%5D/gists{/gist_id}",
                "gravatar_id": "",
                "html_url": "https://github.com/apps/dependabot-preview",
                "id": 27856297,
                "login": "dependabot-preview[bot]",
                "node_id": "MDM6Qm90Mjc4NTYyOTc=",
                "organizations_url": "https://api.github.com/users/dependabot-preview%5Bbot%5D/orgs",
                "received_events_url": "https://api.github.com/users/dependabot-preview%5Bbot%5D/received_events",
                "repos_url": "https://api.github.com/users/dependabot-preview%5Bbot%5D/repos",
                "site_admin": false,
                "starred_url": "https://api.github.com/users/dependabot-preview%5Bbot%5D/starred{/owner}{/repo}",
                "subscriptions_url": "https://api.github.com/users/dependabot-preview%5Bbot%5D/subscriptions",
                "type": "Bot",
                "url": "https://api.github.com/users/dependabot-preview%5Bbot%5D"
            },
            "comments_url": "https://api.github.com/repos/PrismarineJS/prismarinejs.github.io/commits/2089b2482fc69b841542f06106310b13e00c3563/comments",
            "commit": {
                "author": {
                    "date": "2021-04-29T21:35:48Z",
                    "email": "27856297+dependabot-preview[bot]@users.noreply.github.com",
                    "name": "dependabot-preview[bot]"
                },
                "comment_count": 0,
                "committer": {
                    "date": "2021-04-29T21:35:48Z",
                    "email": "noreply@github.com",
                    "name": "GitHub"
                },
                "message": "Upgrade to GitHub-native Dependabot",
                "tree": {
                    "sha": "f9a6538d3fa8a0c11ea0a3987c6a11dfd793521d",
                    "url": "https://api.github.com/repos/PrismarineJS/prismarinejs.github.io/git/trees/f9a6538d3fa8a0c11ea0a3987c6a11dfd793521d"
                },
                "url": "https://api.github.com/repos/PrismarineJS/prismarinejs.github.io/git/commits/2089b2482fc69b841542f06106310b13e00c3563",
                "verification": {
                    "payload": "tree f9a6538d3fa8a0c11ea0a3987c6a11dfd793521d\nparent c22f5fcb5159758cd64de3d303affa4f7d109ec5\nauthor dependabot-preview[bot] <27856297+dependabot-preview[bot]@users.noreply.github.com> 1619732148 +0000\ncommitter GitHub <noreply@github.com> 1619732148 +0000\n\nUpgrade to GitHub-native Dependabot",
                    "reason": "valid",
                    "signature": "-----BEGIN PGP SIGNATURE-----\n\nwsBcBAABCAAQBQJgiya0CRBK7hj4Ov3rIwAAfu0IAIFo2/2Z9ZC4Uj1JuphhyC27\nmm1aAYHuGGMkhh6P+uW8tJb2Z9eUbOrL7v5moOzLk9ZTIOIPBvfkkt4hx4MWXWNs\nlRfJHxbt8lfqKe6nFeEW+xRjDsCN+OMzFHNpf6DL96Xfl2U3dllJ8DSBJQ/J2HkB\nzhCefsCQx8dlI/9TbXA1FXBDaQy2XIUk5KLct2X6RSttdo0UvM5JY1Eq+18vy+UW\n179Y3Odd8UVR3AmX4LEKCl78dpqZG+Yu4ULtTjl6fKl7NyXS6fU+RVvJikmfQeHg\npcu4Su3InhTt8Ffukw2oOzDeh/TrdVxHRCDSaTqJwtivS7/iBNKiYYz1Zwf9WG8=\n=Ja86\n-----END PGP SIGNATURE-----\n",
                    "verified": true
                }
            },
            "committer": {
                "avatar_url": "https://avatars.githubusercontent.com/u/19864447?v=4",
                "events_url": "https://api.github.com/users/web-flow/events{/privacy}",
                "followers_url": "https://api.github.com/users/web-flow/followers",
                "following_url": "https://api.github.com/users/web-flow/following{/other_user}",
                "gists_url": "https://api.github.com/users/web-flow/gists{/gist_id}",
                "gravatar_id": "",
                "html_url": "https://github.com/web-flow",
                "id": 19864447,
                "login": "web-flow",
                "node_id": "MDQ6VXNlcjE5ODY0NDQ3",
                "organizations_url": "https://api.github.com/users/web-flow/orgs",
                "received_events_url": "https://api.github.com/users/web-flow/received_events",
                "repos_url": "https://api.github.com/users/web-flow/repos",
                "site_admin": false,
                "starred_url": "https://api.github.com/users/web-flow/starred{/owner}{/repo}",
                "subscriptions_url": "https://api.github.com/users/web-flow/subscriptions",
                "type": "User",
                "url": "https://api.github.com/users/web-flow"
            },
            "html_url": "https://github.com/PrismarineJS/prismarinejs.github.io/commit/2089b2482fc69b841542f06106310b13e00c3563",
            "node_id": "MDY6Q29tbWl0MzEyMzQ5MzQ6MjA4OWIyNDgyZmM2OWI4NDE1NDJmMDYxMDYzMTBiMTNlMDBjMzU2Mw==",
            "parents": [
                {
                    "html_url": "https://github.com/PrismarineJS/prismarinejs.github.io/commit/c22f5fcb5159758cd64de3d303affa4f7d109ec5",
                    "sha": "c22f5fcb5159758cd64de3d303affa4f7d109ec5",
                    "url": "https://api.github.com/repos/PrismarineJS/prismarinejs.github.io/commits/c22f5fcb5159758cd64de3d303affa4f7d109ec5"
                }
            ],
            "sha": "2089b2482fc69b841542f06106310b13e00c3563",
            "url": "https://api.github.com/repos/PrismarineJS/prismarinejs.github.io/commits/2089b2482fc69b841542f06106310b13e00c3563"
        }
    ],
    "commits": 1,
    "commits_url": "https://api.github.com/repos/PrismarineJS/prismarinejs.github.io/pulls/52/commits",
    "created_at": "2021-04-29T21:35:50Z",
    "deletions": 0,
    "diff_url": "https://github.com/PrismarineJS/prismarinejs.github.io/pull/52.diff",
    "draft": false,
    "head": {
        "label": "PrismarineJS:dependabot/add-v2-config-file",
        "ref": "dependabot/add-v2-config-file",
        "repo": {
            "allow_forking": true,
            "archive_url": "https://api.github.com/repos/PrismarineJS/prismarinejs.github.io/{archive_format}{/ref}",
            "archived": false,
            "assignees_url": "https://api.github.com/repos/PrismarineJS/prismarinejs.github.io/assignees{/user}",
            "blobs_url": "https://api.github.com/repos/PrismarineJS/prismarinejs.github.io/git/blobs{/sha}",
            "branches_url": "https://api.github.com/repos/PrismarineJS/prismarinejs.github.io/branches{/branch}",
            "clone_url": "https://github.com/PrismarineJS/prismarinejs.github.io.git",
            "collaborators_url": "https://api.github.com/repos/PrismarineJS/prismarinejs.github.io/collaborators{/collaborator}",
            "comments_url": "https://api.github.com/repos/PrismarineJS/prismarinejs.github.io/comments{/number}",
            "commits_url": "https://api.github.com/repos/PrismarineJS/prismarinejs.github.io/commits{/sha}",
            "compare_url": "https://api.github.com/repos/PrismarineJS/prismarinejs.github.io/compare/{base}...{head}",
            "contents_url": "https://api.github.com/repos/PrismarineJS/prismarinejs.github.io/contents/{+path}",
            "contributors_url": "https://api.github.com/repos/PrismarineJS/prismarinejs.github.io/contributors",
            "created_at": "2015-02-23T23:08:27Z",
            "default_branch": "src",
            "deployments_url": "https://api.github.com/repos/PrismarineJS/prismarinejs.github.io/deployments",
            "description": "https://prismarinejs.github.io",
            "disabled": false,
            "downloads_url": "https://api.github.com/repos/PrismarineJS/prismarinejs.github.io/downloads",
            "events_url": "https://api.github.com/repos/PrismarineJS/prismarinejs.github.io/events",
            "fork": false,
            "forks": 5,
            "forks_count": 5,
            "forks_url": "https://api.github.com/repos/PrismarineJS/prismarinejs.github.io/forks",
            "full_name": "PrismarineJS/prismarinejs.github.io",
            "git_commits_url": "https://api.github.com/repos/PrismarineJS/prismarinejs.github.io/git/commits{/sha}",
            "git_refs_url": "https://api.github.com/repos/PrismarineJS/prismarinejs.github.io/git/refs{/sha}",
            "git_tags_url": "https://api.github.com/repos/PrismarineJS/prismarinejs.github.io/git/tags{/sha}",
            "git_url": "git://github.com/PrismarineJS/prismarinejs.github.io.git",
            "has_discussions": false,
            "has_downloads": true,
            "has_issues": true,
            "has_pages": true,
            "has_projects": true,
            "has_wiki": true,
            "homepage": "",
            "hooks_url": "https://api.github.com/repos/PrismarineJS/prismarinejs.github.io/hooks",
            "html_url": "https://github.com/PrismarineJS/prismarinejs.github.io",
            "id": 31234934,
            "is_template": false,
            "issue_comment_url": "https://api.github.com/repos/PrismarineJS/prismarinejs.github.io/issues/comments{/number}",
            "issue_events_url": "https://api.github.com/repos/PrismarineJS/prismarinejs.github.io/issues/events{/number}",
            "issues_url": "https://api.github.com/repos/PrismarineJS/prismarinejs.github.io/issues{/number}",
            "keys_url": "https://api.github.com/repos/PrismarineJS/prismarinejs.github.io/keys{/key_id}",
            "labels_url": "https://api.github.com/repos/PrismarineJS/prismarinejs.github.io/labels{/name}",
            "language": "JavaScript",
            "languages_url": "https://api.github.com/repos/PrismarineJS/prismarinejs.github.io/languages",
            "license": {
                "key": "mit",
                "name": "MIT License",
                "node_id": "MDc6TGljZW5zZTEz",
                "spdx_id": "MIT",
                "url": "https://api.github.com/licenses/mit"
            },
            "merges_url": "https://api.github.com/repos/PrismarineJS/prismarinejs.github.io/merges",
            "milestones_url": "https://api.github.com/repos/PrismarineJS/prismarinejs.github.io/milestones{/number}",
            "mirror_url": null,
            "name": "prismarinejs.github.io",
            "node_id": "MDEwOlJlcG9zaXRvcnkzMTIzNDkzNA==",
            "notifications_url": "https://api.github.com/repos/PrismarineJS/prismarinejs.github.io/notifications{?since,all,participating}",
            "open_issues": 8,
            "open_issues_count": 8,
            "owner": {
                "avatar_url": "https://avatars.githubusercontent.com/u/11053411?v=4",
                "events_url": "https://api.github.com/users/PrismarineJS/events{/privacy}",
                "followers_url": "https://api.github.com/users/PrismarineJS/followers",
                "following_url": "https://api.github.com/users/PrismarineJS/following{/other_user}",
                "gists_url": "https://api.github.com/users/PrismarineJS/gists{/gist_id}",
                "gravatar_id": "",
                "html_url": "https://github.com/PrismarineJS",
                "id": 11053411,
                "login": "PrismarineJS",
                "node_id": "MDEyOk9yZ2FuaXphdGlvbjExMDUzNDEx",
                "organizations_url": "https://api.github.com/users/PrismarineJS/orgs",
                "received_events_url": "https://api.github.com/users/PrismarineJS/received_events",
                "repos_url": "https://api.github.com/users/PrismarineJS/repos",
                "site_admin": false,
                "starred_url": "https://api.github.com/users/PrismarineJS/starred{/owner}{/repo}",
                "subscriptions_url": "https://api.github.com/users/PrismarineJS/subscriptions",
                "type": "Organization",
                "url": "https://api.github.com/users/PrismarineJS"
            },
            "private": false,
            "pulls_url": "https://api.github.com/repos/PrismarineJS/prismarinejs.github.io/pulls{/number}",
            "pushed_at": "2023-04-08T23:05:28Z",
            "releases_url": "https://api.github.com/repos/PrismarineJS/prismarinejs.github.io/releases{/id}",
            "size": 11198,
            "ssh_url": "git@github.com:PrismarineJS/prismarinejs.github.io.git",
            "stargazers_count": 9,
            "stargazers_url": "https://api.github.com/repos/PrismarineJS/prismarinejs.github.io/stargazers",
            "statuses_url": "https://api.github.com/repos/PrismarineJS/prismarinejs.github.io/statuses/{sha}",
            "subscribers_url": "https://api.github.com/repos/PrismarineJS/prismarinejs.github.io/subscribers",
            "subscription_url": "https://api.github.com/repos/PrismarineJS/prismarinejs.github.io/subscription",
            "svn_url": "https://github.com/PrismarineJS/prismarinejs.github.io",
            "tags_url": "https://api.github.com/repos/PrismarineJS/prismarinejs.github.io/tags",
            "teams_url": "https://api.github.com/repos/PrismarineJS/prismarinejs.github.io/teams",
            "topics": [
                "github-pages",
                "html",
                "javascript",
                "js-org",
                "react"
            ],
            "trees_url": "https://api.github.com/repos/PrismarineJS/prismarinejs.github.io/git/trees{/sha}",
            "updated_at": "2023-04-05T19:25:01Z",
            "url": "https://api.github.com/repos/PrismarineJS/prismarinejs.github.io",
            "visibility": "public",
            "watchers": 9,
            "watchers_count": 9,
            "web_commit_signoff_required": false
        },
        "sha": "2089b2482fc69b841542f06106310b13e00c3563",
        "user": {
            "avatar_url": "https://avatars.githubusercontent.com/u/11053411?v=4",
            "events_url": "https://api.github.com/users/PrismarineJS/events{/privacy}",
            "followers_url": "https://api.github.com/users/PrismarineJS/followers",
            "following_url": "https://api.github.com/users/PrismarineJS/following{/other_user}",
            "gists_url": "https://api.github.com/users/PrismarineJS/gists{/gist_id}",
            "gravatar_id": "",
            "html_url": "https://github.com/PrismarineJS",
            "id": 11053411,
            "login": "PrismarineJS",
            "node_id": "MDEyOk9yZ2FuaXphdGlvbjExMDUzNDEx",
            "organizations_url": "https://api.github.com/users/PrismarineJS/orgs",
            "received_events_url": "https://api.github.com/users/PrismarineJS/received_events",
            "repos_url": "https://api.github.com/users/PrismarineJS/repos",
            "site_admin": false,
            "starred_url": "https://api.github.com/users/PrismarineJS/starred{/owner}{/repo}",
            "subscriptions_url": "https://api.github.com/users/PrismarineJS/subscriptions",
            "type": "Organization",
            "url": "https://api.github.com/users/PrismarineJS"
        }
    },
    "html_url": "https://github.com/PrismarineJS/prismarinejs.github.io/pull/52",
    "id": 626568156,
    "issue_url": "https://api.github.com/repos/PrismarineJS/prismarinejs.github.io/issues/52",
    "labels": [
        {
            "color": "0366d6",
            "default": false,
            "description": "Pull requests that update a dependency file",
            "id": 1522427984,
            "name": "dependencies",
            "node_id": "MDU6TGFiZWwxNTIyNDI3OTg0",
            "url": "https://api.github.com/repos/PrismarineJS/prismarinejs.github.io/labels/dependencies"
        }
    ],
    "locked": false,
    "maintainer_can_modify": false,
    "merge_commit_sha": "a829511d7f5a44f49daf003e3af8341a911af5b1",
    "mergeable": null,
    "mergeable_state": "unknown",
    "merged": true,
    "merged_at": "2021-05-01T23:03:29Z",
    "merged_by": {
        "avatar_url": "https://avatars.githubusercontent.com/u/2346494?v=4",
        "events_url": "https://api.github.com/users/rom1504/events{/privacy}",
        "followers_url": "https://api.github.com/users/rom1504/followers",
        "following_url": "https://api.github.com/users/rom1504/following{/other_user}",
        "gists_url": "https://api.github.com/users/rom1504/gists{/gist_id}",
        "gravatar_id": "",
        "html_url": "https://github.com/rom1504",
        "id": 2346494,
        "login": "rom1504",
        "node_id": "MDQ6VXNlcjIzNDY0OTQ=",
        "organizations_url": "https://api.github.com/users/rom1504/orgs",
        "received_events_url": "https://api.github.com/users/rom1504/received_events",
        "repos_url": "https://api.github.com/users/rom1504/repos",
        "site_admin": false,
        "starred_url": "https://api.github.com/users/rom1504/starred{/owner}{/repo}",
        "subscriptions_url": "https://api.github.com/users/rom1504/subscriptions",
        "type": "User",
        "url": "https://api.github.com/users/rom1504"
    },
    "milestone": null,
    "node_id": "MDExOlB1bGxSZXF1ZXN0NjI2NTY4MTU2",
    "number": 52,
    "patch_url": "https://github.com/PrismarineJS/prismarinejs.github.io/pull/52.patch",
    "rebaseable": null,
    "requested_reviewers": [],
    "requested_teams": [],
    "review_comment_url": "https://api.github.com/repos/PrismarineJS/prismarinejs.github.io/pulls/comments{/number}",
    "review_comments": 0,
    "review_comments_url": "https://api.github.com/repos/PrismarineJS/prismarinejs.github.io/pulls/52/comments",
    "state": "closed",
    "statuses_url": "https://api.github.com/repos/PrismarineJS/prismarinejs.github.io/statuses/2089b2482fc69b841542f06106310b13e00c3563",
    "title": "Upgrade to GitHub-native Dependabot",
    "updated_at": "2021-05-01T23:03:29Z",
    "url": "https://api.github.com/repos/PrismarineJS/prismarinejs.github.io/pulls/52",
    "user": {
        "avatar_url": "https://avatars.githubusercontent.com/in/2141?v=4",
        "events_url": "https://api.github.com/users/dependabot-preview%5Bbot%5D/events{/privacy}",
        "followers_url": "https://api.github.com/users/dependabot-preview%5Bbot%5D/followers",
        "following_url": "https://api.github.com/users/dependabot-preview%5Bbot%5D/following{/other_user}",
        "gists_url": "https://api.github.com/users/dependabot-preview%5Bbot%5D/gists{/gist_id}",
        "gravatar_id": "",
        "html_url": "https://github.com/apps/dependabot-preview",
        "id": 27856297,
        "login": "dependabot-preview[bot]",
        "node_id": "MDM6Qm90Mjc4NTYyOTc=",
        "organizations_url": "https://api.github.com/users/dependabot-preview%5Bbot%5D/orgs",
        "received_events_url": "https://api.github.com/users/dependabot-preview%5Bbot%5D/received_events",
        "repos_url": "https://api.github.com/users/dependabot-preview%5Bbot%5D/repos",
        "site_admin": false,
        "starred_url": "https://api.github.com/users/dependabot-preview%5Bbot%5D/starred{/owner}{/repo}",
        "subscriptions_url": "https://api.github.com/users/dependabot-preview%5Bbot%5D/subscriptions",
        "type": "Bot",
        "url": "https://api.github.com/users/dependabot-preview%5Bbot%5D"
    }
}