{
    "active_lock_reason": null,
    "assignee": null,
    "assignees": [],
    "author_association": "CONTRIBUTOR",
    "body": "If you dig a block and collect the pink block that appears, your inventory increases by one.\r\n\r\nBut if you place that block, your inventory remains the same on the client even though it decreases on the server.\r\n\r\nFor example, if you dig and collect three dirt, and then you place all your dirt, say, then the client still thinks you have three, but the server knows the true state of the world, and won't place more.\r\n\r\nIf you then dig one dirt, the client inventory is changed to 1.",
    "closed_at": null,
    "comment_data": [],
    "comments": 0,
    "comments_url": "https://api.github.com/repos/PrismarineJS/prismarine-web-client/issues/320/comments",
    "created_at": "2022-07-31T16:54:34Z",
    "event_data": [
        {
            "actor": {
                "avatar_url": "https://avatars.githubusercontent.com/u/2346494?v=4",
                "events_url": "https://api.github.com/users/rom1504/events{/privacy}",
                "followers_url": "https://api.github.com/users/rom1504/followers",
                "following_url": "https://api.github.com/users/rom1504/following{/other_user}",
                "gists_url": "https://api.github.com/users/rom1504/gists{/gist_id}",
                "gravatar_id": "",
                "html_url": "https://github.com/rom1504",
                "id": 2346494,
                "login": "rom1504",
                "node_id": "MDQ6VXNlcjIzNDY0OTQ=",
                "organizations_url": "https://api.github.com/users/rom1504/orgs",
                "received_events_url": "https://api.github.com/users/rom1504/received_events",
                "repos_url": "https://api.github.com/users/rom1504/repos",
                "site_admin": false,
                "starred_url": "https://api.github.com/users/rom1504/starred{/owner}{/repo}",
                "subscriptions_url": "https://api.github.com/users/rom1504/subscriptions",
                "type": "User",
                "url": "https://api.github.com/users/rom1504"
            },
            "commit_id": null,
            "commit_url": null,
            "created_at": "2023-12-17T23:00:25Z",
            "event": "labeled",
            "id": 11269524679,
            "label": {
                "color": "d73a4a",
                "name": "bug"
            },
            "node_id": "LE_lADOFHEu6c5O40qezwAAAAKft0zH",
            "performed_via_github_app": null,
            "url": "https://api.github.com/repos/PrismarineJS/prismarine-web-client/issues/events/11269524679"
        }
    ],
    "events_url": "https://api.github.com/repos/PrismarineJS/prismarine-web-client/issues/320/events",
    "html_url": "https://github.com/PrismarineJS/prismarine-web-client/issues/320",
    "id": 1323518622,
    "labels": [
        {
            "color": "d73a4a",
            "default": true,
            "description": "Something isn't working",
            "id": 2778457261,
            "name": "bug",
            "node_id": "MDU6TGFiZWwyNzc4NDU3MjYx",
            "url": "https://api.github.com/repos/PrismarineJS/prismarine-web-client/labels/bug"
        }
    ],
    "labels_url": "https://api.github.com/repos/PrismarineJS/prismarine-web-client/issues/320/labels{/name}",
    "locked": false,
    "milestone": null,
    "node_id": "I_kwDOFHEu6c5O40qe",
    "number": 320,
    "performed_via_github_app": null,
    "reactions": {
        "+1": 0,
        "-1": 0,
        "confused": 0,
        "eyes": 0,
        "heart": 0,
        "hooray": 0,
        "laugh": 0,
        "rocket": 0,
        "total_count": 0,
        "url": "https://api.github.com/repos/PrismarineJS/prismarine-web-client/issues/320/reactions"
    },
    "repository_url": "https://api.github.com/repos/PrismarineJS/prismarine-web-client",
    "state": "open",
    "state_reason": null,
    "timeline_url": "https://api.github.com/repos/PrismarineJS/prismarine-web-client/issues/320/timeline",
    "title": "Inventory updated on digging and collecting but not on placing",
    "updated_at": "2023-12-17T23:00:25Z",
    "url": "https://api.github.com/repos/PrismarineJS/prismarine-web-client/issues/320",
    "user": {
        "avatar_url": "https://avatars.githubusercontent.com/u/25053735?v=4",
        "events_url": "https://api.github.com/users/kf106/events{/privacy}",
        "followers_url": "https://api.github.com/users/kf106/followers",
        "following_url": "https://api.github.com/users/kf106/following{/other_user}",
        "gists_url": "https://api.github.com/users/kf106/gists{/gist_id}",
        "gravatar_id": "",
        "html_url": "https://github.com/kf106",
        "id": 25053735,
        "login": "kf106",
        "node_id": "MDQ6VXNlcjI1MDUzNzM1",
        "organizations_url": "https://api.github.com/users/kf106/orgs",
        "received_events_url": "https://api.github.com/users/kf106/received_events",
        "repos_url": "https://api.github.com/users/kf106/repos",
        "site_admin": false,
        "starred_url": "https://api.github.com/users/kf106/starred{/owner}{/repo}",
        "subscriptions_url": "https://api.github.com/users/kf106/subscriptions",
        "type": "User",
        "url": "https://api.github.com/users/kf106"
    }
}