{
    "active_lock_reason": null,
    "assignee": null,
    "assignees": [],
    "author_association": "NONE",
    "body": "The Web Client Shows Only Black Nothing Else https://prismarinejs.github.io/prismarine-web-client/",
    "closed_at": "2023-12-17T23:01:32Z",
    "comment_data": [
        {
            "author_association": "MEMBER",
            "body": "Try https://d60kl4rmeuiuq.cloudfront.net/",
            "created_at": "2023-08-02T23:26:15Z",
            "html_url": "https://github.com/PrismarineJS/prismarine-web-client/issues/349#issuecomment-1663092321",
            "id": 1663092321,
            "issue_url": "https://api.github.com/repos/PrismarineJS/prismarine-web-client/issues/349",
            "node_id": "IC_kwDOFHEu6c5jIMZh",
            "performed_via_github_app": null,
            "reactions": {
                "+1": 0,
                "-1": 0,
                "confused": 0,
                "eyes": 0,
                "heart": 0,
                "hooray": 0,
                "laugh": 0,
                "rocket": 0,
                "total_count": 0,
                "url": "https://api.github.com/repos/PrismarineJS/prismarine-web-client/issues/comments/1663092321/reactions"
            },
            "updated_at": "2023-08-02T23:26:15Z",
            "url": "https://api.github.com/repos/PrismarineJS/prismarine-web-client/issues/comments/1663092321",
            "user": {
                "avatar_url": "https://avatars.githubusercontent.com/u/13713600?v=4",
                "events_url": "https://api.github.com/users/extremeheat/events{/privacy}",
                "followers_url": "https://api.github.com/users/extremeheat/followers",
                "following_url": "https://api.github.com/users/extremeheat/following{/other_user}",
                "gists_url": "https://api.github.com/users/extremeheat/gists{/gist_id}",
                "gravatar_id": "",
                "html_url": "https://github.com/extremeheat",
                "id": 13713600,
                "login": "extremeheat",
                "node_id": "MDQ6VXNlcjEzNzEzNjAw",
                "organizations_url": "https://api.github.com/users/extremeheat/orgs",
                "received_events_url": "https://api.github.com/users/extremeheat/received_events",
                "repos_url": "https://api.github.com/users/extremeheat/repos",
                "site_admin": false,
                "starred_url": "https://api.github.com/users/extremeheat/starred{/owner}{/repo}",
                "subscriptions_url": "https://api.github.com/users/extremeheat/subscriptions",
                "type": "User",
                "url": "https://api.github.com/users/extremeheat"
            }
        },
        {
            "author_association": "NONE",
            "body": "still\r\nNo Work",
            "created_at": "2023-08-13T23:06:18Z",
            "html_url": "https://github.com/PrismarineJS/prismarine-web-client/issues/349#issuecomment-1676488741",
            "id": 1676488741,
            "issue_url": "https://api.github.com/repos/PrismarineJS/prismarine-web-client/issues/349",
            "node_id": "IC_kwDOFHEu6c5j7TAl",
            "performed_via_github_app": null,
            "reactions": {
                "+1": 0,
                "-1": 0,
                "confused": 0,
                "eyes": 0,
                "heart": 0,
                "hooray": 0,
                "laugh": 0,
                "rocket": 0,
                "total_count": 0,
                "url": "https://api.github.com/repos/PrismarineJS/prismarine-web-client/issues/comments/1676488741/reactions"
            },
            "updated_at": "2023-08-13T23:06:18Z",
            "url": "https://api.github.com/repos/PrismarineJS/prismarine-web-client/issues/comments/1676488741",
            "user": {
                "avatar_url": "https://avatars.githubusercontent.com/u/136919529?v=4",
                "events_url": "https://api.github.com/users/Lostguestsneeze/events{/privacy}",
                "followers_url": "https://api.github.com/users/Lostguestsneeze/followers",
                "following_url": "https://api.github.com/users/Lostguestsneeze/following{/other_user}",
                "gists_url": "https://api.github.com/users/Lostguestsneeze/gists{/gist_id}",
                "gravatar_id": "",
                "html_url": "https://github.com/Lostguestsneeze",
                "id": 136919529,
                "login": "Lostguestsneeze",
                "node_id": "U_kgDOCCk56Q",
                "organizations_url": "https://api.github.com/users/Lostguestsneeze/orgs",
                "received_events_url": "https://api.github.com/users/Lostguestsneeze/received_events",
                "repos_url": "https://api.github.com/users/Lostguestsneeze/repos",
                "site_admin": false,
                "starred_url": "https://api.github.com/users/Lostguestsneeze/starred{/owner}{/repo}",
                "subscriptions_url": "https://api.github.com/users/Lostguestsneeze/subscriptions",
                "type": "User",
                "url": "https://api.github.com/users/Lostguestsneeze"
            }
        },
        {
            "author_association": "CONTRIBUTOR",
            "body": "> No Work\r\n\r\nHi! I have added cypress visual testing to ensure deploying webpage can render scene (prismarine-viewer) properly: https://github.com/zardoy/prismarine-web-client",
            "created_at": "2023-08-28T09:57:19Z",
            "html_url": "https://github.com/PrismarineJS/prismarine-web-client/issues/349#issuecomment-1695397151",
            "id": 1695397151,
            "issue_url": "https://api.github.com/repos/PrismarineJS/prismarine-web-client/issues/349",
            "node_id": "IC_kwDOFHEu6c5lDbUf",
            "performed_via_github_app": null,
            "reactions": {
                "+1": 0,
                "-1": 0,
                "confused": 0,
                "eyes": 0,
                "heart": 0,
                "hooray": 0,
                "laugh": 0,
                "rocket": 0,
                "total_count": 0,
                "url": "https://api.github.com/repos/PrismarineJS/prismarine-web-client/issues/comments/1695397151/reactions"
            },
            "updated_at": "2023-08-28T09:57:59Z",
            "url": "https://api.github.com/repos/PrismarineJS/prismarine-web-client/issues/comments/1695397151",
            "user": {
                "avatar_url": "https://avatars.githubusercontent.com/u/46503702?v=4",
                "events_url": "https://api.github.com/users/zardoy/events{/privacy}",
                "followers_url": "https://api.github.com/users/zardoy/followers",
                "following_url": "https://api.github.com/users/zardoy/following{/other_user}",
                "gists_url": "https://api.github.com/users/zardoy/gists{/gist_id}",
                "gravatar_id": "",
                "html_url": "https://github.com/zardoy",
                "id": 46503702,
                "login": "zardoy",
                "node_id": "MDQ6VXNlcjQ2NTAzNzAy",
                "organizations_url": "https://api.github.com/users/zardoy/orgs",
                "received_events_url": "https://api.github.com/users/zardoy/received_events",
                "repos_url": "https://api.github.com/users/zardoy/repos",
                "site_admin": false,
                "starred_url": "https://api.github.com/users/zardoy/starred{/owner}{/repo}",
                "subscriptions_url": "https://api.github.com/users/zardoy/subscriptions",
                "type": "User",
                "url": "https://api.github.com/users/zardoy"
            }
        },
        {
            "author_association": "NONE",
            "body": "In the console it gives this error about the wrong node version on the server:\r\nindex.js?896bae8a75c9913a668b:179 The AudioContext was not allowed to start. It must be resumed (or created) after a user gesture on the page. https://goo.gl/7K7WLu\r\n9195 @ index.js?896bae8a75c9913a668b:179\r\n__webpack_require__ @ index.js?896bae8a75c9913a668b:1564\r\n(anonymous) @ index.js?896bae8a75c9913a668b:1564\r\n(anonymous) @ index.js?896bae8a75c9913a668b:1564\r\n(anonymous) @ index.js?896bae8a75c9913a668b:1564\r\nindex.js?896bae8a75c9913a668b:1564 Your node version is currently 14.0.0\r\n11313 @ index.js?896bae8a75c9913a668b:1564\r\n__webpack_require__ @ index.js?896bae8a75c9913a668b:1564\r\n(anonymous) @ index.js?896bae8a75c9913a668b:1564\r\n(anonymous) @ index.js?896bae8a75c9913a668b:1564\r\n(anonymous) @ index.js?896bae8a75c9913a668b:1564\r\nindex.js?896bae8a75c9913a668b:1564 Please update it to a version >= 18.x.x from https://nodejs.org/\r\n11313 @ index.js?896bae8a75c9913a668b:1564\r\n__webpack_require__ @ index.js?896bae8a75c9913a668b:1564\r\n(anonymous) @ index.js?896bae8a75c9913a668b:1564\r\n(anonymous) @ index.js?896bae8a75c9913a668b:1564\r\n(anonymous) @ index.js?896bae8a75c9913a668b:1564\r\nindex.js?896bae8a75c9913a668b:1564 Uncaught TypeError: i.exit is not a function\r\n    at 11313 (index.js?896bae8a75c9913a668b:1564:1203964)\r\n    at __webpack_require__ (index.js?896bae8a75c9913a668b:1564:26507217)\r\n    at index.js?896bae8a75c9913a668b:1564:26508704\r\n    at index.js?896bae8a75c9913a668b:1564:26517339\r\n    at index.js?896bae8a75c9913a668b:1564:26517343\r\n11313 @ index.js?896bae8a75c9913a668b:1564\r\n__webpack_require__ @ index.js?896bae8a75c9913a668b:1564\r\n(anonymous) @ index.js?896bae8a75c9913a668b:1564\r\n(anonymous) @ index.js?896bae8a75c9913a668b:1564\r\n(anonymous) @ index.js?896bae8a75c9913a668b:1564\r\n",
            "created_at": "2023-09-16T18:37:52Z",
            "html_url": "https://github.com/PrismarineJS/prismarine-web-client/issues/349#issuecomment-1722290210",
            "id": 1722290210,
            "issue_url": "https://api.github.com/repos/PrismarineJS/prismarine-web-client/issues/349",
            "node_id": "IC_kwDOFHEu6c5mqBAi",
            "performed_via_github_app": null,
            "reactions": {
                "+1": 0,
                "-1": 0,
                "confused": 0,
                "eyes": 0,
                "heart": 0,
                "hooray": 0,
                "laugh": 0,
                "rocket": 0,
                "total_count": 0,
                "url": "https://api.github.com/repos/PrismarineJS/prismarine-web-client/issues/comments/1722290210/reactions"
            },
            "updated_at": "2023-09-16T18:37:52Z",
            "url": "https://api.github.com/repos/PrismarineJS/prismarine-web-client/issues/comments/1722290210",
            "user": {
                "avatar_url": "https://avatars.githubusercontent.com/u/94144702?v=4",
                "events_url": "https://api.github.com/users/gwhizoftv/events{/privacy}",
                "followers_url": "https://api.github.com/users/gwhizoftv/followers",
                "following_url": "https://api.github.com/users/gwhizoftv/following{/other_user}",
                "gists_url": "https://api.github.com/users/gwhizoftv/gists{/gist_id}",
                "gravatar_id": "",
                "html_url": "https://github.com/gwhizoftv",
                "id": 94144702,
                "login": "gwhizoftv",
                "node_id": "U_kgDOBZyIvg",
                "organizations_url": "https://api.github.com/users/gwhizoftv/orgs",
                "received_events_url": "https://api.github.com/users/gwhizoftv/received_events",
                "repos_url": "https://api.github.com/users/gwhizoftv/repos",
                "site_admin": false,
                "starred_url": "https://api.github.com/users/gwhizoftv/starred{/owner}{/repo}",
                "subscriptions_url": "https://api.github.com/users/gwhizoftv/subscriptions",
                "type": "User",
                "url": "https://api.github.com/users/gwhizoftv"
            }
        },
        {
            "author_association": "NONE",
            "body": "Same here, I have the latest LTS of Node.js, yet it still loads Node.js 14.0.0 for some reason.",
            "created_at": "2023-12-23T10:27:27Z",
            "html_url": "https://github.com/PrismarineJS/prismarine-web-client/issues/349#issuecomment-1868263527",
            "id": 1868263527,
            "issue_url": "https://api.github.com/repos/PrismarineJS/prismarine-web-client/issues/349",
            "node_id": "IC_kwDOFHEu6c5vW3Bn",
            "performed_via_github_app": null,
            "reactions": {
                "+1": 0,
                "-1": 0,
                "confused": 0,
                "eyes": 0,
                "heart": 0,
                "hooray": 0,
                "laugh": 0,
                "rocket": 0,
                "total_count": 0,
                "url": "https://api.github.com/repos/PrismarineJS/prismarine-web-client/issues/comments/1868263527/reactions"
            },
            "updated_at": "2023-12-23T10:27:27Z",
            "url": "https://api.github.com/repos/PrismarineJS/prismarine-web-client/issues/comments/1868263527",
            "user": {
                "avatar_url": "https://avatars.githubusercontent.com/u/51834343?v=4",
                "events_url": "https://api.github.com/users/ljcool2006/events{/privacy}",
                "followers_url": "https://api.github.com/users/ljcool2006/followers",
                "following_url": "https://api.github.com/users/ljcool2006/following{/other_user}",
                "gists_url": "https://api.github.com/users/ljcool2006/gists{/gist_id}",
                "gravatar_id": "",
                "html_url": "https://github.com/ljcool2006",
                "id": 51834343,
                "login": "ljcool2006",
                "node_id": "MDQ6VXNlcjUxODM0MzQz",
                "organizations_url": "https://api.github.com/users/ljcool2006/orgs",
                "received_events_url": "https://api.github.com/users/ljcool2006/received_events",
                "repos_url": "https://api.github.com/users/ljcool2006/repos",
                "site_admin": false,
                "starred_url": "https://api.github.com/users/ljcool2006/starred{/owner}{/repo}",
                "subscriptions_url": "https://api.github.com/users/ljcool2006/subscriptions",
                "type": "User",
                "url": "https://api.github.com/users/ljcool2006"
            }
        }
    ],
    "comments": 5,
    "comments_url": "https://api.github.com/repos/PrismarineJS/prismarine-web-client/issues/349/comments",
    "created_at": "2023-08-02T22:50:49Z",
    "event_data": [
        {
            "actor": {
                "avatar_url": "https://avatars.githubusercontent.com/u/2346494?v=4",
                "events_url": "https://api.github.com/users/rom1504/events{/privacy}",
                "followers_url": "https://api.github.com/users/rom1504/followers",
                "following_url": "https://api.github.com/users/rom1504/following{/other_user}",
                "gists_url": "https://api.github.com/users/rom1504/gists{/gist_id}",
                "gravatar_id": "",
                "html_url": "https://github.com/rom1504",
                "id": 2346494,
                "login": "rom1504",
                "node_id": "MDQ6VXNlcjIzNDY0OTQ=",
                "organizations_url": "https://api.github.com/users/rom1504/orgs",
                "received_events_url": "https://api.github.com/users/rom1504/received_events",
                "repos_url": "https://api.github.com/users/rom1504/repos",
                "site_admin": false,
                "starred_url": "https://api.github.com/users/rom1504/starred{/owner}{/repo}",
                "subscriptions_url": "https://api.github.com/users/rom1504/subscriptions",
                "type": "User",
                "url": "https://api.github.com/users/rom1504"
            },
            "commit_id": null,
            "commit_url": null,
            "created_at": "2023-12-17T23:01:32Z",
            "event": "closed",
            "id": 11269526596,
            "node_id": "CE_lADOFHEu6c5tUJSczwAAAAKft1RE",
            "performed_via_github_app": null,
            "state_reason": null,
            "url": "https://api.github.com/repos/PrismarineJS/prismarine-web-client/issues/events/11269526596"
        }
    ],
    "events_url": "https://api.github.com/repos/PrismarineJS/prismarine-web-client/issues/349/events",
    "html_url": "https://github.com/PrismarineJS/prismarine-web-client/issues/349",
    "id": 1833997468,
    "labels": [],
    "labels_url": "https://api.github.com/repos/PrismarineJS/prismarine-web-client/issues/349/labels{/name}",
    "locked": false,
    "milestone": null,
    "node_id": "I_kwDOFHEu6c5tUJSc",
    "number": 349,
    "performed_via_github_app": null,
    "reactions": {
        "+1": 0,
        "-1": 0,
        "confused": 0,
        "eyes": 0,
        "heart": 0,
        "hooray": 0,
        "laugh": 0,
        "rocket": 0,
        "total_count": 0,
        "url": "https://api.github.com/repos/PrismarineJS/prismarine-web-client/issues/349/reactions"
    },
    "repository_url": "https://api.github.com/repos/PrismarineJS/prismarine-web-client",
    "state": "closed",
    "state_reason": "completed",
    "timeline_url": "https://api.github.com/repos/PrismarineJS/prismarine-web-client/issues/349/timeline",
    "title": "It's Only A Blackscreen",
    "updated_at": "2023-12-23T10:27:27Z",
    "url": "https://api.github.com/repos/PrismarineJS/prismarine-web-client/issues/349",
    "user": {
        "avatar_url": "https://avatars.githubusercontent.com/u/136919529?v=4",
        "events_url": "https://api.github.com/users/Lostguestsneeze/events{/privacy}",
        "followers_url": "https://api.github.com/users/Lostguestsneeze/followers",
        "following_url": "https://api.github.com/users/Lostguestsneeze/following{/other_user}",
        "gists_url": "https://api.github.com/users/Lostguestsneeze/gists{/gist_id}",
        "gravatar_id": "",
        "html_url": "https://github.com/Lostguestsneeze",
        "id": 136919529,
        "login": "Lostguestsneeze",
        "node_id": "U_kgDOCCk56Q",
        "organizations_url": "https://api.github.com/users/Lostguestsneeze/orgs",
        "received_events_url": "https://api.github.com/users/Lostguestsneeze/received_events",
        "repos_url": "https://api.github.com/users/Lostguestsneeze/repos",
        "site_admin": false,
        "starred_url": "https://api.github.com/users/Lostguestsneeze/starred{/owner}{/repo}",
        "subscriptions_url": "https://api.github.com/users/Lostguestsneeze/subscriptions",
        "type": "User",
        "url": "https://api.github.com/users/Lostguestsneeze"
    }
}