{
    "_links": {
        "comments": {
            "href": "https://api.github.com/repos/PrismarineJS/prismarine-repo-actions/issues/26/comments"
        },
        "commits": {
            "href": "https://api.github.com/repos/PrismarineJS/prismarine-repo-actions/pulls/26/commits"
        },
        "html": {
            "href": "https://github.com/PrismarineJS/prismarine-repo-actions/pull/26"
        },
        "issue": {
            "href": "https://api.github.com/repos/PrismarineJS/prismarine-repo-actions/issues/26"
        },
        "review_comment": {
            "href": "https://api.github.com/repos/PrismarineJS/prismarine-repo-actions/pulls/comments{/number}"
        },
        "review_comments": {
            "href": "https://api.github.com/repos/PrismarineJS/prismarine-repo-actions/pulls/26/comments"
        },
        "self": {
            "href": "https://api.github.com/repos/PrismarineJS/prismarine-repo-actions/pulls/26"
        },
        "statuses": {
            "href": "https://api.github.com/repos/PrismarineJS/prismarine-repo-actions/statuses/81e975cb31c54071e33b30708a6ea4d19dbd217c"
        }
    },
    "active_lock_reason": null,
    "additions": 213,
    "assignee": null,
    "assignees": [],
    "author_association": "MEMBER",
    "auto_merge": null,
    "base": {
        "label": "PrismarineJS:master",
        "ref": "master",
        "repo": {
            "allow_forking": true,
            "archive_url": "https://api.github.com/repos/PrismarineJS/prismarine-repo-actions/{archive_format}{/ref}",
            "archived": false,
            "assignees_url": "https://api.github.com/repos/PrismarineJS/prismarine-repo-actions/assignees{/user}",
            "blobs_url": "https://api.github.com/repos/PrismarineJS/prismarine-repo-actions/git/blobs{/sha}",
            "branches_url": "https://api.github.com/repos/PrismarineJS/prismarine-repo-actions/branches{/branch}",
            "clone_url": "https://github.com/PrismarineJS/prismarine-repo-actions.git",
            "collaborators_url": "https://api.github.com/repos/PrismarineJS/prismarine-repo-actions/collaborators{/collaborator}",
            "comments_url": "https://api.github.com/repos/PrismarineJS/prismarine-repo-actions/comments{/number}",
            "commits_url": "https://api.github.com/repos/PrismarineJS/prismarine-repo-actions/commits{/sha}",
            "compare_url": "https://api.github.com/repos/PrismarineJS/prismarine-repo-actions/compare/{base}...{head}",
            "contents_url": "https://api.github.com/repos/PrismarineJS/prismarine-repo-actions/contents/{+path}",
            "contributors_url": "https://api.github.com/repos/PrismarineJS/prismarine-repo-actions/contributors",
            "created_at": "2023-06-12T13:19:36Z",
            "default_branch": "master",
            "deployments_url": "https://api.github.com/repos/PrismarineJS/prismarine-repo-actions/deployments",
            "description": "Github Action implementing issue/PR comment commands for repo automation",
            "disabled": false,
            "downloads_url": "https://api.github.com/repos/PrismarineJS/prismarine-repo-actions/downloads",
            "events_url": "https://api.github.com/repos/PrismarineJS/prismarine-repo-actions/events",
            "fork": false,
            "forks": 1,
            "forks_count": 1,
            "forks_url": "https://api.github.com/repos/PrismarineJS/prismarine-repo-actions/forks",
            "full_name": "PrismarineJS/prismarine-repo-actions",
            "git_commits_url": "https://api.github.com/repos/PrismarineJS/prismarine-repo-actions/git/commits{/sha}",
            "git_refs_url": "https://api.github.com/repos/PrismarineJS/prismarine-repo-actions/git/refs{/sha}",
            "git_tags_url": "https://api.github.com/repos/PrismarineJS/prismarine-repo-actions/git/tags{/sha}",
            "git_url": "git://github.com/PrismarineJS/prismarine-repo-actions.git",
            "has_discussions": false,
            "has_downloads": true,
            "has_issues": true,
            "has_pages": false,
            "has_projects": true,
            "has_wiki": true,
            "homepage": null,
            "hooks_url": "https://api.github.com/repos/PrismarineJS/prismarine-repo-actions/hooks",
            "html_url": "https://github.com/PrismarineJS/prismarine-repo-actions",
            "id": 652629985,
            "is_template": false,
            "issue_comment_url": "https://api.github.com/repos/PrismarineJS/prismarine-repo-actions/issues/comments{/number}",
            "issue_events_url": "https://api.github.com/repos/PrismarineJS/prismarine-repo-actions/issues/events{/number}",
            "issues_url": "https://api.github.com/repos/PrismarineJS/prismarine-repo-actions/issues{/number}",
            "keys_url": "https://api.github.com/repos/PrismarineJS/prismarine-repo-actions/keys{/key_id}",
            "labels_url": "https://api.github.com/repos/PrismarineJS/prismarine-repo-actions/labels{/name}",
            "language": "JavaScript",
            "languages_url": "https://api.github.com/repos/PrismarineJS/prismarine-repo-actions/languages",
            "license": {
                "key": "mit",
                "name": "MIT License",
                "node_id": "MDc6TGljZW5zZTEz",
                "spdx_id": "MIT",
                "url": "https://api.github.com/licenses/mit"
            },
            "merges_url": "https://api.github.com/repos/PrismarineJS/prismarine-repo-actions/merges",
            "milestones_url": "https://api.github.com/repos/PrismarineJS/prismarine-repo-actions/milestones{/number}",
            "mirror_url": null,
            "name": "prismarine-repo-actions",
            "node_id": "R_kgDOJuZX4Q",
            "notifications_url": "https://api.github.com/repos/PrismarineJS/prismarine-repo-actions/notifications{?since,all,participating}",
            "open_issues": 1,
            "open_issues_count": 1,
            "owner": {
                "avatar_url": "https://avatars.githubusercontent.com/u/11053411?v=4",
                "events_url": "https://api.github.com/users/PrismarineJS/events{/privacy}",
                "followers_url": "https://api.github.com/users/PrismarineJS/followers",
                "following_url": "https://api.github.com/users/PrismarineJS/following{/other_user}",
                "gists_url": "https://api.github.com/users/PrismarineJS/gists{/gist_id}",
                "gravatar_id": "",
                "html_url": "https://github.com/PrismarineJS",
                "id": 11053411,
                "login": "PrismarineJS",
                "node_id": "MDEyOk9yZ2FuaXphdGlvbjExMDUzNDEx",
                "organizations_url": "https://api.github.com/users/PrismarineJS/orgs",
                "received_events_url": "https://api.github.com/users/PrismarineJS/received_events",
                "repos_url": "https://api.github.com/users/PrismarineJS/repos",
                "site_admin": false,
                "starred_url": "https://api.github.com/users/PrismarineJS/starred{/owner}{/repo}",
                "subscriptions_url": "https://api.github.com/users/PrismarineJS/subscriptions",
                "type": "Organization",
                "url": "https://api.github.com/users/PrismarineJS"
            },
            "private": false,
            "pulls_url": "https://api.github.com/repos/PrismarineJS/prismarine-repo-actions/pulls{/number}",
            "pushed_at": "2024-04-25T07:03:43Z",
            "releases_url": "https://api.github.com/repos/PrismarineJS/prismarine-repo-actions/releases{/id}",
            "size": 165,
            "ssh_url": "git@github.com:PrismarineJS/prismarine-repo-actions.git",
            "stargazers_count": 1,
            "stargazers_url": "https://api.github.com/repos/PrismarineJS/prismarine-repo-actions/stargazers",
            "statuses_url": "https://api.github.com/repos/PrismarineJS/prismarine-repo-actions/statuses/{sha}",
            "subscribers_url": "https://api.github.com/repos/PrismarineJS/prismarine-repo-actions/subscribers",
            "subscription_url": "https://api.github.com/repos/PrismarineJS/prismarine-repo-actions/subscription",
            "svn_url": "https://github.com/PrismarineJS/prismarine-repo-actions",
            "tags_url": "https://api.github.com/repos/PrismarineJS/prismarine-repo-actions/tags",
            "teams_url": "https://api.github.com/repos/PrismarineJS/prismarine-repo-actions/teams",
            "topics": [],
            "trees_url": "https://api.github.com/repos/PrismarineJS/prismarine-repo-actions/git/trees{/sha}",
            "updated_at": "2024-04-25T07:03:47Z",
            "url": "https://api.github.com/repos/PrismarineJS/prismarine-repo-actions",
            "visibility": "public",
            "watchers": 1,
            "watchers_count": 1,
            "web_commit_signoff_required": false
        },
        "sha": "3867b7b9d181a5ab54ef3ddc5d91aeb934b8683c",
        "user": {
            "avatar_url": "https://avatars.githubusercontent.com/u/11053411?v=4",
            "events_url": "https://api.github.com/users/PrismarineJS/events{/privacy}",
            "followers_url": "https://api.github.com/users/PrismarineJS/followers",
            "following_url": "https://api.github.com/users/PrismarineJS/following{/other_user}",
            "gists_url": "https://api.github.com/users/PrismarineJS/gists{/gist_id}",
            "gravatar_id": "",
            "html_url": "https://github.com/PrismarineJS",
            "id": 11053411,
            "login": "PrismarineJS",
            "node_id": "MDEyOk9yZ2FuaXphdGlvbjExMDUzNDEx",
            "organizations_url": "https://api.github.com/users/PrismarineJS/orgs",
            "received_events_url": "https://api.github.com/users/PrismarineJS/received_events",
            "repos_url": "https://api.github.com/users/PrismarineJS/repos",
            "site_admin": false,
            "starred_url": "https://api.github.com/users/PrismarineJS/starred{/owner}{/repo}",
            "subscriptions_url": "https://api.github.com/users/PrismarineJS/subscriptions",
            "type": "Organization",
            "url": "https://api.github.com/users/PrismarineJS"
        }
    },
    "body": "Add a /mergeonpass command to automatically merge a PR once tests have passed with customizable amount of re-runs on failure (by default waiting upto 10min)\r\n\r\nDoc:\r\n\r\n* `/mergeonpass [retries (default: 1)] [mode: squash (default), merge, rebase]\\n[custom commit message]`\r\n  * Merge a pull request after tests pass, with n retries of failed tests.\r\n  * Merge a PR with 3 retries with standard merge mode, with the custom merge commit message \"Merge this PR\"\r\n    ```\r\n    /mergeonpass 3 merge\r\n    Merge this PR\r\n    ```\r\n  * [Example trigger](https://github.com/extremeheat/gh-helpers/pull/25)\r\n",
    "changed_files": 4,
    "closed_at": "2024-04-25T06:21:33Z",
    "comment_data": [],
    "comment_regular_data": [
        {
            "author_association": "MEMBER",
            "body": "Will merge for now to test it out",
            "created_at": "2024-04-25T06:21:30Z",
            "html_url": "https://github.com/PrismarineJS/prismarine-repo-actions/pull/26#issuecomment-2076453772",
            "id": 2076453772,
            "issue_url": "https://api.github.com/repos/PrismarineJS/prismarine-repo-actions/issues/26",
            "node_id": "IC_kwDOJuZX4c57xCuM",
            "performed_via_github_app": null,
            "reactions": {
                "+1": 0,
                "-1": 0,
                "confused": 0,
                "eyes": 0,
                "heart": 0,
                "hooray": 0,
                "laugh": 0,
                "rocket": 0,
                "total_count": 0,
                "url": "https://api.github.com/repos/PrismarineJS/prismarine-repo-actions/issues/comments/2076453772/reactions"
            },
            "updated_at": "2024-04-25T06:21:30Z",
            "url": "https://api.github.com/repos/PrismarineJS/prismarine-repo-actions/issues/comments/2076453772",
            "user": {
                "avatar_url": "https://avatars.githubusercontent.com/u/13713600?v=4",
                "events_url": "https://api.github.com/users/extremeheat/events{/privacy}",
                "followers_url": "https://api.github.com/users/extremeheat/followers",
                "following_url": "https://api.github.com/users/extremeheat/following{/other_user}",
                "gists_url": "https://api.github.com/users/extremeheat/gists{/gist_id}",
                "gravatar_id": "",
                "html_url": "https://github.com/extremeheat",
                "id": 13713600,
                "login": "extremeheat",
                "node_id": "MDQ6VXNlcjEzNzEzNjAw",
                "organizations_url": "https://api.github.com/users/extremeheat/orgs",
                "received_events_url": "https://api.github.com/users/extremeheat/received_events",
                "repos_url": "https://api.github.com/users/extremeheat/repos",
                "site_admin": false,
                "starred_url": "https://api.github.com/users/extremeheat/starred{/owner}{/repo}",
                "subscriptions_url": "https://api.github.com/users/extremeheat/subscriptions",
                "type": "User",
                "url": "https://api.github.com/users/extremeheat"
            }
        },
        {
            "author_association": "MEMBER",
            "body": "OK, it seems to work but I've disabled for now until review. \r\n\r\nRight now this relies on roles (if runner is COLLABORATOR/MEMBER/OWNER) and if current GitHub token has write permissions based on triggering user but on top I think it should utilize https://docs.github.com/en/rest/collaborators/collaborators?apiVersion=2022-11-28#check-if-a-user-is-a-repository-collaborator to check directly for write permissions on repo.",
            "created_at": "2024-04-25T07:02:06Z",
            "html_url": "https://github.com/PrismarineJS/prismarine-repo-actions/pull/26#issuecomment-2076506523",
            "id": 2076506523,
            "issue_url": "https://api.github.com/repos/PrismarineJS/prismarine-repo-actions/issues/26",
            "node_id": "IC_kwDOJuZX4c57xPmb",
            "performed_via_github_app": null,
            "reactions": {
                "+1": 0,
                "-1": 0,
                "confused": 0,
                "eyes": 0,
                "heart": 0,
                "hooray": 0,
                "laugh": 0,
                "rocket": 0,
                "total_count": 0,
                "url": "https://api.github.com/repos/PrismarineJS/prismarine-repo-actions/issues/comments/2076506523/reactions"
            },
            "updated_at": "2024-04-25T08:02:00Z",
            "url": "https://api.github.com/repos/PrismarineJS/prismarine-repo-actions/issues/comments/2076506523",
            "user": {
                "avatar_url": "https://avatars.githubusercontent.com/u/13713600?v=4",
                "events_url": "https://api.github.com/users/extremeheat/events{/privacy}",
                "followers_url": "https://api.github.com/users/extremeheat/followers",
                "following_url": "https://api.github.com/users/extremeheat/following{/other_user}",
                "gists_url": "https://api.github.com/users/extremeheat/gists{/gist_id}",
                "gravatar_id": "",
                "html_url": "https://github.com/extremeheat",
                "id": 13713600,
                "login": "extremeheat",
                "node_id": "MDQ6VXNlcjEzNzEzNjAw",
                "organizations_url": "https://api.github.com/users/extremeheat/orgs",
                "received_events_url": "https://api.github.com/users/extremeheat/received_events",
                "repos_url": "https://api.github.com/users/extremeheat/repos",
                "site_admin": false,
                "starred_url": "https://api.github.com/users/extremeheat/starred{/owner}{/repo}",
                "subscriptions_url": "https://api.github.com/users/extremeheat/subscriptions",
                "type": "User",
                "url": "https://api.github.com/users/extremeheat"
            }
        }
    ],
    "comments": 2,
    "comments_url": "https://api.github.com/repos/PrismarineJS/prismarine-repo-actions/issues/26/comments",
    "commit_data": [
        {
            "author": {
                "avatar_url": "https://avatars.githubusercontent.com/u/13713600?v=4",
                "events_url": "https://api.github.com/users/extremeheat/events{/privacy}",
                "followers_url": "https://api.github.com/users/extremeheat/followers",
                "following_url": "https://api.github.com/users/extremeheat/following{/other_user}",
                "gists_url": "https://api.github.com/users/extremeheat/gists{/gist_id}",
                "gravatar_id": "",
                "html_url": "https://github.com/extremeheat",
                "id": 13713600,
                "login": "extremeheat",
                "node_id": "MDQ6VXNlcjEzNzEzNjAw",
                "organizations_url": "https://api.github.com/users/extremeheat/orgs",
                "received_events_url": "https://api.github.com/users/extremeheat/received_events",
                "repos_url": "https://api.github.com/users/extremeheat/repos",
                "site_admin": false,
                "starred_url": "https://api.github.com/users/extremeheat/starred{/owner}{/repo}",
                "subscriptions_url": "https://api.github.com/users/extremeheat/subscriptions",
                "type": "User",
                "url": "https://api.github.com/users/extremeheat"
            },
            "comments_url": "https://api.github.com/repos/PrismarineJS/prismarine-repo-actions/commits/7cfe87506abde31f738d74a8001a8c4fd116ce1c/comments",
            "commit": {
                "author": {
                    "date": "2024-04-24T02:37:33Z",
                    "email": "extreme@protonmail.ch",
                    "name": "extremeheat"
                },
                "comment_count": 0,
                "committer": {
                    "date": "2024-04-24T02:37:33Z",
                    "email": "extreme@protonmail.ch",
                    "name": "extremeheat"
                },
                "message": "Add a /mergeonpass command",
                "tree": {
                    "sha": "0638493228ae7bc87e7cf588c1f75f5073b0feb2",
                    "url": "https://api.github.com/repos/PrismarineJS/prismarine-repo-actions/git/trees/0638493228ae7bc87e7cf588c1f75f5073b0feb2"
                },
                "url": "https://api.github.com/repos/PrismarineJS/prismarine-repo-actions/git/commits/7cfe87506abde31f738d74a8001a8c4fd116ce1c",
                "verification": {
                    "payload": null,
                    "reason": "unsigned",
                    "signature": null,
                    "verified": false
                }
            },
            "committer": {
                "avatar_url": "https://avatars.githubusercontent.com/u/13713600?v=4",
                "events_url": "https://api.github.com/users/extremeheat/events{/privacy}",
                "followers_url": "https://api.github.com/users/extremeheat/followers",
                "following_url": "https://api.github.com/users/extremeheat/following{/other_user}",
                "gists_url": "https://api.github.com/users/extremeheat/gists{/gist_id}",
                "gravatar_id": "",
                "html_url": "https://github.com/extremeheat",
                "id": 13713600,
                "login": "extremeheat",
                "node_id": "MDQ6VXNlcjEzNzEzNjAw",
                "organizations_url": "https://api.github.com/users/extremeheat/orgs",
                "received_events_url": "https://api.github.com/users/extremeheat/received_events",
                "repos_url": "https://api.github.com/users/extremeheat/repos",
                "site_admin": false,
                "starred_url": "https://api.github.com/users/extremeheat/starred{/owner}{/repo}",
                "subscriptions_url": "https://api.github.com/users/extremeheat/subscriptions",
                "type": "User",
                "url": "https://api.github.com/users/extremeheat"
            },
            "html_url": "https://github.com/PrismarineJS/prismarine-repo-actions/commit/7cfe87506abde31f738d74a8001a8c4fd116ce1c",
            "node_id": "C_kwDOLgp0ENoAKDdjZmU4NzUwNmFiZGUzMWY3MzhkNzRhODAwMWE4YzRmZDExNmNlMWM",
            "parents": [
                {
                    "html_url": "https://github.com/PrismarineJS/prismarine-repo-actions/commit/cd94fb7c8d15b0c7870ece32096acebe85055b6f",
                    "sha": "cd94fb7c8d15b0c7870ece32096acebe85055b6f",
                    "url": "https://api.github.com/repos/PrismarineJS/prismarine-repo-actions/commits/cd94fb7c8d15b0c7870ece32096acebe85055b6f"
                }
            ],
            "sha": "7cfe87506abde31f738d74a8001a8c4fd116ce1c",
            "url": "https://api.github.com/repos/PrismarineJS/prismarine-repo-actions/commits/7cfe87506abde31f738d74a8001a8c4fd116ce1c"
        },
        {
            "author": {
                "avatar_url": "https://avatars.githubusercontent.com/u/13713600?v=4",
                "events_url": "https://api.github.com/users/extremeheat/events{/privacy}",
                "followers_url": "https://api.github.com/users/extremeheat/followers",
                "following_url": "https://api.github.com/users/extremeheat/following{/other_user}",
                "gists_url": "https://api.github.com/users/extremeheat/gists{/gist_id}",
                "gravatar_id": "",
                "html_url": "https://github.com/extremeheat",
                "id": 13713600,
                "login": "extremeheat",
                "node_id": "MDQ6VXNlcjEzNzEzNjAw",
                "organizations_url": "https://api.github.com/users/extremeheat/orgs",
                "received_events_url": "https://api.github.com/users/extremeheat/received_events",
                "repos_url": "https://api.github.com/users/extremeheat/repos",
                "site_admin": false,
                "starred_url": "https://api.github.com/users/extremeheat/starred{/owner}{/repo}",
                "subscriptions_url": "https://api.github.com/users/extremeheat/subscriptions",
                "type": "User",
                "url": "https://api.github.com/users/extremeheat"
            },
            "comments_url": "https://api.github.com/repos/PrismarineJS/prismarine-repo-actions/commits/be85705f31aa10c20d86418061a4119746618a1a/comments",
            "commit": {
                "author": {
                    "date": "2024-04-24T16:18:36Z",
                    "email": "extreme@protonmail.ch",
                    "name": "extremeheat"
                },
                "comment_count": 0,
                "committer": {
                    "date": "2024-04-24T16:18:36Z",
                    "email": "extreme@protonmail.ch",
                    "name": "extremeheat"
                },
                "message": "Add config options, update readme",
                "tree": {
                    "sha": "14f05b03de2d2c74fcbb4ae8207016ead5f080ec",
                    "url": "https://api.github.com/repos/PrismarineJS/prismarine-repo-actions/git/trees/14f05b03de2d2c74fcbb4ae8207016ead5f080ec"
                },
                "url": "https://api.github.com/repos/PrismarineJS/prismarine-repo-actions/git/commits/be85705f31aa10c20d86418061a4119746618a1a",
                "verification": {
                    "payload": null,
                    "reason": "unsigned",
                    "signature": null,
                    "verified": false
                }
            },
            "committer": {
                "avatar_url": "https://avatars.githubusercontent.com/u/13713600?v=4",
                "events_url": "https://api.github.com/users/extremeheat/events{/privacy}",
                "followers_url": "https://api.github.com/users/extremeheat/followers",
                "following_url": "https://api.github.com/users/extremeheat/following{/other_user}",
                "gists_url": "https://api.github.com/users/extremeheat/gists{/gist_id}",
                "gravatar_id": "",
                "html_url": "https://github.com/extremeheat",
                "id": 13713600,
                "login": "extremeheat",
                "node_id": "MDQ6VXNlcjEzNzEzNjAw",
                "organizations_url": "https://api.github.com/users/extremeheat/orgs",
                "received_events_url": "https://api.github.com/users/extremeheat/received_events",
                "repos_url": "https://api.github.com/users/extremeheat/repos",
                "site_admin": false,
                "starred_url": "https://api.github.com/users/extremeheat/starred{/owner}{/repo}",
                "subscriptions_url": "https://api.github.com/users/extremeheat/subscriptions",
                "type": "User",
                "url": "https://api.github.com/users/extremeheat"
            },
            "html_url": "https://github.com/PrismarineJS/prismarine-repo-actions/commit/be85705f31aa10c20d86418061a4119746618a1a",
            "node_id": "C_kwDOLgp0ENoAKGJlODU3MDVmMzFhYTEwYzIwZDg2NDE4MDYxYTQxMTk3NDY2MThhMWE",
            "parents": [
                {
                    "html_url": "https://github.com/PrismarineJS/prismarine-repo-actions/commit/7cfe87506abde31f738d74a8001a8c4fd116ce1c",
                    "sha": "7cfe87506abde31f738d74a8001a8c4fd116ce1c",
                    "url": "https://api.github.com/repos/PrismarineJS/prismarine-repo-actions/commits/7cfe87506abde31f738d74a8001a8c4fd116ce1c"
                }
            ],
            "sha": "be85705f31aa10c20d86418061a4119746618a1a",
            "url": "https://api.github.com/repos/PrismarineJS/prismarine-repo-actions/commits/be85705f31aa10c20d86418061a4119746618a1a"
        },
        {
            "author": {
                "avatar_url": "https://avatars.githubusercontent.com/u/13713600?v=4",
                "events_url": "https://api.github.com/users/extremeheat/events{/privacy}",
                "followers_url": "https://api.github.com/users/extremeheat/followers",
                "following_url": "https://api.github.com/users/extremeheat/following{/other_user}",
                "gists_url": "https://api.github.com/users/extremeheat/gists{/gist_id}",
                "gravatar_id": "",
                "html_url": "https://github.com/extremeheat",
                "id": 13713600,
                "login": "extremeheat",
                "node_id": "MDQ6VXNlcjEzNzEzNjAw",
                "organizations_url": "https://api.github.com/users/extremeheat/orgs",
                "received_events_url": "https://api.github.com/users/extremeheat/received_events",
                "repos_url": "https://api.github.com/users/extremeheat/repos",
                "site_admin": false,
                "starred_url": "https://api.github.com/users/extremeheat/starred{/owner}{/repo}",
                "subscriptions_url": "https://api.github.com/users/extremeheat/subscriptions",
                "type": "User",
                "url": "https://api.github.com/users/extremeheat"
            },
            "comments_url": "https://api.github.com/repos/PrismarineJS/prismarine-repo-actions/commits/81e975cb31c54071e33b30708a6ea4d19dbd217c/comments",
            "commit": {
                "author": {
                    "date": "2024-04-25T06:17:11Z",
                    "email": "extreme@protonmail.ch",
                    "name": "extremeheat"
                },
                "comment_count": 0,
                "committer": {
                    "date": "2024-04-25T06:17:11Z",
                    "email": "extreme@protonmail.ch",
                    "name": "extremeheat"
                },
                "message": "update deps",
                "tree": {
                    "sha": "72ecdfa9b05240193994b73883642341c4ffafd0",
                    "url": "https://api.github.com/repos/PrismarineJS/prismarine-repo-actions/git/trees/72ecdfa9b05240193994b73883642341c4ffafd0"
                },
                "url": "https://api.github.com/repos/PrismarineJS/prismarine-repo-actions/git/commits/81e975cb31c54071e33b30708a6ea4d19dbd217c",
                "verification": {
                    "payload": null,
                    "reason": "unsigned",
                    "signature": null,
                    "verified": false
                }
            },
            "committer": {
                "avatar_url": "https://avatars.githubusercontent.com/u/13713600?v=4",
                "events_url": "https://api.github.com/users/extremeheat/events{/privacy}",
                "followers_url": "https://api.github.com/users/extremeheat/followers",
                "following_url": "https://api.github.com/users/extremeheat/following{/other_user}",
                "gists_url": "https://api.github.com/users/extremeheat/gists{/gist_id}",
                "gravatar_id": "",
                "html_url": "https://github.com/extremeheat",
                "id": 13713600,
                "login": "extremeheat",
                "node_id": "MDQ6VXNlcjEzNzEzNjAw",
                "organizations_url": "https://api.github.com/users/extremeheat/orgs",
                "received_events_url": "https://api.github.com/users/extremeheat/received_events",
                "repos_url": "https://api.github.com/users/extremeheat/repos",
                "site_admin": false,
                "starred_url": "https://api.github.com/users/extremeheat/starred{/owner}{/repo}",
                "subscriptions_url": "https://api.github.com/users/extremeheat/subscriptions",
                "type": "User",
                "url": "https://api.github.com/users/extremeheat"
            },
            "html_url": "https://github.com/PrismarineJS/prismarine-repo-actions/commit/81e975cb31c54071e33b30708a6ea4d19dbd217c",
            "node_id": "C_kwDOLgp0ENoAKDgxZTk3NWNiMzFjNTQwNzFlMzNiMzA3MDhhNmVhNGQxOWRiZDIxN2M",
            "parents": [
                {
                    "html_url": "https://github.com/PrismarineJS/prismarine-repo-actions/commit/be85705f31aa10c20d86418061a4119746618a1a",
                    "sha": "be85705f31aa10c20d86418061a4119746618a1a",
                    "url": "https://api.github.com/repos/PrismarineJS/prismarine-repo-actions/commits/be85705f31aa10c20d86418061a4119746618a1a"
                }
            ],
            "sha": "81e975cb31c54071e33b30708a6ea4d19dbd217c",
            "url": "https://api.github.com/repos/PrismarineJS/prismarine-repo-actions/commits/81e975cb31c54071e33b30708a6ea4d19dbd217c"
        }
    ],
    "commits": 3,
    "commits_url": "https://api.github.com/repos/PrismarineJS/prismarine-repo-actions/pulls/26/commits",
    "created_at": "2024-04-25T06:19:40Z",
    "deletions": 53,
    "diff_url": "https://github.com/PrismarineJS/prismarine-repo-actions/pull/26.diff",
    "draft": false,
    "head": {
        "label": "extremeheat:master",
        "ref": "master",
        "repo": {
            "allow_forking": true,
            "archive_url": "https://api.github.com/repos/extremeheat/prismarine-repo-actions/{archive_format}{/ref}",
            "archived": false,
            "assignees_url": "https://api.github.com/repos/extremeheat/prismarine-repo-actions/assignees{/user}",
            "blobs_url": "https://api.github.com/repos/extremeheat/prismarine-repo-actions/git/blobs{/sha}",
            "branches_url": "https://api.github.com/repos/extremeheat/prismarine-repo-actions/branches{/branch}",
            "clone_url": "https://github.com/extremeheat/prismarine-repo-actions.git",
            "collaborators_url": "https://api.github.com/repos/extremeheat/prismarine-repo-actions/collaborators{/collaborator}",
            "comments_url": "https://api.github.com/repos/extremeheat/prismarine-repo-actions/comments{/number}",
            "commits_url": "https://api.github.com/repos/extremeheat/prismarine-repo-actions/commits{/sha}",
            "compare_url": "https://api.github.com/repos/extremeheat/prismarine-repo-actions/compare/{base}...{head}",
            "contents_url": "https://api.github.com/repos/extremeheat/prismarine-repo-actions/contents/{+path}",
            "contributors_url": "https://api.github.com/repos/extremeheat/prismarine-repo-actions/contributors",
            "created_at": "2024-03-15T07:30:11Z",
            "default_branch": "master",
            "deployments_url": "https://api.github.com/repos/extremeheat/prismarine-repo-actions/deployments",
            "description": "Github Action implementing issue/PR comment commands for repo automation",
            "disabled": false,
            "downloads_url": "https://api.github.com/repos/extremeheat/prismarine-repo-actions/downloads",
            "events_url": "https://api.github.com/repos/extremeheat/prismarine-repo-actions/events",
            "fork": true,
            "forks": 0,
            "forks_count": 0,
            "forks_url": "https://api.github.com/repos/extremeheat/prismarine-repo-actions/forks",
            "full_name": "extremeheat/prismarine-repo-actions",
            "git_commits_url": "https://api.github.com/repos/extremeheat/prismarine-repo-actions/git/commits{/sha}",
            "git_refs_url": "https://api.github.com/repos/extremeheat/prismarine-repo-actions/git/refs{/sha}",
            "git_tags_url": "https://api.github.com/repos/extremeheat/prismarine-repo-actions/git/tags{/sha}",
            "git_url": "git://github.com/extremeheat/prismarine-repo-actions.git",
            "has_discussions": false,
            "has_downloads": true,
            "has_issues": false,
            "has_pages": false,
            "has_projects": true,
            "has_wiki": true,
            "homepage": null,
            "hooks_url": "https://api.github.com/repos/extremeheat/prismarine-repo-actions/hooks",
            "html_url": "https://github.com/extremeheat/prismarine-repo-actions",
            "id": 772437008,
            "is_template": false,
            "issue_comment_url": "https://api.github.com/repos/extremeheat/prismarine-repo-actions/issues/comments{/number}",
            "issue_events_url": "https://api.github.com/repos/extremeheat/prismarine-repo-actions/issues/events{/number}",
            "issues_url": "https://api.github.com/repos/extremeheat/prismarine-repo-actions/issues{/number}",
            "keys_url": "https://api.github.com/repos/extremeheat/prismarine-repo-actions/keys{/key_id}",
            "labels_url": "https://api.github.com/repos/extremeheat/prismarine-repo-actions/labels{/name}",
            "language": "JavaScript",
            "languages_url": "https://api.github.com/repos/extremeheat/prismarine-repo-actions/languages",
            "license": {
                "key": "mit",
                "name": "MIT License",
                "node_id": "MDc6TGljZW5zZTEz",
                "spdx_id": "MIT",
                "url": "https://api.github.com/licenses/mit"
            },
            "merges_url": "https://api.github.com/repos/extremeheat/prismarine-repo-actions/merges",
            "milestones_url": "https://api.github.com/repos/extremeheat/prismarine-repo-actions/milestones{/number}",
            "mirror_url": null,
            "name": "prismarine-repo-actions",
            "node_id": "R_kgDOLgp0EA",
            "notifications_url": "https://api.github.com/repos/extremeheat/prismarine-repo-actions/notifications{?since,all,participating}",
            "open_issues": 0,
            "open_issues_count": 0,
            "owner": {
                "avatar_url": "https://avatars.githubusercontent.com/u/13713600?v=4",
                "events_url": "https://api.github.com/users/extremeheat/events{/privacy}",
                "followers_url": "https://api.github.com/users/extremeheat/followers",
                "following_url": "https://api.github.com/users/extremeheat/following{/other_user}",
                "gists_url": "https://api.github.com/users/extremeheat/gists{/gist_id}",
                "gravatar_id": "",
                "html_url": "https://github.com/extremeheat",
                "id": 13713600,
                "login": "extremeheat",
                "node_id": "MDQ6VXNlcjEzNzEzNjAw",
                "organizations_url": "https://api.github.com/users/extremeheat/orgs",
                "received_events_url": "https://api.github.com/users/extremeheat/received_events",
                "repos_url": "https://api.github.com/users/extremeheat/repos",
                "site_admin": false,
                "starred_url": "https://api.github.com/users/extremeheat/starred{/owner}{/repo}",
                "subscriptions_url": "https://api.github.com/users/extremeheat/subscriptions",
                "type": "User",
                "url": "https://api.github.com/users/extremeheat"
            },
            "private": false,
            "pulls_url": "https://api.github.com/repos/extremeheat/prismarine-repo-actions/pulls{/number}",
            "pushed_at": "2024-04-25T06:59:29Z",
            "releases_url": "https://api.github.com/repos/extremeheat/prismarine-repo-actions/releases{/id}",
            "size": 159,
            "ssh_url": "git@github.com:extremeheat/prismarine-repo-actions.git",
            "stargazers_count": 0,
            "stargazers_url": "https://api.github.com/repos/extremeheat/prismarine-repo-actions/stargazers",
            "statuses_url": "https://api.github.com/repos/extremeheat/prismarine-repo-actions/statuses/{sha}",
            "subscribers_url": "https://api.github.com/repos/extremeheat/prismarine-repo-actions/subscribers",
            "subscription_url": "https://api.github.com/repos/extremeheat/prismarine-repo-actions/subscription",
            "svn_url": "https://github.com/extremeheat/prismarine-repo-actions",
            "tags_url": "https://api.github.com/repos/extremeheat/prismarine-repo-actions/tags",
            "teams_url": "https://api.github.com/repos/extremeheat/prismarine-repo-actions/teams",
            "topics": [],
            "trees_url": "https://api.github.com/repos/extremeheat/prismarine-repo-actions/git/trees{/sha}",
            "updated_at": "2024-04-25T06:59:32Z",
            "url": "https://api.github.com/repos/extremeheat/prismarine-repo-actions",
            "visibility": "public",
            "watchers": 0,
            "watchers_count": 0,
            "web_commit_signoff_required": false
        },
        "sha": "81e975cb31c54071e33b30708a6ea4d19dbd217c",
        "user": {
            "avatar_url": "https://avatars.githubusercontent.com/u/13713600?v=4",
            "events_url": "https://api.github.com/users/extremeheat/events{/privacy}",
            "followers_url": "https://api.github.com/users/extremeheat/followers",
            "following_url": "https://api.github.com/users/extremeheat/following{/other_user}",
            "gists_url": "https://api.github.com/users/extremeheat/gists{/gist_id}",
            "gravatar_id": "",
            "html_url": "https://github.com/extremeheat",
            "id": 13713600,
            "login": "extremeheat",
            "node_id": "MDQ6VXNlcjEzNzEzNjAw",
            "organizations_url": "https://api.github.com/users/extremeheat/orgs",
            "received_events_url": "https://api.github.com/users/extremeheat/received_events",
            "repos_url": "https://api.github.com/users/extremeheat/repos",
            "site_admin": false,
            "starred_url": "https://api.github.com/users/extremeheat/starred{/owner}{/repo}",
            "subscriptions_url": "https://api.github.com/users/extremeheat/subscriptions",
            "type": "User",
            "url": "https://api.github.com/users/extremeheat"
        }
    },
    "html_url": "https://github.com/PrismarineJS/prismarine-repo-actions/pull/26",
    "id": 1840155267,
    "issue_url": "https://api.github.com/repos/PrismarineJS/prismarine-repo-actions/issues/26",
    "labels": [],
    "locked": false,
    "maintainer_can_modify": false,
    "merge_commit_sha": "3759157bca699156e1550def6fbbb528bd9826ff",
    "mergeable": null,
    "mergeable_state": "unknown",
    "merged": true,
    "merged_at": "2024-04-25T06:21:33Z",
    "merged_by": {
        "avatar_url": "https://avatars.githubusercontent.com/u/13713600?v=4",
        "events_url": "https://api.github.com/users/extremeheat/events{/privacy}",
        "followers_url": "https://api.github.com/users/extremeheat/followers",
        "following_url": "https://api.github.com/users/extremeheat/following{/other_user}",
        "gists_url": "https://api.github.com/users/extremeheat/gists{/gist_id}",
        "gravatar_id": "",
        "html_url": "https://github.com/extremeheat",
        "id": 13713600,
        "login": "extremeheat",
        "node_id": "MDQ6VXNlcjEzNzEzNjAw",
        "organizations_url": "https://api.github.com/users/extremeheat/orgs",
        "received_events_url": "https://api.github.com/users/extremeheat/received_events",
        "repos_url": "https://api.github.com/users/extremeheat/repos",
        "site_admin": false,
        "starred_url": "https://api.github.com/users/extremeheat/starred{/owner}{/repo}",
        "subscriptions_url": "https://api.github.com/users/extremeheat/subscriptions",
        "type": "User",
        "url": "https://api.github.com/users/extremeheat"
    },
    "milestone": null,
    "node_id": "PR_kwDOJuZX4c5troqD",
    "number": 26,
    "patch_url": "https://github.com/PrismarineJS/prismarine-repo-actions/pull/26.patch",
    "rebaseable": null,
    "requested_reviewers": [
        {
            "avatar_url": "https://avatars.githubusercontent.com/u/2346494?v=4",
            "events_url": "https://api.github.com/users/rom1504/events{/privacy}",
            "followers_url": "https://api.github.com/users/rom1504/followers",
            "following_url": "https://api.github.com/users/rom1504/following{/other_user}",
            "gists_url": "https://api.github.com/users/rom1504/gists{/gist_id}",
            "gravatar_id": "",
            "html_url": "https://github.com/rom1504",
            "id": 2346494,
            "login": "rom1504",
            "node_id": "MDQ6VXNlcjIzNDY0OTQ=",
            "organizations_url": "https://api.github.com/users/rom1504/orgs",
            "received_events_url": "https://api.github.com/users/rom1504/received_events",
            "repos_url": "https://api.github.com/users/rom1504/repos",
            "site_admin": false,
            "starred_url": "https://api.github.com/users/rom1504/starred{/owner}{/repo}",
            "subscriptions_url": "https://api.github.com/users/rom1504/subscriptions",
            "type": "User",
            "url": "https://api.github.com/users/rom1504"
        }
    ],
    "requested_teams": [],
    "review_comment_url": "https://api.github.com/repos/PrismarineJS/prismarine-repo-actions/pulls/comments{/number}",
    "review_comments": 0,
    "review_comments_url": "https://api.github.com/repos/PrismarineJS/prismarine-repo-actions/pulls/26/comments",
    "state": "closed",
    "statuses_url": "https://api.github.com/repos/PrismarineJS/prismarine-repo-actions/statuses/81e975cb31c54071e33b30708a6ea4d19dbd217c",
    "title": "Add a /mergeonpass command",
    "updated_at": "2024-04-25T08:02:00Z",
    "url": "https://api.github.com/repos/PrismarineJS/prismarine-repo-actions/pulls/26",
    "user": {
        "avatar_url": "https://avatars.githubusercontent.com/u/13713600?v=4",
        "events_url": "https://api.github.com/users/extremeheat/events{/privacy}",
        "followers_url": "https://api.github.com/users/extremeheat/followers",
        "following_url": "https://api.github.com/users/extremeheat/following{/other_user}",
        "gists_url": "https://api.github.com/users/extremeheat/gists{/gist_id}",
        "gravatar_id": "",
        "html_url": "https://github.com/extremeheat",
        "id": 13713600,
        "login": "extremeheat",
        "node_id": "MDQ6VXNlcjEzNzEzNjAw",
        "organizations_url": "https://api.github.com/users/extremeheat/orgs",
        "received_events_url": "https://api.github.com/users/extremeheat/received_events",
        "repos_url": "https://api.github.com/users/extremeheat/repos",
        "site_admin": false,
        "starred_url": "https://api.github.com/users/extremeheat/starred{/owner}{/repo}",
        "subscriptions_url": "https://api.github.com/users/extremeheat/subscriptions",
        "type": "User",
        "url": "https://api.github.com/users/extremeheat"
    }
}