{
    "_links": {
        "comments": {
            "href": "https://api.github.com/repos/PrismarineJS/node-minecraft-assets/issues/37/comments"
        },
        "commits": {
            "href": "https://api.github.com/repos/PrismarineJS/node-minecraft-assets/pulls/37/commits"
        },
        "html": {
            "href": "https://github.com/PrismarineJS/node-minecraft-assets/pull/37"
        },
        "issue": {
            "href": "https://api.github.com/repos/PrismarineJS/node-minecraft-assets/issues/37"
        },
        "review_comment": {
            "href": "https://api.github.com/repos/PrismarineJS/node-minecraft-assets/pulls/comments{/number}"
        },
        "review_comments": {
            "href": "https://api.github.com/repos/PrismarineJS/node-minecraft-assets/pulls/37/comments"
        },
        "self": {
            "href": "https://api.github.com/repos/PrismarineJS/node-minecraft-assets/pulls/37"
        },
        "statuses": {
            "href": "https://api.github.com/repos/PrismarineJS/node-minecraft-assets/statuses/a5c28434af70c7d0d705bc3db294b9ad9b193402"
        }
    },
    "active_lock_reason": null,
    "additions": 7,
    "assignee": null,
    "assignees": [],
    "author_association": "CONTRIBUTOR",
    "auto_merge": null,
    "base": {
        "label": "PrismarineJS:master",
        "ref": "master",
        "repo": {
            "allow_forking": true,
            "archive_url": "https://api.github.com/repos/PrismarineJS/node-minecraft-assets/{archive_format}{/ref}",
            "archived": false,
            "assignees_url": "https://api.github.com/repos/PrismarineJS/node-minecraft-assets/assignees{/user}",
            "blobs_url": "https://api.github.com/repos/PrismarineJS/node-minecraft-assets/git/blobs{/sha}",
            "branches_url": "https://api.github.com/repos/PrismarineJS/node-minecraft-assets/branches{/branch}",
            "clone_url": "https://github.com/PrismarineJS/node-minecraft-assets.git",
            "collaborators_url": "https://api.github.com/repos/PrismarineJS/node-minecraft-assets/collaborators{/collaborator}",
            "comments_url": "https://api.github.com/repos/PrismarineJS/node-minecraft-assets/comments{/number}",
            "commits_url": "https://api.github.com/repos/PrismarineJS/node-minecraft-assets/commits{/sha}",
            "compare_url": "https://api.github.com/repos/PrismarineJS/node-minecraft-assets/compare/{base}...{head}",
            "contents_url": "https://api.github.com/repos/PrismarineJS/node-minecraft-assets/contents/{+path}",
            "contributors_url": "https://api.github.com/repos/PrismarineJS/node-minecraft-assets/contributors",
            "created_at": "2016-03-18T17:56:46Z",
            "default_branch": "master",
            "deployments_url": "https://api.github.com/repos/PrismarineJS/node-minecraft-assets/deployments",
            "description": "Provide minecraft assets in node.js",
            "disabled": false,
            "downloads_url": "https://api.github.com/repos/PrismarineJS/node-minecraft-assets/downloads",
            "events_url": "https://api.github.com/repos/PrismarineJS/node-minecraft-assets/events",
            "fork": false,
            "forks": 14,
            "forks_count": 14,
            "forks_url": "https://api.github.com/repos/PrismarineJS/node-minecraft-assets/forks",
            "full_name": "PrismarineJS/node-minecraft-assets",
            "git_commits_url": "https://api.github.com/repos/PrismarineJS/node-minecraft-assets/git/commits{/sha}",
            "git_refs_url": "https://api.github.com/repos/PrismarineJS/node-minecraft-assets/git/refs{/sha}",
            "git_tags_url": "https://api.github.com/repos/PrismarineJS/node-minecraft-assets/git/tags{/sha}",
            "git_url": "git://github.com/PrismarineJS/node-minecraft-assets.git",
            "has_discussions": false,
            "has_downloads": true,
            "has_issues": true,
            "has_pages": false,
            "has_projects": true,
            "has_wiki": true,
            "homepage": null,
            "hooks_url": "https://api.github.com/repos/PrismarineJS/node-minecraft-assets/hooks",
            "html_url": "https://github.com/PrismarineJS/node-minecraft-assets",
            "id": 54221312,
            "is_template": false,
            "issue_comment_url": "https://api.github.com/repos/PrismarineJS/node-minecraft-assets/issues/comments{/number}",
            "issue_events_url": "https://api.github.com/repos/PrismarineJS/node-minecraft-assets/issues/events{/number}",
            "issues_url": "https://api.github.com/repos/PrismarineJS/node-minecraft-assets/issues{/number}",
            "keys_url": "https://api.github.com/repos/PrismarineJS/node-minecraft-assets/keys{/key_id}",
            "labels_url": "https://api.github.com/repos/PrismarineJS/node-minecraft-assets/labels{/name}",
            "language": "JavaScript",
            "languages_url": "https://api.github.com/repos/PrismarineJS/node-minecraft-assets/languages",
            "license": null,
            "merges_url": "https://api.github.com/repos/PrismarineJS/node-minecraft-assets/merges",
            "milestones_url": "https://api.github.com/repos/PrismarineJS/node-minecraft-assets/milestones{/number}",
            "mirror_url": null,
            "name": "node-minecraft-assets",
            "node_id": "MDEwOlJlcG9zaXRvcnk1NDIyMTMxMg==",
            "notifications_url": "https://api.github.com/repos/PrismarineJS/node-minecraft-assets/notifications{?since,all,participating}",
            "open_issues": 6,
            "open_issues_count": 6,
            "owner": {
                "avatar_url": "https://avatars.githubusercontent.com/u/11053411?v=4",
                "events_url": "https://api.github.com/users/PrismarineJS/events{/privacy}",
                "followers_url": "https://api.github.com/users/PrismarineJS/followers",
                "following_url": "https://api.github.com/users/PrismarineJS/following{/other_user}",
                "gists_url": "https://api.github.com/users/PrismarineJS/gists{/gist_id}",
                "gravatar_id": "",
                "html_url": "https://github.com/PrismarineJS",
                "id": 11053411,
                "login": "PrismarineJS",
                "node_id": "MDEyOk9yZ2FuaXphdGlvbjExMDUzNDEx",
                "organizations_url": "https://api.github.com/users/PrismarineJS/orgs",
                "received_events_url": "https://api.github.com/users/PrismarineJS/received_events",
                "repos_url": "https://api.github.com/users/PrismarineJS/repos",
                "site_admin": false,
                "starred_url": "https://api.github.com/users/PrismarineJS/starred{/owner}{/repo}",
                "subscriptions_url": "https://api.github.com/users/PrismarineJS/subscriptions",
                "type": "Organization",
                "url": "https://api.github.com/users/PrismarineJS",
                "user_view_type": "public"
            },
            "private": false,
            "pulls_url": "https://api.github.com/repos/PrismarineJS/node-minecraft-assets/pulls{/number}",
            "pushed_at": "2025-02-09T08:01:17Z",
            "releases_url": "https://api.github.com/repos/PrismarineJS/node-minecraft-assets/releases{/id}",
            "size": 55,
            "ssh_url": "git@github.com:PrismarineJS/node-minecraft-assets.git",
            "stargazers_count": 18,
            "stargazers_url": "https://api.github.com/repos/PrismarineJS/node-minecraft-assets/stargazers",
            "statuses_url": "https://api.github.com/repos/PrismarineJS/node-minecraft-assets/statuses/{sha}",
            "subscribers_url": "https://api.github.com/repos/PrismarineJS/node-minecraft-assets/subscribers",
            "subscription_url": "https://api.github.com/repos/PrismarineJS/node-minecraft-assets/subscription",
            "svn_url": "https://github.com/PrismarineJS/node-minecraft-assets",
            "tags_url": "https://api.github.com/repos/PrismarineJS/node-minecraft-assets/tags",
            "teams_url": "https://api.github.com/repos/PrismarineJS/node-minecraft-assets/teams",
            "topics": [],
            "trees_url": "https://api.github.com/repos/PrismarineJS/node-minecraft-assets/git/trees{/sha}",
            "updated_at": "2025-02-09T08:00:19Z",
            "url": "https://api.github.com/repos/PrismarineJS/node-minecraft-assets",
            "visibility": "public",
            "watchers": 18,
            "watchers_count": 18,
            "web_commit_signoff_required": false
        },
        "sha": "b03f9cc46ae16f56f55634edc408c6d2fe4a21b3",
        "user": {
            "avatar_url": "https://avatars.githubusercontent.com/u/11053411?v=4",
            "events_url": "https://api.github.com/users/PrismarineJS/events{/privacy}",
            "followers_url": "https://api.github.com/users/PrismarineJS/followers",
            "following_url": "https://api.github.com/users/PrismarineJS/following{/other_user}",
            "gists_url": "https://api.github.com/users/PrismarineJS/gists{/gist_id}",
            "gravatar_id": "",
            "html_url": "https://github.com/PrismarineJS",
            "id": 11053411,
            "login": "PrismarineJS",
            "node_id": "MDEyOk9yZ2FuaXphdGlvbjExMDUzNDEx",
            "organizations_url": "https://api.github.com/users/PrismarineJS/orgs",
            "received_events_url": "https://api.github.com/users/PrismarineJS/received_events",
            "repos_url": "https://api.github.com/users/PrismarineJS/repos",
            "site_admin": false,
            "starred_url": "https://api.github.com/users/PrismarineJS/starred{/owner}{/repo}",
            "subscriptions_url": "https://api.github.com/users/PrismarineJS/subscriptions",
            "type": "Organization",
            "url": "https://api.github.com/users/PrismarineJS",
            "user_view_type": "public"
        }
    },
    "body": "Waiting on https://github.com/PrismarineJS/minecraft-assets/pull/33",
    "changed_files": 1,
    "closed_at": "2025-02-09T07:59:18Z",
    "comment_data": [],
    "comment_regular_data": [
        {
            "author_association": "MEMBER",
            "body": "/makerelease",
            "created_at": "2025-02-09T07:59:28Z",
            "html_url": "https://github.com/PrismarineJS/node-minecraft-assets/pull/37#issuecomment-2646114722",
            "id": 2646114722,
            "issue_url": "https://api.github.com/repos/PrismarineJS/node-minecraft-assets/issues/37",
            "node_id": "IC_kwDOAztaAM6duIGi",
            "performed_via_github_app": null,
            "reactions": {
                "+1": 0,
                "-1": 0,
                "confused": 0,
                "eyes": 1,
                "heart": 0,
                "hooray": 0,
                "laugh": 0,
                "rocket": 0,
                "total_count": 1,
                "url": "https://api.github.com/repos/PrismarineJS/node-minecraft-assets/issues/comments/2646114722/reactions"
            },
            "updated_at": "2025-02-09T07:59:28Z",
            "url": "https://api.github.com/repos/PrismarineJS/node-minecraft-assets/issues/comments/2646114722",
            "user": {
                "avatar_url": "https://avatars.githubusercontent.com/u/2346494?v=4",
                "events_url": "https://api.github.com/users/rom1504/events{/privacy}",
                "followers_url": "https://api.github.com/users/rom1504/followers",
                "following_url": "https://api.github.com/users/rom1504/following{/other_user}",
                "gists_url": "https://api.github.com/users/rom1504/gists{/gist_id}",
                "gravatar_id": "",
                "html_url": "https://github.com/rom1504",
                "id": 2346494,
                "login": "rom1504",
                "node_id": "MDQ6VXNlcjIzNDY0OTQ=",
                "organizations_url": "https://api.github.com/users/rom1504/orgs",
                "received_events_url": "https://api.github.com/users/rom1504/received_events",
                "repos_url": "https://api.github.com/users/rom1504/repos",
                "site_admin": false,
                "starred_url": "https://api.github.com/users/rom1504/starred{/owner}{/repo}",
                "subscriptions_url": "https://api.github.com/users/rom1504/subscriptions",
                "type": "User",
                "url": "https://api.github.com/users/rom1504",
                "user_view_type": "public"
            }
        }
    ],
    "comments": 1,
    "comments_url": "https://api.github.com/repos/PrismarineJS/node-minecraft-assets/issues/37/comments",
    "commit_data": [
        {
            "author": {
                "avatar_url": "https://avatars.githubusercontent.com/u/45374546?v=4",
                "events_url": "https://api.github.com/users/SuperGamerTron/events{/privacy}",
                "followers_url": "https://api.github.com/users/SuperGamerTron/followers",
                "following_url": "https://api.github.com/users/SuperGamerTron/following{/other_user}",
                "gists_url": "https://api.github.com/users/SuperGamerTron/gists{/gist_id}",
                "gravatar_id": "",
                "html_url": "https://github.com/SuperGamerTron",
                "id": 45374546,
                "login": "SuperGamerTron",
                "node_id": "MDQ6VXNlcjQ1Mzc0NTQ2",
                "organizations_url": "https://api.github.com/users/SuperGamerTron/orgs",
                "received_events_url": "https://api.github.com/users/SuperGamerTron/received_events",
                "repos_url": "https://api.github.com/users/SuperGamerTron/repos",
                "site_admin": false,
                "starred_url": "https://api.github.com/users/SuperGamerTron/starred{/owner}{/repo}",
                "subscriptions_url": "https://api.github.com/users/SuperGamerTron/subscriptions",
                "type": "User",
                "url": "https://api.github.com/users/SuperGamerTron",
                "user_view_type": "public"
            },
            "comments_url": "https://api.github.com/repos/PrismarineJS/node-minecraft-assets/commits/a5c28434af70c7d0d705bc3db294b9ad9b193402/comments",
            "commit": {
                "author": {
                    "date": "2025-01-21T23:36:15Z",
                    "email": "oomonkeygaming@gmail.com",
                    "name": "SuperGamerTron"
                },
                "comment_count": 0,
                "committer": {
                    "date": "2025-01-21T23:37:22Z",
                    "email": "oomonkeygaming@gmail.com",
                    "name": "SuperGamerTron"
                },
                "message": "1.21.4",
                "tree": {
                    "sha": "6fa75b564b4f788ddfcdb214d8b604a075e11ba4",
                    "url": "https://api.github.com/repos/PrismarineJS/node-minecraft-assets/git/trees/6fa75b564b4f788ddfcdb214d8b604a075e11ba4"
                },
                "url": "https://api.github.com/repos/PrismarineJS/node-minecraft-assets/git/commits/a5c28434af70c7d0d705bc3db294b9ad9b193402",
                "verification": {
                    "payload": null,
                    "reason": "unsigned",
                    "signature": null,
                    "verified": false,
                    "verified_at": null
                }
            },
            "committer": {
                "avatar_url": "https://avatars.githubusercontent.com/u/45374546?v=4",
                "events_url": "https://api.github.com/users/SuperGamerTron/events{/privacy}",
                "followers_url": "https://api.github.com/users/SuperGamerTron/followers",
                "following_url": "https://api.github.com/users/SuperGamerTron/following{/other_user}",
                "gists_url": "https://api.github.com/users/SuperGamerTron/gists{/gist_id}",
                "gravatar_id": "",
                "html_url": "https://github.com/SuperGamerTron",
                "id": 45374546,
                "login": "SuperGamerTron",
                "node_id": "MDQ6VXNlcjQ1Mzc0NTQ2",
                "organizations_url": "https://api.github.com/users/SuperGamerTron/orgs",
                "received_events_url": "https://api.github.com/users/SuperGamerTron/received_events",
                "repos_url": "https://api.github.com/users/SuperGamerTron/repos",
                "site_admin": false,
                "starred_url": "https://api.github.com/users/SuperGamerTron/starred{/owner}{/repo}",
                "subscriptions_url": "https://api.github.com/users/SuperGamerTron/subscriptions",
                "type": "User",
                "url": "https://api.github.com/users/SuperGamerTron",
                "user_view_type": "public"
            },
            "html_url": "https://github.com/PrismarineJS/node-minecraft-assets/commit/a5c28434af70c7d0d705bc3db294b9ad9b193402",
            "node_id": "C_kwDONtrY_doAKGE1YzI4NDM0YWY3MGM3ZDBkNzA1YmMzZGIyOTRiOWFkOWIxOTM0MDI",
            "parents": [
                {
                    "html_url": "https://github.com/PrismarineJS/node-minecraft-assets/commit/b03f9cc46ae16f56f55634edc408c6d2fe4a21b3",
                    "sha": "b03f9cc46ae16f56f55634edc408c6d2fe4a21b3",
                    "url": "https://api.github.com/repos/PrismarineJS/node-minecraft-assets/commits/b03f9cc46ae16f56f55634edc408c6d2fe4a21b3"
                }
            ],
            "sha": "a5c28434af70c7d0d705bc3db294b9ad9b193402",
            "url": "https://api.github.com/repos/PrismarineJS/node-minecraft-assets/commits/a5c28434af70c7d0d705bc3db294b9ad9b193402"
        }
    ],
    "commits": 1,
    "commits_url": "https://api.github.com/repos/PrismarineJS/node-minecraft-assets/pulls/37/commits",
    "created_at": "2025-01-21T23:38:02Z",
    "deletions": 0,
    "diff_url": "https://github.com/PrismarineJS/node-minecraft-assets/pull/37.diff",
    "draft": false,
    "head": {
        "label": "SuperGamerTron:1.21.4",
        "ref": "1.21.4",
        "repo": {
            "allow_forking": true,
            "archive_url": "https://api.github.com/repos/SuperGamerTron/node-minecraft-assets/{archive_format}{/ref}",
            "archived": false,
            "assignees_url": "https://api.github.com/repos/SuperGamerTron/node-minecraft-assets/assignees{/user}",
            "blobs_url": "https://api.github.com/repos/SuperGamerTron/node-minecraft-assets/git/blobs{/sha}",
            "branches_url": "https://api.github.com/repos/SuperGamerTron/node-minecraft-assets/branches{/branch}",
            "clone_url": "https://github.com/SuperGamerTron/node-minecraft-assets.git",
            "collaborators_url": "https://api.github.com/repos/SuperGamerTron/node-minecraft-assets/collaborators{/collaborator}",
            "comments_url": "https://api.github.com/repos/SuperGamerTron/node-minecraft-assets/comments{/number}",
            "commits_url": "https://api.github.com/repos/SuperGamerTron/node-minecraft-assets/commits{/sha}",
            "compare_url": "https://api.github.com/repos/SuperGamerTron/node-minecraft-assets/compare/{base}...{head}",
            "contents_url": "https://api.github.com/repos/SuperGamerTron/node-minecraft-assets/contents/{+path}",
            "contributors_url": "https://api.github.com/repos/SuperGamerTron/node-minecraft-assets/contributors",
            "created_at": "2025-01-21T23:34:06Z",
            "default_branch": "master",
            "deployments_url": "https://api.github.com/repos/SuperGamerTron/node-minecraft-assets/deployments",
            "description": "Provide minecraft assets in node.js",
            "disabled": false,
            "downloads_url": "https://api.github.com/repos/SuperGamerTron/node-minecraft-assets/downloads",
            "events_url": "https://api.github.com/repos/SuperGamerTron/node-minecraft-assets/events",
            "fork": true,
            "forks": 0,
            "forks_count": 0,
            "forks_url": "https://api.github.com/repos/SuperGamerTron/node-minecraft-assets/forks",
            "full_name": "SuperGamerTron/node-minecraft-assets",
            "git_commits_url": "https://api.github.com/repos/SuperGamerTron/node-minecraft-assets/git/commits{/sha}",
            "git_refs_url": "https://api.github.com/repos/SuperGamerTron/node-minecraft-assets/git/refs{/sha}",
            "git_tags_url": "https://api.github.com/repos/SuperGamerTron/node-minecraft-assets/git/tags{/sha}",
            "git_url": "git://github.com/SuperGamerTron/node-minecraft-assets.git",
            "has_discussions": false,
            "has_downloads": true,
            "has_issues": false,
            "has_pages": false,
            "has_projects": true,
            "has_wiki": true,
            "homepage": null,
            "hooks_url": "https://api.github.com/repos/SuperGamerTron/node-minecraft-assets/hooks",
            "html_url": "https://github.com/SuperGamerTron/node-minecraft-assets",
            "id": 920312061,
            "is_template": false,
            "issue_comment_url": "https://api.github.com/repos/SuperGamerTron/node-minecraft-assets/issues/comments{/number}",
            "issue_events_url": "https://api.github.com/repos/SuperGamerTron/node-minecraft-assets/issues/events{/number}",
            "issues_url": "https://api.github.com/repos/SuperGamerTron/node-minecraft-assets/issues{/number}",
            "keys_url": "https://api.github.com/repos/SuperGamerTron/node-minecraft-assets/keys{/key_id}",
            "labels_url": "https://api.github.com/repos/SuperGamerTron/node-minecraft-assets/labels{/name}",
            "language": null,
            "languages_url": "https://api.github.com/repos/SuperGamerTron/node-minecraft-assets/languages",
            "license": null,
            "merges_url": "https://api.github.com/repos/SuperGamerTron/node-minecraft-assets/merges",
            "milestones_url": "https://api.github.com/repos/SuperGamerTron/node-minecraft-assets/milestones{/number}",
            "mirror_url": null,
            "name": "node-minecraft-assets",
            "node_id": "R_kgDONtrY_Q",
            "notifications_url": "https://api.github.com/repos/SuperGamerTron/node-minecraft-assets/notifications{?since,all,participating}",
            "open_issues": 0,
            "open_issues_count": 0,
            "owner": {
                "avatar_url": "https://avatars.githubusercontent.com/u/45374546?v=4",
                "events_url": "https://api.github.com/users/SuperGamerTron/events{/privacy}",
                "followers_url": "https://api.github.com/users/SuperGamerTron/followers",
                "following_url": "https://api.github.com/users/SuperGamerTron/following{/other_user}",
                "gists_url": "https://api.github.com/users/SuperGamerTron/gists{/gist_id}",
                "gravatar_id": "",
                "html_url": "https://github.com/SuperGamerTron",
                "id": 45374546,
                "login": "SuperGamerTron",
                "node_id": "MDQ6VXNlcjQ1Mzc0NTQ2",
                "organizations_url": "https://api.github.com/users/SuperGamerTron/orgs",
                "received_events_url": "https://api.github.com/users/SuperGamerTron/received_events",
                "repos_url": "https://api.github.com/users/SuperGamerTron/repos",
                "site_admin": false,
                "starred_url": "https://api.github.com/users/SuperGamerTron/starred{/owner}{/repo}",
                "subscriptions_url": "https://api.github.com/users/SuperGamerTron/subscriptions",
                "type": "User",
                "url": "https://api.github.com/users/SuperGamerTron",
                "user_view_type": "public"
            },
            "private": false,
            "pulls_url": "https://api.github.com/repos/SuperGamerTron/node-minecraft-assets/pulls{/number}",
            "pushed_at": "2025-01-21T23:37:27Z",
            "releases_url": "https://api.github.com/repos/SuperGamerTron/node-minecraft-assets/releases{/id}",
            "size": 46,
            "ssh_url": "git@github.com:SuperGamerTron/node-minecraft-assets.git",
            "stargazers_count": 0,
            "stargazers_url": "https://api.github.com/repos/SuperGamerTron/node-minecraft-assets/stargazers",
            "statuses_url": "https://api.github.com/repos/SuperGamerTron/node-minecraft-assets/statuses/{sha}",
            "subscribers_url": "https://api.github.com/repos/SuperGamerTron/node-minecraft-assets/subscribers",
            "subscription_url": "https://api.github.com/repos/SuperGamerTron/node-minecraft-assets/subscription",
            "svn_url": "https://github.com/SuperGamerTron/node-minecraft-assets",
            "tags_url": "https://api.github.com/repos/SuperGamerTron/node-minecraft-assets/tags",
            "teams_url": "https://api.github.com/repos/SuperGamerTron/node-minecraft-assets/teams",
            "topics": [],
            "trees_url": "https://api.github.com/repos/SuperGamerTron/node-minecraft-assets/git/trees{/sha}",
            "updated_at": "2025-01-21T23:34:07Z",
            "url": "https://api.github.com/repos/SuperGamerTron/node-minecraft-assets",
            "visibility": "public",
            "watchers": 0,
            "watchers_count": 0,
            "web_commit_signoff_required": false
        },
        "sha": "a5c28434af70c7d0d705bc3db294b9ad9b193402",
        "user": {
            "avatar_url": "https://avatars.githubusercontent.com/u/45374546?v=4",
            "events_url": "https://api.github.com/users/SuperGamerTron/events{/privacy}",
            "followers_url": "https://api.github.com/users/SuperGamerTron/followers",
            "following_url": "https://api.github.com/users/SuperGamerTron/following{/other_user}",
            "gists_url": "https://api.github.com/users/SuperGamerTron/gists{/gist_id}",
            "gravatar_id": "",
            "html_url": "https://github.com/SuperGamerTron",
            "id": 45374546,
            "login": "SuperGamerTron",
            "node_id": "MDQ6VXNlcjQ1Mzc0NTQ2",
            "organizations_url": "https://api.github.com/users/SuperGamerTron/orgs",
            "received_events_url": "https://api.github.com/users/SuperGamerTron/received_events",
            "repos_url": "https://api.github.com/users/SuperGamerTron/repos",
            "site_admin": false,
            "starred_url": "https://api.github.com/users/SuperGamerTron/starred{/owner}{/repo}",
            "subscriptions_url": "https://api.github.com/users/SuperGamerTron/subscriptions",
            "type": "User",
            "url": "https://api.github.com/users/SuperGamerTron",
            "user_view_type": "public"
        }
    },
    "html_url": "https://github.com/PrismarineJS/node-minecraft-assets/pull/37",
    "id": 2291046602,
    "issue_url": "https://api.github.com/repos/PrismarineJS/node-minecraft-assets/issues/37",
    "labels": [],
    "locked": false,
    "maintainer_can_modify": false,
    "merge_commit_sha": "4c9d01215e8ffd617f10c2f3ba5fe784d33e5c43",
    "mergeable": null,
    "mergeable_state": "unknown",
    "merged": true,
    "merged_at": "2025-02-09T07:59:18Z",
    "merged_by": {
        "avatar_url": "https://avatars.githubusercontent.com/u/2346494?v=4",
        "events_url": "https://api.github.com/users/rom1504/events{/privacy}",
        "followers_url": "https://api.github.com/users/rom1504/followers",
        "following_url": "https://api.github.com/users/rom1504/following{/other_user}",
        "gists_url": "https://api.github.com/users/rom1504/gists{/gist_id}",
        "gravatar_id": "",
        "html_url": "https://github.com/rom1504",
        "id": 2346494,
        "login": "rom1504",
        "node_id": "MDQ6VXNlcjIzNDY0OTQ=",
        "organizations_url": "https://api.github.com/users/rom1504/orgs",
        "received_events_url": "https://api.github.com/users/rom1504/received_events",
        "repos_url": "https://api.github.com/users/rom1504/repos",
        "site_admin": false,
        "starred_url": "https://api.github.com/users/rom1504/starred{/owner}{/repo}",
        "subscriptions_url": "https://api.github.com/users/rom1504/subscriptions",
        "type": "User",
        "url": "https://api.github.com/users/rom1504",
        "user_view_type": "public"
    },
    "milestone": null,
    "node_id": "PR_kwDOAztaAM6IjpjK",
    "number": 37,
    "patch_url": "https://github.com/PrismarineJS/node-minecraft-assets/pull/37.patch",
    "rebaseable": null,
    "requested_reviewers": [],
    "requested_teams": [],
    "review_comment_url": "https://api.github.com/repos/PrismarineJS/node-minecraft-assets/pulls/comments{/number}",
    "review_comments": 0,
    "review_comments_url": "https://api.github.com/repos/PrismarineJS/node-minecraft-assets/pulls/37/comments",
    "state": "closed",
    "statuses_url": "https://api.github.com/repos/PrismarineJS/node-minecraft-assets/statuses/a5c28434af70c7d0d705bc3db294b9ad9b193402",
    "title": "1.21.4",
    "updated_at": "2025-02-09T07:59:29Z",
    "url": "https://api.github.com/repos/PrismarineJS/node-minecraft-assets/pulls/37",
    "user": {
        "avatar_url": "https://avatars.githubusercontent.com/u/45374546?v=4",
        "events_url": "https://api.github.com/users/SuperGamerTron/events{/privacy}",
        "followers_url": "https://api.github.com/users/SuperGamerTron/followers",
        "following_url": "https://api.github.com/users/SuperGamerTron/following{/other_user}",
        "gists_url": "https://api.github.com/users/SuperGamerTron/gists{/gist_id}",
        "gravatar_id": "",
        "html_url": "https://github.com/SuperGamerTron",
        "id": 45374546,
        "login": "SuperGamerTron",
        "node_id": "MDQ6VXNlcjQ1Mzc0NTQ2",
        "organizations_url": "https://api.github.com/users/SuperGamerTron/orgs",
        "received_events_url": "https://api.github.com/users/SuperGamerTron/received_events",
        "repos_url": "https://api.github.com/users/SuperGamerTron/repos",
        "site_admin": false,
        "starred_url": "https://api.github.com/users/SuperGamerTron/starred{/owner}{/repo}",
        "subscriptions_url": "https://api.github.com/users/SuperGamerTron/subscriptions",
        "type": "User",
        "url": "https://api.github.com/users/SuperGamerTron",
        "user_view_type": "public"
    }
}