{
    "_links": {
        "comments": {
            "href": "https://api.github.com/repos/PrismarineJS/prismarine-provider-raw/issues/3/comments"
        },
        "commits": {
            "href": "https://api.github.com/repos/PrismarineJS/prismarine-provider-raw/pulls/3/commits"
        },
        "html": {
            "href": "https://github.com/PrismarineJS/prismarine-provider-raw/pull/3"
        },
        "issue": {
            "href": "https://api.github.com/repos/PrismarineJS/prismarine-provider-raw/issues/3"
        },
        "review_comment": {
            "href": "https://api.github.com/repos/PrismarineJS/prismarine-provider-raw/pulls/comments{/number}"
        },
        "review_comments": {
            "href": "https://api.github.com/repos/PrismarineJS/prismarine-provider-raw/pulls/3/comments"
        },
        "self": {
            "href": "https://api.github.com/repos/PrismarineJS/prismarine-provider-raw/pulls/3"
        },
        "statuses": {
            "href": "https://api.github.com/repos/PrismarineJS/prismarine-provider-raw/statuses/4d4fb59636f3e62d43c43a949808cd38fa278f60"
        }
    },
    "active_lock_reason": null,
    "additions": 1,
    "assignee": null,
    "assignees": [],
    "author_association": "CONTRIBUTOR",
    "auto_merge": null,
    "base": {
        "label": "PrismarineJS:master",
        "ref": "master",
        "repo": {
            "allow_forking": true,
            "archive_url": "https://api.github.com/repos/PrismarineJS/prismarine-provider-raw/{archive_format}{/ref}",
            "archived": false,
            "assignees_url": "https://api.github.com/repos/PrismarineJS/prismarine-provider-raw/assignees{/user}",
            "blobs_url": "https://api.github.com/repos/PrismarineJS/prismarine-provider-raw/git/blobs{/sha}",
            "branches_url": "https://api.github.com/repos/PrismarineJS/prismarine-provider-raw/branches{/branch}",
            "clone_url": "https://github.com/PrismarineJS/prismarine-provider-raw.git",
            "collaborators_url": "https://api.github.com/repos/PrismarineJS/prismarine-provider-raw/collaborators{/collaborator}",
            "comments_url": "https://api.github.com/repos/PrismarineJS/prismarine-provider-raw/comments{/number}",
            "commits_url": "https://api.github.com/repos/PrismarineJS/prismarine-provider-raw/commits{/sha}",
            "compare_url": "https://api.github.com/repos/PrismarineJS/prismarine-provider-raw/compare/{base}...{head}",
            "contents_url": "https://api.github.com/repos/PrismarineJS/prismarine-provider-raw/contents/{+path}",
            "contributors_url": "https://api.github.com/repos/PrismarineJS/prismarine-provider-raw/contributors",
            "created_at": "2020-08-08T14:58:39Z",
            "default_branch": "master",
            "deployments_url": "https://api.github.com/repos/PrismarineJS/prismarine-provider-raw/deployments",
            "description": "Raw (prismarine-chunk based) Storage Provider implementation. ",
            "disabled": false,
            "downloads_url": "https://api.github.com/repos/PrismarineJS/prismarine-provider-raw/downloads",
            "events_url": "https://api.github.com/repos/PrismarineJS/prismarine-provider-raw/events",
            "fork": false,
            "forks": 2,
            "forks_count": 2,
            "forks_url": "https://api.github.com/repos/PrismarineJS/prismarine-provider-raw/forks",
            "full_name": "PrismarineJS/prismarine-provider-raw",
            "git_commits_url": "https://api.github.com/repos/PrismarineJS/prismarine-provider-raw/git/commits{/sha}",
            "git_refs_url": "https://api.github.com/repos/PrismarineJS/prismarine-provider-raw/git/refs{/sha}",
            "git_tags_url": "https://api.github.com/repos/PrismarineJS/prismarine-provider-raw/git/tags{/sha}",
            "git_url": "git://github.com/PrismarineJS/prismarine-provider-raw.git",
            "has_discussions": false,
            "has_downloads": true,
            "has_issues": true,
            "has_pages": false,
            "has_projects": true,
            "has_wiki": true,
            "homepage": "",
            "hooks_url": "https://api.github.com/repos/PrismarineJS/prismarine-provider-raw/hooks",
            "html_url": "https://github.com/PrismarineJS/prismarine-provider-raw",
            "id": 286063949,
            "is_template": false,
            "issue_comment_url": "https://api.github.com/repos/PrismarineJS/prismarine-provider-raw/issues/comments{/number}",
            "issue_events_url": "https://api.github.com/repos/PrismarineJS/prismarine-provider-raw/issues/events{/number}",
            "issues_url": "https://api.github.com/repos/PrismarineJS/prismarine-provider-raw/issues{/number}",
            "keys_url": "https://api.github.com/repos/PrismarineJS/prismarine-provider-raw/keys{/key_id}",
            "labels_url": "https://api.github.com/repos/PrismarineJS/prismarine-provider-raw/labels{/name}",
            "language": "JavaScript",
            "languages_url": "https://api.github.com/repos/PrismarineJS/prismarine-provider-raw/languages",
            "license": {
                "key": "mit",
                "name": "MIT License",
                "node_id": "MDc6TGljZW5zZTEz",
                "spdx_id": "MIT",
                "url": "https://api.github.com/licenses/mit"
            },
            "merges_url": "https://api.github.com/repos/PrismarineJS/prismarine-provider-raw/merges",
            "milestones_url": "https://api.github.com/repos/PrismarineJS/prismarine-provider-raw/milestones{/number}",
            "mirror_url": null,
            "name": "prismarine-provider-raw",
            "node_id": "MDEwOlJlcG9zaXRvcnkyODYwNjM5NDk=",
            "notifications_url": "https://api.github.com/repos/PrismarineJS/prismarine-provider-raw/notifications{?since,all,participating}",
            "open_issues": 4,
            "open_issues_count": 4,
            "owner": {
                "avatar_url": "https://avatars.githubusercontent.com/u/11053411?v=4",
                "events_url": "https://api.github.com/users/PrismarineJS/events{/privacy}",
                "followers_url": "https://api.github.com/users/PrismarineJS/followers",
                "following_url": "https://api.github.com/users/PrismarineJS/following{/other_user}",
                "gists_url": "https://api.github.com/users/PrismarineJS/gists{/gist_id}",
                "gravatar_id": "",
                "html_url": "https://github.com/PrismarineJS",
                "id": 11053411,
                "login": "PrismarineJS",
                "node_id": "MDEyOk9yZ2FuaXphdGlvbjExMDUzNDEx",
                "organizations_url": "https://api.github.com/users/PrismarineJS/orgs",
                "received_events_url": "https://api.github.com/users/PrismarineJS/received_events",
                "repos_url": "https://api.github.com/users/PrismarineJS/repos",
                "site_admin": false,
                "starred_url": "https://api.github.com/users/PrismarineJS/starred{/owner}{/repo}",
                "subscriptions_url": "https://api.github.com/users/PrismarineJS/subscriptions",
                "type": "Organization",
                "url": "https://api.github.com/users/PrismarineJS"
            },
            "private": false,
            "pulls_url": "https://api.github.com/repos/PrismarineJS/prismarine-provider-raw/pulls{/number}",
            "pushed_at": "2023-04-10T11:59:11Z",
            "releases_url": "https://api.github.com/repos/PrismarineJS/prismarine-provider-raw/releases{/id}",
            "size": 25,
            "ssh_url": "git@github.com:PrismarineJS/prismarine-provider-raw.git",
            "stargazers_count": 1,
            "stargazers_url": "https://api.github.com/repos/PrismarineJS/prismarine-provider-raw/stargazers",
            "statuses_url": "https://api.github.com/repos/PrismarineJS/prismarine-provider-raw/statuses/{sha}",
            "subscribers_url": "https://api.github.com/repos/PrismarineJS/prismarine-provider-raw/subscribers",
            "subscription_url": "https://api.github.com/repos/PrismarineJS/prismarine-provider-raw/subscription",
            "svn_url": "https://github.com/PrismarineJS/prismarine-provider-raw",
            "tags_url": "https://api.github.com/repos/PrismarineJS/prismarine-provider-raw/tags",
            "teams_url": "https://api.github.com/repos/PrismarineJS/prismarine-provider-raw/teams",
            "topics": [],
            "trees_url": "https://api.github.com/repos/PrismarineJS/prismarine-provider-raw/git/trees{/sha}",
            "updated_at": "2021-06-16T21:05:09Z",
            "url": "https://api.github.com/repos/PrismarineJS/prismarine-provider-raw",
            "visibility": "public",
            "watchers": 1,
            "watchers_count": 1,
            "web_commit_signoff_required": false
        },
        "sha": "eb8153015779601d390ee0a9b2aec001ab727697",
        "user": {
            "avatar_url": "https://avatars.githubusercontent.com/u/11053411?v=4",
            "events_url": "https://api.github.com/users/PrismarineJS/events{/privacy}",
            "followers_url": "https://api.github.com/users/PrismarineJS/followers",
            "following_url": "https://api.github.com/users/PrismarineJS/following{/other_user}",
            "gists_url": "https://api.github.com/users/PrismarineJS/gists{/gist_id}",
            "gravatar_id": "",
            "html_url": "https://github.com/PrismarineJS",
            "id": 11053411,
            "login": "PrismarineJS",
            "node_id": "MDEyOk9yZ2FuaXphdGlvbjExMDUzNDEx",
            "organizations_url": "https://api.github.com/users/PrismarineJS/orgs",
            "received_events_url": "https://api.github.com/users/PrismarineJS/received_events",
            "repos_url": "https://api.github.com/users/PrismarineJS/repos",
            "site_admin": false,
            "starred_url": "https://api.github.com/users/PrismarineJS/starred{/owner}{/repo}",
            "subscriptions_url": "https://api.github.com/users/PrismarineJS/subscriptions",
            "type": "Organization",
            "url": "https://api.github.com/users/PrismarineJS"
        }
    },
    "body": "Bumps [jest](https://github.com/facebook/jest) from 26.6.3 to 27.0.1.\n<details>\n<summary>Release notes</summary>\n<p><em>Sourced from <a href=\"https://github.com/facebook/jest/releases\">jest's releases</a>.</em></p>\n<blockquote>\n<h2>27.0.1</h2>\n<h3>Fixes</h3>\n<ul>\n<li><code>[jest-environment-jsdom]</code> Bump version of JSDOM to avoid deprecated <code>request</code> package (<a href=\"https://github-redirect.dependabot.com/facebook/jest/pull/11442\">#11442</a>)</li>\n</ul>\n<h2>27.0.0</h2>\n<p><a href=\"https://jestjs.io/blog/2021/03/09/jest-website-upgrade\">Blog post</a></p>\n<h3>Features</h3>\n<ul>\n<li><code>[babel-jest]</code> Add async transformation (<a href=\"https://github-redirect.dependabot.com/facebook/jest/pull/11192\">#11192</a>)</li>\n<li><code>[jest-changed-files]</code> Use '--' to separate paths from revisions (<a href=\"https://github-redirect.dependabot.com/facebook/jest/pull/11160\">#11160</a>)</li>\n<li><code>[jest-circus]</code> [<strong>BREAKING</strong>] Fail tests when multiple <code>done()</code> calls are made (<a href=\"https://github-redirect.dependabot.com/facebook/jest/pull/10624\">#10624</a>)</li>\n<li><code>[jest-circus, jest-jasmine2]</code> [<strong>BREAKING</strong>] Fail the test instead of just warning when describe returns a value (<a href=\"https://github-redirect.dependabot.com/facebook/jest/pull/10947\">#10947</a>)</li>\n<li><code>[jest-config]</code> [<strong>BREAKING</strong>] Default to Node testing environment instead of browser (JSDOM) (<a href=\"https://github-redirect.dependabot.com/facebook/jest/pull/9874\">#9874</a>)</li>\n<li><code>[jest-config]</code> [<strong>BREAKING</strong>] Use <code>jest-circus</code> as default test runner (<a href=\"https://github-redirect.dependabot.com/facebook/jest/pull/10686\">#10686</a>)</li>\n<li><code>[jest-config]</code> Add support for <code>preset</code> written in ESM (<a href=\"https://github-redirect.dependabot.com/facebook/jest/pull/11200\">#11200</a>)</li>\n<li><code>[jest-config, jest-runtime]</code> Support ESM for files other than <code>.js</code> and <code>.mjs</code> (<a href=\"https://github-redirect.dependabot.com/facebook/jest/pull/10823\">#10823</a>)</li>\n<li><code>[jest-config, jest-runtime]</code> [<strong>BREAKING</strong>] Use &quot;modern&quot; implementation as default for fake timers (<a href=\"https://github-redirect.dependabot.com/facebook/jest/pull/10874\">#10874</a> &amp; <a href=\"https://github-redirect.dependabot.com/facebook/jest/pull/11197\">#11197</a>)</li>\n<li><code>[jest-config</code> Allow passing <code>forceNodeFilesystemAPI</code> through to <code>jest-haste-map</code> (<a href=\"https://github-redirect.dependabot.com/facebook/jest/pull/11264\">#11264</a>)</li>\n<li><code>[jest-config, jest-haste-map, jest-resolve, jest-runner, jest-runtime, jest-test-sequencer, jest-transform, jest-types]</code> [<strong>BREAKING</strong>] Add custom HasteMap class implementation config option (<a href=\"https://github-redirect.dependabot.com/facebook/jest/pull/11107\">#11107</a>)</li>\n<li><code>[jest-core]</code> make <code>TestWatcher</code> extend <code>emittery</code> (<a href=\"https://github-redirect.dependabot.com/facebook/jest/pull/10324\">#10324</a>)</li>\n<li><code>[jest-core]</code> Run failed tests interactively the same way we do with snapshots (<a href=\"https://github-redirect.dependabot.com/facebook/jest/pull/10858\">#10858</a>)</li>\n<li><code>[jest-core]</code> more <code>TestSequencer</code> methods can be async (<a href=\"https://github-redirect.dependabot.com/facebook/jest/pull/10980\">#10980</a>)</li>\n<li><code>[jest-core]</code> Add support for <code>testSequencer</code> written in ESM (<a href=\"https://github-redirect.dependabot.com/facebook/jest/pull/11207\">#11207</a>)</li>\n<li><code>[jest-core]</code> Add support for <code>globalSetup</code> and <code>globalTeardown</code> written in ESM (<a href=\"https://github-redirect.dependabot.com/facebook/jest/pull/11267\">#11267</a>)</li>\n<li><code>[jest-core]</code> Add support for <code>watchPlugins</code> written in ESM (<a href=\"https://github-redirect.dependabot.com/facebook/jest/pull/11315\">#11315</a>)</li>\n<li><code>[jest-core]</code> Add support for <code>runner</code> written in ESM (<a href=\"https://github-redirect.dependabot.com/facebook/jest/pull/11232\">#11232</a>)</li>\n<li><code>[jest-core]</code> Add support for <code>reporters</code> written in ESM (<a href=\"https://github-redirect.dependabot.com/facebook/jest/pull/11427\">#11427</a>)</li>\n<li><code>[jest-each]</code> Add support for interpolation with object properties (<a href=\"https://github-redirect.dependabot.com/facebook/jest/pull/11388\">#11388</a>)</li>\n<li><code>[jest-environment-node]</code> Add AbortController to globals (<a href=\"https://github-redirect.dependabot.com/facebook/jest/pull/11182\">#11182</a>)</li>\n<li><code>[@jest/fake-timers]</code> Update to <code>@sinonjs/fake-timers</code> to v7 (<a href=\"https://github-redirect.dependabot.com/facebook/jest/pull/11198\">#11198</a>)</li>\n<li><code>[jest-haste-map]</code> Handle injected scm clocks (<a href=\"https://github-redirect.dependabot.com/facebook/jest/pull/10966\">#10966</a>)</li>\n<li><code>[jest-haste-map]</code> Add <code>enableSymlinks</code> configuration option to follow symlinks for test files (<a href=\"https://github-redirect.dependabot.com/facebook/jest/pull/9351\">#9351</a>)</li>\n<li><code>[jest-repl, jest-runner]</code> [<strong>BREAKING</strong>] Run transforms over environment (<a href=\"https://github-redirect.dependabot.com/facebook/jest/pull/8751\">#8751</a>)</li>\n<li><code>[jest-repl]</code> Add support for <code>testEnvironment</code> written in ESM (<a href=\"https://github-redirect.dependabot.com/facebook/jest/pull/11232\">#11232</a>)</li>\n<li><code>[jest-runner]</code> [<strong>BREAKING</strong>] set exit code to 1 if test logs after teardown (<a href=\"https://github-redirect.dependabot.com/facebook/jest/pull/10728\">#10728</a>)</li>\n<li><code>[jest-runner]</code> [<strong>BREAKING</strong>] Run transforms over <code>runnner</code> (<a href=\"https://github-redirect.dependabot.com/facebook/jest/pull/8823\">#8823</a>)</li>\n<li><code>[jest-runner]</code> [<strong>BREAKING</strong>] Run transforms over <code>testRunnner</code> (<a href=\"https://github-redirect.dependabot.com/facebook/jest/pull/8823\">#8823</a>)</li>\n<li><code>[jest-runner]</code> Possibility to use ESM for test environment (<a href=\"https://github-redirect.dependabot.com/facebook/jest/pull/11033\">11033</a>)</li>\n<li><code>[jest-runner]</code> Add support for <code>testRunner</code> written in ESM (<a href=\"https://github-redirect.dependabot.com/facebook/jest/pull/11232\">#11232</a>)</li>\n<li><code>[jest-runtime]</code> Detect reexports from CJS as named exports in ESM (<a href=\"https://github-redirect.dependabot.com/facebook/jest/pull/10988\">#10988</a>)</li>\n<li><code>[jest-runtime]</code> Support for async code transformations (<a href=\"https://github-redirect.dependabot.com/facebook/jest/pull/11191\">#11191</a> &amp; <a href=\"https://github-redirect.dependabot.com/facebook/jest/pull/11220\">#11220</a>)</li>\n<li><code>[jest-reporters]</code> Add static filepath property to all reporters (<a href=\"https://github-redirect.dependabot.com/facebook/jest/pull/11015\">#11015</a>)</li>\n<li><code>[jest-snapshot]</code> [<strong>BREAKING</strong>] Make prettier optional for inline snapshots - fall back to string replacement (<a href=\"https://github-redirect.dependabot.com/facebook/jest/pull/7792\">#7792</a> &amp; <a href=\"https://github-redirect.dependabot.com/facebook/jest/pull/11192\">#11192</a>)</li>\n<li><code>[jest-snapshot]</code> [<strong>BREAKING</strong>] Run transforms over <code>snapshotResolver</code> (<a href=\"https://github-redirect.dependabot.com/facebook/jest/pull/8829\">#8751</a>)</li>\n<li><code>[jest-transform]</code> Pass config options defined in Jest's config to transformer's <code>process</code> and <code>getCacheKey</code> functions (<a href=\"https://github-redirect.dependabot.com/facebook/jest/pull/10926\">#10926</a>)</li>\n<li><code>[jest-transform]</code> Add support for transformers written in ESM (<a href=\"https://github-redirect.dependabot.com/facebook/jest/pull/11163\">#11163</a>)</li>\n<li><code>[jest-transform]</code> [<strong>BREAKING</strong>] Do not export <code>ScriptTransformer</code> class, instead export the async function <code>createScriptTransformer</code> (<a href=\"https://github-redirect.dependabot.com/facebook/jest/pull/11163\">#11163</a>)</li>\n<li><code>[jest-transform]</code> Async code transformations (<a href=\"https://github-redirect.dependabot.com/facebook/jest/pull/9889\">#9889</a>)</li>\n</ul>\n<!-- raw HTML omitted -->\n</blockquote>\n<p>... (truncated)</p>\n</details>\n<details>\n<summary>Changelog</summary>\n<p><em>Sourced from <a href=\"https://github.com/facebook/jest/blob/master/CHANGELOG.md\">jest's changelog</a>.</em></p>\n<blockquote>\n<h2>27.0.1</h2>\n<h3>Fixes</h3>\n<ul>\n<li><code>[jest-environment-jsdom]</code> Bump version of JSDOM to avoid deprecated <code>request</code> package (<a href=\"https://github-redirect.dependabot.com/facebook/jest/pull/11442\">#11442</a>)</li>\n</ul>\n<h2>27.0.0</h2>\n<h3>Features</h3>\n<ul>\n<li><code>[babel-jest]</code> Add async transformation (<a href=\"https://github-redirect.dependabot.com/facebook/jest/pull/11192\">#11192</a>)</li>\n<li><code>[jest-changed-files]</code> Use '--' to separate paths from revisions (<a href=\"https://github-redirect.dependabot.com/facebook/jest/pull/11160\">#11160</a>)</li>\n<li><code>[jest-circus]</code> [<strong>BREAKING</strong>] Fail tests when multiple <code>done()</code> calls are made (<a href=\"https://github-redirect.dependabot.com/facebook/jest/pull/10624\">#10624</a>)</li>\n<li><code>[jest-circus, jest-jasmine2]</code> [<strong>BREAKING</strong>] Fail the test instead of just warning when describe returns a value (<a href=\"https://github-redirect.dependabot.com/facebook/jest/pull/10947\">#10947</a>)</li>\n<li><code>[jest-config]</code> [<strong>BREAKING</strong>] Default to Node testing environment instead of browser (JSDOM) (<a href=\"https://github-redirect.dependabot.com/facebook/jest/pull/9874\">#9874</a>)</li>\n<li><code>[jest-config]</code> [<strong>BREAKING</strong>] Use <code>jest-circus</code> as default test runner (<a href=\"https://github-redirect.dependabot.com/facebook/jest/pull/10686\">#10686</a>)</li>\n<li><code>[jest-config]</code> Add support for <code>preset</code> written in ESM (<a href=\"https://github-redirect.dependabot.com/facebook/jest/pull/11200\">#11200</a>)</li>\n<li><code>[jest-config, jest-runtime]</code> Support ESM for files other than <code>.js</code> and <code>.mjs</code> (<a href=\"https://github-redirect.dependabot.com/facebook/jest/pull/10823\">#10823</a>)</li>\n<li><code>[jest-config, jest-runtime]</code> [<strong>BREAKING</strong>] Use &quot;modern&quot; implementation as default for fake timers (<a href=\"https://github-redirect.dependabot.com/facebook/jest/pull/10874\">#10874</a> &amp; <a href=\"https://github-redirect.dependabot.com/facebook/jest/pull/11197\">#11197</a>)</li>\n<li><code>[jest-config</code> Allow passing <code>forceNodeFilesystemAPI</code> through to <code>jest-haste-map</code> (<a href=\"https://github-redirect.dependabot.com/facebook/jest/pull/11264\">#11264</a>)</li>\n<li><code>[jest-config, jest-haste-map, jest-resolve, jest-runner, jest-runtime, jest-test-sequencer, jest-transform, jest-types]</code> [<strong>BREAKING</strong>] Add custom HasteMap class implementation config option (<a href=\"https://github-redirect.dependabot.com/facebook/jest/pull/11107\">#11107</a>)</li>\n<li><code>[jest-core]</code> make <code>TestWatcher</code> extend <code>emittery</code> (<a href=\"https://github-redirect.dependabot.com/facebook/jest/pull/10324\">#10324</a>)</li>\n<li><code>[jest-core]</code> Run failed tests interactively the same way we do with snapshots (<a href=\"https://github-redirect.dependabot.com/facebook/jest/pull/10858\">#10858</a>)</li>\n<li><code>[jest-core]</code> more <code>TestSequencer</code> methods can be async (<a href=\"https://github-redirect.dependabot.com/facebook/jest/pull/10980\">#10980</a>)</li>\n<li><code>[jest-core]</code> Add support for <code>testSequencer</code> written in ESM (<a href=\"https://github-redirect.dependabot.com/facebook/jest/pull/11207\">#11207</a>)</li>\n<li><code>[jest-core]</code> Add support for <code>globalSetup</code> and <code>globalTeardown</code> written in ESM (<a href=\"https://github-redirect.dependabot.com/facebook/jest/pull/11267\">#11267</a>)</li>\n<li><code>[jest-core]</code> Add support for <code>watchPlugins</code> written in ESM (<a href=\"https://github-redirect.dependabot.com/facebook/jest/pull/11315\">#11315</a>)</li>\n<li><code>[jest-core]</code> Add support for <code>runner</code> written in ESM (<a href=\"https://github-redirect.dependabot.com/facebook/jest/pull/11232\">#11232</a>)</li>\n<li><code>[jest-core]</code> Add support for <code>reporters</code> written in ESM (<a href=\"https://github-redirect.dependabot.com/facebook/jest/pull/11427\">#11427</a>)</li>\n<li><code>[jest-each]</code> Add support for interpolation with object properties (<a href=\"https://github-redirect.dependabot.com/facebook/jest/pull/11388\">#11388</a>)</li>\n<li><code>[jest-environment-node]</code> Add AbortController to globals (<a href=\"https://github-redirect.dependabot.com/facebook/jest/pull/11182\">#11182</a>)</li>\n<li><code>[@jest/fake-timers]</code> Update to <code>@sinonjs/fake-timers</code> to v7 (<a href=\"https://github-redirect.dependabot.com/facebook/jest/pull/11198\">#11198</a>)</li>\n<li><code>[jest-haste-map]</code> Handle injected scm clocks (<a href=\"https://github-redirect.dependabot.com/facebook/jest/pull/10966\">#10966</a>)</li>\n<li><code>[jest-haste-map]</code> Add <code>enableSymlinks</code> configuration option to follow symlinks for test files (<a href=\"https://github-redirect.dependabot.com/facebook/jest/pull/9351\">#9351</a>)</li>\n<li><code>[jest-repl, jest-runner]</code> [<strong>BREAKING</strong>] Run transforms over environment (<a href=\"https://github-redirect.dependabot.com/facebook/jest/pull/8751\">#8751</a>)</li>\n<li><code>[jest-repl]</code> Add support for <code>testEnvironment</code> written in ESM (<a href=\"https://github-redirect.dependabot.com/facebook/jest/pull/11232\">#11232</a>)</li>\n<li><code>[jest-runner]</code> [<strong>BREAKING</strong>] set exit code to 1 if test logs after teardown (<a href=\"https://github-redirect.dependabot.com/facebook/jest/pull/10728\">#10728</a>)</li>\n<li><code>[jest-runner]</code> [<strong>BREAKING</strong>] Run transforms over <code>runnner</code> (<a href=\"https://github-redirect.dependabot.com/facebook/jest/pull/8823\">#8823</a>)</li>\n<li><code>[jest-runner]</code> [<strong>BREAKING</strong>] Run transforms over <code>testRunnner</code> (<a href=\"https://github-redirect.dependabot.com/facebook/jest/pull/8823\">#8823</a>)</li>\n<li><code>[jest-runner]</code> Possibility to use ESM for test environment (<a href=\"https://github-redirect.dependabot.com/facebook/jest/pull/11033\">11033</a>)</li>\n<li><code>[jest-runner]</code> Add support for <code>testRunner</code> written in ESM (<a href=\"https://github-redirect.dependabot.com/facebook/jest/pull/11232\">#11232</a>)</li>\n<li><code>[jest-runtime]</code> Detect reexports from CJS as named exports in ESM (<a href=\"https://github-redirect.dependabot.com/facebook/jest/pull/10988\">#10988</a>)</li>\n<li><code>[jest-runtime]</code> Support for async code transformations (<a href=\"https://github-redirect.dependabot.com/facebook/jest/pull/11191\">#11191</a> &amp; <a href=\"https://github-redirect.dependabot.com/facebook/jest/pull/11220\">#11220</a>)</li>\n<li><code>[jest-reporters]</code> Add static filepath property to all reporters (<a href=\"https://github-redirect.dependabot.com/facebook/jest/pull/11015\">#11015</a>)</li>\n<li><code>[jest-snapshot]</code> [<strong>BREAKING</strong>] Make prettier optional for inline snapshots - fall back to string replacement (<a href=\"https://github-redirect.dependabot.com/facebook/jest/pull/7792\">#7792</a> &amp; <a href=\"https://github-redirect.dependabot.com/facebook/jest/pull/11192\">#11192</a>)</li>\n<li><code>[jest-snapshot]</code> [<strong>BREAKING</strong>] Run transforms over <code>snapshotResolver</code> (<a href=\"https://github-redirect.dependabot.com/facebook/jest/pull/8829\">#8751</a>)</li>\n<li><code>[jest-transform]</code> Pass config options defined in Jest's config to transformer's <code>process</code> and <code>getCacheKey</code> functions (<a href=\"https://github-redirect.dependabot.com/facebook/jest/pull/10926\">#10926</a>)</li>\n<li><code>[jest-transform]</code> Add support for transformers written in ESM (<a href=\"https://github-redirect.dependabot.com/facebook/jest/pull/11163\">#11163</a>)</li>\n<li><code>[jest-transform]</code> [<strong>BREAKING</strong>] Do not export <code>ScriptTransformer</code> class, instead export the async function <code>createScriptTransformer</code> (<a href=\"https://github-redirect.dependabot.com/facebook/jest/pull/11163\">#11163</a>)</li>\n<li><code>[jest-transform]</code> Async code transformations (<a href=\"https://github-redirect.dependabot.com/facebook/jest/pull/9889\">#9889</a>)</li>\n</ul>\n<!-- raw HTML omitted -->\n</blockquote>\n<p>... (truncated)</p>\n</details>\n<details>\n<summary>Commits</summary>\n<ul>\n<li><a href=\"https://github.com/facebook/jest/commit/2cb20e945a26b2c9867b30b787e81f6317e59aa1\"><code>2cb20e9</code></a> v27.0.1</li>\n<li><a href=\"https://github.com/facebook/jest/commit/7c9441b68cd255f7745f57475b59b961454b12f2\"><code>7c9441b</code></a> chore: update changelog for release</li>\n<li><a href=\"https://github.com/facebook/jest/commit/4659d451784735609d4da6d193309992a8cedf02\"><code>4659d45</code></a> chore: bump jsdom (<a href=\"https://github-redirect.dependabot.com/facebook/jest/issues/11442\">#11442</a>)</li>\n<li><a href=\"https://github.com/facebook/jest/commit/52c6c5360a5466b75337058a70b45040ece9a5d2\"><code>52c6c53</code></a> chore(website): do not ignore changes to netlify config</li>\n<li><a href=\"https://github.com/facebook/jest/commit/472760e4bea190781097440387e34f049fce6259\"><code>472760e</code></a> chore: use specific node version in netlify</li>\n<li><a href=\"https://github.com/facebook/jest/commit/a832dc385cdbeefc255770d90f3bc1ed3617a820\"><code>a832dc3</code></a> Revert &quot;Upgrade website to Docusaurus using webpack 5 (<a href=\"https://github-redirect.dependabot.com/facebook/jest/issues/11266\">#11266</a>)&quot;</li>\n<li><a href=\"https://github.com/facebook/jest/commit/3569b33529f29b2041f8563b6f2135594c830022\"><code>3569b33</code></a> chore: attempt to use v14 of node to deploy website</li>\n<li><a href=\"https://github.com/facebook/jest/commit/6c32bc1c6fddea707d9445babbbca41de1c33b48\"><code>6c32bc1</code></a> chore: fix changelog headings</li>\n<li><a href=\"https://github.com/facebook/jest/commit/244c921bf0622b41a4cac1b456c2a9d1a550512b\"><code>244c921</code></a> chore: update lockfile after publish</li>\n<li><a href=\"https://github.com/facebook/jest/commit/be16e47afcc9f64653b9a47782cb48a5ca243e65\"><code>be16e47</code></a> v27.0.0</li>\n<li>Additional commits viewable in <a href=\"https://github.com/facebook/jest/compare/v26.6.3...v27.0.1\">compare view</a></li>\n</ul>\n</details>\n<br />\n\n\n[![Dependabot compatibility score](https://dependabot-badges.githubapp.com/badges/compatibility_score?dependency-name=jest&package-manager=npm_and_yarn&previous-version=26.6.3&new-version=27.0.1)](https://docs.github.com/en/github/managing-security-vulnerabilities/about-dependabot-security-updates#about-compatibility-scores)\n\nDependabot will resolve any conflicts with this PR as long as you don't alter it yourself. You can also trigger a rebase manually by commenting `@dependabot rebase`.\n\n[//]: # (dependabot-automerge-start)\n[//]: # (dependabot-automerge-end)\n\n---\n\n<details>\n<summary>Dependabot commands and options</summary>\n<br />\n\nYou can trigger Dependabot actions by commenting on this PR:\n- `@dependabot rebase` will rebase this PR\n- `@dependabot recreate` will recreate this PR, overwriting any edits that have been made to it\n- `@dependabot merge` will merge this PR after your CI passes on it\n- `@dependabot squash and merge` will squash and merge this PR after your CI passes on it\n- `@dependabot cancel merge` will cancel a previously requested merge and block automerging\n- `@dependabot reopen` will reopen this PR if it is closed\n- `@dependabot close` will close this PR and stop Dependabot recreating it. You can achieve the same result by closing it manually\n- `@dependabot ignore this major version` will close this PR and stop Dependabot creating any more for this major version (unless you reopen the PR or upgrade to it yourself)\n- `@dependabot ignore this minor version` will close this PR and stop Dependabot creating any more for this minor version (unless you reopen the PR or upgrade to it yourself)\n- `@dependabot ignore this dependency` will close this PR and stop Dependabot creating any more for this dependency (unless you reopen the PR or upgrade to it yourself)\n\n\n</details>",
    "changed_files": 1,
    "closed_at": "2021-05-31T07:57:41Z",
    "comment_data": [],
    "comment_regular_data": [
        {
            "author_association": "CONTRIBUTOR",
            "body": "Superseded by #4.",
            "created_at": "2021-05-31T07:57:41Z",
            "html_url": "https://github.com/PrismarineJS/prismarine-provider-raw/pull/3#issuecomment-851288900",
            "id": 851288900,
            "issue_url": "https://api.github.com/repos/PrismarineJS/prismarine-provider-raw/issues/3",
            "node_id": "MDEyOklzc3VlQ29tbWVudDg1MTI4ODkwMA==",
            "performed_via_github_app": null,
            "reactions": {
                "+1": 0,
                "-1": 0,
                "confused": 0,
                "eyes": 0,
                "heart": 0,
                "hooray": 0,
                "laugh": 0,
                "rocket": 0,
                "total_count": 0,
                "url": "https://api.github.com/repos/PrismarineJS/prismarine-provider-raw/issues/comments/851288900/reactions"
            },
            "updated_at": "2021-05-31T07:57:41Z",
            "url": "https://api.github.com/repos/PrismarineJS/prismarine-provider-raw/issues/comments/851288900",
            "user": {
                "avatar_url": "https://avatars.githubusercontent.com/in/29110?v=4",
                "events_url": "https://api.github.com/users/dependabot%5Bbot%5D/events{/privacy}",
                "followers_url": "https://api.github.com/users/dependabot%5Bbot%5D/followers",
                "following_url": "https://api.github.com/users/dependabot%5Bbot%5D/following{/other_user}",
                "gists_url": "https://api.github.com/users/dependabot%5Bbot%5D/gists{/gist_id}",
                "gravatar_id": "",
                "html_url": "https://github.com/apps/dependabot",
                "id": 49699333,
                "login": "dependabot[bot]",
                "node_id": "MDM6Qm90NDk2OTkzMzM=",
                "organizations_url": "https://api.github.com/users/dependabot%5Bbot%5D/orgs",
                "received_events_url": "https://api.github.com/users/dependabot%5Bbot%5D/received_events",
                "repos_url": "https://api.github.com/users/dependabot%5Bbot%5D/repos",
                "site_admin": false,
                "starred_url": "https://api.github.com/users/dependabot%5Bbot%5D/starred{/owner}{/repo}",
                "subscriptions_url": "https://api.github.com/users/dependabot%5Bbot%5D/subscriptions",
                "type": "Bot",
                "url": "https://api.github.com/users/dependabot%5Bbot%5D"
            }
        }
    ],
    "comments": 1,
    "comments_url": "https://api.github.com/repos/PrismarineJS/prismarine-provider-raw/issues/3/comments",
    "commit_data": [
        {
            "author": {
                "avatar_url": "https://avatars.githubusercontent.com/in/29110?v=4",
                "events_url": "https://api.github.com/users/dependabot%5Bbot%5D/events{/privacy}",
                "followers_url": "https://api.github.com/users/dependabot%5Bbot%5D/followers",
                "following_url": "https://api.github.com/users/dependabot%5Bbot%5D/following{/other_user}",
                "gists_url": "https://api.github.com/users/dependabot%5Bbot%5D/gists{/gist_id}",
                "gravatar_id": "",
                "html_url": "https://github.com/apps/dependabot",
                "id": 49699333,
                "login": "dependabot[bot]",
                "node_id": "MDM6Qm90NDk2OTkzMzM=",
                "organizations_url": "https://api.github.com/users/dependabot%5Bbot%5D/orgs",
                "received_events_url": "https://api.github.com/users/dependabot%5Bbot%5D/received_events",
                "repos_url": "https://api.github.com/users/dependabot%5Bbot%5D/repos",
                "site_admin": false,
                "starred_url": "https://api.github.com/users/dependabot%5Bbot%5D/starred{/owner}{/repo}",
                "subscriptions_url": "https://api.github.com/users/dependabot%5Bbot%5D/subscriptions",
                "type": "Bot",
                "url": "https://api.github.com/users/dependabot%5Bbot%5D"
            },
            "comments_url": "https://api.github.com/repos/PrismarineJS/prismarine-provider-raw/commits/4d4fb59636f3e62d43c43a949808cd38fa278f60/comments",
            "commit": {
                "author": {
                    "date": "2021-05-26T06:30:19Z",
                    "email": "49699333+dependabot[bot]@users.noreply.github.com",
                    "name": "dependabot[bot]"
                },
                "comment_count": 0,
                "committer": {
                    "date": "2021-05-26T06:30:19Z",
                    "email": "noreply@github.com",
                    "name": "GitHub"
                },
                "message": "Bump jest from 26.6.3 to 27.0.1\n\nBumps [jest](https://github.com/facebook/jest) from 26.6.3 to 27.0.1.\n- [Release notes](https://github.com/facebook/jest/releases)\n- [Changelog](https://github.com/facebook/jest/blob/master/CHANGELOG.md)\n- [Commits](https://github.com/facebook/jest/compare/v26.6.3...v27.0.1)\n\nSigned-off-by: dependabot[bot] <support@github.com>",
                "tree": {
                    "sha": "bc5733167b934e15f171bffc4c14be0e723e3253",
                    "url": "https://api.github.com/repos/PrismarineJS/prismarine-provider-raw/git/trees/bc5733167b934e15f171bffc4c14be0e723e3253"
                },
                "url": "https://api.github.com/repos/PrismarineJS/prismarine-provider-raw/git/commits/4d4fb59636f3e62d43c43a949808cd38fa278f60",
                "verification": {
                    "payload": "tree bc5733167b934e15f171bffc4c14be0e723e3253\nparent eb8153015779601d390ee0a9b2aec001ab727697\nauthor dependabot[bot] <49699333+dependabot[bot]@users.noreply.github.com> 1622010619 +0000\ncommitter GitHub <noreply@github.com> 1622010619 +0000\n\nBump jest from 26.6.3 to 27.0.1\n\nBumps [jest](https://github.com/facebook/jest) from 26.6.3 to 27.0.1.\n- [Release notes](https://github.com/facebook/jest/releases)\n- [Changelog](https://github.com/facebook/jest/blob/master/CHANGELOG.md)\n- [Commits](https://github.com/facebook/jest/compare/v26.6.3...v27.0.1)\n\nSigned-off-by: dependabot[bot] <support@github.com>",
                    "reason": "valid",
                    "signature": "-----BEGIN PGP SIGNATURE-----\n\nwsBcBAABCAAQBQJgrer7CRBK7hj4Ov3rIwAAvlgIADvp03rlWZtr3R7PhI3c5qBF\nH8PxP4Z8erZqg7pZ3ozod3gzaOK3Cm+PqcjfrJSH9PMVXBtCvTxAtuiKWO4A22eL\n2sQ0dkwTSA/SweA3U/r+2hCS2O2G26lFnnK6q88OltzUqQ6fgH7S4tWlFoFAsLSP\nFHr+0+m5slc3Y0zlO5oYhTlWI0JcGr4Som/HkYY/xNsqSpyOlfOrUYiXzqIWLm4D\nV+PTSHRbc0ZolCAmodY1u0OoXqe5LyzBYGxevJsZCeTySIsxXvBvMsWHeKAyoBa/\nDIb6NqjEq2d4eeW+8maeiSfPZFApk+HRiWEiu7/pANKWCp2JtBn22FoS3QPeTFc=\n=cfBM\n-----END PGP SIGNATURE-----\n",
                    "verified": true
                }
            },
            "committer": {
                "avatar_url": "https://avatars.githubusercontent.com/u/19864447?v=4",
                "events_url": "https://api.github.com/users/web-flow/events{/privacy}",
                "followers_url": "https://api.github.com/users/web-flow/followers",
                "following_url": "https://api.github.com/users/web-flow/following{/other_user}",
                "gists_url": "https://api.github.com/users/web-flow/gists{/gist_id}",
                "gravatar_id": "",
                "html_url": "https://github.com/web-flow",
                "id": 19864447,
                "login": "web-flow",
                "node_id": "MDQ6VXNlcjE5ODY0NDQ3",
                "organizations_url": "https://api.github.com/users/web-flow/orgs",
                "received_events_url": "https://api.github.com/users/web-flow/received_events",
                "repos_url": "https://api.github.com/users/web-flow/repos",
                "site_admin": false,
                "starred_url": "https://api.github.com/users/web-flow/starred{/owner}{/repo}",
                "subscriptions_url": "https://api.github.com/users/web-flow/subscriptions",
                "type": "User",
                "url": "https://api.github.com/users/web-flow"
            },
            "html_url": "https://github.com/PrismarineJS/prismarine-provider-raw/commit/4d4fb59636f3e62d43c43a949808cd38fa278f60",
            "node_id": "MDY6Q29tbWl0Mjg2MDYzOTQ5OjRkNGZiNTk2MzZmM2U2MmQ0M2M0M2E5NDk4MDhjZDM4ZmEyNzhmNjA=",
            "parents": [
                {
                    "html_url": "https://github.com/PrismarineJS/prismarine-provider-raw/commit/eb8153015779601d390ee0a9b2aec001ab727697",
                    "sha": "eb8153015779601d390ee0a9b2aec001ab727697",
                    "url": "https://api.github.com/repos/PrismarineJS/prismarine-provider-raw/commits/eb8153015779601d390ee0a9b2aec001ab727697"
                }
            ],
            "sha": "4d4fb59636f3e62d43c43a949808cd38fa278f60",
            "url": "https://api.github.com/repos/PrismarineJS/prismarine-provider-raw/commits/4d4fb59636f3e62d43c43a949808cd38fa278f60"
        }
    ],
    "commits": 1,
    "commits_url": "https://api.github.com/repos/PrismarineJS/prismarine-provider-raw/pulls/3/commits",
    "created_at": "2021-05-26T06:30:20Z",
    "deletions": 1,
    "diff_url": "https://github.com/PrismarineJS/prismarine-provider-raw/pull/3.diff",
    "draft": false,
    "head": {
        "label": "PrismarineJS:dependabot/npm_and_yarn/jest-27.0.1",
        "ref": "dependabot/npm_and_yarn/jest-27.0.1",
        "repo": {
            "allow_forking": true,
            "archive_url": "https://api.github.com/repos/PrismarineJS/prismarine-provider-raw/{archive_format}{/ref}",
            "archived": false,
            "assignees_url": "https://api.github.com/repos/PrismarineJS/prismarine-provider-raw/assignees{/user}",
            "blobs_url": "https://api.github.com/repos/PrismarineJS/prismarine-provider-raw/git/blobs{/sha}",
            "branches_url": "https://api.github.com/repos/PrismarineJS/prismarine-provider-raw/branches{/branch}",
            "clone_url": "https://github.com/PrismarineJS/prismarine-provider-raw.git",
            "collaborators_url": "https://api.github.com/repos/PrismarineJS/prismarine-provider-raw/collaborators{/collaborator}",
            "comments_url": "https://api.github.com/repos/PrismarineJS/prismarine-provider-raw/comments{/number}",
            "commits_url": "https://api.github.com/repos/PrismarineJS/prismarine-provider-raw/commits{/sha}",
            "compare_url": "https://api.github.com/repos/PrismarineJS/prismarine-provider-raw/compare/{base}...{head}",
            "contents_url": "https://api.github.com/repos/PrismarineJS/prismarine-provider-raw/contents/{+path}",
            "contributors_url": "https://api.github.com/repos/PrismarineJS/prismarine-provider-raw/contributors",
            "created_at": "2020-08-08T14:58:39Z",
            "default_branch": "master",
            "deployments_url": "https://api.github.com/repos/PrismarineJS/prismarine-provider-raw/deployments",
            "description": "Raw (prismarine-chunk based) Storage Provider implementation. ",
            "disabled": false,
            "downloads_url": "https://api.github.com/repos/PrismarineJS/prismarine-provider-raw/downloads",
            "events_url": "https://api.github.com/repos/PrismarineJS/prismarine-provider-raw/events",
            "fork": false,
            "forks": 2,
            "forks_count": 2,
            "forks_url": "https://api.github.com/repos/PrismarineJS/prismarine-provider-raw/forks",
            "full_name": "PrismarineJS/prismarine-provider-raw",
            "git_commits_url": "https://api.github.com/repos/PrismarineJS/prismarine-provider-raw/git/commits{/sha}",
            "git_refs_url": "https://api.github.com/repos/PrismarineJS/prismarine-provider-raw/git/refs{/sha}",
            "git_tags_url": "https://api.github.com/repos/PrismarineJS/prismarine-provider-raw/git/tags{/sha}",
            "git_url": "git://github.com/PrismarineJS/prismarine-provider-raw.git",
            "has_discussions": false,
            "has_downloads": true,
            "has_issues": true,
            "has_pages": false,
            "has_projects": true,
            "has_wiki": true,
            "homepage": "",
            "hooks_url": "https://api.github.com/repos/PrismarineJS/prismarine-provider-raw/hooks",
            "html_url": "https://github.com/PrismarineJS/prismarine-provider-raw",
            "id": 286063949,
            "is_template": false,
            "issue_comment_url": "https://api.github.com/repos/PrismarineJS/prismarine-provider-raw/issues/comments{/number}",
            "issue_events_url": "https://api.github.com/repos/PrismarineJS/prismarine-provider-raw/issues/events{/number}",
            "issues_url": "https://api.github.com/repos/PrismarineJS/prismarine-provider-raw/issues{/number}",
            "keys_url": "https://api.github.com/repos/PrismarineJS/prismarine-provider-raw/keys{/key_id}",
            "labels_url": "https://api.github.com/repos/PrismarineJS/prismarine-provider-raw/labels{/name}",
            "language": "JavaScript",
            "languages_url": "https://api.github.com/repos/PrismarineJS/prismarine-provider-raw/languages",
            "license": {
                "key": "mit",
                "name": "MIT License",
                "node_id": "MDc6TGljZW5zZTEz",
                "spdx_id": "MIT",
                "url": "https://api.github.com/licenses/mit"
            },
            "merges_url": "https://api.github.com/repos/PrismarineJS/prismarine-provider-raw/merges",
            "milestones_url": "https://api.github.com/repos/PrismarineJS/prismarine-provider-raw/milestones{/number}",
            "mirror_url": null,
            "name": "prismarine-provider-raw",
            "node_id": "MDEwOlJlcG9zaXRvcnkyODYwNjM5NDk=",
            "notifications_url": "https://api.github.com/repos/PrismarineJS/prismarine-provider-raw/notifications{?since,all,participating}",
            "open_issues": 4,
            "open_issues_count": 4,
            "owner": {
                "avatar_url": "https://avatars.githubusercontent.com/u/11053411?v=4",
                "events_url": "https://api.github.com/users/PrismarineJS/events{/privacy}",
                "followers_url": "https://api.github.com/users/PrismarineJS/followers",
                "following_url": "https://api.github.com/users/PrismarineJS/following{/other_user}",
                "gists_url": "https://api.github.com/users/PrismarineJS/gists{/gist_id}",
                "gravatar_id": "",
                "html_url": "https://github.com/PrismarineJS",
                "id": 11053411,
                "login": "PrismarineJS",
                "node_id": "MDEyOk9yZ2FuaXphdGlvbjExMDUzNDEx",
                "organizations_url": "https://api.github.com/users/PrismarineJS/orgs",
                "received_events_url": "https://api.github.com/users/PrismarineJS/received_events",
                "repos_url": "https://api.github.com/users/PrismarineJS/repos",
                "site_admin": false,
                "starred_url": "https://api.github.com/users/PrismarineJS/starred{/owner}{/repo}",
                "subscriptions_url": "https://api.github.com/users/PrismarineJS/subscriptions",
                "type": "Organization",
                "url": "https://api.github.com/users/PrismarineJS"
            },
            "private": false,
            "pulls_url": "https://api.github.com/repos/PrismarineJS/prismarine-provider-raw/pulls{/number}",
            "pushed_at": "2023-04-10T11:59:11Z",
            "releases_url": "https://api.github.com/repos/PrismarineJS/prismarine-provider-raw/releases{/id}",
            "size": 25,
            "ssh_url": "git@github.com:PrismarineJS/prismarine-provider-raw.git",
            "stargazers_count": 1,
            "stargazers_url": "https://api.github.com/repos/PrismarineJS/prismarine-provider-raw/stargazers",
            "statuses_url": "https://api.github.com/repos/PrismarineJS/prismarine-provider-raw/statuses/{sha}",
            "subscribers_url": "https://api.github.com/repos/PrismarineJS/prismarine-provider-raw/subscribers",
            "subscription_url": "https://api.github.com/repos/PrismarineJS/prismarine-provider-raw/subscription",
            "svn_url": "https://github.com/PrismarineJS/prismarine-provider-raw",
            "tags_url": "https://api.github.com/repos/PrismarineJS/prismarine-provider-raw/tags",
            "teams_url": "https://api.github.com/repos/PrismarineJS/prismarine-provider-raw/teams",
            "topics": [],
            "trees_url": "https://api.github.com/repos/PrismarineJS/prismarine-provider-raw/git/trees{/sha}",
            "updated_at": "2021-06-16T21:05:09Z",
            "url": "https://api.github.com/repos/PrismarineJS/prismarine-provider-raw",
            "visibility": "public",
            "watchers": 1,
            "watchers_count": 1,
            "web_commit_signoff_required": false
        },
        "sha": "4d4fb59636f3e62d43c43a949808cd38fa278f60",
        "user": {
            "avatar_url": "https://avatars.githubusercontent.com/u/11053411?v=4",
            "events_url": "https://api.github.com/users/PrismarineJS/events{/privacy}",
            "followers_url": "https://api.github.com/users/PrismarineJS/followers",
            "following_url": "https://api.github.com/users/PrismarineJS/following{/other_user}",
            "gists_url": "https://api.github.com/users/PrismarineJS/gists{/gist_id}",
            "gravatar_id": "",
            "html_url": "https://github.com/PrismarineJS",
            "id": 11053411,
            "login": "PrismarineJS",
            "node_id": "MDEyOk9yZ2FuaXphdGlvbjExMDUzNDEx",
            "organizations_url": "https://api.github.com/users/PrismarineJS/orgs",
            "received_events_url": "https://api.github.com/users/PrismarineJS/received_events",
            "repos_url": "https://api.github.com/users/PrismarineJS/repos",
            "site_admin": false,
            "starred_url": "https://api.github.com/users/PrismarineJS/starred{/owner}{/repo}",
            "subscriptions_url": "https://api.github.com/users/PrismarineJS/subscriptions",
            "type": "Organization",
            "url": "https://api.github.com/users/PrismarineJS"
        }
    },
    "html_url": "https://github.com/PrismarineJS/prismarine-provider-raw/pull/3",
    "id": 653259587,
    "issue_url": "https://api.github.com/repos/PrismarineJS/prismarine-provider-raw/issues/3",
    "labels": [
        {
            "color": "0366d6",
            "default": false,
            "description": "Pull requests that update a dependency file",
            "id": 2474648974,
            "name": "dependencies",
            "node_id": "MDU6TGFiZWwyNDc0NjQ4OTc0",
            "url": "https://api.github.com/repos/PrismarineJS/prismarine-provider-raw/labels/dependencies"
        }
    ],
    "locked": false,
    "maintainer_can_modify": false,
    "merge_commit_sha": "a8ecc76d48846a4cbb1d4cad17ef026965138abc",
    "mergeable": null,
    "mergeable_state": "unknown",
    "merged": false,
    "merged_at": null,
    "merged_by": null,
    "milestone": null,
    "node_id": "MDExOlB1bGxSZXF1ZXN0NjUzMjU5NTg3",
    "number": 3,
    "patch_url": "https://github.com/PrismarineJS/prismarine-provider-raw/pull/3.patch",
    "rebaseable": null,
    "requested_reviewers": [],
    "requested_teams": [],
    "review_comment_url": "https://api.github.com/repos/PrismarineJS/prismarine-provider-raw/pulls/comments{/number}",
    "review_comments": 0,
    "review_comments_url": "https://api.github.com/repos/PrismarineJS/prismarine-provider-raw/pulls/3/comments",
    "state": "closed",
    "statuses_url": "https://api.github.com/repos/PrismarineJS/prismarine-provider-raw/statuses/4d4fb59636f3e62d43c43a949808cd38fa278f60",
    "title": "Bump jest from 26.6.3 to 27.0.1",
    "updated_at": "2021-05-31T07:57:42Z",
    "url": "https://api.github.com/repos/PrismarineJS/prismarine-provider-raw/pulls/3",
    "user": {
        "avatar_url": "https://avatars.githubusercontent.com/in/29110?v=4",
        "events_url": "https://api.github.com/users/dependabot%5Bbot%5D/events{/privacy}",
        "followers_url": "https://api.github.com/users/dependabot%5Bbot%5D/followers",
        "following_url": "https://api.github.com/users/dependabot%5Bbot%5D/following{/other_user}",
        "gists_url": "https://api.github.com/users/dependabot%5Bbot%5D/gists{/gist_id}",
        "gravatar_id": "",
        "html_url": "https://github.com/apps/dependabot",
        "id": 49699333,
        "login": "dependabot[bot]",
        "node_id": "MDM6Qm90NDk2OTkzMzM=",
        "organizations_url": "https://api.github.com/users/dependabot%5Bbot%5D/orgs",
        "received_events_url": "https://api.github.com/users/dependabot%5Bbot%5D/received_events",
        "repos_url": "https://api.github.com/users/dependabot%5Bbot%5D/repos",
        "site_admin": false,
        "starred_url": "https://api.github.com/users/dependabot%5Bbot%5D/starred{/owner}{/repo}",
        "subscriptions_url": "https://api.github.com/users/dependabot%5Bbot%5D/subscriptions",
        "type": "Bot",
        "url": "https://api.github.com/users/dependabot%5Bbot%5D"
    }
}