{
    "_links": {
        "comments": {
            "href": "https://api.github.com/repos/PrismarineJS/prismarine-biome/issues/15/comments"
        },
        "commits": {
            "href": "https://api.github.com/repos/PrismarineJS/prismarine-biome/pulls/15/commits"
        },
        "html": {
            "href": "https://github.com/PrismarineJS/prismarine-biome/pull/15"
        },
        "issue": {
            "href": "https://api.github.com/repos/PrismarineJS/prismarine-biome/issues/15"
        },
        "review_comment": {
            "href": "https://api.github.com/repos/PrismarineJS/prismarine-biome/pulls/comments{/number}"
        },
        "review_comments": {
            "href": "https://api.github.com/repos/PrismarineJS/prismarine-biome/pulls/15/comments"
        },
        "self": {
            "href": "https://api.github.com/repos/PrismarineJS/prismarine-biome/pulls/15"
        },
        "statuses": {
            "href": "https://api.github.com/repos/PrismarineJS/prismarine-biome/statuses/9497d9b7d91283d8151199555867e81f0ebd719d"
        }
    },
    "active_lock_reason": null,
    "additions": 1,
    "assignee": null,
    "assignees": [],
    "author_association": "CONTRIBUTOR",
    "auto_merge": null,
    "base": {
        "label": "PrismarineJS:master",
        "ref": "master",
        "repo": {
            "allow_forking": true,
            "archive_url": "https://api.github.com/repos/PrismarineJS/prismarine-biome/{archive_format}{/ref}",
            "archived": false,
            "assignees_url": "https://api.github.com/repos/PrismarineJS/prismarine-biome/assignees{/user}",
            "blobs_url": "https://api.github.com/repos/PrismarineJS/prismarine-biome/git/blobs{/sha}",
            "branches_url": "https://api.github.com/repos/PrismarineJS/prismarine-biome/branches{/branch}",
            "clone_url": "https://github.com/PrismarineJS/prismarine-biome.git",
            "collaborators_url": "https://api.github.com/repos/PrismarineJS/prismarine-biome/collaborators{/collaborator}",
            "comments_url": "https://api.github.com/repos/PrismarineJS/prismarine-biome/comments{/number}",
            "commits_url": "https://api.github.com/repos/PrismarineJS/prismarine-biome/commits{/sha}",
            "compare_url": "https://api.github.com/repos/PrismarineJS/prismarine-biome/compare/{base}...{head}",
            "contents_url": "https://api.github.com/repos/PrismarineJS/prismarine-biome/contents/{+path}",
            "contributors_url": "https://api.github.com/repos/PrismarineJS/prismarine-biome/contributors",
            "created_at": "2015-08-28T23:27:22Z",
            "default_branch": "master",
            "deployments_url": "https://api.github.com/repos/PrismarineJS/prismarine-biome/deployments",
            "description": "Represent a minecraft biome with its associated data",
            "disabled": false,
            "downloads_url": "https://api.github.com/repos/PrismarineJS/prismarine-biome/downloads",
            "events_url": "https://api.github.com/repos/PrismarineJS/prismarine-biome/events",
            "fork": false,
            "forks": 7,
            "forks_count": 7,
            "forks_url": "https://api.github.com/repos/PrismarineJS/prismarine-biome/forks",
            "full_name": "PrismarineJS/prismarine-biome",
            "git_commits_url": "https://api.github.com/repos/PrismarineJS/prismarine-biome/git/commits{/sha}",
            "git_refs_url": "https://api.github.com/repos/PrismarineJS/prismarine-biome/git/refs{/sha}",
            "git_tags_url": "https://api.github.com/repos/PrismarineJS/prismarine-biome/git/tags{/sha}",
            "git_url": "git://github.com/PrismarineJS/prismarine-biome.git",
            "has_discussions": false,
            "has_downloads": true,
            "has_issues": true,
            "has_pages": false,
            "has_projects": true,
            "has_wiki": true,
            "homepage": null,
            "hooks_url": "https://api.github.com/repos/PrismarineJS/prismarine-biome/hooks",
            "html_url": "https://github.com/PrismarineJS/prismarine-biome",
            "id": 41573441,
            "is_template": false,
            "issue_comment_url": "https://api.github.com/repos/PrismarineJS/prismarine-biome/issues/comments{/number}",
            "issue_events_url": "https://api.github.com/repos/PrismarineJS/prismarine-biome/issues/events{/number}",
            "issues_url": "https://api.github.com/repos/PrismarineJS/prismarine-biome/issues{/number}",
            "keys_url": "https://api.github.com/repos/PrismarineJS/prismarine-biome/keys{/key_id}",
            "labels_url": "https://api.github.com/repos/PrismarineJS/prismarine-biome/labels{/name}",
            "language": "JavaScript",
            "languages_url": "https://api.github.com/repos/PrismarineJS/prismarine-biome/languages",
            "license": null,
            "merges_url": "https://api.github.com/repos/PrismarineJS/prismarine-biome/merges",
            "milestones_url": "https://api.github.com/repos/PrismarineJS/prismarine-biome/milestones{/number}",
            "mirror_url": null,
            "name": "prismarine-biome",
            "node_id": "MDEwOlJlcG9zaXRvcnk0MTU3MzQ0MQ==",
            "notifications_url": "https://api.github.com/repos/PrismarineJS/prismarine-biome/notifications{?since,all,participating}",
            "open_issues": 0,
            "open_issues_count": 0,
            "owner": {
                "avatar_url": "https://avatars.githubusercontent.com/u/11053411?v=4",
                "events_url": "https://api.github.com/users/PrismarineJS/events{/privacy}",
                "followers_url": "https://api.github.com/users/PrismarineJS/followers",
                "following_url": "https://api.github.com/users/PrismarineJS/following{/other_user}",
                "gists_url": "https://api.github.com/users/PrismarineJS/gists{/gist_id}",
                "gravatar_id": "",
                "html_url": "https://github.com/PrismarineJS",
                "id": 11053411,
                "login": "PrismarineJS",
                "node_id": "MDEyOk9yZ2FuaXphdGlvbjExMDUzNDEx",
                "organizations_url": "https://api.github.com/users/PrismarineJS/orgs",
                "received_events_url": "https://api.github.com/users/PrismarineJS/received_events",
                "repos_url": "https://api.github.com/users/PrismarineJS/repos",
                "site_admin": false,
                "starred_url": "https://api.github.com/users/PrismarineJS/starred{/owner}{/repo}",
                "subscriptions_url": "https://api.github.com/users/PrismarineJS/subscriptions",
                "type": "Organization",
                "url": "https://api.github.com/users/PrismarineJS"
            },
            "private": false,
            "pulls_url": "https://api.github.com/repos/PrismarineJS/prismarine-biome/pulls{/number}",
            "pushed_at": "2022-10-12T13:36:15Z",
            "releases_url": "https://api.github.com/repos/PrismarineJS/prismarine-biome/releases{/id}",
            "size": 24,
            "ssh_url": "git@github.com:PrismarineJS/prismarine-biome.git",
            "stargazers_count": 3,
            "stargazers_url": "https://api.github.com/repos/PrismarineJS/prismarine-biome/stargazers",
            "statuses_url": "https://api.github.com/repos/PrismarineJS/prismarine-biome/statuses/{sha}",
            "subscribers_url": "https://api.github.com/repos/PrismarineJS/prismarine-biome/subscribers",
            "subscription_url": "https://api.github.com/repos/PrismarineJS/prismarine-biome/subscription",
            "svn_url": "https://github.com/PrismarineJS/prismarine-biome",
            "tags_url": "https://api.github.com/repos/PrismarineJS/prismarine-biome/tags",
            "teams_url": "https://api.github.com/repos/PrismarineJS/prismarine-biome/teams",
            "topics": [],
            "trees_url": "https://api.github.com/repos/PrismarineJS/prismarine-biome/git/trees{/sha}",
            "updated_at": "2022-01-07T20:36:32Z",
            "url": "https://api.github.com/repos/PrismarineJS/prismarine-biome",
            "visibility": "public",
            "watchers": 3,
            "watchers_count": 3,
            "web_commit_signoff_required": false
        },
        "sha": "7451f0c08e6fa507bc29c94c8b1b980b4a561490",
        "user": {
            "avatar_url": "https://avatars.githubusercontent.com/u/11053411?v=4",
            "events_url": "https://api.github.com/users/PrismarineJS/events{/privacy}",
            "followers_url": "https://api.github.com/users/PrismarineJS/followers",
            "following_url": "https://api.github.com/users/PrismarineJS/following{/other_user}",
            "gists_url": "https://api.github.com/users/PrismarineJS/gists{/gist_id}",
            "gravatar_id": "",
            "html_url": "https://github.com/PrismarineJS",
            "id": 11053411,
            "login": "PrismarineJS",
            "node_id": "MDEyOk9yZ2FuaXphdGlvbjExMDUzNDEx",
            "organizations_url": "https://api.github.com/users/PrismarineJS/orgs",
            "received_events_url": "https://api.github.com/users/PrismarineJS/received_events",
            "repos_url": "https://api.github.com/users/PrismarineJS/repos",
            "site_admin": false,
            "starred_url": "https://api.github.com/users/PrismarineJS/starred{/owner}{/repo}",
            "subscriptions_url": "https://api.github.com/users/PrismarineJS/subscriptions",
            "type": "Organization",
            "url": "https://api.github.com/users/PrismarineJS"
        }
    },
    "body": "Bumps [standard](https://github.com/standard/standard) from 16.0.4 to 17.0.0.\n<details>\n<summary>Release notes</summary>\n<p><em>Sourced from <a href=\"https://github.com/standard/standard/releases\">standard's releases</a>.</em></p>\n<blockquote>\n<h2>v17.0.0</h2>\n<p>We're super excited to announce <code>standard</code> 17!</p>\n<p>This major release fully focuses on getting in sync with the wider ESLint ecosystem\nand doesn't in itself introduce any new rules or features.</p>\n<p>When you upgrade, consider running <code>standard --fix</code> to automatically format your\ncode to match the current set of rules.</p>\n<p>This is the first release by two of our <code>standard</code> co-maintainers <a href=\"https://github.com/Divlo\"><code>@​Divlo</code></a> and <a href=\"https://github.com/voxpelli\"><code>@​voxpelli</code></a>.\nBuy them a cake if you run into them, thanks for getting this release out!</p>\n<h3>Major changes</h3>\n<ul>\n<li><code>eslint-config-node</code> has been replaced with the up to date fork <code>eslint-config-n</code>. If you have used comments like <code>// eslint-disable-line node/no-deprecated-api</code> you now have to reference the <code>n/</code> rules instead.</li>\n<li><a href=\"https://github-redirect.dependabot.com/standard/eslint-config-standard/pull/166\"><code>object-shorthand</code> rule</a> (as warning)</li>\n<li>Use of ESLint 8, which allows for support for all of the latest syntax that ESLint 8 includes, such as top level <code>await</code> <a href=\"https://github-redirect.dependabot.com/standard/standard/issues/1548\">#1548</a> <a href=\"https://github-redirect.dependabot.com/standard/standard/issues/1775\">#1775</a></li>\n<li><code>--verbose</code> by default</li>\n</ul>\n<h3>Changed features</h3>\n<ul>\n<li>Update <code>eslint</code> from <code>~7.18.0</code> to <code>^8.13.0</code></li>\n<li>Update <code>eslint-config-standard</code> from <code>16.0.3</code> to <code>17.0.0</code> to adapt to ESLint 8</li>\n<li>Update <code>eslint-config-standard-jsx</code> from <code>10.0.0</code> to <code>^11.0.0</code> to adapt to ESLint 8</li>\n<li>Update <code>standard-engine</code> from <code>^14</code> to <code>^15.0.0</code> to adapt to ESLint 8, see <a href=\"https://github.com/standard/standard-engine/blob/master/CHANGELOG.md#1500-0-2021-11-30\">its <code>CHANGELOG</code></a></li>\n<li>Move from <code>eslint-plugin-node@~11.1.0</code> to <code>eslint-plugin-n@^15.1.0</code> to adapt to ESLint 8</li>\n<li>Update <code>eslint-plugin-import</code> from <code>~2.24.2</code> to <code>^2.26.0</code></li>\n<li>Update <code>eslint-plugin-promise</code> from <code>~5.1.0</code> to <code>^6.0.0</code></li>\n<li>Update <code>eslint-plugin-react</code> from <code>~7.25.1</code> to <code>^7.28.0</code></li>\n</ul>\n<p><a href=\"https://github.com/standard/standard/compare/v16.0.4...v17.0.0\">https://github.com/standard/standard/compare/v16.0.4...v17.0.0</a></p>\n<h2>v17.0.0-2</h2>\n<ul>\n<li>fix: update <code>eslint-config-standard-jsx</code> to fix <a href=\"https://github-redirect.dependabot.com/standard/standard/issues/1548\">#1548</a> (<a href=\"https://github-redirect.dependabot.com/standard/standard/issues/1775\">#1775</a>)  c120a60</li>\n</ul>\n<p><a href=\"https://github.com/standard/standard/compare/v17.0.0-1...v17.0.0-2\">https://github.com/standard/standard/compare/v17.0.0-1...v17.0.0-2</a></p>\n<h2>v17.0.0-1</h2>\n<ul>\n<li>Fix: Ensure we support all of the latest syntax that ESLint 8 includes, such as top level <code>await</code> <a href=\"https://github-redirect.dependabot.com/standard/standard/issues/1548\">#1548</a>, fixed in <a href=\"https://github-redirect.dependabot.com/standard/eslint-config-standard/pull/212\">standard/eslint-config-standard#212</a></li>\n</ul>\n<p><a href=\"https://github.com/standard/standard/compare/v17.0.0-0...v17.0.0-1\">https://github.com/standard/standard/compare/v17.0.0-0...v17.0.0-1</a></p>\n<h2>v17.0.0-0</h2>\n<p>We're finally able to offer a pre-release of ESLint 8 based <code>standard</code> 17!</p>\n<p>This major release fully focuses on getting in sync with the wider ESLint ecosystem and doesn't in itself introduce any new rules or features.</p>\n<p>This pre-release exists to test out the ESLint 8 related changes and discover possible backwards incompatible changes that comes with it and mitigate unintended such before a stable release.</p>\n<p>When you upgrade, consider running <code>standard --fix</code> to automatically format your code to match the current set of rules.</p>\n<!-- raw HTML omitted -->\n</blockquote>\n<p>... (truncated)</p>\n</details>\n<details>\n<summary>Changelog</summary>\n<p><em>Sourced from <a href=\"https://github.com/standard/standard/blob/master/CHANGELOG.md\">standard's changelog</a>.</em></p>\n<blockquote>\n<h2>[17.0.0] - 2022-04-20</h2>\n<p>We're super excited to announce <code>standard</code> 17!</p>\n<p>This major release fully focuses on getting in sync with the wider ESLint ecosystem\nand doesn't in itself introduce any new rules or features.</p>\n<p>When you upgrade, consider running <code>standard --fix</code> to automatically format your\ncode to match the current set of rules.</p>\n<p>This is the first release by two of our <code>standard</code> co-maintainers <a href=\"https://github.com/Divlo\"><code>@​Divlo</code></a> and <a href=\"https://github.com/voxpelli\"><code>@​voxpelli</code></a>. Buy them a cake if you run into them, thanks for getting this release out!</p>\n<h3>Major changes</h3>\n<ul>\n<li><code>eslint-config-node</code> has been replaced with the up to date fork <code>eslint-config-n</code>. If you have used comments like <code>// eslint-disable-line node/no-deprecated-api</code> you now have to reference the <code>n/</code> rules instead.</li>\n<li><a href=\"https://github-redirect.dependabot.com/standard/eslint-config-standard/pull/166\"><code>object-shorthand</code> rule</a> (as warning)</li>\n<li>Use of ESLint 8, which allows for support for all of the latest syntax that ESLint 8 includes, such as top level <code>await</code> <a href=\"https://github-redirect.dependabot.com/standard/standard/issues/1548\">#1548</a> <a href=\"https://github-redirect.dependabot.com/standard/standard/issues/1775\">#1775</a></li>\n<li><code>--verbose</code> by default</li>\n</ul>\n<h3>Changed features</h3>\n<ul>\n<li>Update <code>eslint</code> from <code>~7.18.0</code> to <code>^8.13.0</code></li>\n<li>Update <code>eslint-config-standard</code> from <code>16.0.3</code> to <code>17.0.0</code> to adapt to ESLint 8</li>\n<li>Update <code>eslint-config-standard-jsx</code> from <code>10.0.0</code> to <code>^11.0.0</code> to adapt to ESLint 8</li>\n<li>Update <code>standard-engine</code> from <code>^14</code> to <code>^15.0.0</code> to adapt to ESLint 8, see <a href=\"https://github.com/standard/standard-engine/blob/master/CHANGELOG.md#1500-0-2021-11-30\">its <code>CHANGELOG</code></a></li>\n<li>Move from <code>eslint-plugin-node@~11.1.0</code> to <code>eslint-plugin-n@^15.1.0</code> to adapt to ESLint 8</li>\n<li>Update <code>eslint-plugin-import</code> from <code>~2.24.2</code> to <code>^2.26.0</code></li>\n<li>Update <code>eslint-plugin-promise</code> from <code>~5.1.0</code> to <code>^6.0.0</code></li>\n<li>Update <code>eslint-plugin-react</code> from <code>~7.25.1</code> to <code>^7.28.0</code></li>\n</ul>\n<h2>[17.0.0-2] - 2022-02-03</h2>\n<ul>\n<li>Fix: Follow up to the fix of <a href=\"https://github-redirect.dependabot.com/standard/standard/issues/1548\">#1548</a> in <code>17.0.0-1</code> <a href=\"https://github-redirect.dependabot.com/standard/standard/issues/1775\">#1775</a></li>\n</ul>\n<h2>[17.0.0-1] - 2022-01-31</h2>\n<ul>\n<li>Fix: Ensure we support all of the latest syntax that ESLint 8 includes, such as top level <code>await</code> <a href=\"https://github-redirect.dependabot.com/standard/standard/issues/1548\">#1548</a></li>\n</ul>\n<h2>[17.0.0-0] - 2022-01-31</h2>\n<p>We're finally able to offer a pre-release of ESLint 8 based <code>standard</code> 17!</p>\n<p>This major release fully focuses on getting in sync with the wider ESLint ecosystem\nand doesn't in itself introduce any new rules or features.</p>\n<p>This pre-release exists to test out the ESLint 8 related changes and discover\npossible backwards incompatible changes that comes with it and mitigate\nunintended such before a stable release.</p>\n<p>When you upgrade, consider running <code>standard --fix</code> to automatically format your</p>\n<!-- raw HTML omitted -->\n</blockquote>\n<p>... (truncated)</p>\n</details>\n<details>\n<summary>Commits</summary>\n<ul>\n<li><a href=\"https://github.com/standard/standard/commit/d511a2bb79a9cc860b7d15c3245dfe3b861401b3\"><code>d511a2b</code></a> 17.0.0</li>\n<li><a href=\"https://github.com/standard/standard/commit/67af3a4135567fbddcd1132218490d0df9837309\"><code>67af3a4</code></a> Update <code>CHANGELOG.md</code></li>\n<li><a href=\"https://github.com/standard/standard/commit/2ca9ad4fbd41a24261db32ce6f1e7b003ef2a204\"><code>2ca9ad4</code></a> Update dependencies</li>\n<li><a href=\"https://github.com/standard/standard/commit/717ae8e728078adf36d92070adf1a760ecd2962f\"><code>717ae8e</code></a> Disable/remove packages broken for other reasons</li>\n<li><a href=\"https://github.com/standard/standard/commit/41a78f370618fba4269203ee3073382d80fad9a7\"><code>41a78f3</code></a> Disable packages broken by <code>eslint 7.19.0</code></li>\n<li><a href=\"https://github.com/standard/standard/commit/72774e89f8b48e61e136991c36a0e717070672d7\"><code>72774e8</code></a> Disable packages broken by <code>eslint-plugin-n</code></li>\n<li><a href=\"https://github.com/standard/standard/commit/0dd0ea43b1c125e04e6d7fda64c3b98a65d047be\"><code>0dd0ea4</code></a> build(deps): bump actions/checkout from 2 to 3</li>\n<li><a href=\"https://github.com/standard/standard/commit/ca1219cb9917d7b1a13fcc3d938b5d60d1c2ee19\"><code>ca1219c</code></a> Merge pull request <a href=\"https://github-redirect.dependabot.com/standard/standard/issues/1776\">#1776</a> from standard/prerelease-17.0.0</li>\n<li><a href=\"https://github.com/standard/standard/commit/439b57c25d93d15ae1d080753b0624c363faf519\"><code>439b57c</code></a> chore: add CHANGELOG entry</li>\n<li><a href=\"https://github.com/standard/standard/commit/a16c41aed6a451438acf2692d870c6f6b4a4043c\"><code>a16c41a</code></a> 17.0.0-2</li>\n<li>Additional commits viewable in <a href=\"https://github.com/standard/standard/compare/v16.0.4...v17.0.0\">compare view</a></li>\n</ul>\n</details>\n<br />\n\n\n[![Dependabot compatibility score](https://dependabot-badges.githubapp.com/badges/compatibility_score?dependency-name=standard&package-manager=npm_and_yarn&previous-version=16.0.4&new-version=17.0.0)](https://docs.github.com/en/github/managing-security-vulnerabilities/about-dependabot-security-updates#about-compatibility-scores)\n\nDependabot will resolve any conflicts with this PR as long as you don't alter it yourself. You can also trigger a rebase manually by commenting `@dependabot rebase`.\n\n[//]: # (dependabot-automerge-start)\n[//]: # (dependabot-automerge-end)\n\n---\n\n<details>\n<summary>Dependabot commands and options</summary>\n<br />\n\nYou can trigger Dependabot actions by commenting on this PR:\n- `@dependabot rebase` will rebase this PR\n- `@dependabot recreate` will recreate this PR, overwriting any edits that have been made to it\n- `@dependabot merge` will merge this PR after your CI passes on it\n- `@dependabot squash and merge` will squash and merge this PR after your CI passes on it\n- `@dependabot cancel merge` will cancel a previously requested merge and block automerging\n- `@dependabot reopen` will reopen this PR if it is closed\n- `@dependabot close` will close this PR and stop Dependabot recreating it. You can achieve the same result by closing it manually\n- `@dependabot ignore this major version` will close this PR and stop Dependabot creating any more for this major version (unless you reopen the PR or upgrade to it yourself)\n- `@dependabot ignore this minor version` will close this PR and stop Dependabot creating any more for this minor version (unless you reopen the PR or upgrade to it yourself)\n- `@dependabot ignore this dependency` will close this PR and stop Dependabot creating any more for this dependency (unless you reopen the PR or upgrade to it yourself)\n\n\n</details>",
    "changed_files": 1,
    "closed_at": "2022-05-10T17:11:20Z",
    "comment_data": [],
    "comment_regular_data": [],
    "comments": 0,
    "comments_url": "https://api.github.com/repos/PrismarineJS/prismarine-biome/issues/15/comments",
    "commit_data": [
        {
            "author": {
                "avatar_url": "https://avatars.githubusercontent.com/in/29110?v=4",
                "events_url": "https://api.github.com/users/dependabot%5Bbot%5D/events{/privacy}",
                "followers_url": "https://api.github.com/users/dependabot%5Bbot%5D/followers",
                "following_url": "https://api.github.com/users/dependabot%5Bbot%5D/following{/other_user}",
                "gists_url": "https://api.github.com/users/dependabot%5Bbot%5D/gists{/gist_id}",
                "gravatar_id": "",
                "html_url": "https://github.com/apps/dependabot",
                "id": 49699333,
                "login": "dependabot[bot]",
                "node_id": "MDM6Qm90NDk2OTkzMzM=",
                "organizations_url": "https://api.github.com/users/dependabot%5Bbot%5D/orgs",
                "received_events_url": "https://api.github.com/users/dependabot%5Bbot%5D/received_events",
                "repos_url": "https://api.github.com/users/dependabot%5Bbot%5D/repos",
                "site_admin": false,
                "starred_url": "https://api.github.com/users/dependabot%5Bbot%5D/starred{/owner}{/repo}",
                "subscriptions_url": "https://api.github.com/users/dependabot%5Bbot%5D/subscriptions",
                "type": "Bot",
                "url": "https://api.github.com/users/dependabot%5Bbot%5D"
            },
            "comments_url": "https://api.github.com/repos/PrismarineJS/prismarine-biome/commits/9497d9b7d91283d8151199555867e81f0ebd719d/comments",
            "commit": {
                "author": {
                    "date": "2022-04-21T02:08:00Z",
                    "email": "49699333+dependabot[bot]@users.noreply.github.com",
                    "name": "dependabot[bot]"
                },
                "comment_count": 0,
                "committer": {
                    "date": "2022-04-21T02:08:00Z",
                    "email": "noreply@github.com",
                    "name": "GitHub"
                },
                "message": "Bump standard from 16.0.4 to 17.0.0\n\nBumps [standard](https://github.com/standard/standard) from 16.0.4 to 17.0.0.\n- [Release notes](https://github.com/standard/standard/releases)\n- [Changelog](https://github.com/standard/standard/blob/master/CHANGELOG.md)\n- [Commits](https://github.com/standard/standard/compare/v16.0.4...v17.0.0)\n\n---\nupdated-dependencies:\n- dependency-name: standard\n  dependency-type: direct:development\n  update-type: version-update:semver-major\n...\n\nSigned-off-by: dependabot[bot] <support@github.com>",
                "tree": {
                    "sha": "2b5f2480a0daa16c3c62d152eaa2c98fe2386b97",
                    "url": "https://api.github.com/repos/PrismarineJS/prismarine-biome/git/trees/2b5f2480a0daa16c3c62d152eaa2c98fe2386b97"
                },
                "url": "https://api.github.com/repos/PrismarineJS/prismarine-biome/git/commits/9497d9b7d91283d8151199555867e81f0ebd719d",
                "verification": {
                    "payload": "tree 2b5f2480a0daa16c3c62d152eaa2c98fe2386b97\nparent 7451f0c08e6fa507bc29c94c8b1b980b4a561490\nauthor dependabot[bot] <49699333+dependabot[bot]@users.noreply.github.com> 1650506880 +0000\ncommitter GitHub <noreply@github.com> 1650506880 +0000\n\nBump standard from 16.0.4 to 17.0.0\n\nBumps [standard](https://github.com/standard/standard) from 16.0.4 to 17.0.0.\n- [Release notes](https://github.com/standard/standard/releases)\n- [Changelog](https://github.com/standard/standard/blob/master/CHANGELOG.md)\n- [Commits](https://github.com/standard/standard/compare/v16.0.4...v17.0.0)\n\n---\nupdated-dependencies:\n- dependency-name: standard\n  dependency-type: direct:development\n  update-type: version-update:semver-major\n...\n\nSigned-off-by: dependabot[bot] <support@github.com>",
                    "reason": "valid",
                    "signature": "-----BEGIN PGP SIGNATURE-----\n\nwsBcBAABCAAQBQJiYLyACRBK7hj4Ov3rIwAA6QkIABIexJP/sWUMHDroVz1t9EJ5\nKVPgVSPAvXJ8X9RzER0c2PSZlozk//f3X4PIs6ImY7XwOWxJDIE34yuS5kYBglqi\n2/Pexhxzv7AGr71iR7tTFbUN9qUYYZo5378cBuAFdeOnWbaPeOgsceeoKRKJUYQU\n1+teIZAPu7ACJ9q24kKCypxM/T2eTgRrx3JG0br4YZWvMciVwPxbLuYR7iqbEP4K\n59alUu62uWnsHaIlLiVac/+4JHmqzLjw2o+XOzUJUHwe08ofATdJtriDHb2ZjbhS\nMmrYUQuyjWXHSMeMa5hWUiZ9Crl21WCNwVWXg3iFkz13i2OGSp9FaV4QDPjjwgs=\n=6N10\n-----END PGP SIGNATURE-----\n",
                    "verified": true
                }
            },
            "committer": {
                "avatar_url": "https://avatars.githubusercontent.com/u/19864447?v=4",
                "events_url": "https://api.github.com/users/web-flow/events{/privacy}",
                "followers_url": "https://api.github.com/users/web-flow/followers",
                "following_url": "https://api.github.com/users/web-flow/following{/other_user}",
                "gists_url": "https://api.github.com/users/web-flow/gists{/gist_id}",
                "gravatar_id": "",
                "html_url": "https://github.com/web-flow",
                "id": 19864447,
                "login": "web-flow",
                "node_id": "MDQ6VXNlcjE5ODY0NDQ3",
                "organizations_url": "https://api.github.com/users/web-flow/orgs",
                "received_events_url": "https://api.github.com/users/web-flow/received_events",
                "repos_url": "https://api.github.com/users/web-flow/repos",
                "site_admin": false,
                "starred_url": "https://api.github.com/users/web-flow/starred{/owner}{/repo}",
                "subscriptions_url": "https://api.github.com/users/web-flow/subscriptions",
                "type": "User",
                "url": "https://api.github.com/users/web-flow"
            },
            "html_url": "https://github.com/PrismarineJS/prismarine-biome/commit/9497d9b7d91283d8151199555867e81f0ebd719d",
            "node_id": "C_kwDOAnpcQdoAKDk0OTdkOWI3ZDkxMjgzZDgxNTExOTk1NTU4NjdlODFmMGViZDcxOWQ",
            "parents": [
                {
                    "html_url": "https://github.com/PrismarineJS/prismarine-biome/commit/7451f0c08e6fa507bc29c94c8b1b980b4a561490",
                    "sha": "7451f0c08e6fa507bc29c94c8b1b980b4a561490",
                    "url": "https://api.github.com/repos/PrismarineJS/prismarine-biome/commits/7451f0c08e6fa507bc29c94c8b1b980b4a561490"
                }
            ],
            "sha": "9497d9b7d91283d8151199555867e81f0ebd719d",
            "url": "https://api.github.com/repos/PrismarineJS/prismarine-biome/commits/9497d9b7d91283d8151199555867e81f0ebd719d"
        }
    ],
    "commits": 1,
    "commits_url": "https://api.github.com/repos/PrismarineJS/prismarine-biome/pulls/15/commits",
    "created_at": "2022-04-21T02:08:01Z",
    "deletions": 1,
    "diff_url": "https://github.com/PrismarineJS/prismarine-biome/pull/15.diff",
    "draft": false,
    "head": {
        "label": "PrismarineJS:dependabot/npm_and_yarn/standard-17.0.0",
        "ref": "dependabot/npm_and_yarn/standard-17.0.0",
        "repo": {
            "allow_forking": true,
            "archive_url": "https://api.github.com/repos/PrismarineJS/prismarine-biome/{archive_format}{/ref}",
            "archived": false,
            "assignees_url": "https://api.github.com/repos/PrismarineJS/prismarine-biome/assignees{/user}",
            "blobs_url": "https://api.github.com/repos/PrismarineJS/prismarine-biome/git/blobs{/sha}",
            "branches_url": "https://api.github.com/repos/PrismarineJS/prismarine-biome/branches{/branch}",
            "clone_url": "https://github.com/PrismarineJS/prismarine-biome.git",
            "collaborators_url": "https://api.github.com/repos/PrismarineJS/prismarine-biome/collaborators{/collaborator}",
            "comments_url": "https://api.github.com/repos/PrismarineJS/prismarine-biome/comments{/number}",
            "commits_url": "https://api.github.com/repos/PrismarineJS/prismarine-biome/commits{/sha}",
            "compare_url": "https://api.github.com/repos/PrismarineJS/prismarine-biome/compare/{base}...{head}",
            "contents_url": "https://api.github.com/repos/PrismarineJS/prismarine-biome/contents/{+path}",
            "contributors_url": "https://api.github.com/repos/PrismarineJS/prismarine-biome/contributors",
            "created_at": "2015-08-28T23:27:22Z",
            "default_branch": "master",
            "deployments_url": "https://api.github.com/repos/PrismarineJS/prismarine-biome/deployments",
            "description": "Represent a minecraft biome with its associated data",
            "disabled": false,
            "downloads_url": "https://api.github.com/repos/PrismarineJS/prismarine-biome/downloads",
            "events_url": "https://api.github.com/repos/PrismarineJS/prismarine-biome/events",
            "fork": false,
            "forks": 7,
            "forks_count": 7,
            "forks_url": "https://api.github.com/repos/PrismarineJS/prismarine-biome/forks",
            "full_name": "PrismarineJS/prismarine-biome",
            "git_commits_url": "https://api.github.com/repos/PrismarineJS/prismarine-biome/git/commits{/sha}",
            "git_refs_url": "https://api.github.com/repos/PrismarineJS/prismarine-biome/git/refs{/sha}",
            "git_tags_url": "https://api.github.com/repos/PrismarineJS/prismarine-biome/git/tags{/sha}",
            "git_url": "git://github.com/PrismarineJS/prismarine-biome.git",
            "has_discussions": false,
            "has_downloads": true,
            "has_issues": true,
            "has_pages": false,
            "has_projects": true,
            "has_wiki": true,
            "homepage": null,
            "hooks_url": "https://api.github.com/repos/PrismarineJS/prismarine-biome/hooks",
            "html_url": "https://github.com/PrismarineJS/prismarine-biome",
            "id": 41573441,
            "is_template": false,
            "issue_comment_url": "https://api.github.com/repos/PrismarineJS/prismarine-biome/issues/comments{/number}",
            "issue_events_url": "https://api.github.com/repos/PrismarineJS/prismarine-biome/issues/events{/number}",
            "issues_url": "https://api.github.com/repos/PrismarineJS/prismarine-biome/issues{/number}",
            "keys_url": "https://api.github.com/repos/PrismarineJS/prismarine-biome/keys{/key_id}",
            "labels_url": "https://api.github.com/repos/PrismarineJS/prismarine-biome/labels{/name}",
            "language": "JavaScript",
            "languages_url": "https://api.github.com/repos/PrismarineJS/prismarine-biome/languages",
            "license": null,
            "merges_url": "https://api.github.com/repos/PrismarineJS/prismarine-biome/merges",
            "milestones_url": "https://api.github.com/repos/PrismarineJS/prismarine-biome/milestones{/number}",
            "mirror_url": null,
            "name": "prismarine-biome",
            "node_id": "MDEwOlJlcG9zaXRvcnk0MTU3MzQ0MQ==",
            "notifications_url": "https://api.github.com/repos/PrismarineJS/prismarine-biome/notifications{?since,all,participating}",
            "open_issues": 0,
            "open_issues_count": 0,
            "owner": {
                "avatar_url": "https://avatars.githubusercontent.com/u/11053411?v=4",
                "events_url": "https://api.github.com/users/PrismarineJS/events{/privacy}",
                "followers_url": "https://api.github.com/users/PrismarineJS/followers",
                "following_url": "https://api.github.com/users/PrismarineJS/following{/other_user}",
                "gists_url": "https://api.github.com/users/PrismarineJS/gists{/gist_id}",
                "gravatar_id": "",
                "html_url": "https://github.com/PrismarineJS",
                "id": 11053411,
                "login": "PrismarineJS",
                "node_id": "MDEyOk9yZ2FuaXphdGlvbjExMDUzNDEx",
                "organizations_url": "https://api.github.com/users/PrismarineJS/orgs",
                "received_events_url": "https://api.github.com/users/PrismarineJS/received_events",
                "repos_url": "https://api.github.com/users/PrismarineJS/repos",
                "site_admin": false,
                "starred_url": "https://api.github.com/users/PrismarineJS/starred{/owner}{/repo}",
                "subscriptions_url": "https://api.github.com/users/PrismarineJS/subscriptions",
                "type": "Organization",
                "url": "https://api.github.com/users/PrismarineJS"
            },
            "private": false,
            "pulls_url": "https://api.github.com/repos/PrismarineJS/prismarine-biome/pulls{/number}",
            "pushed_at": "2022-10-12T13:36:15Z",
            "releases_url": "https://api.github.com/repos/PrismarineJS/prismarine-biome/releases{/id}",
            "size": 24,
            "ssh_url": "git@github.com:PrismarineJS/prismarine-biome.git",
            "stargazers_count": 3,
            "stargazers_url": "https://api.github.com/repos/PrismarineJS/prismarine-biome/stargazers",
            "statuses_url": "https://api.github.com/repos/PrismarineJS/prismarine-biome/statuses/{sha}",
            "subscribers_url": "https://api.github.com/repos/PrismarineJS/prismarine-biome/subscribers",
            "subscription_url": "https://api.github.com/repos/PrismarineJS/prismarine-biome/subscription",
            "svn_url": "https://github.com/PrismarineJS/prismarine-biome",
            "tags_url": "https://api.github.com/repos/PrismarineJS/prismarine-biome/tags",
            "teams_url": "https://api.github.com/repos/PrismarineJS/prismarine-biome/teams",
            "topics": [],
            "trees_url": "https://api.github.com/repos/PrismarineJS/prismarine-biome/git/trees{/sha}",
            "updated_at": "2022-01-07T20:36:32Z",
            "url": "https://api.github.com/repos/PrismarineJS/prismarine-biome",
            "visibility": "public",
            "watchers": 3,
            "watchers_count": 3,
            "web_commit_signoff_required": false
        },
        "sha": "9497d9b7d91283d8151199555867e81f0ebd719d",
        "user": {
            "avatar_url": "https://avatars.githubusercontent.com/u/11053411?v=4",
            "events_url": "https://api.github.com/users/PrismarineJS/events{/privacy}",
            "followers_url": "https://api.github.com/users/PrismarineJS/followers",
            "following_url": "https://api.github.com/users/PrismarineJS/following{/other_user}",
            "gists_url": "https://api.github.com/users/PrismarineJS/gists{/gist_id}",
            "gravatar_id": "",
            "html_url": "https://github.com/PrismarineJS",
            "id": 11053411,
            "login": "PrismarineJS",
            "node_id": "MDEyOk9yZ2FuaXphdGlvbjExMDUzNDEx",
            "organizations_url": "https://api.github.com/users/PrismarineJS/orgs",
            "received_events_url": "https://api.github.com/users/PrismarineJS/received_events",
            "repos_url": "https://api.github.com/users/PrismarineJS/repos",
            "site_admin": false,
            "starred_url": "https://api.github.com/users/PrismarineJS/starred{/owner}{/repo}",
            "subscriptions_url": "https://api.github.com/users/PrismarineJS/subscriptions",
            "type": "Organization",
            "url": "https://api.github.com/users/PrismarineJS"
        }
    },
    "html_url": "https://github.com/PrismarineJS/prismarine-biome/pull/15",
    "id": 914825998,
    "issue_url": "https://api.github.com/repos/PrismarineJS/prismarine-biome/issues/15",
    "labels": [
        {
            "color": "0366d6",
            "default": false,
            "description": "Pull requests that update a dependency file",
            "id": 2067070582,
            "name": "dependencies",
            "node_id": "MDU6TGFiZWwyMDY3MDcwNTgy",
            "url": "https://api.github.com/repos/PrismarineJS/prismarine-biome/labels/dependencies"
        }
    ],
    "locked": false,
    "maintainer_can_modify": false,
    "merge_commit_sha": "72bbc2d11ad6f52efa6ba4036dff16ca26f0cc86",
    "mergeable": null,
    "mergeable_state": "unknown",
    "merged": true,
    "merged_at": "2022-05-10T17:11:20Z",
    "merged_by": {
        "avatar_url": "https://avatars.githubusercontent.com/u/43508353?v=4",
        "events_url": "https://api.github.com/users/u9g/events{/privacy}",
        "followers_url": "https://api.github.com/users/u9g/followers",
        "following_url": "https://api.github.com/users/u9g/following{/other_user}",
        "gists_url": "https://api.github.com/users/u9g/gists{/gist_id}",
        "gravatar_id": "",
        "html_url": "https://github.com/u9g",
        "id": 43508353,
        "login": "u9g",
        "node_id": "MDQ6VXNlcjQzNTA4MzUz",
        "organizations_url": "https://api.github.com/users/u9g/orgs",
        "received_events_url": "https://api.github.com/users/u9g/received_events",
        "repos_url": "https://api.github.com/users/u9g/repos",
        "site_admin": false,
        "starred_url": "https://api.github.com/users/u9g/starred{/owner}{/repo}",
        "subscriptions_url": "https://api.github.com/users/u9g/subscriptions",
        "type": "User",
        "url": "https://api.github.com/users/u9g"
    },
    "milestone": null,
    "node_id": "PR_kwDOAnpcQc42hyMO",
    "number": 15,
    "patch_url": "https://github.com/PrismarineJS/prismarine-biome/pull/15.patch",
    "rebaseable": null,
    "requested_reviewers": [],
    "requested_teams": [],
    "review_comment_url": "https://api.github.com/repos/PrismarineJS/prismarine-biome/pulls/comments{/number}",
    "review_comments": 0,
    "review_comments_url": "https://api.github.com/repos/PrismarineJS/prismarine-biome/pulls/15/comments",
    "state": "closed",
    "statuses_url": "https://api.github.com/repos/PrismarineJS/prismarine-biome/statuses/9497d9b7d91283d8151199555867e81f0ebd719d",
    "title": "Bump standard from 16.0.4 to 17.0.0",
    "updated_at": "2022-05-10T17:11:27Z",
    "url": "https://api.github.com/repos/PrismarineJS/prismarine-biome/pulls/15",
    "user": {
        "avatar_url": "https://avatars.githubusercontent.com/in/29110?v=4",
        "events_url": "https://api.github.com/users/dependabot%5Bbot%5D/events{/privacy}",
        "followers_url": "https://api.github.com/users/dependabot%5Bbot%5D/followers",
        "following_url": "https://api.github.com/users/dependabot%5Bbot%5D/following{/other_user}",
        "gists_url": "https://api.github.com/users/dependabot%5Bbot%5D/gists{/gist_id}",
        "gravatar_id": "",
        "html_url": "https://github.com/apps/dependabot",
        "id": 49699333,
        "login": "dependabot[bot]",
        "node_id": "MDM6Qm90NDk2OTkzMzM=",
        "organizations_url": "https://api.github.com/users/dependabot%5Bbot%5D/orgs",
        "received_events_url": "https://api.github.com/users/dependabot%5Bbot%5D/received_events",
        "repos_url": "https://api.github.com/users/dependabot%5Bbot%5D/repos",
        "site_admin": false,
        "starred_url": "https://api.github.com/users/dependabot%5Bbot%5D/starred{/owner}{/repo}",
        "subscriptions_url": "https://api.github.com/users/dependabot%5Bbot%5D/subscriptions",
        "type": "Bot",
        "url": "https://api.github.com/users/dependabot%5Bbot%5D"
    }
}