{
    "_links": {
        "comments": {
            "href": "https://api.github.com/repos/PrismarineJS/prismarine-biome/issues/19/comments"
        },
        "commits": {
            "href": "https://api.github.com/repos/PrismarineJS/prismarine-biome/pulls/19/commits"
        },
        "html": {
            "href": "https://github.com/PrismarineJS/prismarine-biome/pull/19"
        },
        "issue": {
            "href": "https://api.github.com/repos/PrismarineJS/prismarine-biome/issues/19"
        },
        "review_comment": {
            "href": "https://api.github.com/repos/PrismarineJS/prismarine-biome/pulls/comments{/number}"
        },
        "review_comments": {
            "href": "https://api.github.com/repos/PrismarineJS/prismarine-biome/pulls/19/comments"
        },
        "self": {
            "href": "https://api.github.com/repos/PrismarineJS/prismarine-biome/pulls/19"
        },
        "statuses": {
            "href": "https://api.github.com/repos/PrismarineJS/prismarine-biome/statuses/736045b7ac9a7cdd6ae4e923d361b95e365672df"
        }
    },
    "active_lock_reason": null,
    "additions": 2,
    "assignee": null,
    "assignees": [],
    "author_association": "MEMBER",
    "auto_merge": null,
    "base": {
        "label": "PrismarineJS:master",
        "ref": "master",
        "repo": {
            "allow_forking": true,
            "archive_url": "https://api.github.com/repos/PrismarineJS/prismarine-biome/{archive_format}{/ref}",
            "archived": false,
            "assignees_url": "https://api.github.com/repos/PrismarineJS/prismarine-biome/assignees{/user}",
            "blobs_url": "https://api.github.com/repos/PrismarineJS/prismarine-biome/git/blobs{/sha}",
            "branches_url": "https://api.github.com/repos/PrismarineJS/prismarine-biome/branches{/branch}",
            "clone_url": "https://github.com/PrismarineJS/prismarine-biome.git",
            "collaborators_url": "https://api.github.com/repos/PrismarineJS/prismarine-biome/collaborators{/collaborator}",
            "comments_url": "https://api.github.com/repos/PrismarineJS/prismarine-biome/comments{/number}",
            "commits_url": "https://api.github.com/repos/PrismarineJS/prismarine-biome/commits{/sha}",
            "compare_url": "https://api.github.com/repos/PrismarineJS/prismarine-biome/compare/{base}...{head}",
            "contents_url": "https://api.github.com/repos/PrismarineJS/prismarine-biome/contents/{+path}",
            "contributors_url": "https://api.github.com/repos/PrismarineJS/prismarine-biome/contributors",
            "created_at": "2015-08-28T23:27:22Z",
            "default_branch": "master",
            "deployments_url": "https://api.github.com/repos/PrismarineJS/prismarine-biome/deployments",
            "description": "Represent a minecraft biome with its associated data",
            "disabled": false,
            "downloads_url": "https://api.github.com/repos/PrismarineJS/prismarine-biome/downloads",
            "events_url": "https://api.github.com/repos/PrismarineJS/prismarine-biome/events",
            "fork": false,
            "forks": 10,
            "forks_count": 10,
            "forks_url": "https://api.github.com/repos/PrismarineJS/prismarine-biome/forks",
            "full_name": "PrismarineJS/prismarine-biome",
            "git_commits_url": "https://api.github.com/repos/PrismarineJS/prismarine-biome/git/commits{/sha}",
            "git_refs_url": "https://api.github.com/repos/PrismarineJS/prismarine-biome/git/refs{/sha}",
            "git_tags_url": "https://api.github.com/repos/PrismarineJS/prismarine-biome/git/tags{/sha}",
            "git_url": "git://github.com/PrismarineJS/prismarine-biome.git",
            "has_discussions": false,
            "has_downloads": true,
            "has_issues": true,
            "has_pages": false,
            "has_projects": true,
            "has_wiki": true,
            "homepage": null,
            "hooks_url": "https://api.github.com/repos/PrismarineJS/prismarine-biome/hooks",
            "html_url": "https://github.com/PrismarineJS/prismarine-biome",
            "id": 41573441,
            "is_template": false,
            "issue_comment_url": "https://api.github.com/repos/PrismarineJS/prismarine-biome/issues/comments{/number}",
            "issue_events_url": "https://api.github.com/repos/PrismarineJS/prismarine-biome/issues/events{/number}",
            "issues_url": "https://api.github.com/repos/PrismarineJS/prismarine-biome/issues{/number}",
            "keys_url": "https://api.github.com/repos/PrismarineJS/prismarine-biome/keys{/key_id}",
            "labels_url": "https://api.github.com/repos/PrismarineJS/prismarine-biome/labels{/name}",
            "language": "JavaScript",
            "languages_url": "https://api.github.com/repos/PrismarineJS/prismarine-biome/languages",
            "license": null,
            "merges_url": "https://api.github.com/repos/PrismarineJS/prismarine-biome/merges",
            "milestones_url": "https://api.github.com/repos/PrismarineJS/prismarine-biome/milestones{/number}",
            "mirror_url": null,
            "name": "prismarine-biome",
            "node_id": "MDEwOlJlcG9zaXRvcnk0MTU3MzQ0MQ==",
            "notifications_url": "https://api.github.com/repos/PrismarineJS/prismarine-biome/notifications{?since,all,participating}",
            "open_issues": 0,
            "open_issues_count": 0,
            "owner": {
                "avatar_url": "https://avatars.githubusercontent.com/u/11053411?v=4",
                "events_url": "https://api.github.com/users/PrismarineJS/events{/privacy}",
                "followers_url": "https://api.github.com/users/PrismarineJS/followers",
                "following_url": "https://api.github.com/users/PrismarineJS/following{/other_user}",
                "gists_url": "https://api.github.com/users/PrismarineJS/gists{/gist_id}",
                "gravatar_id": "",
                "html_url": "https://github.com/PrismarineJS",
                "id": 11053411,
                "login": "PrismarineJS",
                "node_id": "MDEyOk9yZ2FuaXphdGlvbjExMDUzNDEx",
                "organizations_url": "https://api.github.com/users/PrismarineJS/orgs",
                "received_events_url": "https://api.github.com/users/PrismarineJS/received_events",
                "repos_url": "https://api.github.com/users/PrismarineJS/repos",
                "site_admin": false,
                "starred_url": "https://api.github.com/users/PrismarineJS/starred{/owner}{/repo}",
                "subscriptions_url": "https://api.github.com/users/PrismarineJS/subscriptions",
                "type": "Organization",
                "url": "https://api.github.com/users/PrismarineJS",
                "user_view_type": "public"
            },
            "private": false,
            "pulls_url": "https://api.github.com/repos/PrismarineJS/prismarine-biome/pulls{/number}",
            "pushed_at": "2025-01-26T22:12:14Z",
            "releases_url": "https://api.github.com/repos/PrismarineJS/prismarine-biome/releases{/id}",
            "size": 27,
            "ssh_url": "git@github.com:PrismarineJS/prismarine-biome.git",
            "stargazers_count": 5,
            "stargazers_url": "https://api.github.com/repos/PrismarineJS/prismarine-biome/stargazers",
            "statuses_url": "https://api.github.com/repos/PrismarineJS/prismarine-biome/statuses/{sha}",
            "subscribers_url": "https://api.github.com/repos/PrismarineJS/prismarine-biome/subscribers",
            "subscription_url": "https://api.github.com/repos/PrismarineJS/prismarine-biome/subscription",
            "svn_url": "https://github.com/PrismarineJS/prismarine-biome",
            "tags_url": "https://api.github.com/repos/PrismarineJS/prismarine-biome/tags",
            "teams_url": "https://api.github.com/repos/PrismarineJS/prismarine-biome/teams",
            "topics": [],
            "trees_url": "https://api.github.com/repos/PrismarineJS/prismarine-biome/git/trees{/sha}",
            "updated_at": "2025-01-26T22:12:18Z",
            "url": "https://api.github.com/repos/PrismarineJS/prismarine-biome",
            "visibility": "public",
            "watchers": 5,
            "watchers_count": 5,
            "web_commit_signoff_required": false
        },
        "sha": "019071c02ba2e1952b659b3f0b1145eb75c826ac",
        "user": {
            "avatar_url": "https://avatars.githubusercontent.com/u/11053411?v=4",
            "events_url": "https://api.github.com/users/PrismarineJS/events{/privacy}",
            "followers_url": "https://api.github.com/users/PrismarineJS/followers",
            "following_url": "https://api.github.com/users/PrismarineJS/following{/other_user}",
            "gists_url": "https://api.github.com/users/PrismarineJS/gists{/gist_id}",
            "gravatar_id": "",
            "html_url": "https://github.com/PrismarineJS",
            "id": 11053411,
            "login": "PrismarineJS",
            "node_id": "MDEyOk9yZ2FuaXphdGlvbjExMDUzNDEx",
            "organizations_url": "https://api.github.com/users/PrismarineJS/orgs",
            "received_events_url": "https://api.github.com/users/PrismarineJS/received_events",
            "repos_url": "https://api.github.com/users/PrismarineJS/repos",
            "site_admin": false,
            "starred_url": "https://api.github.com/users/PrismarineJS/starred{/owner}{/repo}",
            "subscriptions_url": "https://api.github.com/users/PrismarineJS/subscriptions",
            "type": "Organization",
            "url": "https://api.github.com/users/PrismarineJS",
            "user_view_type": "public"
        }
    },
    "body": "node 22",
    "changed_files": 2,
    "closed_at": "2025-01-26T22:12:14Z",
    "comment_data": [],
    "comment_regular_data": [],
    "comments": 0,
    "comments_url": "https://api.github.com/repos/PrismarineJS/prismarine-biome/issues/19/comments",
    "commit_data": [
        {
            "author": {
                "avatar_url": "https://avatars.githubusercontent.com/u/2346494?v=4",
                "events_url": "https://api.github.com/users/rom1504/events{/privacy}",
                "followers_url": "https://api.github.com/users/rom1504/followers",
                "following_url": "https://api.github.com/users/rom1504/following{/other_user}",
                "gists_url": "https://api.github.com/users/rom1504/gists{/gist_id}",
                "gravatar_id": "",
                "html_url": "https://github.com/rom1504",
                "id": 2346494,
                "login": "rom1504",
                "node_id": "MDQ6VXNlcjIzNDY0OTQ=",
                "organizations_url": "https://api.github.com/users/rom1504/orgs",
                "received_events_url": "https://api.github.com/users/rom1504/received_events",
                "repos_url": "https://api.github.com/users/rom1504/repos",
                "site_admin": false,
                "starred_url": "https://api.github.com/users/rom1504/starred{/owner}{/repo}",
                "subscriptions_url": "https://api.github.com/users/rom1504/subscriptions",
                "type": "User",
                "url": "https://api.github.com/users/rom1504",
                "user_view_type": "public"
            },
            "comments_url": "https://api.github.com/repos/PrismarineJS/prismarine-biome/commits/736045b7ac9a7cdd6ae4e923d361b95e365672df/comments",
            "commit": {
                "author": {
                    "date": "2025-01-26T21:45:42Z",
                    "email": "romain.rom1@gmail.com",
                    "name": "Romain Beaumont"
                },
                "comment_count": 0,
                "committer": {
                    "date": "2025-01-26T21:45:42Z",
                    "email": "romain.rom1@gmail.com",
                    "name": "Romain Beaumont"
                },
                "message": "node 22",
                "tree": {
                    "sha": "d026c277e0896895e4e150fdca7f9a019a22f9bd",
                    "url": "https://api.github.com/repos/PrismarineJS/prismarine-biome/git/trees/d026c277e0896895e4e150fdca7f9a019a22f9bd"
                },
                "url": "https://api.github.com/repos/PrismarineJS/prismarine-biome/git/commits/736045b7ac9a7cdd6ae4e923d361b95e365672df",
                "verification": {
                    "payload": null,
                    "reason": "unsigned",
                    "signature": null,
                    "verified": false,
                    "verified_at": null
                }
            },
            "committer": {
                "avatar_url": "https://avatars.githubusercontent.com/u/2346494?v=4",
                "events_url": "https://api.github.com/users/rom1504/events{/privacy}",
                "followers_url": "https://api.github.com/users/rom1504/followers",
                "following_url": "https://api.github.com/users/rom1504/following{/other_user}",
                "gists_url": "https://api.github.com/users/rom1504/gists{/gist_id}",
                "gravatar_id": "",
                "html_url": "https://github.com/rom1504",
                "id": 2346494,
                "login": "rom1504",
                "node_id": "MDQ6VXNlcjIzNDY0OTQ=",
                "organizations_url": "https://api.github.com/users/rom1504/orgs",
                "received_events_url": "https://api.github.com/users/rom1504/received_events",
                "repos_url": "https://api.github.com/users/rom1504/repos",
                "site_admin": false,
                "starred_url": "https://api.github.com/users/rom1504/starred{/owner}{/repo}",
                "subscriptions_url": "https://api.github.com/users/rom1504/subscriptions",
                "type": "User",
                "url": "https://api.github.com/users/rom1504",
                "user_view_type": "public"
            },
            "html_url": "https://github.com/PrismarineJS/prismarine-biome/commit/736045b7ac9a7cdd6ae4e923d361b95e365672df",
            "node_id": "C_kwDOAnpcQdoAKDczNjA0NWI3YWM5YTdjZGQ2YWU0ZTkyM2QzNjFiOTVlMzY1NjcyZGY",
            "parents": [
                {
                    "html_url": "https://github.com/PrismarineJS/prismarine-biome/commit/019071c02ba2e1952b659b3f0b1145eb75c826ac",
                    "sha": "019071c02ba2e1952b659b3f0b1145eb75c826ac",
                    "url": "https://api.github.com/repos/PrismarineJS/prismarine-biome/commits/019071c02ba2e1952b659b3f0b1145eb75c826ac"
                }
            ],
            "sha": "736045b7ac9a7cdd6ae4e923d361b95e365672df",
            "url": "https://api.github.com/repos/PrismarineJS/prismarine-biome/commits/736045b7ac9a7cdd6ae4e923d361b95e365672df"
        }
    ],
    "commits": 1,
    "commits_url": "https://api.github.com/repos/PrismarineJS/prismarine-biome/pulls/19/commits",
    "created_at": "2025-01-26T21:51:34Z",
    "deletions": 2,
    "diff_url": "https://github.com/PrismarineJS/prismarine-biome/pull/19.diff",
    "draft": false,
    "head": {
        "label": "PrismarineJS:node_22",
        "ref": "node_22",
        "repo": {
            "allow_forking": true,
            "archive_url": "https://api.github.com/repos/PrismarineJS/prismarine-biome/{archive_format}{/ref}",
            "archived": false,
            "assignees_url": "https://api.github.com/repos/PrismarineJS/prismarine-biome/assignees{/user}",
            "blobs_url": "https://api.github.com/repos/PrismarineJS/prismarine-biome/git/blobs{/sha}",
            "branches_url": "https://api.github.com/repos/PrismarineJS/prismarine-biome/branches{/branch}",
            "clone_url": "https://github.com/PrismarineJS/prismarine-biome.git",
            "collaborators_url": "https://api.github.com/repos/PrismarineJS/prismarine-biome/collaborators{/collaborator}",
            "comments_url": "https://api.github.com/repos/PrismarineJS/prismarine-biome/comments{/number}",
            "commits_url": "https://api.github.com/repos/PrismarineJS/prismarine-biome/commits{/sha}",
            "compare_url": "https://api.github.com/repos/PrismarineJS/prismarine-biome/compare/{base}...{head}",
            "contents_url": "https://api.github.com/repos/PrismarineJS/prismarine-biome/contents/{+path}",
            "contributors_url": "https://api.github.com/repos/PrismarineJS/prismarine-biome/contributors",
            "created_at": "2015-08-28T23:27:22Z",
            "default_branch": "master",
            "deployments_url": "https://api.github.com/repos/PrismarineJS/prismarine-biome/deployments",
            "description": "Represent a minecraft biome with its associated data",
            "disabled": false,
            "downloads_url": "https://api.github.com/repos/PrismarineJS/prismarine-biome/downloads",
            "events_url": "https://api.github.com/repos/PrismarineJS/prismarine-biome/events",
            "fork": false,
            "forks": 10,
            "forks_count": 10,
            "forks_url": "https://api.github.com/repos/PrismarineJS/prismarine-biome/forks",
            "full_name": "PrismarineJS/prismarine-biome",
            "git_commits_url": "https://api.github.com/repos/PrismarineJS/prismarine-biome/git/commits{/sha}",
            "git_refs_url": "https://api.github.com/repos/PrismarineJS/prismarine-biome/git/refs{/sha}",
            "git_tags_url": "https://api.github.com/repos/PrismarineJS/prismarine-biome/git/tags{/sha}",
            "git_url": "git://github.com/PrismarineJS/prismarine-biome.git",
            "has_discussions": false,
            "has_downloads": true,
            "has_issues": true,
            "has_pages": false,
            "has_projects": true,
            "has_wiki": true,
            "homepage": null,
            "hooks_url": "https://api.github.com/repos/PrismarineJS/prismarine-biome/hooks",
            "html_url": "https://github.com/PrismarineJS/prismarine-biome",
            "id": 41573441,
            "is_template": false,
            "issue_comment_url": "https://api.github.com/repos/PrismarineJS/prismarine-biome/issues/comments{/number}",
            "issue_events_url": "https://api.github.com/repos/PrismarineJS/prismarine-biome/issues/events{/number}",
            "issues_url": "https://api.github.com/repos/PrismarineJS/prismarine-biome/issues{/number}",
            "keys_url": "https://api.github.com/repos/PrismarineJS/prismarine-biome/keys{/key_id}",
            "labels_url": "https://api.github.com/repos/PrismarineJS/prismarine-biome/labels{/name}",
            "language": "JavaScript",
            "languages_url": "https://api.github.com/repos/PrismarineJS/prismarine-biome/languages",
            "license": null,
            "merges_url": "https://api.github.com/repos/PrismarineJS/prismarine-biome/merges",
            "milestones_url": "https://api.github.com/repos/PrismarineJS/prismarine-biome/milestones{/number}",
            "mirror_url": null,
            "name": "prismarine-biome",
            "node_id": "MDEwOlJlcG9zaXRvcnk0MTU3MzQ0MQ==",
            "notifications_url": "https://api.github.com/repos/PrismarineJS/prismarine-biome/notifications{?since,all,participating}",
            "open_issues": 0,
            "open_issues_count": 0,
            "owner": {
                "avatar_url": "https://avatars.githubusercontent.com/u/11053411?v=4",
                "events_url": "https://api.github.com/users/PrismarineJS/events{/privacy}",
                "followers_url": "https://api.github.com/users/PrismarineJS/followers",
                "following_url": "https://api.github.com/users/PrismarineJS/following{/other_user}",
                "gists_url": "https://api.github.com/users/PrismarineJS/gists{/gist_id}",
                "gravatar_id": "",
                "html_url": "https://github.com/PrismarineJS",
                "id": 11053411,
                "login": "PrismarineJS",
                "node_id": "MDEyOk9yZ2FuaXphdGlvbjExMDUzNDEx",
                "organizations_url": "https://api.github.com/users/PrismarineJS/orgs",
                "received_events_url": "https://api.github.com/users/PrismarineJS/received_events",
                "repos_url": "https://api.github.com/users/PrismarineJS/repos",
                "site_admin": false,
                "starred_url": "https://api.github.com/users/PrismarineJS/starred{/owner}{/repo}",
                "subscriptions_url": "https://api.github.com/users/PrismarineJS/subscriptions",
                "type": "Organization",
                "url": "https://api.github.com/users/PrismarineJS",
                "user_view_type": "public"
            },
            "private": false,
            "pulls_url": "https://api.github.com/repos/PrismarineJS/prismarine-biome/pulls{/number}",
            "pushed_at": "2025-01-26T22:12:14Z",
            "releases_url": "https://api.github.com/repos/PrismarineJS/prismarine-biome/releases{/id}",
            "size": 27,
            "ssh_url": "git@github.com:PrismarineJS/prismarine-biome.git",
            "stargazers_count": 5,
            "stargazers_url": "https://api.github.com/repos/PrismarineJS/prismarine-biome/stargazers",
            "statuses_url": "https://api.github.com/repos/PrismarineJS/prismarine-biome/statuses/{sha}",
            "subscribers_url": "https://api.github.com/repos/PrismarineJS/prismarine-biome/subscribers",
            "subscription_url": "https://api.github.com/repos/PrismarineJS/prismarine-biome/subscription",
            "svn_url": "https://github.com/PrismarineJS/prismarine-biome",
            "tags_url": "https://api.github.com/repos/PrismarineJS/prismarine-biome/tags",
            "teams_url": "https://api.github.com/repos/PrismarineJS/prismarine-biome/teams",
            "topics": [],
            "trees_url": "https://api.github.com/repos/PrismarineJS/prismarine-biome/git/trees{/sha}",
            "updated_at": "2025-01-26T22:12:18Z",
            "url": "https://api.github.com/repos/PrismarineJS/prismarine-biome",
            "visibility": "public",
            "watchers": 5,
            "watchers_count": 5,
            "web_commit_signoff_required": false
        },
        "sha": "736045b7ac9a7cdd6ae4e923d361b95e365672df",
        "user": {
            "avatar_url": "https://avatars.githubusercontent.com/u/11053411?v=4",
            "events_url": "https://api.github.com/users/PrismarineJS/events{/privacy}",
            "followers_url": "https://api.github.com/users/PrismarineJS/followers",
            "following_url": "https://api.github.com/users/PrismarineJS/following{/other_user}",
            "gists_url": "https://api.github.com/users/PrismarineJS/gists{/gist_id}",
            "gravatar_id": "",
            "html_url": "https://github.com/PrismarineJS",
            "id": 11053411,
            "login": "PrismarineJS",
            "node_id": "MDEyOk9yZ2FuaXphdGlvbjExMDUzNDEx",
            "organizations_url": "https://api.github.com/users/PrismarineJS/orgs",
            "received_events_url": "https://api.github.com/users/PrismarineJS/received_events",
            "repos_url": "https://api.github.com/users/PrismarineJS/repos",
            "site_admin": false,
            "starred_url": "https://api.github.com/users/PrismarineJS/starred{/owner}{/repo}",
            "subscriptions_url": "https://api.github.com/users/PrismarineJS/subscriptions",
            "type": "Organization",
            "url": "https://api.github.com/users/PrismarineJS",
            "user_view_type": "public"
        }
    },
    "html_url": "https://github.com/PrismarineJS/prismarine-biome/pull/19",
    "id": 2298825375,
    "issue_url": "https://api.github.com/repos/PrismarineJS/prismarine-biome/issues/19",
    "labels": [],
    "locked": false,
    "maintainer_can_modify": false,
    "merge_commit_sha": "8523c8864884695bad858b990fdaf57eb19166b3",
    "mergeable": null,
    "mergeable_state": "unknown",
    "merged": true,
    "merged_at": "2025-01-26T22:12:14Z",
    "merged_by": {
        "avatar_url": "https://avatars.githubusercontent.com/u/2346494?v=4",
        "events_url": "https://api.github.com/users/rom1504/events{/privacy}",
        "followers_url": "https://api.github.com/users/rom1504/followers",
        "following_url": "https://api.github.com/users/rom1504/following{/other_user}",
        "gists_url": "https://api.github.com/users/rom1504/gists{/gist_id}",
        "gravatar_id": "",
        "html_url": "https://github.com/rom1504",
        "id": 2346494,
        "login": "rom1504",
        "node_id": "MDQ6VXNlcjIzNDY0OTQ=",
        "organizations_url": "https://api.github.com/users/rom1504/orgs",
        "received_events_url": "https://api.github.com/users/rom1504/received_events",
        "repos_url": "https://api.github.com/users/rom1504/repos",
        "site_admin": false,
        "starred_url": "https://api.github.com/users/rom1504/starred{/owner}{/repo}",
        "subscriptions_url": "https://api.github.com/users/rom1504/subscriptions",
        "type": "User",
        "url": "https://api.github.com/users/rom1504",
        "user_view_type": "public"
    },
    "milestone": null,
    "node_id": "PR_kwDOAnpcQc6JBUqf",
    "number": 19,
    "patch_url": "https://github.com/PrismarineJS/prismarine-biome/pull/19.patch",
    "rebaseable": null,
    "requested_reviewers": [],
    "requested_teams": [],
    "review_comment_url": "https://api.github.com/repos/PrismarineJS/prismarine-biome/pulls/comments{/number}",
    "review_comments": 0,
    "review_comments_url": "https://api.github.com/repos/PrismarineJS/prismarine-biome/pulls/19/comments",
    "state": "closed",
    "statuses_url": "https://api.github.com/repos/PrismarineJS/prismarine-biome/statuses/736045b7ac9a7cdd6ae4e923d361b95e365672df",
    "title": "Update to node 22",
    "updated_at": "2025-01-26T22:12:14Z",
    "url": "https://api.github.com/repos/PrismarineJS/prismarine-biome/pulls/19",
    "user": {
        "avatar_url": "https://avatars.githubusercontent.com/u/2346494?v=4",
        "events_url": "https://api.github.com/users/rom1504/events{/privacy}",
        "followers_url": "https://api.github.com/users/rom1504/followers",
        "following_url": "https://api.github.com/users/rom1504/following{/other_user}",
        "gists_url": "https://api.github.com/users/rom1504/gists{/gist_id}",
        "gravatar_id": "",
        "html_url": "https://github.com/rom1504",
        "id": 2346494,
        "login": "rom1504",
        "node_id": "MDQ6VXNlcjIzNDY0OTQ=",
        "organizations_url": "https://api.github.com/users/rom1504/orgs",
        "received_events_url": "https://api.github.com/users/rom1504/received_events",
        "repos_url": "https://api.github.com/users/rom1504/repos",
        "site_admin": false,
        "starred_url": "https://api.github.com/users/rom1504/starred{/owner}{/repo}",
        "subscriptions_url": "https://api.github.com/users/rom1504/subscriptions",
        "type": "User",
        "url": "https://api.github.com/users/rom1504",
        "user_view_type": "public"
    }
}