[
    {
        "color": "d73a4a",
        "default": true,
        "description": "Something isn't working",
        "id": 2001941459,
        "name": "bug",
        "node_id": "MDU6TGFiZWwyMDAxOTQxNDU5",
        "url": "https://api.github.com/repos/PrismarineJS/mineflayer-pathfinder/labels/bug"
    },
    {
        "color": "0366d6",
        "default": false,
        "description": "Pull requests that update a dependency file",
        "id": 2474649161,
        "name": "dependencies",
        "node_id": "MDU6TGFiZWwyNDc0NjQ5MTYx",
        "url": "https://api.github.com/repos/PrismarineJS/mineflayer-pathfinder/labels/dependencies"
    },
    {
        "color": "0075ca",
        "default": true,
        "description": "Improvements or additions to documentation",
        "id": 2001941461,
        "name": "documentation",
        "node_id": "MDU6TGFiZWwyMDAxOTQxNDYx",
        "url": "https://api.github.com/repos/PrismarineJS/mineflayer-pathfinder/labels/documentation"
    },
    {
        "color": "cfd3d7",
        "default": true,
        "description": "This issue or pull request already exists",
        "id": 2001941464,
        "name": "duplicate",
        "node_id": "MDU6TGFiZWwyMDAxOTQxNDY0",
        "url": "https://api.github.com/repos/PrismarineJS/mineflayer-pathfinder/labels/duplicate"
    },
    {
        "color": "a2eeef",
        "default": true,
        "description": "New feature or request",
        "id": 2001941467,
        "name": "enhancement",
        "node_id": "MDU6TGFiZWwyMDAxOTQxNDY3",
        "url": "https://api.github.com/repos/PrismarineJS/mineflayer-pathfinder/labels/enhancement"
    },
    {
        "color": "7057ff",
        "default": true,
        "description": "Good for newcomers",
        "id": 2001941470,
        "name": "good first issue",
        "node_id": "MDU6TGFiZWwyMDAxOTQxNDcw",
        "url": "https://api.github.com/repos/PrismarineJS/mineflayer-pathfinder/labels/good%20first%20issue"
    },
    {
        "color": "008672",
        "default": true,
        "description": "Extra attention is needed",
        "id": 2001941469,
        "name": "help wanted",
        "node_id": "MDU6TGFiZWwyMDAxOTQxNDY5",
        "url": "https://api.github.com/repos/PrismarineJS/mineflayer-pathfinder/labels/help%20wanted"
    },
    {
        "color": "e4e669",
        "default": true,
        "description": "This doesn't seem right",
        "id": 2001941472,
        "name": "invalid",
        "node_id": "MDU6TGFiZWwyMDAxOTQxNDcy",
        "url": "https://api.github.com/repos/PrismarineJS/mineflayer-pathfinder/labels/invalid"
    },
    {
        "color": "71DD00",
        "default": false,
        "description": "Breaking API changes waiting for major updates",
        "id": 7715049749,
        "name": "next major release",
        "node_id": "LA_kwDOD1iHmM8AAAABy9pRFQ",
        "url": "https://api.github.com/repos/PrismarineJS/mineflayer-pathfinder/labels/next%20major%20release"
    },
    {
        "color": "d876e3",
        "default": true,
        "description": "Further information is requested",
        "id": 2001941474,
        "name": "question",
        "node_id": "MDU6TGFiZWwyMDAxOTQxNDc0",
        "url": "https://api.github.com/repos/PrismarineJS/mineflayer-pathfinder/labels/question"
    },
    {
        "color": "ffffff",
        "default": true,
        "description": "This will not be worked on",
        "id": 2001941477,
        "name": "wontfix",
        "node_id": "MDU6TGFiZWwyMDAxOTQxNDc3",
        "url": "https://api.github.com/repos/PrismarineJS/mineflayer-pathfinder/labels/wontfix"
    }
]