{
    "active_lock_reason": null,
    "assignee": null,
    "assignees": [],
    "author_association": "CONTRIBUTOR",
    "body": "Hello, I have some times issues to reach the \"goal\" or item on floor,\r\n\r\nWhen is very near of goal and between bot have 1 block of colission some times  the bot don't wan't to go near and cant  dig blok and they stucks, and the don't exit, (they stucks for ever)\r\n\r\nCurrently i have on the code if the bot is not moving for X secconds then skipe this goal / item, \r\nBut I think maybe can do it inside of pathfinder and cand add try other way or move back and try again,\r\n\r\n*Also i detected some times when any block is changed while is moving (spawned trees or similar)\r\n\r\n```js\r\nbot.on('physicTick', executePhysicTickEvents)\r\nlet botPosition = bot.entity.position.clone()\r\nlet botPositionTime = Date.now()\r\n\r\nexecutePhysicTickEvents(){\r\n        if (bot.entity.position.distanceTo(botPosition) > 1) {\r\n          // Detect is moved\r\n          botPosition = bot.entity.position.clone()\r\n          botPositionTime = Date.now()\r\n        }\r\n        if (Date.now() - botPositionTime > 10000) {\r\n          // When reach 10 secs without movement = do anything\r\n        }\r\n}\r\n``` \r\n\r\nI attach a video:\r\nIn the second in the second 31 you can see the bot stucks with leaves\r\nWhen the bot detect theys is more than 10 seconds in same position skipe the goal\r\nhttps://www.youtube.com/watch?v=NZ274G0fY9E\r\n\r\nAnother one, in the moment i break manually block pathfinder continues (and pathfidner have dig block enabled...)\r\nhttps://youtu.be/tz456NYE2n4\r\n",
    "closed_at": null,
    "comment_data": [],
    "comments": 0,
    "comments_url": "https://api.github.com/repos/PrismarineJS/mineflayer-pathfinder/issues/142/comments",
    "created_at": "2021-04-10T18:50:26Z",
    "event_data": [],
    "events_url": "https://api.github.com/repos/PrismarineJS/mineflayer-pathfinder/issues/142/events",
    "html_url": "https://github.com/PrismarineJS/mineflayer-pathfinder/issues/142",
    "id": 855132576,
    "labels": [],
    "labels_url": "https://api.github.com/repos/PrismarineJS/mineflayer-pathfinder/issues/142/labels{/name}",
    "locked": false,
    "milestone": null,
    "node_id": "MDU6SXNzdWU4NTUxMzI1NzY=",
    "number": 142,
    "performed_via_github_app": null,
    "reactions": {
        "+1": 0,
        "-1": 0,
        "confused": 0,
        "eyes": 0,
        "heart": 0,
        "hooray": 0,
        "laugh": 0,
        "rocket": 0,
        "total_count": 0,
        "url": "https://api.github.com/repos/PrismarineJS/mineflayer-pathfinder/issues/142/reactions"
    },
    "repository_url": "https://api.github.com/repos/PrismarineJS/mineflayer-pathfinder",
    "state": "open",
    "state_reason": null,
    "timeline_url": "https://api.github.com/repos/PrismarineJS/mineflayer-pathfinder/issues/142/timeline",
    "title": "Detect bot is not moving and reach other way",
    "updated_at": "2021-04-10T19:20:12Z",
    "url": "https://api.github.com/repos/PrismarineJS/mineflayer-pathfinder/issues/142",
    "user": {
        "avatar_url": "https://avatars.githubusercontent.com/u/20754836?v=4",
        "events_url": "https://api.github.com/users/sefirosweb/events{/privacy}",
        "followers_url": "https://api.github.com/users/sefirosweb/followers",
        "following_url": "https://api.github.com/users/sefirosweb/following{/other_user}",
        "gists_url": "https://api.github.com/users/sefirosweb/gists{/gist_id}",
        "gravatar_id": "",
        "html_url": "https://github.com/sefirosweb",
        "id": 20754836,
        "login": "sefirosweb",
        "node_id": "MDQ6VXNlcjIwNzU0ODM2",
        "organizations_url": "https://api.github.com/users/sefirosweb/orgs",
        "received_events_url": "https://api.github.com/users/sefirosweb/received_events",
        "repos_url": "https://api.github.com/users/sefirosweb/repos",
        "site_admin": false,
        "starred_url": "https://api.github.com/users/sefirosweb/starred{/owner}{/repo}",
        "subscriptions_url": "https://api.github.com/users/sefirosweb/subscriptions",
        "type": "User",
        "url": "https://api.github.com/users/sefirosweb"
    }
}