{
    "active_lock_reason": null,
    "assignee": null,
    "assignees": [],
    "author_association": "CONTRIBUTOR",
    "body": "EXISTING CODE:\r\nconst mineflayer ...\r\n                           ...      bot.loadPlugin(pathfinder)\r\n\r\nbot.once('spawn', () => {                                                      // THIS OPEN BRACKET REQUIRES APPROPRIATE CLOSING BRACKET\r\n...................................\r\n..................................\r\n.............bot.pathfinder.setGoal(new GoalNear(p.x, p.y, p.z, 1))\r\n    } \r\n})\r\n// MISSING CLOSING BRACKETS\r\n\r\nUPDATED CODE:\r\n\r\nconst mineflayer ...\r\n                           ...      bot.loadPlugin(pathfinder)\r\n\r\nbot.once('spawn', () => {\r\n...................................\r\n..................................\r\n.............bot.pathfinder.setGoal(new GoalNear(p.x, p.y, p.z, 1))\r\n    } \r\n})\r\n})  // ADDED CLOSING BRACKETS\r\n\r\nACTUAL UPDATED CODE:\r\n```\r\nconst mineflayer = require('mineflayer')\r\nconst pathfinder = require('mineflayer-pathfinder').pathfinder\r\nconst Movements = require('mineflayer-pathfinder').Movements\r\nconst { GoalNear } = require('mineflayer-pathfinder').goals\r\nconst bot = mineflayer.createBot({ username: 'Player' })\r\n\r\nbot.loadPlugin(pathfinder)\r\n\r\nbot.once('spawn', () => {\r\n\r\n  const mcData = require('minecraft-data')(bot.version)\r\n\r\n  const defaultMove = new Movements(bot, mcData)\r\n  \r\n  bot.on('chat', function (username, message) {\r\n  \r\n    if (username === bot.username) return\r\n\r\n    const target = bot.players[username] ? bot.players[username].entity : null\r\n    if (message === 'come') {\r\n      if (!target) {\r\n        bot.chat('I don\\'t see you !')\r\n        return\r\n      }\r\n      const p = target.position\r\n\r\n      bot.pathfinder.setMovements(defaultMove)\r\n      bot.pathfinder.setGoal(new GoalNear(p.x, p.y, p.z, 1))\r\n    }\r\n  })\r\n})\r\n```\r\n\r\n\r\n",
    "closed_at": "2021-04-25T16:31:27Z",
    "comment_data": [
        {
            "author_association": "CONTRIBUTOR",
            "body": "#146 Solved unexpected end of input error in example code in README.txt. Thanks for merging my pull request.",
            "created_at": "2021-04-25T16:31:27Z",
            "html_url": "https://github.com/PrismarineJS/mineflayer-pathfinder/issues/145#issuecomment-826351627",
            "id": 826351627,
            "issue_url": "https://api.github.com/repos/PrismarineJS/mineflayer-pathfinder/issues/145",
            "node_id": "MDEyOklzc3VlQ29tbWVudDgyNjM1MTYyNw==",
            "performed_via_github_app": null,
            "reactions": {
                "+1": 0,
                "-1": 0,
                "confused": 0,
                "eyes": 0,
                "heart": 0,
                "hooray": 0,
                "laugh": 0,
                "rocket": 0,
                "total_count": 0,
                "url": "https://api.github.com/repos/PrismarineJS/mineflayer-pathfinder/issues/comments/826351627/reactions"
            },
            "updated_at": "2021-04-25T16:31:27Z",
            "url": "https://api.github.com/repos/PrismarineJS/mineflayer-pathfinder/issues/comments/826351627",
            "user": {
                "avatar_url": "https://avatars.githubusercontent.com/u/55176377?v=4",
                "events_url": "https://api.github.com/users/EswarBalasubramanian/events{/privacy}",
                "followers_url": "https://api.github.com/users/EswarBalasubramanian/followers",
                "following_url": "https://api.github.com/users/EswarBalasubramanian/following{/other_user}",
                "gists_url": "https://api.github.com/users/EswarBalasubramanian/gists{/gist_id}",
                "gravatar_id": "",
                "html_url": "https://github.com/EswarBalasubramanian",
                "id": 55176377,
                "login": "EswarBalasubramanian",
                "node_id": "MDQ6VXNlcjU1MTc2Mzc3",
                "organizations_url": "https://api.github.com/users/EswarBalasubramanian/orgs",
                "received_events_url": "https://api.github.com/users/EswarBalasubramanian/received_events",
                "repos_url": "https://api.github.com/users/EswarBalasubramanian/repos",
                "site_admin": false,
                "starred_url": "https://api.github.com/users/EswarBalasubramanian/starred{/owner}{/repo}",
                "subscriptions_url": "https://api.github.com/users/EswarBalasubramanian/subscriptions",
                "type": "User",
                "url": "https://api.github.com/users/EswarBalasubramanian"
            }
        }
    ],
    "comments": 1,
    "comments_url": "https://api.github.com/repos/PrismarineJS/mineflayer-pathfinder/issues/145/comments",
    "created_at": "2021-04-25T12:58:52Z",
    "event_data": [
        {
            "actor": {
                "avatar_url": "https://avatars.githubusercontent.com/u/55176377?v=4",
                "events_url": "https://api.github.com/users/EswarBalasubramanian/events{/privacy}",
                "followers_url": "https://api.github.com/users/EswarBalasubramanian/followers",
                "following_url": "https://api.github.com/users/EswarBalasubramanian/following{/other_user}",
                "gists_url": "https://api.github.com/users/EswarBalasubramanian/gists{/gist_id}",
                "gravatar_id": "",
                "html_url": "https://github.com/EswarBalasubramanian",
                "id": 55176377,
                "login": "EswarBalasubramanian",
                "node_id": "MDQ6VXNlcjU1MTc2Mzc3",
                "organizations_url": "https://api.github.com/users/EswarBalasubramanian/orgs",
                "received_events_url": "https://api.github.com/users/EswarBalasubramanian/received_events",
                "repos_url": "https://api.github.com/users/EswarBalasubramanian/repos",
                "site_admin": false,
                "starred_url": "https://api.github.com/users/EswarBalasubramanian/starred{/owner}{/repo}",
                "subscriptions_url": "https://api.github.com/users/EswarBalasubramanian/subscriptions",
                "type": "User",
                "url": "https://api.github.com/users/EswarBalasubramanian"
            },
            "commit_id": null,
            "commit_url": null,
            "created_at": "2021-04-25T16:31:27Z",
            "event": "closed",
            "id": 4641371321,
            "node_id": "MDExOkNsb3NlZEV2ZW50NDY0MTM3MTMyMQ==",
            "performed_via_github_app": null,
            "state_reason": null,
            "url": "https://api.github.com/repos/PrismarineJS/mineflayer-pathfinder/issues/events/4641371321"
        }
    ],
    "events_url": "https://api.github.com/repos/PrismarineJS/mineflayer-pathfinder/issues/145/events",
    "html_url": "https://github.com/PrismarineJS/mineflayer-pathfinder/issues/145",
    "id": 867005641,
    "labels": [],
    "labels_url": "https://api.github.com/repos/PrismarineJS/mineflayer-pathfinder/issues/145/labels{/name}",
    "locked": false,
    "milestone": null,
    "node_id": "MDU6SXNzdWU4NjcwMDU2NDE=",
    "number": 145,
    "performed_via_github_app": null,
    "reactions": {
        "+1": 0,
        "-1": 0,
        "confused": 0,
        "eyes": 0,
        "heart": 0,
        "hooray": 0,
        "laugh": 0,
        "rocket": 0,
        "total_count": 0,
        "url": "https://api.github.com/repos/PrismarineJS/mineflayer-pathfinder/issues/145/reactions"
    },
    "repository_url": "https://api.github.com/repos/PrismarineJS/mineflayer-pathfinder",
    "state": "closed",
    "state_reason": "completed",
    "timeline_url": "https://api.github.com/repos/PrismarineJS/mineflayer-pathfinder/issues/145/timeline",
    "title": "Example code missing )} at the end",
    "updated_at": "2021-04-25T16:31:27Z",
    "url": "https://api.github.com/repos/PrismarineJS/mineflayer-pathfinder/issues/145",
    "user": {
        "avatar_url": "https://avatars.githubusercontent.com/u/55176377?v=4",
        "events_url": "https://api.github.com/users/EswarBalasubramanian/events{/privacy}",
        "followers_url": "https://api.github.com/users/EswarBalasubramanian/followers",
        "following_url": "https://api.github.com/users/EswarBalasubramanian/following{/other_user}",
        "gists_url": "https://api.github.com/users/EswarBalasubramanian/gists{/gist_id}",
        "gravatar_id": "",
        "html_url": "https://github.com/EswarBalasubramanian",
        "id": 55176377,
        "login": "EswarBalasubramanian",
        "node_id": "MDQ6VXNlcjU1MTc2Mzc3",
        "organizations_url": "https://api.github.com/users/EswarBalasubramanian/orgs",
        "received_events_url": "https://api.github.com/users/EswarBalasubramanian/received_events",
        "repos_url": "https://api.github.com/users/EswarBalasubramanian/repos",
        "site_admin": false,
        "starred_url": "https://api.github.com/users/EswarBalasubramanian/starred{/owner}{/repo}",
        "subscriptions_url": "https://api.github.com/users/EswarBalasubramanian/subscriptions",
        "type": "User",
        "url": "https://api.github.com/users/EswarBalasubramanian"
    }
}