{
    "active_lock_reason": null,
    "assignee": null,
    "assignees": [],
    "author_association": "NONE",
    "body": "This is my code:\r\n```\r\nconst mineflayer = require(\"mineflayer\");\r\nconst {pathfinder, Movements, goals} = require('mineflayer-pathfinder');\r\nconst GoalFollow = goals.GoalFollow;\r\n const bot = mineflayer.createBot({\r\n    host: 'localhost',\r\n    port: 50542,\r\n    username: \"GOD_BOT\"\r\n\r\n});\r\nbot.loadPlugin(pathfinder)\r\nfunction lootAtNearestPlayer(){\r\n    const playerFilter = (entity)=> entity.type === 'player'\r\n    const playerEntity = bot.nearestEntity(playerFilter);\r\n\r\n    if(!playerEntity) return\r\n    const pos = playerEntity.position.offset(0, playerEntity.height, 0);\r\n    bot.lookAt(pos)\r\n}\r\nbot.on('physicTick',lootAtNearestPlayer);\r\n\r\nfunction followPlayer(){\r\n    const playerCI = bot.players['Avacadox21']\r\n\r\n    if (!playerCI || !playerCI.entity) {\r\n        bot.chat(\"Where are you my prey\")\r\n        return\r\n    }\r\n\r\n    const mcData = require('minecraft-data')(bot.version)\r\n    const movements = new Movements(bot, mcData)\r\n \r\n\r\n\r\n    bot.pathfinder.setMovements(movements)\r\n\r\n    const goal = new GoalFollow(playerCI.entity, 1)\r\n    bot.pathfinder.setGoal(goal, true)\r\n}\r\nbot.once('spawn', followPlayer)\r\n\r\n``` \r\n\r\n##PLS HELP",
    "closed_at": "2022-07-02T12:28:07Z",
    "comment_data": [
        {
            "author_association": "CONTRIBUTOR",
            "body": "You need to add the blocks to .movements.scafoldingBlocks iirc\r\n",
            "created_at": "2021-05-09T15:33:09Z",
            "html_url": "https://github.com/PrismarineJS/mineflayer-pathfinder/issues/151#issuecomment-835829548",
            "id": 835829548,
            "issue_url": "https://api.github.com/repos/PrismarineJS/mineflayer-pathfinder/issues/151",
            "node_id": "MDEyOklzc3VlQ29tbWVudDgzNTgyOTU0OA==",
            "performed_via_github_app": null,
            "reactions": {
                "+1": 0,
                "-1": 0,
                "confused": 0,
                "eyes": 0,
                "heart": 0,
                "hooray": 0,
                "laugh": 0,
                "rocket": 0,
                "total_count": 0,
                "url": "https://api.github.com/repos/PrismarineJS/mineflayer-pathfinder/issues/comments/835829548/reactions"
            },
            "updated_at": "2021-05-09T15:33:09Z",
            "url": "https://api.github.com/repos/PrismarineJS/mineflayer-pathfinder/issues/comments/835829548",
            "user": {
                "avatar_url": "https://avatars.githubusercontent.com/u/68395930?v=4",
                "events_url": "https://api.github.com/users/amoraschi/events{/privacy}",
                "followers_url": "https://api.github.com/users/amoraschi/followers",
                "following_url": "https://api.github.com/users/amoraschi/following{/other_user}",
                "gists_url": "https://api.github.com/users/amoraschi/gists{/gist_id}",
                "gravatar_id": "",
                "html_url": "https://github.com/amoraschi",
                "id": 68395930,
                "login": "amoraschi",
                "node_id": "MDQ6VXNlcjY4Mzk1OTMw",
                "organizations_url": "https://api.github.com/users/amoraschi/orgs",
                "received_events_url": "https://api.github.com/users/amoraschi/received_events",
                "repos_url": "https://api.github.com/users/amoraschi/repos",
                "site_admin": false,
                "starred_url": "https://api.github.com/users/amoraschi/starred{/owner}{/repo}",
                "subscriptions_url": "https://api.github.com/users/amoraschi/subscriptions",
                "type": "User",
                "url": "https://api.github.com/users/amoraschi"
            }
        },
        {
            "author_association": "MEMBER",
            "body": "Default scafolding blocks are dirt and cobblestone",
            "created_at": "2021-06-21T14:41:28Z",
            "html_url": "https://github.com/PrismarineJS/mineflayer-pathfinder/issues/151#issuecomment-865088336",
            "id": 865088336,
            "issue_url": "https://api.github.com/repos/PrismarineJS/mineflayer-pathfinder/issues/151",
            "node_id": "MDEyOklzc3VlQ29tbWVudDg2NTA4ODMzNg==",
            "performed_via_github_app": null,
            "reactions": {
                "+1": 0,
                "-1": 0,
                "confused": 0,
                "eyes": 0,
                "heart": 0,
                "hooray": 0,
                "laugh": 0,
                "rocket": 0,
                "total_count": 0,
                "url": "https://api.github.com/repos/PrismarineJS/mineflayer-pathfinder/issues/comments/865088336/reactions"
            },
            "updated_at": "2021-06-21T14:41:28Z",
            "url": "https://api.github.com/repos/PrismarineJS/mineflayer-pathfinder/issues/comments/865088336",
            "user": {
                "avatar_url": "https://avatars.githubusercontent.com/u/61137113?v=4",
                "events_url": "https://api.github.com/users/IceTank/events{/privacy}",
                "followers_url": "https://api.github.com/users/IceTank/followers",
                "following_url": "https://api.github.com/users/IceTank/following{/other_user}",
                "gists_url": "https://api.github.com/users/IceTank/gists{/gist_id}",
                "gravatar_id": "",
                "html_url": "https://github.com/IceTank",
                "id": 61137113,
                "login": "IceTank",
                "node_id": "MDQ6VXNlcjYxMTM3MTEz",
                "organizations_url": "https://api.github.com/users/IceTank/orgs",
                "received_events_url": "https://api.github.com/users/IceTank/received_events",
                "repos_url": "https://api.github.com/users/IceTank/repos",
                "site_admin": false,
                "starred_url": "https://api.github.com/users/IceTank/starred{/owner}{/repo}",
                "subscriptions_url": "https://api.github.com/users/IceTank/subscriptions",
                "type": "User",
                "url": "https://api.github.com/users/IceTank"
            }
        },
        {
            "author_association": "NONE",
            "body": "How do you add blocks to .movements.scafoldingBlocks on replit?",
            "created_at": "2022-04-29T17:42:47Z",
            "html_url": "https://github.com/PrismarineJS/mineflayer-pathfinder/issues/151#issuecomment-1113565649",
            "id": 1113565649,
            "issue_url": "https://api.github.com/repos/PrismarineJS/mineflayer-pathfinder/issues/151",
            "node_id": "IC_kwDOD1iHmM5CX6nR",
            "performed_via_github_app": null,
            "reactions": {
                "+1": 0,
                "-1": 0,
                "confused": 0,
                "eyes": 0,
                "heart": 0,
                "hooray": 0,
                "laugh": 0,
                "rocket": 0,
                "total_count": 0,
                "url": "https://api.github.com/repos/PrismarineJS/mineflayer-pathfinder/issues/comments/1113565649/reactions"
            },
            "updated_at": "2022-04-29T17:42:47Z",
            "url": "https://api.github.com/repos/PrismarineJS/mineflayer-pathfinder/issues/comments/1113565649",
            "user": {
                "avatar_url": "https://avatars.githubusercontent.com/u/78925970?v=4",
                "events_url": "https://api.github.com/users/NopeProsOnly/events{/privacy}",
                "followers_url": "https://api.github.com/users/NopeProsOnly/followers",
                "following_url": "https://api.github.com/users/NopeProsOnly/following{/other_user}",
                "gists_url": "https://api.github.com/users/NopeProsOnly/gists{/gist_id}",
                "gravatar_id": "",
                "html_url": "https://github.com/NopeProsOnly",
                "id": 78925970,
                "login": "NopeProsOnly",
                "node_id": "MDQ6VXNlcjc4OTI1OTcw",
                "organizations_url": "https://api.github.com/users/NopeProsOnly/orgs",
                "received_events_url": "https://api.github.com/users/NopeProsOnly/received_events",
                "repos_url": "https://api.github.com/users/NopeProsOnly/repos",
                "site_admin": false,
                "starred_url": "https://api.github.com/users/NopeProsOnly/starred{/owner}{/repo}",
                "subscriptions_url": "https://api.github.com/users/NopeProsOnly/subscriptions",
                "type": "User",
                "url": "https://api.github.com/users/NopeProsOnly"
            }
        },
        {
            "author_association": "MEMBER",
            "body": "> How do you add blocks to .movements.scafoldingBlocks on replit?\r\n\r\nLook at the movements.js example",
            "created_at": "2022-04-29T18:09:05Z",
            "html_url": "https://github.com/PrismarineJS/mineflayer-pathfinder/issues/151#issuecomment-1113587377",
            "id": 1113587377,
            "issue_url": "https://api.github.com/repos/PrismarineJS/mineflayer-pathfinder/issues/151",
            "node_id": "IC_kwDOD1iHmM5CX_6x",
            "performed_via_github_app": null,
            "reactions": {
                "+1": 0,
                "-1": 0,
                "confused": 0,
                "eyes": 0,
                "heart": 0,
                "hooray": 0,
                "laugh": 0,
                "rocket": 0,
                "total_count": 0,
                "url": "https://api.github.com/repos/PrismarineJS/mineflayer-pathfinder/issues/comments/1113587377/reactions"
            },
            "updated_at": "2022-04-29T18:09:05Z",
            "url": "https://api.github.com/repos/PrismarineJS/mineflayer-pathfinder/issues/comments/1113587377",
            "user": {
                "avatar_url": "https://avatars.githubusercontent.com/u/61137113?v=4",
                "events_url": "https://api.github.com/users/IceTank/events{/privacy}",
                "followers_url": "https://api.github.com/users/IceTank/followers",
                "following_url": "https://api.github.com/users/IceTank/following{/other_user}",
                "gists_url": "https://api.github.com/users/IceTank/gists{/gist_id}",
                "gravatar_id": "",
                "html_url": "https://github.com/IceTank",
                "id": 61137113,
                "login": "IceTank",
                "node_id": "MDQ6VXNlcjYxMTM3MTEz",
                "organizations_url": "https://api.github.com/users/IceTank/orgs",
                "received_events_url": "https://api.github.com/users/IceTank/received_events",
                "repos_url": "https://api.github.com/users/IceTank/repos",
                "site_admin": false,
                "starred_url": "https://api.github.com/users/IceTank/starred{/owner}{/repo}",
                "subscriptions_url": "https://api.github.com/users/IceTank/subscriptions",
                "type": "User",
                "url": "https://api.github.com/users/IceTank"
            }
        }
    ],
    "comments": 4,
    "comments_url": "https://api.github.com/repos/PrismarineJS/mineflayer-pathfinder/issues/151/comments",
    "created_at": "2021-05-06T08:24:20Z",
    "event_data": [
        {
            "actor": {
                "avatar_url": "https://avatars.githubusercontent.com/u/61137113?v=4",
                "events_url": "https://api.github.com/users/IceTank/events{/privacy}",
                "followers_url": "https://api.github.com/users/IceTank/followers",
                "following_url": "https://api.github.com/users/IceTank/following{/other_user}",
                "gists_url": "https://api.github.com/users/IceTank/gists{/gist_id}",
                "gravatar_id": "",
                "html_url": "https://github.com/IceTank",
                "id": 61137113,
                "login": "IceTank",
                "node_id": "MDQ6VXNlcjYxMTM3MTEz",
                "organizations_url": "https://api.github.com/users/IceTank/orgs",
                "received_events_url": "https://api.github.com/users/IceTank/received_events",
                "repos_url": "https://api.github.com/users/IceTank/repos",
                "site_admin": false,
                "starred_url": "https://api.github.com/users/IceTank/starred{/owner}{/repo}",
                "subscriptions_url": "https://api.github.com/users/IceTank/subscriptions",
                "type": "User",
                "url": "https://api.github.com/users/IceTank"
            },
            "commit_id": null,
            "commit_url": null,
            "created_at": "2022-07-02T12:28:07Z",
            "event": "closed",
            "id": 6922120587,
            "node_id": "CE_lADOD1iHmM40SWpgzwAAAAGcly2L",
            "performed_via_github_app": null,
            "state_reason": null,
            "url": "https://api.github.com/repos/PrismarineJS/mineflayer-pathfinder/issues/events/6922120587"
        }
    ],
    "events_url": "https://api.github.com/repos/PrismarineJS/mineflayer-pathfinder/issues/151/events",
    "html_url": "https://github.com/PrismarineJS/mineflayer-pathfinder/issues/151",
    "id": 877226592,
    "labels": [],
    "labels_url": "https://api.github.com/repos/PrismarineJS/mineflayer-pathfinder/issues/151/labels{/name}",
    "locked": false,
    "milestone": null,
    "node_id": "MDU6SXNzdWU4NzcyMjY1OTI=",
    "number": 151,
    "performed_via_github_app": null,
    "reactions": {
        "+1": 0,
        "-1": 0,
        "confused": 0,
        "eyes": 0,
        "heart": 0,
        "hooray": 0,
        "laugh": 0,
        "rocket": 0,
        "total_count": 0,
        "url": "https://api.github.com/repos/PrismarineJS/mineflayer-pathfinder/issues/151/reactions"
    },
    "repository_url": "https://api.github.com/repos/PrismarineJS/mineflayer-pathfinder",
    "state": "closed",
    "state_reason": "completed",
    "timeline_url": "https://api.github.com/repos/PrismarineJS/mineflayer-pathfinder/issues/151/timeline",
    "title": "the bot is not using blocks to reach the player",
    "updated_at": "2022-07-02T12:28:07Z",
    "url": "https://api.github.com/repos/PrismarineJS/mineflayer-pathfinder/issues/151",
    "user": {
        "avatar_url": "https://avatars.githubusercontent.com/u/70990857?v=4",
        "events_url": "https://api.github.com/users/avacadox21/events{/privacy}",
        "followers_url": "https://api.github.com/users/avacadox21/followers",
        "following_url": "https://api.github.com/users/avacadox21/following{/other_user}",
        "gists_url": "https://api.github.com/users/avacadox21/gists{/gist_id}",
        "gravatar_id": "",
        "html_url": "https://github.com/avacadox21",
        "id": 70990857,
        "login": "avacadox21",
        "node_id": "MDQ6VXNlcjcwOTkwODU3",
        "organizations_url": "https://api.github.com/users/avacadox21/orgs",
        "received_events_url": "https://api.github.com/users/avacadox21/received_events",
        "repos_url": "https://api.github.com/users/avacadox21/repos",
        "site_admin": false,
        "starred_url": "https://api.github.com/users/avacadox21/starred{/owner}{/repo}",
        "subscriptions_url": "https://api.github.com/users/avacadox21/subscriptions",
        "type": "User",
        "url": "https://api.github.com/users/avacadox21"
    }
}