{
    "active_lock_reason": null,
    "assignee": null,
    "assignees": [],
    "author_association": "NONE",
    "body": "\r\n\r\n![2022-07-30_19 00 29](https://user-images.githubusercontent.com/89208604/181925231-193b4379-3c5c-478a-aa0f-572dcdf2baa1.png)\r\n![2022-07-30_19 03 11](https://user-images.githubusercontent.com/89208604/181925337-09dc19a6-1655-45cf-87f8-6f42c9d0f35b.png)\r\n\r\n",
    "closed_at": "2022-09-08T18:08:56Z",
    "comment_data": [
        {
            "author_association": "MEMBER",
            "body": "Will look at this when I have time",
            "created_at": "2022-08-12T11:18:04Z",
            "html_url": "https://github.com/PrismarineJS/mineflayer-pathfinder/issues/283#issuecomment-1213002347",
            "id": 1213002347,
            "issue_url": "https://api.github.com/repos/PrismarineJS/mineflayer-pathfinder/issues/283",
            "node_id": "IC_kwDOD1iHmM5ITPJr",
            "performed_via_github_app": null,
            "reactions": {
                "+1": 0,
                "-1": 0,
                "confused": 0,
                "eyes": 0,
                "heart": 0,
                "hooray": 0,
                "laugh": 0,
                "rocket": 0,
                "total_count": 0,
                "url": "https://api.github.com/repos/PrismarineJS/mineflayer-pathfinder/issues/comments/1213002347/reactions"
            },
            "updated_at": "2022-08-12T11:18:04Z",
            "url": "https://api.github.com/repos/PrismarineJS/mineflayer-pathfinder/issues/comments/1213002347",
            "user": {
                "avatar_url": "https://avatars.githubusercontent.com/u/61137113?v=4",
                "events_url": "https://api.github.com/users/IceTank/events{/privacy}",
                "followers_url": "https://api.github.com/users/IceTank/followers",
                "following_url": "https://api.github.com/users/IceTank/following{/other_user}",
                "gists_url": "https://api.github.com/users/IceTank/gists{/gist_id}",
                "gravatar_id": "",
                "html_url": "https://github.com/IceTank",
                "id": 61137113,
                "login": "IceTank",
                "node_id": "MDQ6VXNlcjYxMTM3MTEz",
                "organizations_url": "https://api.github.com/users/IceTank/orgs",
                "received_events_url": "https://api.github.com/users/IceTank/received_events",
                "repos_url": "https://api.github.com/users/IceTank/repos",
                "site_admin": false,
                "starred_url": "https://api.github.com/users/IceTank/starred{/owner}{/repo}",
                "subscriptions_url": "https://api.github.com/users/IceTank/subscriptions",
                "type": "User",
                "url": "https://api.github.com/users/IceTank"
            }
        },
        {
            "author_association": "MEMBER",
            "body": "Cannot reproduce. Did you use GoalNear instead off goal block?",
            "created_at": "2022-08-21T09:03:37Z",
            "html_url": "https://github.com/PrismarineJS/mineflayer-pathfinder/issues/283#issuecomment-1221503281",
            "id": 1221503281,
            "issue_url": "https://api.github.com/repos/PrismarineJS/mineflayer-pathfinder/issues/283",
            "node_id": "IC_kwDOD1iHmM5Izqkx",
            "performed_via_github_app": null,
            "reactions": {
                "+1": 0,
                "-1": 0,
                "confused": 0,
                "eyes": 0,
                "heart": 0,
                "hooray": 0,
                "laugh": 0,
                "rocket": 0,
                "total_count": 0,
                "url": "https://api.github.com/repos/PrismarineJS/mineflayer-pathfinder/issues/comments/1221503281/reactions"
            },
            "updated_at": "2022-08-21T09:03:37Z",
            "url": "https://api.github.com/repos/PrismarineJS/mineflayer-pathfinder/issues/comments/1221503281",
            "user": {
                "avatar_url": "https://avatars.githubusercontent.com/u/61137113?v=4",
                "events_url": "https://api.github.com/users/IceTank/events{/privacy}",
                "followers_url": "https://api.github.com/users/IceTank/followers",
                "following_url": "https://api.github.com/users/IceTank/following{/other_user}",
                "gists_url": "https://api.github.com/users/IceTank/gists{/gist_id}",
                "gravatar_id": "",
                "html_url": "https://github.com/IceTank",
                "id": 61137113,
                "login": "IceTank",
                "node_id": "MDQ6VXNlcjYxMTM3MTEz",
                "organizations_url": "https://api.github.com/users/IceTank/orgs",
                "received_events_url": "https://api.github.com/users/IceTank/received_events",
                "repos_url": "https://api.github.com/users/IceTank/repos",
                "site_admin": false,
                "starred_url": "https://api.github.com/users/IceTank/starred{/owner}{/repo}",
                "subscriptions_url": "https://api.github.com/users/IceTank/subscriptions",
                "type": "User",
                "url": "https://api.github.com/users/IceTank"
            }
        },
        {
            "author_association": "MEMBER",
            "body": "Closing this now",
            "created_at": "2022-09-08T18:08:56Z",
            "html_url": "https://github.com/PrismarineJS/mineflayer-pathfinder/issues/283#issuecomment-1241058784",
            "id": 1241058784,
            "issue_url": "https://api.github.com/repos/PrismarineJS/mineflayer-pathfinder/issues/283",
            "node_id": "IC_kwDOD1iHmM5J-Q3g",
            "performed_via_github_app": null,
            "reactions": {
                "+1": 0,
                "-1": 0,
                "confused": 0,
                "eyes": 0,
                "heart": 0,
                "hooray": 0,
                "laugh": 0,
                "rocket": 0,
                "total_count": 0,
                "url": "https://api.github.com/repos/PrismarineJS/mineflayer-pathfinder/issues/comments/1241058784/reactions"
            },
            "updated_at": "2022-09-08T18:08:56Z",
            "url": "https://api.github.com/repos/PrismarineJS/mineflayer-pathfinder/issues/comments/1241058784",
            "user": {
                "avatar_url": "https://avatars.githubusercontent.com/u/61137113?v=4",
                "events_url": "https://api.github.com/users/IceTank/events{/privacy}",
                "followers_url": "https://api.github.com/users/IceTank/followers",
                "following_url": "https://api.github.com/users/IceTank/following{/other_user}",
                "gists_url": "https://api.github.com/users/IceTank/gists{/gist_id}",
                "gravatar_id": "",
                "html_url": "https://github.com/IceTank",
                "id": 61137113,
                "login": "IceTank",
                "node_id": "MDQ6VXNlcjYxMTM3MTEz",
                "organizations_url": "https://api.github.com/users/IceTank/orgs",
                "received_events_url": "https://api.github.com/users/IceTank/received_events",
                "repos_url": "https://api.github.com/users/IceTank/repos",
                "site_admin": false,
                "starred_url": "https://api.github.com/users/IceTank/starred{/owner}{/repo}",
                "subscriptions_url": "https://api.github.com/users/IceTank/subscriptions",
                "type": "User",
                "url": "https://api.github.com/users/IceTank"
            }
        }
    ],
    "comments": 3,
    "comments_url": "https://api.github.com/repos/PrismarineJS/mineflayer-pathfinder/issues/283/comments",
    "created_at": "2022-07-30T16:04:58Z",
    "event_data": [
        {
            "actor": {
                "avatar_url": "https://avatars.githubusercontent.com/u/61137113?v=4",
                "events_url": "https://api.github.com/users/IceTank/events{/privacy}",
                "followers_url": "https://api.github.com/users/IceTank/followers",
                "following_url": "https://api.github.com/users/IceTank/following{/other_user}",
                "gists_url": "https://api.github.com/users/IceTank/gists{/gist_id}",
                "gravatar_id": "",
                "html_url": "https://github.com/IceTank",
                "id": 61137113,
                "login": "IceTank",
                "node_id": "MDQ6VXNlcjYxMTM3MTEz",
                "organizations_url": "https://api.github.com/users/IceTank/orgs",
                "received_events_url": "https://api.github.com/users/IceTank/received_events",
                "repos_url": "https://api.github.com/users/IceTank/repos",
                "site_admin": false,
                "starred_url": "https://api.github.com/users/IceTank/starred{/owner}{/repo}",
                "subscriptions_url": "https://api.github.com/users/IceTank/subscriptions",
                "type": "User",
                "url": "https://api.github.com/users/IceTank"
            },
            "commit_id": null,
            "commit_url": null,
            "created_at": "2022-09-08T18:08:56Z",
            "event": "closed",
            "id": 7350251414,
            "node_id": "CE_lADOD1iHmM5O3lqzzwAAAAG2G--W",
            "performed_via_github_app": null,
            "state_reason": null,
            "url": "https://api.github.com/repos/PrismarineJS/mineflayer-pathfinder/issues/events/7350251414"
        }
    ],
    "events_url": "https://api.github.com/repos/PrismarineJS/mineflayer-pathfinder/issues/283/events",
    "html_url": "https://github.com/PrismarineJS/mineflayer-pathfinder/issues/283",
    "id": 1323195059,
    "labels": [],
    "labels_url": "https://api.github.com/repos/PrismarineJS/mineflayer-pathfinder/issues/283/labels{/name}",
    "locked": false,
    "milestone": null,
    "node_id": "I_kwDOD1iHmM5O3lqz",
    "number": 283,
    "performed_via_github_app": null,
    "reactions": {
        "+1": 0,
        "-1": 0,
        "confused": 0,
        "eyes": 0,
        "heart": 0,
        "hooray": 0,
        "laugh": 0,
        "rocket": 0,
        "total_count": 0,
        "url": "https://api.github.com/repos/PrismarineJS/mineflayer-pathfinder/issues/283/reactions"
    },
    "repository_url": "https://api.github.com/repos/PrismarineJS/mineflayer-pathfinder",
    "state": "closed",
    "state_reason": "completed",
    "timeline_url": "https://api.github.com/repos/PrismarineJS/mineflayer-pathfinder/issues/283/timeline",
    "title": "Bot cant jump into that structure for no reason. It stucks in the corner",
    "updated_at": "2022-09-08T18:08:57Z",
    "url": "https://api.github.com/repos/PrismarineJS/mineflayer-pathfinder/issues/283",
    "user": {
        "avatar_url": "https://avatars.githubusercontent.com/u/89208604?v=4",
        "events_url": "https://api.github.com/users/Grammf/events{/privacy}",
        "followers_url": "https://api.github.com/users/Grammf/followers",
        "following_url": "https://api.github.com/users/Grammf/following{/other_user}",
        "gists_url": "https://api.github.com/users/Grammf/gists{/gist_id}",
        "gravatar_id": "",
        "html_url": "https://github.com/Grammf",
        "id": 89208604,
        "login": "Grammf",
        "node_id": "MDQ6VXNlcjg5MjA4NjA0",
        "organizations_url": "https://api.github.com/users/Grammf/orgs",
        "received_events_url": "https://api.github.com/users/Grammf/received_events",
        "repos_url": "https://api.github.com/users/Grammf/repos",
        "site_admin": false,
        "starred_url": "https://api.github.com/users/Grammf/starred{/owner}{/repo}",
        "subscriptions_url": "https://api.github.com/users/Grammf/subscriptions",
        "type": "User",
        "url": "https://api.github.com/users/Grammf"
    }
}