{
    "active_lock_reason": null,
    "assignee": null,
    "assignees": [],
    "author_association": "NONE",
    "body": "I'm running into a pathfinding issue where the bot is getting stuck trying to follow a path out of a hole which requires walking forward and jumping once, then turning around and jumping again.\r\n- I've ensured I have anti-cheat turned off (this was previously causing other issues)\r\n- I've ensured it's actually possible to follow the path computed by pathfinder as a player character\r\n- From adding debug statements in pathfinder code, it looks like the pathfinding module is correctly setting the control states of the bot to `jump: true, forward: true` in the beginning. However, the bot is not actually moving. For this reason I've reposted this issue to the prismarine-physics repo (https://github.com/PrismarineJS/prismarine-physics/issues/115).\r\n\r\nScreenshot of the bad path (visualization on left, ingame on right):\r\n![image](https://github.com/PrismarineJS/mineflayer-pathfinder/assets/8591901/5f07ca59-d8a8-4bce-8982-0936593fd1b1)\r\n\r\nVideo of bot attempting to follow the path (it repeatedly resets path due to futility check. in the video it never gets unstuck, but occasionally i have seen it eventually get unstuck):\r\nhttps://drive.google.com/file/d/11bZj7sXIyTU4t1emwfZBx7uexVw9wtcv/view?usp=sharing\r\n\r\n### Repro:\r\n1. Download and unzip [world.zip](https://drive.google.com/file/d/1w7GZ3sivbZBWe-E0sHHefbdTC9Ajlubf/view?usp=sharing) into a dedicated server directory. \r\n2. Disable any server anti-cheat and start the server. \r\n3. Then create a bot and run the code:\r\n```\r\nbot.chat(\"/tp -2.3 61.029567977792745 7.606471465025178\");\r\nvar table = bot.findBlock({ matching: bot.registry.blocksByName.crafting_table.id, maxDistance: 128 })\r\nawait bot.pathfinder.goto(new pathfinder.goals.LookAtBlock(table.position, bot.world))\r\n```",
    "closed_at": null,
    "comment_data": [
        {
            "author_association": "MEMBER",
            "body": "I think this is an issue in prismarine-physics. I think in newer versions the player collision in prismarine-physics is to small. This causes the bot to phase into blocks from the view of the server. And if that happens the server resets the players position to prevent him from phasing into blocks. Some people had success by increasing the player hitbox in the X and Z direction.",
            "created_at": "2024-07-08T08:09:08Z",
            "html_url": "https://github.com/PrismarineJS/mineflayer-pathfinder/issues/339#issuecomment-2213313834",
            "id": 2213313834,
            "issue_url": "https://api.github.com/repos/PrismarineJS/mineflayer-pathfinder/issues/339",
            "node_id": "IC_kwDOD1iHmM6D7H0q",
            "performed_via_github_app": null,
            "reactions": {
                "+1": 0,
                "-1": 0,
                "confused": 0,
                "eyes": 0,
                "heart": 0,
                "hooray": 0,
                "laugh": 0,
                "rocket": 0,
                "total_count": 0,
                "url": "https://api.github.com/repos/PrismarineJS/mineflayer-pathfinder/issues/comments/2213313834/reactions"
            },
            "updated_at": "2024-07-08T08:09:08Z",
            "url": "https://api.github.com/repos/PrismarineJS/mineflayer-pathfinder/issues/comments/2213313834",
            "user": {
                "avatar_url": "https://avatars.githubusercontent.com/u/61137113?v=4",
                "events_url": "https://api.github.com/users/IceTank/events{/privacy}",
                "followers_url": "https://api.github.com/users/IceTank/followers",
                "following_url": "https://api.github.com/users/IceTank/following{/other_user}",
                "gists_url": "https://api.github.com/users/IceTank/gists{/gist_id}",
                "gravatar_id": "",
                "html_url": "https://github.com/IceTank",
                "id": 61137113,
                "login": "IceTank",
                "node_id": "MDQ6VXNlcjYxMTM3MTEz",
                "organizations_url": "https://api.github.com/users/IceTank/orgs",
                "received_events_url": "https://api.github.com/users/IceTank/received_events",
                "repos_url": "https://api.github.com/users/IceTank/repos",
                "site_admin": false,
                "starred_url": "https://api.github.com/users/IceTank/starred{/owner}{/repo}",
                "subscriptions_url": "https://api.github.com/users/IceTank/subscriptions",
                "type": "User",
                "url": "https://api.github.com/users/IceTank"
            }
        },
        {
            "author_association": "MEMBER",
            "body": "Current prismarine-physics code is a port of the 1.8 Minecraft physics system. And I think sometime between 1.12 to 1.16 it broke.",
            "created_at": "2024-07-08T08:09:52Z",
            "html_url": "https://github.com/PrismarineJS/mineflayer-pathfinder/issues/339#issuecomment-2213315328",
            "id": 2213315328,
            "issue_url": "https://api.github.com/repos/PrismarineJS/mineflayer-pathfinder/issues/339",
            "node_id": "IC_kwDOD1iHmM6D7IMA",
            "performed_via_github_app": null,
            "reactions": {
                "+1": 0,
                "-1": 0,
                "confused": 0,
                "eyes": 0,
                "heart": 0,
                "hooray": 0,
                "laugh": 0,
                "rocket": 0,
                "total_count": 0,
                "url": "https://api.github.com/repos/PrismarineJS/mineflayer-pathfinder/issues/comments/2213315328/reactions"
            },
            "updated_at": "2024-07-08T08:09:52Z",
            "url": "https://api.github.com/repos/PrismarineJS/mineflayer-pathfinder/issues/comments/2213315328",
            "user": {
                "avatar_url": "https://avatars.githubusercontent.com/u/61137113?v=4",
                "events_url": "https://api.github.com/users/IceTank/events{/privacy}",
                "followers_url": "https://api.github.com/users/IceTank/followers",
                "following_url": "https://api.github.com/users/IceTank/following{/other_user}",
                "gists_url": "https://api.github.com/users/IceTank/gists{/gist_id}",
                "gravatar_id": "",
                "html_url": "https://github.com/IceTank",
                "id": 61137113,
                "login": "IceTank",
                "node_id": "MDQ6VXNlcjYxMTM3MTEz",
                "organizations_url": "https://api.github.com/users/IceTank/orgs",
                "received_events_url": "https://api.github.com/users/IceTank/received_events",
                "repos_url": "https://api.github.com/users/IceTank/repos",
                "site_admin": false,
                "starred_url": "https://api.github.com/users/IceTank/starred{/owner}{/repo}",
                "subscriptions_url": "https://api.github.com/users/IceTank/subscriptions",
                "type": "User",
                "url": "https://api.github.com/users/IceTank"
            }
        },
        {
            "author_association": "NONE",
            "body": "Thanks, that's helpful. I have downgraded to 1.16 and it actually seems to work better (I was not able to test on the above case - seems I attached a corrupt world).\r\n\r\nIs prismarine-physics abandoned?",
            "created_at": "2024-07-14T00:14:05Z",
            "html_url": "https://github.com/PrismarineJS/mineflayer-pathfinder/issues/339#issuecomment-2227145506",
            "id": 2227145506,
            "issue_url": "https://api.github.com/repos/PrismarineJS/mineflayer-pathfinder/issues/339",
            "node_id": "IC_kwDOD1iHmM6Ev4si",
            "performed_via_github_app": null,
            "reactions": {
                "+1": 0,
                "-1": 0,
                "confused": 0,
                "eyes": 0,
                "heart": 0,
                "hooray": 0,
                "laugh": 0,
                "rocket": 0,
                "total_count": 0,
                "url": "https://api.github.com/repos/PrismarineJS/mineflayer-pathfinder/issues/comments/2227145506/reactions"
            },
            "updated_at": "2024-07-14T00:14:05Z",
            "url": "https://api.github.com/repos/PrismarineJS/mineflayer-pathfinder/issues/comments/2227145506",
            "user": {
                "avatar_url": "https://avatars.githubusercontent.com/u/8591901?v=4",
                "events_url": "https://api.github.com/users/andrewkchan/events{/privacy}",
                "followers_url": "https://api.github.com/users/andrewkchan/followers",
                "following_url": "https://api.github.com/users/andrewkchan/following{/other_user}",
                "gists_url": "https://api.github.com/users/andrewkchan/gists{/gist_id}",
                "gravatar_id": "",
                "html_url": "https://github.com/andrewkchan",
                "id": 8591901,
                "login": "andrewkchan",
                "node_id": "MDQ6VXNlcjg1OTE5MDE=",
                "organizations_url": "https://api.github.com/users/andrewkchan/orgs",
                "received_events_url": "https://api.github.com/users/andrewkchan/received_events",
                "repos_url": "https://api.github.com/users/andrewkchan/repos",
                "site_admin": false,
                "starred_url": "https://api.github.com/users/andrewkchan/starred{/owner}{/repo}",
                "subscriptions_url": "https://api.github.com/users/andrewkchan/subscriptions",
                "type": "User",
                "url": "https://api.github.com/users/andrewkchan"
            }
        }
    ],
    "comments": 3,
    "comments_url": "https://api.github.com/repos/PrismarineJS/mineflayer-pathfinder/issues/339/comments",
    "created_at": "2024-07-05T18:05:04Z",
    "event_data": [],
    "events_url": "https://api.github.com/repos/PrismarineJS/mineflayer-pathfinder/issues/339/events",
    "html_url": "https://github.com/PrismarineJS/mineflayer-pathfinder/issues/339",
    "id": 2392975171,
    "labels": [],
    "labels_url": "https://api.github.com/repos/PrismarineJS/mineflayer-pathfinder/issues/339/labels{/name}",
    "locked": false,
    "milestone": null,
    "node_id": "I_kwDOD1iHmM6OoedD",
    "number": 339,
    "performed_via_github_app": null,
    "reactions": {
        "+1": 0,
        "-1": 0,
        "confused": 0,
        "eyes": 0,
        "heart": 0,
        "hooray": 0,
        "laugh": 0,
        "rocket": 0,
        "total_count": 0,
        "url": "https://api.github.com/repos/PrismarineJS/mineflayer-pathfinder/issues/339/reactions"
    },
    "repository_url": "https://api.github.com/repos/PrismarineJS/mineflayer-pathfinder",
    "state": "open",
    "state_reason": null,
    "timeline_url": "https://api.github.com/repos/PrismarineJS/mineflayer-pathfinder/issues/339/timeline",
    "title": "Bot fails to follow simple path requiring a forward walk + jump",
    "updated_at": "2024-07-14T00:14:06Z",
    "url": "https://api.github.com/repos/PrismarineJS/mineflayer-pathfinder/issues/339",
    "user": {
        "avatar_url": "https://avatars.githubusercontent.com/u/8591901?v=4",
        "events_url": "https://api.github.com/users/andrewkchan/events{/privacy}",
        "followers_url": "https://api.github.com/users/andrewkchan/followers",
        "following_url": "https://api.github.com/users/andrewkchan/following{/other_user}",
        "gists_url": "https://api.github.com/users/andrewkchan/gists{/gist_id}",
        "gravatar_id": "",
        "html_url": "https://github.com/andrewkchan",
        "id": 8591901,
        "login": "andrewkchan",
        "node_id": "MDQ6VXNlcjg1OTE5MDE=",
        "organizations_url": "https://api.github.com/users/andrewkchan/orgs",
        "received_events_url": "https://api.github.com/users/andrewkchan/received_events",
        "repos_url": "https://api.github.com/users/andrewkchan/repos",
        "site_admin": false,
        "starred_url": "https://api.github.com/users/andrewkchan/starred{/owner}{/repo}",
        "subscriptions_url": "https://api.github.com/users/andrewkchan/subscriptions",
        "type": "User",
        "url": "https://api.github.com/users/andrewkchan"
    }
}