{
    "active_lock_reason": null,
    "assignee": null,
    "assignees": [],
    "author_association": "NONE",
    "body": "You can use movements.canDig = false",
    "closed_at": "2020-11-21T14:13:50Z",
    "comment_data": [],
    "comments": 0,
    "comments_url": "https://api.github.com/repos/PrismarineJS/mineflayer-pathfinder/issues/74/comments",
    "created_at": "2020-11-21T14:13:44Z",
    "event_data": [
        {
            "actor": {
                "avatar_url": "https://avatars.githubusercontent.com/u/73627481?v=4",
                "events_url": "https://api.github.com/users/qqqZXzz123/events{/privacy}",
                "followers_url": "https://api.github.com/users/qqqZXzz123/followers",
                "following_url": "https://api.github.com/users/qqqZXzz123/following{/other_user}",
                "gists_url": "https://api.github.com/users/qqqZXzz123/gists{/gist_id}",
                "gravatar_id": "",
                "html_url": "https://github.com/qqqZXzz123",
                "id": 73627481,
                "login": "qqqZXzz123",
                "node_id": "MDQ6VXNlcjczNjI3NDgx",
                "organizations_url": "https://api.github.com/users/qqqZXzz123/orgs",
                "received_events_url": "https://api.github.com/users/qqqZXzz123/received_events",
                "repos_url": "https://api.github.com/users/qqqZXzz123/repos",
                "site_admin": false,
                "starred_url": "https://api.github.com/users/qqqZXzz123/starred{/owner}{/repo}",
                "subscriptions_url": "https://api.github.com/users/qqqZXzz123/subscriptions",
                "type": "User",
                "url": "https://api.github.com/users/qqqZXzz123"
            },
            "commit_id": null,
            "commit_url": null,
            "created_at": "2020-11-21T14:13:50Z",
            "event": "closed",
            "id": 4023886100,
            "node_id": "MDExOkNsb3NlZEV2ZW50NDAyMzg4NjEwMA==",
            "performed_via_github_app": null,
            "state_reason": null,
            "url": "https://api.github.com/repos/PrismarineJS/mineflayer-pathfinder/issues/events/4023886100"
        }
    ],
    "events_url": "https://api.github.com/repos/PrismarineJS/mineflayer-pathfinder/issues/74/events",
    "html_url": "https://github.com/PrismarineJS/mineflayer-pathfinder/issues/74",
    "id": 748027715,
    "labels": [],
    "labels_url": "https://api.github.com/repos/PrismarineJS/mineflayer-pathfinder/issues/74/labels{/name}",
    "locked": false,
    "milestone": null,
    "node_id": "MDU6SXNzdWU3NDgwMjc3MTU=",
    "number": 74,
    "performed_via_github_app": null,
    "reactions": {
        "+1": 0,
        "-1": 0,
        "confused": 0,
        "eyes": 0,
        "heart": 0,
        "hooray": 0,
        "laugh": 0,
        "rocket": 0,
        "total_count": 0,
        "url": "https://api.github.com/repos/PrismarineJS/mineflayer-pathfinder/issues/74/reactions"
    },
    "repository_url": "https://api.github.com/repos/PrismarineJS/mineflayer-pathfinder",
    "state": "closed",
    "state_reason": "completed",
    "timeline_url": "https://api.github.com/repos/PrismarineJS/mineflayer-pathfinder/issues/74/timeline",
    "title": "how to disable breaking the pathfinder blocks?",
    "updated_at": "2020-11-21T14:13:50Z",
    "url": "https://api.github.com/repos/PrismarineJS/mineflayer-pathfinder/issues/74",
    "user": {
        "avatar_url": "https://avatars.githubusercontent.com/u/73627481?v=4",
        "events_url": "https://api.github.com/users/qqqZXzz123/events{/privacy}",
        "followers_url": "https://api.github.com/users/qqqZXzz123/followers",
        "following_url": "https://api.github.com/users/qqqZXzz123/following{/other_user}",
        "gists_url": "https://api.github.com/users/qqqZXzz123/gists{/gist_id}",
        "gravatar_id": "",
        "html_url": "https://github.com/qqqZXzz123",
        "id": 73627481,
        "login": "qqqZXzz123",
        "node_id": "MDQ6VXNlcjczNjI3NDgx",
        "organizations_url": "https://api.github.com/users/qqqZXzz123/orgs",
        "received_events_url": "https://api.github.com/users/qqqZXzz123/received_events",
        "repos_url": "https://api.github.com/users/qqqZXzz123/repos",
        "site_admin": false,
        "starred_url": "https://api.github.com/users/qqqZXzz123/starred{/owner}{/repo}",
        "subscriptions_url": "https://api.github.com/users/qqqZXzz123/subscriptions",
        "type": "User",
        "url": "https://api.github.com/users/qqqZXzz123"
    }
}