{
    "active_lock_reason": null,
    "assignee": null,
    "assignees": [],
    "author_association": "NONE",
    "body": "My bot sometimes throws the error\r\n```\r\n[11:30:54] [AUTORECONNECT] Moving to area\r\nD:\\prg\\FlayBot_v0.8.9\\node_modules\\mineflayer-pathfinder\\lib\\movements.js:81\r\n        height: pos.y + dy\r\n                    ^\r\n\r\nTypeError: Cannot read property 'y' of undefined\r\n    at Movements.getBlock (D:\\prg\\FlayBot_v0.8.9\\node_modules\\mineflayer-pathfinder\\lib\\movements.js:81:21)\r\n    at Movements.safeToBreak (D:\\prg\\FlayBot_v0.8.9\\node_modules\\mineflayer-pathfinder\\lib\\movements.js:101:16)\r\n    at Movements.safeOrBreak (D:\\prg\\FlayBot_v0.8.9\\node_modules\\mineflayer-pathfinder\\lib\\movements.js:113:15)\r\n    at Movements.getMoveDiagonal (D:\\prg\\FlayBot_v0.8.9\\node_modules\\mineflayer-pathfinder\\lib\\movements.js:204:18)\r\n    at Movements.getNeighbors (D:\\prg\\FlayBot_v0.8.9\\node_modules\\mineflayer-pathfinder\\lib\\movements.js:350:12)\r\n    at AStar.compute (D:\\prg\\FlayBot_v0.8.9\\node_modules\\mineflayer-pathfinder\\lib\\astar.js:76:40)\r\n    at Object.bot.pathfinder.getPathTo (D:\\prg\\FlayBot_v0.8.9\\node_modules\\mineflayer-pathfinder\\index.js:39:84)\r\n    at Bot.monitorMovement (D:\\prg\\FlayBot_v0.8.9\\node_modules\\mineflayer-pathfinder\\index.js:210:26)\r\n    at Bot.emit (events.js:326:22)\r\n    at Timeout.doPhysics [as _onTimeout] (D:\\prg\\FlayBot_v0.8.9\\node_modules\\mineflayer\\lib\\plugins\\physics.js:62:13)\r\nDrücken Sie eine beliebige Taste . . . \r\n```\r\n\r\n(Almost) all i have is:\r\n```js\r\nlogger.autoreconnect(\"Moving to area\");\r\nvar botOptions = {\r\n    host: this.server,\r\n    port: this.port == null ? \"25565\" : this.port,\r\n    username: this.username,\r\n    password: this.password,\r\n    version: this.version == null ? \"1.8.8\" : this.version\r\n}\r\n\r\nvar bot = mineflayer.createBot(botOptions);\r\nbot.loadPlugin(pathfinder);\r\nconst mcData = require('minecraft-data')(bot.version);\r\nvar defaultMove = new Movements(bot, mcData);\r\ndefaultMove.blocksToAvoid.add(mcData.blocksByName.iron_trapdoor.id);\r\npathfinder(bot)\r\nbot.pathfinder.setMovements(defaultMove);\r\n\r\nbot.once('spawn', () => {\r\n    bot.pathfinder.setGoal(new GoalNear(317, 116, 305, 1))\r\n});\r\n```\r\n\r\nUsually, this works, but sometimes, seemingly random, the bot crashes and throws the error shown above.\r\nWhat am i doing wrong?",
    "closed_at": "2020-12-07T13:20:18Z",
    "comment_data": [
        {
            "author_association": "MEMBER",
            "body": "You need to update the package. This bug was fixed.",
            "created_at": "2020-12-07T13:20:18Z",
            "html_url": "https://github.com/PrismarineJS/mineflayer-pathfinder/issues/83#issuecomment-739913997",
            "id": 739913997,
            "issue_url": "https://api.github.com/repos/PrismarineJS/mineflayer-pathfinder/issues/83",
            "node_id": "MDEyOklzc3VlQ29tbWVudDczOTkxMzk5Nw==",
            "performed_via_github_app": null,
            "reactions": {
                "+1": 0,
                "-1": 0,
                "confused": 0,
                "eyes": 0,
                "heart": 0,
                "hooray": 0,
                "laugh": 0,
                "rocket": 0,
                "total_count": 0,
                "url": "https://api.github.com/repos/PrismarineJS/mineflayer-pathfinder/issues/comments/739913997/reactions"
            },
            "updated_at": "2020-12-07T13:20:18Z",
            "url": "https://api.github.com/repos/PrismarineJS/mineflayer-pathfinder/issues/comments/739913997",
            "user": {
                "avatar_url": "https://avatars.githubusercontent.com/u/1977472?v=4",
                "events_url": "https://api.github.com/users/Karang/events{/privacy}",
                "followers_url": "https://api.github.com/users/Karang/followers",
                "following_url": "https://api.github.com/users/Karang/following{/other_user}",
                "gists_url": "https://api.github.com/users/Karang/gists{/gist_id}",
                "gravatar_id": "",
                "html_url": "https://github.com/Karang",
                "id": 1977472,
                "login": "Karang",
                "node_id": "MDQ6VXNlcjE5Nzc0NzI=",
                "organizations_url": "https://api.github.com/users/Karang/orgs",
                "received_events_url": "https://api.github.com/users/Karang/received_events",
                "repos_url": "https://api.github.com/users/Karang/repos",
                "site_admin": false,
                "starred_url": "https://api.github.com/users/Karang/starred{/owner}{/repo}",
                "subscriptions_url": "https://api.github.com/users/Karang/subscriptions",
                "type": "User",
                "url": "https://api.github.com/users/Karang"
            }
        }
    ],
    "comments": 1,
    "comments_url": "https://api.github.com/repos/PrismarineJS/mineflayer-pathfinder/issues/83/comments",
    "created_at": "2020-12-07T12:21:14Z",
    "event_data": [
        {
            "actor": {
                "avatar_url": "https://avatars.githubusercontent.com/u/1977472?v=4",
                "events_url": "https://api.github.com/users/Karang/events{/privacy}",
                "followers_url": "https://api.github.com/users/Karang/followers",
                "following_url": "https://api.github.com/users/Karang/following{/other_user}",
                "gists_url": "https://api.github.com/users/Karang/gists{/gist_id}",
                "gravatar_id": "",
                "html_url": "https://github.com/Karang",
                "id": 1977472,
                "login": "Karang",
                "node_id": "MDQ6VXNlcjE5Nzc0NzI=",
                "organizations_url": "https://api.github.com/users/Karang/orgs",
                "received_events_url": "https://api.github.com/users/Karang/received_events",
                "repos_url": "https://api.github.com/users/Karang/repos",
                "site_admin": false,
                "starred_url": "https://api.github.com/users/Karang/starred{/owner}{/repo}",
                "subscriptions_url": "https://api.github.com/users/Karang/subscriptions",
                "type": "User",
                "url": "https://api.github.com/users/Karang"
            },
            "commit_id": null,
            "commit_url": null,
            "created_at": "2020-12-07T13:20:18Z",
            "event": "closed",
            "id": 4079594267,
            "node_id": "MDExOkNsb3NlZEV2ZW50NDA3OTU5NDI2Nw==",
            "performed_via_github_app": null,
            "state_reason": null,
            "url": "https://api.github.com/repos/PrismarineJS/mineflayer-pathfinder/issues/events/4079594267"
        }
    ],
    "events_url": "https://api.github.com/repos/PrismarineJS/mineflayer-pathfinder/issues/83/events",
    "html_url": "https://github.com/PrismarineJS/mineflayer-pathfinder/issues/83",
    "id": 758460561,
    "labels": [],
    "labels_url": "https://api.github.com/repos/PrismarineJS/mineflayer-pathfinder/issues/83/labels{/name}",
    "locked": false,
    "milestone": null,
    "node_id": "MDU6SXNzdWU3NTg0NjA1NjE=",
    "number": 83,
    "performed_via_github_app": null,
    "reactions": {
        "+1": 0,
        "-1": 0,
        "confused": 0,
        "eyes": 0,
        "heart": 0,
        "hooray": 0,
        "laugh": 0,
        "rocket": 0,
        "total_count": 0,
        "url": "https://api.github.com/repos/PrismarineJS/mineflayer-pathfinder/issues/83/reactions"
    },
    "repository_url": "https://api.github.com/repos/PrismarineJS/mineflayer-pathfinder",
    "state": "closed",
    "state_reason": "completed",
    "timeline_url": "https://api.github.com/repos/PrismarineJS/mineflayer-pathfinder/issues/83/timeline",
    "title": "Seemingly random crashes \"Cannot read property 'y' of undefined\"",
    "updated_at": "2020-12-07T13:20:18Z",
    "url": "https://api.github.com/repos/PrismarineJS/mineflayer-pathfinder/issues/83",
    "user": {
        "avatar_url": "https://avatars.githubusercontent.com/u/62625188?v=4",
        "events_url": "https://api.github.com/users/L3g7/events{/privacy}",
        "followers_url": "https://api.github.com/users/L3g7/followers",
        "following_url": "https://api.github.com/users/L3g7/following{/other_user}",
        "gists_url": "https://api.github.com/users/L3g7/gists{/gist_id}",
        "gravatar_id": "",
        "html_url": "https://github.com/L3g7",
        "id": 62625188,
        "login": "L3g7",
        "node_id": "MDQ6VXNlcjYyNjI1MTg4",
        "organizations_url": "https://api.github.com/users/L3g7/orgs",
        "received_events_url": "https://api.github.com/users/L3g7/received_events",
        "repos_url": "https://api.github.com/users/L3g7/repos",
        "site_admin": false,
        "starred_url": "https://api.github.com/users/L3g7/starred{/owner}{/repo}",
        "subscriptions_url": "https://api.github.com/users/L3g7/subscriptions",
        "type": "User",
        "url": "https://api.github.com/users/L3g7"
    }
}