{
    "_links": {
        "comments": {
            "href": "https://api.github.com/repos/PrismarineJS/minecraft-chunk-dumper/issues/18/comments"
        },
        "commits": {
            "href": "https://api.github.com/repos/PrismarineJS/minecraft-chunk-dumper/pulls/18/commits"
        },
        "html": {
            "href": "https://github.com/PrismarineJS/minecraft-chunk-dumper/pull/18"
        },
        "issue": {
            "href": "https://api.github.com/repos/PrismarineJS/minecraft-chunk-dumper/issues/18"
        },
        "review_comment": {
            "href": "https://api.github.com/repos/PrismarineJS/minecraft-chunk-dumper/pulls/comments{/number}"
        },
        "review_comments": {
            "href": "https://api.github.com/repos/PrismarineJS/minecraft-chunk-dumper/pulls/18/comments"
        },
        "self": {
            "href": "https://api.github.com/repos/PrismarineJS/minecraft-chunk-dumper/pulls/18"
        },
        "statuses": {
            "href": "https://api.github.com/repos/PrismarineJS/minecraft-chunk-dumper/statuses/66ebebd6acc00b7032b2ea94ffa07f771b1abd3f"
        }
    },
    "active_lock_reason": null,
    "additions": 2,
    "assignee": null,
    "assignees": [],
    "author_association": "MEMBER",
    "auto_merge": null,
    "base": {
        "label": "PrismarineJS:master",
        "ref": "master",
        "repo": {
            "allow_forking": true,
            "archive_url": "https://api.github.com/repos/PrismarineJS/minecraft-chunk-dumper/{archive_format}{/ref}",
            "archived": false,
            "assignees_url": "https://api.github.com/repos/PrismarineJS/minecraft-chunk-dumper/assignees{/user}",
            "blobs_url": "https://api.github.com/repos/PrismarineJS/minecraft-chunk-dumper/git/blobs{/sha}",
            "branches_url": "https://api.github.com/repos/PrismarineJS/minecraft-chunk-dumper/branches{/branch}",
            "clone_url": "https://github.com/PrismarineJS/minecraft-chunk-dumper.git",
            "collaborators_url": "https://api.github.com/repos/PrismarineJS/minecraft-chunk-dumper/collaborators{/collaborator}",
            "comments_url": "https://api.github.com/repos/PrismarineJS/minecraft-chunk-dumper/comments{/number}",
            "commits_url": "https://api.github.com/repos/PrismarineJS/minecraft-chunk-dumper/commits{/sha}",
            "compare_url": "https://api.github.com/repos/PrismarineJS/minecraft-chunk-dumper/compare/{base}...{head}",
            "contents_url": "https://api.github.com/repos/PrismarineJS/minecraft-chunk-dumper/contents/{+path}",
            "contributors_url": "https://api.github.com/repos/PrismarineJS/minecraft-chunk-dumper/contributors",
            "created_at": "2018-10-02T19:42:13Z",
            "default_branch": "master",
            "deployments_url": "https://api.github.com/repos/PrismarineJS/minecraft-chunk-dumper/deployments",
            "description": "Dumps chunks for any minecraft version",
            "disabled": false,
            "downloads_url": "https://api.github.com/repos/PrismarineJS/minecraft-chunk-dumper/downloads",
            "events_url": "https://api.github.com/repos/PrismarineJS/minecraft-chunk-dumper/events",
            "fork": false,
            "forks": 6,
            "forks_count": 6,
            "forks_url": "https://api.github.com/repos/PrismarineJS/minecraft-chunk-dumper/forks",
            "full_name": "PrismarineJS/minecraft-chunk-dumper",
            "git_commits_url": "https://api.github.com/repos/PrismarineJS/minecraft-chunk-dumper/git/commits{/sha}",
            "git_refs_url": "https://api.github.com/repos/PrismarineJS/minecraft-chunk-dumper/git/refs{/sha}",
            "git_tags_url": "https://api.github.com/repos/PrismarineJS/minecraft-chunk-dumper/git/tags{/sha}",
            "git_url": "git://github.com/PrismarineJS/minecraft-chunk-dumper.git",
            "has_discussions": false,
            "has_downloads": true,
            "has_issues": true,
            "has_pages": false,
            "has_projects": true,
            "has_wiki": true,
            "homepage": null,
            "hooks_url": "https://api.github.com/repos/PrismarineJS/minecraft-chunk-dumper/hooks",
            "html_url": "https://github.com/PrismarineJS/minecraft-chunk-dumper",
            "id": 151313012,
            "is_template": false,
            "issue_comment_url": "https://api.github.com/repos/PrismarineJS/minecraft-chunk-dumper/issues/comments{/number}",
            "issue_events_url": "https://api.github.com/repos/PrismarineJS/minecraft-chunk-dumper/issues/events{/number}",
            "issues_url": "https://api.github.com/repos/PrismarineJS/minecraft-chunk-dumper/issues{/number}",
            "keys_url": "https://api.github.com/repos/PrismarineJS/minecraft-chunk-dumper/keys{/key_id}",
            "labels_url": "https://api.github.com/repos/PrismarineJS/minecraft-chunk-dumper/labels{/name}",
            "language": "JavaScript",
            "languages_url": "https://api.github.com/repos/PrismarineJS/minecraft-chunk-dumper/languages",
            "license": null,
            "merges_url": "https://api.github.com/repos/PrismarineJS/minecraft-chunk-dumper/merges",
            "milestones_url": "https://api.github.com/repos/PrismarineJS/minecraft-chunk-dumper/milestones{/number}",
            "mirror_url": null,
            "name": "minecraft-chunk-dumper",
            "node_id": "MDEwOlJlcG9zaXRvcnkxNTEzMTMwMTI=",
            "notifications_url": "https://api.github.com/repos/PrismarineJS/minecraft-chunk-dumper/notifications{?since,all,participating}",
            "open_issues": 2,
            "open_issues_count": 2,
            "owner": {
                "avatar_url": "https://avatars.githubusercontent.com/u/11053411?v=4",
                "events_url": "https://api.github.com/users/PrismarineJS/events{/privacy}",
                "followers_url": "https://api.github.com/users/PrismarineJS/followers",
                "following_url": "https://api.github.com/users/PrismarineJS/following{/other_user}",
                "gists_url": "https://api.github.com/users/PrismarineJS/gists{/gist_id}",
                "gravatar_id": "",
                "html_url": "https://github.com/PrismarineJS",
                "id": 11053411,
                "login": "PrismarineJS",
                "node_id": "MDEyOk9yZ2FuaXphdGlvbjExMDUzNDEx",
                "organizations_url": "https://api.github.com/users/PrismarineJS/orgs",
                "received_events_url": "https://api.github.com/users/PrismarineJS/received_events",
                "repos_url": "https://api.github.com/users/PrismarineJS/repos",
                "site_admin": false,
                "starred_url": "https://api.github.com/users/PrismarineJS/starred{/owner}{/repo}",
                "subscriptions_url": "https://api.github.com/users/PrismarineJS/subscriptions",
                "type": "Organization",
                "url": "https://api.github.com/users/PrismarineJS"
            },
            "private": false,
            "pulls_url": "https://api.github.com/repos/PrismarineJS/minecraft-chunk-dumper/pulls{/number}",
            "pushed_at": "2022-05-14T22:31:56Z",
            "releases_url": "https://api.github.com/repos/PrismarineJS/minecraft-chunk-dumper/releases{/id}",
            "size": 46,
            "ssh_url": "git@github.com:PrismarineJS/minecraft-chunk-dumper.git",
            "stargazers_count": 9,
            "stargazers_url": "https://api.github.com/repos/PrismarineJS/minecraft-chunk-dumper/stargazers",
            "statuses_url": "https://api.github.com/repos/PrismarineJS/minecraft-chunk-dumper/statuses/{sha}",
            "subscribers_url": "https://api.github.com/repos/PrismarineJS/minecraft-chunk-dumper/subscribers",
            "subscription_url": "https://api.github.com/repos/PrismarineJS/minecraft-chunk-dumper/subscription",
            "svn_url": "https://github.com/PrismarineJS/minecraft-chunk-dumper",
            "tags_url": "https://api.github.com/repos/PrismarineJS/minecraft-chunk-dumper/tags",
            "teams_url": "https://api.github.com/repos/PrismarineJS/minecraft-chunk-dumper/teams",
            "topics": [],
            "trees_url": "https://api.github.com/repos/PrismarineJS/minecraft-chunk-dumper/git/trees{/sha}",
            "updated_at": "2023-03-12T00:27:56Z",
            "url": "https://api.github.com/repos/PrismarineJS/minecraft-chunk-dumper",
            "visibility": "public",
            "watchers": 9,
            "watchers_count": 9,
            "web_commit_signoff_required": false
        },
        "sha": "6b96a257609df82e35bc9dceeeab503f92bc2e65",
        "user": {
            "avatar_url": "https://avatars.githubusercontent.com/u/11053411?v=4",
            "events_url": "https://api.github.com/users/PrismarineJS/events{/privacy}",
            "followers_url": "https://api.github.com/users/PrismarineJS/followers",
            "following_url": "https://api.github.com/users/PrismarineJS/following{/other_user}",
            "gists_url": "https://api.github.com/users/PrismarineJS/gists{/gist_id}",
            "gravatar_id": "",
            "html_url": "https://github.com/PrismarineJS",
            "id": 11053411,
            "login": "PrismarineJS",
            "node_id": "MDEyOk9yZ2FuaXphdGlvbjExMDUzNDEx",
            "organizations_url": "https://api.github.com/users/PrismarineJS/orgs",
            "received_events_url": "https://api.github.com/users/PrismarineJS/received_events",
            "repos_url": "https://api.github.com/users/PrismarineJS/repos",
            "site_admin": false,
            "starred_url": "https://api.github.com/users/PrismarineJS/starred{/owner}{/repo}",
            "subscriptions_url": "https://api.github.com/users/PrismarineJS/subscriptions",
            "type": "Organization",
            "url": "https://api.github.com/users/PrismarineJS"
        }
    },
    "body": "",
    "changed_files": 1,
    "closed_at": "2021-03-13T23:38:02Z",
    "comment_data": [],
    "comment_regular_data": [
        {
            "author_association": "MEMBER",
            "body": "done",
            "created_at": "2021-03-13T23:38:02Z",
            "html_url": "https://github.com/PrismarineJS/minecraft-chunk-dumper/pull/18#issuecomment-798802469",
            "id": 798802469,
            "issue_url": "https://api.github.com/repos/PrismarineJS/minecraft-chunk-dumper/issues/18",
            "node_id": "MDEyOklzc3VlQ29tbWVudDc5ODgwMjQ2OQ==",
            "performed_via_github_app": null,
            "reactions": {
                "+1": 0,
                "-1": 0,
                "confused": 0,
                "eyes": 0,
                "heart": 0,
                "hooray": 0,
                "laugh": 0,
                "rocket": 0,
                "total_count": 0,
                "url": "https://api.github.com/repos/PrismarineJS/minecraft-chunk-dumper/issues/comments/798802469/reactions"
            },
            "updated_at": "2021-03-13T23:38:02Z",
            "url": "https://api.github.com/repos/PrismarineJS/minecraft-chunk-dumper/issues/comments/798802469",
            "user": {
                "avatar_url": "https://avatars.githubusercontent.com/u/2346494?v=4",
                "events_url": "https://api.github.com/users/rom1504/events{/privacy}",
                "followers_url": "https://api.github.com/users/rom1504/followers",
                "following_url": "https://api.github.com/users/rom1504/following{/other_user}",
                "gists_url": "https://api.github.com/users/rom1504/gists{/gist_id}",
                "gravatar_id": "",
                "html_url": "https://github.com/rom1504",
                "id": 2346494,
                "login": "rom1504",
                "node_id": "MDQ6VXNlcjIzNDY0OTQ=",
                "organizations_url": "https://api.github.com/users/rom1504/orgs",
                "received_events_url": "https://api.github.com/users/rom1504/received_events",
                "repos_url": "https://api.github.com/users/rom1504/repos",
                "site_admin": false,
                "starred_url": "https://api.github.com/users/rom1504/starred{/owner}{/repo}",
                "subscriptions_url": "https://api.github.com/users/rom1504/subscriptions",
                "type": "User",
                "url": "https://api.github.com/users/rom1504"
            }
        }
    ],
    "comments": 1,
    "comments_url": "https://api.github.com/repos/PrismarineJS/minecraft-chunk-dumper/issues/18/comments",
    "commit_data": [
        {
            "author": {
                "avatar_url": "https://avatars.githubusercontent.com/u/43508353?v=4",
                "events_url": "https://api.github.com/users/u9g/events{/privacy}",
                "followers_url": "https://api.github.com/users/u9g/followers",
                "following_url": "https://api.github.com/users/u9g/following{/other_user}",
                "gists_url": "https://api.github.com/users/u9g/gists{/gist_id}",
                "gravatar_id": "",
                "html_url": "https://github.com/u9g",
                "id": 43508353,
                "login": "u9g",
                "node_id": "MDQ6VXNlcjQzNTA4MzUz",
                "organizations_url": "https://api.github.com/users/u9g/orgs",
                "received_events_url": "https://api.github.com/users/u9g/received_events",
                "repos_url": "https://api.github.com/users/u9g/repos",
                "site_admin": false,
                "starred_url": "https://api.github.com/users/u9g/starred{/owner}{/repo}",
                "subscriptions_url": "https://api.github.com/users/u9g/subscriptions",
                "type": "User",
                "url": "https://api.github.com/users/u9g"
            },
            "comments_url": "https://api.github.com/repos/PrismarineJS/minecraft-chunk-dumper/commits/66ebebd6acc00b7032b2ea94ffa07f771b1abd3f/comments",
            "commit": {
                "author": {
                    "date": "2021-03-13T07:29:01Z",
                    "email": "43508353+u9g@users.noreply.github.com",
                    "name": "u9g"
                },
                "comment_count": 0,
                "committer": {
                    "date": "2021-03-13T07:29:01Z",
                    "email": "noreply@github.com",
                    "name": "GitHub"
                },
                "message": "update node version so tests don't fail",
                "tree": {
                    "sha": "beb18d3dc54f80402d17a45b68897cfbd92cdf0c",
                    "url": "https://api.github.com/repos/PrismarineJS/minecraft-chunk-dumper/git/trees/beb18d3dc54f80402d17a45b68897cfbd92cdf0c"
                },
                "url": "https://api.github.com/repos/PrismarineJS/minecraft-chunk-dumper/git/commits/66ebebd6acc00b7032b2ea94ffa07f771b1abd3f",
                "verification": {
                    "payload": "tree beb18d3dc54f80402d17a45b68897cfbd92cdf0c\nparent 6b96a257609df82e35bc9dceeeab503f92bc2e65\nauthor u9g <43508353+u9g@users.noreply.github.com> 1615620541 -0500\ncommitter GitHub <noreply@github.com> 1615620541 -0500\n\nupdate node version so tests don't fail",
                    "reason": "valid",
                    "signature": "-----BEGIN PGP SIGNATURE-----\n\nwsBcBAABCAAQBQJgTGm9CRBK7hj4Ov3rIwAAdHIIAAeo4BooxHtYtYFQeEBRP1VR\njEL0ZkrP+7puCZr4Uwrs3amOnUGPP+sYC/UnI2t8heN4I2D7pqhL73pFBRcga86+\najWvYhsHRwRv8Zp7DR/YsuknXbIG6ek03TQ+YKMAYvD/NsW+b6IOt/dDoTocIbv3\nIR+cwsk/OjZmLuECNwckWJcrqzLNQIowDwKSt8I37d8D0bdZ5Rh3WG/vF8GwYyjc\nt1v0HE1ndLk9HgZlUlYdwjDfWO8tONzMpGMbIG6XzTgEcSdyWObYfaPMB/o8NgCw\nmGmgvB0Ou0neSLxj/DmXaY7T6VCD1vCgyPZTHDPrSMJr21SSy+30/JyRGtk8hWQ=\n=2tJC\n-----END PGP SIGNATURE-----\n",
                    "verified": true
                }
            },
            "committer": {
                "avatar_url": "https://avatars.githubusercontent.com/u/19864447?v=4",
                "events_url": "https://api.github.com/users/web-flow/events{/privacy}",
                "followers_url": "https://api.github.com/users/web-flow/followers",
                "following_url": "https://api.github.com/users/web-flow/following{/other_user}",
                "gists_url": "https://api.github.com/users/web-flow/gists{/gist_id}",
                "gravatar_id": "",
                "html_url": "https://github.com/web-flow",
                "id": 19864447,
                "login": "web-flow",
                "node_id": "MDQ6VXNlcjE5ODY0NDQ3",
                "organizations_url": "https://api.github.com/users/web-flow/orgs",
                "received_events_url": "https://api.github.com/users/web-flow/received_events",
                "repos_url": "https://api.github.com/users/web-flow/repos",
                "site_admin": false,
                "starred_url": "https://api.github.com/users/web-flow/starred{/owner}{/repo}",
                "subscriptions_url": "https://api.github.com/users/web-flow/subscriptions",
                "type": "User",
                "url": "https://api.github.com/users/web-flow"
            },
            "html_url": "https://github.com/PrismarineJS/minecraft-chunk-dumper/commit/66ebebd6acc00b7032b2ea94ffa07f771b1abd3f",
            "node_id": "MDY6Q29tbWl0MzQ3MzAxNzcwOjY2ZWJlYmQ2YWNjMDBiNzAzMmIyZWE5NGZmYTA3Zjc3MWIxYWJkM2Y=",
            "parents": [
                {
                    "html_url": "https://github.com/PrismarineJS/minecraft-chunk-dumper/commit/6b96a257609df82e35bc9dceeeab503f92bc2e65",
                    "sha": "6b96a257609df82e35bc9dceeeab503f92bc2e65",
                    "url": "https://api.github.com/repos/PrismarineJS/minecraft-chunk-dumper/commits/6b96a257609df82e35bc9dceeeab503f92bc2e65"
                }
            ],
            "sha": "66ebebd6acc00b7032b2ea94ffa07f771b1abd3f",
            "url": "https://api.github.com/repos/PrismarineJS/minecraft-chunk-dumper/commits/66ebebd6acc00b7032b2ea94ffa07f771b1abd3f"
        }
    ],
    "commits": 1,
    "commits_url": "https://api.github.com/repos/PrismarineJS/minecraft-chunk-dumper/pulls/18/commits",
    "created_at": "2021-03-13T07:29:05Z",
    "deletions": 2,
    "diff_url": "https://github.com/PrismarineJS/minecraft-chunk-dumper/pull/18.diff",
    "draft": false,
    "head": {
        "label": "u9g:patch-2",
        "ref": "patch-2",
        "repo": {
            "allow_forking": true,
            "archive_url": "https://api.github.com/repos/u9g/minecraft-chunk-dumper/{archive_format}{/ref}",
            "archived": false,
            "assignees_url": "https://api.github.com/repos/u9g/minecraft-chunk-dumper/assignees{/user}",
            "blobs_url": "https://api.github.com/repos/u9g/minecraft-chunk-dumper/git/blobs{/sha}",
            "branches_url": "https://api.github.com/repos/u9g/minecraft-chunk-dumper/branches{/branch}",
            "clone_url": "https://github.com/u9g/minecraft-chunk-dumper.git",
            "collaborators_url": "https://api.github.com/repos/u9g/minecraft-chunk-dumper/collaborators{/collaborator}",
            "comments_url": "https://api.github.com/repos/u9g/minecraft-chunk-dumper/comments{/number}",
            "commits_url": "https://api.github.com/repos/u9g/minecraft-chunk-dumper/commits{/sha}",
            "compare_url": "https://api.github.com/repos/u9g/minecraft-chunk-dumper/compare/{base}...{head}",
            "contents_url": "https://api.github.com/repos/u9g/minecraft-chunk-dumper/contents/{+path}",
            "contributors_url": "https://api.github.com/repos/u9g/minecraft-chunk-dumper/contributors",
            "created_at": "2021-03-13T07:19:39Z",
            "default_branch": "master",
            "deployments_url": "https://api.github.com/repos/u9g/minecraft-chunk-dumper/deployments",
            "description": "Dumps chunks for any minecraft version",
            "disabled": false,
            "downloads_url": "https://api.github.com/repos/u9g/minecraft-chunk-dumper/downloads",
            "events_url": "https://api.github.com/repos/u9g/minecraft-chunk-dumper/events",
            "fork": true,
            "forks": 0,
            "forks_count": 0,
            "forks_url": "https://api.github.com/repos/u9g/minecraft-chunk-dumper/forks",
            "full_name": "u9g/minecraft-chunk-dumper",
            "git_commits_url": "https://api.github.com/repos/u9g/minecraft-chunk-dumper/git/commits{/sha}",
            "git_refs_url": "https://api.github.com/repos/u9g/minecraft-chunk-dumper/git/refs{/sha}",
            "git_tags_url": "https://api.github.com/repos/u9g/minecraft-chunk-dumper/git/tags{/sha}",
            "git_url": "git://github.com/u9g/minecraft-chunk-dumper.git",
            "has_discussions": false,
            "has_downloads": true,
            "has_issues": false,
            "has_pages": false,
            "has_projects": true,
            "has_wiki": true,
            "homepage": null,
            "hooks_url": "https://api.github.com/repos/u9g/minecraft-chunk-dumper/hooks",
            "html_url": "https://github.com/u9g/minecraft-chunk-dumper",
            "id": 347301770,
            "is_template": false,
            "issue_comment_url": "https://api.github.com/repos/u9g/minecraft-chunk-dumper/issues/comments{/number}",
            "issue_events_url": "https://api.github.com/repos/u9g/minecraft-chunk-dumper/issues/events{/number}",
            "issues_url": "https://api.github.com/repos/u9g/minecraft-chunk-dumper/issues{/number}",
            "keys_url": "https://api.github.com/repos/u9g/minecraft-chunk-dumper/keys{/key_id}",
            "labels_url": "https://api.github.com/repos/u9g/minecraft-chunk-dumper/labels{/name}",
            "language": "JavaScript",
            "languages_url": "https://api.github.com/repos/u9g/minecraft-chunk-dumper/languages",
            "license": null,
            "merges_url": "https://api.github.com/repos/u9g/minecraft-chunk-dumper/merges",
            "milestones_url": "https://api.github.com/repos/u9g/minecraft-chunk-dumper/milestones{/number}",
            "mirror_url": null,
            "name": "minecraft-chunk-dumper",
            "node_id": "MDEwOlJlcG9zaXRvcnkzNDczMDE3NzA=",
            "notifications_url": "https://api.github.com/repos/u9g/minecraft-chunk-dumper/notifications{?since,all,participating}",
            "open_issues": 0,
            "open_issues_count": 0,
            "owner": {
                "avatar_url": "https://avatars.githubusercontent.com/u/43508353?v=4",
                "events_url": "https://api.github.com/users/u9g/events{/privacy}",
                "followers_url": "https://api.github.com/users/u9g/followers",
                "following_url": "https://api.github.com/users/u9g/following{/other_user}",
                "gists_url": "https://api.github.com/users/u9g/gists{/gist_id}",
                "gravatar_id": "",
                "html_url": "https://github.com/u9g",
                "id": 43508353,
                "login": "u9g",
                "node_id": "MDQ6VXNlcjQzNTA4MzUz",
                "organizations_url": "https://api.github.com/users/u9g/orgs",
                "received_events_url": "https://api.github.com/users/u9g/received_events",
                "repos_url": "https://api.github.com/users/u9g/repos",
                "site_admin": false,
                "starred_url": "https://api.github.com/users/u9g/starred{/owner}{/repo}",
                "subscriptions_url": "https://api.github.com/users/u9g/subscriptions",
                "type": "User",
                "url": "https://api.github.com/users/u9g"
            },
            "private": false,
            "pulls_url": "https://api.github.com/repos/u9g/minecraft-chunk-dumper/pulls{/number}",
            "pushed_at": "2022-05-15T09:43:56Z",
            "releases_url": "https://api.github.com/repos/u9g/minecraft-chunk-dumper/releases{/id}",
            "size": 73,
            "ssh_url": "git@github.com:u9g/minecraft-chunk-dumper.git",
            "stargazers_count": 0,
            "stargazers_url": "https://api.github.com/repos/u9g/minecraft-chunk-dumper/stargazers",
            "statuses_url": "https://api.github.com/repos/u9g/minecraft-chunk-dumper/statuses/{sha}",
            "subscribers_url": "https://api.github.com/repos/u9g/minecraft-chunk-dumper/subscribers",
            "subscription_url": "https://api.github.com/repos/u9g/minecraft-chunk-dumper/subscription",
            "svn_url": "https://github.com/u9g/minecraft-chunk-dumper",
            "tags_url": "https://api.github.com/repos/u9g/minecraft-chunk-dumper/tags",
            "teams_url": "https://api.github.com/repos/u9g/minecraft-chunk-dumper/teams",
            "topics": [],
            "trees_url": "https://api.github.com/repos/u9g/minecraft-chunk-dumper/git/trees{/sha}",
            "updated_at": "2022-03-24T08:49:13Z",
            "url": "https://api.github.com/repos/u9g/minecraft-chunk-dumper",
            "visibility": "public",
            "watchers": 0,
            "watchers_count": 0,
            "web_commit_signoff_required": false
        },
        "sha": "66ebebd6acc00b7032b2ea94ffa07f771b1abd3f",
        "user": {
            "avatar_url": "https://avatars.githubusercontent.com/u/43508353?v=4",
            "events_url": "https://api.github.com/users/u9g/events{/privacy}",
            "followers_url": "https://api.github.com/users/u9g/followers",
            "following_url": "https://api.github.com/users/u9g/following{/other_user}",
            "gists_url": "https://api.github.com/users/u9g/gists{/gist_id}",
            "gravatar_id": "",
            "html_url": "https://github.com/u9g",
            "id": 43508353,
            "login": "u9g",
            "node_id": "MDQ6VXNlcjQzNTA4MzUz",
            "organizations_url": "https://api.github.com/users/u9g/orgs",
            "received_events_url": "https://api.github.com/users/u9g/received_events",
            "repos_url": "https://api.github.com/users/u9g/repos",
            "site_admin": false,
            "starred_url": "https://api.github.com/users/u9g/starred{/owner}{/repo}",
            "subscriptions_url": "https://api.github.com/users/u9g/subscriptions",
            "type": "User",
            "url": "https://api.github.com/users/u9g"
        }
    },
    "html_url": "https://github.com/PrismarineJS/minecraft-chunk-dumper/pull/18",
    "id": 592312938,
    "issue_url": "https://api.github.com/repos/PrismarineJS/minecraft-chunk-dumper/issues/18",
    "labels": [],
    "locked": false,
    "maintainer_can_modify": false,
    "merge_commit_sha": "d5f2f7fbb5d5ff1036d1bb7b612c9b5d3d111b79",
    "mergeable": null,
    "mergeable_state": "unknown",
    "merged": false,
    "merged_at": null,
    "merged_by": null,
    "milestone": null,
    "node_id": "MDExOlB1bGxSZXF1ZXN0NTkyMzEyOTM4",
    "number": 18,
    "patch_url": "https://github.com/PrismarineJS/minecraft-chunk-dumper/pull/18.patch",
    "rebaseable": null,
    "requested_reviewers": [],
    "requested_teams": [],
    "review_comment_url": "https://api.github.com/repos/PrismarineJS/minecraft-chunk-dumper/pulls/comments{/number}",
    "review_comments": 0,
    "review_comments_url": "https://api.github.com/repos/PrismarineJS/minecraft-chunk-dumper/pulls/18/comments",
    "state": "closed",
    "statuses_url": "https://api.github.com/repos/PrismarineJS/minecraft-chunk-dumper/statuses/66ebebd6acc00b7032b2ea94ffa07f771b1abd3f",
    "title": "update node version so tests don't fail",
    "updated_at": "2021-03-13T23:38:02Z",
    "url": "https://api.github.com/repos/PrismarineJS/minecraft-chunk-dumper/pulls/18",
    "user": {
        "avatar_url": "https://avatars.githubusercontent.com/u/43508353?v=4",
        "events_url": "https://api.github.com/users/u9g/events{/privacy}",
        "followers_url": "https://api.github.com/users/u9g/followers",
        "following_url": "https://api.github.com/users/u9g/following{/other_user}",
        "gists_url": "https://api.github.com/users/u9g/gists{/gist_id}",
        "gravatar_id": "",
        "html_url": "https://github.com/u9g",
        "id": 43508353,
        "login": "u9g",
        "node_id": "MDQ6VXNlcjQzNTA4MzUz",
        "organizations_url": "https://api.github.com/users/u9g/orgs",
        "received_events_url": "https://api.github.com/users/u9g/received_events",
        "repos_url": "https://api.github.com/users/u9g/repos",
        "site_admin": false,
        "starred_url": "https://api.github.com/users/u9g/starred{/owner}{/repo}",
        "subscriptions_url": "https://api.github.com/users/u9g/subscriptions",
        "type": "User",
        "url": "https://api.github.com/users/u9g"
    }
}