{
    "_links": {
        "comments": {
            "href": "https://api.github.com/repos/PrismarineJS/prismarine-chunk/issues/124/comments"
        },
        "commits": {
            "href": "https://api.github.com/repos/PrismarineJS/prismarine-chunk/pulls/124/commits"
        },
        "html": {
            "href": "https://github.com/PrismarineJS/prismarine-chunk/pull/124"
        },
        "issue": {
            "href": "https://api.github.com/repos/PrismarineJS/prismarine-chunk/issues/124"
        },
        "review_comment": {
            "href": "https://api.github.com/repos/PrismarineJS/prismarine-chunk/pulls/comments{/number}"
        },
        "review_comments": {
            "href": "https://api.github.com/repos/PrismarineJS/prismarine-chunk/pulls/124/comments"
        },
        "self": {
            "href": "https://api.github.com/repos/PrismarineJS/prismarine-chunk/pulls/124"
        },
        "statuses": {
            "href": "https://api.github.com/repos/PrismarineJS/prismarine-chunk/statuses/bad56a21cafd2e76d4034f4f1bd3a5a239de0c9e"
        }
    },
    "active_lock_reason": null,
    "additions": 1,
    "assignee": null,
    "assignees": [],
    "author_association": "CONTRIBUTOR",
    "auto_merge": null,
    "base": {
        "label": "PrismarineJS:master",
        "ref": "master",
        "repo": {
            "allow_forking": true,
            "archive_url": "https://api.github.com/repos/PrismarineJS/prismarine-chunk/{archive_format}{/ref}",
            "archived": false,
            "assignees_url": "https://api.github.com/repos/PrismarineJS/prismarine-chunk/assignees{/user}",
            "blobs_url": "https://api.github.com/repos/PrismarineJS/prismarine-chunk/git/blobs{/sha}",
            "branches_url": "https://api.github.com/repos/PrismarineJS/prismarine-chunk/branches{/branch}",
            "clone_url": "https://github.com/PrismarineJS/prismarine-chunk.git",
            "collaborators_url": "https://api.github.com/repos/PrismarineJS/prismarine-chunk/collaborators{/collaborator}",
            "comments_url": "https://api.github.com/repos/PrismarineJS/prismarine-chunk/comments{/number}",
            "commits_url": "https://api.github.com/repos/PrismarineJS/prismarine-chunk/commits{/sha}",
            "compare_url": "https://api.github.com/repos/PrismarineJS/prismarine-chunk/compare/{base}...{head}",
            "contents_url": "https://api.github.com/repos/PrismarineJS/prismarine-chunk/contents/{+path}",
            "contributors_url": "https://api.github.com/repos/PrismarineJS/prismarine-chunk/contributors",
            "created_at": "2015-03-03T19:28:14Z",
            "default_branch": "master",
            "deployments_url": "https://api.github.com/repos/PrismarineJS/prismarine-chunk/deployments",
            "description": "A class to hold chunk data for Minecraft",
            "disabled": false,
            "downloads_url": "https://api.github.com/repos/PrismarineJS/prismarine-chunk/downloads",
            "events_url": "https://api.github.com/repos/PrismarineJS/prismarine-chunk/events",
            "fork": false,
            "forks": 47,
            "forks_count": 47,
            "forks_url": "https://api.github.com/repos/PrismarineJS/prismarine-chunk/forks",
            "full_name": "PrismarineJS/prismarine-chunk",
            "git_commits_url": "https://api.github.com/repos/PrismarineJS/prismarine-chunk/git/commits{/sha}",
            "git_refs_url": "https://api.github.com/repos/PrismarineJS/prismarine-chunk/git/refs{/sha}",
            "git_tags_url": "https://api.github.com/repos/PrismarineJS/prismarine-chunk/git/tags{/sha}",
            "git_url": "git://github.com/PrismarineJS/prismarine-chunk.git",
            "has_discussions": false,
            "has_downloads": true,
            "has_issues": true,
            "has_pages": false,
            "has_projects": true,
            "has_wiki": true,
            "homepage": "",
            "hooks_url": "https://api.github.com/repos/PrismarineJS/prismarine-chunk/hooks",
            "html_url": "https://github.com/PrismarineJS/prismarine-chunk",
            "id": 31616891,
            "is_template": false,
            "issue_comment_url": "https://api.github.com/repos/PrismarineJS/prismarine-chunk/issues/comments{/number}",
            "issue_events_url": "https://api.github.com/repos/PrismarineJS/prismarine-chunk/issues/events{/number}",
            "issues_url": "https://api.github.com/repos/PrismarineJS/prismarine-chunk/issues{/number}",
            "keys_url": "https://api.github.com/repos/PrismarineJS/prismarine-chunk/keys{/key_id}",
            "labels_url": "https://api.github.com/repos/PrismarineJS/prismarine-chunk/labels{/name}",
            "language": "JavaScript",
            "languages_url": "https://api.github.com/repos/PrismarineJS/prismarine-chunk/languages",
            "license": {
                "key": "mit",
                "name": "MIT License",
                "node_id": "MDc6TGljZW5zZTEz",
                "spdx_id": "MIT",
                "url": "https://api.github.com/licenses/mit"
            },
            "merges_url": "https://api.github.com/repos/PrismarineJS/prismarine-chunk/merges",
            "milestones_url": "https://api.github.com/repos/PrismarineJS/prismarine-chunk/milestones{/number}",
            "mirror_url": null,
            "name": "prismarine-chunk",
            "node_id": "MDEwOlJlcG9zaXRvcnkzMTYxNjg5MQ==",
            "notifications_url": "https://api.github.com/repos/PrismarineJS/prismarine-chunk/notifications{?since,all,participating}",
            "open_issues": 14,
            "open_issues_count": 14,
            "owner": {
                "avatar_url": "https://avatars.githubusercontent.com/u/11053411?v=4",
                "events_url": "https://api.github.com/users/PrismarineJS/events{/privacy}",
                "followers_url": "https://api.github.com/users/PrismarineJS/followers",
                "following_url": "https://api.github.com/users/PrismarineJS/following{/other_user}",
                "gists_url": "https://api.github.com/users/PrismarineJS/gists{/gist_id}",
                "gravatar_id": "",
                "html_url": "https://github.com/PrismarineJS",
                "id": 11053411,
                "login": "PrismarineJS",
                "node_id": "MDEyOk9yZ2FuaXphdGlvbjExMDUzNDEx",
                "organizations_url": "https://api.github.com/users/PrismarineJS/orgs",
                "received_events_url": "https://api.github.com/users/PrismarineJS/received_events",
                "repos_url": "https://api.github.com/users/PrismarineJS/repos",
                "site_admin": false,
                "starred_url": "https://api.github.com/users/PrismarineJS/starred{/owner}{/repo}",
                "subscriptions_url": "https://api.github.com/users/PrismarineJS/subscriptions",
                "type": "Organization",
                "url": "https://api.github.com/users/PrismarineJS"
            },
            "private": false,
            "pulls_url": "https://api.github.com/repos/PrismarineJS/prismarine-chunk/pulls{/number}",
            "pushed_at": "2023-04-10T14:10:02Z",
            "releases_url": "https://api.github.com/repos/PrismarineJS/prismarine-chunk/releases{/id}",
            "size": 5254,
            "ssh_url": "git@github.com:PrismarineJS/prismarine-chunk.git",
            "stargazers_count": 57,
            "stargazers_url": "https://api.github.com/repos/PrismarineJS/prismarine-chunk/stargazers",
            "statuses_url": "https://api.github.com/repos/PrismarineJS/prismarine-chunk/statuses/{sha}",
            "subscribers_url": "https://api.github.com/repos/PrismarineJS/prismarine-chunk/subscribers",
            "subscription_url": "https://api.github.com/repos/PrismarineJS/prismarine-chunk/subscription",
            "svn_url": "https://github.com/PrismarineJS/prismarine-chunk",
            "tags_url": "https://api.github.com/repos/PrismarineJS/prismarine-chunk/tags",
            "teams_url": "https://api.github.com/repos/PrismarineJS/prismarine-chunk/teams",
            "topics": [],
            "trees_url": "https://api.github.com/repos/PrismarineJS/prismarine-chunk/git/trees{/sha}",
            "updated_at": "2023-03-10T11:34:57Z",
            "url": "https://api.github.com/repos/PrismarineJS/prismarine-chunk",
            "visibility": "public",
            "watchers": 57,
            "watchers_count": 57,
            "web_commit_signoff_required": false
        },
        "sha": "6a84e82949e892f582dfeba1847a2b2b67ffb381",
        "user": {
            "avatar_url": "https://avatars.githubusercontent.com/u/11053411?v=4",
            "events_url": "https://api.github.com/users/PrismarineJS/events{/privacy}",
            "followers_url": "https://api.github.com/users/PrismarineJS/followers",
            "following_url": "https://api.github.com/users/PrismarineJS/following{/other_user}",
            "gists_url": "https://api.github.com/users/PrismarineJS/gists{/gist_id}",
            "gravatar_id": "",
            "html_url": "https://github.com/PrismarineJS",
            "id": 11053411,
            "login": "PrismarineJS",
            "node_id": "MDEyOk9yZ2FuaXphdGlvbjExMDUzNDEx",
            "organizations_url": "https://api.github.com/users/PrismarineJS/orgs",
            "received_events_url": "https://api.github.com/users/PrismarineJS/received_events",
            "repos_url": "https://api.github.com/users/PrismarineJS/repos",
            "site_admin": false,
            "starred_url": "https://api.github.com/users/PrismarineJS/starred{/owner}{/repo}",
            "subscriptions_url": "https://api.github.com/users/PrismarineJS/subscriptions",
            "type": "Organization",
            "url": "https://api.github.com/users/PrismarineJS"
        }
    },
    "body": "Bumps [jest](https://github.com/facebook/jest) from 26.6.3 to 27.0.4.\n<details>\n<summary>Release notes</summary>\n<p><em>Sourced from <a href=\"https://github.com/facebook/jest/releases\">jest's releases</a>.</em></p>\n<blockquote>\n<h2>27.0.4</h2>\n<h3>Fixes</h3>\n<ul>\n<li><code>[jest-config, jest-resolve]</code> Pass in <code>require.resolve</code> to resolvers to resolve from correct base (<a href=\"https://github-redirect.dependabot.com/facebook/jest/pull/11493\">#11493</a>)</li>\n</ul>\n<h2>27.0.3</h2>\n<h3>Fixes</h3>\n<ul>\n<li><code>[jest-config]</code> <code>require.resolve</code> on default test sequencer and test environment (<a href=\"https://github-redirect.dependabot.com/facebook/jest/pull/11482\">#11482</a>)</li>\n<li><code>[jest-mock]</code> Fixed <code>fn</code> and <code>spyOn</code> exports (<a href=\"https://github-redirect.dependabot.com/facebook/jest/pull/11480\">#11480</a>)</li>\n</ul>\n<h2>27.0.2</h2>\n<h3>Features</h3>\n<ul>\n<li><code>[jest-circus]</code> Add some APIs to make it easier to build your own test runner</li>\n<li><code>[jest-reporters]</code> Expose the <code>getResultHeader</code> util (<a href=\"https://github-redirect.dependabot.com/facebook/jest/pull/11460\">#11460</a>)</li>\n<li><code>[jest-resolver]</code> Export <code>resolve*</code> utils for different Jest modules (<a href=\"https://github-redirect.dependabot.com/facebook/jest/pull/11466\">#11466</a>)</li>\n<li><code>[@jest/test-result]</code> Export <code>Test</code>, <code>TestEvents</code> and <code>TestFileEvent</code> (<a href=\"https://github-redirect.dependabot.com/facebook/jest/pull/11466\">#11466</a>)</li>\n</ul>\n<h3>Fixes</h3>\n<ul>\n<li><code>[jest-circus]</code> Add missing <code>slash</code> dependency (<a href=\"https://github-redirect.dependabot.com/facebook/jest/pull/11465\">#11465</a>)</li>\n<li><code>[jest-circus, @jest/test-sequencer]</code> Remove dependency on <code>jest-runner</code> (<a href=\"https://github-redirect.dependabot.com/facebook/jest/pull/11466\">#11466</a>)</li>\n<li><code>[jest-config]</code> Resolve <code>config.runner</code> to absolute path (<a href=\"https://github-redirect.dependabot.com/facebook/jest/pull/11465\">#11465</a>)</li>\n<li><code>[jest-config]</code> Make sure to support functions as config (<a href=\"https://github-redirect.dependabot.com/facebook/jest/pull/11475\">#11475</a>)</li>\n<li><code>[jest-core]</code> Do not warn about <code>DNSCHANNEL</code> handles when using the <code>--detectOpenHandles</code> option (<a href=\"https://github-redirect.dependabot.com/facebook/jest/pull/11470\">#11470</a>)</li>\n<li><code>[jest-runner]</code> Remove dependency on <code>jest-config</code> (<a href=\"https://github-redirect.dependabot.com/facebook/jest/pull/11466\">#11466</a>)</li>\n<li><code>[jest-worker]</code> Loosen engine requirement to <code>&gt;= 10.13.0</code> (<a href=\"https://github-redirect.dependabot.com/facebook/jest/pull/11451\">#11451</a>)</li>\n</ul>\n<h2>27.0.1</h2>\n<h3>Fixes</h3>\n<ul>\n<li><code>[jest-environment-jsdom]</code> Bump version of JSDOM to avoid deprecated <code>request</code> package (<a href=\"https://github-redirect.dependabot.com/facebook/jest/pull/11442\">#11442</a>)</li>\n</ul>\n<h2>27.0.0</h2>\n<p><a href=\"https://jestjs.io/blog/2021/03/09/jest-website-upgrade\">Blog post</a></p>\n<h3>Features</h3>\n<ul>\n<li><code>[babel-jest]</code> Add async transformation (<a href=\"https://github-redirect.dependabot.com/facebook/jest/pull/11192\">#11192</a>)</li>\n<li><code>[jest-changed-files]</code> Use '--' to separate paths from revisions (<a href=\"https://github-redirect.dependabot.com/facebook/jest/pull/11160\">#11160</a>)</li>\n<li><code>[jest-circus]</code> [<strong>BREAKING</strong>] Fail tests when multiple <code>done()</code> calls are made (<a href=\"https://github-redirect.dependabot.com/facebook/jest/pull/10624\">#10624</a>)</li>\n<li><code>[jest-circus, jest-jasmine2]</code> [<strong>BREAKING</strong>] Fail the test instead of just warning when describe returns a value (<a href=\"https://github-redirect.dependabot.com/facebook/jest/pull/10947\">#10947</a>)</li>\n<li><code>[jest-config]</code> [<strong>BREAKING</strong>] Default to Node testing environment instead of browser (JSDOM) (<a href=\"https://github-redirect.dependabot.com/facebook/jest/pull/9874\">#9874</a>)</li>\n<li><code>[jest-config]</code> [<strong>BREAKING</strong>] Use <code>jest-circus</code> as default test runner (<a href=\"https://github-redirect.dependabot.com/facebook/jest/pull/10686\">#10686</a>)</li>\n<li><code>[jest-config]</code> Add support for <code>preset</code> written in ESM (<a href=\"https://github-redirect.dependabot.com/facebook/jest/pull/11200\">#11200</a>)</li>\n<li><code>[jest-config, jest-runtime]</code> Support ESM for files other than <code>.js</code> and <code>.mjs</code> (<a href=\"https://github-redirect.dependabot.com/facebook/jest/pull/10823\">#10823</a>)</li>\n<li><code>[jest-config, jest-runtime]</code> [<strong>BREAKING</strong>] Use &quot;modern&quot; implementation as default for fake timers (<a href=\"https://github-redirect.dependabot.com/facebook/jest/pull/10874\">#10874</a> &amp; <a href=\"https://github-redirect.dependabot.com/facebook/jest/pull/11197\">#11197</a>)</li>\n<li><code>[jest-config</code> Allow passing <code>forceNodeFilesystemAPI</code> through to <code>jest-haste-map</code> (<a href=\"https://github-redirect.dependabot.com/facebook/jest/pull/11264\">#11264</a>)</li>\n<li><code>[jest-config, jest-haste-map, jest-resolve, jest-runner, jest-runtime, jest-test-sequencer, jest-transform, jest-types]</code> [<strong>BREAKING</strong>] Add custom HasteMap class implementation config option (<a href=\"https://github-redirect.dependabot.com/facebook/jest/pull/11107\">#11107</a>)</li>\n</ul>\n<!-- raw HTML omitted -->\n</blockquote>\n<p>... (truncated)</p>\n</details>\n<details>\n<summary>Changelog</summary>\n<p><em>Sourced from <a href=\"https://github.com/facebook/jest/blob/master/CHANGELOG.md\">jest's changelog</a>.</em></p>\n<blockquote>\n<h2>27.0.4</h2>\n<h3>Fixes</h3>\n<ul>\n<li><code>[jest-config, jest-resolve]</code> Pass in <code>require.resolve</code> to resolvers to resolve from correct base (<a href=\"https://github-redirect.dependabot.com/facebook/jest/pull/11493\">#11493</a>)</li>\n</ul>\n<h2>27.0.3</h2>\n<h3>Fixes</h3>\n<ul>\n<li><code>[jest-config]</code> <code>require.resolve</code> on default test sequencer and test environment (<a href=\"https://github-redirect.dependabot.com/facebook/jest/pull/11482\">#11482</a>)</li>\n<li><code>[jest-mock]</code> Fixed <code>fn</code> and <code>spyOn</code> exports (<a href=\"https://github-redirect.dependabot.com/facebook/jest/pull/11480\">#11480</a>)</li>\n</ul>\n<h2>27.0.2</h2>\n<h3>Features</h3>\n<ul>\n<li><code>[jest-circus]</code> Add some APIs to make it easier to build your own test runner</li>\n<li><code>[jest-reporters]</code> Expose the <code>getResultHeader</code> util (<a href=\"https://github-redirect.dependabot.com/facebook/jest/pull/11460\">#11460</a>)</li>\n<li><code>[jest-resolver]</code> Export <code>resolve*</code> utils for different Jest modules (<a href=\"https://github-redirect.dependabot.com/facebook/jest/pull/11466\">#11466</a>)</li>\n<li><code>[@jest/test-result]</code> Export <code>Test</code>, <code>TestEvents</code> and <code>TestFileEvent</code> (<a href=\"https://github-redirect.dependabot.com/facebook/jest/pull/11466\">#11466</a>)</li>\n</ul>\n<h3>Fixes</h3>\n<ul>\n<li><code>[jest-circus]</code> Add missing <code>slash</code> dependency (<a href=\"https://github-redirect.dependabot.com/facebook/jest/pull/11465\">#11465</a>)</li>\n<li><code>[jest-circus, @jest/test-sequencer]</code> Remove dependency on <code>jest-runner</code> (<a href=\"https://github-redirect.dependabot.com/facebook/jest/pull/11466\">#11466</a>)</li>\n<li><code>[jest-config]</code> Resolve <code>config.runner</code> to absolute path (<a href=\"https://github-redirect.dependabot.com/facebook/jest/pull/11465\">#11465</a>)</li>\n<li><code>[jest-config]</code> Make sure to support functions as config (<a href=\"https://github-redirect.dependabot.com/facebook/jest/pull/11475\">#11475</a>)</li>\n<li><code>[jest-core]</code> Do not warn about <code>DNSCHANNEL</code> handles when using the <code>--detectOpenHandles</code> option (<a href=\"https://github-redirect.dependabot.com/facebook/jest/pull/11470\">#11470</a>)</li>\n<li><code>[jest-runner]</code> Remove dependency on <code>jest-config</code> (<a href=\"https://github-redirect.dependabot.com/facebook/jest/pull/11466\">#11466</a>)</li>\n<li><code>[jest-worker]</code> Loosen engine requirement to <code>&gt;= 10.13.0</code> (<a href=\"https://github-redirect.dependabot.com/facebook/jest/pull/11451\">#11451</a>)</li>\n</ul>\n<h2>27.0.1</h2>\n<h3>Fixes</h3>\n<ul>\n<li><code>[jest-environment-jsdom]</code> Bump version of JSDOM to avoid deprecated <code>request</code> package (<a href=\"https://github-redirect.dependabot.com/facebook/jest/pull/11442\">#11442</a>)</li>\n</ul>\n<h2>27.0.0</h2>\n<h3>Features</h3>\n<ul>\n<li><code>[babel-jest]</code> Add async transformation (<a href=\"https://github-redirect.dependabot.com/facebook/jest/pull/11192\">#11192</a>)</li>\n<li><code>[jest-changed-files]</code> Use '--' to separate paths from revisions (<a href=\"https://github-redirect.dependabot.com/facebook/jest/pull/11160\">#11160</a>)</li>\n<li><code>[jest-circus]</code> [<strong>BREAKING</strong>] Fail tests when multiple <code>done()</code> calls are made (<a href=\"https://github-redirect.dependabot.com/facebook/jest/pull/10624\">#10624</a>)</li>\n<li><code>[jest-circus, jest-jasmine2]</code> [<strong>BREAKING</strong>] Fail the test instead of just warning when describe returns a value (<a href=\"https://github-redirect.dependabot.com/facebook/jest/pull/10947\">#10947</a>)</li>\n<li><code>[jest-config]</code> [<strong>BREAKING</strong>] Default to Node testing environment instead of browser (JSDOM) (<a href=\"https://github-redirect.dependabot.com/facebook/jest/pull/9874\">#9874</a>)</li>\n<li><code>[jest-config]</code> [<strong>BREAKING</strong>] Use <code>jest-circus</code> as default test runner (<a href=\"https://github-redirect.dependabot.com/facebook/jest/pull/10686\">#10686</a>)</li>\n<li><code>[jest-config]</code> Add support for <code>preset</code> written in ESM (<a href=\"https://github-redirect.dependabot.com/facebook/jest/pull/11200\">#11200</a>)</li>\n<li><code>[jest-config, jest-runtime]</code> Support ESM for files other than <code>.js</code> and <code>.mjs</code> (<a href=\"https://github-redirect.dependabot.com/facebook/jest/pull/10823\">#10823</a>)</li>\n</ul>\n<!-- raw HTML omitted -->\n</blockquote>\n<p>... (truncated)</p>\n</details>\n<details>\n<summary>Commits</summary>\n<ul>\n<li><a href=\"https://github.com/facebook/jest/commit/b29acb355ae23ccdb2a6248fbbd933fc93f320b9\"><code>b29acb3</code></a> v27.0.4</li>\n<li><a href=\"https://github.com/facebook/jest/commit/5c4014736c6286f724ab8820063c1633267b50b1\"><code>5c40147</code></a> chore: bump jest-watch-typeahead</li>\n<li><a href=\"https://github.com/facebook/jest/commit/d6fb0d8fb0d43a17f90c7a5a6590257df2f2f6f5\"><code>d6fb0d8</code></a> fix: resolve bundled modules from correct location (<a href=\"https://github-redirect.dependabot.com/facebook/jest/issues/11493\">#11493</a>)</li>\n<li><a href=\"https://github.com/facebook/jest/commit/bba34bda3777b2a6e6d3a64402d55eabe004ea40\"><code>bba34bd</code></a> Update Architecture documentation. (<a href=\"https://github-redirect.dependabot.com/facebook/jest/issues/11508\">#11508</a>)</li>\n<li><a href=\"https://github.com/facebook/jest/commit/82d1a1a57b0b81b07e68d6d495d7fc7193a1333d\"><code>82d1a1a</code></a> chore: update lockfile after publish</li>\n<li><a href=\"https://github.com/facebook/jest/commit/d10f645b04ba9febb7308392e635c0351d0f027c\"><code>d10f645</code></a> v27.0.3</li>\n<li><a href=\"https://github.com/facebook/jest/commit/56a60c6e20dc6655ffbc39f2a1c28d16fd545f3a\"><code>56a60c6</code></a> fix: <code>require.resolve</code> on default test sequencer and test environment (<a href=\"https://github-redirect.dependabot.com/facebook/jest/issues/11482\">#11482</a>)</li>\n<li><a href=\"https://github.com/facebook/jest/commit/50d590a5cb7619cc4416a44212d5b6005edb7bcf\"><code>50d590a</code></a> fix: Fix <code>jest-mock</code> <code>fn</code> and <code>spyOn</code>. (<a href=\"https://github-redirect.dependabot.com/facebook/jest/issues/11480\">#11480</a>)</li>\n<li><a href=\"https://github.com/facebook/jest/commit/e9802d34192852bf67d9765a3e3fef4f0474ce57\"><code>e9802d3</code></a> chore: update lockfile after publish</li>\n<li><a href=\"https://github.com/facebook/jest/commit/7ca8a22b8453e95c63842ee6aa4d8d8d8b4f9612\"><code>7ca8a22</code></a> v27.0.2</li>\n<li>Additional commits viewable in <a href=\"https://github.com/facebook/jest/compare/v26.6.3...v27.0.4\">compare view</a></li>\n</ul>\n</details>\n<br />\n\n\n[![Dependabot compatibility score](https://dependabot-badges.githubapp.com/badges/compatibility_score?dependency-name=jest&package-manager=npm_and_yarn&previous-version=26.6.3&new-version=27.0.4)](https://docs.github.com/en/github/managing-security-vulnerabilities/about-dependabot-security-updates#about-compatibility-scores)\n\nDependabot will resolve any conflicts with this PR as long as you don't alter it yourself. You can also trigger a rebase manually by commenting `@dependabot rebase`.\n\n[//]: # (dependabot-automerge-start)\n[//]: # (dependabot-automerge-end)\n\n---\n\n<details>\n<summary>Dependabot commands and options</summary>\n<br />\n\nYou can trigger Dependabot actions by commenting on this PR:\n- `@dependabot rebase` will rebase this PR\n- `@dependabot recreate` will recreate this PR, overwriting any edits that have been made to it\n- `@dependabot merge` will merge this PR after your CI passes on it\n- `@dependabot squash and merge` will squash and merge this PR after your CI passes on it\n- `@dependabot cancel merge` will cancel a previously requested merge and block automerging\n- `@dependabot reopen` will reopen this PR if it is closed\n- `@dependabot close` will close this PR and stop Dependabot recreating it. You can achieve the same result by closing it manually\n- `@dependabot ignore this major version` will close this PR and stop Dependabot creating any more for this major version (unless you reopen the PR or upgrade to it yourself)\n- `@dependabot ignore this minor version` will close this PR and stop Dependabot creating any more for this minor version (unless you reopen the PR or upgrade to it yourself)\n- `@dependabot ignore this dependency` will close this PR and stop Dependabot creating any more for this dependency (unless you reopen the PR or upgrade to it yourself)\n\n\n</details>",
    "changed_files": 1,
    "closed_at": "2021-06-05T00:04:01Z",
    "comment_data": [],
    "comment_regular_data": [],
    "comments": 0,
    "comments_url": "https://api.github.com/repos/PrismarineJS/prismarine-chunk/issues/124/comments",
    "commit_data": [
        {
            "author": {
                "avatar_url": "https://avatars.githubusercontent.com/in/29110?v=4",
                "events_url": "https://api.github.com/users/dependabot%5Bbot%5D/events{/privacy}",
                "followers_url": "https://api.github.com/users/dependabot%5Bbot%5D/followers",
                "following_url": "https://api.github.com/users/dependabot%5Bbot%5D/following{/other_user}",
                "gists_url": "https://api.github.com/users/dependabot%5Bbot%5D/gists{/gist_id}",
                "gravatar_id": "",
                "html_url": "https://github.com/apps/dependabot",
                "id": 49699333,
                "login": "dependabot[bot]",
                "node_id": "MDM6Qm90NDk2OTkzMzM=",
                "organizations_url": "https://api.github.com/users/dependabot%5Bbot%5D/orgs",
                "received_events_url": "https://api.github.com/users/dependabot%5Bbot%5D/received_events",
                "repos_url": "https://api.github.com/users/dependabot%5Bbot%5D/repos",
                "site_admin": false,
                "starred_url": "https://api.github.com/users/dependabot%5Bbot%5D/starred{/owner}{/repo}",
                "subscriptions_url": "https://api.github.com/users/dependabot%5Bbot%5D/subscriptions",
                "type": "Bot",
                "url": "https://api.github.com/users/dependabot%5Bbot%5D"
            },
            "comments_url": "https://api.github.com/repos/PrismarineJS/prismarine-chunk/commits/bad56a21cafd2e76d4034f4f1bd3a5a239de0c9e/comments",
            "commit": {
                "author": {
                    "date": "2021-06-04T07:31:47Z",
                    "email": "49699333+dependabot[bot]@users.noreply.github.com",
                    "name": "dependabot[bot]"
                },
                "comment_count": 0,
                "committer": {
                    "date": "2021-06-04T07:31:47Z",
                    "email": "noreply@github.com",
                    "name": "GitHub"
                },
                "message": "Bump jest from 26.6.3 to 27.0.4\n\nBumps [jest](https://github.com/facebook/jest) from 26.6.3 to 27.0.4.\n- [Release notes](https://github.com/facebook/jest/releases)\n- [Changelog](https://github.com/facebook/jest/blob/master/CHANGELOG.md)\n- [Commits](https://github.com/facebook/jest/compare/v26.6.3...v27.0.4)\n\n---\nupdated-dependencies:\n- dependency-name: jest\n  dependency-type: direct:development\n  update-type: version-update:semver-major\n...\n\nSigned-off-by: dependabot[bot] <support@github.com>",
                "tree": {
                    "sha": "37b3f9da1675f50b340db3790e2346fe60fafc76",
                    "url": "https://api.github.com/repos/PrismarineJS/prismarine-chunk/git/trees/37b3f9da1675f50b340db3790e2346fe60fafc76"
                },
                "url": "https://api.github.com/repos/PrismarineJS/prismarine-chunk/git/commits/bad56a21cafd2e76d4034f4f1bd3a5a239de0c9e",
                "verification": {
                    "payload": "tree 37b3f9da1675f50b340db3790e2346fe60fafc76\nparent 6a84e82949e892f582dfeba1847a2b2b67ffb381\nauthor dependabot[bot] <49699333+dependabot[bot]@users.noreply.github.com> 1622791907 +0000\ncommitter GitHub <noreply@github.com> 1622791907 +0000\n\nBump jest from 26.6.3 to 27.0.4\n\nBumps [jest](https://github.com/facebook/jest) from 26.6.3 to 27.0.4.\n- [Release notes](https://github.com/facebook/jest/releases)\n- [Changelog](https://github.com/facebook/jest/blob/master/CHANGELOG.md)\n- [Commits](https://github.com/facebook/jest/compare/v26.6.3...v27.0.4)\n\n---\nupdated-dependencies:\n- dependency-name: jest\n  dependency-type: direct:development\n  update-type: version-update:semver-major\n...\n\nSigned-off-by: dependabot[bot] <support@github.com>",
                    "reason": "valid",
                    "signature": "-----BEGIN PGP SIGNATURE-----\n\nwsBcBAABCAAQBQJgudbjCRBK7hj4Ov3rIwAAopUIABc3YE58OlYDnUSFnhxytfj1\n+eJFC0wBga9IVYITwb4DDCPlFV94t4cik/Id2pa0lgqTudvs1sWXBigN2VXLoPFj\nRyNKTqz3A3ZK4ECSWgggsIXRSFltjSWOdoQwsG+D/Mdv6RzB62sX/A4hX8OsIFcM\ni2+QYLElRRrhGNjh5BUe2ue1R8zghQP71Dtq06Np6BN0jwWXcFyCCBFhQgjQV33Z\nj0srFbj4Fp+lwBgFnpcgKlkwKOdwViY7j/ztrA9rjR0BfnuomMMZiCR33+PeAXBV\nZSkgo26cUuE5xH1ql0SEigBxT/bCvhuuW2weMAbcs/VHJx/jVVg1PGZRSQa52ak=\n=WViK\n-----END PGP SIGNATURE-----\n",
                    "verified": true
                }
            },
            "committer": {
                "avatar_url": "https://avatars.githubusercontent.com/u/19864447?v=4",
                "events_url": "https://api.github.com/users/web-flow/events{/privacy}",
                "followers_url": "https://api.github.com/users/web-flow/followers",
                "following_url": "https://api.github.com/users/web-flow/following{/other_user}",
                "gists_url": "https://api.github.com/users/web-flow/gists{/gist_id}",
                "gravatar_id": "",
                "html_url": "https://github.com/web-flow",
                "id": 19864447,
                "login": "web-flow",
                "node_id": "MDQ6VXNlcjE5ODY0NDQ3",
                "organizations_url": "https://api.github.com/users/web-flow/orgs",
                "received_events_url": "https://api.github.com/users/web-flow/received_events",
                "repos_url": "https://api.github.com/users/web-flow/repos",
                "site_admin": false,
                "starred_url": "https://api.github.com/users/web-flow/starred{/owner}{/repo}",
                "subscriptions_url": "https://api.github.com/users/web-flow/subscriptions",
                "type": "User",
                "url": "https://api.github.com/users/web-flow"
            },
            "html_url": "https://github.com/PrismarineJS/prismarine-chunk/commit/bad56a21cafd2e76d4034f4f1bd3a5a239de0c9e",
            "node_id": "MDY6Q29tbWl0MzE2MTY4OTE6YmFkNTZhMjFjYWZkMmU3NmQ0MDM0ZjRmMWJkM2E1YTIzOWRlMGM5ZQ==",
            "parents": [
                {
                    "html_url": "https://github.com/PrismarineJS/prismarine-chunk/commit/6a84e82949e892f582dfeba1847a2b2b67ffb381",
                    "sha": "6a84e82949e892f582dfeba1847a2b2b67ffb381",
                    "url": "https://api.github.com/repos/PrismarineJS/prismarine-chunk/commits/6a84e82949e892f582dfeba1847a2b2b67ffb381"
                }
            ],
            "sha": "bad56a21cafd2e76d4034f4f1bd3a5a239de0c9e",
            "url": "https://api.github.com/repos/PrismarineJS/prismarine-chunk/commits/bad56a21cafd2e76d4034f4f1bd3a5a239de0c9e"
        }
    ],
    "commits": 1,
    "commits_url": "https://api.github.com/repos/PrismarineJS/prismarine-chunk/pulls/124/commits",
    "created_at": "2021-06-04T07:31:48Z",
    "deletions": 1,
    "diff_url": "https://github.com/PrismarineJS/prismarine-chunk/pull/124.diff",
    "draft": false,
    "head": {
        "label": "PrismarineJS:dependabot/npm_and_yarn/jest-27.0.4",
        "ref": "dependabot/npm_and_yarn/jest-27.0.4",
        "repo": {
            "allow_forking": true,
            "archive_url": "https://api.github.com/repos/PrismarineJS/prismarine-chunk/{archive_format}{/ref}",
            "archived": false,
            "assignees_url": "https://api.github.com/repos/PrismarineJS/prismarine-chunk/assignees{/user}",
            "blobs_url": "https://api.github.com/repos/PrismarineJS/prismarine-chunk/git/blobs{/sha}",
            "branches_url": "https://api.github.com/repos/PrismarineJS/prismarine-chunk/branches{/branch}",
            "clone_url": "https://github.com/PrismarineJS/prismarine-chunk.git",
            "collaborators_url": "https://api.github.com/repos/PrismarineJS/prismarine-chunk/collaborators{/collaborator}",
            "comments_url": "https://api.github.com/repos/PrismarineJS/prismarine-chunk/comments{/number}",
            "commits_url": "https://api.github.com/repos/PrismarineJS/prismarine-chunk/commits{/sha}",
            "compare_url": "https://api.github.com/repos/PrismarineJS/prismarine-chunk/compare/{base}...{head}",
            "contents_url": "https://api.github.com/repos/PrismarineJS/prismarine-chunk/contents/{+path}",
            "contributors_url": "https://api.github.com/repos/PrismarineJS/prismarine-chunk/contributors",
            "created_at": "2015-03-03T19:28:14Z",
            "default_branch": "master",
            "deployments_url": "https://api.github.com/repos/PrismarineJS/prismarine-chunk/deployments",
            "description": "A class to hold chunk data for Minecraft",
            "disabled": false,
            "downloads_url": "https://api.github.com/repos/PrismarineJS/prismarine-chunk/downloads",
            "events_url": "https://api.github.com/repos/PrismarineJS/prismarine-chunk/events",
            "fork": false,
            "forks": 47,
            "forks_count": 47,
            "forks_url": "https://api.github.com/repos/PrismarineJS/prismarine-chunk/forks",
            "full_name": "PrismarineJS/prismarine-chunk",
            "git_commits_url": "https://api.github.com/repos/PrismarineJS/prismarine-chunk/git/commits{/sha}",
            "git_refs_url": "https://api.github.com/repos/PrismarineJS/prismarine-chunk/git/refs{/sha}",
            "git_tags_url": "https://api.github.com/repos/PrismarineJS/prismarine-chunk/git/tags{/sha}",
            "git_url": "git://github.com/PrismarineJS/prismarine-chunk.git",
            "has_discussions": false,
            "has_downloads": true,
            "has_issues": true,
            "has_pages": false,
            "has_projects": true,
            "has_wiki": true,
            "homepage": "",
            "hooks_url": "https://api.github.com/repos/PrismarineJS/prismarine-chunk/hooks",
            "html_url": "https://github.com/PrismarineJS/prismarine-chunk",
            "id": 31616891,
            "is_template": false,
            "issue_comment_url": "https://api.github.com/repos/PrismarineJS/prismarine-chunk/issues/comments{/number}",
            "issue_events_url": "https://api.github.com/repos/PrismarineJS/prismarine-chunk/issues/events{/number}",
            "issues_url": "https://api.github.com/repos/PrismarineJS/prismarine-chunk/issues{/number}",
            "keys_url": "https://api.github.com/repos/PrismarineJS/prismarine-chunk/keys{/key_id}",
            "labels_url": "https://api.github.com/repos/PrismarineJS/prismarine-chunk/labels{/name}",
            "language": "JavaScript",
            "languages_url": "https://api.github.com/repos/PrismarineJS/prismarine-chunk/languages",
            "license": {
                "key": "mit",
                "name": "MIT License",
                "node_id": "MDc6TGljZW5zZTEz",
                "spdx_id": "MIT",
                "url": "https://api.github.com/licenses/mit"
            },
            "merges_url": "https://api.github.com/repos/PrismarineJS/prismarine-chunk/merges",
            "milestones_url": "https://api.github.com/repos/PrismarineJS/prismarine-chunk/milestones{/number}",
            "mirror_url": null,
            "name": "prismarine-chunk",
            "node_id": "MDEwOlJlcG9zaXRvcnkzMTYxNjg5MQ==",
            "notifications_url": "https://api.github.com/repos/PrismarineJS/prismarine-chunk/notifications{?since,all,participating}",
            "open_issues": 14,
            "open_issues_count": 14,
            "owner": {
                "avatar_url": "https://avatars.githubusercontent.com/u/11053411?v=4",
                "events_url": "https://api.github.com/users/PrismarineJS/events{/privacy}",
                "followers_url": "https://api.github.com/users/PrismarineJS/followers",
                "following_url": "https://api.github.com/users/PrismarineJS/following{/other_user}",
                "gists_url": "https://api.github.com/users/PrismarineJS/gists{/gist_id}",
                "gravatar_id": "",
                "html_url": "https://github.com/PrismarineJS",
                "id": 11053411,
                "login": "PrismarineJS",
                "node_id": "MDEyOk9yZ2FuaXphdGlvbjExMDUzNDEx",
                "organizations_url": "https://api.github.com/users/PrismarineJS/orgs",
                "received_events_url": "https://api.github.com/users/PrismarineJS/received_events",
                "repos_url": "https://api.github.com/users/PrismarineJS/repos",
                "site_admin": false,
                "starred_url": "https://api.github.com/users/PrismarineJS/starred{/owner}{/repo}",
                "subscriptions_url": "https://api.github.com/users/PrismarineJS/subscriptions",
                "type": "Organization",
                "url": "https://api.github.com/users/PrismarineJS"
            },
            "private": false,
            "pulls_url": "https://api.github.com/repos/PrismarineJS/prismarine-chunk/pulls{/number}",
            "pushed_at": "2023-04-10T14:10:02Z",
            "releases_url": "https://api.github.com/repos/PrismarineJS/prismarine-chunk/releases{/id}",
            "size": 5254,
            "ssh_url": "git@github.com:PrismarineJS/prismarine-chunk.git",
            "stargazers_count": 57,
            "stargazers_url": "https://api.github.com/repos/PrismarineJS/prismarine-chunk/stargazers",
            "statuses_url": "https://api.github.com/repos/PrismarineJS/prismarine-chunk/statuses/{sha}",
            "subscribers_url": "https://api.github.com/repos/PrismarineJS/prismarine-chunk/subscribers",
            "subscription_url": "https://api.github.com/repos/PrismarineJS/prismarine-chunk/subscription",
            "svn_url": "https://github.com/PrismarineJS/prismarine-chunk",
            "tags_url": "https://api.github.com/repos/PrismarineJS/prismarine-chunk/tags",
            "teams_url": "https://api.github.com/repos/PrismarineJS/prismarine-chunk/teams",
            "topics": [],
            "trees_url": "https://api.github.com/repos/PrismarineJS/prismarine-chunk/git/trees{/sha}",
            "updated_at": "2023-03-10T11:34:57Z",
            "url": "https://api.github.com/repos/PrismarineJS/prismarine-chunk",
            "visibility": "public",
            "watchers": 57,
            "watchers_count": 57,
            "web_commit_signoff_required": false
        },
        "sha": "bad56a21cafd2e76d4034f4f1bd3a5a239de0c9e",
        "user": {
            "avatar_url": "https://avatars.githubusercontent.com/u/11053411?v=4",
            "events_url": "https://api.github.com/users/PrismarineJS/events{/privacy}",
            "followers_url": "https://api.github.com/users/PrismarineJS/followers",
            "following_url": "https://api.github.com/users/PrismarineJS/following{/other_user}",
            "gists_url": "https://api.github.com/users/PrismarineJS/gists{/gist_id}",
            "gravatar_id": "",
            "html_url": "https://github.com/PrismarineJS",
            "id": 11053411,
            "login": "PrismarineJS",
            "node_id": "MDEyOk9yZ2FuaXphdGlvbjExMDUzNDEx",
            "organizations_url": "https://api.github.com/users/PrismarineJS/orgs",
            "received_events_url": "https://api.github.com/users/PrismarineJS/received_events",
            "repos_url": "https://api.github.com/users/PrismarineJS/repos",
            "site_admin": false,
            "starred_url": "https://api.github.com/users/PrismarineJS/starred{/owner}{/repo}",
            "subscriptions_url": "https://api.github.com/users/PrismarineJS/subscriptions",
            "type": "Organization",
            "url": "https://api.github.com/users/PrismarineJS"
        }
    },
    "html_url": "https://github.com/PrismarineJS/prismarine-chunk/pull/124",
    "id": 661523885,
    "issue_url": "https://api.github.com/repos/PrismarineJS/prismarine-chunk/issues/124",
    "labels": [
        {
            "color": "0366d6",
            "default": false,
            "description": "Pull requests that update a dependency file",
            "id": 2067071434,
            "name": "dependencies",
            "node_id": "MDU6TGFiZWwyMDY3MDcxNDM0",
            "url": "https://api.github.com/repos/PrismarineJS/prismarine-chunk/labels/dependencies"
        }
    ],
    "locked": false,
    "maintainer_can_modify": false,
    "merge_commit_sha": "704fce08d53043f06b9937c8d693ed91beed6ede",
    "mergeable": null,
    "mergeable_state": "unknown",
    "merged": true,
    "merged_at": "2021-06-05T00:04:01Z",
    "merged_by": {
        "avatar_url": "https://avatars.githubusercontent.com/u/2346494?v=4",
        "events_url": "https://api.github.com/users/rom1504/events{/privacy}",
        "followers_url": "https://api.github.com/users/rom1504/followers",
        "following_url": "https://api.github.com/users/rom1504/following{/other_user}",
        "gists_url": "https://api.github.com/users/rom1504/gists{/gist_id}",
        "gravatar_id": "",
        "html_url": "https://github.com/rom1504",
        "id": 2346494,
        "login": "rom1504",
        "node_id": "MDQ6VXNlcjIzNDY0OTQ=",
        "organizations_url": "https://api.github.com/users/rom1504/orgs",
        "received_events_url": "https://api.github.com/users/rom1504/received_events",
        "repos_url": "https://api.github.com/users/rom1504/repos",
        "site_admin": false,
        "starred_url": "https://api.github.com/users/rom1504/starred{/owner}{/repo}",
        "subscriptions_url": "https://api.github.com/users/rom1504/subscriptions",
        "type": "User",
        "url": "https://api.github.com/users/rom1504"
    },
    "milestone": null,
    "node_id": "MDExOlB1bGxSZXF1ZXN0NjYxNTIzODg1",
    "number": 124,
    "patch_url": "https://github.com/PrismarineJS/prismarine-chunk/pull/124.patch",
    "rebaseable": null,
    "requested_reviewers": [],
    "requested_teams": [],
    "review_comment_url": "https://api.github.com/repos/PrismarineJS/prismarine-chunk/pulls/comments{/number}",
    "review_comments": 0,
    "review_comments_url": "https://api.github.com/repos/PrismarineJS/prismarine-chunk/pulls/124/comments",
    "state": "closed",
    "statuses_url": "https://api.github.com/repos/PrismarineJS/prismarine-chunk/statuses/bad56a21cafd2e76d4034f4f1bd3a5a239de0c9e",
    "title": "Bump jest from 26.6.3 to 27.0.4",
    "updated_at": "2021-06-05T00:04:10Z",
    "url": "https://api.github.com/repos/PrismarineJS/prismarine-chunk/pulls/124",
    "user": {
        "avatar_url": "https://avatars.githubusercontent.com/in/29110?v=4",
        "events_url": "https://api.github.com/users/dependabot%5Bbot%5D/events{/privacy}",
        "followers_url": "https://api.github.com/users/dependabot%5Bbot%5D/followers",
        "following_url": "https://api.github.com/users/dependabot%5Bbot%5D/following{/other_user}",
        "gists_url": "https://api.github.com/users/dependabot%5Bbot%5D/gists{/gist_id}",
        "gravatar_id": "",
        "html_url": "https://github.com/apps/dependabot",
        "id": 49699333,
        "login": "dependabot[bot]",
        "node_id": "MDM6Qm90NDk2OTkzMzM=",
        "organizations_url": "https://api.github.com/users/dependabot%5Bbot%5D/orgs",
        "received_events_url": "https://api.github.com/users/dependabot%5Bbot%5D/received_events",
        "repos_url": "https://api.github.com/users/dependabot%5Bbot%5D/repos",
        "site_admin": false,
        "starred_url": "https://api.github.com/users/dependabot%5Bbot%5D/starred{/owner}{/repo}",
        "subscriptions_url": "https://api.github.com/users/dependabot%5Bbot%5D/subscriptions",
        "type": "Bot",
        "url": "https://api.github.com/users/dependabot%5Bbot%5D"
    }
}