{
    "_links": {
        "comments": {
            "href": "https://api.github.com/repos/PrismarineJS/prismarine-chunk/issues/128/comments"
        },
        "commits": {
            "href": "https://api.github.com/repos/PrismarineJS/prismarine-chunk/pulls/128/commits"
        },
        "html": {
            "href": "https://github.com/PrismarineJS/prismarine-chunk/pull/128"
        },
        "issue": {
            "href": "https://api.github.com/repos/PrismarineJS/prismarine-chunk/issues/128"
        },
        "review_comment": {
            "href": "https://api.github.com/repos/PrismarineJS/prismarine-chunk/pulls/comments{/number}"
        },
        "review_comments": {
            "href": "https://api.github.com/repos/PrismarineJS/prismarine-chunk/pulls/128/comments"
        },
        "self": {
            "href": "https://api.github.com/repos/PrismarineJS/prismarine-chunk/pulls/128"
        },
        "statuses": {
            "href": "https://api.github.com/repos/PrismarineJS/prismarine-chunk/statuses/99638e6c151e093eeb4b6b65bf68f61f63177ba8"
        }
    },
    "active_lock_reason": null,
    "additions": 20,
    "assignee": null,
    "assignees": [],
    "author_association": "MEMBER",
    "auto_merge": null,
    "base": {
        "label": "PrismarineJS:master",
        "ref": "master",
        "repo": {
            "allow_forking": true,
            "archive_url": "https://api.github.com/repos/PrismarineJS/prismarine-chunk/{archive_format}{/ref}",
            "archived": false,
            "assignees_url": "https://api.github.com/repos/PrismarineJS/prismarine-chunk/assignees{/user}",
            "blobs_url": "https://api.github.com/repos/PrismarineJS/prismarine-chunk/git/blobs{/sha}",
            "branches_url": "https://api.github.com/repos/PrismarineJS/prismarine-chunk/branches{/branch}",
            "clone_url": "https://github.com/PrismarineJS/prismarine-chunk.git",
            "collaborators_url": "https://api.github.com/repos/PrismarineJS/prismarine-chunk/collaborators{/collaborator}",
            "comments_url": "https://api.github.com/repos/PrismarineJS/prismarine-chunk/comments{/number}",
            "commits_url": "https://api.github.com/repos/PrismarineJS/prismarine-chunk/commits{/sha}",
            "compare_url": "https://api.github.com/repos/PrismarineJS/prismarine-chunk/compare/{base}...{head}",
            "contents_url": "https://api.github.com/repos/PrismarineJS/prismarine-chunk/contents/{+path}",
            "contributors_url": "https://api.github.com/repos/PrismarineJS/prismarine-chunk/contributors",
            "created_at": "2015-03-03T19:28:14Z",
            "default_branch": "master",
            "deployments_url": "https://api.github.com/repos/PrismarineJS/prismarine-chunk/deployments",
            "description": "A class to hold chunk data for Minecraft",
            "disabled": false,
            "downloads_url": "https://api.github.com/repos/PrismarineJS/prismarine-chunk/downloads",
            "events_url": "https://api.github.com/repos/PrismarineJS/prismarine-chunk/events",
            "fork": false,
            "forks": 47,
            "forks_count": 47,
            "forks_url": "https://api.github.com/repos/PrismarineJS/prismarine-chunk/forks",
            "full_name": "PrismarineJS/prismarine-chunk",
            "git_commits_url": "https://api.github.com/repos/PrismarineJS/prismarine-chunk/git/commits{/sha}",
            "git_refs_url": "https://api.github.com/repos/PrismarineJS/prismarine-chunk/git/refs{/sha}",
            "git_tags_url": "https://api.github.com/repos/PrismarineJS/prismarine-chunk/git/tags{/sha}",
            "git_url": "git://github.com/PrismarineJS/prismarine-chunk.git",
            "has_discussions": false,
            "has_downloads": true,
            "has_issues": true,
            "has_pages": false,
            "has_projects": true,
            "has_wiki": true,
            "homepage": "",
            "hooks_url": "https://api.github.com/repos/PrismarineJS/prismarine-chunk/hooks",
            "html_url": "https://github.com/PrismarineJS/prismarine-chunk",
            "id": 31616891,
            "is_template": false,
            "issue_comment_url": "https://api.github.com/repos/PrismarineJS/prismarine-chunk/issues/comments{/number}",
            "issue_events_url": "https://api.github.com/repos/PrismarineJS/prismarine-chunk/issues/events{/number}",
            "issues_url": "https://api.github.com/repos/PrismarineJS/prismarine-chunk/issues{/number}",
            "keys_url": "https://api.github.com/repos/PrismarineJS/prismarine-chunk/keys{/key_id}",
            "labels_url": "https://api.github.com/repos/PrismarineJS/prismarine-chunk/labels{/name}",
            "language": "JavaScript",
            "languages_url": "https://api.github.com/repos/PrismarineJS/prismarine-chunk/languages",
            "license": {
                "key": "mit",
                "name": "MIT License",
                "node_id": "MDc6TGljZW5zZTEz",
                "spdx_id": "MIT",
                "url": "https://api.github.com/licenses/mit"
            },
            "merges_url": "https://api.github.com/repos/PrismarineJS/prismarine-chunk/merges",
            "milestones_url": "https://api.github.com/repos/PrismarineJS/prismarine-chunk/milestones{/number}",
            "mirror_url": null,
            "name": "prismarine-chunk",
            "node_id": "MDEwOlJlcG9zaXRvcnkzMTYxNjg5MQ==",
            "notifications_url": "https://api.github.com/repos/PrismarineJS/prismarine-chunk/notifications{?since,all,participating}",
            "open_issues": 14,
            "open_issues_count": 14,
            "owner": {
                "avatar_url": "https://avatars.githubusercontent.com/u/11053411?v=4",
                "events_url": "https://api.github.com/users/PrismarineJS/events{/privacy}",
                "followers_url": "https://api.github.com/users/PrismarineJS/followers",
                "following_url": "https://api.github.com/users/PrismarineJS/following{/other_user}",
                "gists_url": "https://api.github.com/users/PrismarineJS/gists{/gist_id}",
                "gravatar_id": "",
                "html_url": "https://github.com/PrismarineJS",
                "id": 11053411,
                "login": "PrismarineJS",
                "node_id": "MDEyOk9yZ2FuaXphdGlvbjExMDUzNDEx",
                "organizations_url": "https://api.github.com/users/PrismarineJS/orgs",
                "received_events_url": "https://api.github.com/users/PrismarineJS/received_events",
                "repos_url": "https://api.github.com/users/PrismarineJS/repos",
                "site_admin": false,
                "starred_url": "https://api.github.com/users/PrismarineJS/starred{/owner}{/repo}",
                "subscriptions_url": "https://api.github.com/users/PrismarineJS/subscriptions",
                "type": "Organization",
                "url": "https://api.github.com/users/PrismarineJS"
            },
            "private": false,
            "pulls_url": "https://api.github.com/repos/PrismarineJS/prismarine-chunk/pulls{/number}",
            "pushed_at": "2023-04-10T14:10:02Z",
            "releases_url": "https://api.github.com/repos/PrismarineJS/prismarine-chunk/releases{/id}",
            "size": 5254,
            "ssh_url": "git@github.com:PrismarineJS/prismarine-chunk.git",
            "stargazers_count": 57,
            "stargazers_url": "https://api.github.com/repos/PrismarineJS/prismarine-chunk/stargazers",
            "statuses_url": "https://api.github.com/repos/PrismarineJS/prismarine-chunk/statuses/{sha}",
            "subscribers_url": "https://api.github.com/repos/PrismarineJS/prismarine-chunk/subscribers",
            "subscription_url": "https://api.github.com/repos/PrismarineJS/prismarine-chunk/subscription",
            "svn_url": "https://github.com/PrismarineJS/prismarine-chunk",
            "tags_url": "https://api.github.com/repos/PrismarineJS/prismarine-chunk/tags",
            "teams_url": "https://api.github.com/repos/PrismarineJS/prismarine-chunk/teams",
            "topics": [],
            "trees_url": "https://api.github.com/repos/PrismarineJS/prismarine-chunk/git/trees{/sha}",
            "updated_at": "2023-03-10T11:34:57Z",
            "url": "https://api.github.com/repos/PrismarineJS/prismarine-chunk",
            "visibility": "public",
            "watchers": 57,
            "watchers_count": 57,
            "web_commit_signoff_required": false
        },
        "sha": "6f158b13f25c121e8b8ea2f80b7fed686c2197c9",
        "user": {
            "avatar_url": "https://avatars.githubusercontent.com/u/11053411?v=4",
            "events_url": "https://api.github.com/users/PrismarineJS/events{/privacy}",
            "followers_url": "https://api.github.com/users/PrismarineJS/followers",
            "following_url": "https://api.github.com/users/PrismarineJS/following{/other_user}",
            "gists_url": "https://api.github.com/users/PrismarineJS/gists{/gist_id}",
            "gravatar_id": "",
            "html_url": "https://github.com/PrismarineJS",
            "id": 11053411,
            "login": "PrismarineJS",
            "node_id": "MDEyOk9yZ2FuaXphdGlvbjExMDUzNDEx",
            "organizations_url": "https://api.github.com/users/PrismarineJS/orgs",
            "received_events_url": "https://api.github.com/users/PrismarineJS/received_events",
            "repos_url": "https://api.github.com/users/PrismarineJS/repos",
            "site_admin": false,
            "starred_url": "https://api.github.com/users/PrismarineJS/starred{/owner}{/repo}",
            "subscriptions_url": "https://api.github.com/users/PrismarineJS/subscriptions",
            "type": "Organization",
            "url": "https://api.github.com/users/PrismarineJS"
        }
    },
    "body": "",
    "changed_files": 30,
    "closed_at": "2021-07-07T09:24:51Z",
    "comment_data": [],
    "comment_regular_data": [
        {
            "author_association": "MEMBER",
            "body": "Missing the new masks of 1.17",
            "created_at": "2021-07-06T18:52:02Z",
            "html_url": "https://github.com/PrismarineJS/prismarine-chunk/pull/128#issuecomment-875002493",
            "id": 875002493,
            "issue_url": "https://api.github.com/repos/PrismarineJS/prismarine-chunk/issues/128",
            "node_id": "MDEyOklzc3VlQ29tbWVudDg3NTAwMjQ5Mw==",
            "performed_via_github_app": null,
            "reactions": {
                "+1": 0,
                "-1": 0,
                "confused": 0,
                "eyes": 0,
                "heart": 0,
                "hooray": 0,
                "laugh": 0,
                "rocket": 0,
                "total_count": 0,
                "url": "https://api.github.com/repos/PrismarineJS/prismarine-chunk/issues/comments/875002493/reactions"
            },
            "updated_at": "2021-07-06T18:52:02Z",
            "url": "https://api.github.com/repos/PrismarineJS/prismarine-chunk/issues/comments/875002493",
            "user": {
                "avatar_url": "https://avatars.githubusercontent.com/u/2346494?v=4",
                "events_url": "https://api.github.com/users/rom1504/events{/privacy}",
                "followers_url": "https://api.github.com/users/rom1504/followers",
                "following_url": "https://api.github.com/users/rom1504/following{/other_user}",
                "gists_url": "https://api.github.com/users/rom1504/gists{/gist_id}",
                "gravatar_id": "",
                "html_url": "https://github.com/rom1504",
                "id": 2346494,
                "login": "rom1504",
                "node_id": "MDQ6VXNlcjIzNDY0OTQ=",
                "organizations_url": "https://api.github.com/users/rom1504/orgs",
                "received_events_url": "https://api.github.com/users/rom1504/received_events",
                "repos_url": "https://api.github.com/users/rom1504/repos",
                "site_admin": false,
                "starred_url": "https://api.github.com/users/rom1504/starred{/owner}{/repo}",
                "subscriptions_url": "https://api.github.com/users/rom1504/subscriptions",
                "type": "User",
                "url": "https://api.github.com/users/rom1504"
            }
        }
    ],
    "comments": 1,
    "comments_url": "https://api.github.com/repos/PrismarineJS/prismarine-chunk/issues/128/comments",
    "commit_data": [
        {
            "author": {
                "avatar_url": "https://avatars.githubusercontent.com/u/43508353?v=4",
                "events_url": "https://api.github.com/users/u9g/events{/privacy}",
                "followers_url": "https://api.github.com/users/u9g/followers",
                "following_url": "https://api.github.com/users/u9g/following{/other_user}",
                "gists_url": "https://api.github.com/users/u9g/gists{/gist_id}",
                "gravatar_id": "",
                "html_url": "https://github.com/u9g",
                "id": 43508353,
                "login": "u9g",
                "node_id": "MDQ6VXNlcjQzNTA4MzUz",
                "organizations_url": "https://api.github.com/users/u9g/orgs",
                "received_events_url": "https://api.github.com/users/u9g/received_events",
                "repos_url": "https://api.github.com/users/u9g/repos",
                "site_admin": false,
                "starred_url": "https://api.github.com/users/u9g/starred{/owner}{/repo}",
                "subscriptions_url": "https://api.github.com/users/u9g/subscriptions",
                "type": "User",
                "url": "https://api.github.com/users/u9g"
            },
            "comments_url": "https://api.github.com/repos/PrismarineJS/prismarine-chunk/commits/c1ad6f96b5ed11608bb7339e14803982e923d2ab/comments",
            "commit": {
                "author": {
                    "date": "2021-07-06T17:47:26Z",
                    "email": "43508353+u9g@users.noreply.github.com",
                    "name": "u9g"
                },
                "comment_count": 0,
                "committer": {
                    "date": "2021-07-06T17:47:26Z",
                    "email": "43508353+u9g@users.noreply.github.com",
                    "name": "u9g"
                },
                "message": "add dumped chunks from 1.17",
                "tree": {
                    "sha": "c829edd4715961d6771d71f09e1d519000855338",
                    "url": "https://api.github.com/repos/PrismarineJS/prismarine-chunk/git/trees/c829edd4715961d6771d71f09e1d519000855338"
                },
                "url": "https://api.github.com/repos/PrismarineJS/prismarine-chunk/git/commits/c1ad6f96b5ed11608bb7339e14803982e923d2ab",
                "verification": {
                    "payload": null,
                    "reason": "unsigned",
                    "signature": null,
                    "verified": false
                }
            },
            "committer": {
                "avatar_url": "https://avatars.githubusercontent.com/u/43508353?v=4",
                "events_url": "https://api.github.com/users/u9g/events{/privacy}",
                "followers_url": "https://api.github.com/users/u9g/followers",
                "following_url": "https://api.github.com/users/u9g/following{/other_user}",
                "gists_url": "https://api.github.com/users/u9g/gists{/gist_id}",
                "gravatar_id": "",
                "html_url": "https://github.com/u9g",
                "id": 43508353,
                "login": "u9g",
                "node_id": "MDQ6VXNlcjQzNTA4MzUz",
                "organizations_url": "https://api.github.com/users/u9g/orgs",
                "received_events_url": "https://api.github.com/users/u9g/received_events",
                "repos_url": "https://api.github.com/users/u9g/repos",
                "site_admin": false,
                "starred_url": "https://api.github.com/users/u9g/starred{/owner}{/repo}",
                "subscriptions_url": "https://api.github.com/users/u9g/subscriptions",
                "type": "User",
                "url": "https://api.github.com/users/u9g"
            },
            "html_url": "https://github.com/PrismarineJS/prismarine-chunk/commit/c1ad6f96b5ed11608bb7339e14803982e923d2ab",
            "node_id": "MDY6Q29tbWl0MzE2MTY4OTE6YzFhZDZmOTZiNWVkMTE2MDhiYjczMzllMTQ4MDM5ODJlOTIzZDJhYg==",
            "parents": [
                {
                    "html_url": "https://github.com/PrismarineJS/prismarine-chunk/commit/6f158b13f25c121e8b8ea2f80b7fed686c2197c9",
                    "sha": "6f158b13f25c121e8b8ea2f80b7fed686c2197c9",
                    "url": "https://api.github.com/repos/PrismarineJS/prismarine-chunk/commits/6f158b13f25c121e8b8ea2f80b7fed686c2197c9"
                }
            ],
            "sha": "c1ad6f96b5ed11608bb7339e14803982e923d2ab",
            "url": "https://api.github.com/repos/PrismarineJS/prismarine-chunk/commits/c1ad6f96b5ed11608bb7339e14803982e923d2ab"
        },
        {
            "author": {
                "avatar_url": "https://avatars.githubusercontent.com/u/43508353?v=4",
                "events_url": "https://api.github.com/users/u9g/events{/privacy}",
                "followers_url": "https://api.github.com/users/u9g/followers",
                "following_url": "https://api.github.com/users/u9g/following{/other_user}",
                "gists_url": "https://api.github.com/users/u9g/gists{/gist_id}",
                "gravatar_id": "",
                "html_url": "https://github.com/u9g",
                "id": 43508353,
                "login": "u9g",
                "node_id": "MDQ6VXNlcjQzNTA4MzUz",
                "organizations_url": "https://api.github.com/users/u9g/orgs",
                "received_events_url": "https://api.github.com/users/u9g/received_events",
                "repos_url": "https://api.github.com/users/u9g/repos",
                "site_admin": false,
                "starred_url": "https://api.github.com/users/u9g/starred{/owner}{/repo}",
                "subscriptions_url": "https://api.github.com/users/u9g/subscriptions",
                "type": "User",
                "url": "https://api.github.com/users/u9g"
            },
            "comments_url": "https://api.github.com/repos/PrismarineJS/prismarine-chunk/commits/99638e6c151e093eeb4b6b65bf68f61f63177ba8/comments",
            "commit": {
                "author": {
                    "date": "2021-07-06T19:29:03Z",
                    "email": "43508353+u9g@users.noreply.github.com",
                    "name": "u9g"
                },
                "comment_count": 0,
                "committer": {
                    "date": "2021-07-06T19:29:03Z",
                    "email": "43508353+u9g@users.noreply.github.com",
                    "name": "u9g"
                },
                "message": "remade chunks with the new blockLight and skyLight",
                "tree": {
                    "sha": "0df6e30f29bb4ac9f15394df2f44514e9a16aed0",
                    "url": "https://api.github.com/repos/PrismarineJS/prismarine-chunk/git/trees/0df6e30f29bb4ac9f15394df2f44514e9a16aed0"
                },
                "url": "https://api.github.com/repos/PrismarineJS/prismarine-chunk/git/commits/99638e6c151e093eeb4b6b65bf68f61f63177ba8",
                "verification": {
                    "payload": null,
                    "reason": "unsigned",
                    "signature": null,
                    "verified": false
                }
            },
            "committer": {
                "avatar_url": "https://avatars.githubusercontent.com/u/43508353?v=4",
                "events_url": "https://api.github.com/users/u9g/events{/privacy}",
                "followers_url": "https://api.github.com/users/u9g/followers",
                "following_url": "https://api.github.com/users/u9g/following{/other_user}",
                "gists_url": "https://api.github.com/users/u9g/gists{/gist_id}",
                "gravatar_id": "",
                "html_url": "https://github.com/u9g",
                "id": 43508353,
                "login": "u9g",
                "node_id": "MDQ6VXNlcjQzNTA4MzUz",
                "organizations_url": "https://api.github.com/users/u9g/orgs",
                "received_events_url": "https://api.github.com/users/u9g/received_events",
                "repos_url": "https://api.github.com/users/u9g/repos",
                "site_admin": false,
                "starred_url": "https://api.github.com/users/u9g/starred{/owner}{/repo}",
                "subscriptions_url": "https://api.github.com/users/u9g/subscriptions",
                "type": "User",
                "url": "https://api.github.com/users/u9g"
            },
            "html_url": "https://github.com/PrismarineJS/prismarine-chunk/commit/99638e6c151e093eeb4b6b65bf68f61f63177ba8",
            "node_id": "MDY6Q29tbWl0MzE2MTY4OTE6OTk2MzhlNmMxNTFlMDkzZWViNGI2YjY1YmY2OGY2MWY2MzE3N2JhOA==",
            "parents": [
                {
                    "html_url": "https://github.com/PrismarineJS/prismarine-chunk/commit/c1ad6f96b5ed11608bb7339e14803982e923d2ab",
                    "sha": "c1ad6f96b5ed11608bb7339e14803982e923d2ab",
                    "url": "https://api.github.com/repos/PrismarineJS/prismarine-chunk/commits/c1ad6f96b5ed11608bb7339e14803982e923d2ab"
                }
            ],
            "sha": "99638e6c151e093eeb4b6b65bf68f61f63177ba8",
            "url": "https://api.github.com/repos/PrismarineJS/prismarine-chunk/commits/99638e6c151e093eeb4b6b65bf68f61f63177ba8"
        }
    ],
    "commits": 2,
    "commits_url": "https://api.github.com/repos/PrismarineJS/prismarine-chunk/pulls/128/commits",
    "created_at": "2021-07-06T17:47:34Z",
    "deletions": 0,
    "diff_url": "https://github.com/PrismarineJS/prismarine-chunk/pull/128.diff",
    "draft": false,
    "head": {
        "label": "PrismarineJS:1.17-data",
        "ref": "1.17-data",
        "repo": {
            "allow_forking": true,
            "archive_url": "https://api.github.com/repos/PrismarineJS/prismarine-chunk/{archive_format}{/ref}",
            "archived": false,
            "assignees_url": "https://api.github.com/repos/PrismarineJS/prismarine-chunk/assignees{/user}",
            "blobs_url": "https://api.github.com/repos/PrismarineJS/prismarine-chunk/git/blobs{/sha}",
            "branches_url": "https://api.github.com/repos/PrismarineJS/prismarine-chunk/branches{/branch}",
            "clone_url": "https://github.com/PrismarineJS/prismarine-chunk.git",
            "collaborators_url": "https://api.github.com/repos/PrismarineJS/prismarine-chunk/collaborators{/collaborator}",
            "comments_url": "https://api.github.com/repos/PrismarineJS/prismarine-chunk/comments{/number}",
            "commits_url": "https://api.github.com/repos/PrismarineJS/prismarine-chunk/commits{/sha}",
            "compare_url": "https://api.github.com/repos/PrismarineJS/prismarine-chunk/compare/{base}...{head}",
            "contents_url": "https://api.github.com/repos/PrismarineJS/prismarine-chunk/contents/{+path}",
            "contributors_url": "https://api.github.com/repos/PrismarineJS/prismarine-chunk/contributors",
            "created_at": "2015-03-03T19:28:14Z",
            "default_branch": "master",
            "deployments_url": "https://api.github.com/repos/PrismarineJS/prismarine-chunk/deployments",
            "description": "A class to hold chunk data for Minecraft",
            "disabled": false,
            "downloads_url": "https://api.github.com/repos/PrismarineJS/prismarine-chunk/downloads",
            "events_url": "https://api.github.com/repos/PrismarineJS/prismarine-chunk/events",
            "fork": false,
            "forks": 47,
            "forks_count": 47,
            "forks_url": "https://api.github.com/repos/PrismarineJS/prismarine-chunk/forks",
            "full_name": "PrismarineJS/prismarine-chunk",
            "git_commits_url": "https://api.github.com/repos/PrismarineJS/prismarine-chunk/git/commits{/sha}",
            "git_refs_url": "https://api.github.com/repos/PrismarineJS/prismarine-chunk/git/refs{/sha}",
            "git_tags_url": "https://api.github.com/repos/PrismarineJS/prismarine-chunk/git/tags{/sha}",
            "git_url": "git://github.com/PrismarineJS/prismarine-chunk.git",
            "has_discussions": false,
            "has_downloads": true,
            "has_issues": true,
            "has_pages": false,
            "has_projects": true,
            "has_wiki": true,
            "homepage": "",
            "hooks_url": "https://api.github.com/repos/PrismarineJS/prismarine-chunk/hooks",
            "html_url": "https://github.com/PrismarineJS/prismarine-chunk",
            "id": 31616891,
            "is_template": false,
            "issue_comment_url": "https://api.github.com/repos/PrismarineJS/prismarine-chunk/issues/comments{/number}",
            "issue_events_url": "https://api.github.com/repos/PrismarineJS/prismarine-chunk/issues/events{/number}",
            "issues_url": "https://api.github.com/repos/PrismarineJS/prismarine-chunk/issues{/number}",
            "keys_url": "https://api.github.com/repos/PrismarineJS/prismarine-chunk/keys{/key_id}",
            "labels_url": "https://api.github.com/repos/PrismarineJS/prismarine-chunk/labels{/name}",
            "language": "JavaScript",
            "languages_url": "https://api.github.com/repos/PrismarineJS/prismarine-chunk/languages",
            "license": {
                "key": "mit",
                "name": "MIT License",
                "node_id": "MDc6TGljZW5zZTEz",
                "spdx_id": "MIT",
                "url": "https://api.github.com/licenses/mit"
            },
            "merges_url": "https://api.github.com/repos/PrismarineJS/prismarine-chunk/merges",
            "milestones_url": "https://api.github.com/repos/PrismarineJS/prismarine-chunk/milestones{/number}",
            "mirror_url": null,
            "name": "prismarine-chunk",
            "node_id": "MDEwOlJlcG9zaXRvcnkzMTYxNjg5MQ==",
            "notifications_url": "https://api.github.com/repos/PrismarineJS/prismarine-chunk/notifications{?since,all,participating}",
            "open_issues": 14,
            "open_issues_count": 14,
            "owner": {
                "avatar_url": "https://avatars.githubusercontent.com/u/11053411?v=4",
                "events_url": "https://api.github.com/users/PrismarineJS/events{/privacy}",
                "followers_url": "https://api.github.com/users/PrismarineJS/followers",
                "following_url": "https://api.github.com/users/PrismarineJS/following{/other_user}",
                "gists_url": "https://api.github.com/users/PrismarineJS/gists{/gist_id}",
                "gravatar_id": "",
                "html_url": "https://github.com/PrismarineJS",
                "id": 11053411,
                "login": "PrismarineJS",
                "node_id": "MDEyOk9yZ2FuaXphdGlvbjExMDUzNDEx",
                "organizations_url": "https://api.github.com/users/PrismarineJS/orgs",
                "received_events_url": "https://api.github.com/users/PrismarineJS/received_events",
                "repos_url": "https://api.github.com/users/PrismarineJS/repos",
                "site_admin": false,
                "starred_url": "https://api.github.com/users/PrismarineJS/starred{/owner}{/repo}",
                "subscriptions_url": "https://api.github.com/users/PrismarineJS/subscriptions",
                "type": "Organization",
                "url": "https://api.github.com/users/PrismarineJS"
            },
            "private": false,
            "pulls_url": "https://api.github.com/repos/PrismarineJS/prismarine-chunk/pulls{/number}",
            "pushed_at": "2023-04-10T14:10:02Z",
            "releases_url": "https://api.github.com/repos/PrismarineJS/prismarine-chunk/releases{/id}",
            "size": 5254,
            "ssh_url": "git@github.com:PrismarineJS/prismarine-chunk.git",
            "stargazers_count": 57,
            "stargazers_url": "https://api.github.com/repos/PrismarineJS/prismarine-chunk/stargazers",
            "statuses_url": "https://api.github.com/repos/PrismarineJS/prismarine-chunk/statuses/{sha}",
            "subscribers_url": "https://api.github.com/repos/PrismarineJS/prismarine-chunk/subscribers",
            "subscription_url": "https://api.github.com/repos/PrismarineJS/prismarine-chunk/subscription",
            "svn_url": "https://github.com/PrismarineJS/prismarine-chunk",
            "tags_url": "https://api.github.com/repos/PrismarineJS/prismarine-chunk/tags",
            "teams_url": "https://api.github.com/repos/PrismarineJS/prismarine-chunk/teams",
            "topics": [],
            "trees_url": "https://api.github.com/repos/PrismarineJS/prismarine-chunk/git/trees{/sha}",
            "updated_at": "2023-03-10T11:34:57Z",
            "url": "https://api.github.com/repos/PrismarineJS/prismarine-chunk",
            "visibility": "public",
            "watchers": 57,
            "watchers_count": 57,
            "web_commit_signoff_required": false
        },
        "sha": "99638e6c151e093eeb4b6b65bf68f61f63177ba8",
        "user": {
            "avatar_url": "https://avatars.githubusercontent.com/u/11053411?v=4",
            "events_url": "https://api.github.com/users/PrismarineJS/events{/privacy}",
            "followers_url": "https://api.github.com/users/PrismarineJS/followers",
            "following_url": "https://api.github.com/users/PrismarineJS/following{/other_user}",
            "gists_url": "https://api.github.com/users/PrismarineJS/gists{/gist_id}",
            "gravatar_id": "",
            "html_url": "https://github.com/PrismarineJS",
            "id": 11053411,
            "login": "PrismarineJS",
            "node_id": "MDEyOk9yZ2FuaXphdGlvbjExMDUzNDEx",
            "organizations_url": "https://api.github.com/users/PrismarineJS/orgs",
            "received_events_url": "https://api.github.com/users/PrismarineJS/received_events",
            "repos_url": "https://api.github.com/users/PrismarineJS/repos",
            "site_admin": false,
            "starred_url": "https://api.github.com/users/PrismarineJS/starred{/owner}{/repo}",
            "subscriptions_url": "https://api.github.com/users/PrismarineJS/subscriptions",
            "type": "Organization",
            "url": "https://api.github.com/users/PrismarineJS"
        }
    },
    "html_url": "https://github.com/PrismarineJS/prismarine-chunk/pull/128",
    "id": 684566145,
    "issue_url": "https://api.github.com/repos/PrismarineJS/prismarine-chunk/issues/128",
    "labels": [],
    "locked": false,
    "maintainer_can_modify": false,
    "merge_commit_sha": "593f465984ccec0b760bc033a69e1d8028129583",
    "mergeable": null,
    "mergeable_state": "unknown",
    "merged": true,
    "merged_at": "2021-07-07T09:24:51Z",
    "merged_by": {
        "avatar_url": "https://avatars.githubusercontent.com/u/2346494?v=4",
        "events_url": "https://api.github.com/users/rom1504/events{/privacy}",
        "followers_url": "https://api.github.com/users/rom1504/followers",
        "following_url": "https://api.github.com/users/rom1504/following{/other_user}",
        "gists_url": "https://api.github.com/users/rom1504/gists{/gist_id}",
        "gravatar_id": "",
        "html_url": "https://github.com/rom1504",
        "id": 2346494,
        "login": "rom1504",
        "node_id": "MDQ6VXNlcjIzNDY0OTQ=",
        "organizations_url": "https://api.github.com/users/rom1504/orgs",
        "received_events_url": "https://api.github.com/users/rom1504/received_events",
        "repos_url": "https://api.github.com/users/rom1504/repos",
        "site_admin": false,
        "starred_url": "https://api.github.com/users/rom1504/starred{/owner}{/repo}",
        "subscriptions_url": "https://api.github.com/users/rom1504/subscriptions",
        "type": "User",
        "url": "https://api.github.com/users/rom1504"
    },
    "milestone": null,
    "node_id": "MDExOlB1bGxSZXF1ZXN0Njg0NTY2MTQ1",
    "number": 128,
    "patch_url": "https://github.com/PrismarineJS/prismarine-chunk/pull/128.patch",
    "rebaseable": null,
    "requested_reviewers": [],
    "requested_teams": [],
    "review_comment_url": "https://api.github.com/repos/PrismarineJS/prismarine-chunk/pulls/comments{/number}",
    "review_comments": 0,
    "review_comments_url": "https://api.github.com/repos/PrismarineJS/prismarine-chunk/pulls/128/comments",
    "state": "closed",
    "statuses_url": "https://api.github.com/repos/PrismarineJS/prismarine-chunk/statuses/99638e6c151e093eeb4b6b65bf68f61f63177ba8",
    "title": "add dumped chunks from 1.17",
    "updated_at": "2021-07-07T09:24:54Z",
    "url": "https://api.github.com/repos/PrismarineJS/prismarine-chunk/pulls/128",
    "user": {
        "avatar_url": "https://avatars.githubusercontent.com/u/43508353?v=4",
        "events_url": "https://api.github.com/users/u9g/events{/privacy}",
        "followers_url": "https://api.github.com/users/u9g/followers",
        "following_url": "https://api.github.com/users/u9g/following{/other_user}",
        "gists_url": "https://api.github.com/users/u9g/gists{/gist_id}",
        "gravatar_id": "",
        "html_url": "https://github.com/u9g",
        "id": 43508353,
        "login": "u9g",
        "node_id": "MDQ6VXNlcjQzNTA4MzUz",
        "organizations_url": "https://api.github.com/users/u9g/orgs",
        "received_events_url": "https://api.github.com/users/u9g/received_events",
        "repos_url": "https://api.github.com/users/u9g/repos",
        "site_admin": false,
        "starred_url": "https://api.github.com/users/u9g/starred{/owner}{/repo}",
        "subscriptions_url": "https://api.github.com/users/u9g/subscriptions",
        "type": "User",
        "url": "https://api.github.com/users/u9g"
    }
}