{
    "_links": {
        "comments": {
            "href": "https://api.github.com/repos/PrismarineJS/prismarine-chunk/issues/161/comments"
        },
        "commits": {
            "href": "https://api.github.com/repos/PrismarineJS/prismarine-chunk/pulls/161/commits"
        },
        "html": {
            "href": "https://github.com/PrismarineJS/prismarine-chunk/pull/161"
        },
        "issue": {
            "href": "https://api.github.com/repos/PrismarineJS/prismarine-chunk/issues/161"
        },
        "review_comment": {
            "href": "https://api.github.com/repos/PrismarineJS/prismarine-chunk/pulls/comments{/number}"
        },
        "review_comments": {
            "href": "https://api.github.com/repos/PrismarineJS/prismarine-chunk/pulls/161/comments"
        },
        "self": {
            "href": "https://api.github.com/repos/PrismarineJS/prismarine-chunk/pulls/161"
        },
        "statuses": {
            "href": "https://api.github.com/repos/PrismarineJS/prismarine-chunk/statuses/3ee15244c254b6981120363621f46daea679e177"
        }
    },
    "active_lock_reason": null,
    "additions": 38,
    "assignee": null,
    "assignees": [],
    "author_association": "MEMBER",
    "auto_merge": null,
    "base": {
        "label": "PrismarineJS:master",
        "ref": "master",
        "repo": {
            "allow_forking": true,
            "archive_url": "https://api.github.com/repos/PrismarineJS/prismarine-chunk/{archive_format}{/ref}",
            "archived": false,
            "assignees_url": "https://api.github.com/repos/PrismarineJS/prismarine-chunk/assignees{/user}",
            "blobs_url": "https://api.github.com/repos/PrismarineJS/prismarine-chunk/git/blobs{/sha}",
            "branches_url": "https://api.github.com/repos/PrismarineJS/prismarine-chunk/branches{/branch}",
            "clone_url": "https://github.com/PrismarineJS/prismarine-chunk.git",
            "collaborators_url": "https://api.github.com/repos/PrismarineJS/prismarine-chunk/collaborators{/collaborator}",
            "comments_url": "https://api.github.com/repos/PrismarineJS/prismarine-chunk/comments{/number}",
            "commits_url": "https://api.github.com/repos/PrismarineJS/prismarine-chunk/commits{/sha}",
            "compare_url": "https://api.github.com/repos/PrismarineJS/prismarine-chunk/compare/{base}...{head}",
            "contents_url": "https://api.github.com/repos/PrismarineJS/prismarine-chunk/contents/{+path}",
            "contributors_url": "https://api.github.com/repos/PrismarineJS/prismarine-chunk/contributors",
            "created_at": "2015-03-03T19:28:14Z",
            "default_branch": "master",
            "deployments_url": "https://api.github.com/repos/PrismarineJS/prismarine-chunk/deployments",
            "description": "A class to hold chunk data for Minecraft",
            "disabled": false,
            "downloads_url": "https://api.github.com/repos/PrismarineJS/prismarine-chunk/downloads",
            "events_url": "https://api.github.com/repos/PrismarineJS/prismarine-chunk/events",
            "fork": false,
            "forks": 47,
            "forks_count": 47,
            "forks_url": "https://api.github.com/repos/PrismarineJS/prismarine-chunk/forks",
            "full_name": "PrismarineJS/prismarine-chunk",
            "git_commits_url": "https://api.github.com/repos/PrismarineJS/prismarine-chunk/git/commits{/sha}",
            "git_refs_url": "https://api.github.com/repos/PrismarineJS/prismarine-chunk/git/refs{/sha}",
            "git_tags_url": "https://api.github.com/repos/PrismarineJS/prismarine-chunk/git/tags{/sha}",
            "git_url": "git://github.com/PrismarineJS/prismarine-chunk.git",
            "has_discussions": false,
            "has_downloads": true,
            "has_issues": true,
            "has_pages": false,
            "has_projects": true,
            "has_wiki": true,
            "homepage": "",
            "hooks_url": "https://api.github.com/repos/PrismarineJS/prismarine-chunk/hooks",
            "html_url": "https://github.com/PrismarineJS/prismarine-chunk",
            "id": 31616891,
            "is_template": false,
            "issue_comment_url": "https://api.github.com/repos/PrismarineJS/prismarine-chunk/issues/comments{/number}",
            "issue_events_url": "https://api.github.com/repos/PrismarineJS/prismarine-chunk/issues/events{/number}",
            "issues_url": "https://api.github.com/repos/PrismarineJS/prismarine-chunk/issues{/number}",
            "keys_url": "https://api.github.com/repos/PrismarineJS/prismarine-chunk/keys{/key_id}",
            "labels_url": "https://api.github.com/repos/PrismarineJS/prismarine-chunk/labels{/name}",
            "language": "JavaScript",
            "languages_url": "https://api.github.com/repos/PrismarineJS/prismarine-chunk/languages",
            "license": {
                "key": "mit",
                "name": "MIT License",
                "node_id": "MDc6TGljZW5zZTEz",
                "spdx_id": "MIT",
                "url": "https://api.github.com/licenses/mit"
            },
            "merges_url": "https://api.github.com/repos/PrismarineJS/prismarine-chunk/merges",
            "milestones_url": "https://api.github.com/repos/PrismarineJS/prismarine-chunk/milestones{/number}",
            "mirror_url": null,
            "name": "prismarine-chunk",
            "node_id": "MDEwOlJlcG9zaXRvcnkzMTYxNjg5MQ==",
            "notifications_url": "https://api.github.com/repos/PrismarineJS/prismarine-chunk/notifications{?since,all,participating}",
            "open_issues": 14,
            "open_issues_count": 14,
            "owner": {
                "avatar_url": "https://avatars.githubusercontent.com/u/11053411?v=4",
                "events_url": "https://api.github.com/users/PrismarineJS/events{/privacy}",
                "followers_url": "https://api.github.com/users/PrismarineJS/followers",
                "following_url": "https://api.github.com/users/PrismarineJS/following{/other_user}",
                "gists_url": "https://api.github.com/users/PrismarineJS/gists{/gist_id}",
                "gravatar_id": "",
                "html_url": "https://github.com/PrismarineJS",
                "id": 11053411,
                "login": "PrismarineJS",
                "node_id": "MDEyOk9yZ2FuaXphdGlvbjExMDUzNDEx",
                "organizations_url": "https://api.github.com/users/PrismarineJS/orgs",
                "received_events_url": "https://api.github.com/users/PrismarineJS/received_events",
                "repos_url": "https://api.github.com/users/PrismarineJS/repos",
                "site_admin": false,
                "starred_url": "https://api.github.com/users/PrismarineJS/starred{/owner}{/repo}",
                "subscriptions_url": "https://api.github.com/users/PrismarineJS/subscriptions",
                "type": "Organization",
                "url": "https://api.github.com/users/PrismarineJS"
            },
            "private": false,
            "pulls_url": "https://api.github.com/repos/PrismarineJS/prismarine-chunk/pulls{/number}",
            "pushed_at": "2023-04-10T14:10:02Z",
            "releases_url": "https://api.github.com/repos/PrismarineJS/prismarine-chunk/releases{/id}",
            "size": 5254,
            "ssh_url": "git@github.com:PrismarineJS/prismarine-chunk.git",
            "stargazers_count": 57,
            "stargazers_url": "https://api.github.com/repos/PrismarineJS/prismarine-chunk/stargazers",
            "statuses_url": "https://api.github.com/repos/PrismarineJS/prismarine-chunk/statuses/{sha}",
            "subscribers_url": "https://api.github.com/repos/PrismarineJS/prismarine-chunk/subscribers",
            "subscription_url": "https://api.github.com/repos/PrismarineJS/prismarine-chunk/subscription",
            "svn_url": "https://github.com/PrismarineJS/prismarine-chunk",
            "tags_url": "https://api.github.com/repos/PrismarineJS/prismarine-chunk/tags",
            "teams_url": "https://api.github.com/repos/PrismarineJS/prismarine-chunk/teams",
            "topics": [],
            "trees_url": "https://api.github.com/repos/PrismarineJS/prismarine-chunk/git/trees{/sha}",
            "updated_at": "2023-03-10T11:34:57Z",
            "url": "https://api.github.com/repos/PrismarineJS/prismarine-chunk",
            "visibility": "public",
            "watchers": 57,
            "watchers_count": 57,
            "web_commit_signoff_required": false
        },
        "sha": "cce1e5d2f720bd5c5ca2bde4b2fa3a7ff73d43f1",
        "user": {
            "avatar_url": "https://avatars.githubusercontent.com/u/11053411?v=4",
            "events_url": "https://api.github.com/users/PrismarineJS/events{/privacy}",
            "followers_url": "https://api.github.com/users/PrismarineJS/followers",
            "following_url": "https://api.github.com/users/PrismarineJS/following{/other_user}",
            "gists_url": "https://api.github.com/users/PrismarineJS/gists{/gist_id}",
            "gravatar_id": "",
            "html_url": "https://github.com/PrismarineJS",
            "id": 11053411,
            "login": "PrismarineJS",
            "node_id": "MDEyOk9yZ2FuaXphdGlvbjExMDUzNDEx",
            "organizations_url": "https://api.github.com/users/PrismarineJS/orgs",
            "received_events_url": "https://api.github.com/users/PrismarineJS/received_events",
            "repos_url": "https://api.github.com/users/PrismarineJS/repos",
            "site_admin": false,
            "starred_url": "https://api.github.com/users/PrismarineJS/starred{/owner}{/repo}",
            "subscriptions_url": "https://api.github.com/users/PrismarineJS/subscriptions",
            "type": "Organization",
            "url": "https://api.github.com/users/PrismarineJS"
        }
    },
    "body": "@nickelpro fyi\r\n\r\nfixes #158 \r\n\r\nsadly this doesn't find any bug",
    "changed_files": 1,
    "closed_at": "2022-01-12T00:17:53Z",
    "comment_data": [],
    "comment_regular_data": [],
    "comments": 0,
    "comments_url": "https://api.github.com/repos/PrismarineJS/prismarine-chunk/issues/161/comments",
    "commit_data": [
        {
            "author": {
                "avatar_url": "https://avatars.githubusercontent.com/u/2346494?v=4",
                "events_url": "https://api.github.com/users/rom1504/events{/privacy}",
                "followers_url": "https://api.github.com/users/rom1504/followers",
                "following_url": "https://api.github.com/users/rom1504/following{/other_user}",
                "gists_url": "https://api.github.com/users/rom1504/gists{/gist_id}",
                "gravatar_id": "",
                "html_url": "https://github.com/rom1504",
                "id": 2346494,
                "login": "rom1504",
                "node_id": "MDQ6VXNlcjIzNDY0OTQ=",
                "organizations_url": "https://api.github.com/users/rom1504/orgs",
                "received_events_url": "https://api.github.com/users/rom1504/received_events",
                "repos_url": "https://api.github.com/users/rom1504/repos",
                "site_admin": false,
                "starred_url": "https://api.github.com/users/rom1504/starred{/owner}{/repo}",
                "subscriptions_url": "https://api.github.com/users/rom1504/subscriptions",
                "type": "User",
                "url": "https://api.github.com/users/rom1504"
            },
            "comments_url": "https://api.github.com/repos/PrismarineJS/prismarine-chunk/commits/3ee15244c254b6981120363621f46daea679e177/comments",
            "commit": {
                "author": {
                    "date": "2022-01-12T00:12:02Z",
                    "email": "romain.rom1@gmail.com",
                    "name": "Romain Beaumont"
                },
                "comment_count": 0,
                "committer": {
                    "date": "2022-01-12T00:12:02Z",
                    "email": "romain.rom1@gmail.com",
                    "name": "Romain Beaumont"
                },
                "message": "histogram test",
                "tree": {
                    "sha": "db0c3c6a288c33631f280a0ee7bf65aa39b66839",
                    "url": "https://api.github.com/repos/PrismarineJS/prismarine-chunk/git/trees/db0c3c6a288c33631f280a0ee7bf65aa39b66839"
                },
                "url": "https://api.github.com/repos/PrismarineJS/prismarine-chunk/git/commits/3ee15244c254b6981120363621f46daea679e177",
                "verification": {
                    "payload": null,
                    "reason": "unsigned",
                    "signature": null,
                    "verified": false
                }
            },
            "committer": {
                "avatar_url": "https://avatars.githubusercontent.com/u/2346494?v=4",
                "events_url": "https://api.github.com/users/rom1504/events{/privacy}",
                "followers_url": "https://api.github.com/users/rom1504/followers",
                "following_url": "https://api.github.com/users/rom1504/following{/other_user}",
                "gists_url": "https://api.github.com/users/rom1504/gists{/gist_id}",
                "gravatar_id": "",
                "html_url": "https://github.com/rom1504",
                "id": 2346494,
                "login": "rom1504",
                "node_id": "MDQ6VXNlcjIzNDY0OTQ=",
                "organizations_url": "https://api.github.com/users/rom1504/orgs",
                "received_events_url": "https://api.github.com/users/rom1504/received_events",
                "repos_url": "https://api.github.com/users/rom1504/repos",
                "site_admin": false,
                "starred_url": "https://api.github.com/users/rom1504/starred{/owner}{/repo}",
                "subscriptions_url": "https://api.github.com/users/rom1504/subscriptions",
                "type": "User",
                "url": "https://api.github.com/users/rom1504"
            },
            "html_url": "https://github.com/PrismarineJS/prismarine-chunk/commit/3ee15244c254b6981120363621f46daea679e177",
            "node_id": "C_kwDOAeJve9oAKDNlZTE1MjQ0YzI1NGI2OTgxMTIwMzYzNjIxZjQ2ZGFlYTY3OWUxNzc",
            "parents": [
                {
                    "html_url": "https://github.com/PrismarineJS/prismarine-chunk/commit/cce1e5d2f720bd5c5ca2bde4b2fa3a7ff73d43f1",
                    "sha": "cce1e5d2f720bd5c5ca2bde4b2fa3a7ff73d43f1",
                    "url": "https://api.github.com/repos/PrismarineJS/prismarine-chunk/commits/cce1e5d2f720bd5c5ca2bde4b2fa3a7ff73d43f1"
                }
            ],
            "sha": "3ee15244c254b6981120363621f46daea679e177",
            "url": "https://api.github.com/repos/PrismarineJS/prismarine-chunk/commits/3ee15244c254b6981120363621f46daea679e177"
        }
    ],
    "commits": 1,
    "commits_url": "https://api.github.com/repos/PrismarineJS/prismarine-chunk/pulls/161/commits",
    "created_at": "2022-01-12T00:12:34Z",
    "deletions": 0,
    "diff_url": "https://github.com/PrismarineJS/prismarine-chunk/pull/161.diff",
    "draft": false,
    "head": {
        "label": "PrismarineJS:add_histogram_test",
        "ref": "add_histogram_test",
        "repo": {
            "allow_forking": true,
            "archive_url": "https://api.github.com/repos/PrismarineJS/prismarine-chunk/{archive_format}{/ref}",
            "archived": false,
            "assignees_url": "https://api.github.com/repos/PrismarineJS/prismarine-chunk/assignees{/user}",
            "blobs_url": "https://api.github.com/repos/PrismarineJS/prismarine-chunk/git/blobs{/sha}",
            "branches_url": "https://api.github.com/repos/PrismarineJS/prismarine-chunk/branches{/branch}",
            "clone_url": "https://github.com/PrismarineJS/prismarine-chunk.git",
            "collaborators_url": "https://api.github.com/repos/PrismarineJS/prismarine-chunk/collaborators{/collaborator}",
            "comments_url": "https://api.github.com/repos/PrismarineJS/prismarine-chunk/comments{/number}",
            "commits_url": "https://api.github.com/repos/PrismarineJS/prismarine-chunk/commits{/sha}",
            "compare_url": "https://api.github.com/repos/PrismarineJS/prismarine-chunk/compare/{base}...{head}",
            "contents_url": "https://api.github.com/repos/PrismarineJS/prismarine-chunk/contents/{+path}",
            "contributors_url": "https://api.github.com/repos/PrismarineJS/prismarine-chunk/contributors",
            "created_at": "2015-03-03T19:28:14Z",
            "default_branch": "master",
            "deployments_url": "https://api.github.com/repos/PrismarineJS/prismarine-chunk/deployments",
            "description": "A class to hold chunk data for Minecraft",
            "disabled": false,
            "downloads_url": "https://api.github.com/repos/PrismarineJS/prismarine-chunk/downloads",
            "events_url": "https://api.github.com/repos/PrismarineJS/prismarine-chunk/events",
            "fork": false,
            "forks": 47,
            "forks_count": 47,
            "forks_url": "https://api.github.com/repos/PrismarineJS/prismarine-chunk/forks",
            "full_name": "PrismarineJS/prismarine-chunk",
            "git_commits_url": "https://api.github.com/repos/PrismarineJS/prismarine-chunk/git/commits{/sha}",
            "git_refs_url": "https://api.github.com/repos/PrismarineJS/prismarine-chunk/git/refs{/sha}",
            "git_tags_url": "https://api.github.com/repos/PrismarineJS/prismarine-chunk/git/tags{/sha}",
            "git_url": "git://github.com/PrismarineJS/prismarine-chunk.git",
            "has_discussions": false,
            "has_downloads": true,
            "has_issues": true,
            "has_pages": false,
            "has_projects": true,
            "has_wiki": true,
            "homepage": "",
            "hooks_url": "https://api.github.com/repos/PrismarineJS/prismarine-chunk/hooks",
            "html_url": "https://github.com/PrismarineJS/prismarine-chunk",
            "id": 31616891,
            "is_template": false,
            "issue_comment_url": "https://api.github.com/repos/PrismarineJS/prismarine-chunk/issues/comments{/number}",
            "issue_events_url": "https://api.github.com/repos/PrismarineJS/prismarine-chunk/issues/events{/number}",
            "issues_url": "https://api.github.com/repos/PrismarineJS/prismarine-chunk/issues{/number}",
            "keys_url": "https://api.github.com/repos/PrismarineJS/prismarine-chunk/keys{/key_id}",
            "labels_url": "https://api.github.com/repos/PrismarineJS/prismarine-chunk/labels{/name}",
            "language": "JavaScript",
            "languages_url": "https://api.github.com/repos/PrismarineJS/prismarine-chunk/languages",
            "license": {
                "key": "mit",
                "name": "MIT License",
                "node_id": "MDc6TGljZW5zZTEz",
                "spdx_id": "MIT",
                "url": "https://api.github.com/licenses/mit"
            },
            "merges_url": "https://api.github.com/repos/PrismarineJS/prismarine-chunk/merges",
            "milestones_url": "https://api.github.com/repos/PrismarineJS/prismarine-chunk/milestones{/number}",
            "mirror_url": null,
            "name": "prismarine-chunk",
            "node_id": "MDEwOlJlcG9zaXRvcnkzMTYxNjg5MQ==",
            "notifications_url": "https://api.github.com/repos/PrismarineJS/prismarine-chunk/notifications{?since,all,participating}",
            "open_issues": 14,
            "open_issues_count": 14,
            "owner": {
                "avatar_url": "https://avatars.githubusercontent.com/u/11053411?v=4",
                "events_url": "https://api.github.com/users/PrismarineJS/events{/privacy}",
                "followers_url": "https://api.github.com/users/PrismarineJS/followers",
                "following_url": "https://api.github.com/users/PrismarineJS/following{/other_user}",
                "gists_url": "https://api.github.com/users/PrismarineJS/gists{/gist_id}",
                "gravatar_id": "",
                "html_url": "https://github.com/PrismarineJS",
                "id": 11053411,
                "login": "PrismarineJS",
                "node_id": "MDEyOk9yZ2FuaXphdGlvbjExMDUzNDEx",
                "organizations_url": "https://api.github.com/users/PrismarineJS/orgs",
                "received_events_url": "https://api.github.com/users/PrismarineJS/received_events",
                "repos_url": "https://api.github.com/users/PrismarineJS/repos",
                "site_admin": false,
                "starred_url": "https://api.github.com/users/PrismarineJS/starred{/owner}{/repo}",
                "subscriptions_url": "https://api.github.com/users/PrismarineJS/subscriptions",
                "type": "Organization",
                "url": "https://api.github.com/users/PrismarineJS"
            },
            "private": false,
            "pulls_url": "https://api.github.com/repos/PrismarineJS/prismarine-chunk/pulls{/number}",
            "pushed_at": "2023-04-10T14:10:02Z",
            "releases_url": "https://api.github.com/repos/PrismarineJS/prismarine-chunk/releases{/id}",
            "size": 5254,
            "ssh_url": "git@github.com:PrismarineJS/prismarine-chunk.git",
            "stargazers_count": 57,
            "stargazers_url": "https://api.github.com/repos/PrismarineJS/prismarine-chunk/stargazers",
            "statuses_url": "https://api.github.com/repos/PrismarineJS/prismarine-chunk/statuses/{sha}",
            "subscribers_url": "https://api.github.com/repos/PrismarineJS/prismarine-chunk/subscribers",
            "subscription_url": "https://api.github.com/repos/PrismarineJS/prismarine-chunk/subscription",
            "svn_url": "https://github.com/PrismarineJS/prismarine-chunk",
            "tags_url": "https://api.github.com/repos/PrismarineJS/prismarine-chunk/tags",
            "teams_url": "https://api.github.com/repos/PrismarineJS/prismarine-chunk/teams",
            "topics": [],
            "trees_url": "https://api.github.com/repos/PrismarineJS/prismarine-chunk/git/trees{/sha}",
            "updated_at": "2023-03-10T11:34:57Z",
            "url": "https://api.github.com/repos/PrismarineJS/prismarine-chunk",
            "visibility": "public",
            "watchers": 57,
            "watchers_count": 57,
            "web_commit_signoff_required": false
        },
        "sha": "3ee15244c254b6981120363621f46daea679e177",
        "user": {
            "avatar_url": "https://avatars.githubusercontent.com/u/11053411?v=4",
            "events_url": "https://api.github.com/users/PrismarineJS/events{/privacy}",
            "followers_url": "https://api.github.com/users/PrismarineJS/followers",
            "following_url": "https://api.github.com/users/PrismarineJS/following{/other_user}",
            "gists_url": "https://api.github.com/users/PrismarineJS/gists{/gist_id}",
            "gravatar_id": "",
            "html_url": "https://github.com/PrismarineJS",
            "id": 11053411,
            "login": "PrismarineJS",
            "node_id": "MDEyOk9yZ2FuaXphdGlvbjExMDUzNDEx",
            "organizations_url": "https://api.github.com/users/PrismarineJS/orgs",
            "received_events_url": "https://api.github.com/users/PrismarineJS/received_events",
            "repos_url": "https://api.github.com/users/PrismarineJS/repos",
            "site_admin": false,
            "starred_url": "https://api.github.com/users/PrismarineJS/starred{/owner}{/repo}",
            "subscriptions_url": "https://api.github.com/users/PrismarineJS/subscriptions",
            "type": "Organization",
            "url": "https://api.github.com/users/PrismarineJS"
        }
    },
    "html_url": "https://github.com/PrismarineJS/prismarine-chunk/pull/161",
    "id": 819196019,
    "issue_url": "https://api.github.com/repos/PrismarineJS/prismarine-chunk/issues/161",
    "labels": [],
    "locked": false,
    "maintainer_can_modify": false,
    "merge_commit_sha": "2ea0509b3f3353a16968cbde5d8a9393b1cce3d8",
    "mergeable": null,
    "mergeable_state": "unknown",
    "merged": true,
    "merged_at": "2022-01-12T00:17:53Z",
    "merged_by": {
        "avatar_url": "https://avatars.githubusercontent.com/u/2346494?v=4",
        "events_url": "https://api.github.com/users/rom1504/events{/privacy}",
        "followers_url": "https://api.github.com/users/rom1504/followers",
        "following_url": "https://api.github.com/users/rom1504/following{/other_user}",
        "gists_url": "https://api.github.com/users/rom1504/gists{/gist_id}",
        "gravatar_id": "",
        "html_url": "https://github.com/rom1504",
        "id": 2346494,
        "login": "rom1504",
        "node_id": "MDQ6VXNlcjIzNDY0OTQ=",
        "organizations_url": "https://api.github.com/users/rom1504/orgs",
        "received_events_url": "https://api.github.com/users/rom1504/received_events",
        "repos_url": "https://api.github.com/users/rom1504/repos",
        "site_admin": false,
        "starred_url": "https://api.github.com/users/rom1504/starred{/owner}{/repo}",
        "subscriptions_url": "https://api.github.com/users/rom1504/subscriptions",
        "type": "User",
        "url": "https://api.github.com/users/rom1504"
    },
    "milestone": null,
    "node_id": "PR_kwDOAeJve84w0_Bz",
    "number": 161,
    "patch_url": "https://github.com/PrismarineJS/prismarine-chunk/pull/161.patch",
    "rebaseable": null,
    "requested_reviewers": [],
    "requested_teams": [],
    "review_comment_url": "https://api.github.com/repos/PrismarineJS/prismarine-chunk/pulls/comments{/number}",
    "review_comments": 0,
    "review_comments_url": "https://api.github.com/repos/PrismarineJS/prismarine-chunk/pulls/161/comments",
    "state": "closed",
    "statuses_url": "https://api.github.com/repos/PrismarineJS/prismarine-chunk/statuses/3ee15244c254b6981120363621f46daea679e177",
    "title": "histogram test",
    "updated_at": "2022-01-12T00:17:56Z",
    "url": "https://api.github.com/repos/PrismarineJS/prismarine-chunk/pulls/161",
    "user": {
        "avatar_url": "https://avatars.githubusercontent.com/u/2346494?v=4",
        "events_url": "https://api.github.com/users/rom1504/events{/privacy}",
        "followers_url": "https://api.github.com/users/rom1504/followers",
        "following_url": "https://api.github.com/users/rom1504/following{/other_user}",
        "gists_url": "https://api.github.com/users/rom1504/gists{/gist_id}",
        "gravatar_id": "",
        "html_url": "https://github.com/rom1504",
        "id": 2346494,
        "login": "rom1504",
        "node_id": "MDQ6VXNlcjIzNDY0OTQ=",
        "organizations_url": "https://api.github.com/users/rom1504/orgs",
        "received_events_url": "https://api.github.com/users/rom1504/received_events",
        "repos_url": "https://api.github.com/users/rom1504/repos",
        "site_admin": false,
        "starred_url": "https://api.github.com/users/rom1504/starred{/owner}{/repo}",
        "subscriptions_url": "https://api.github.com/users/rom1504/subscriptions",
        "type": "User",
        "url": "https://api.github.com/users/rom1504"
    }
}