{
    "active_lock_reason": null,
    "assignee": null,
    "assignees": [],
    "author_association": "NONE",
    "body": "is it possible to change createClient from minecraft-protocol to createBot from mineflayer?",
    "closed_at": "2022-06-08T11:04:13Z",
    "comment_data": [
        {
            "author_association": "NONE",
            "body": "Okay, i figured out how to do this by looking at the mineflayer source code.\r\n\r\nhttps://github.com/PrismarineJS/mineflayer/blob/9497b67d85082317bf7bf7a19427ed9371cb2f49/lib/loader.js#L94\r\nhttps://github.com/PrismarineJS/mineflayer/blob/9497b67d85082317bf7bf7a19427ed9371cb2f49/lib/loader.js#L71\r\n\r\nas a result:\r\n`const bot =  mineflayer.createBot({\r\n      client: toServer,\r\n      ...this.options.clientOptions\r\n})`\r\n\r\n",
            "created_at": "2022-06-08T11:04:13Z",
            "html_url": "https://github.com/PrismarineJS/prismarine-proxy/issues/32#issuecomment-1149773424",
            "id": 1149773424,
            "issue_url": "https://api.github.com/repos/PrismarineJS/prismarine-proxy/issues/32",
            "node_id": "IC_kwDOEIjF885EiCZw",
            "performed_via_github_app": null,
            "reactions": {
                "+1": 0,
                "-1": 0,
                "confused": 0,
                "eyes": 0,
                "heart": 0,
                "hooray": 0,
                "laugh": 0,
                "rocket": 0,
                "total_count": 0,
                "url": "https://api.github.com/repos/PrismarineJS/prismarine-proxy/issues/comments/1149773424/reactions"
            },
            "updated_at": "2022-06-08T11:08:56Z",
            "url": "https://api.github.com/repos/PrismarineJS/prismarine-proxy/issues/comments/1149773424",
            "user": {
                "avatar_url": "https://avatars.githubusercontent.com/u/89218967?v=4",
                "events_url": "https://api.github.com/users/ItsOnlyMyUsername/events{/privacy}",
                "followers_url": "https://api.github.com/users/ItsOnlyMyUsername/followers",
                "following_url": "https://api.github.com/users/ItsOnlyMyUsername/following{/other_user}",
                "gists_url": "https://api.github.com/users/ItsOnlyMyUsername/gists{/gist_id}",
                "gravatar_id": "",
                "html_url": "https://github.com/ItsOnlyMyUsername",
                "id": 89218967,
                "login": "ItsOnlyMyUsername",
                "node_id": "MDQ6VXNlcjg5MjE4OTY3",
                "organizations_url": "https://api.github.com/users/ItsOnlyMyUsername/orgs",
                "received_events_url": "https://api.github.com/users/ItsOnlyMyUsername/received_events",
                "repos_url": "https://api.github.com/users/ItsOnlyMyUsername/repos",
                "site_admin": false,
                "starred_url": "https://api.github.com/users/ItsOnlyMyUsername/starred{/owner}{/repo}",
                "subscriptions_url": "https://api.github.com/users/ItsOnlyMyUsername/subscriptions",
                "type": "User",
                "url": "https://api.github.com/users/ItsOnlyMyUsername"
            }
        }
    ],
    "comments": 1,
    "comments_url": "https://api.github.com/repos/PrismarineJS/prismarine-proxy/issues/32/comments",
    "created_at": "2022-06-08T10:02:15Z",
    "event_data": [
        {
            "actor": {
                "avatar_url": "https://avatars.githubusercontent.com/u/89218967?v=4",
                "events_url": "https://api.github.com/users/ItsOnlyMyUsername/events{/privacy}",
                "followers_url": "https://api.github.com/users/ItsOnlyMyUsername/followers",
                "following_url": "https://api.github.com/users/ItsOnlyMyUsername/following{/other_user}",
                "gists_url": "https://api.github.com/users/ItsOnlyMyUsername/gists{/gist_id}",
                "gravatar_id": "",
                "html_url": "https://github.com/ItsOnlyMyUsername",
                "id": 89218967,
                "login": "ItsOnlyMyUsername",
                "node_id": "MDQ6VXNlcjg5MjE4OTY3",
                "organizations_url": "https://api.github.com/users/ItsOnlyMyUsername/orgs",
                "received_events_url": "https://api.github.com/users/ItsOnlyMyUsername/received_events",
                "repos_url": "https://api.github.com/users/ItsOnlyMyUsername/repos",
                "site_admin": false,
                "starred_url": "https://api.github.com/users/ItsOnlyMyUsername/starred{/owner}{/repo}",
                "subscriptions_url": "https://api.github.com/users/ItsOnlyMyUsername/subscriptions",
                "type": "User",
                "url": "https://api.github.com/users/ItsOnlyMyUsername"
            },
            "commit_id": null,
            "commit_url": null,
            "created_at": "2022-06-08T11:04:13Z",
            "event": "closed",
            "id": 6768812673,
            "node_id": "CE_lADOEIjF885LXr2fzwAAAAGTc-KB",
            "performed_via_github_app": null,
            "state_reason": null,
            "url": "https://api.github.com/repos/PrismarineJS/prismarine-proxy/issues/events/6768812673"
        }
    ],
    "events_url": "https://api.github.com/repos/PrismarineJS/prismarine-proxy/issues/32/events",
    "html_url": "https://github.com/PrismarineJS/prismarine-proxy/issues/32",
    "id": 1264500127,
    "labels": [],
    "labels_url": "https://api.github.com/repos/PrismarineJS/prismarine-proxy/issues/32/labels{/name}",
    "locked": false,
    "milestone": null,
    "node_id": "I_kwDOEIjF885LXr2f",
    "number": 32,
    "performed_via_github_app": null,
    "reactions": {
        "+1": 0,
        "-1": 0,
        "confused": 0,
        "eyes": 0,
        "heart": 0,
        "hooray": 0,
        "laugh": 0,
        "rocket": 0,
        "total_count": 0,
        "url": "https://api.github.com/repos/PrismarineJS/prismarine-proxy/issues/32/reactions"
    },
    "repository_url": "https://api.github.com/repos/PrismarineJS/prismarine-proxy",
    "state": "closed",
    "state_reason": "completed",
    "timeline_url": "https://api.github.com/repos/PrismarineJS/prismarine-proxy/issues/32/timeline",
    "title": "mineflayer",
    "updated_at": "2022-06-08T11:08:56Z",
    "url": "https://api.github.com/repos/PrismarineJS/prismarine-proxy/issues/32",
    "user": {
        "avatar_url": "https://avatars.githubusercontent.com/u/89218967?v=4",
        "events_url": "https://api.github.com/users/ItsOnlyMyUsername/events{/privacy}",
        "followers_url": "https://api.github.com/users/ItsOnlyMyUsername/followers",
        "following_url": "https://api.github.com/users/ItsOnlyMyUsername/following{/other_user}",
        "gists_url": "https://api.github.com/users/ItsOnlyMyUsername/gists{/gist_id}",
        "gravatar_id": "",
        "html_url": "https://github.com/ItsOnlyMyUsername",
        "id": 89218967,
        "login": "ItsOnlyMyUsername",
        "node_id": "MDQ6VXNlcjg5MjE4OTY3",
        "organizations_url": "https://api.github.com/users/ItsOnlyMyUsername/orgs",
        "received_events_url": "https://api.github.com/users/ItsOnlyMyUsername/received_events",
        "repos_url": "https://api.github.com/users/ItsOnlyMyUsername/repos",
        "site_admin": false,
        "starred_url": "https://api.github.com/users/ItsOnlyMyUsername/starred{/owner}{/repo}",
        "subscriptions_url": "https://api.github.com/users/ItsOnlyMyUsername/subscriptions",
        "type": "User",
        "url": "https://api.github.com/users/ItsOnlyMyUsername"
    }
}