{
    "_links": {
        "comments": {
            "href": "https://api.github.com/repos/PrismarineJS/mineflayer-statemachine/issues/143/comments"
        },
        "commits": {
            "href": "https://api.github.com/repos/PrismarineJS/mineflayer-statemachine/pulls/143/commits"
        },
        "html": {
            "href": "https://github.com/PrismarineJS/mineflayer-statemachine/pull/143"
        },
        "issue": {
            "href": "https://api.github.com/repos/PrismarineJS/mineflayer-statemachine/issues/143"
        },
        "review_comment": {
            "href": "https://api.github.com/repos/PrismarineJS/mineflayer-statemachine/pulls/comments{/number}"
        },
        "review_comments": {
            "href": "https://api.github.com/repos/PrismarineJS/mineflayer-statemachine/pulls/143/comments"
        },
        "self": {
            "href": "https://api.github.com/repos/PrismarineJS/mineflayer-statemachine/pulls/143"
        },
        "statuses": {
            "href": "https://api.github.com/repos/PrismarineJS/mineflayer-statemachine/statuses/6cb274860c9bcaae7fc3cb23b8f17569262161bc"
        }
    },
    "active_lock_reason": null,
    "additions": 1,
    "assignee": null,
    "assignees": [],
    "author_association": "CONTRIBUTOR",
    "auto_merge": null,
    "base": {
        "label": "PrismarineJS:master",
        "ref": "master",
        "repo": {
            "allow_forking": true,
            "archive_url": "https://api.github.com/repos/PrismarineJS/mineflayer-statemachine/{archive_format}{/ref}",
            "archived": false,
            "assignees_url": "https://api.github.com/repos/PrismarineJS/mineflayer-statemachine/assignees{/user}",
            "blobs_url": "https://api.github.com/repos/PrismarineJS/mineflayer-statemachine/git/blobs{/sha}",
            "branches_url": "https://api.github.com/repos/PrismarineJS/mineflayer-statemachine/branches{/branch}",
            "clone_url": "https://github.com/PrismarineJS/mineflayer-statemachine.git",
            "collaborators_url": "https://api.github.com/repos/PrismarineJS/mineflayer-statemachine/collaborators{/collaborator}",
            "comments_url": "https://api.github.com/repos/PrismarineJS/mineflayer-statemachine/comments{/number}",
            "commits_url": "https://api.github.com/repos/PrismarineJS/mineflayer-statemachine/commits{/sha}",
            "compare_url": "https://api.github.com/repos/PrismarineJS/mineflayer-statemachine/compare/{base}...{head}",
            "contents_url": "https://api.github.com/repos/PrismarineJS/mineflayer-statemachine/contents/{+path}",
            "contributors_url": "https://api.github.com/repos/PrismarineJS/mineflayer-statemachine/contributors",
            "created_at": "2020-06-14T09:15:31Z",
            "default_branch": "master",
            "deployments_url": "https://api.github.com/repos/PrismarineJS/mineflayer-statemachine/deployments",
            "description": "A state machine plugin for Mineflayer to aid in designing more complex behavior trees.",
            "disabled": false,
            "downloads_url": "https://api.github.com/repos/PrismarineJS/mineflayer-statemachine/downloads",
            "events_url": "https://api.github.com/repos/PrismarineJS/mineflayer-statemachine/events",
            "fork": false,
            "forks": 22,
            "forks_count": 22,
            "forks_url": "https://api.github.com/repos/PrismarineJS/mineflayer-statemachine/forks",
            "full_name": "PrismarineJS/mineflayer-statemachine",
            "git_commits_url": "https://api.github.com/repos/PrismarineJS/mineflayer-statemachine/git/commits{/sha}",
            "git_refs_url": "https://api.github.com/repos/PrismarineJS/mineflayer-statemachine/git/refs{/sha}",
            "git_tags_url": "https://api.github.com/repos/PrismarineJS/mineflayer-statemachine/git/tags{/sha}",
            "git_url": "git://github.com/PrismarineJS/mineflayer-statemachine.git",
            "has_discussions": false,
            "has_downloads": true,
            "has_issues": true,
            "has_pages": true,
            "has_projects": false,
            "has_wiki": false,
            "homepage": "https://thedudefromci.github.io/mineflayer-statemachine/",
            "hooks_url": "https://api.github.com/repos/PrismarineJS/mineflayer-statemachine/hooks",
            "html_url": "https://github.com/PrismarineJS/mineflayer-statemachine",
            "id": 272168779,
            "is_template": false,
            "issue_comment_url": "https://api.github.com/repos/PrismarineJS/mineflayer-statemachine/issues/comments{/number}",
            "issue_events_url": "https://api.github.com/repos/PrismarineJS/mineflayer-statemachine/issues/events{/number}",
            "issues_url": "https://api.github.com/repos/PrismarineJS/mineflayer-statemachine/issues{/number}",
            "keys_url": "https://api.github.com/repos/PrismarineJS/mineflayer-statemachine/keys{/key_id}",
            "labels_url": "https://api.github.com/repos/PrismarineJS/mineflayer-statemachine/labels{/name}",
            "language": "TypeScript",
            "languages_url": "https://api.github.com/repos/PrismarineJS/mineflayer-statemachine/languages",
            "license": {
                "key": "mit",
                "name": "MIT License",
                "node_id": "MDc6TGljZW5zZTEz",
                "spdx_id": "MIT",
                "url": "https://api.github.com/licenses/mit"
            },
            "merges_url": "https://api.github.com/repos/PrismarineJS/mineflayer-statemachine/merges",
            "milestones_url": "https://api.github.com/repos/PrismarineJS/mineflayer-statemachine/milestones{/number}",
            "mirror_url": null,
            "name": "mineflayer-statemachine",
            "node_id": "MDEwOlJlcG9zaXRvcnkyNzIxNjg3Nzk=",
            "notifications_url": "https://api.github.com/repos/PrismarineJS/mineflayer-statemachine/notifications{?since,all,participating}",
            "open_issues": 19,
            "open_issues_count": 19,
            "owner": {
                "avatar_url": "https://avatars.githubusercontent.com/u/11053411?v=4",
                "events_url": "https://api.github.com/users/PrismarineJS/events{/privacy}",
                "followers_url": "https://api.github.com/users/PrismarineJS/followers",
                "following_url": "https://api.github.com/users/PrismarineJS/following{/other_user}",
                "gists_url": "https://api.github.com/users/PrismarineJS/gists{/gist_id}",
                "gravatar_id": "",
                "html_url": "https://github.com/PrismarineJS",
                "id": 11053411,
                "login": "PrismarineJS",
                "node_id": "MDEyOk9yZ2FuaXphdGlvbjExMDUzNDEx",
                "organizations_url": "https://api.github.com/users/PrismarineJS/orgs",
                "received_events_url": "https://api.github.com/users/PrismarineJS/received_events",
                "repos_url": "https://api.github.com/users/PrismarineJS/repos",
                "site_admin": false,
                "starred_url": "https://api.github.com/users/PrismarineJS/starred{/owner}{/repo}",
                "subscriptions_url": "https://api.github.com/users/PrismarineJS/subscriptions",
                "type": "Organization",
                "url": "https://api.github.com/users/PrismarineJS"
            },
            "private": false,
            "pulls_url": "https://api.github.com/repos/PrismarineJS/mineflayer-statemachine/pulls{/number}",
            "pushed_at": "2023-04-10T16:58:45Z",
            "releases_url": "https://api.github.com/repos/PrismarineJS/mineflayer-statemachine/releases{/id}",
            "size": 652,
            "ssh_url": "git@github.com:PrismarineJS/mineflayer-statemachine.git",
            "stargazers_count": 74,
            "stargazers_url": "https://api.github.com/repos/PrismarineJS/mineflayer-statemachine/stargazers",
            "statuses_url": "https://api.github.com/repos/PrismarineJS/mineflayer-statemachine/statuses/{sha}",
            "subscribers_url": "https://api.github.com/repos/PrismarineJS/mineflayer-statemachine/subscribers",
            "subscription_url": "https://api.github.com/repos/PrismarineJS/mineflayer-statemachine/subscription",
            "svn_url": "https://github.com/PrismarineJS/mineflayer-statemachine",
            "tags_url": "https://api.github.com/repos/PrismarineJS/mineflayer-statemachine/tags",
            "teams_url": "https://api.github.com/repos/PrismarineJS/mineflayer-statemachine/teams",
            "topics": [
                "ai",
                "bot",
                "minecraft",
                "mineflayer",
                "state-machine"
            ],
            "trees_url": "https://api.github.com/repos/PrismarineJS/mineflayer-statemachine/git/trees{/sha}",
            "updated_at": "2023-04-24T19:33:38Z",
            "url": "https://api.github.com/repos/PrismarineJS/mineflayer-statemachine",
            "visibility": "public",
            "watchers": 74,
            "watchers_count": 74,
            "web_commit_signoff_required": false
        },
        "sha": "126afc7ea3fae9b15fd5b28bfab95e3a45e4f8aa",
        "user": {
            "avatar_url": "https://avatars.githubusercontent.com/u/11053411?v=4",
            "events_url": "https://api.github.com/users/PrismarineJS/events{/privacy}",
            "followers_url": "https://api.github.com/users/PrismarineJS/followers",
            "following_url": "https://api.github.com/users/PrismarineJS/following{/other_user}",
            "gists_url": "https://api.github.com/users/PrismarineJS/gists{/gist_id}",
            "gravatar_id": "",
            "html_url": "https://github.com/PrismarineJS",
            "id": 11053411,
            "login": "PrismarineJS",
            "node_id": "MDEyOk9yZ2FuaXphdGlvbjExMDUzNDEx",
            "organizations_url": "https://api.github.com/users/PrismarineJS/orgs",
            "received_events_url": "https://api.github.com/users/PrismarineJS/received_events",
            "repos_url": "https://api.github.com/users/PrismarineJS/repos",
            "site_admin": false,
            "starred_url": "https://api.github.com/users/PrismarineJS/starred{/owner}{/repo}",
            "subscriptions_url": "https://api.github.com/users/PrismarineJS/subscriptions",
            "type": "Organization",
            "url": "https://api.github.com/users/PrismarineJS"
        }
    },
    "body": "Bumps [@types/node](https://github.com/DefinitelyTyped/DefinitelyTyped/tree/HEAD/types/node) from 17.0.45 to 18.0.1.\n<details>\n<summary>Commits</summary>\n<ul>\n<li>See full diff in <a href=\"https://github.com/DefinitelyTyped/DefinitelyTyped/commits/HEAD/types/node\">compare view</a></li>\n</ul>\n</details>\n<br />\n\n\n[![Dependabot compatibility score](https://dependabot-badges.githubapp.com/badges/compatibility_score?dependency-name=@types/node&package-manager=npm_and_yarn&previous-version=17.0.45&new-version=18.0.1)](https://docs.github.com/en/github/managing-security-vulnerabilities/about-dependabot-security-updates#about-compatibility-scores)\n\nDependabot will resolve any conflicts with this PR as long as you don't alter it yourself. You can also trigger a rebase manually by commenting `@dependabot rebase`.\n\n[//]: # (dependabot-automerge-start)\n[//]: # (dependabot-automerge-end)\n\n---\n\n<details>\n<summary>Dependabot commands and options</summary>\n<br />\n\nYou can trigger Dependabot actions by commenting on this PR:\n- `@dependabot rebase` will rebase this PR\n- `@dependabot recreate` will recreate this PR, overwriting any edits that have been made to it\n- `@dependabot merge` will merge this PR after your CI passes on it\n- `@dependabot squash and merge` will squash and merge this PR after your CI passes on it\n- `@dependabot cancel merge` will cancel a previously requested merge and block automerging\n- `@dependabot reopen` will reopen this PR if it is closed\n- `@dependabot close` will close this PR and stop Dependabot recreating it. You can achieve the same result by closing it manually\n- `@dependabot ignore this major version` will close this PR and stop Dependabot creating any more for this major version (unless you reopen the PR or upgrade to it yourself)\n- `@dependabot ignore this minor version` will close this PR and stop Dependabot creating any more for this minor version (unless you reopen the PR or upgrade to it yourself)\n- `@dependabot ignore this dependency` will close this PR and stop Dependabot creating any more for this dependency (unless you reopen the PR or upgrade to it yourself)\n\n\n</details>",
    "changed_files": 1,
    "closed_at": "2022-07-06T16:23:41Z",
    "comment_data": [],
    "comment_regular_data": [
        {
            "author_association": "CONTRIBUTOR",
            "body": "Superseded by #144.",
            "created_at": "2022-07-06T16:23:41Z",
            "html_url": "https://github.com/PrismarineJS/mineflayer-statemachine/pull/143#issuecomment-1176426176",
            "id": 1176426176,
            "issue_url": "https://api.github.com/repos/PrismarineJS/mineflayer-statemachine/issues/143",
            "node_id": "IC_kwDOEDj3S85GHtbA",
            "performed_via_github_app": null,
            "reactions": {
                "+1": 0,
                "-1": 0,
                "confused": 0,
                "eyes": 0,
                "heart": 0,
                "hooray": 0,
                "laugh": 0,
                "rocket": 0,
                "total_count": 0,
                "url": "https://api.github.com/repos/PrismarineJS/mineflayer-statemachine/issues/comments/1176426176/reactions"
            },
            "updated_at": "2022-07-06T16:23:41Z",
            "url": "https://api.github.com/repos/PrismarineJS/mineflayer-statemachine/issues/comments/1176426176",
            "user": {
                "avatar_url": "https://avatars.githubusercontent.com/in/29110?v=4",
                "events_url": "https://api.github.com/users/dependabot%5Bbot%5D/events{/privacy}",
                "followers_url": "https://api.github.com/users/dependabot%5Bbot%5D/followers",
                "following_url": "https://api.github.com/users/dependabot%5Bbot%5D/following{/other_user}",
                "gists_url": "https://api.github.com/users/dependabot%5Bbot%5D/gists{/gist_id}",
                "gravatar_id": "",
                "html_url": "https://github.com/apps/dependabot",
                "id": 49699333,
                "login": "dependabot[bot]",
                "node_id": "MDM6Qm90NDk2OTkzMzM=",
                "organizations_url": "https://api.github.com/users/dependabot%5Bbot%5D/orgs",
                "received_events_url": "https://api.github.com/users/dependabot%5Bbot%5D/received_events",
                "repos_url": "https://api.github.com/users/dependabot%5Bbot%5D/repos",
                "site_admin": false,
                "starred_url": "https://api.github.com/users/dependabot%5Bbot%5D/starred{/owner}{/repo}",
                "subscriptions_url": "https://api.github.com/users/dependabot%5Bbot%5D/subscriptions",
                "type": "Bot",
                "url": "https://api.github.com/users/dependabot%5Bbot%5D"
            }
        }
    ],
    "comments": 1,
    "comments_url": "https://api.github.com/repos/PrismarineJS/mineflayer-statemachine/issues/143/comments",
    "commit_data": [
        {
            "author": {
                "avatar_url": "https://avatars.githubusercontent.com/in/29110?v=4",
                "events_url": "https://api.github.com/users/dependabot%5Bbot%5D/events{/privacy}",
                "followers_url": "https://api.github.com/users/dependabot%5Bbot%5D/followers",
                "following_url": "https://api.github.com/users/dependabot%5Bbot%5D/following{/other_user}",
                "gists_url": "https://api.github.com/users/dependabot%5Bbot%5D/gists{/gist_id}",
                "gravatar_id": "",
                "html_url": "https://github.com/apps/dependabot",
                "id": 49699333,
                "login": "dependabot[bot]",
                "node_id": "MDM6Qm90NDk2OTkzMzM=",
                "organizations_url": "https://api.github.com/users/dependabot%5Bbot%5D/orgs",
                "received_events_url": "https://api.github.com/users/dependabot%5Bbot%5D/received_events",
                "repos_url": "https://api.github.com/users/dependabot%5Bbot%5D/repos",
                "site_admin": false,
                "starred_url": "https://api.github.com/users/dependabot%5Bbot%5D/starred{/owner}{/repo}",
                "subscriptions_url": "https://api.github.com/users/dependabot%5Bbot%5D/subscriptions",
                "type": "Bot",
                "url": "https://api.github.com/users/dependabot%5Bbot%5D"
            },
            "comments_url": "https://api.github.com/repos/PrismarineJS/mineflayer-statemachine/commits/6cb274860c9bcaae7fc3cb23b8f17569262161bc/comments",
            "commit": {
                "author": {
                    "date": "2022-07-04T16:14:29Z",
                    "email": "49699333+dependabot[bot]@users.noreply.github.com",
                    "name": "dependabot[bot]"
                },
                "comment_count": 0,
                "committer": {
                    "date": "2022-07-04T16:14:29Z",
                    "email": "noreply@github.com",
                    "name": "GitHub"
                },
                "message": "Bump @types/node from 17.0.45 to 18.0.1\n\nBumps [@types/node](https://github.com/DefinitelyTyped/DefinitelyTyped/tree/HEAD/types/node) from 17.0.45 to 18.0.1.\n- [Release notes](https://github.com/DefinitelyTyped/DefinitelyTyped/releases)\n- [Commits](https://github.com/DefinitelyTyped/DefinitelyTyped/commits/HEAD/types/node)\n\n---\nupdated-dependencies:\n- dependency-name: \"@types/node\"\n  dependency-type: direct:development\n  update-type: version-update:semver-major\n...\n\nSigned-off-by: dependabot[bot] <support@github.com>",
                "tree": {
                    "sha": "2337b6481f64101e9bde103da30efcc70c6957b4",
                    "url": "https://api.github.com/repos/PrismarineJS/mineflayer-statemachine/git/trees/2337b6481f64101e9bde103da30efcc70c6957b4"
                },
                "url": "https://api.github.com/repos/PrismarineJS/mineflayer-statemachine/git/commits/6cb274860c9bcaae7fc3cb23b8f17569262161bc",
                "verification": {
                    "payload": "tree 2337b6481f64101e9bde103da30efcc70c6957b4\nparent 126afc7ea3fae9b15fd5b28bfab95e3a45e4f8aa\nauthor dependabot[bot] <49699333+dependabot[bot]@users.noreply.github.com> 1656951269 +0000\ncommitter GitHub <noreply@github.com> 1656951269 +0000\n\nBump @types/node from 17.0.45 to 18.0.1\n\nBumps [@types/node](https://github.com/DefinitelyTyped/DefinitelyTyped/tree/HEAD/types/node) from 17.0.45 to 18.0.1.\n- [Release notes](https://github.com/DefinitelyTyped/DefinitelyTyped/releases)\n- [Commits](https://github.com/DefinitelyTyped/DefinitelyTyped/commits/HEAD/types/node)\n\n---\nupdated-dependencies:\n- dependency-name: \"@types/node\"\n  dependency-type: direct:development\n  update-type: version-update:semver-major\n...\n\nSigned-off-by: dependabot[bot] <support@github.com>",
                    "reason": "valid",
                    "signature": "-----BEGIN PGP SIGNATURE-----\n\nwsBcBAABCAAQBQJiwxHlCRBK7hj4Ov3rIwAA54cIAGyEUhCugHjEiI05vdMD114/\notSmxI1hn9NUNF3pt7QaAGlSUWye4eez6vM4twSZVsogpImXrONScPS5b/ZoNtNy\n2VGEQ32tlizNWD35er7zrnf4itjV5X0qovDLKchgqwGKJWwbE7VQKIyhjDWD+2Lv\nVadmPl53PnXUeNY05APCkg4VPCeDQzhaESQ4/M13G64Dz5jIG9VFnXDJ5r1tcgHG\n8gMfmtCh7Su/25FuuW+Cn7fAmQLaY6l22nuZepZEIgGsIHJ7u2mxNkXq1XuNAzqZ\nw1U5rwwfB0rTS1G19ZLjRUpSkoBp+7ya+s95hDNrqNybA6CbH6yCa3YFKy0MgZU=\n=vk5N\n-----END PGP SIGNATURE-----\n",
                    "verified": true
                }
            },
            "committer": {
                "avatar_url": "https://avatars.githubusercontent.com/u/19864447?v=4",
                "events_url": "https://api.github.com/users/web-flow/events{/privacy}",
                "followers_url": "https://api.github.com/users/web-flow/followers",
                "following_url": "https://api.github.com/users/web-flow/following{/other_user}",
                "gists_url": "https://api.github.com/users/web-flow/gists{/gist_id}",
                "gravatar_id": "",
                "html_url": "https://github.com/web-flow",
                "id": 19864447,
                "login": "web-flow",
                "node_id": "MDQ6VXNlcjE5ODY0NDQ3",
                "organizations_url": "https://api.github.com/users/web-flow/orgs",
                "received_events_url": "https://api.github.com/users/web-flow/received_events",
                "repos_url": "https://api.github.com/users/web-flow/repos",
                "site_admin": false,
                "starred_url": "https://api.github.com/users/web-flow/starred{/owner}{/repo}",
                "subscriptions_url": "https://api.github.com/users/web-flow/subscriptions",
                "type": "User",
                "url": "https://api.github.com/users/web-flow"
            },
            "html_url": "https://github.com/PrismarineJS/mineflayer-statemachine/commit/6cb274860c9bcaae7fc3cb23b8f17569262161bc",
            "node_id": "C_kwDOEDj3S9oAKDZjYjI3NDg2MGM5YmNhYWU3ZmMzY2IyM2I4ZjE3NTY5MjYyMTYxYmM",
            "parents": [
                {
                    "html_url": "https://github.com/PrismarineJS/mineflayer-statemachine/commit/126afc7ea3fae9b15fd5b28bfab95e3a45e4f8aa",
                    "sha": "126afc7ea3fae9b15fd5b28bfab95e3a45e4f8aa",
                    "url": "https://api.github.com/repos/PrismarineJS/mineflayer-statemachine/commits/126afc7ea3fae9b15fd5b28bfab95e3a45e4f8aa"
                }
            ],
            "sha": "6cb274860c9bcaae7fc3cb23b8f17569262161bc",
            "url": "https://api.github.com/repos/PrismarineJS/mineflayer-statemachine/commits/6cb274860c9bcaae7fc3cb23b8f17569262161bc"
        }
    ],
    "commits": 1,
    "commits_url": "https://api.github.com/repos/PrismarineJS/mineflayer-statemachine/pulls/143/commits",
    "created_at": "2022-07-04T16:14:30Z",
    "deletions": 1,
    "diff_url": "https://github.com/PrismarineJS/mineflayer-statemachine/pull/143.diff",
    "draft": false,
    "head": {
        "label": "PrismarineJS:dependabot/npm_and_yarn/types/node-18.0.1",
        "ref": "dependabot/npm_and_yarn/types/node-18.0.1",
        "repo": {
            "allow_forking": true,
            "archive_url": "https://api.github.com/repos/PrismarineJS/mineflayer-statemachine/{archive_format}{/ref}",
            "archived": false,
            "assignees_url": "https://api.github.com/repos/PrismarineJS/mineflayer-statemachine/assignees{/user}",
            "blobs_url": "https://api.github.com/repos/PrismarineJS/mineflayer-statemachine/git/blobs{/sha}",
            "branches_url": "https://api.github.com/repos/PrismarineJS/mineflayer-statemachine/branches{/branch}",
            "clone_url": "https://github.com/PrismarineJS/mineflayer-statemachine.git",
            "collaborators_url": "https://api.github.com/repos/PrismarineJS/mineflayer-statemachine/collaborators{/collaborator}",
            "comments_url": "https://api.github.com/repos/PrismarineJS/mineflayer-statemachine/comments{/number}",
            "commits_url": "https://api.github.com/repos/PrismarineJS/mineflayer-statemachine/commits{/sha}",
            "compare_url": "https://api.github.com/repos/PrismarineJS/mineflayer-statemachine/compare/{base}...{head}",
            "contents_url": "https://api.github.com/repos/PrismarineJS/mineflayer-statemachine/contents/{+path}",
            "contributors_url": "https://api.github.com/repos/PrismarineJS/mineflayer-statemachine/contributors",
            "created_at": "2020-06-14T09:15:31Z",
            "default_branch": "master",
            "deployments_url": "https://api.github.com/repos/PrismarineJS/mineflayer-statemachine/deployments",
            "description": "A state machine plugin for Mineflayer to aid in designing more complex behavior trees.",
            "disabled": false,
            "downloads_url": "https://api.github.com/repos/PrismarineJS/mineflayer-statemachine/downloads",
            "events_url": "https://api.github.com/repos/PrismarineJS/mineflayer-statemachine/events",
            "fork": false,
            "forks": 22,
            "forks_count": 22,
            "forks_url": "https://api.github.com/repos/PrismarineJS/mineflayer-statemachine/forks",
            "full_name": "PrismarineJS/mineflayer-statemachine",
            "git_commits_url": "https://api.github.com/repos/PrismarineJS/mineflayer-statemachine/git/commits{/sha}",
            "git_refs_url": "https://api.github.com/repos/PrismarineJS/mineflayer-statemachine/git/refs{/sha}",
            "git_tags_url": "https://api.github.com/repos/PrismarineJS/mineflayer-statemachine/git/tags{/sha}",
            "git_url": "git://github.com/PrismarineJS/mineflayer-statemachine.git",
            "has_discussions": false,
            "has_downloads": true,
            "has_issues": true,
            "has_pages": true,
            "has_projects": false,
            "has_wiki": false,
            "homepage": "https://thedudefromci.github.io/mineflayer-statemachine/",
            "hooks_url": "https://api.github.com/repos/PrismarineJS/mineflayer-statemachine/hooks",
            "html_url": "https://github.com/PrismarineJS/mineflayer-statemachine",
            "id": 272168779,
            "is_template": false,
            "issue_comment_url": "https://api.github.com/repos/PrismarineJS/mineflayer-statemachine/issues/comments{/number}",
            "issue_events_url": "https://api.github.com/repos/PrismarineJS/mineflayer-statemachine/issues/events{/number}",
            "issues_url": "https://api.github.com/repos/PrismarineJS/mineflayer-statemachine/issues{/number}",
            "keys_url": "https://api.github.com/repos/PrismarineJS/mineflayer-statemachine/keys{/key_id}",
            "labels_url": "https://api.github.com/repos/PrismarineJS/mineflayer-statemachine/labels{/name}",
            "language": "TypeScript",
            "languages_url": "https://api.github.com/repos/PrismarineJS/mineflayer-statemachine/languages",
            "license": {
                "key": "mit",
                "name": "MIT License",
                "node_id": "MDc6TGljZW5zZTEz",
                "spdx_id": "MIT",
                "url": "https://api.github.com/licenses/mit"
            },
            "merges_url": "https://api.github.com/repos/PrismarineJS/mineflayer-statemachine/merges",
            "milestones_url": "https://api.github.com/repos/PrismarineJS/mineflayer-statemachine/milestones{/number}",
            "mirror_url": null,
            "name": "mineflayer-statemachine",
            "node_id": "MDEwOlJlcG9zaXRvcnkyNzIxNjg3Nzk=",
            "notifications_url": "https://api.github.com/repos/PrismarineJS/mineflayer-statemachine/notifications{?since,all,participating}",
            "open_issues": 19,
            "open_issues_count": 19,
            "owner": {
                "avatar_url": "https://avatars.githubusercontent.com/u/11053411?v=4",
                "events_url": "https://api.github.com/users/PrismarineJS/events{/privacy}",
                "followers_url": "https://api.github.com/users/PrismarineJS/followers",
                "following_url": "https://api.github.com/users/PrismarineJS/following{/other_user}",
                "gists_url": "https://api.github.com/users/PrismarineJS/gists{/gist_id}",
                "gravatar_id": "",
                "html_url": "https://github.com/PrismarineJS",
                "id": 11053411,
                "login": "PrismarineJS",
                "node_id": "MDEyOk9yZ2FuaXphdGlvbjExMDUzNDEx",
                "organizations_url": "https://api.github.com/users/PrismarineJS/orgs",
                "received_events_url": "https://api.github.com/users/PrismarineJS/received_events",
                "repos_url": "https://api.github.com/users/PrismarineJS/repos",
                "site_admin": false,
                "starred_url": "https://api.github.com/users/PrismarineJS/starred{/owner}{/repo}",
                "subscriptions_url": "https://api.github.com/users/PrismarineJS/subscriptions",
                "type": "Organization",
                "url": "https://api.github.com/users/PrismarineJS"
            },
            "private": false,
            "pulls_url": "https://api.github.com/repos/PrismarineJS/mineflayer-statemachine/pulls{/number}",
            "pushed_at": "2023-04-10T16:58:45Z",
            "releases_url": "https://api.github.com/repos/PrismarineJS/mineflayer-statemachine/releases{/id}",
            "size": 652,
            "ssh_url": "git@github.com:PrismarineJS/mineflayer-statemachine.git",
            "stargazers_count": 74,
            "stargazers_url": "https://api.github.com/repos/PrismarineJS/mineflayer-statemachine/stargazers",
            "statuses_url": "https://api.github.com/repos/PrismarineJS/mineflayer-statemachine/statuses/{sha}",
            "subscribers_url": "https://api.github.com/repos/PrismarineJS/mineflayer-statemachine/subscribers",
            "subscription_url": "https://api.github.com/repos/PrismarineJS/mineflayer-statemachine/subscription",
            "svn_url": "https://github.com/PrismarineJS/mineflayer-statemachine",
            "tags_url": "https://api.github.com/repos/PrismarineJS/mineflayer-statemachine/tags",
            "teams_url": "https://api.github.com/repos/PrismarineJS/mineflayer-statemachine/teams",
            "topics": [
                "ai",
                "bot",
                "minecraft",
                "mineflayer",
                "state-machine"
            ],
            "trees_url": "https://api.github.com/repos/PrismarineJS/mineflayer-statemachine/git/trees{/sha}",
            "updated_at": "2023-04-24T19:33:38Z",
            "url": "https://api.github.com/repos/PrismarineJS/mineflayer-statemachine",
            "visibility": "public",
            "watchers": 74,
            "watchers_count": 74,
            "web_commit_signoff_required": false
        },
        "sha": "6cb274860c9bcaae7fc3cb23b8f17569262161bc",
        "user": {
            "avatar_url": "https://avatars.githubusercontent.com/u/11053411?v=4",
            "events_url": "https://api.github.com/users/PrismarineJS/events{/privacy}",
            "followers_url": "https://api.github.com/users/PrismarineJS/followers",
            "following_url": "https://api.github.com/users/PrismarineJS/following{/other_user}",
            "gists_url": "https://api.github.com/users/PrismarineJS/gists{/gist_id}",
            "gravatar_id": "",
            "html_url": "https://github.com/PrismarineJS",
            "id": 11053411,
            "login": "PrismarineJS",
            "node_id": "MDEyOk9yZ2FuaXphdGlvbjExMDUzNDEx",
            "organizations_url": "https://api.github.com/users/PrismarineJS/orgs",
            "received_events_url": "https://api.github.com/users/PrismarineJS/received_events",
            "repos_url": "https://api.github.com/users/PrismarineJS/repos",
            "site_admin": false,
            "starred_url": "https://api.github.com/users/PrismarineJS/starred{/owner}{/repo}",
            "subscriptions_url": "https://api.github.com/users/PrismarineJS/subscriptions",
            "type": "Organization",
            "url": "https://api.github.com/users/PrismarineJS"
        }
    },
    "html_url": "https://github.com/PrismarineJS/mineflayer-statemachine/pull/143",
    "id": 986636391,
    "issue_url": "https://api.github.com/repos/PrismarineJS/mineflayer-statemachine/issues/143",
    "labels": [
        {
            "color": "0366d6",
            "default": false,
            "description": "Pull requests that update a dependency file",
            "id": 2474648259,
            "name": "dependencies",
            "node_id": "MDU6TGFiZWwyNDc0NjQ4MjU5",
            "url": "https://api.github.com/repos/PrismarineJS/mineflayer-statemachine/labels/dependencies"
        }
    ],
    "locked": false,
    "maintainer_can_modify": false,
    "merge_commit_sha": "7a56205477cf0e28f26a0ec4e0ff788195adf913",
    "mergeable": null,
    "mergeable_state": "unknown",
    "merged": false,
    "merged_at": null,
    "merged_by": null,
    "milestone": null,
    "node_id": "PR_kwDOEDj3S846zuBn",
    "number": 143,
    "patch_url": "https://github.com/PrismarineJS/mineflayer-statemachine/pull/143.patch",
    "rebaseable": null,
    "requested_reviewers": [],
    "requested_teams": [],
    "review_comment_url": "https://api.github.com/repos/PrismarineJS/mineflayer-statemachine/pulls/comments{/number}",
    "review_comments": 0,
    "review_comments_url": "https://api.github.com/repos/PrismarineJS/mineflayer-statemachine/pulls/143/comments",
    "state": "closed",
    "statuses_url": "https://api.github.com/repos/PrismarineJS/mineflayer-statemachine/statuses/6cb274860c9bcaae7fc3cb23b8f17569262161bc",
    "title": "Bump @types/node from 17.0.45 to 18.0.1",
    "updated_at": "2022-07-06T16:23:43Z",
    "url": "https://api.github.com/repos/PrismarineJS/mineflayer-statemachine/pulls/143",
    "user": {
        "avatar_url": "https://avatars.githubusercontent.com/in/29110?v=4",
        "events_url": "https://api.github.com/users/dependabot%5Bbot%5D/events{/privacy}",
        "followers_url": "https://api.github.com/users/dependabot%5Bbot%5D/followers",
        "following_url": "https://api.github.com/users/dependabot%5Bbot%5D/following{/other_user}",
        "gists_url": "https://api.github.com/users/dependabot%5Bbot%5D/gists{/gist_id}",
        "gravatar_id": "",
        "html_url": "https://github.com/apps/dependabot",
        "id": 49699333,
        "login": "dependabot[bot]",
        "node_id": "MDM6Qm90NDk2OTkzMzM=",
        "organizations_url": "https://api.github.com/users/dependabot%5Bbot%5D/orgs",
        "received_events_url": "https://api.github.com/users/dependabot%5Bbot%5D/received_events",
        "repos_url": "https://api.github.com/users/dependabot%5Bbot%5D/repos",
        "site_admin": false,
        "starred_url": "https://api.github.com/users/dependabot%5Bbot%5D/starred{/owner}{/repo}",
        "subscriptions_url": "https://api.github.com/users/dependabot%5Bbot%5D/subscriptions",
        "type": "Bot",
        "url": "https://api.github.com/users/dependabot%5Bbot%5D"
    }
}