{
    "_links": {
        "comments": {
            "href": "https://api.github.com/repos/PrismarineJS/mineflayer-statemachine/issues/27/comments"
        },
        "commits": {
            "href": "https://api.github.com/repos/PrismarineJS/mineflayer-statemachine/pulls/27/commits"
        },
        "html": {
            "href": "https://github.com/PrismarineJS/mineflayer-statemachine/pull/27"
        },
        "issue": {
            "href": "https://api.github.com/repos/PrismarineJS/mineflayer-statemachine/issues/27"
        },
        "review_comment": {
            "href": "https://api.github.com/repos/PrismarineJS/mineflayer-statemachine/pulls/comments{/number}"
        },
        "review_comments": {
            "href": "https://api.github.com/repos/PrismarineJS/mineflayer-statemachine/pulls/27/comments"
        },
        "self": {
            "href": "https://api.github.com/repos/PrismarineJS/mineflayer-statemachine/pulls/27"
        },
        "statuses": {
            "href": "https://api.github.com/repos/PrismarineJS/mineflayer-statemachine/statuses/70dafa372df08ced6d2acdddaae5377c4065d4df"
        }
    },
    "active_lock_reason": null,
    "additions": 5,
    "assignee": null,
    "assignees": [],
    "author_association": "NONE",
    "auto_merge": null,
    "base": {
        "label": "PrismarineJS:master",
        "ref": "master",
        "repo": {
            "allow_forking": true,
            "archive_url": "https://api.github.com/repos/PrismarineJS/mineflayer-statemachine/{archive_format}{/ref}",
            "archived": false,
            "assignees_url": "https://api.github.com/repos/PrismarineJS/mineflayer-statemachine/assignees{/user}",
            "blobs_url": "https://api.github.com/repos/PrismarineJS/mineflayer-statemachine/git/blobs{/sha}",
            "branches_url": "https://api.github.com/repos/PrismarineJS/mineflayer-statemachine/branches{/branch}",
            "clone_url": "https://github.com/PrismarineJS/mineflayer-statemachine.git",
            "collaborators_url": "https://api.github.com/repos/PrismarineJS/mineflayer-statemachine/collaborators{/collaborator}",
            "comments_url": "https://api.github.com/repos/PrismarineJS/mineflayer-statemachine/comments{/number}",
            "commits_url": "https://api.github.com/repos/PrismarineJS/mineflayer-statemachine/commits{/sha}",
            "compare_url": "https://api.github.com/repos/PrismarineJS/mineflayer-statemachine/compare/{base}...{head}",
            "contents_url": "https://api.github.com/repos/PrismarineJS/mineflayer-statemachine/contents/{+path}",
            "contributors_url": "https://api.github.com/repos/PrismarineJS/mineflayer-statemachine/contributors",
            "created_at": "2020-06-14T09:15:31Z",
            "default_branch": "master",
            "deployments_url": "https://api.github.com/repos/PrismarineJS/mineflayer-statemachine/deployments",
            "description": "A state machine plugin for Mineflayer to aid in designing more complex behavior trees.",
            "disabled": false,
            "downloads_url": "https://api.github.com/repos/PrismarineJS/mineflayer-statemachine/downloads",
            "events_url": "https://api.github.com/repos/PrismarineJS/mineflayer-statemachine/events",
            "fork": false,
            "forks": 22,
            "forks_count": 22,
            "forks_url": "https://api.github.com/repos/PrismarineJS/mineflayer-statemachine/forks",
            "full_name": "PrismarineJS/mineflayer-statemachine",
            "git_commits_url": "https://api.github.com/repos/PrismarineJS/mineflayer-statemachine/git/commits{/sha}",
            "git_refs_url": "https://api.github.com/repos/PrismarineJS/mineflayer-statemachine/git/refs{/sha}",
            "git_tags_url": "https://api.github.com/repos/PrismarineJS/mineflayer-statemachine/git/tags{/sha}",
            "git_url": "git://github.com/PrismarineJS/mineflayer-statemachine.git",
            "has_discussions": false,
            "has_downloads": true,
            "has_issues": true,
            "has_pages": true,
            "has_projects": false,
            "has_wiki": false,
            "homepage": "https://thedudefromci.github.io/mineflayer-statemachine/",
            "hooks_url": "https://api.github.com/repos/PrismarineJS/mineflayer-statemachine/hooks",
            "html_url": "https://github.com/PrismarineJS/mineflayer-statemachine",
            "id": 272168779,
            "is_template": false,
            "issue_comment_url": "https://api.github.com/repos/PrismarineJS/mineflayer-statemachine/issues/comments{/number}",
            "issue_events_url": "https://api.github.com/repos/PrismarineJS/mineflayer-statemachine/issues/events{/number}",
            "issues_url": "https://api.github.com/repos/PrismarineJS/mineflayer-statemachine/issues{/number}",
            "keys_url": "https://api.github.com/repos/PrismarineJS/mineflayer-statemachine/keys{/key_id}",
            "labels_url": "https://api.github.com/repos/PrismarineJS/mineflayer-statemachine/labels{/name}",
            "language": "TypeScript",
            "languages_url": "https://api.github.com/repos/PrismarineJS/mineflayer-statemachine/languages",
            "license": {
                "key": "mit",
                "name": "MIT License",
                "node_id": "MDc6TGljZW5zZTEz",
                "spdx_id": "MIT",
                "url": "https://api.github.com/licenses/mit"
            },
            "merges_url": "https://api.github.com/repos/PrismarineJS/mineflayer-statemachine/merges",
            "milestones_url": "https://api.github.com/repos/PrismarineJS/mineflayer-statemachine/milestones{/number}",
            "mirror_url": null,
            "name": "mineflayer-statemachine",
            "node_id": "MDEwOlJlcG9zaXRvcnkyNzIxNjg3Nzk=",
            "notifications_url": "https://api.github.com/repos/PrismarineJS/mineflayer-statemachine/notifications{?since,all,participating}",
            "open_issues": 19,
            "open_issues_count": 19,
            "owner": {
                "avatar_url": "https://avatars.githubusercontent.com/u/11053411?v=4",
                "events_url": "https://api.github.com/users/PrismarineJS/events{/privacy}",
                "followers_url": "https://api.github.com/users/PrismarineJS/followers",
                "following_url": "https://api.github.com/users/PrismarineJS/following{/other_user}",
                "gists_url": "https://api.github.com/users/PrismarineJS/gists{/gist_id}",
                "gravatar_id": "",
                "html_url": "https://github.com/PrismarineJS",
                "id": 11053411,
                "login": "PrismarineJS",
                "node_id": "MDEyOk9yZ2FuaXphdGlvbjExMDUzNDEx",
                "organizations_url": "https://api.github.com/users/PrismarineJS/orgs",
                "received_events_url": "https://api.github.com/users/PrismarineJS/received_events",
                "repos_url": "https://api.github.com/users/PrismarineJS/repos",
                "site_admin": false,
                "starred_url": "https://api.github.com/users/PrismarineJS/starred{/owner}{/repo}",
                "subscriptions_url": "https://api.github.com/users/PrismarineJS/subscriptions",
                "type": "Organization",
                "url": "https://api.github.com/users/PrismarineJS"
            },
            "private": false,
            "pulls_url": "https://api.github.com/repos/PrismarineJS/mineflayer-statemachine/pulls{/number}",
            "pushed_at": "2023-04-10T16:58:45Z",
            "releases_url": "https://api.github.com/repos/PrismarineJS/mineflayer-statemachine/releases{/id}",
            "size": 652,
            "ssh_url": "git@github.com:PrismarineJS/mineflayer-statemachine.git",
            "stargazers_count": 74,
            "stargazers_url": "https://api.github.com/repos/PrismarineJS/mineflayer-statemachine/stargazers",
            "statuses_url": "https://api.github.com/repos/PrismarineJS/mineflayer-statemachine/statuses/{sha}",
            "subscribers_url": "https://api.github.com/repos/PrismarineJS/mineflayer-statemachine/subscribers",
            "subscription_url": "https://api.github.com/repos/PrismarineJS/mineflayer-statemachine/subscription",
            "svn_url": "https://github.com/PrismarineJS/mineflayer-statemachine",
            "tags_url": "https://api.github.com/repos/PrismarineJS/mineflayer-statemachine/tags",
            "teams_url": "https://api.github.com/repos/PrismarineJS/mineflayer-statemachine/teams",
            "topics": [
                "ai",
                "bot",
                "minecraft",
                "mineflayer",
                "state-machine"
            ],
            "trees_url": "https://api.github.com/repos/PrismarineJS/mineflayer-statemachine/git/trees{/sha}",
            "updated_at": "2023-04-24T19:33:38Z",
            "url": "https://api.github.com/repos/PrismarineJS/mineflayer-statemachine",
            "visibility": "public",
            "watchers": 74,
            "watchers_count": 74,
            "web_commit_signoff_required": false
        },
        "sha": "064cf1109dd5640416a78eb49a90664a0b650690",
        "user": {
            "avatar_url": "https://avatars.githubusercontent.com/u/11053411?v=4",
            "events_url": "https://api.github.com/users/PrismarineJS/events{/privacy}",
            "followers_url": "https://api.github.com/users/PrismarineJS/followers",
            "following_url": "https://api.github.com/users/PrismarineJS/following{/other_user}",
            "gists_url": "https://api.github.com/users/PrismarineJS/gists{/gist_id}",
            "gravatar_id": "",
            "html_url": "https://github.com/PrismarineJS",
            "id": 11053411,
            "login": "PrismarineJS",
            "node_id": "MDEyOk9yZ2FuaXphdGlvbjExMDUzNDEx",
            "organizations_url": "https://api.github.com/users/PrismarineJS/orgs",
            "received_events_url": "https://api.github.com/users/PrismarineJS/received_events",
            "repos_url": "https://api.github.com/users/PrismarineJS/repos",
            "site_admin": false,
            "starred_url": "https://api.github.com/users/PrismarineJS/starred{/owner}{/repo}",
            "subscriptions_url": "https://api.github.com/users/PrismarineJS/subscriptions",
            "type": "Organization",
            "url": "https://api.github.com/users/PrismarineJS"
        }
    },
    "body": "This PR contains the following updates:\n\n| Package | Type | Update | Change |\n|---|---|---|---|\n| [@types/socket.io](https://togithub.com/DefinitelyTyped/DefinitelyTyped) | devDependencies | patch | [`2.1.8` -> `2.1.9`](https://renovatebot.com/diffs/npm/@types%2fsocket.io/2.1.8/2.1.9) |\n\n---\n\n### Renovate configuration\n\n:date: **Schedule**: At any time (no schedule defined).\n\n:vertical_traffic_light: **Automerge**: Disabled by config. Please merge this manually once you are satisfied.\n\n:recycle: **Rebasing**: Whenever PR becomes conflicted, or you tick the rebase/retry checkbox.\n\n:no_bell: **Ignore**: Close this PR and you won't be reminded about this update again.\n\n---\n\n - [ ] <!-- rebase-check -->If you want to rebase/retry this PR, check this box\n\n---\n\nThis PR has been generated by [WhiteSource Renovate](https://renovate.whitesourcesoftware.com). View repository job log [here](https://app.renovatebot.com/dashboard#TheDudeFromCI/mineflayer-statemachine).",
    "changed_files": 2,
    "closed_at": "2020-07-20T14:18:56Z",
    "comment_data": [],
    "comment_regular_data": [],
    "comments": 0,
    "comments_url": "https://api.github.com/repos/PrismarineJS/mineflayer-statemachine/issues/27/comments",
    "commit_data": [
        {
            "author": {
                "avatar_url": "https://avatars.githubusercontent.com/u/25180681?v=4",
                "events_url": "https://api.github.com/users/renovate-bot/events{/privacy}",
                "followers_url": "https://api.github.com/users/renovate-bot/followers",
                "following_url": "https://api.github.com/users/renovate-bot/following{/other_user}",
                "gists_url": "https://api.github.com/users/renovate-bot/gists{/gist_id}",
                "gravatar_id": "",
                "html_url": "https://github.com/renovate-bot",
                "id": 25180681,
                "login": "renovate-bot",
                "node_id": "MDQ6VXNlcjI1MTgwNjgx",
                "organizations_url": "https://api.github.com/users/renovate-bot/orgs",
                "received_events_url": "https://api.github.com/users/renovate-bot/received_events",
                "repos_url": "https://api.github.com/users/renovate-bot/repos",
                "site_admin": false,
                "starred_url": "https://api.github.com/users/renovate-bot/starred{/owner}{/repo}",
                "subscriptions_url": "https://api.github.com/users/renovate-bot/subscriptions",
                "type": "User",
                "url": "https://api.github.com/users/renovate-bot"
            },
            "comments_url": "https://api.github.com/repos/PrismarineJS/mineflayer-statemachine/commits/70dafa372df08ced6d2acdddaae5377c4065d4df/comments",
            "commit": {
                "author": {
                    "date": "2020-07-20T11:58:25Z",
                    "email": "bot@renovateapp.com",
                    "name": "Renovate Bot"
                },
                "comment_count": 0,
                "committer": {
                    "date": "2020-07-20T11:58:25Z",
                    "email": "bot@renovateapp.com",
                    "name": "Renovate Bot"
                },
                "message": "Update dependency @types/socket.io to v2.1.9",
                "tree": {
                    "sha": "1db06cad746eb19c4abe3e0283c78f6600dc3aeb",
                    "url": "https://api.github.com/repos/PrismarineJS/mineflayer-statemachine/git/trees/1db06cad746eb19c4abe3e0283c78f6600dc3aeb"
                },
                "url": "https://api.github.com/repos/PrismarineJS/mineflayer-statemachine/git/commits/70dafa372df08ced6d2acdddaae5377c4065d4df",
                "verification": {
                    "payload": "tree 1db06cad746eb19c4abe3e0283c78f6600dc3aeb\nparent 064cf1109dd5640416a78eb49a90664a0b650690\nauthor Renovate Bot <bot@renovateapp.com> 1595246305 +0000\ncommitter Renovate Bot <bot@renovateapp.com> 1595246305 +0000\n\nUpdate dependency @types/socket.io to v2.1.9\n",
                    "reason": "valid",
                    "signature": "-----BEGIN PGP SIGNATURE-----\n\niQEzBAABCgAdFiEEu7cj+31L3YlH69lbgcY64cIkGCsFAl8VhuEACgkQgcY64cIk\nGCvIcwgAojHlu5bubMJtvqD0OOmLO8yWH0gr7GP2tyWEC876UO5lVV76vHihFqTD\nOcnCUYymFTGjzwdCcylzuld8wKMidOHN8WswGFF/DszTRYEhJ7pTSXjKZch4m8Rt\ngTA20gwQ9TXCnEupJVXOPI3vVFJ7feR/Byqu/VRZutGM4RHxRcHsNMx5yazjX+KR\ntsWPdysnERTaT/XQ7VGR6dE4wC4x+PPoFl1/eVobtFWkmYM7KUlnKThawNPSUsIZ\nayMJMrlM1kdNJTaj2xU6VpcsTkVFqr3EBdn8tqtkN2UWqAlzr5cNoUYjccVQ71Q+\nO1BMbJUEXMyoeL2SDfBCsc9GxP6mrw==\n=rtiO\n-----END PGP SIGNATURE-----",
                    "verified": true
                }
            },
            "committer": {
                "avatar_url": "https://avatars.githubusercontent.com/u/25180681?v=4",
                "events_url": "https://api.github.com/users/renovate-bot/events{/privacy}",
                "followers_url": "https://api.github.com/users/renovate-bot/followers",
                "following_url": "https://api.github.com/users/renovate-bot/following{/other_user}",
                "gists_url": "https://api.github.com/users/renovate-bot/gists{/gist_id}",
                "gravatar_id": "",
                "html_url": "https://github.com/renovate-bot",
                "id": 25180681,
                "login": "renovate-bot",
                "node_id": "MDQ6VXNlcjI1MTgwNjgx",
                "organizations_url": "https://api.github.com/users/renovate-bot/orgs",
                "received_events_url": "https://api.github.com/users/renovate-bot/received_events",
                "repos_url": "https://api.github.com/users/renovate-bot/repos",
                "site_admin": false,
                "starred_url": "https://api.github.com/users/renovate-bot/starred{/owner}{/repo}",
                "subscriptions_url": "https://api.github.com/users/renovate-bot/subscriptions",
                "type": "User",
                "url": "https://api.github.com/users/renovate-bot"
            },
            "html_url": "https://github.com/PrismarineJS/mineflayer-statemachine/commit/70dafa372df08ced6d2acdddaae5377c4065d4df",
            "node_id": "MDY6Q29tbWl0MjcyMTY4Nzc5OjcwZGFmYTM3MmRmMDhjZWQ2ZDJhY2RkZGFhZTUzNzdjNDA2NWQ0ZGY=",
            "parents": [
                {
                    "html_url": "https://github.com/PrismarineJS/mineflayer-statemachine/commit/064cf1109dd5640416a78eb49a90664a0b650690",
                    "sha": "064cf1109dd5640416a78eb49a90664a0b650690",
                    "url": "https://api.github.com/repos/PrismarineJS/mineflayer-statemachine/commits/064cf1109dd5640416a78eb49a90664a0b650690"
                }
            ],
            "sha": "70dafa372df08ced6d2acdddaae5377c4065d4df",
            "url": "https://api.github.com/repos/PrismarineJS/mineflayer-statemachine/commits/70dafa372df08ced6d2acdddaae5377c4065d4df"
        }
    ],
    "commits": 1,
    "commits_url": "https://api.github.com/repos/PrismarineJS/mineflayer-statemachine/pulls/27/commits",
    "created_at": "2020-07-20T11:58:31Z",
    "deletions": 5,
    "diff_url": "https://github.com/PrismarineJS/mineflayer-statemachine/pull/27.diff",
    "draft": false,
    "head": {
        "label": "PrismarineJS:renovate/socket.io-2.x",
        "ref": "renovate/socket.io-2.x",
        "repo": {
            "allow_forking": true,
            "archive_url": "https://api.github.com/repos/PrismarineJS/mineflayer-statemachine/{archive_format}{/ref}",
            "archived": false,
            "assignees_url": "https://api.github.com/repos/PrismarineJS/mineflayer-statemachine/assignees{/user}",
            "blobs_url": "https://api.github.com/repos/PrismarineJS/mineflayer-statemachine/git/blobs{/sha}",
            "branches_url": "https://api.github.com/repos/PrismarineJS/mineflayer-statemachine/branches{/branch}",
            "clone_url": "https://github.com/PrismarineJS/mineflayer-statemachine.git",
            "collaborators_url": "https://api.github.com/repos/PrismarineJS/mineflayer-statemachine/collaborators{/collaborator}",
            "comments_url": "https://api.github.com/repos/PrismarineJS/mineflayer-statemachine/comments{/number}",
            "commits_url": "https://api.github.com/repos/PrismarineJS/mineflayer-statemachine/commits{/sha}",
            "compare_url": "https://api.github.com/repos/PrismarineJS/mineflayer-statemachine/compare/{base}...{head}",
            "contents_url": "https://api.github.com/repos/PrismarineJS/mineflayer-statemachine/contents/{+path}",
            "contributors_url": "https://api.github.com/repos/PrismarineJS/mineflayer-statemachine/contributors",
            "created_at": "2020-06-14T09:15:31Z",
            "default_branch": "master",
            "deployments_url": "https://api.github.com/repos/PrismarineJS/mineflayer-statemachine/deployments",
            "description": "A state machine plugin for Mineflayer to aid in designing more complex behavior trees.",
            "disabled": false,
            "downloads_url": "https://api.github.com/repos/PrismarineJS/mineflayer-statemachine/downloads",
            "events_url": "https://api.github.com/repos/PrismarineJS/mineflayer-statemachine/events",
            "fork": false,
            "forks": 22,
            "forks_count": 22,
            "forks_url": "https://api.github.com/repos/PrismarineJS/mineflayer-statemachine/forks",
            "full_name": "PrismarineJS/mineflayer-statemachine",
            "git_commits_url": "https://api.github.com/repos/PrismarineJS/mineflayer-statemachine/git/commits{/sha}",
            "git_refs_url": "https://api.github.com/repos/PrismarineJS/mineflayer-statemachine/git/refs{/sha}",
            "git_tags_url": "https://api.github.com/repos/PrismarineJS/mineflayer-statemachine/git/tags{/sha}",
            "git_url": "git://github.com/PrismarineJS/mineflayer-statemachine.git",
            "has_discussions": false,
            "has_downloads": true,
            "has_issues": true,
            "has_pages": true,
            "has_projects": false,
            "has_wiki": false,
            "homepage": "https://thedudefromci.github.io/mineflayer-statemachine/",
            "hooks_url": "https://api.github.com/repos/PrismarineJS/mineflayer-statemachine/hooks",
            "html_url": "https://github.com/PrismarineJS/mineflayer-statemachine",
            "id": 272168779,
            "is_template": false,
            "issue_comment_url": "https://api.github.com/repos/PrismarineJS/mineflayer-statemachine/issues/comments{/number}",
            "issue_events_url": "https://api.github.com/repos/PrismarineJS/mineflayer-statemachine/issues/events{/number}",
            "issues_url": "https://api.github.com/repos/PrismarineJS/mineflayer-statemachine/issues{/number}",
            "keys_url": "https://api.github.com/repos/PrismarineJS/mineflayer-statemachine/keys{/key_id}",
            "labels_url": "https://api.github.com/repos/PrismarineJS/mineflayer-statemachine/labels{/name}",
            "language": "TypeScript",
            "languages_url": "https://api.github.com/repos/PrismarineJS/mineflayer-statemachine/languages",
            "license": {
                "key": "mit",
                "name": "MIT License",
                "node_id": "MDc6TGljZW5zZTEz",
                "spdx_id": "MIT",
                "url": "https://api.github.com/licenses/mit"
            },
            "merges_url": "https://api.github.com/repos/PrismarineJS/mineflayer-statemachine/merges",
            "milestones_url": "https://api.github.com/repos/PrismarineJS/mineflayer-statemachine/milestones{/number}",
            "mirror_url": null,
            "name": "mineflayer-statemachine",
            "node_id": "MDEwOlJlcG9zaXRvcnkyNzIxNjg3Nzk=",
            "notifications_url": "https://api.github.com/repos/PrismarineJS/mineflayer-statemachine/notifications{?since,all,participating}",
            "open_issues": 19,
            "open_issues_count": 19,
            "owner": {
                "avatar_url": "https://avatars.githubusercontent.com/u/11053411?v=4",
                "events_url": "https://api.github.com/users/PrismarineJS/events{/privacy}",
                "followers_url": "https://api.github.com/users/PrismarineJS/followers",
                "following_url": "https://api.github.com/users/PrismarineJS/following{/other_user}",
                "gists_url": "https://api.github.com/users/PrismarineJS/gists{/gist_id}",
                "gravatar_id": "",
                "html_url": "https://github.com/PrismarineJS",
                "id": 11053411,
                "login": "PrismarineJS",
                "node_id": "MDEyOk9yZ2FuaXphdGlvbjExMDUzNDEx",
                "organizations_url": "https://api.github.com/users/PrismarineJS/orgs",
                "received_events_url": "https://api.github.com/users/PrismarineJS/received_events",
                "repos_url": "https://api.github.com/users/PrismarineJS/repos",
                "site_admin": false,
                "starred_url": "https://api.github.com/users/PrismarineJS/starred{/owner}{/repo}",
                "subscriptions_url": "https://api.github.com/users/PrismarineJS/subscriptions",
                "type": "Organization",
                "url": "https://api.github.com/users/PrismarineJS"
            },
            "private": false,
            "pulls_url": "https://api.github.com/repos/PrismarineJS/mineflayer-statemachine/pulls{/number}",
            "pushed_at": "2023-04-10T16:58:45Z",
            "releases_url": "https://api.github.com/repos/PrismarineJS/mineflayer-statemachine/releases{/id}",
            "size": 652,
            "ssh_url": "git@github.com:PrismarineJS/mineflayer-statemachine.git",
            "stargazers_count": 74,
            "stargazers_url": "https://api.github.com/repos/PrismarineJS/mineflayer-statemachine/stargazers",
            "statuses_url": "https://api.github.com/repos/PrismarineJS/mineflayer-statemachine/statuses/{sha}",
            "subscribers_url": "https://api.github.com/repos/PrismarineJS/mineflayer-statemachine/subscribers",
            "subscription_url": "https://api.github.com/repos/PrismarineJS/mineflayer-statemachine/subscription",
            "svn_url": "https://github.com/PrismarineJS/mineflayer-statemachine",
            "tags_url": "https://api.github.com/repos/PrismarineJS/mineflayer-statemachine/tags",
            "teams_url": "https://api.github.com/repos/PrismarineJS/mineflayer-statemachine/teams",
            "topics": [
                "ai",
                "bot",
                "minecraft",
                "mineflayer",
                "state-machine"
            ],
            "trees_url": "https://api.github.com/repos/PrismarineJS/mineflayer-statemachine/git/trees{/sha}",
            "updated_at": "2023-04-24T19:33:38Z",
            "url": "https://api.github.com/repos/PrismarineJS/mineflayer-statemachine",
            "visibility": "public",
            "watchers": 74,
            "watchers_count": 74,
            "web_commit_signoff_required": false
        },
        "sha": "70dafa372df08ced6d2acdddaae5377c4065d4df",
        "user": {
            "avatar_url": "https://avatars.githubusercontent.com/u/11053411?v=4",
            "events_url": "https://api.github.com/users/PrismarineJS/events{/privacy}",
            "followers_url": "https://api.github.com/users/PrismarineJS/followers",
            "following_url": "https://api.github.com/users/PrismarineJS/following{/other_user}",
            "gists_url": "https://api.github.com/users/PrismarineJS/gists{/gist_id}",
            "gravatar_id": "",
            "html_url": "https://github.com/PrismarineJS",
            "id": 11053411,
            "login": "PrismarineJS",
            "node_id": "MDEyOk9yZ2FuaXphdGlvbjExMDUzNDEx",
            "organizations_url": "https://api.github.com/users/PrismarineJS/orgs",
            "received_events_url": "https://api.github.com/users/PrismarineJS/received_events",
            "repos_url": "https://api.github.com/users/PrismarineJS/repos",
            "site_admin": false,
            "starred_url": "https://api.github.com/users/PrismarineJS/starred{/owner}{/repo}",
            "subscriptions_url": "https://api.github.com/users/PrismarineJS/subscriptions",
            "type": "Organization",
            "url": "https://api.github.com/users/PrismarineJS"
        }
    },
    "html_url": "https://github.com/PrismarineJS/mineflayer-statemachine/pull/27",
    "id": 453374257,
    "issue_url": "https://api.github.com/repos/PrismarineJS/mineflayer-statemachine/issues/27",
    "labels": [],
    "locked": false,
    "maintainer_can_modify": false,
    "merge_commit_sha": "168d6610ef4c915b176cb0438b4c8eb7320c1abf",
    "mergeable": null,
    "mergeable_state": "unknown",
    "merged": true,
    "merged_at": "2020-07-20T14:18:56Z",
    "merged_by": {
        "avatar_url": "https://avatars.githubusercontent.com/u/3118172?v=4",
        "events_url": "https://api.github.com/users/TheDudeFromCI/events{/privacy}",
        "followers_url": "https://api.github.com/users/TheDudeFromCI/followers",
        "following_url": "https://api.github.com/users/TheDudeFromCI/following{/other_user}",
        "gists_url": "https://api.github.com/users/TheDudeFromCI/gists{/gist_id}",
        "gravatar_id": "",
        "html_url": "https://github.com/TheDudeFromCI",
        "id": 3118172,
        "login": "TheDudeFromCI",
        "node_id": "MDQ6VXNlcjMxMTgxNzI=",
        "organizations_url": "https://api.github.com/users/TheDudeFromCI/orgs",
        "received_events_url": "https://api.github.com/users/TheDudeFromCI/received_events",
        "repos_url": "https://api.github.com/users/TheDudeFromCI/repos",
        "site_admin": false,
        "starred_url": "https://api.github.com/users/TheDudeFromCI/starred{/owner}{/repo}",
        "subscriptions_url": "https://api.github.com/users/TheDudeFromCI/subscriptions",
        "type": "User",
        "url": "https://api.github.com/users/TheDudeFromCI"
    },
    "milestone": null,
    "node_id": "MDExOlB1bGxSZXF1ZXN0NDUzMzc0MjU3",
    "number": 27,
    "patch_url": "https://github.com/PrismarineJS/mineflayer-statemachine/pull/27.patch",
    "rebaseable": null,
    "requested_reviewers": [],
    "requested_teams": [],
    "review_comment_url": "https://api.github.com/repos/PrismarineJS/mineflayer-statemachine/pulls/comments{/number}",
    "review_comments": 0,
    "review_comments_url": "https://api.github.com/repos/PrismarineJS/mineflayer-statemachine/pulls/27/comments",
    "state": "closed",
    "statuses_url": "https://api.github.com/repos/PrismarineJS/mineflayer-statemachine/statuses/70dafa372df08ced6d2acdddaae5377c4065d4df",
    "title": "Update dependency @types/socket.io to v2.1.9",
    "updated_at": "2020-07-20T14:18:57Z",
    "url": "https://api.github.com/repos/PrismarineJS/mineflayer-statemachine/pulls/27",
    "user": {
        "avatar_url": "https://avatars.githubusercontent.com/in/2740?v=4",
        "events_url": "https://api.github.com/users/renovate%5Bbot%5D/events{/privacy}",
        "followers_url": "https://api.github.com/users/renovate%5Bbot%5D/followers",
        "following_url": "https://api.github.com/users/renovate%5Bbot%5D/following{/other_user}",
        "gists_url": "https://api.github.com/users/renovate%5Bbot%5D/gists{/gist_id}",
        "gravatar_id": "",
        "html_url": "https://github.com/apps/renovate",
        "id": 29139614,
        "login": "renovate[bot]",
        "node_id": "MDM6Qm90MjkxMzk2MTQ=",
        "organizations_url": "https://api.github.com/users/renovate%5Bbot%5D/orgs",
        "received_events_url": "https://api.github.com/users/renovate%5Bbot%5D/received_events",
        "repos_url": "https://api.github.com/users/renovate%5Bbot%5D/repos",
        "site_admin": false,
        "starred_url": "https://api.github.com/users/renovate%5Bbot%5D/starred{/owner}{/repo}",
        "subscriptions_url": "https://api.github.com/users/renovate%5Bbot%5D/subscriptions",
        "type": "Bot",
        "url": "https://api.github.com/users/renovate%5Bbot%5D"
    }
}