{
    "_links": {
        "comments": {
            "href": "https://api.github.com/repos/PrismarineJS/prismarine-nbt/issues/46/comments"
        },
        "commits": {
            "href": "https://api.github.com/repos/PrismarineJS/prismarine-nbt/pulls/46/commits"
        },
        "html": {
            "href": "https://github.com/PrismarineJS/prismarine-nbt/pull/46"
        },
        "issue": {
            "href": "https://api.github.com/repos/PrismarineJS/prismarine-nbt/issues/46"
        },
        "review_comment": {
            "href": "https://api.github.com/repos/PrismarineJS/prismarine-nbt/pulls/comments{/number}"
        },
        "review_comments": {
            "href": "https://api.github.com/repos/PrismarineJS/prismarine-nbt/pulls/46/comments"
        },
        "self": {
            "href": "https://api.github.com/repos/PrismarineJS/prismarine-nbt/pulls/46"
        },
        "statuses": {
            "href": "https://api.github.com/repos/PrismarineJS/prismarine-nbt/statuses/406b2cb5f897ea449e64ecf0a325e90160e982af"
        }
    },
    "active_lock_reason": null,
    "additions": 1,
    "assignee": null,
    "assignees": [],
    "author_association": "CONTRIBUTOR",
    "auto_merge": null,
    "base": {
        "label": "PrismarineJS:master",
        "ref": "master",
        "repo": {
            "allow_forking": true,
            "archive_url": "https://api.github.com/repos/PrismarineJS/prismarine-nbt/{archive_format}{/ref}",
            "archived": false,
            "assignees_url": "https://api.github.com/repos/PrismarineJS/prismarine-nbt/assignees{/user}",
            "blobs_url": "https://api.github.com/repos/PrismarineJS/prismarine-nbt/git/blobs{/sha}",
            "branches_url": "https://api.github.com/repos/PrismarineJS/prismarine-nbt/branches{/branch}",
            "clone_url": "https://github.com/PrismarineJS/prismarine-nbt.git",
            "collaborators_url": "https://api.github.com/repos/PrismarineJS/prismarine-nbt/collaborators{/collaborator}",
            "comments_url": "https://api.github.com/repos/PrismarineJS/prismarine-nbt/comments{/number}",
            "commits_url": "https://api.github.com/repos/PrismarineJS/prismarine-nbt/commits{/sha}",
            "compare_url": "https://api.github.com/repos/PrismarineJS/prismarine-nbt/compare/{base}...{head}",
            "contents_url": "https://api.github.com/repos/PrismarineJS/prismarine-nbt/contents/{+path}",
            "contributors_url": "https://api.github.com/repos/PrismarineJS/prismarine-nbt/contributors",
            "created_at": "2015-03-06T18:07:43Z",
            "default_branch": "master",
            "deployments_url": "https://api.github.com/repos/PrismarineJS/prismarine-nbt/deployments",
            "description": "An NBT parser for node-minecraft-protocol",
            "disabled": false,
            "downloads_url": "https://api.github.com/repos/PrismarineJS/prismarine-nbt/downloads",
            "events_url": "https://api.github.com/repos/PrismarineJS/prismarine-nbt/events",
            "fork": false,
            "forks": 21,
            "forks_count": 21,
            "forks_url": "https://api.github.com/repos/PrismarineJS/prismarine-nbt/forks",
            "full_name": "PrismarineJS/prismarine-nbt",
            "git_commits_url": "https://api.github.com/repos/PrismarineJS/prismarine-nbt/git/commits{/sha}",
            "git_refs_url": "https://api.github.com/repos/PrismarineJS/prismarine-nbt/git/refs{/sha}",
            "git_tags_url": "https://api.github.com/repos/PrismarineJS/prismarine-nbt/git/tags{/sha}",
            "git_url": "git://github.com/PrismarineJS/prismarine-nbt.git",
            "has_discussions": false,
            "has_downloads": true,
            "has_issues": true,
            "has_pages": false,
            "has_projects": true,
            "has_wiki": true,
            "homepage": null,
            "hooks_url": "https://api.github.com/repos/PrismarineJS/prismarine-nbt/hooks",
            "html_url": "https://github.com/PrismarineJS/prismarine-nbt",
            "id": 31782080,
            "is_template": false,
            "issue_comment_url": "https://api.github.com/repos/PrismarineJS/prismarine-nbt/issues/comments{/number}",
            "issue_events_url": "https://api.github.com/repos/PrismarineJS/prismarine-nbt/issues/events{/number}",
            "issues_url": "https://api.github.com/repos/PrismarineJS/prismarine-nbt/issues{/number}",
            "keys_url": "https://api.github.com/repos/PrismarineJS/prismarine-nbt/keys{/key_id}",
            "labels_url": "https://api.github.com/repos/PrismarineJS/prismarine-nbt/labels{/name}",
            "language": "JavaScript",
            "languages_url": "https://api.github.com/repos/PrismarineJS/prismarine-nbt/languages",
            "license": null,
            "merges_url": "https://api.github.com/repos/PrismarineJS/prismarine-nbt/merges",
            "milestones_url": "https://api.github.com/repos/PrismarineJS/prismarine-nbt/milestones{/number}",
            "mirror_url": null,
            "name": "prismarine-nbt",
            "node_id": "MDEwOlJlcG9zaXRvcnkzMTc4MjA4MA==",
            "notifications_url": "https://api.github.com/repos/PrismarineJS/prismarine-nbt/notifications{?since,all,participating}",
            "open_issues": 5,
            "open_issues_count": 5,
            "owner": {
                "avatar_url": "https://avatars.githubusercontent.com/u/11053411?v=4",
                "events_url": "https://api.github.com/users/PrismarineJS/events{/privacy}",
                "followers_url": "https://api.github.com/users/PrismarineJS/followers",
                "following_url": "https://api.github.com/users/PrismarineJS/following{/other_user}",
                "gists_url": "https://api.github.com/users/PrismarineJS/gists{/gist_id}",
                "gravatar_id": "",
                "html_url": "https://github.com/PrismarineJS",
                "id": 11053411,
                "login": "PrismarineJS",
                "node_id": "MDEyOk9yZ2FuaXphdGlvbjExMDUzNDEx",
                "organizations_url": "https://api.github.com/users/PrismarineJS/orgs",
                "received_events_url": "https://api.github.com/users/PrismarineJS/received_events",
                "repos_url": "https://api.github.com/users/PrismarineJS/repos",
                "site_admin": false,
                "starred_url": "https://api.github.com/users/PrismarineJS/starred{/owner}{/repo}",
                "subscriptions_url": "https://api.github.com/users/PrismarineJS/subscriptions",
                "type": "Organization",
                "url": "https://api.github.com/users/PrismarineJS"
            },
            "private": false,
            "pulls_url": "https://api.github.com/repos/PrismarineJS/prismarine-nbt/pulls{/number}",
            "pushed_at": "2022-08-07T14:30:33Z",
            "releases_url": "https://api.github.com/repos/PrismarineJS/prismarine-nbt/releases{/id}",
            "size": 142,
            "ssh_url": "git@github.com:PrismarineJS/prismarine-nbt.git",
            "stargazers_count": 71,
            "stargazers_url": "https://api.github.com/repos/PrismarineJS/prismarine-nbt/stargazers",
            "statuses_url": "https://api.github.com/repos/PrismarineJS/prismarine-nbt/statuses/{sha}",
            "subscribers_url": "https://api.github.com/repos/PrismarineJS/prismarine-nbt/subscribers",
            "subscription_url": "https://api.github.com/repos/PrismarineJS/prismarine-nbt/subscription",
            "svn_url": "https://github.com/PrismarineJS/prismarine-nbt",
            "tags_url": "https://api.github.com/repos/PrismarineJS/prismarine-nbt/tags",
            "teams_url": "https://api.github.com/repos/PrismarineJS/prismarine-nbt/teams",
            "topics": [],
            "trees_url": "https://api.github.com/repos/PrismarineJS/prismarine-nbt/git/trees{/sha}",
            "updated_at": "2023-03-10T20:27:09Z",
            "url": "https://api.github.com/repos/PrismarineJS/prismarine-nbt",
            "visibility": "public",
            "watchers": 71,
            "watchers_count": 71,
            "web_commit_signoff_required": false
        },
        "sha": "8a4bff15592946b321d26688e4bb43b6dd197ecd",
        "user": {
            "avatar_url": "https://avatars.githubusercontent.com/u/11053411?v=4",
            "events_url": "https://api.github.com/users/PrismarineJS/events{/privacy}",
            "followers_url": "https://api.github.com/users/PrismarineJS/followers",
            "following_url": "https://api.github.com/users/PrismarineJS/following{/other_user}",
            "gists_url": "https://api.github.com/users/PrismarineJS/gists{/gist_id}",
            "gravatar_id": "",
            "html_url": "https://github.com/PrismarineJS",
            "id": 11053411,
            "login": "PrismarineJS",
            "node_id": "MDEyOk9yZ2FuaXphdGlvbjExMDUzNDEx",
            "organizations_url": "https://api.github.com/users/PrismarineJS/orgs",
            "received_events_url": "https://api.github.com/users/PrismarineJS/received_events",
            "repos_url": "https://api.github.com/users/PrismarineJS/repos",
            "site_admin": false,
            "starred_url": "https://api.github.com/users/PrismarineJS/starred{/owner}{/repo}",
            "subscriptions_url": "https://api.github.com/users/PrismarineJS/subscriptions",
            "type": "Organization",
            "url": "https://api.github.com/users/PrismarineJS"
        }
    },
    "body": "Bumps [mocha](https://github.com/mochajs/mocha) from 8.4.0 to 9.0.0.\n<details>\n<summary>Release notes</summary>\n<p><em>Sourced from <a href=\"https://github.com/mochajs/mocha/releases\">mocha's releases</a>.</em></p>\n<blockquote>\n<h2>v9.0.0</h2>\n<h1>9.0.0 / 2021-06-07</h1>\n<h2>:boom: Breaking Changes</h2>\n<ul>\n<li>\n<p><a href=\"https://github-redirect.dependabot.com/mochajs/mocha/issues/4633\">#4633</a>: <strong>Drop Node.js v10.x support</strong> (<a href=\"https://github.com/juergba\"><strong><code>@​juergba</code></strong></a>)</p>\n</li>\n<li>\n<p><a href=\"https://github-redirect.dependabot.com/mochajs/mocha/issues/4635\">#4635</a>: <code>import</code>-first loading of test files (<a href=\"https://github.com/giltayar\"><strong><code>@​giltayar</code></strong></a>)</p>\n</li>\n</ul>\n<p><strong>Mocha is going ESM-first!</strong> This means that it will now use ESM <code>import(test_file)</code> to load the test files, instead of the CommonJS <code>require(test_file)</code>. This is not a problem, as <code>import</code> can also load most files that <code>require</code> does. In the rare cases where this fails, it will fallback to <code>require(...)</code>. This ESM-first approach is the next step in Mocha's ESM migration, and allows ESM loaders to load and transform the test file.</p>\n<ul>\n<li>\n<p><a href=\"https://github-redirect.dependabot.com/mochajs/mocha/issues/4636\">#4636</a>: Remove deprecated <code>utils.lookupFiles()</code> (<a href=\"https://github.com/juergba\"><strong><code>@​juergba</code></strong></a>)</p>\n</li>\n<li>\n<p><a href=\"https://github-redirect.dependabot.com/mochajs/mocha/issues/4638\">#4638</a>: Limit the size of <code>actual</code>/<code>expected</code> for <code>diff</code> generation (<a href=\"https://github.com/juergba\"><strong><code>@​juergba</code></strong></a>)</p>\n</li>\n<li>\n<p><a href=\"https://github-redirect.dependabot.com/mochajs/mocha/issues/4389\">#4389</a>: Refactoring: Consuming log-symbols alternate to code for win32 in reporters/base (<a href=\"https://github.com/MoonSupport\"><strong><code>@​MoonSupport</code></strong></a>)</p>\n</li>\n</ul>\n<h2>:tada: Enhancements</h2>\n<ul>\n<li><a href=\"https://github-redirect.dependabot.com/mochajs/mocha/issues/4640\">#4640</a>: Add new option <code>--dry-run</code> (<a href=\"https://github.com/juergba\"><strong><code>@​juergba</code></strong></a>)</li>\n</ul>\n<h2>:bug: Fixes</h2>\n<ul>\n<li><a href=\"https://github-redirect.dependabot.com/mochajs/mocha/issues/4128\">#4128</a>: Fix: control stringification of error message (<a href=\"https://github.com/syeutyu\"><strong><code>@​syeutyu</code></strong></a>)</li>\n</ul>\n<h2>:nut_and_bolt: Other</h2>\n<ul>\n<li><a href=\"https://github-redirect.dependabot.com/mochajs/mocha/issues/4646\">#4646</a>: Deprecate <code>Runner(suite: Suite, delay: boolean)</code> signature (<a href=\"https://github.com/juergba\"><strong><code>@​juergba</code></strong></a>)</li>\n<li><a href=\"https://github-redirect.dependabot.com/mochajs/mocha/issues/4643\">#4643</a>: Update production dependencies (<a href=\"https://github.com/juergba\"><strong><code>@​juergba</code></strong></a>)</li>\n</ul>\n</blockquote>\n</details>\n<details>\n<summary>Changelog</summary>\n<p><em>Sourced from <a href=\"https://github.com/mochajs/mocha/blob/master/CHANGELOG.md\">mocha's changelog</a>.</em></p>\n<blockquote>\n<h1>9.0.0 / 2021-06-07</h1>\n<h2>:boom: Breaking Changes</h2>\n<ul>\n<li>\n<p><a href=\"https://github-redirect.dependabot.com/mochajs/mocha/issues/4633\">#4633</a>: <strong>Drop Node.js v10.x support</strong> (<a href=\"https://github.com/juergba\"><strong><code>@​juergba</code></strong></a>)</p>\n</li>\n<li>\n<p><a href=\"https://github-redirect.dependabot.com/mochajs/mocha/issues/4635\">#4635</a>: <code>import</code>-first loading of test files (<a href=\"https://github.com/giltayar\"><strong><code>@​giltayar</code></strong></a>)</p>\n</li>\n</ul>\n<p><strong>Mocha is going ESM-first!</strong> This means that it will now use ESM <code>import(test_file)</code> to load the test files, instead of the CommonJS <code>require(test_file)</code>. This is not a problem, as <code>import</code> can also load most files that <code>require</code> does. In the rare cases where this fails, it will fallback to <code>require(...)</code>. This ESM-first approach is the next step in Mocha's ESM migration, and allows ESM loaders to load and transform the test file.</p>\n<ul>\n<li>\n<p><a href=\"https://github-redirect.dependabot.com/mochajs/mocha/issues/4636\">#4636</a>: Remove deprecated <code>utils.lookupFiles()</code> (<a href=\"https://github.com/juergba\"><strong><code>@​juergba</code></strong></a>)</p>\n</li>\n<li>\n<p><a href=\"https://github-redirect.dependabot.com/mochajs/mocha/issues/4638\">#4638</a>: Limit the size of <code>actual</code>/<code>expected</code> for <code>diff</code> generation (<a href=\"https://github.com/juergba\"><strong><code>@​juergba</code></strong></a>)</p>\n</li>\n<li>\n<p><a href=\"https://github-redirect.dependabot.com/mochajs/mocha/issues/4389\">#4389</a>: Refactoring: Consuming log-symbols alternate to code for win32 in reporters/base (<a href=\"https://github.com/MoonSupport\"><strong><code>@​MoonSupport</code></strong></a>)</p>\n</li>\n</ul>\n<h2>:tada: Enhancements</h2>\n<ul>\n<li><a href=\"https://github-redirect.dependabot.com/mochajs/mocha/issues/4640\">#4640</a>: Add new option <code>--dry-run</code> (<a href=\"https://github.com/juergba\"><strong><code>@​juergba</code></strong></a>)</li>\n</ul>\n<h2>:bug: Fixes</h2>\n<ul>\n<li><a href=\"https://github-redirect.dependabot.com/mochajs/mocha/issues/4128\">#4128</a>: Fix: control stringification of error message (<a href=\"https://github.com/syeutyu\"><strong><code>@​syeutyu</code></strong></a>)</li>\n</ul>\n<h2>:nut_and_bolt: Other</h2>\n<ul>\n<li><a href=\"https://github-redirect.dependabot.com/mochajs/mocha/issues/4646\">#4646</a>: Deprecate <code>Runner(suite: Suite, delay: boolean)</code> signature (<a href=\"https://github.com/juergba\"><strong><code>@​juergba</code></strong></a>)</li>\n<li><a href=\"https://github-redirect.dependabot.com/mochajs/mocha/issues/4643\">#4643</a>: Update production dependencies (<a href=\"https://github.com/juergba\"><strong><code>@​juergba</code></strong></a>)</li>\n</ul>\n</blockquote>\n</details>\n<details>\n<summary>Commits</summary>\n<ul>\n<li><a href=\"https://github.com/mochajs/mocha/commit/8339c3db2cb273f6b56a4cfa7974510f1bf72934\"><code>8339c3d</code></a> Release v9.0.0</li>\n<li><a href=\"https://github.com/mochajs/mocha/commit/92518dfd3cf2a6458a5c1e67976f1d1eb3c9d1d7\"><code>92518df</code></a> update CHANGELOG for v9.0.0 [ci skip]</li>\n<li><a href=\"https://github.com/mochajs/mocha/commit/7259a5b1ed83f2191a3330cec905085677803dd0\"><code>7259a5b</code></a> Update production dependencies (<a href=\"https://github-redirect.dependabot.com/mochajs/mocha/issues/4643\">#4643</a>)</li>\n<li><a href=\"https://github.com/mochajs/mocha/commit/82123061ac84dca1a42635167a73714d5f89a846\"><code>8212306</code></a> Add new option &quot;--dry-run&quot; (<a href=\"https://github-redirect.dependabot.com/mochajs/mocha/issues/4640\">#4640</a>)</li>\n<li><a href=\"https://github.com/mochajs/mocha/commit/9872410a717ab389d6b7f585cb00a7b0f8ea1d69\"><code>9872410</code></a> Deprecate &quot;Runner(suite: Suite, delay: boolean)&quot; (<a href=\"https://github-redirect.dependabot.com/mochajs/mocha/issues/4646\">#4646</a>)</li>\n<li><a href=\"https://github.com/mochajs/mocha/commit/a93d759c4c4cfd6da2656be5cbcb6fb9a125a4a1\"><code>a93d759</code></a> Limit the size of 'actual'/'expected' before generating diff (<a href=\"https://github-redirect.dependabot.com/mochajs/mocha/issues/4638\">#4638</a>)</li>\n<li><a href=\"https://github.com/mochajs/mocha/commit/9b4435db8447bf681e7824b31902452f55678adb\"><code>9b4435d</code></a> Import-first loading of test files (<a href=\"https://github-redirect.dependabot.com/mochajs/mocha/issues/4635\">#4635</a>)</li>\n<li><a href=\"https://github.com/mochajs/mocha/commit/1c4e623c020c97269922dc9e23a951f63ad8f7b8\"><code>1c4e623</code></a> Fix: control stringification of error message (<a href=\"https://github-redirect.dependabot.com/mochajs/mocha/issues/4128\">#4128</a>)</li>\n<li><a href=\"https://github.com/mochajs/mocha/commit/1b5cbf131eff4e1858cdfe7a1a7d201664c767dc\"><code>1b5cbf1</code></a> Remove deprecated &quot;utils.lookupFiles()&quot; (<a href=\"https://github-redirect.dependabot.com/mochajs/mocha/issues/4636\">#4636</a>)</li>\n<li><a href=\"https://github.com/mochajs/mocha/commit/356ecf44015f9da7d99ead1049ab9d188c9442b5\"><code>356ecf4</code></a> GH actions: delete old workflow runs (<a href=\"https://github-redirect.dependabot.com/mochajs/mocha/issues/4637\">#4637</a>) [ci skip]</li>\n<li>Additional commits viewable in <a href=\"https://github.com/mochajs/mocha/compare/v8.4.0...v9.0.0\">compare view</a></li>\n</ul>\n</details>\n<br />\n\n\n[![Dependabot compatibility score](https://dependabot-badges.githubapp.com/badges/compatibility_score?dependency-name=mocha&package-manager=npm_and_yarn&previous-version=8.4.0&new-version=9.0.0)](https://docs.github.com/en/github/managing-security-vulnerabilities/about-dependabot-security-updates#about-compatibility-scores)\n\nDependabot will resolve any conflicts with this PR as long as you don't alter it yourself. You can also trigger a rebase manually by commenting `@dependabot rebase`.\n\n[//]: # (dependabot-automerge-start)\n[//]: # (dependabot-automerge-end)\n\n---\n\n<details>\n<summary>Dependabot commands and options</summary>\n<br />\n\nYou can trigger Dependabot actions by commenting on this PR:\n- `@dependabot rebase` will rebase this PR\n- `@dependabot recreate` will recreate this PR, overwriting any edits that have been made to it\n- `@dependabot merge` will merge this PR after your CI passes on it\n- `@dependabot squash and merge` will squash and merge this PR after your CI passes on it\n- `@dependabot cancel merge` will cancel a previously requested merge and block automerging\n- `@dependabot reopen` will reopen this PR if it is closed\n- `@dependabot close` will close this PR and stop Dependabot recreating it. You can achieve the same result by closing it manually\n- `@dependabot ignore this major version` will close this PR and stop Dependabot creating any more for this major version (unless you reopen the PR or upgrade to it yourself)\n- `@dependabot ignore this minor version` will close this PR and stop Dependabot creating any more for this minor version (unless you reopen the PR or upgrade to it yourself)\n- `@dependabot ignore this dependency` will close this PR and stop Dependabot creating any more for this dependency (unless you reopen the PR or upgrade to it yourself)\n\n\n</details>",
    "changed_files": 1,
    "closed_at": "2021-06-16T21:02:19Z",
    "comment_data": [],
    "comment_regular_data": [],
    "comments": 0,
    "comments_url": "https://api.github.com/repos/PrismarineJS/prismarine-nbt/issues/46/comments",
    "commit_data": [
        {
            "author": {
                "avatar_url": "https://avatars.githubusercontent.com/in/29110?v=4",
                "events_url": "https://api.github.com/users/dependabot%5Bbot%5D/events{/privacy}",
                "followers_url": "https://api.github.com/users/dependabot%5Bbot%5D/followers",
                "following_url": "https://api.github.com/users/dependabot%5Bbot%5D/following{/other_user}",
                "gists_url": "https://api.github.com/users/dependabot%5Bbot%5D/gists{/gist_id}",
                "gravatar_id": "",
                "html_url": "https://github.com/apps/dependabot",
                "id": 49699333,
                "login": "dependabot[bot]",
                "node_id": "MDM6Qm90NDk2OTkzMzM=",
                "organizations_url": "https://api.github.com/users/dependabot%5Bbot%5D/orgs",
                "received_events_url": "https://api.github.com/users/dependabot%5Bbot%5D/received_events",
                "repos_url": "https://api.github.com/users/dependabot%5Bbot%5D/repos",
                "site_admin": false,
                "starred_url": "https://api.github.com/users/dependabot%5Bbot%5D/starred{/owner}{/repo}",
                "subscriptions_url": "https://api.github.com/users/dependabot%5Bbot%5D/subscriptions",
                "type": "Bot",
                "url": "https://api.github.com/users/dependabot%5Bbot%5D"
            },
            "comments_url": "https://api.github.com/repos/PrismarineJS/prismarine-nbt/commits/406b2cb5f897ea449e64ecf0a325e90160e982af/comments",
            "commit": {
                "author": {
                    "date": "2021-06-08T06:42:30Z",
                    "email": "49699333+dependabot[bot]@users.noreply.github.com",
                    "name": "dependabot[bot]"
                },
                "comment_count": 0,
                "committer": {
                    "date": "2021-06-08T06:42:30Z",
                    "email": "noreply@github.com",
                    "name": "GitHub"
                },
                "message": "Bump mocha from 8.4.0 to 9.0.0\n\nBumps [mocha](https://github.com/mochajs/mocha) from 8.4.0 to 9.0.0.\n- [Release notes](https://github.com/mochajs/mocha/releases)\n- [Changelog](https://github.com/mochajs/mocha/blob/master/CHANGELOG.md)\n- [Commits](https://github.com/mochajs/mocha/compare/v8.4.0...v9.0.0)\n\n---\nupdated-dependencies:\n- dependency-name: mocha\n  dependency-type: direct:development\n  update-type: version-update:semver-major\n...\n\nSigned-off-by: dependabot[bot] <support@github.com>",
                "tree": {
                    "sha": "e53b6ba47fe2d06a54afd83613653fea150dbd21",
                    "url": "https://api.github.com/repos/PrismarineJS/prismarine-nbt/git/trees/e53b6ba47fe2d06a54afd83613653fea150dbd21"
                },
                "url": "https://api.github.com/repos/PrismarineJS/prismarine-nbt/git/commits/406b2cb5f897ea449e64ecf0a325e90160e982af",
                "verification": {
                    "payload": "tree e53b6ba47fe2d06a54afd83613653fea150dbd21\nparent 8a4bff15592946b321d26688e4bb43b6dd197ecd\nauthor dependabot[bot] <49699333+dependabot[bot]@users.noreply.github.com> 1623134550 +0000\ncommitter GitHub <noreply@github.com> 1623134550 +0000\n\nBump mocha from 8.4.0 to 9.0.0\n\nBumps [mocha](https://github.com/mochajs/mocha) from 8.4.0 to 9.0.0.\n- [Release notes](https://github.com/mochajs/mocha/releases)\n- [Changelog](https://github.com/mochajs/mocha/blob/master/CHANGELOG.md)\n- [Commits](https://github.com/mochajs/mocha/compare/v8.4.0...v9.0.0)\n\n---\nupdated-dependencies:\n- dependency-name: mocha\n  dependency-type: direct:development\n  update-type: version-update:semver-major\n...\n\nSigned-off-by: dependabot[bot] <support@github.com>",
                    "reason": "valid",
                    "signature": "-----BEGIN PGP SIGNATURE-----\n\nwsBcBAABCAAQBQJgvxFWCRBK7hj4Ov3rIwAApzAIAEiffiF6kUSZgYcWGaZjpxav\nr8guK0z9Y4d62kNJuulexaVhDea4e4/FNuYtSbiOhhKWoSkIElehAvfGJ74E2dG3\ngzE7GpjFesJZHAR6yi+k8aqiszM8vx7xpycKYbwyhKTWALJ7SvJsJV3a2MfDcvfS\nWCyYUkocrePRVklY+SuzRGr6TRhaO+dG3No3P7X/xP2DrJU1bChTTVl6Q77S69cz\nNeWKrbhPT5HwN6AKdeO6I2zlHN3YIz4+COk0fBREB2MXoLFV9ySVEIXdAbVOWL5b\ny4GT1EJ8xgLowT/4riy5SUGwzahqbrap0bE5HLvgUY91o0iWZiB+vxSTTITeUs4=\n=9gZs\n-----END PGP SIGNATURE-----\n",
                    "verified": true
                }
            },
            "committer": {
                "avatar_url": "https://avatars.githubusercontent.com/u/19864447?v=4",
                "events_url": "https://api.github.com/users/web-flow/events{/privacy}",
                "followers_url": "https://api.github.com/users/web-flow/followers",
                "following_url": "https://api.github.com/users/web-flow/following{/other_user}",
                "gists_url": "https://api.github.com/users/web-flow/gists{/gist_id}",
                "gravatar_id": "",
                "html_url": "https://github.com/web-flow",
                "id": 19864447,
                "login": "web-flow",
                "node_id": "MDQ6VXNlcjE5ODY0NDQ3",
                "organizations_url": "https://api.github.com/users/web-flow/orgs",
                "received_events_url": "https://api.github.com/users/web-flow/received_events",
                "repos_url": "https://api.github.com/users/web-flow/repos",
                "site_admin": false,
                "starred_url": "https://api.github.com/users/web-flow/starred{/owner}{/repo}",
                "subscriptions_url": "https://api.github.com/users/web-flow/subscriptions",
                "type": "User",
                "url": "https://api.github.com/users/web-flow"
            },
            "html_url": "https://github.com/PrismarineJS/prismarine-nbt/commit/406b2cb5f897ea449e64ecf0a325e90160e982af",
            "node_id": "MDY6Q29tbWl0MzE3ODIwODA6NDA2YjJjYjVmODk3ZWE0NDllNjRlY2YwYTMyNWU5MDE2MGU5ODJhZg==",
            "parents": [
                {
                    "html_url": "https://github.com/PrismarineJS/prismarine-nbt/commit/8a4bff15592946b321d26688e4bb43b6dd197ecd",
                    "sha": "8a4bff15592946b321d26688e4bb43b6dd197ecd",
                    "url": "https://api.github.com/repos/PrismarineJS/prismarine-nbt/commits/8a4bff15592946b321d26688e4bb43b6dd197ecd"
                }
            ],
            "sha": "406b2cb5f897ea449e64ecf0a325e90160e982af",
            "url": "https://api.github.com/repos/PrismarineJS/prismarine-nbt/commits/406b2cb5f897ea449e64ecf0a325e90160e982af"
        }
    ],
    "commits": 1,
    "commits_url": "https://api.github.com/repos/PrismarineJS/prismarine-nbt/pulls/46/commits",
    "created_at": "2021-06-08T06:42:31Z",
    "deletions": 1,
    "diff_url": "https://github.com/PrismarineJS/prismarine-nbt/pull/46.diff",
    "draft": false,
    "head": {
        "label": "PrismarineJS:dependabot/npm_and_yarn/mocha-9.0.0",
        "ref": "dependabot/npm_and_yarn/mocha-9.0.0",
        "repo": {
            "allow_forking": true,
            "archive_url": "https://api.github.com/repos/PrismarineJS/prismarine-nbt/{archive_format}{/ref}",
            "archived": false,
            "assignees_url": "https://api.github.com/repos/PrismarineJS/prismarine-nbt/assignees{/user}",
            "blobs_url": "https://api.github.com/repos/PrismarineJS/prismarine-nbt/git/blobs{/sha}",
            "branches_url": "https://api.github.com/repos/PrismarineJS/prismarine-nbt/branches{/branch}",
            "clone_url": "https://github.com/PrismarineJS/prismarine-nbt.git",
            "collaborators_url": "https://api.github.com/repos/PrismarineJS/prismarine-nbt/collaborators{/collaborator}",
            "comments_url": "https://api.github.com/repos/PrismarineJS/prismarine-nbt/comments{/number}",
            "commits_url": "https://api.github.com/repos/PrismarineJS/prismarine-nbt/commits{/sha}",
            "compare_url": "https://api.github.com/repos/PrismarineJS/prismarine-nbt/compare/{base}...{head}",
            "contents_url": "https://api.github.com/repos/PrismarineJS/prismarine-nbt/contents/{+path}",
            "contributors_url": "https://api.github.com/repos/PrismarineJS/prismarine-nbt/contributors",
            "created_at": "2015-03-06T18:07:43Z",
            "default_branch": "master",
            "deployments_url": "https://api.github.com/repos/PrismarineJS/prismarine-nbt/deployments",
            "description": "An NBT parser for node-minecraft-protocol",
            "disabled": false,
            "downloads_url": "https://api.github.com/repos/PrismarineJS/prismarine-nbt/downloads",
            "events_url": "https://api.github.com/repos/PrismarineJS/prismarine-nbt/events",
            "fork": false,
            "forks": 21,
            "forks_count": 21,
            "forks_url": "https://api.github.com/repos/PrismarineJS/prismarine-nbt/forks",
            "full_name": "PrismarineJS/prismarine-nbt",
            "git_commits_url": "https://api.github.com/repos/PrismarineJS/prismarine-nbt/git/commits{/sha}",
            "git_refs_url": "https://api.github.com/repos/PrismarineJS/prismarine-nbt/git/refs{/sha}",
            "git_tags_url": "https://api.github.com/repos/PrismarineJS/prismarine-nbt/git/tags{/sha}",
            "git_url": "git://github.com/PrismarineJS/prismarine-nbt.git",
            "has_discussions": false,
            "has_downloads": true,
            "has_issues": true,
            "has_pages": false,
            "has_projects": true,
            "has_wiki": true,
            "homepage": null,
            "hooks_url": "https://api.github.com/repos/PrismarineJS/prismarine-nbt/hooks",
            "html_url": "https://github.com/PrismarineJS/prismarine-nbt",
            "id": 31782080,
            "is_template": false,
            "issue_comment_url": "https://api.github.com/repos/PrismarineJS/prismarine-nbt/issues/comments{/number}",
            "issue_events_url": "https://api.github.com/repos/PrismarineJS/prismarine-nbt/issues/events{/number}",
            "issues_url": "https://api.github.com/repos/PrismarineJS/prismarine-nbt/issues{/number}",
            "keys_url": "https://api.github.com/repos/PrismarineJS/prismarine-nbt/keys{/key_id}",
            "labels_url": "https://api.github.com/repos/PrismarineJS/prismarine-nbt/labels{/name}",
            "language": "JavaScript",
            "languages_url": "https://api.github.com/repos/PrismarineJS/prismarine-nbt/languages",
            "license": null,
            "merges_url": "https://api.github.com/repos/PrismarineJS/prismarine-nbt/merges",
            "milestones_url": "https://api.github.com/repos/PrismarineJS/prismarine-nbt/milestones{/number}",
            "mirror_url": null,
            "name": "prismarine-nbt",
            "node_id": "MDEwOlJlcG9zaXRvcnkzMTc4MjA4MA==",
            "notifications_url": "https://api.github.com/repos/PrismarineJS/prismarine-nbt/notifications{?since,all,participating}",
            "open_issues": 5,
            "open_issues_count": 5,
            "owner": {
                "avatar_url": "https://avatars.githubusercontent.com/u/11053411?v=4",
                "events_url": "https://api.github.com/users/PrismarineJS/events{/privacy}",
                "followers_url": "https://api.github.com/users/PrismarineJS/followers",
                "following_url": "https://api.github.com/users/PrismarineJS/following{/other_user}",
                "gists_url": "https://api.github.com/users/PrismarineJS/gists{/gist_id}",
                "gravatar_id": "",
                "html_url": "https://github.com/PrismarineJS",
                "id": 11053411,
                "login": "PrismarineJS",
                "node_id": "MDEyOk9yZ2FuaXphdGlvbjExMDUzNDEx",
                "organizations_url": "https://api.github.com/users/PrismarineJS/orgs",
                "received_events_url": "https://api.github.com/users/PrismarineJS/received_events",
                "repos_url": "https://api.github.com/users/PrismarineJS/repos",
                "site_admin": false,
                "starred_url": "https://api.github.com/users/PrismarineJS/starred{/owner}{/repo}",
                "subscriptions_url": "https://api.github.com/users/PrismarineJS/subscriptions",
                "type": "Organization",
                "url": "https://api.github.com/users/PrismarineJS"
            },
            "private": false,
            "pulls_url": "https://api.github.com/repos/PrismarineJS/prismarine-nbt/pulls{/number}",
            "pushed_at": "2022-08-07T14:30:33Z",
            "releases_url": "https://api.github.com/repos/PrismarineJS/prismarine-nbt/releases{/id}",
            "size": 142,
            "ssh_url": "git@github.com:PrismarineJS/prismarine-nbt.git",
            "stargazers_count": 71,
            "stargazers_url": "https://api.github.com/repos/PrismarineJS/prismarine-nbt/stargazers",
            "statuses_url": "https://api.github.com/repos/PrismarineJS/prismarine-nbt/statuses/{sha}",
            "subscribers_url": "https://api.github.com/repos/PrismarineJS/prismarine-nbt/subscribers",
            "subscription_url": "https://api.github.com/repos/PrismarineJS/prismarine-nbt/subscription",
            "svn_url": "https://github.com/PrismarineJS/prismarine-nbt",
            "tags_url": "https://api.github.com/repos/PrismarineJS/prismarine-nbt/tags",
            "teams_url": "https://api.github.com/repos/PrismarineJS/prismarine-nbt/teams",
            "topics": [],
            "trees_url": "https://api.github.com/repos/PrismarineJS/prismarine-nbt/git/trees{/sha}",
            "updated_at": "2023-03-10T20:27:09Z",
            "url": "https://api.github.com/repos/PrismarineJS/prismarine-nbt",
            "visibility": "public",
            "watchers": 71,
            "watchers_count": 71,
            "web_commit_signoff_required": false
        },
        "sha": "406b2cb5f897ea449e64ecf0a325e90160e982af",
        "user": {
            "avatar_url": "https://avatars.githubusercontent.com/u/11053411?v=4",
            "events_url": "https://api.github.com/users/PrismarineJS/events{/privacy}",
            "followers_url": "https://api.github.com/users/PrismarineJS/followers",
            "following_url": "https://api.github.com/users/PrismarineJS/following{/other_user}",
            "gists_url": "https://api.github.com/users/PrismarineJS/gists{/gist_id}",
            "gravatar_id": "",
            "html_url": "https://github.com/PrismarineJS",
            "id": 11053411,
            "login": "PrismarineJS",
            "node_id": "MDEyOk9yZ2FuaXphdGlvbjExMDUzNDEx",
            "organizations_url": "https://api.github.com/users/PrismarineJS/orgs",
            "received_events_url": "https://api.github.com/users/PrismarineJS/received_events",
            "repos_url": "https://api.github.com/users/PrismarineJS/repos",
            "site_admin": false,
            "starred_url": "https://api.github.com/users/PrismarineJS/starred{/owner}{/repo}",
            "subscriptions_url": "https://api.github.com/users/PrismarineJS/subscriptions",
            "type": "Organization",
            "url": "https://api.github.com/users/PrismarineJS"
        }
    },
    "html_url": "https://github.com/PrismarineJS/prismarine-nbt/pull/46",
    "id": 664345813,
    "issue_url": "https://api.github.com/repos/PrismarineJS/prismarine-nbt/issues/46",
    "labels": [
        {
            "color": "0366d6",
            "default": false,
            "description": "Pull requests that update a dependency file",
            "id": 2067070378,
            "name": "dependencies",
            "node_id": "MDU6TGFiZWwyMDY3MDcwMzc4",
            "url": "https://api.github.com/repos/PrismarineJS/prismarine-nbt/labels/dependencies"
        }
    ],
    "locked": false,
    "maintainer_can_modify": false,
    "merge_commit_sha": "80d4982026d8654894f1bf913a6ae08ea2704506",
    "mergeable": null,
    "mergeable_state": "unknown",
    "merged": true,
    "merged_at": "2021-06-16T21:02:19Z",
    "merged_by": {
        "avatar_url": "https://avatars.githubusercontent.com/u/2346494?v=4",
        "events_url": "https://api.github.com/users/rom1504/events{/privacy}",
        "followers_url": "https://api.github.com/users/rom1504/followers",
        "following_url": "https://api.github.com/users/rom1504/following{/other_user}",
        "gists_url": "https://api.github.com/users/rom1504/gists{/gist_id}",
        "gravatar_id": "",
        "html_url": "https://github.com/rom1504",
        "id": 2346494,
        "login": "rom1504",
        "node_id": "MDQ6VXNlcjIzNDY0OTQ=",
        "organizations_url": "https://api.github.com/users/rom1504/orgs",
        "received_events_url": "https://api.github.com/users/rom1504/received_events",
        "repos_url": "https://api.github.com/users/rom1504/repos",
        "site_admin": false,
        "starred_url": "https://api.github.com/users/rom1504/starred{/owner}{/repo}",
        "subscriptions_url": "https://api.github.com/users/rom1504/subscriptions",
        "type": "User",
        "url": "https://api.github.com/users/rom1504"
    },
    "milestone": null,
    "node_id": "MDExOlB1bGxSZXF1ZXN0NjY0MzQ1ODEz",
    "number": 46,
    "patch_url": "https://github.com/PrismarineJS/prismarine-nbt/pull/46.patch",
    "rebaseable": null,
    "requested_reviewers": [],
    "requested_teams": [],
    "review_comment_url": "https://api.github.com/repos/PrismarineJS/prismarine-nbt/pulls/comments{/number}",
    "review_comments": 0,
    "review_comments_url": "https://api.github.com/repos/PrismarineJS/prismarine-nbt/pulls/46/comments",
    "state": "closed",
    "statuses_url": "https://api.github.com/repos/PrismarineJS/prismarine-nbt/statuses/406b2cb5f897ea449e64ecf0a325e90160e982af",
    "title": "Bump mocha from 8.4.0 to 9.0.0",
    "updated_at": "2021-06-16T21:02:28Z",
    "url": "https://api.github.com/repos/PrismarineJS/prismarine-nbt/pulls/46",
    "user": {
        "avatar_url": "https://avatars.githubusercontent.com/in/29110?v=4",
        "events_url": "https://api.github.com/users/dependabot%5Bbot%5D/events{/privacy}",
        "followers_url": "https://api.github.com/users/dependabot%5Bbot%5D/followers",
        "following_url": "https://api.github.com/users/dependabot%5Bbot%5D/following{/other_user}",
        "gists_url": "https://api.github.com/users/dependabot%5Bbot%5D/gists{/gist_id}",
        "gravatar_id": "",
        "html_url": "https://github.com/apps/dependabot",
        "id": 49699333,
        "login": "dependabot[bot]",
        "node_id": "MDM6Qm90NDk2OTkzMzM=",
        "organizations_url": "https://api.github.com/users/dependabot%5Bbot%5D/orgs",
        "received_events_url": "https://api.github.com/users/dependabot%5Bbot%5D/received_events",
        "repos_url": "https://api.github.com/users/dependabot%5Bbot%5D/repos",
        "site_admin": false,
        "starred_url": "https://api.github.com/users/dependabot%5Bbot%5D/starred{/owner}{/repo}",
        "subscriptions_url": "https://api.github.com/users/dependabot%5Bbot%5D/subscriptions",
        "type": "Bot",
        "url": "https://api.github.com/users/dependabot%5Bbot%5D"
    }
}