{
    "active_lock_reason": null,
    "assignee": null,
    "assignees": [],
    "author_association": "MEMBER",
    "body": "Example : \n\n``` json\n{\n  \"name\": \"chunkDataLength\",\n  \"type\": \"count\",\n  \"typeArgs\": {\n    \"type\": \"varint\",\n    \"countFor\": \"chunkData\"\n  }\n},\n{\n  \"name\": \"chunkData\",\n  \"type\": \"buffer\",\n  \"typeArgs\": {\n    \"count\": \"chunkDataLength\"\n  }\n}\n```\n\nshould become\n\n``` json\n{\n  \"name\": \"chunkData\",\n  \"type\": \"buffer\",\n  \"typeArgs\": {\n    \"countType\": \"varint\"\n  }\n}\n```\n\nThis greatly simplifies the protocol.json file, and makes it more obvious that count fields should not be supplied on write. I went over the 1.8 protocol, there are no instances where the count field is far away from the data it counts.\n",
    "closed_at": "2015-08-21T12:47:21Z",
    "comment_data": [
        {
            "author_association": "MEMBER",
            "body": "Sounds good, doing the .json transformation itself should be fairly easy, I think I'll do it and put it in a minecraft-data branch so we can see how to implement this in node-minecraft-protocol.\n",
            "created_at": "2015-08-13T10:29:30Z",
            "html_url": "https://github.com/PrismarineJS/minecraft-data/issues/28#issuecomment-130605513",
            "id": 130605513,
            "issue_url": "https://api.github.com/repos/PrismarineJS/minecraft-data/issues/28",
            "node_id": "MDEyOklzc3VlQ29tbWVudDEzMDYwNTUxMw==",
            "performed_via_github_app": null,
            "reactions": {
                "+1": 0,
                "-1": 0,
                "confused": 0,
                "eyes": 0,
                "heart": 0,
                "hooray": 0,
                "laugh": 0,
                "rocket": 0,
                "total_count": 0,
                "url": "https://api.github.com/repos/PrismarineJS/minecraft-data/issues/comments/130605513/reactions"
            },
            "updated_at": "2015-08-13T10:29:30Z",
            "url": "https://api.github.com/repos/PrismarineJS/minecraft-data/issues/comments/130605513",
            "user": {
                "avatar_url": "https://avatars.githubusercontent.com/u/2346494?v=4",
                "events_url": "https://api.github.com/users/rom1504/events{/privacy}",
                "followers_url": "https://api.github.com/users/rom1504/followers",
                "following_url": "https://api.github.com/users/rom1504/following{/other_user}",
                "gists_url": "https://api.github.com/users/rom1504/gists{/gist_id}",
                "gravatar_id": "",
                "html_url": "https://github.com/rom1504",
                "id": 2346494,
                "login": "rom1504",
                "node_id": "MDQ6VXNlcjIzNDY0OTQ=",
                "organizations_url": "https://api.github.com/users/rom1504/orgs",
                "received_events_url": "https://api.github.com/users/rom1504/received_events",
                "repos_url": "https://api.github.com/users/rom1504/repos",
                "site_admin": false,
                "starred_url": "https://api.github.com/users/rom1504/starred{/owner}{/repo}",
                "subscriptions_url": "https://api.github.com/users/rom1504/subscriptions",
                "type": "User",
                "url": "https://api.github.com/users/rom1504"
            }
        },
        {
            "author_association": "MEMBER",
            "body": "done\n",
            "created_at": "2015-08-21T12:47:21Z",
            "html_url": "https://github.com/PrismarineJS/minecraft-data/issues/28#issuecomment-133415519",
            "id": 133415519,
            "issue_url": "https://api.github.com/repos/PrismarineJS/minecraft-data/issues/28",
            "node_id": "MDEyOklzc3VlQ29tbWVudDEzMzQxNTUxOQ==",
            "performed_via_github_app": null,
            "reactions": {
                "+1": 0,
                "-1": 0,
                "confused": 0,
                "eyes": 0,
                "heart": 0,
                "hooray": 0,
                "laugh": 0,
                "rocket": 0,
                "total_count": 0,
                "url": "https://api.github.com/repos/PrismarineJS/minecraft-data/issues/comments/133415519/reactions"
            },
            "updated_at": "2015-08-21T12:47:21Z",
            "url": "https://api.github.com/repos/PrismarineJS/minecraft-data/issues/comments/133415519",
            "user": {
                "avatar_url": "https://avatars.githubusercontent.com/u/2346494?v=4",
                "events_url": "https://api.github.com/users/rom1504/events{/privacy}",
                "followers_url": "https://api.github.com/users/rom1504/followers",
                "following_url": "https://api.github.com/users/rom1504/following{/other_user}",
                "gists_url": "https://api.github.com/users/rom1504/gists{/gist_id}",
                "gravatar_id": "",
                "html_url": "https://github.com/rom1504",
                "id": 2346494,
                "login": "rom1504",
                "node_id": "MDQ6VXNlcjIzNDY0OTQ=",
                "organizations_url": "https://api.github.com/users/rom1504/orgs",
                "received_events_url": "https://api.github.com/users/rom1504/received_events",
                "repos_url": "https://api.github.com/users/rom1504/repos",
                "site_admin": false,
                "starred_url": "https://api.github.com/users/rom1504/starred{/owner}{/repo}",
                "subscriptions_url": "https://api.github.com/users/rom1504/subscriptions",
                "type": "User",
                "url": "https://api.github.com/users/rom1504"
            }
        }
    ],
    "comments": 2,
    "comments_url": "https://api.github.com/repos/PrismarineJS/minecraft-data/issues/28/comments",
    "created_at": "2015-08-13T10:11:02Z",
    "event_data": [
        {
            "actor": {
                "avatar_url": "https://avatars.githubusercontent.com/u/2346494?v=4",
                "events_url": "https://api.github.com/users/rom1504/events{/privacy}",
                "followers_url": "https://api.github.com/users/rom1504/followers",
                "following_url": "https://api.github.com/users/rom1504/following{/other_user}",
                "gists_url": "https://api.github.com/users/rom1504/gists{/gist_id}",
                "gravatar_id": "",
                "html_url": "https://github.com/rom1504",
                "id": 2346494,
                "login": "rom1504",
                "node_id": "MDQ6VXNlcjIzNDY0OTQ=",
                "organizations_url": "https://api.github.com/users/rom1504/orgs",
                "received_events_url": "https://api.github.com/users/rom1504/received_events",
                "repos_url": "https://api.github.com/users/rom1504/repos",
                "site_admin": false,
                "starred_url": "https://api.github.com/users/rom1504/starred{/owner}{/repo}",
                "subscriptions_url": "https://api.github.com/users/rom1504/subscriptions",
                "type": "User",
                "url": "https://api.github.com/users/rom1504"
            },
            "commit_id": null,
            "commit_url": null,
            "created_at": "2015-08-13T10:33:11Z",
            "event": "labeled",
            "id": 381280437,
            "label": {
                "color": "5319e7",
                "name": "format change"
            },
            "node_id": "MDEyOkxhYmVsZWRFdmVudDM4MTI4MDQzNw==",
            "performed_via_github_app": null,
            "url": "https://api.github.com/repos/PrismarineJS/minecraft-data/issues/events/381280437"
        },
        {
            "actor": {
                "avatar_url": "https://avatars.githubusercontent.com/u/2346494?v=4",
                "events_url": "https://api.github.com/users/rom1504/events{/privacy}",
                "followers_url": "https://api.github.com/users/rom1504/followers",
                "following_url": "https://api.github.com/users/rom1504/following{/other_user}",
                "gists_url": "https://api.github.com/users/rom1504/gists{/gist_id}",
                "gravatar_id": "",
                "html_url": "https://github.com/rom1504",
                "id": 2346494,
                "login": "rom1504",
                "node_id": "MDQ6VXNlcjIzNDY0OTQ=",
                "organizations_url": "https://api.github.com/users/rom1504/orgs",
                "received_events_url": "https://api.github.com/users/rom1504/received_events",
                "repos_url": "https://api.github.com/users/rom1504/repos",
                "site_admin": false,
                "starred_url": "https://api.github.com/users/rom1504/starred{/owner}{/repo}",
                "subscriptions_url": "https://api.github.com/users/rom1504/subscriptions",
                "type": "User",
                "url": "https://api.github.com/users/rom1504"
            },
            "commit_id": null,
            "commit_url": null,
            "created_at": "2015-08-21T12:47:21Z",
            "event": "closed",
            "id": 388758532,
            "node_id": "MDExOkNsb3NlZEV2ZW50Mzg4NzU4NTMy",
            "performed_via_github_app": null,
            "state_reason": null,
            "url": "https://api.github.com/repos/PrismarineJS/minecraft-data/issues/events/388758532"
        }
    ],
    "events_url": "https://api.github.com/repos/PrismarineJS/minecraft-data/issues/28/events",
    "html_url": "https://github.com/PrismarineJS/minecraft-data/issues/28",
    "id": 100731262,
    "labels": [
        {
            "color": "5319e7",
            "default": false,
            "description": null,
            "id": 204581467,
            "name": "schema change",
            "node_id": "MDU6TGFiZWwyMDQ1ODE0Njc=",
            "url": "https://api.github.com/repos/PrismarineJS/minecraft-data/labels/schema%20change"
        }
    ],
    "labels_url": "https://api.github.com/repos/PrismarineJS/minecraft-data/issues/28/labels{/name}",
    "locked": false,
    "milestone": null,
    "node_id": "MDU6SXNzdWUxMDA3MzEyNjI=",
    "number": 28,
    "performed_via_github_app": null,
    "reactions": {
        "+1": 0,
        "-1": 0,
        "confused": 0,
        "eyes": 0,
        "heart": 0,
        "hooray": 0,
        "laugh": 0,
        "rocket": 0,
        "total_count": 0,
        "url": "https://api.github.com/repos/PrismarineJS/minecraft-data/issues/28/reactions"
    },
    "repository_url": "https://api.github.com/repos/PrismarineJS/minecraft-data",
    "state": "closed",
    "state_reason": "completed",
    "timeline_url": "https://api.github.com/repos/PrismarineJS/minecraft-data/issues/28/timeline",
    "title": "Use countType in array to reduce field count",
    "updated_at": "2015-08-21T12:47:21Z",
    "url": "https://api.github.com/repos/PrismarineJS/minecraft-data/issues/28",
    "user": {
        "avatar_url": "https://avatars.githubusercontent.com/u/1069318?v=4",
        "events_url": "https://api.github.com/users/roblabla/events{/privacy}",
        "followers_url": "https://api.github.com/users/roblabla/followers",
        "following_url": "https://api.github.com/users/roblabla/following{/other_user}",
        "gists_url": "https://api.github.com/users/roblabla/gists{/gist_id}",
        "gravatar_id": "",
        "html_url": "https://github.com/roblabla",
        "id": 1069318,
        "login": "roblabla",
        "node_id": "MDQ6VXNlcjEwNjkzMTg=",
        "organizations_url": "https://api.github.com/users/roblabla/orgs",
        "received_events_url": "https://api.github.com/users/roblabla/received_events",
        "repos_url": "https://api.github.com/users/roblabla/repos",
        "site_admin": false,
        "starred_url": "https://api.github.com/users/roblabla/starred{/owner}{/repo}",
        "subscriptions_url": "https://api.github.com/users/roblabla/subscriptions",
        "type": "User",
        "url": "https://api.github.com/users/roblabla"
    }
}