{
    "active_lock_reason": null,
    "assignee": null,
    "assignees": [],
    "author_association": "NONE",
    "body": "how do i create this file ?",
    "closed_at": "2021-07-27T22:35:48Z",
    "comment_data": [
        {
            "author_association": "MEMBER",
            "body": "All data for 1.16.5 is present, for specific datapaths see https://github.com/PrismarineJS/minecraft-data/blob/master/data/dataPaths.json#L898-L920",
            "created_at": "2021-07-27T22:35:48Z",
            "html_url": "https://github.com/PrismarineJS/minecraft-data/issues/403#issuecomment-887878999",
            "id": 887878999,
            "issue_url": "https://api.github.com/repos/PrismarineJS/minecraft-data/issues/403",
            "node_id": "IC_kwDOAfOYes406_VX",
            "performed_via_github_app": null,
            "reactions": {
                "+1": 0,
                "-1": 0,
                "confused": 0,
                "eyes": 0,
                "heart": 0,
                "hooray": 0,
                "laugh": 0,
                "rocket": 0,
                "total_count": 0,
                "url": "https://api.github.com/repos/PrismarineJS/minecraft-data/issues/comments/887878999/reactions"
            },
            "updated_at": "2021-07-27T22:35:48Z",
            "url": "https://api.github.com/repos/PrismarineJS/minecraft-data/issues/comments/887878999",
            "user": {
                "avatar_url": "https://avatars.githubusercontent.com/u/1032552?v=4",
                "events_url": "https://api.github.com/users/nickelpro/events{/privacy}",
                "followers_url": "https://api.github.com/users/nickelpro/followers",
                "following_url": "https://api.github.com/users/nickelpro/following{/other_user}",
                "gists_url": "https://api.github.com/users/nickelpro/gists{/gist_id}",
                "gravatar_id": "",
                "html_url": "https://github.com/nickelpro",
                "id": 1032552,
                "login": "nickelpro",
                "node_id": "MDQ6VXNlcjEwMzI1NTI=",
                "organizations_url": "https://api.github.com/users/nickelpro/orgs",
                "received_events_url": "https://api.github.com/users/nickelpro/received_events",
                "repos_url": "https://api.github.com/users/nickelpro/repos",
                "site_admin": false,
                "starred_url": "https://api.github.com/users/nickelpro/starred{/owner}{/repo}",
                "subscriptions_url": "https://api.github.com/users/nickelpro/subscriptions",
                "type": "User",
                "url": "https://api.github.com/users/nickelpro"
            }
        }
    ],
    "comments": 1,
    "comments_url": "https://api.github.com/repos/PrismarineJS/minecraft-data/issues/403/comments",
    "created_at": "2021-05-14T12:47:22Z",
    "event_data": [
        {
            "actor": {
                "avatar_url": "https://avatars.githubusercontent.com/u/67515570?v=4",
                "events_url": "https://api.github.com/users/BrennoMaturino1/events{/privacy}",
                "followers_url": "https://api.github.com/users/BrennoMaturino1/followers",
                "following_url": "https://api.github.com/users/BrennoMaturino1/following{/other_user}",
                "gists_url": "https://api.github.com/users/BrennoMaturino1/gists{/gist_id}",
                "gravatar_id": "",
                "html_url": "https://github.com/BrennoMaturino1",
                "id": 67515570,
                "login": "BrennoMaturino1",
                "node_id": "MDQ6VXNlcjY3NTE1NTcw",
                "organizations_url": "https://api.github.com/users/BrennoMaturino1/orgs",
                "received_events_url": "https://api.github.com/users/BrennoMaturino1/received_events",
                "repos_url": "https://api.github.com/users/BrennoMaturino1/repos",
                "site_admin": false,
                "starred_url": "https://api.github.com/users/BrennoMaturino1/starred{/owner}{/repo}",
                "subscriptions_url": "https://api.github.com/users/BrennoMaturino1/subscriptions",
                "type": "User",
                "url": "https://api.github.com/users/BrennoMaturino1"
            },
            "commit_id": null,
            "commit_url": null,
            "created_at": "2021-05-14T12:56:14Z",
            "event": "renamed",
            "id": 4746877191,
            "node_id": "MDE3OlJlbmFtZWRUaXRsZUV2ZW50NDc0Njg3NzE5MQ==",
            "performed_via_github_app": null,
            "rename": {
                "from": "i need minecraft protocol.json for my node js project",
                "to": "i need minecraft 1.16.5 protocol.json for my node js project"
            },
            "url": "https://api.github.com/repos/PrismarineJS/minecraft-data/issues/events/4746877191"
        },
        {
            "actor": {
                "avatar_url": "https://avatars.githubusercontent.com/u/1032552?v=4",
                "events_url": "https://api.github.com/users/nickelpro/events{/privacy}",
                "followers_url": "https://api.github.com/users/nickelpro/followers",
                "following_url": "https://api.github.com/users/nickelpro/following{/other_user}",
                "gists_url": "https://api.github.com/users/nickelpro/gists{/gist_id}",
                "gravatar_id": "",
                "html_url": "https://github.com/nickelpro",
                "id": 1032552,
                "login": "nickelpro",
                "node_id": "MDQ6VXNlcjEwMzI1NTI=",
                "organizations_url": "https://api.github.com/users/nickelpro/orgs",
                "received_events_url": "https://api.github.com/users/nickelpro/received_events",
                "repos_url": "https://api.github.com/users/nickelpro/repos",
                "site_admin": false,
                "starred_url": "https://api.github.com/users/nickelpro/starred{/owner}{/repo}",
                "subscriptions_url": "https://api.github.com/users/nickelpro/subscriptions",
                "type": "User",
                "url": "https://api.github.com/users/nickelpro"
            },
            "commit_id": null,
            "commit_url": null,
            "created_at": "2021-07-27T22:35:48Z",
            "event": "closed",
            "id": 5077000020,
            "node_id": "MDExOkNsb3NlZEV2ZW50NTA3NzAwMDAyMA==",
            "performed_via_github_app": null,
            "state_reason": null,
            "url": "https://api.github.com/repos/PrismarineJS/minecraft-data/issues/events/5077000020"
        }
    ],
    "events_url": "https://api.github.com/repos/PrismarineJS/minecraft-data/issues/403/events",
    "html_url": "https://github.com/PrismarineJS/minecraft-data/issues/403",
    "id": 891894357,
    "labels": [],
    "labels_url": "https://api.github.com/repos/PrismarineJS/minecraft-data/issues/403/labels{/name}",
    "locked": false,
    "milestone": null,
    "node_id": "MDU6SXNzdWU4OTE4OTQzNTc=",
    "number": 403,
    "performed_via_github_app": null,
    "reactions": {
        "+1": 0,
        "-1": 0,
        "confused": 0,
        "eyes": 0,
        "heart": 0,
        "hooray": 0,
        "laugh": 0,
        "rocket": 0,
        "total_count": 0,
        "url": "https://api.github.com/repos/PrismarineJS/minecraft-data/issues/403/reactions"
    },
    "repository_url": "https://api.github.com/repos/PrismarineJS/minecraft-data",
    "state": "closed",
    "state_reason": "completed",
    "timeline_url": "https://api.github.com/repos/PrismarineJS/minecraft-data/issues/403/timeline",
    "title": "i need minecraft 1.16.5 protocol.json for my node js project",
    "updated_at": "2021-07-27T22:35:48Z",
    "url": "https://api.github.com/repos/PrismarineJS/minecraft-data/issues/403",
    "user": {
        "avatar_url": "https://avatars.githubusercontent.com/u/67515570?v=4",
        "events_url": "https://api.github.com/users/BrennoMaturino1/events{/privacy}",
        "followers_url": "https://api.github.com/users/BrennoMaturino1/followers",
        "following_url": "https://api.github.com/users/BrennoMaturino1/following{/other_user}",
        "gists_url": "https://api.github.com/users/BrennoMaturino1/gists{/gist_id}",
        "gravatar_id": "",
        "html_url": "https://github.com/BrennoMaturino1",
        "id": 67515570,
        "login": "BrennoMaturino1",
        "node_id": "MDQ6VXNlcjY3NTE1NTcw",
        "organizations_url": "https://api.github.com/users/BrennoMaturino1/orgs",
        "received_events_url": "https://api.github.com/users/BrennoMaturino1/received_events",
        "repos_url": "https://api.github.com/users/BrennoMaturino1/repos",
        "site_admin": false,
        "starred_url": "https://api.github.com/users/BrennoMaturino1/starred{/owner}{/repo}",
        "subscriptions_url": "https://api.github.com/users/BrennoMaturino1/subscriptions",
        "type": "User",
        "url": "https://api.github.com/users/BrennoMaturino1"
    }
}