{
    "active_lock_reason": null,
    "assignee": null,
    "assignees": [],
    "author_association": "NONE",
    "body": "Add particle data to McData. For example name, states, and other info",
    "closed_at": "2021-07-27T22:34:31Z",
    "comment_data": [
        {
            "author_association": "MEMBER",
            "body": "Particle names and IDs are already a part of [particles.json](https://github.com/PrismarineJS/minecraft-data/blob/master/schemas/particles_schema.json). This information could be potentially expanded, what's there now is just what's useful for the protocol. The relevant burger topping is [particletypes.py](https://github.com/mcdevs/Burger/blob/master/burger/toppings/particletypes.py) if someone wanted to automate it. Although it's worth mentioning that IIRC the particle types classes actually have very little information in them besides name and ID.\r\n\r\nEDIT: Derp, meant \"not much more\"",
            "created_at": "2021-05-19T18:23:41Z",
            "html_url": "https://github.com/PrismarineJS/minecraft-data/issues/405#issuecomment-844357132",
            "id": 844357132,
            "issue_url": "https://api.github.com/repos/PrismarineJS/minecraft-data/issues/405",
            "node_id": "MDEyOklzc3VlQ29tbWVudDg0NDM1NzEzMg==",
            "performed_via_github_app": null,
            "reactions": {
                "+1": 0,
                "-1": 0,
                "confused": 0,
                "eyes": 0,
                "heart": 0,
                "hooray": 0,
                "laugh": 0,
                "rocket": 0,
                "total_count": 0,
                "url": "https://api.github.com/repos/PrismarineJS/minecraft-data/issues/comments/844357132/reactions"
            },
            "updated_at": "2021-05-19T19:04:05Z",
            "url": "https://api.github.com/repos/PrismarineJS/minecraft-data/issues/comments/844357132",
            "user": {
                "avatar_url": "https://avatars.githubusercontent.com/u/1032552?v=4",
                "events_url": "https://api.github.com/users/nickelpro/events{/privacy}",
                "followers_url": "https://api.github.com/users/nickelpro/followers",
                "following_url": "https://api.github.com/users/nickelpro/following{/other_user}",
                "gists_url": "https://api.github.com/users/nickelpro/gists{/gist_id}",
                "gravatar_id": "",
                "html_url": "https://github.com/nickelpro",
                "id": 1032552,
                "login": "nickelpro",
                "node_id": "MDQ6VXNlcjEwMzI1NTI=",
                "organizations_url": "https://api.github.com/users/nickelpro/orgs",
                "received_events_url": "https://api.github.com/users/nickelpro/received_events",
                "repos_url": "https://api.github.com/users/nickelpro/repos",
                "site_admin": false,
                "starred_url": "https://api.github.com/users/nickelpro/starred{/owner}{/repo}",
                "subscriptions_url": "https://api.github.com/users/nickelpro/subscriptions",
                "type": "User",
                "url": "https://api.github.com/users/nickelpro"
            }
        },
        {
            "author_association": "MEMBER",
            "body": "> Particle names and IDs are already a part of [particles.json](https://github.com/PrismarineJS/minecraft-data/blob/master/schemas/particles_schema.json). This information could be potentially expanded, what's there now is just what's useful for the protocol. The relevant burger topping is [particletypes.py](https://github.com/mcdevs/Burger/blob/master/burger/toppings/particletypes.py) if someone wanted to automate it. Although it's worth mentioning that IIRC the particle types classes actually have much more information in them than name and ID.\r\n\r\nUnless I’m missing something, the topping seems to not work for 1.16.5",
            "created_at": "2021-05-19T18:25:41Z",
            "html_url": "https://github.com/PrismarineJS/minecraft-data/issues/405#issuecomment-844358703",
            "id": 844358703,
            "issue_url": "https://api.github.com/repos/PrismarineJS/minecraft-data/issues/405",
            "node_id": "MDEyOklzc3VlQ29tbWVudDg0NDM1ODcwMw==",
            "performed_via_github_app": null,
            "reactions": {
                "+1": 0,
                "-1": 0,
                "confused": 0,
                "eyes": 0,
                "heart": 0,
                "hooray": 0,
                "laugh": 0,
                "rocket": 0,
                "total_count": 0,
                "url": "https://api.github.com/repos/PrismarineJS/minecraft-data/issues/comments/844358703/reactions"
            },
            "updated_at": "2021-05-19T18:25:41Z",
            "url": "https://api.github.com/repos/PrismarineJS/minecraft-data/issues/comments/844358703",
            "user": {
                "avatar_url": "https://avatars.githubusercontent.com/u/43508353?v=4",
                "events_url": "https://api.github.com/users/u9g/events{/privacy}",
                "followers_url": "https://api.github.com/users/u9g/followers",
                "following_url": "https://api.github.com/users/u9g/following{/other_user}",
                "gists_url": "https://api.github.com/users/u9g/gists{/gist_id}",
                "gravatar_id": "",
                "html_url": "https://github.com/u9g",
                "id": 43508353,
                "login": "u9g",
                "node_id": "MDQ6VXNlcjQzNTA4MzUz",
                "organizations_url": "https://api.github.com/users/u9g/orgs",
                "received_events_url": "https://api.github.com/users/u9g/received_events",
                "repos_url": "https://api.github.com/users/u9g/repos",
                "site_admin": false,
                "starred_url": "https://api.github.com/users/u9g/starred{/owner}{/repo}",
                "subscriptions_url": "https://api.github.com/users/u9g/subscriptions",
                "type": "User",
                "url": "https://api.github.com/users/u9g"
            }
        },
        {
            "author_association": "MEMBER",
            "body": "Haven't tested it at all, I'll take a look at it now. Likely a class moved, shouldn't be a rough fix",
            "created_at": "2021-05-19T18:26:41Z",
            "html_url": "https://github.com/PrismarineJS/minecraft-data/issues/405#issuecomment-844359413",
            "id": 844359413,
            "issue_url": "https://api.github.com/repos/PrismarineJS/minecraft-data/issues/405",
            "node_id": "MDEyOklzc3VlQ29tbWVudDg0NDM1OTQxMw==",
            "performed_via_github_app": null,
            "reactions": {
                "+1": 0,
                "-1": 0,
                "confused": 0,
                "eyes": 0,
                "heart": 0,
                "hooray": 0,
                "laugh": 0,
                "rocket": 0,
                "total_count": 0,
                "url": "https://api.github.com/repos/PrismarineJS/minecraft-data/issues/comments/844359413/reactions"
            },
            "updated_at": "2021-05-19T18:26:41Z",
            "url": "https://api.github.com/repos/PrismarineJS/minecraft-data/issues/comments/844359413",
            "user": {
                "avatar_url": "https://avatars.githubusercontent.com/u/1032552?v=4",
                "events_url": "https://api.github.com/users/nickelpro/events{/privacy}",
                "followers_url": "https://api.github.com/users/nickelpro/followers",
                "following_url": "https://api.github.com/users/nickelpro/following{/other_user}",
                "gists_url": "https://api.github.com/users/nickelpro/gists{/gist_id}",
                "gravatar_id": "",
                "html_url": "https://github.com/nickelpro",
                "id": 1032552,
                "login": "nickelpro",
                "node_id": "MDQ6VXNlcjEwMzI1NTI=",
                "organizations_url": "https://api.github.com/users/nickelpro/orgs",
                "received_events_url": "https://api.github.com/users/nickelpro/received_events",
                "repos_url": "https://api.github.com/users/nickelpro/repos",
                "site_admin": false,
                "starred_url": "https://api.github.com/users/nickelpro/starred{/owner}{/repo}",
                "subscriptions_url": "https://api.github.com/users/nickelpro/subscriptions",
                "type": "User",
                "url": "https://api.github.com/users/nickelpro"
            }
        },
        {
            "author_association": "MEMBER",
            "body": "Nope, works fine for me\r\n\r\n```\r\n$ python munch.py --download=1.16.5 --toppings=particletypes\r\n[\r\n    {\r\n        \"classes\": {\r\n            \"anvilchunkloader\": \"zs\",\r\n            \"biome.list\": \"kp\",\r\n            \"biome.register\": \"kp\",\r\n            \"block.list\": \"bup\",\r\n            \"block.register\": \"bup\",\r\n            \"blockstate\": \"ceh\",\r\n            \"blockstatecontainer\": \"cei$a\",\r\n            \"chatcomponent\": \"nr\",\r\n            \"entity.list\": \"aqe\",\r\n            \"enumfacing.plane\": \"gc$c\",\r\n            \"identifier\": \"vk\",\r\n            \"item.list\": \"bmd\",\r\n            \"item.register\": \"bmd\",\r\n            \"itemstack\": \"bmb\",\r\n            \"metadata\": \"uv\",\r\n            \"nbtcompound\": \"md\",\r\n            \"nethandler.client\": \"dwu\",\r\n            \"nethandler.server\": \"aaz\",\r\n            \"packet.connectionstate\": \"ne\",\r\n            \"packet.packetbuffer\": \"nf\",\r\n            \"particle\": \"hf\",\r\n            \"particletypes\": \"hh\",\r\n            \"recipe.superclass\": \"jg\",\r\n            \"sounds.event\": \"adq\",\r\n            \"sounds.list\": \"adq\",\r\n            \"tileentity.superclass\": \"ccj\"\r\n        },\r\n        \"particletypes\": [\r\n            \"ambient_entity_effect\",\r\n            \"angry_villager\",\r\n            \"barrier\",\r\n            \"block\",\r\n            \"bubble\",\r\n            \"cloud\",\r\n            \"crit\",\r\n            \"damage_indicator\",\r\n            \"dragon_breath\",\r\n            \"dripping_lava\",\r\n            \"falling_lava\",\r\n            \"landing_lava\",\r\n            \"dripping_water\",\r\n            \"falling_water\",\r\n            \"dust\",\r\n            \"effect\",\r\n            \"elder_guardian\",\r\n            \"enchanted_hit\",\r\n            \"enchant\",\r\n            \"end_rod\",\r\n            \"entity_effect\",\r\n            \"explosion_emitter\",\r\n            \"explosion\",\r\n            \"falling_dust\",\r\n            \"firework\",\r\n            \"fishing\",\r\n            \"flame\",\r\n            \"soul_fire_flame\",\r\n            \"soul\",\r\n            \"flash\",\r\n            \"happy_villager\",\r\n            \"composter\",\r\n            \"heart\",\r\n            \"instant_effect\",\r\n            \"item\",\r\n            \"item_slime\",\r\n            \"item_snowball\",\r\n            \"large_smoke\",\r\n            \"lava\",\r\n            \"mycelium\",\r\n            \"note\",\r\n            \"poof\",\r\n            \"portal\",\r\n            \"rain\",\r\n            \"smoke\",\r\n            \"sneeze\",\r\n            \"spit\",\r\n            \"squid_ink\",\r\n            \"sweep_attack\",\r\n            \"totem_of_undying\",\r\n            \"underwater\",\r\n            \"splash\",\r\n            \"witch\",\r\n            \"bubble_pop\",\r\n            \"current_down\",\r\n            \"bubble_column_up\",\r\n            \"nautilus\",\r\n            \"dolphin\",\r\n            \"campfire_cosy_smoke\",\r\n            \"campfire_signal_smoke\",\r\n            \"dripping_honey\",\r\n            \"falling_honey\",\r\n            \"landing_honey\",\r\n            \"falling_nectar\",\r\n            \"ash\",\r\n            \"crimson_spore\",\r\n            \"warped_spore\",\r\n            \"dripping_obsidian_tear\",\r\n            \"falling_obsidian_tear\",\r\n            \"landing_obsidian_tear\",\r\n            \"reverse_portal\",\r\n            \"white_ash\"\r\n        ],\r\n        \"source\": {\r\n            \"classes\": 5445,\r\n            \"file\": \"1.16.5.jar\",\r\n            \"other\": 14646,\r\n            \"size\": 17547153\r\n        }\r\n    }\r\n]\r\n```",
            "created_at": "2021-05-19T18:34:52Z",
            "html_url": "https://github.com/PrismarineJS/minecraft-data/issues/405#issuecomment-844365713",
            "id": 844365713,
            "issue_url": "https://api.github.com/repos/PrismarineJS/minecraft-data/issues/405",
            "node_id": "MDEyOklzc3VlQ29tbWVudDg0NDM2NTcxMw==",
            "performed_via_github_app": null,
            "reactions": {
                "+1": 0,
                "-1": 0,
                "confused": 0,
                "eyes": 0,
                "heart": 0,
                "hooray": 0,
                "laugh": 0,
                "rocket": 0,
                "total_count": 0,
                "url": "https://api.github.com/repos/PrismarineJS/minecraft-data/issues/comments/844365713/reactions"
            },
            "updated_at": "2021-05-19T18:34:52Z",
            "url": "https://api.github.com/repos/PrismarineJS/minecraft-data/issues/comments/844365713",
            "user": {
                "avatar_url": "https://avatars.githubusercontent.com/u/1032552?v=4",
                "events_url": "https://api.github.com/users/nickelpro/events{/privacy}",
                "followers_url": "https://api.github.com/users/nickelpro/followers",
                "following_url": "https://api.github.com/users/nickelpro/following{/other_user}",
                "gists_url": "https://api.github.com/users/nickelpro/gists{/gist_id}",
                "gravatar_id": "",
                "html_url": "https://github.com/nickelpro",
                "id": 1032552,
                "login": "nickelpro",
                "node_id": "MDQ6VXNlcjEwMzI1NTI=",
                "organizations_url": "https://api.github.com/users/nickelpro/orgs",
                "received_events_url": "https://api.github.com/users/nickelpro/received_events",
                "repos_url": "https://api.github.com/users/nickelpro/repos",
                "site_admin": false,
                "starred_url": "https://api.github.com/users/nickelpro/starred{/owner}{/repo}",
                "subscriptions_url": "https://api.github.com/users/nickelpro/subscriptions",
                "type": "User",
                "url": "https://api.github.com/users/nickelpro"
            }
        },
        {
            "author_association": "MEMBER",
            "body": "in\r\n\r\n> Nope, works fine for me\r\n> \r\n> ```\r\n> $ python munch.py --download=1.16.5 --toppings=particletypes\r\n> [\r\n>     {\r\n>         \"classes\": {\r\n>             \"anvilchunkloader\": \"zs\",\r\n>             \"biome.list\": \"kp\",\r\n>             \"biome.register\": \"kp\",\r\n>             \"block.list\": \"bup\",\r\n>             \"block.register\": \"bup\",\r\n>             \"blockstate\": \"ceh\",\r\n>             \"blockstatecontainer\": \"cei$a\",\r\n>             \"chatcomponent\": \"nr\",\r\n>             \"entity.list\": \"aqe\",\r\n>             \"enumfacing.plane\": \"gc$c\",\r\n>             \"identifier\": \"vk\",\r\n>             \"item.list\": \"bmd\",\r\n>             \"item.register\": \"bmd\",\r\n>             \"itemstack\": \"bmb\",\r\n>             \"metadata\": \"uv\",\r\n>             \"nbtcompound\": \"md\",\r\n>             \"nethandler.client\": \"dwu\",\r\n>             \"nethandler.server\": \"aaz\",\r\n>             \"packet.connectionstate\": \"ne\",\r\n>             \"packet.packetbuffer\": \"nf\",\r\n>             \"particle\": \"hf\",\r\n>             \"particletypes\": \"hh\",\r\n>             \"recipe.superclass\": \"jg\",\r\n>             \"sounds.event\": \"adq\",\r\n>             \"sounds.list\": \"adq\",\r\n>             \"tileentity.superclass\": \"ccj\"\r\n>         },\r\n>         \"particletypes\": [\r\n>             \"ambient_entity_effect\",\r\n>             \"angry_villager\",\r\n>             \"barrier\",\r\n>             \"block\",\r\n>             \"bubble\",\r\n>             \"cloud\",\r\n>             \"crit\",\r\n>             \"damage_indicator\",\r\n>             \"dragon_breath\",\r\n>             \"dripping_lava\",\r\n>             \"falling_lava\",\r\n>             \"landing_lava\",\r\n>             \"dripping_water\",\r\n>             \"falling_water\",\r\n>             \"dust\",\r\n>             \"effect\",\r\n>             \"elder_guardian\",\r\n>             \"enchanted_hit\",\r\n>             \"enchant\",\r\n>             \"end_rod\",\r\n>             \"entity_effect\",\r\n>             \"explosion_emitter\",\r\n>             \"explosion\",\r\n>             \"falling_dust\",\r\n>             \"firework\",\r\n>             \"fishing\",\r\n>             \"flame\",\r\n>             \"soul_fire_flame\",\r\n>             \"soul\",\r\n>             \"flash\",\r\n>             \"happy_villager\",\r\n>             \"composter\",\r\n>             \"heart\",\r\n>             \"instant_effect\",\r\n>             \"item\",\r\n>             \"item_slime\",\r\n>             \"item_snowball\",\r\n>             \"large_smoke\",\r\n>             \"lava\",\r\n>             \"mycelium\",\r\n>             \"note\",\r\n>             \"poof\",\r\n>             \"portal\",\r\n>             \"rain\",\r\n>             \"smoke\",\r\n>             \"sneeze\",\r\n>             \"spit\",\r\n>             \"squid_ink\",\r\n>             \"sweep_attack\",\r\n>             \"totem_of_undying\",\r\n>             \"underwater\",\r\n>             \"splash\",\r\n>             \"witch\",\r\n>             \"bubble_pop\",\r\n>             \"current_down\",\r\n>             \"bubble_column_up\",\r\n>             \"nautilus\",\r\n>             \"dolphin\",\r\n>             \"campfire_cosy_smoke\",\r\n>             \"campfire_signal_smoke\",\r\n>             \"dripping_honey\",\r\n>             \"falling_honey\",\r\n>             \"landing_honey\",\r\n>             \"falling_nectar\",\r\n>             \"ash\",\r\n>             \"crimson_spore\",\r\n>             \"warped_spore\",\r\n>             \"dripping_obsidian_tear\",\r\n>             \"falling_obsidian_tear\",\r\n>             \"landing_obsidian_tear\",\r\n>             \"reverse_portal\",\r\n>             \"white_ash\"\r\n>         ],\r\n>         \"source\": {\r\n>             \"classes\": 5445,\r\n>             \"file\": \"1.16.5.jar\",\r\n>             \"other\": 14646,\r\n>             \"size\": 17547153\r\n>         }\r\n>     }\r\n> ]\r\n> ```\r\n\r\nnvm, i meant that we dont have a module for burgerextractor for particles to make the particles.json iirc",
            "created_at": "2021-05-19T18:37:01Z",
            "html_url": "https://github.com/PrismarineJS/minecraft-data/issues/405#issuecomment-844367246",
            "id": 844367246,
            "issue_url": "https://api.github.com/repos/PrismarineJS/minecraft-data/issues/405",
            "node_id": "MDEyOklzc3VlQ29tbWVudDg0NDM2NzI0Ng==",
            "performed_via_github_app": null,
            "reactions": {
                "+1": 0,
                "-1": 0,
                "confused": 0,
                "eyes": 0,
                "heart": 0,
                "hooray": 0,
                "laugh": 0,
                "rocket": 0,
                "total_count": 0,
                "url": "https://api.github.com/repos/PrismarineJS/minecraft-data/issues/comments/844367246/reactions"
            },
            "updated_at": "2021-05-19T18:37:01Z",
            "url": "https://api.github.com/repos/PrismarineJS/minecraft-data/issues/comments/844367246",
            "user": {
                "avatar_url": "https://avatars.githubusercontent.com/u/43508353?v=4",
                "events_url": "https://api.github.com/users/u9g/events{/privacy}",
                "followers_url": "https://api.github.com/users/u9g/followers",
                "following_url": "https://api.github.com/users/u9g/following{/other_user}",
                "gists_url": "https://api.github.com/users/u9g/gists{/gist_id}",
                "gravatar_id": "",
                "html_url": "https://github.com/u9g",
                "id": 43508353,
                "login": "u9g",
                "node_id": "MDQ6VXNlcjQzNTA4MzUz",
                "organizations_url": "https://api.github.com/users/u9g/orgs",
                "received_events_url": "https://api.github.com/users/u9g/received_events",
                "repos_url": "https://api.github.com/users/u9g/repos",
                "site_admin": false,
                "starred_url": "https://api.github.com/users/u9g/starred{/owner}{/repo}",
                "subscriptions_url": "https://api.github.com/users/u9g/subscriptions",
                "type": "User",
                "url": "https://api.github.com/users/u9g"
            }
        },
        {
            "author_association": "MEMBER",
            "body": "Ya that's because I have no idea how to write javascript. It's a dead simple transformation though, the index of the name in the `particletypes` list is the particle ID. Someone who knows JS could write an extractor in a second.",
            "created_at": "2021-05-19T18:38:32Z",
            "html_url": "https://github.com/PrismarineJS/minecraft-data/issues/405#issuecomment-844368349",
            "id": 844368349,
            "issue_url": "https://api.github.com/repos/PrismarineJS/minecraft-data/issues/405",
            "node_id": "MDEyOklzc3VlQ29tbWVudDg0NDM2ODM0OQ==",
            "performed_via_github_app": null,
            "reactions": {
                "+1": 0,
                "-1": 0,
                "confused": 0,
                "eyes": 0,
                "heart": 0,
                "hooray": 0,
                "laugh": 0,
                "rocket": 0,
                "total_count": 0,
                "url": "https://api.github.com/repos/PrismarineJS/minecraft-data/issues/comments/844368349/reactions"
            },
            "updated_at": "2021-05-19T18:38:32Z",
            "url": "https://api.github.com/repos/PrismarineJS/minecraft-data/issues/comments/844368349",
            "user": {
                "avatar_url": "https://avatars.githubusercontent.com/u/1032552?v=4",
                "events_url": "https://api.github.com/users/nickelpro/events{/privacy}",
                "followers_url": "https://api.github.com/users/nickelpro/followers",
                "following_url": "https://api.github.com/users/nickelpro/following{/other_user}",
                "gists_url": "https://api.github.com/users/nickelpro/gists{/gist_id}",
                "gravatar_id": "",
                "html_url": "https://github.com/nickelpro",
                "id": 1032552,
                "login": "nickelpro",
                "node_id": "MDQ6VXNlcjEwMzI1NTI=",
                "organizations_url": "https://api.github.com/users/nickelpro/orgs",
                "received_events_url": "https://api.github.com/users/nickelpro/received_events",
                "repos_url": "https://api.github.com/users/nickelpro/repos",
                "site_admin": false,
                "starred_url": "https://api.github.com/users/nickelpro/starred{/owner}{/repo}",
                "subscriptions_url": "https://api.github.com/users/nickelpro/subscriptions",
                "type": "User",
                "url": "https://api.github.com/users/nickelpro"
            }
        },
        {
            "author_association": "MEMBER",
            "body": "> Ya that's because I have no idea how to write javascript. It's a dead simple transformation though, the index of the name in the `particletypes` list is the particle ID. Someone who knows JS could write an extractor in a second.\r\n\r\nah you were right, made https://github.com/PrismarineJS/burger-extractor/pull/15",
            "created_at": "2021-05-19T18:59:24Z",
            "html_url": "https://github.com/PrismarineJS/minecraft-data/issues/405#issuecomment-844383445",
            "id": 844383445,
            "issue_url": "https://api.github.com/repos/PrismarineJS/minecraft-data/issues/405",
            "node_id": "MDEyOklzc3VlQ29tbWVudDg0NDM4MzQ0NQ==",
            "performed_via_github_app": null,
            "reactions": {
                "+1": 0,
                "-1": 0,
                "confused": 0,
                "eyes": 0,
                "heart": 0,
                "hooray": 1,
                "laugh": 0,
                "rocket": 0,
                "total_count": 1,
                "url": "https://api.github.com/repos/PrismarineJS/minecraft-data/issues/comments/844383445/reactions"
            },
            "updated_at": "2021-05-19T18:59:24Z",
            "url": "https://api.github.com/repos/PrismarineJS/minecraft-data/issues/comments/844383445",
            "user": {
                "avatar_url": "https://avatars.githubusercontent.com/u/43508353?v=4",
                "events_url": "https://api.github.com/users/u9g/events{/privacy}",
                "followers_url": "https://api.github.com/users/u9g/followers",
                "following_url": "https://api.github.com/users/u9g/following{/other_user}",
                "gists_url": "https://api.github.com/users/u9g/gists{/gist_id}",
                "gravatar_id": "",
                "html_url": "https://github.com/u9g",
                "id": 43508353,
                "login": "u9g",
                "node_id": "MDQ6VXNlcjQzNTA4MzUz",
                "organizations_url": "https://api.github.com/users/u9g/orgs",
                "received_events_url": "https://api.github.com/users/u9g/received_events",
                "repos_url": "https://api.github.com/users/u9g/repos",
                "site_admin": false,
                "starred_url": "https://api.github.com/users/u9g/starred{/owner}{/repo}",
                "subscriptions_url": "https://api.github.com/users/u9g/subscriptions",
                "type": "User",
                "url": "https://api.github.com/users/u9g"
            }
        },
        {
            "author_association": "MEMBER",
            "body": "Fairly certain this can be closed unless I'm missing something",
            "created_at": "2021-06-09T01:32:36Z",
            "html_url": "https://github.com/PrismarineJS/minecraft-data/issues/405#issuecomment-857302910",
            "id": 857302910,
            "issue_url": "https://api.github.com/repos/PrismarineJS/minecraft-data/issues/405",
            "node_id": "MDEyOklzc3VlQ29tbWVudDg1NzMwMjkxMA==",
            "performed_via_github_app": null,
            "reactions": {
                "+1": 0,
                "-1": 0,
                "confused": 0,
                "eyes": 0,
                "heart": 0,
                "hooray": 0,
                "laugh": 0,
                "rocket": 0,
                "total_count": 0,
                "url": "https://api.github.com/repos/PrismarineJS/minecraft-data/issues/comments/857302910/reactions"
            },
            "updated_at": "2021-06-09T01:32:36Z",
            "url": "https://api.github.com/repos/PrismarineJS/minecraft-data/issues/comments/857302910",
            "user": {
                "avatar_url": "https://avatars.githubusercontent.com/u/1032552?v=4",
                "events_url": "https://api.github.com/users/nickelpro/events{/privacy}",
                "followers_url": "https://api.github.com/users/nickelpro/followers",
                "following_url": "https://api.github.com/users/nickelpro/following{/other_user}",
                "gists_url": "https://api.github.com/users/nickelpro/gists{/gist_id}",
                "gravatar_id": "",
                "html_url": "https://github.com/nickelpro",
                "id": 1032552,
                "login": "nickelpro",
                "node_id": "MDQ6VXNlcjEwMzI1NTI=",
                "organizations_url": "https://api.github.com/users/nickelpro/orgs",
                "received_events_url": "https://api.github.com/users/nickelpro/received_events",
                "repos_url": "https://api.github.com/users/nickelpro/repos",
                "site_admin": false,
                "starred_url": "https://api.github.com/users/nickelpro/starred{/owner}{/repo}",
                "subscriptions_url": "https://api.github.com/users/nickelpro/subscriptions",
                "type": "User",
                "url": "https://api.github.com/users/nickelpro"
            }
        },
        {
            "author_association": "MEMBER",
            "body": "Closing this for now. I'm unaware of any particle data that isn't covered between particles.json and protocol.json. If there's something that we're missing it can be worked on in a bug report that lays out specifically what's needed",
            "created_at": "2021-07-27T22:34:31Z",
            "html_url": "https://github.com/PrismarineJS/minecraft-data/issues/405#issuecomment-887878512",
            "id": 887878512,
            "issue_url": "https://api.github.com/repos/PrismarineJS/minecraft-data/issues/405",
            "node_id": "IC_kwDOAfOYes406_Nw",
            "performed_via_github_app": null,
            "reactions": {
                "+1": 0,
                "-1": 0,
                "confused": 0,
                "eyes": 0,
                "heart": 0,
                "hooray": 0,
                "laugh": 0,
                "rocket": 0,
                "total_count": 0,
                "url": "https://api.github.com/repos/PrismarineJS/minecraft-data/issues/comments/887878512/reactions"
            },
            "updated_at": "2021-07-27T22:34:31Z",
            "url": "https://api.github.com/repos/PrismarineJS/minecraft-data/issues/comments/887878512",
            "user": {
                "avatar_url": "https://avatars.githubusercontent.com/u/1032552?v=4",
                "events_url": "https://api.github.com/users/nickelpro/events{/privacy}",
                "followers_url": "https://api.github.com/users/nickelpro/followers",
                "following_url": "https://api.github.com/users/nickelpro/following{/other_user}",
                "gists_url": "https://api.github.com/users/nickelpro/gists{/gist_id}",
                "gravatar_id": "",
                "html_url": "https://github.com/nickelpro",
                "id": 1032552,
                "login": "nickelpro",
                "node_id": "MDQ6VXNlcjEwMzI1NTI=",
                "organizations_url": "https://api.github.com/users/nickelpro/orgs",
                "received_events_url": "https://api.github.com/users/nickelpro/received_events",
                "repos_url": "https://api.github.com/users/nickelpro/repos",
                "site_admin": false,
                "starred_url": "https://api.github.com/users/nickelpro/starred{/owner}{/repo}",
                "subscriptions_url": "https://api.github.com/users/nickelpro/subscriptions",
                "type": "User",
                "url": "https://api.github.com/users/nickelpro"
            }
        }
    ],
    "comments": 9,
    "comments_url": "https://api.github.com/repos/PrismarineJS/minecraft-data/issues/405/comments",
    "created_at": "2021-05-19T18:04:33Z",
    "event_data": [
        {
            "actor": {
                "avatar_url": "https://avatars.githubusercontent.com/u/1032552?v=4",
                "events_url": "https://api.github.com/users/nickelpro/events{/privacy}",
                "followers_url": "https://api.github.com/users/nickelpro/followers",
                "following_url": "https://api.github.com/users/nickelpro/following{/other_user}",
                "gists_url": "https://api.github.com/users/nickelpro/gists{/gist_id}",
                "gravatar_id": "",
                "html_url": "https://github.com/nickelpro",
                "id": 1032552,
                "login": "nickelpro",
                "node_id": "MDQ6VXNlcjEwMzI1NTI=",
                "organizations_url": "https://api.github.com/users/nickelpro/orgs",
                "received_events_url": "https://api.github.com/users/nickelpro/received_events",
                "repos_url": "https://api.github.com/users/nickelpro/repos",
                "site_admin": false,
                "starred_url": "https://api.github.com/users/nickelpro/starred{/owner}{/repo}",
                "subscriptions_url": "https://api.github.com/users/nickelpro/subscriptions",
                "type": "User",
                "url": "https://api.github.com/users/nickelpro"
            },
            "commit_id": null,
            "commit_url": null,
            "created_at": "2021-07-27T22:34:31Z",
            "event": "closed",
            "id": 5076996618,
            "node_id": "MDExOkNsb3NlZEV2ZW50NTA3Njk5NjYxOA==",
            "performed_via_github_app": null,
            "state_reason": null,
            "url": "https://api.github.com/repos/PrismarineJS/minecraft-data/issues/events/5076996618"
        }
    ],
    "events_url": "https://api.github.com/repos/PrismarineJS/minecraft-data/issues/405/events",
    "html_url": "https://github.com/PrismarineJS/minecraft-data/issues/405",
    "id": 895733013,
    "labels": [],
    "labels_url": "https://api.github.com/repos/PrismarineJS/minecraft-data/issues/405/labels{/name}",
    "locked": false,
    "milestone": null,
    "node_id": "MDU6SXNzdWU4OTU3MzMwMTM=",
    "number": 405,
    "performed_via_github_app": null,
    "reactions": {
        "+1": 0,
        "-1": 0,
        "confused": 0,
        "eyes": 0,
        "heart": 0,
        "hooray": 0,
        "laugh": 0,
        "rocket": 0,
        "total_count": 0,
        "url": "https://api.github.com/repos/PrismarineJS/minecraft-data/issues/405/reactions"
    },
    "repository_url": "https://api.github.com/repos/PrismarineJS/minecraft-data",
    "state": "closed",
    "state_reason": "completed",
    "timeline_url": "https://api.github.com/repos/PrismarineJS/minecraft-data/issues/405/timeline",
    "title": "Add particle data.",
    "updated_at": "2021-07-27T22:34:31Z",
    "url": "https://api.github.com/repos/PrismarineJS/minecraft-data/issues/405",
    "user": {
        "avatar_url": "https://avatars.githubusercontent.com/u/72399198?v=4",
        "events_url": "https://api.github.com/users/Zn10plays/events{/privacy}",
        "followers_url": "https://api.github.com/users/Zn10plays/followers",
        "following_url": "https://api.github.com/users/Zn10plays/following{/other_user}",
        "gists_url": "https://api.github.com/users/Zn10plays/gists{/gist_id}",
        "gravatar_id": "",
        "html_url": "https://github.com/Zn10plays",
        "id": 72399198,
        "login": "Zn10plays",
        "node_id": "MDQ6VXNlcjcyMzk5MTk4",
        "organizations_url": "https://api.github.com/users/Zn10plays/orgs",
        "received_events_url": "https://api.github.com/users/Zn10plays/received_events",
        "repos_url": "https://api.github.com/users/Zn10plays/repos",
        "site_admin": false,
        "starred_url": "https://api.github.com/users/Zn10plays/starred{/owner}{/repo}",
        "subscriptions_url": "https://api.github.com/users/Zn10plays/subscriptions",
        "type": "User",
        "url": "https://api.github.com/users/Zn10plays"
    }
}