{
    "active_lock_reason": null,
    "assignee": null,
    "assignees": [],
    "author_association": "MEMBER",
    "body": "\"hasInventory\": {true|false}\n\nExtractable from drops (\"plus content\") http://minecraft.gamepedia.com/index.php?title=Chest&action=edit\n",
    "closed_at": null,
    "comment_data": [],
    "comments": 0,
    "comments_url": "https://api.github.com/repos/PrismarineJS/minecraft-data/issues/48/comments",
    "created_at": "2015-08-26T16:06:34Z",
    "event_data": [
        {
            "actor": {
                "avatar_url": "https://avatars.githubusercontent.com/u/2346494?v=4",
                "events_url": "https://api.github.com/users/rom1504/events{/privacy}",
                "followers_url": "https://api.github.com/users/rom1504/followers",
                "following_url": "https://api.github.com/users/rom1504/following{/other_user}",
                "gists_url": "https://api.github.com/users/rom1504/gists{/gist_id}",
                "gravatar_id": "",
                "html_url": "https://github.com/rom1504",
                "id": 2346494,
                "login": "rom1504",
                "node_id": "MDQ6VXNlcjIzNDY0OTQ=",
                "organizations_url": "https://api.github.com/users/rom1504/orgs",
                "received_events_url": "https://api.github.com/users/rom1504/received_events",
                "repos_url": "https://api.github.com/users/rom1504/repos",
                "site_admin": false,
                "starred_url": "https://api.github.com/users/rom1504/starred{/owner}{/repo}",
                "subscriptions_url": "https://api.github.com/users/rom1504/subscriptions",
                "type": "User",
                "url": "https://api.github.com/users/rom1504"
            },
            "commit_id": null,
            "commit_url": null,
            "created_at": "2015-08-26T16:06:41Z",
            "event": "labeled",
            "id": 393038914,
            "label": {
                "color": "bfd4f2",
                "name": "new data"
            },
            "node_id": "MDEyOkxhYmVsZWRFdmVudDM5MzAzODkxNA==",
            "performed_via_github_app": null,
            "url": "https://api.github.com/repos/PrismarineJS/minecraft-data/issues/events/393038914"
        },
        {
            "actor": {
                "avatar_url": "https://avatars.githubusercontent.com/u/2346494?v=4",
                "events_url": "https://api.github.com/users/rom1504/events{/privacy}",
                "followers_url": "https://api.github.com/users/rom1504/followers",
                "following_url": "https://api.github.com/users/rom1504/following{/other_user}",
                "gists_url": "https://api.github.com/users/rom1504/gists{/gist_id}",
                "gravatar_id": "",
                "html_url": "https://github.com/rom1504",
                "id": 2346494,
                "login": "rom1504",
                "node_id": "MDQ6VXNlcjIzNDY0OTQ=",
                "organizations_url": "https://api.github.com/users/rom1504/orgs",
                "received_events_url": "https://api.github.com/users/rom1504/received_events",
                "repos_url": "https://api.github.com/users/rom1504/repos",
                "site_admin": false,
                "starred_url": "https://api.github.com/users/rom1504/starred{/owner}{/repo}",
                "subscriptions_url": "https://api.github.com/users/rom1504/subscriptions",
                "type": "User",
                "url": "https://api.github.com/users/rom1504"
            },
            "commit_id": null,
            "commit_url": null,
            "created_at": "2015-08-26T16:06:41Z",
            "event": "labeled",
            "id": 393038915,
            "label": {
                "color": "5319e7",
                "name": "schema change"
            },
            "node_id": "MDEyOkxhYmVsZWRFdmVudDM5MzAzODkxNQ==",
            "performed_via_github_app": null,
            "url": "https://api.github.com/repos/PrismarineJS/minecraft-data/issues/events/393038915"
        }
    ],
    "events_url": "https://api.github.com/repos/PrismarineJS/minecraft-data/issues/48/events",
    "html_url": "https://github.com/PrismarineJS/minecraft-data/issues/48",
    "id": 103306831,
    "labels": [
        {
            "color": "bfd4f2",
            "default": false,
            "description": null,
            "id": 204581120,
            "name": "new data",
            "node_id": "MDU6TGFiZWwyMDQ1ODExMjA=",
            "url": "https://api.github.com/repos/PrismarineJS/minecraft-data/labels/new%20data"
        },
        {
            "color": "5319e7",
            "default": false,
            "description": null,
            "id": 204581467,
            "name": "schema change",
            "node_id": "MDU6TGFiZWwyMDQ1ODE0Njc=",
            "url": "https://api.github.com/repos/PrismarineJS/minecraft-data/labels/schema%20change"
        }
    ],
    "labels_url": "https://api.github.com/repos/PrismarineJS/minecraft-data/issues/48/labels{/name}",
    "locked": false,
    "milestone": null,
    "node_id": "MDU6SXNzdWUxMDMzMDY4MzE=",
    "number": 48,
    "performed_via_github_app": null,
    "reactions": {
        "+1": 0,
        "-1": 0,
        "confused": 0,
        "eyes": 0,
        "heart": 0,
        "hooray": 0,
        "laugh": 0,
        "rocket": 0,
        "total_count": 0,
        "url": "https://api.github.com/repos/PrismarineJS/minecraft-data/issues/48/reactions"
    },
    "repository_url": "https://api.github.com/repos/PrismarineJS/minecraft-data",
    "state": "open",
    "state_reason": null,
    "timeline_url": "https://api.github.com/repos/PrismarineJS/minecraft-data/issues/48/timeline",
    "title": "Add hasInventory property in blocks.json",
    "updated_at": "2015-08-26T16:06:41Z",
    "url": "https://api.github.com/repos/PrismarineJS/minecraft-data/issues/48",
    "user": {
        "avatar_url": "https://avatars.githubusercontent.com/u/2346494?v=4",
        "events_url": "https://api.github.com/users/rom1504/events{/privacy}",
        "followers_url": "https://api.github.com/users/rom1504/followers",
        "following_url": "https://api.github.com/users/rom1504/following{/other_user}",
        "gists_url": "https://api.github.com/users/rom1504/gists{/gist_id}",
        "gravatar_id": "",
        "html_url": "https://github.com/rom1504",
        "id": 2346494,
        "login": "rom1504",
        "node_id": "MDQ6VXNlcjIzNDY0OTQ=",
        "organizations_url": "https://api.github.com/users/rom1504/orgs",
        "received_events_url": "https://api.github.com/users/rom1504/received_events",
        "repos_url": "https://api.github.com/users/rom1504/repos",
        "site_admin": false,
        "starred_url": "https://api.github.com/users/rom1504/starred{/owner}{/repo}",
        "subscriptions_url": "https://api.github.com/users/rom1504/subscriptions",
        "type": "User",
        "url": "https://api.github.com/users/rom1504"
    }
}