{
    "active_lock_reason": null,
    "assignee": null,
    "assignees": [],
    "author_association": "CONTRIBUTOR",
    "body": "Leaves only drop as items when harvested with shears or with a tool with silk touch, but there is no such indication. Instead, all we have is\r\n```json\r\n{\r\n  \"item\": \"oak_leaves\",\r\n  \"dropChance\": 0.5,\r\n  \"stackSizeRange\": [\r\n    1,\r\n    1\r\n  ]\r\n},\r\n```\r\n...which is somewhat misleading.",
    "closed_at": null,
    "comment_data": [
        {
            "author_association": "MEMBER",
            "body": "would you be able to just parse the loot table bundled in the default minecraft resourcepack for this?",
            "created_at": "2022-05-13T00:19:46Z",
            "html_url": "https://github.com/PrismarineJS/minecraft-data/issues/513#issuecomment-1125537914",
            "id": 1125537914,
            "issue_url": "https://api.github.com/repos/PrismarineJS/minecraft-data/issues/513",
            "node_id": "IC_kwDOAfOYes5DFlh6",
            "performed_via_github_app": null,
            "reactions": {
                "+1": 0,
                "-1": 0,
                "confused": 0,
                "eyes": 0,
                "heart": 0,
                "hooray": 0,
                "laugh": 0,
                "rocket": 0,
                "total_count": 0,
                "url": "https://api.github.com/repos/PrismarineJS/minecraft-data/issues/comments/1125537914/reactions"
            },
            "updated_at": "2022-05-13T00:19:46Z",
            "url": "https://api.github.com/repos/PrismarineJS/minecraft-data/issues/comments/1125537914",
            "user": {
                "avatar_url": "https://avatars.githubusercontent.com/u/43508353?v=4",
                "events_url": "https://api.github.com/users/u9g/events{/privacy}",
                "followers_url": "https://api.github.com/users/u9g/followers",
                "following_url": "https://api.github.com/users/u9g/following{/other_user}",
                "gists_url": "https://api.github.com/users/u9g/gists{/gist_id}",
                "gravatar_id": "",
                "html_url": "https://github.com/u9g",
                "id": 43508353,
                "login": "u9g",
                "node_id": "MDQ6VXNlcjQzNTA4MzUz",
                "organizations_url": "https://api.github.com/users/u9g/orgs",
                "received_events_url": "https://api.github.com/users/u9g/received_events",
                "repos_url": "https://api.github.com/users/u9g/repos",
                "site_admin": false,
                "starred_url": "https://api.github.com/users/u9g/starred{/owner}{/repo}",
                "subscriptions_url": "https://api.github.com/users/u9g/subscriptions",
                "type": "User",
                "url": "https://api.github.com/users/u9g"
            }
        }
    ],
    "comments": 1,
    "comments_url": "https://api.github.com/repos/PrismarineJS/minecraft-data/issues/513/comments",
    "created_at": "2022-02-26T04:18:01Z",
    "event_data": [],
    "events_url": "https://api.github.com/repos/PrismarineJS/minecraft-data/issues/513/events",
    "html_url": "https://github.com/PrismarineJS/minecraft-data/issues/513",
    "id": 1151189683,
    "labels": [],
    "labels_url": "https://api.github.com/repos/PrismarineJS/minecraft-data/issues/513/labels{/name}",
    "locked": false,
    "milestone": null,
    "node_id": "I_kwDOAfOYes5EncKz",
    "number": 513,
    "performed_via_github_app": null,
    "reactions": {
        "+1": 0,
        "-1": 0,
        "confused": 0,
        "eyes": 0,
        "heart": 0,
        "hooray": 0,
        "laugh": 0,
        "rocket": 0,
        "total_count": 0,
        "url": "https://api.github.com/repos/PrismarineJS/minecraft-data/issues/513/reactions"
    },
    "repository_url": "https://api.github.com/repos/PrismarineJS/minecraft-data",
    "state": "open",
    "state_reason": null,
    "timeline_url": "https://api.github.com/repos/PrismarineJS/minecraft-data/issues/513/timeline",
    "title": "Block loot data for leaves is insufficient",
    "updated_at": "2022-05-13T00:19:46Z",
    "url": "https://api.github.com/repos/PrismarineJS/minecraft-data/issues/513",
    "user": {
        "avatar_url": "https://avatars.githubusercontent.com/u/78575721?v=4",
        "events_url": "https://api.github.com/users/darksunlight/events{/privacy}",
        "followers_url": "https://api.github.com/users/darksunlight/followers",
        "following_url": "https://api.github.com/users/darksunlight/following{/other_user}",
        "gists_url": "https://api.github.com/users/darksunlight/gists{/gist_id}",
        "gravatar_id": "",
        "html_url": "https://github.com/darksunlight",
        "id": 78575721,
        "login": "darksunlight",
        "node_id": "MDQ6VXNlcjc4NTc1NzIx",
        "organizations_url": "https://api.github.com/users/darksunlight/orgs",
        "received_events_url": "https://api.github.com/users/darksunlight/received_events",
        "repos_url": "https://api.github.com/users/darksunlight/repos",
        "site_admin": false,
        "starred_url": "https://api.github.com/users/darksunlight/starred{/owner}{/repo}",
        "subscriptions_url": "https://api.github.com/users/darksunlight/subscriptions",
        "type": "User",
        "url": "https://api.github.com/users/darksunlight"
    }
}