{
    "active_lock_reason": null,
    "assignee": null,
    "assignees": [],
    "author_association": "NONE",
    "body": "When referencing planks in the `repairWith` of an item in any version from `pc/1.7` to `pc/1.15.2`, `phantom_membrane`, `blackstone`, `crimson_planks` and `warped_planks` are listed, even though they only appeared in 1.16.",
    "closed_at": null,
    "comment_data": [
        {
            "author_association": "MEMBER",
            "body": "So it's not the entire json which reference 1.16 items, only the `repairWith` field, which is a turbo-invention artifact. The fix is for someone to teach turbo-invention what `repairWith` items are valid for which versions and re-extract.",
            "created_at": "2022-04-25T04:26:55Z",
            "html_url": "https://github.com/PrismarineJS/minecraft-data/issues/544#issuecomment-1108065408",
            "id": 1108065408,
            "issue_url": "https://api.github.com/repos/PrismarineJS/minecraft-data/issues/544",
            "node_id": "IC_kwDOAfOYes5CC7yA",
            "performed_via_github_app": null,
            "reactions": {
                "+1": 0,
                "-1": 0,
                "confused": 0,
                "eyes": 0,
                "heart": 0,
                "hooray": 0,
                "laugh": 0,
                "rocket": 0,
                "total_count": 0,
                "url": "https://api.github.com/repos/PrismarineJS/minecraft-data/issues/comments/1108065408/reactions"
            },
            "updated_at": "2022-04-25T04:27:13Z",
            "url": "https://api.github.com/repos/PrismarineJS/minecraft-data/issues/comments/1108065408",
            "user": {
                "avatar_url": "https://avatars.githubusercontent.com/u/1032552?v=4",
                "events_url": "https://api.github.com/users/nickelpro/events{/privacy}",
                "followers_url": "https://api.github.com/users/nickelpro/followers",
                "following_url": "https://api.github.com/users/nickelpro/following{/other_user}",
                "gists_url": "https://api.github.com/users/nickelpro/gists{/gist_id}",
                "gravatar_id": "",
                "html_url": "https://github.com/nickelpro",
                "id": 1032552,
                "login": "nickelpro",
                "node_id": "MDQ6VXNlcjEwMzI1NTI=",
                "organizations_url": "https://api.github.com/users/nickelpro/orgs",
                "received_events_url": "https://api.github.com/users/nickelpro/received_events",
                "repos_url": "https://api.github.com/users/nickelpro/repos",
                "site_admin": false,
                "starred_url": "https://api.github.com/users/nickelpro/starred{/owner}{/repo}",
                "subscriptions_url": "https://api.github.com/users/nickelpro/subscriptions",
                "type": "User",
                "url": "https://api.github.com/users/nickelpro"
            }
        },
        {
            "author_association": "MEMBER",
            "body": "this will be fixed when the new data is merged in",
            "created_at": "2022-05-12T23:56:02Z",
            "html_url": "https://github.com/PrismarineJS/minecraft-data/issues/544#issuecomment-1125526982",
            "id": 1125526982,
            "issue_url": "https://api.github.com/repos/PrismarineJS/minecraft-data/issues/544",
            "node_id": "IC_kwDOAfOYes5DFi3G",
            "performed_via_github_app": null,
            "reactions": {
                "+1": 0,
                "-1": 0,
                "confused": 0,
                "eyes": 0,
                "heart": 0,
                "hooray": 0,
                "laugh": 0,
                "rocket": 0,
                "total_count": 0,
                "url": "https://api.github.com/repos/PrismarineJS/minecraft-data/issues/comments/1125526982/reactions"
            },
            "updated_at": "2022-05-12T23:56:02Z",
            "url": "https://api.github.com/repos/PrismarineJS/minecraft-data/issues/comments/1125526982",
            "user": {
                "avatar_url": "https://avatars.githubusercontent.com/u/43508353?v=4",
                "events_url": "https://api.github.com/users/u9g/events{/privacy}",
                "followers_url": "https://api.github.com/users/u9g/followers",
                "following_url": "https://api.github.com/users/u9g/following{/other_user}",
                "gists_url": "https://api.github.com/users/u9g/gists{/gist_id}",
                "gravatar_id": "",
                "html_url": "https://github.com/u9g",
                "id": 43508353,
                "login": "u9g",
                "node_id": "MDQ6VXNlcjQzNTA4MzUz",
                "organizations_url": "https://api.github.com/users/u9g/orgs",
                "received_events_url": "https://api.github.com/users/u9g/received_events",
                "repos_url": "https://api.github.com/users/u9g/repos",
                "site_admin": false,
                "starred_url": "https://api.github.com/users/u9g/starred{/owner}{/repo}",
                "subscriptions_url": "https://api.github.com/users/u9g/subscriptions",
                "type": "User",
                "url": "https://api.github.com/users/u9g"
            }
        }
    ],
    "comments": 2,
    "comments_url": "https://api.github.com/repos/PrismarineJS/minecraft-data/issues/544/comments",
    "created_at": "2022-04-24T22:27:03Z",
    "event_data": [
        {
            "actor": {
                "avatar_url": "https://avatars.githubusercontent.com/u/13713600?v=4",
                "events_url": "https://api.github.com/users/extremeheat/events{/privacy}",
                "followers_url": "https://api.github.com/users/extremeheat/followers",
                "following_url": "https://api.github.com/users/extremeheat/following{/other_user}",
                "gists_url": "https://api.github.com/users/extremeheat/gists{/gist_id}",
                "gravatar_id": "",
                "html_url": "https://github.com/extremeheat",
                "id": 13713600,
                "login": "extremeheat",
                "node_id": "MDQ6VXNlcjEzNzEzNjAw",
                "organizations_url": "https://api.github.com/users/extremeheat/orgs",
                "received_events_url": "https://api.github.com/users/extremeheat/received_events",
                "repos_url": "https://api.github.com/users/extremeheat/repos",
                "site_admin": false,
                "starred_url": "https://api.github.com/users/extremeheat/starred{/owner}{/repo}",
                "subscriptions_url": "https://api.github.com/users/extremeheat/subscriptions",
                "type": "User",
                "url": "https://api.github.com/users/extremeheat"
            },
            "commit_id": null,
            "commit_url": null,
            "created_at": "2023-04-08T07:32:31Z",
            "event": "labeled",
            "id": 8957287961,
            "label": {
                "color": "1D76DB",
                "name": "pc"
            },
            "node_id": "LE_lADOAfOYes5IWOyLzwAAAAIV5V4Z",
            "performed_via_github_app": null,
            "url": "https://api.github.com/repos/PrismarineJS/minecraft-data/issues/events/8957287961"
        }
    ],
    "events_url": "https://api.github.com/repos/PrismarineJS/minecraft-data/issues/544/events",
    "html_url": "https://github.com/PrismarineJS/minecraft-data/issues/544",
    "id": 1213787275,
    "labels": [
        {
            "color": "A9D0C4",
            "default": false,
            "description": "Java edition",
            "id": 5364617233,
            "name": "pc",
            "node_id": "LA_kwDOAfOYes8AAAABP8GQEQ",
            "url": "https://api.github.com/repos/PrismarineJS/minecraft-data/labels/pc"
        }
    ],
    "labels_url": "https://api.github.com/repos/PrismarineJS/minecraft-data/issues/544/labels{/name}",
    "locked": false,
    "milestone": null,
    "node_id": "I_kwDOAfOYes5IWOyL",
    "number": 544,
    "performed_via_github_app": null,
    "reactions": {
        "+1": 0,
        "-1": 0,
        "confused": 0,
        "eyes": 0,
        "heart": 0,
        "hooray": 0,
        "laugh": 0,
        "rocket": 0,
        "total_count": 0,
        "url": "https://api.github.com/repos/PrismarineJS/minecraft-data/issues/544/reactions"
    },
    "repository_url": "https://api.github.com/repos/PrismarineJS/minecraft-data",
    "state": "open",
    "state_reason": null,
    "timeline_url": "https://api.github.com/repos/PrismarineJS/minecraft-data/issues/544/timeline",
    "title": "[items.json | Java | 1.7-1.15.2] All these versions reference 1.16 items",
    "updated_at": "2023-04-08T07:32:31Z",
    "url": "https://api.github.com/repos/PrismarineJS/minecraft-data/issues/544",
    "user": {
        "avatar_url": "https://avatars.githubusercontent.com/u/48245742?v=4",
        "events_url": "https://api.github.com/users/Hugo4IT/events{/privacy}",
        "followers_url": "https://api.github.com/users/Hugo4IT/followers",
        "following_url": "https://api.github.com/users/Hugo4IT/following{/other_user}",
        "gists_url": "https://api.github.com/users/Hugo4IT/gists{/gist_id}",
        "gravatar_id": "",
        "html_url": "https://github.com/Hugo4IT",
        "id": 48245742,
        "login": "Hugo4IT",
        "node_id": "MDQ6VXNlcjQ4MjQ1NzQy",
        "organizations_url": "https://api.github.com/users/Hugo4IT/orgs",
        "received_events_url": "https://api.github.com/users/Hugo4IT/received_events",
        "repos_url": "https://api.github.com/users/Hugo4IT/repos",
        "site_admin": false,
        "starred_url": "https://api.github.com/users/Hugo4IT/starred{/owner}{/repo}",
        "subscriptions_url": "https://api.github.com/users/Hugo4IT/subscriptions",
        "type": "User",
        "url": "https://api.github.com/users/Hugo4IT"
    }
}