{
    "_links": {
        "comments": {
            "href": "https://api.github.com/repos/PrismarineJS/minecraft-data-generator-server/issues/17/comments"
        },
        "commits": {
            "href": "https://api.github.com/repos/PrismarineJS/minecraft-data-generator-server/pulls/17/commits"
        },
        "html": {
            "href": "https://github.com/PrismarineJS/minecraft-data-generator-server/pull/17"
        },
        "issue": {
            "href": "https://api.github.com/repos/PrismarineJS/minecraft-data-generator-server/issues/17"
        },
        "review_comment": {
            "href": "https://api.github.com/repos/PrismarineJS/minecraft-data-generator-server/pulls/comments{/number}"
        },
        "review_comments": {
            "href": "https://api.github.com/repos/PrismarineJS/minecraft-data-generator-server/pulls/17/comments"
        },
        "self": {
            "href": "https://api.github.com/repos/PrismarineJS/minecraft-data-generator-server/pulls/17"
        },
        "statuses": {
            "href": "https://api.github.com/repos/PrismarineJS/minecraft-data-generator-server/statuses/9a1fa69545674aed95331c9668848d1679affacf"
        }
    },
    "active_lock_reason": null,
    "additions": 552,
    "assignee": null,
    "assignees": [],
    "author_association": "CONTRIBUTOR",
    "auto_merge": null,
    "base": {
        "label": "PrismarineJS:main",
        "ref": "main",
        "repo": {
            "allow_forking": true,
            "archive_url": "https://api.github.com/repos/PrismarineJS/minecraft-data-generator-server/{archive_format}{/ref}",
            "archived": false,
            "assignees_url": "https://api.github.com/repos/PrismarineJS/minecraft-data-generator-server/assignees{/user}",
            "blobs_url": "https://api.github.com/repos/PrismarineJS/minecraft-data-generator-server/git/blobs{/sha}",
            "branches_url": "https://api.github.com/repos/PrismarineJS/minecraft-data-generator-server/branches{/branch}",
            "clone_url": "https://github.com/PrismarineJS/minecraft-data-generator-server.git",
            "collaborators_url": "https://api.github.com/repos/PrismarineJS/minecraft-data-generator-server/collaborators{/collaborator}",
            "comments_url": "https://api.github.com/repos/PrismarineJS/minecraft-data-generator-server/comments{/number}",
            "commits_url": "https://api.github.com/repos/PrismarineJS/minecraft-data-generator-server/commits{/sha}",
            "compare_url": "https://api.github.com/repos/PrismarineJS/minecraft-data-generator-server/compare/{base}...{head}",
            "contents_url": "https://api.github.com/repos/PrismarineJS/minecraft-data-generator-server/contents/{+path}",
            "contributors_url": "https://api.github.com/repos/PrismarineJS/minecraft-data-generator-server/contributors",
            "created_at": "2022-05-05T20:01:46Z",
            "default_branch": "main",
            "deployments_url": "https://api.github.com/repos/PrismarineJS/minecraft-data-generator-server/deployments",
            "description": null,
            "disabled": false,
            "downloads_url": "https://api.github.com/repos/PrismarineJS/minecraft-data-generator-server/downloads",
            "events_url": "https://api.github.com/repos/PrismarineJS/minecraft-data-generator-server/events",
            "fork": false,
            "forks": 5,
            "forks_count": 5,
            "forks_url": "https://api.github.com/repos/PrismarineJS/minecraft-data-generator-server/forks",
            "full_name": "PrismarineJS/minecraft-data-generator-server",
            "git_commits_url": "https://api.github.com/repos/PrismarineJS/minecraft-data-generator-server/git/commits{/sha}",
            "git_refs_url": "https://api.github.com/repos/PrismarineJS/minecraft-data-generator-server/git/refs{/sha}",
            "git_tags_url": "https://api.github.com/repos/PrismarineJS/minecraft-data-generator-server/git/tags{/sha}",
            "git_url": "git://github.com/PrismarineJS/minecraft-data-generator-server.git",
            "has_discussions": false,
            "has_downloads": true,
            "has_issues": true,
            "has_pages": false,
            "has_projects": true,
            "has_wiki": true,
            "homepage": null,
            "hooks_url": "https://api.github.com/repos/PrismarineJS/minecraft-data-generator-server/hooks",
            "html_url": "https://github.com/PrismarineJS/minecraft-data-generator-server",
            "id": 489110385,
            "is_template": false,
            "issue_comment_url": "https://api.github.com/repos/PrismarineJS/minecraft-data-generator-server/issues/comments{/number}",
            "issue_events_url": "https://api.github.com/repos/PrismarineJS/minecraft-data-generator-server/issues/events{/number}",
            "issues_url": "https://api.github.com/repos/PrismarineJS/minecraft-data-generator-server/issues{/number}",
            "keys_url": "https://api.github.com/repos/PrismarineJS/minecraft-data-generator-server/keys{/key_id}",
            "labels_url": "https://api.github.com/repos/PrismarineJS/minecraft-data-generator-server/labels{/name}",
            "language": "Java",
            "languages_url": "https://api.github.com/repos/PrismarineJS/minecraft-data-generator-server/languages",
            "license": {
                "key": "mit",
                "name": "MIT License",
                "node_id": "MDc6TGljZW5zZTEz",
                "spdx_id": "MIT",
                "url": "https://api.github.com/licenses/mit"
            },
            "merges_url": "https://api.github.com/repos/PrismarineJS/minecraft-data-generator-server/merges",
            "milestones_url": "https://api.github.com/repos/PrismarineJS/minecraft-data-generator-server/milestones{/number}",
            "mirror_url": null,
            "name": "minecraft-data-generator-server",
            "node_id": "R_kgDOHSc7cQ",
            "notifications_url": "https://api.github.com/repos/PrismarineJS/minecraft-data-generator-server/notifications{?since,all,participating}",
            "open_issues": 5,
            "open_issues_count": 5,
            "owner": {
                "avatar_url": "https://avatars.githubusercontent.com/u/11053411?v=4",
                "events_url": "https://api.github.com/users/PrismarineJS/events{/privacy}",
                "followers_url": "https://api.github.com/users/PrismarineJS/followers",
                "following_url": "https://api.github.com/users/PrismarineJS/following{/other_user}",
                "gists_url": "https://api.github.com/users/PrismarineJS/gists{/gist_id}",
                "gravatar_id": "",
                "html_url": "https://github.com/PrismarineJS",
                "id": 11053411,
                "login": "PrismarineJS",
                "node_id": "MDEyOk9yZ2FuaXphdGlvbjExMDUzNDEx",
                "organizations_url": "https://api.github.com/users/PrismarineJS/orgs",
                "received_events_url": "https://api.github.com/users/PrismarineJS/received_events",
                "repos_url": "https://api.github.com/users/PrismarineJS/repos",
                "site_admin": false,
                "starred_url": "https://api.github.com/users/PrismarineJS/starred{/owner}{/repo}",
                "subscriptions_url": "https://api.github.com/users/PrismarineJS/subscriptions",
                "type": "Organization",
                "url": "https://api.github.com/users/PrismarineJS"
            },
            "private": false,
            "pulls_url": "https://api.github.com/repos/PrismarineJS/minecraft-data-generator-server/pulls{/number}",
            "pushed_at": "2024-03-17T15:13:19Z",
            "releases_url": "https://api.github.com/repos/PrismarineJS/minecraft-data-generator-server/releases{/id}",
            "size": 259,
            "ssh_url": "git@github.com:PrismarineJS/minecraft-data-generator-server.git",
            "stargazers_count": 5,
            "stargazers_url": "https://api.github.com/repos/PrismarineJS/minecraft-data-generator-server/stargazers",
            "statuses_url": "https://api.github.com/repos/PrismarineJS/minecraft-data-generator-server/statuses/{sha}",
            "subscribers_url": "https://api.github.com/repos/PrismarineJS/minecraft-data-generator-server/subscribers",
            "subscription_url": "https://api.github.com/repos/PrismarineJS/minecraft-data-generator-server/subscription",
            "svn_url": "https://github.com/PrismarineJS/minecraft-data-generator-server",
            "tags_url": "https://api.github.com/repos/PrismarineJS/minecraft-data-generator-server/tags",
            "teams_url": "https://api.github.com/repos/PrismarineJS/minecraft-data-generator-server/teams",
            "topics": [],
            "trees_url": "https://api.github.com/repos/PrismarineJS/minecraft-data-generator-server/git/trees{/sha}",
            "updated_at": "2023-09-13T01:12:08Z",
            "url": "https://api.github.com/repos/PrismarineJS/minecraft-data-generator-server",
            "visibility": "public",
            "watchers": 5,
            "watchers_count": 5,
            "web_commit_signoff_required": false
        },
        "sha": "0f1c6bdd04a058e91eda4feb112c9865501cb329",
        "user": {
            "avatar_url": "https://avatars.githubusercontent.com/u/11053411?v=4",
            "events_url": "https://api.github.com/users/PrismarineJS/events{/privacy}",
            "followers_url": "https://api.github.com/users/PrismarineJS/followers",
            "following_url": "https://api.github.com/users/PrismarineJS/following{/other_user}",
            "gists_url": "https://api.github.com/users/PrismarineJS/gists{/gist_id}",
            "gravatar_id": "",
            "html_url": "https://github.com/PrismarineJS",
            "id": 11053411,
            "login": "PrismarineJS",
            "node_id": "MDEyOk9yZ2FuaXphdGlvbjExMDUzNDEx",
            "organizations_url": "https://api.github.com/users/PrismarineJS/orgs",
            "received_events_url": "https://api.github.com/users/PrismarineJS/received_events",
            "repos_url": "https://api.github.com/users/PrismarineJS/repos",
            "site_admin": false,
            "starred_url": "https://api.github.com/users/PrismarineJS/starred{/owner}{/repo}",
            "subscriptions_url": "https://api.github.com/users/PrismarineJS/subscriptions",
            "type": "Organization",
            "url": "https://api.github.com/users/PrismarineJS"
        }
    },
    "body": "This adds a sounds.json file that hold mappings for the numeral ID to string id for sounds. ",
    "changed_files": 40,
    "closed_at": "2024-03-17T15:13:19Z",
    "comment_data": [],
    "comment_regular_data": [
        {
            "author_association": "MEMBER",
            "body": "can you add the schema and data for this in minecraft data?",
            "created_at": "2024-01-14T16:33:08Z",
            "html_url": "https://github.com/PrismarineJS/minecraft-data-generator-server/pull/17#issuecomment-1890999035",
            "id": 1890999035,
            "issue_url": "https://api.github.com/repos/PrismarineJS/minecraft-data-generator-server/issues/17",
            "node_id": "IC_kwDOHSc7cc5wtlr7",
            "performed_via_github_app": null,
            "reactions": {
                "+1": 0,
                "-1": 0,
                "confused": 0,
                "eyes": 0,
                "heart": 0,
                "hooray": 0,
                "laugh": 0,
                "rocket": 0,
                "total_count": 0,
                "url": "https://api.github.com/repos/PrismarineJS/minecraft-data-generator-server/issues/comments/1890999035/reactions"
            },
            "updated_at": "2024-01-14T16:33:08Z",
            "url": "https://api.github.com/repos/PrismarineJS/minecraft-data-generator-server/issues/comments/1890999035",
            "user": {
                "avatar_url": "https://avatars.githubusercontent.com/u/2346494?v=4",
                "events_url": "https://api.github.com/users/rom1504/events{/privacy}",
                "followers_url": "https://api.github.com/users/rom1504/followers",
                "following_url": "https://api.github.com/users/rom1504/following{/other_user}",
                "gists_url": "https://api.github.com/users/rom1504/gists{/gist_id}",
                "gravatar_id": "",
                "html_url": "https://github.com/rom1504",
                "id": 2346494,
                "login": "rom1504",
                "node_id": "MDQ6VXNlcjIzNDY0OTQ=",
                "organizations_url": "https://api.github.com/users/rom1504/orgs",
                "received_events_url": "https://api.github.com/users/rom1504/received_events",
                "repos_url": "https://api.github.com/users/rom1504/repos",
                "site_admin": false,
                "starred_url": "https://api.github.com/users/rom1504/starred{/owner}{/repo}",
                "subscriptions_url": "https://api.github.com/users/rom1504/subscriptions",
                "type": "User",
                "url": "https://api.github.com/users/rom1504"
            }
        },
        {
            "author_association": "CONTRIBUTOR",
            "body": "That is my next step. Was going to make a PR for that in the next couple of days. ",
            "created_at": "2024-01-14T19:47:17Z",
            "html_url": "https://github.com/PrismarineJS/minecraft-data-generator-server/pull/17#issuecomment-1891053295",
            "id": 1891053295,
            "issue_url": "https://api.github.com/repos/PrismarineJS/minecraft-data-generator-server/issues/17",
            "node_id": "IC_kwDOHSc7cc5wty7v",
            "performed_via_github_app": null,
            "reactions": {
                "+1": 0,
                "-1": 0,
                "confused": 0,
                "eyes": 0,
                "heart": 0,
                "hooray": 0,
                "laugh": 0,
                "rocket": 0,
                "total_count": 0,
                "url": "https://api.github.com/repos/PrismarineJS/minecraft-data-generator-server/issues/comments/1891053295/reactions"
            },
            "updated_at": "2024-01-14T19:47:17Z",
            "url": "https://api.github.com/repos/PrismarineJS/minecraft-data-generator-server/issues/comments/1891053295",
            "user": {
                "avatar_url": "https://avatars.githubusercontent.com/u/2133449?v=4",
                "events_url": "https://api.github.com/users/wgaylord/events{/privacy}",
                "followers_url": "https://api.github.com/users/wgaylord/followers",
                "following_url": "https://api.github.com/users/wgaylord/following{/other_user}",
                "gists_url": "https://api.github.com/users/wgaylord/gists{/gist_id}",
                "gravatar_id": "",
                "html_url": "https://github.com/wgaylord",
                "id": 2133449,
                "login": "wgaylord",
                "node_id": "MDQ6VXNlcjIxMzM0NDk=",
                "organizations_url": "https://api.github.com/users/wgaylord/orgs",
                "received_events_url": "https://api.github.com/users/wgaylord/received_events",
                "repos_url": "https://api.github.com/users/wgaylord/repos",
                "site_admin": false,
                "starred_url": "https://api.github.com/users/wgaylord/starred{/owner}{/repo}",
                "subscriptions_url": "https://api.github.com/users/wgaylord/subscriptions",
                "type": "User",
                "url": "https://api.github.com/users/wgaylord"
            }
        }
    ],
    "comments": 2,
    "comments_url": "https://api.github.com/repos/PrismarineJS/minecraft-data-generator-server/issues/17/comments",
    "commit_data": [
        {
            "author": {
                "avatar_url": "https://avatars.githubusercontent.com/u/2133449?v=4",
                "events_url": "https://api.github.com/users/wgaylord/events{/privacy}",
                "followers_url": "https://api.github.com/users/wgaylord/followers",
                "following_url": "https://api.github.com/users/wgaylord/following{/other_user}",
                "gists_url": "https://api.github.com/users/wgaylord/gists{/gist_id}",
                "gravatar_id": "",
                "html_url": "https://github.com/wgaylord",
                "id": 2133449,
                "login": "wgaylord",
                "node_id": "MDQ6VXNlcjIxMzM0NDk=",
                "organizations_url": "https://api.github.com/users/wgaylord/orgs",
                "received_events_url": "https://api.github.com/users/wgaylord/received_events",
                "repos_url": "https://api.github.com/users/wgaylord/repos",
                "site_admin": false,
                "starred_url": "https://api.github.com/users/wgaylord/starred{/owner}{/repo}",
                "subscriptions_url": "https://api.github.com/users/wgaylord/subscriptions",
                "type": "User",
                "url": "https://api.github.com/users/wgaylord"
            },
            "comments_url": "https://api.github.com/repos/PrismarineJS/minecraft-data-generator-server/commits/d7acb0b72852c41245cf22110fc44ab24ea6f73a/comments",
            "commit": {
                "author": {
                    "date": "2024-01-11T21:05:22Z",
                    "email": "chibill110@gmail.com",
                    "name": "William Gaylord"
                },
                "comment_count": 0,
                "committer": {
                    "date": "2024-01-11T21:05:22Z",
                    "email": "chibill110@gmail.com",
                    "name": "William Gaylord"
                },
                "message": "Add sound id to name mappings as generator for 1.9 thru 1.20",
                "tree": {
                    "sha": "9110b940da89d0c945ef043e691d2e0dc7d147f7",
                    "url": "https://api.github.com/repos/PrismarineJS/minecraft-data-generator-server/git/trees/9110b940da89d0c945ef043e691d2e0dc7d147f7"
                },
                "url": "https://api.github.com/repos/PrismarineJS/minecraft-data-generator-server/git/commits/d7acb0b72852c41245cf22110fc44ab24ea6f73a",
                "verification": {
                    "payload": null,
                    "reason": "unsigned",
                    "signature": null,
                    "verified": false
                }
            },
            "committer": {
                "avatar_url": "https://avatars.githubusercontent.com/u/2133449?v=4",
                "events_url": "https://api.github.com/users/wgaylord/events{/privacy}",
                "followers_url": "https://api.github.com/users/wgaylord/followers",
                "following_url": "https://api.github.com/users/wgaylord/following{/other_user}",
                "gists_url": "https://api.github.com/users/wgaylord/gists{/gist_id}",
                "gravatar_id": "",
                "html_url": "https://github.com/wgaylord",
                "id": 2133449,
                "login": "wgaylord",
                "node_id": "MDQ6VXNlcjIxMzM0NDk=",
                "organizations_url": "https://api.github.com/users/wgaylord/orgs",
                "received_events_url": "https://api.github.com/users/wgaylord/received_events",
                "repos_url": "https://api.github.com/users/wgaylord/repos",
                "site_admin": false,
                "starred_url": "https://api.github.com/users/wgaylord/starred{/owner}{/repo}",
                "subscriptions_url": "https://api.github.com/users/wgaylord/subscriptions",
                "type": "User",
                "url": "https://api.github.com/users/wgaylord"
            },
            "html_url": "https://github.com/PrismarineJS/minecraft-data-generator-server/commit/d7acb0b72852c41245cf22110fc44ab24ea6f73a",
            "node_id": "C_kwDOKmT0fNoAKGQ3YWNiMGI3Mjg1MmM0MTI0NWNmMjIxMTBmYzQ0YWIyNGVhNmY3M2E",
            "parents": [
                {
                    "html_url": "https://github.com/PrismarineJS/minecraft-data-generator-server/commit/0f1c6bdd04a058e91eda4feb112c9865501cb329",
                    "sha": "0f1c6bdd04a058e91eda4feb112c9865501cb329",
                    "url": "https://api.github.com/repos/PrismarineJS/minecraft-data-generator-server/commits/0f1c6bdd04a058e91eda4feb112c9865501cb329"
                }
            ],
            "sha": "d7acb0b72852c41245cf22110fc44ab24ea6f73a",
            "url": "https://api.github.com/repos/PrismarineJS/minecraft-data-generator-server/commits/d7acb0b72852c41245cf22110fc44ab24ea6f73a"
        },
        {
            "author": {
                "avatar_url": "https://avatars.githubusercontent.com/u/2133449?v=4",
                "events_url": "https://api.github.com/users/wgaylord/events{/privacy}",
                "followers_url": "https://api.github.com/users/wgaylord/followers",
                "following_url": "https://api.github.com/users/wgaylord/following{/other_user}",
                "gists_url": "https://api.github.com/users/wgaylord/gists{/gist_id}",
                "gravatar_id": "",
                "html_url": "https://github.com/wgaylord",
                "id": 2133449,
                "login": "wgaylord",
                "node_id": "MDQ6VXNlcjIxMzM0NDk=",
                "organizations_url": "https://api.github.com/users/wgaylord/orgs",
                "received_events_url": "https://api.github.com/users/wgaylord/received_events",
                "repos_url": "https://api.github.com/users/wgaylord/repos",
                "site_admin": false,
                "starred_url": "https://api.github.com/users/wgaylord/starred{/owner}{/repo}",
                "subscriptions_url": "https://api.github.com/users/wgaylord/subscriptions",
                "type": "User",
                "url": "https://api.github.com/users/wgaylord"
            },
            "comments_url": "https://api.github.com/repos/PrismarineJS/minecraft-data-generator-server/commits/5fb7b21ba10abcd9e6e4b8358860a52f2f525aa3/comments",
            "commit": {
                "author": {
                    "date": "2024-01-25T19:50:41Z",
                    "email": "chibill110@gmail.com",
                    "name": "William Gaylord"
                },
                "comment_count": 0,
                "committer": {
                    "date": "2024-01-25T19:50:41Z",
                    "email": "chibill110@gmail.com",
                    "name": "William Gaylord"
                },
                "message": "Fix issues in generators",
                "tree": {
                    "sha": "5e25435851bc1967862cb1d940ba13e2b1f833bd",
                    "url": "https://api.github.com/repos/PrismarineJS/minecraft-data-generator-server/git/trees/5e25435851bc1967862cb1d940ba13e2b1f833bd"
                },
                "url": "https://api.github.com/repos/PrismarineJS/minecraft-data-generator-server/git/commits/5fb7b21ba10abcd9e6e4b8358860a52f2f525aa3",
                "verification": {
                    "payload": null,
                    "reason": "unsigned",
                    "signature": null,
                    "verified": false
                }
            },
            "committer": {
                "avatar_url": "https://avatars.githubusercontent.com/u/2133449?v=4",
                "events_url": "https://api.github.com/users/wgaylord/events{/privacy}",
                "followers_url": "https://api.github.com/users/wgaylord/followers",
                "following_url": "https://api.github.com/users/wgaylord/following{/other_user}",
                "gists_url": "https://api.github.com/users/wgaylord/gists{/gist_id}",
                "gravatar_id": "",
                "html_url": "https://github.com/wgaylord",
                "id": 2133449,
                "login": "wgaylord",
                "node_id": "MDQ6VXNlcjIxMzM0NDk=",
                "organizations_url": "https://api.github.com/users/wgaylord/orgs",
                "received_events_url": "https://api.github.com/users/wgaylord/received_events",
                "repos_url": "https://api.github.com/users/wgaylord/repos",
                "site_admin": false,
                "starred_url": "https://api.github.com/users/wgaylord/starred{/owner}{/repo}",
                "subscriptions_url": "https://api.github.com/users/wgaylord/subscriptions",
                "type": "User",
                "url": "https://api.github.com/users/wgaylord"
            },
            "html_url": "https://github.com/PrismarineJS/minecraft-data-generator-server/commit/5fb7b21ba10abcd9e6e4b8358860a52f2f525aa3",
            "node_id": "C_kwDOKmT0fNoAKDVmYjdiMjFiYTEwYWJjZDllNmU0YjgzNTg4NjBhNTJmMmY1MjVhYTM",
            "parents": [
                {
                    "html_url": "https://github.com/PrismarineJS/minecraft-data-generator-server/commit/d7acb0b72852c41245cf22110fc44ab24ea6f73a",
                    "sha": "d7acb0b72852c41245cf22110fc44ab24ea6f73a",
                    "url": "https://api.github.com/repos/PrismarineJS/minecraft-data-generator-server/commits/d7acb0b72852c41245cf22110fc44ab24ea6f73a"
                }
            ],
            "sha": "5fb7b21ba10abcd9e6e4b8358860a52f2f525aa3",
            "url": "https://api.github.com/repos/PrismarineJS/minecraft-data-generator-server/commits/5fb7b21ba10abcd9e6e4b8358860a52f2f525aa3"
        },
        {
            "author": {
                "avatar_url": "https://avatars.githubusercontent.com/u/2133449?v=4",
                "events_url": "https://api.github.com/users/wgaylord/events{/privacy}",
                "followers_url": "https://api.github.com/users/wgaylord/followers",
                "following_url": "https://api.github.com/users/wgaylord/following{/other_user}",
                "gists_url": "https://api.github.com/users/wgaylord/gists{/gist_id}",
                "gravatar_id": "",
                "html_url": "https://github.com/wgaylord",
                "id": 2133449,
                "login": "wgaylord",
                "node_id": "MDQ6VXNlcjIxMzM0NDk=",
                "organizations_url": "https://api.github.com/users/wgaylord/orgs",
                "received_events_url": "https://api.github.com/users/wgaylord/received_events",
                "repos_url": "https://api.github.com/users/wgaylord/repos",
                "site_admin": false,
                "starred_url": "https://api.github.com/users/wgaylord/starred{/owner}{/repo}",
                "subscriptions_url": "https://api.github.com/users/wgaylord/subscriptions",
                "type": "User",
                "url": "https://api.github.com/users/wgaylord"
            },
            "comments_url": "https://api.github.com/repos/PrismarineJS/minecraft-data-generator-server/commits/fc246a5c4065ebf4c0ffff36f93d077aa3b3fba6/comments",
            "commit": {
                "author": {
                    "date": "2024-01-25T21:12:40Z",
                    "email": "chibill110@gmail.com",
                    "name": "William Gaylord"
                },
                "comment_count": 0,
                "committer": {
                    "date": "2024-01-25T21:12:40Z",
                    "email": "chibill110@gmail.com",
                    "name": "William Gaylord"
                },
                "message": "Add generator to all versions.",
                "tree": {
                    "sha": "f612943aa86ef3a7023eeeb15586e523365cc351",
                    "url": "https://api.github.com/repos/PrismarineJS/minecraft-data-generator-server/git/trees/f612943aa86ef3a7023eeeb15586e523365cc351"
                },
                "url": "https://api.github.com/repos/PrismarineJS/minecraft-data-generator-server/git/commits/fc246a5c4065ebf4c0ffff36f93d077aa3b3fba6",
                "verification": {
                    "payload": null,
                    "reason": "unsigned",
                    "signature": null,
                    "verified": false
                }
            },
            "committer": {
                "avatar_url": "https://avatars.githubusercontent.com/u/2133449?v=4",
                "events_url": "https://api.github.com/users/wgaylord/events{/privacy}",
                "followers_url": "https://api.github.com/users/wgaylord/followers",
                "following_url": "https://api.github.com/users/wgaylord/following{/other_user}",
                "gists_url": "https://api.github.com/users/wgaylord/gists{/gist_id}",
                "gravatar_id": "",
                "html_url": "https://github.com/wgaylord",
                "id": 2133449,
                "login": "wgaylord",
                "node_id": "MDQ6VXNlcjIxMzM0NDk=",
                "organizations_url": "https://api.github.com/users/wgaylord/orgs",
                "received_events_url": "https://api.github.com/users/wgaylord/received_events",
                "repos_url": "https://api.github.com/users/wgaylord/repos",
                "site_admin": false,
                "starred_url": "https://api.github.com/users/wgaylord/starred{/owner}{/repo}",
                "subscriptions_url": "https://api.github.com/users/wgaylord/subscriptions",
                "type": "User",
                "url": "https://api.github.com/users/wgaylord"
            },
            "html_url": "https://github.com/PrismarineJS/minecraft-data-generator-server/commit/fc246a5c4065ebf4c0ffff36f93d077aa3b3fba6",
            "node_id": "C_kwDOKmT0fNoAKGZjMjQ2YTVjNDA2NWViZjRjMGZmZmYzNmY5M2QwNzdhYTNiM2ZiYTY",
            "parents": [
                {
                    "html_url": "https://github.com/PrismarineJS/minecraft-data-generator-server/commit/5fb7b21ba10abcd9e6e4b8358860a52f2f525aa3",
                    "sha": "5fb7b21ba10abcd9e6e4b8358860a52f2f525aa3",
                    "url": "https://api.github.com/repos/PrismarineJS/minecraft-data-generator-server/commits/5fb7b21ba10abcd9e6e4b8358860a52f2f525aa3"
                }
            ],
            "sha": "fc246a5c4065ebf4c0ffff36f93d077aa3b3fba6",
            "url": "https://api.github.com/repos/PrismarineJS/minecraft-data-generator-server/commits/fc246a5c4065ebf4c0ffff36f93d077aa3b3fba6"
        },
        {
            "author": {
                "avatar_url": "https://avatars.githubusercontent.com/u/2133449?v=4",
                "events_url": "https://api.github.com/users/wgaylord/events{/privacy}",
                "followers_url": "https://api.github.com/users/wgaylord/followers",
                "following_url": "https://api.github.com/users/wgaylord/following{/other_user}",
                "gists_url": "https://api.github.com/users/wgaylord/gists{/gist_id}",
                "gravatar_id": "",
                "html_url": "https://github.com/wgaylord",
                "id": 2133449,
                "login": "wgaylord",
                "node_id": "MDQ6VXNlcjIxMzM0NDk=",
                "organizations_url": "https://api.github.com/users/wgaylord/orgs",
                "received_events_url": "https://api.github.com/users/wgaylord/received_events",
                "repos_url": "https://api.github.com/users/wgaylord/repos",
                "site_admin": false,
                "starred_url": "https://api.github.com/users/wgaylord/starred{/owner}{/repo}",
                "subscriptions_url": "https://api.github.com/users/wgaylord/subscriptions",
                "type": "User",
                "url": "https://api.github.com/users/wgaylord"
            },
            "comments_url": "https://api.github.com/repos/PrismarineJS/minecraft-data-generator-server/commits/9a1fa69545674aed95331c9668848d1679affacf/comments",
            "commit": {
                "author": {
                    "date": "2024-01-26T18:07:03Z",
                    "email": "chibill110@gmail.com",
                    "name": "William Gaylord"
                },
                "comment_count": 0,
                "committer": {
                    "date": "2024-01-26T18:07:03Z",
                    "email": "chibill110@gmail.com",
                    "name": "William Gaylord"
                },
                "message": "Fix versions that offset ID by one for network.",
                "tree": {
                    "sha": "f21e63ceca15f4441c318de04fe63050fc25b25a",
                    "url": "https://api.github.com/repos/PrismarineJS/minecraft-data-generator-server/git/trees/f21e63ceca15f4441c318de04fe63050fc25b25a"
                },
                "url": "https://api.github.com/repos/PrismarineJS/minecraft-data-generator-server/git/commits/9a1fa69545674aed95331c9668848d1679affacf",
                "verification": {
                    "payload": null,
                    "reason": "unsigned",
                    "signature": null,
                    "verified": false
                }
            },
            "committer": {
                "avatar_url": "https://avatars.githubusercontent.com/u/2133449?v=4",
                "events_url": "https://api.github.com/users/wgaylord/events{/privacy}",
                "followers_url": "https://api.github.com/users/wgaylord/followers",
                "following_url": "https://api.github.com/users/wgaylord/following{/other_user}",
                "gists_url": "https://api.github.com/users/wgaylord/gists{/gist_id}",
                "gravatar_id": "",
                "html_url": "https://github.com/wgaylord",
                "id": 2133449,
                "login": "wgaylord",
                "node_id": "MDQ6VXNlcjIxMzM0NDk=",
                "organizations_url": "https://api.github.com/users/wgaylord/orgs",
                "received_events_url": "https://api.github.com/users/wgaylord/received_events",
                "repos_url": "https://api.github.com/users/wgaylord/repos",
                "site_admin": false,
                "starred_url": "https://api.github.com/users/wgaylord/starred{/owner}{/repo}",
                "subscriptions_url": "https://api.github.com/users/wgaylord/subscriptions",
                "type": "User",
                "url": "https://api.github.com/users/wgaylord"
            },
            "html_url": "https://github.com/PrismarineJS/minecraft-data-generator-server/commit/9a1fa69545674aed95331c9668848d1679affacf",
            "node_id": "C_kwDOKmT0fNoAKDlhMWZhNjk1NDU2NzRhZWQ5NTMzMWM5NjY4ODQ4ZDE2NzlhZmZhY2Y",
            "parents": [
                {
                    "html_url": "https://github.com/PrismarineJS/minecraft-data-generator-server/commit/fc246a5c4065ebf4c0ffff36f93d077aa3b3fba6",
                    "sha": "fc246a5c4065ebf4c0ffff36f93d077aa3b3fba6",
                    "url": "https://api.github.com/repos/PrismarineJS/minecraft-data-generator-server/commits/fc246a5c4065ebf4c0ffff36f93d077aa3b3fba6"
                }
            ],
            "sha": "9a1fa69545674aed95331c9668848d1679affacf",
            "url": "https://api.github.com/repos/PrismarineJS/minecraft-data-generator-server/commits/9a1fa69545674aed95331c9668848d1679affacf"
        }
    ],
    "commits": 4,
    "commits_url": "https://api.github.com/repos/PrismarineJS/minecraft-data-generator-server/pulls/17/commits",
    "created_at": "2024-01-11T21:07:21Z",
    "deletions": 2,
    "diff_url": "https://github.com/PrismarineJS/minecraft-data-generator-server/pull/17.diff",
    "draft": false,
    "head": {
        "label": "wgaylord:sound_ids",
        "ref": "sound_ids",
        "repo": {
            "allow_forking": true,
            "archive_url": "https://api.github.com/repos/wgaylord/minecraft-data-generator-server/{archive_format}{/ref}",
            "archived": false,
            "assignees_url": "https://api.github.com/repos/wgaylord/minecraft-data-generator-server/assignees{/user}",
            "blobs_url": "https://api.github.com/repos/wgaylord/minecraft-data-generator-server/git/blobs{/sha}",
            "branches_url": "https://api.github.com/repos/wgaylord/minecraft-data-generator-server/branches{/branch}",
            "clone_url": "https://github.com/wgaylord/minecraft-data-generator-server.git",
            "collaborators_url": "https://api.github.com/repos/wgaylord/minecraft-data-generator-server/collaborators{/collaborator}",
            "comments_url": "https://api.github.com/repos/wgaylord/minecraft-data-generator-server/comments{/number}",
            "commits_url": "https://api.github.com/repos/wgaylord/minecraft-data-generator-server/commits{/sha}",
            "compare_url": "https://api.github.com/repos/wgaylord/minecraft-data-generator-server/compare/{base}...{head}",
            "contents_url": "https://api.github.com/repos/wgaylord/minecraft-data-generator-server/contents/{+path}",
            "contributors_url": "https://api.github.com/repos/wgaylord/minecraft-data-generator-server/contributors",
            "created_at": "2023-10-28T17:30:24Z",
            "default_branch": "main",
            "deployments_url": "https://api.github.com/repos/wgaylord/minecraft-data-generator-server/deployments",
            "description": null,
            "disabled": false,
            "downloads_url": "https://api.github.com/repos/wgaylord/minecraft-data-generator-server/downloads",
            "events_url": "https://api.github.com/repos/wgaylord/minecraft-data-generator-server/events",
            "fork": true,
            "forks": 0,
            "forks_count": 0,
            "forks_url": "https://api.github.com/repos/wgaylord/minecraft-data-generator-server/forks",
            "full_name": "wgaylord/minecraft-data-generator-server",
            "git_commits_url": "https://api.github.com/repos/wgaylord/minecraft-data-generator-server/git/commits{/sha}",
            "git_refs_url": "https://api.github.com/repos/wgaylord/minecraft-data-generator-server/git/refs{/sha}",
            "git_tags_url": "https://api.github.com/repos/wgaylord/minecraft-data-generator-server/git/tags{/sha}",
            "git_url": "git://github.com/wgaylord/minecraft-data-generator-server.git",
            "has_discussions": false,
            "has_downloads": true,
            "has_issues": false,
            "has_pages": false,
            "has_projects": true,
            "has_wiki": true,
            "homepage": null,
            "hooks_url": "https://api.github.com/repos/wgaylord/minecraft-data-generator-server/hooks",
            "html_url": "https://github.com/wgaylord/minecraft-data-generator-server",
            "id": 711259260,
            "is_template": false,
            "issue_comment_url": "https://api.github.com/repos/wgaylord/minecraft-data-generator-server/issues/comments{/number}",
            "issue_events_url": "https://api.github.com/repos/wgaylord/minecraft-data-generator-server/issues/events{/number}",
            "issues_url": "https://api.github.com/repos/wgaylord/minecraft-data-generator-server/issues{/number}",
            "keys_url": "https://api.github.com/repos/wgaylord/minecraft-data-generator-server/keys{/key_id}",
            "labels_url": "https://api.github.com/repos/wgaylord/minecraft-data-generator-server/labels{/name}",
            "language": "Java",
            "languages_url": "https://api.github.com/repos/wgaylord/minecraft-data-generator-server/languages",
            "license": {
                "key": "mit",
                "name": "MIT License",
                "node_id": "MDc6TGljZW5zZTEz",
                "spdx_id": "MIT",
                "url": "https://api.github.com/licenses/mit"
            },
            "merges_url": "https://api.github.com/repos/wgaylord/minecraft-data-generator-server/merges",
            "milestones_url": "https://api.github.com/repos/wgaylord/minecraft-data-generator-server/milestones{/number}",
            "mirror_url": null,
            "name": "minecraft-data-generator-server",
            "node_id": "R_kgDOKmT0fA",
            "notifications_url": "https://api.github.com/repos/wgaylord/minecraft-data-generator-server/notifications{?since,all,participating}",
            "open_issues": 0,
            "open_issues_count": 0,
            "owner": {
                "avatar_url": "https://avatars.githubusercontent.com/u/2133449?v=4",
                "events_url": "https://api.github.com/users/wgaylord/events{/privacy}",
                "followers_url": "https://api.github.com/users/wgaylord/followers",
                "following_url": "https://api.github.com/users/wgaylord/following{/other_user}",
                "gists_url": "https://api.github.com/users/wgaylord/gists{/gist_id}",
                "gravatar_id": "",
                "html_url": "https://github.com/wgaylord",
                "id": 2133449,
                "login": "wgaylord",
                "node_id": "MDQ6VXNlcjIxMzM0NDk=",
                "organizations_url": "https://api.github.com/users/wgaylord/orgs",
                "received_events_url": "https://api.github.com/users/wgaylord/received_events",
                "repos_url": "https://api.github.com/users/wgaylord/repos",
                "site_admin": false,
                "starred_url": "https://api.github.com/users/wgaylord/starred{/owner}{/repo}",
                "subscriptions_url": "https://api.github.com/users/wgaylord/subscriptions",
                "type": "User",
                "url": "https://api.github.com/users/wgaylord"
            },
            "private": false,
            "pulls_url": "https://api.github.com/repos/wgaylord/minecraft-data-generator-server/pulls{/number}",
            "pushed_at": "2024-01-26T18:07:17Z",
            "releases_url": "https://api.github.com/repos/wgaylord/minecraft-data-generator-server/releases{/id}",
            "size": 279,
            "ssh_url": "git@github.com:wgaylord/minecraft-data-generator-server.git",
            "stargazers_count": 0,
            "stargazers_url": "https://api.github.com/repos/wgaylord/minecraft-data-generator-server/stargazers",
            "statuses_url": "https://api.github.com/repos/wgaylord/minecraft-data-generator-server/statuses/{sha}",
            "subscribers_url": "https://api.github.com/repos/wgaylord/minecraft-data-generator-server/subscribers",
            "subscription_url": "https://api.github.com/repos/wgaylord/minecraft-data-generator-server/subscription",
            "svn_url": "https://github.com/wgaylord/minecraft-data-generator-server",
            "tags_url": "https://api.github.com/repos/wgaylord/minecraft-data-generator-server/tags",
            "teams_url": "https://api.github.com/repos/wgaylord/minecraft-data-generator-server/teams",
            "topics": [],
            "trees_url": "https://api.github.com/repos/wgaylord/minecraft-data-generator-server/git/trees{/sha}",
            "updated_at": "2023-10-28T17:35:02Z",
            "url": "https://api.github.com/repos/wgaylord/minecraft-data-generator-server",
            "visibility": "public",
            "watchers": 0,
            "watchers_count": 0,
            "web_commit_signoff_required": false
        },
        "sha": "9a1fa69545674aed95331c9668848d1679affacf",
        "user": {
            "avatar_url": "https://avatars.githubusercontent.com/u/2133449?v=4",
            "events_url": "https://api.github.com/users/wgaylord/events{/privacy}",
            "followers_url": "https://api.github.com/users/wgaylord/followers",
            "following_url": "https://api.github.com/users/wgaylord/following{/other_user}",
            "gists_url": "https://api.github.com/users/wgaylord/gists{/gist_id}",
            "gravatar_id": "",
            "html_url": "https://github.com/wgaylord",
            "id": 2133449,
            "login": "wgaylord",
            "node_id": "MDQ6VXNlcjIxMzM0NDk=",
            "organizations_url": "https://api.github.com/users/wgaylord/orgs",
            "received_events_url": "https://api.github.com/users/wgaylord/received_events",
            "repos_url": "https://api.github.com/users/wgaylord/repos",
            "site_admin": false,
            "starred_url": "https://api.github.com/users/wgaylord/starred{/owner}{/repo}",
            "subscriptions_url": "https://api.github.com/users/wgaylord/subscriptions",
            "type": "User",
            "url": "https://api.github.com/users/wgaylord"
        }
    },
    "html_url": "https://github.com/PrismarineJS/minecraft-data-generator-server/pull/17",
    "id": 1675340597,
    "issue_url": "https://api.github.com/repos/PrismarineJS/minecraft-data-generator-server/issues/17",
    "labels": [],
    "locked": false,
    "maintainer_can_modify": false,
    "merge_commit_sha": "44f49b4ab51fb92f72209d7fdf7c6e42030de8dd",
    "mergeable": null,
    "mergeable_state": "unknown",
    "merged": true,
    "merged_at": "2024-03-17T15:13:19Z",
    "merged_by": {
        "avatar_url": "https://avatars.githubusercontent.com/u/2346494?v=4",
        "events_url": "https://api.github.com/users/rom1504/events{/privacy}",
        "followers_url": "https://api.github.com/users/rom1504/followers",
        "following_url": "https://api.github.com/users/rom1504/following{/other_user}",
        "gists_url": "https://api.github.com/users/rom1504/gists{/gist_id}",
        "gravatar_id": "",
        "html_url": "https://github.com/rom1504",
        "id": 2346494,
        "login": "rom1504",
        "node_id": "MDQ6VXNlcjIzNDY0OTQ=",
        "organizations_url": "https://api.github.com/users/rom1504/orgs",
        "received_events_url": "https://api.github.com/users/rom1504/received_events",
        "repos_url": "https://api.github.com/users/rom1504/repos",
        "site_admin": false,
        "starred_url": "https://api.github.com/users/rom1504/starred{/owner}{/repo}",
        "subscriptions_url": "https://api.github.com/users/rom1504/subscriptions",
        "type": "User",
        "url": "https://api.github.com/users/rom1504"
    },
    "milestone": null,
    "node_id": "PR_kwDOHSc7cc5j26s1",
    "number": 17,
    "patch_url": "https://github.com/PrismarineJS/minecraft-data-generator-server/pull/17.patch",
    "rebaseable": null,
    "requested_reviewers": [],
    "requested_teams": [],
    "review_comment_url": "https://api.github.com/repos/PrismarineJS/minecraft-data-generator-server/pulls/comments{/number}",
    "review_comments": 0,
    "review_comments_url": "https://api.github.com/repos/PrismarineJS/minecraft-data-generator-server/pulls/17/comments",
    "state": "closed",
    "statuses_url": "https://api.github.com/repos/PrismarineJS/minecraft-data-generator-server/statuses/9a1fa69545674aed95331c9668848d1679affacf",
    "title": "Add sound id to name mappings as generator for 1.9 thru 1.20",
    "updated_at": "2024-03-17T15:13:19Z",
    "url": "https://api.github.com/repos/PrismarineJS/minecraft-data-generator-server/pulls/17",
    "user": {
        "avatar_url": "https://avatars.githubusercontent.com/u/2133449?v=4",
        "events_url": "https://api.github.com/users/wgaylord/events{/privacy}",
        "followers_url": "https://api.github.com/users/wgaylord/followers",
        "following_url": "https://api.github.com/users/wgaylord/following{/other_user}",
        "gists_url": "https://api.github.com/users/wgaylord/gists{/gist_id}",
        "gravatar_id": "",
        "html_url": "https://github.com/wgaylord",
        "id": 2133449,
        "login": "wgaylord",
        "node_id": "MDQ6VXNlcjIxMzM0NDk=",
        "organizations_url": "https://api.github.com/users/wgaylord/orgs",
        "received_events_url": "https://api.github.com/users/wgaylord/received_events",
        "repos_url": "https://api.github.com/users/wgaylord/repos",
        "site_admin": false,
        "starred_url": "https://api.github.com/users/wgaylord/starred{/owner}{/repo}",
        "subscriptions_url": "https://api.github.com/users/wgaylord/subscriptions",
        "type": "User",
        "url": "https://api.github.com/users/wgaylord"
    }
}