{
    "_links": {
        "comments": {
            "href": "https://api.github.com/repos/PrismarineJS/minecraft-jar-extractor/issues/39/comments"
        },
        "commits": {
            "href": "https://api.github.com/repos/PrismarineJS/minecraft-jar-extractor/pulls/39/commits"
        },
        "html": {
            "href": "https://github.com/PrismarineJS/minecraft-jar-extractor/pull/39"
        },
        "issue": {
            "href": "https://api.github.com/repos/PrismarineJS/minecraft-jar-extractor/issues/39"
        },
        "review_comment": {
            "href": "https://api.github.com/repos/PrismarineJS/minecraft-jar-extractor/pulls/comments{/number}"
        },
        "review_comments": {
            "href": "https://api.github.com/repos/PrismarineJS/minecraft-jar-extractor/pulls/39/comments"
        },
        "self": {
            "href": "https://api.github.com/repos/PrismarineJS/minecraft-jar-extractor/pulls/39"
        },
        "statuses": {
            "href": "https://api.github.com/repos/PrismarineJS/minecraft-jar-extractor/statuses/d4c893fcbb6d3d32b9a2dd203300a304aaf44f3a"
        }
    },
    "active_lock_reason": null,
    "additions": 14,
    "assignee": null,
    "assignees": [],
    "author_association": "CONTRIBUTOR",
    "auto_merge": null,
    "base": {
        "label": "PrismarineJS:master",
        "ref": "master",
        "repo": {
            "allow_forking": true,
            "archive_url": "https://api.github.com/repos/PrismarineJS/minecraft-jar-extractor/{archive_format}{/ref}",
            "archived": false,
            "assignees_url": "https://api.github.com/repos/PrismarineJS/minecraft-jar-extractor/assignees{/user}",
            "blobs_url": "https://api.github.com/repos/PrismarineJS/minecraft-jar-extractor/git/blobs{/sha}",
            "branches_url": "https://api.github.com/repos/PrismarineJS/minecraft-jar-extractor/branches{/branch}",
            "clone_url": "https://github.com/PrismarineJS/minecraft-jar-extractor.git",
            "collaborators_url": "https://api.github.com/repos/PrismarineJS/minecraft-jar-extractor/collaborators{/collaborator}",
            "comments_url": "https://api.github.com/repos/PrismarineJS/minecraft-jar-extractor/comments{/number}",
            "commits_url": "https://api.github.com/repos/PrismarineJS/minecraft-jar-extractor/commits{/sha}",
            "compare_url": "https://api.github.com/repos/PrismarineJS/minecraft-jar-extractor/compare/{base}...{head}",
            "contents_url": "https://api.github.com/repos/PrismarineJS/minecraft-jar-extractor/contents/{+path}",
            "contributors_url": "https://api.github.com/repos/PrismarineJS/minecraft-jar-extractor/contributors",
            "created_at": "2015-10-14T18:40:48Z",
            "default_branch": "master",
            "deployments_url": "https://api.github.com/repos/PrismarineJS/minecraft-jar-extractor/deployments",
            "description": "Extract structured data from the minecraft jar",
            "disabled": false,
            "downloads_url": "https://api.github.com/repos/PrismarineJS/minecraft-jar-extractor/downloads",
            "events_url": "https://api.github.com/repos/PrismarineJS/minecraft-jar-extractor/events",
            "fork": false,
            "forks": 8,
            "forks_count": 8,
            "forks_url": "https://api.github.com/repos/PrismarineJS/minecraft-jar-extractor/forks",
            "full_name": "PrismarineJS/minecraft-jar-extractor",
            "git_commits_url": "https://api.github.com/repos/PrismarineJS/minecraft-jar-extractor/git/commits{/sha}",
            "git_refs_url": "https://api.github.com/repos/PrismarineJS/minecraft-jar-extractor/git/refs{/sha}",
            "git_tags_url": "https://api.github.com/repos/PrismarineJS/minecraft-jar-extractor/git/tags{/sha}",
            "git_url": "git://github.com/PrismarineJS/minecraft-jar-extractor.git",
            "has_discussions": false,
            "has_downloads": true,
            "has_issues": true,
            "has_pages": false,
            "has_projects": true,
            "has_wiki": true,
            "homepage": null,
            "hooks_url": "https://api.github.com/repos/PrismarineJS/minecraft-jar-extractor/hooks",
            "html_url": "https://github.com/PrismarineJS/minecraft-jar-extractor",
            "id": 44268611,
            "is_template": false,
            "issue_comment_url": "https://api.github.com/repos/PrismarineJS/minecraft-jar-extractor/issues/comments{/number}",
            "issue_events_url": "https://api.github.com/repos/PrismarineJS/minecraft-jar-extractor/issues/events{/number}",
            "issues_url": "https://api.github.com/repos/PrismarineJS/minecraft-jar-extractor/issues{/number}",
            "keys_url": "https://api.github.com/repos/PrismarineJS/minecraft-jar-extractor/keys{/key_id}",
            "labels_url": "https://api.github.com/repos/PrismarineJS/minecraft-jar-extractor/labels{/name}",
            "language": "JavaScript",
            "languages_url": "https://api.github.com/repos/PrismarineJS/minecraft-jar-extractor/languages",
            "license": null,
            "merges_url": "https://api.github.com/repos/PrismarineJS/minecraft-jar-extractor/merges",
            "milestones_url": "https://api.github.com/repos/PrismarineJS/minecraft-jar-extractor/milestones{/number}",
            "mirror_url": null,
            "name": "minecraft-jar-extractor",
            "node_id": "MDEwOlJlcG9zaXRvcnk0NDI2ODYxMQ==",
            "notifications_url": "https://api.github.com/repos/PrismarineJS/minecraft-jar-extractor/notifications{?since,all,participating}",
            "open_issues": 6,
            "open_issues_count": 6,
            "owner": {
                "avatar_url": "https://avatars.githubusercontent.com/u/11053411?v=4",
                "events_url": "https://api.github.com/users/PrismarineJS/events{/privacy}",
                "followers_url": "https://api.github.com/users/PrismarineJS/followers",
                "following_url": "https://api.github.com/users/PrismarineJS/following{/other_user}",
                "gists_url": "https://api.github.com/users/PrismarineJS/gists{/gist_id}",
                "gravatar_id": "",
                "html_url": "https://github.com/PrismarineJS",
                "id": 11053411,
                "login": "PrismarineJS",
                "node_id": "MDEyOk9yZ2FuaXphdGlvbjExMDUzNDEx",
                "organizations_url": "https://api.github.com/users/PrismarineJS/orgs",
                "received_events_url": "https://api.github.com/users/PrismarineJS/received_events",
                "repos_url": "https://api.github.com/users/PrismarineJS/repos",
                "site_admin": false,
                "starred_url": "https://api.github.com/users/PrismarineJS/starred{/owner}{/repo}",
                "subscriptions_url": "https://api.github.com/users/PrismarineJS/subscriptions",
                "type": "Organization",
                "url": "https://api.github.com/users/PrismarineJS"
            },
            "private": false,
            "pulls_url": "https://api.github.com/repos/PrismarineJS/minecraft-jar-extractor/pulls{/number}",
            "pushed_at": "2023-04-10T14:58:32Z",
            "releases_url": "https://api.github.com/repos/PrismarineJS/minecraft-jar-extractor/releases{/id}",
            "size": 64,
            "ssh_url": "git@github.com:PrismarineJS/minecraft-jar-extractor.git",
            "stargazers_count": 8,
            "stargazers_url": "https://api.github.com/repos/PrismarineJS/minecraft-jar-extractor/stargazers",
            "statuses_url": "https://api.github.com/repos/PrismarineJS/minecraft-jar-extractor/statuses/{sha}",
            "subscribers_url": "https://api.github.com/repos/PrismarineJS/minecraft-jar-extractor/subscribers",
            "subscription_url": "https://api.github.com/repos/PrismarineJS/minecraft-jar-extractor/subscription",
            "svn_url": "https://github.com/PrismarineJS/minecraft-jar-extractor",
            "tags_url": "https://api.github.com/repos/PrismarineJS/minecraft-jar-extractor/tags",
            "teams_url": "https://api.github.com/repos/PrismarineJS/minecraft-jar-extractor/teams",
            "topics": [],
            "trees_url": "https://api.github.com/repos/PrismarineJS/minecraft-jar-extractor/git/trees{/sha}",
            "updated_at": "2022-06-15T00:56:15Z",
            "url": "https://api.github.com/repos/PrismarineJS/minecraft-jar-extractor",
            "visibility": "public",
            "watchers": 8,
            "watchers_count": 8,
            "web_commit_signoff_required": false
        },
        "sha": "c21d9491ea52804a64b6af36a49b95a8e7f35ee9",
        "user": {
            "avatar_url": "https://avatars.githubusercontent.com/u/11053411?v=4",
            "events_url": "https://api.github.com/users/PrismarineJS/events{/privacy}",
            "followers_url": "https://api.github.com/users/PrismarineJS/followers",
            "following_url": "https://api.github.com/users/PrismarineJS/following{/other_user}",
            "gists_url": "https://api.github.com/users/PrismarineJS/gists{/gist_id}",
            "gravatar_id": "",
            "html_url": "https://github.com/PrismarineJS",
            "id": 11053411,
            "login": "PrismarineJS",
            "node_id": "MDEyOk9yZ2FuaXphdGlvbjExMDUzNDEx",
            "organizations_url": "https://api.github.com/users/PrismarineJS/orgs",
            "received_events_url": "https://api.github.com/users/PrismarineJS/received_events",
            "repos_url": "https://api.github.com/users/PrismarineJS/repos",
            "site_admin": false,
            "starred_url": "https://api.github.com/users/PrismarineJS/starred{/owner}{/repo}",
            "subscriptions_url": "https://api.github.com/users/PrismarineJS/subscriptions",
            "type": "Organization",
            "url": "https://api.github.com/users/PrismarineJS"
        }
    },
    "body": "_Dependabot Preview will be shut down on August 3rd, 2021. In order to keep getting Dependabot updates, please merge this PR and migrate to GitHub-native Dependabot before then._\n\nDependabot has been fully integrated into GitHub, so you no longer have to install and manage a separate app. This pull request migrates your configuration from Dependabot.com to a config file, using the [new syntax][new_syntax]. When merged, we'll swap out `dependabot-preview` (me) for a new `dependabot` app, and you'll be all set!\n\nWith this change, you'll now use the [Dependabot page in GitHub][dependabot_page], rather than the [Dependabot dashboard][dashboard], to monitor your version updates, and you'll configure Dependabot through the new config file rather than a UI.\n\n\n\n\n\n\n\nIf you've got any questions or feedback for us, please let us know by creating an issue in the [dependabot/dependabot-core][issues] repository.\n\n[Learn more about migrating to GitHub-native Dependabot][learn]\n\nPlease note that regular `@dependabot` commands do not work on this pull request.\n\n[dashboard]: https://app.dependabot.com/\n[dependabot_page]: https://github.com/PrismarineJS/minecraft-jar-extractor/network/updates\n[issues]: https://github.com/dependabot/dependabot-core/issues/new?assignees=%40dependabot%2Fpreview-migration-reviewers&labels=E%3A+preview-migration&template=migration-issue.md\n[learn]: http://docs.github.com/code-security/supply-chain-security/upgrading-from-dependabotcom-to-github-native-dependabot\n[new_syntax]: https://help.github.com/en/github/administering-a-repository/configuration-options-for-dependency-updates\n[org_secrets_url]: https://github.com/organizations/PrismarineJS/settings/secrets/dependabot\n[repo_secrets_url]: https://github.com/PrismarineJS/minecraft-jar-extractor/settings/secrets/dependabot\n",
    "changed_files": 1,
    "closed_at": "2021-05-01T23:03:17Z",
    "comment_data": [],
    "comment_regular_data": [],
    "comments": 0,
    "comments_url": "https://api.github.com/repos/PrismarineJS/minecraft-jar-extractor/issues/39/comments",
    "commit_data": [
        {
            "author": {
                "avatar_url": "https://avatars.githubusercontent.com/in/2141?v=4",
                "events_url": "https://api.github.com/users/dependabot-preview%5Bbot%5D/events{/privacy}",
                "followers_url": "https://api.github.com/users/dependabot-preview%5Bbot%5D/followers",
                "following_url": "https://api.github.com/users/dependabot-preview%5Bbot%5D/following{/other_user}",
                "gists_url": "https://api.github.com/users/dependabot-preview%5Bbot%5D/gists{/gist_id}",
                "gravatar_id": "",
                "html_url": "https://github.com/apps/dependabot-preview",
                "id": 27856297,
                "login": "dependabot-preview[bot]",
                "node_id": "MDM6Qm90Mjc4NTYyOTc=",
                "organizations_url": "https://api.github.com/users/dependabot-preview%5Bbot%5D/orgs",
                "received_events_url": "https://api.github.com/users/dependabot-preview%5Bbot%5D/received_events",
                "repos_url": "https://api.github.com/users/dependabot-preview%5Bbot%5D/repos",
                "site_admin": false,
                "starred_url": "https://api.github.com/users/dependabot-preview%5Bbot%5D/starred{/owner}{/repo}",
                "subscriptions_url": "https://api.github.com/users/dependabot-preview%5Bbot%5D/subscriptions",
                "type": "Bot",
                "url": "https://api.github.com/users/dependabot-preview%5Bbot%5D"
            },
            "comments_url": "https://api.github.com/repos/PrismarineJS/minecraft-jar-extractor/commits/d4c893fcbb6d3d32b9a2dd203300a304aaf44f3a/comments",
            "commit": {
                "author": {
                    "date": "2021-04-29T21:35:51Z",
                    "email": "27856297+dependabot-preview[bot]@users.noreply.github.com",
                    "name": "dependabot-preview[bot]"
                },
                "comment_count": 0,
                "committer": {
                    "date": "2021-04-29T21:35:51Z",
                    "email": "noreply@github.com",
                    "name": "GitHub"
                },
                "message": "Upgrade to GitHub-native Dependabot",
                "tree": {
                    "sha": "24acd28d5e637dc04055e7e8b1d730b4ad833b7b",
                    "url": "https://api.github.com/repos/PrismarineJS/minecraft-jar-extractor/git/trees/24acd28d5e637dc04055e7e8b1d730b4ad833b7b"
                },
                "url": "https://api.github.com/repos/PrismarineJS/minecraft-jar-extractor/git/commits/d4c893fcbb6d3d32b9a2dd203300a304aaf44f3a",
                "verification": {
                    "payload": "tree 24acd28d5e637dc04055e7e8b1d730b4ad833b7b\nparent c21d9491ea52804a64b6af36a49b95a8e7f35ee9\nauthor dependabot-preview[bot] <27856297+dependabot-preview[bot]@users.noreply.github.com> 1619732151 +0000\ncommitter GitHub <noreply@github.com> 1619732151 +0000\n\nUpgrade to GitHub-native Dependabot",
                    "reason": "valid",
                    "signature": "-----BEGIN PGP SIGNATURE-----\n\nwsBcBAABCAAQBQJgiya3CRBK7hj4Ov3rIwAA1hAIADR6r+koocghV2DWTGFj6FJG\nA6Vc0SelTlQHl6p0MGT1aIqkaLH4GXLLC+pV2KqnOqxGKQA6JDQMDDbialZIAaEa\n4ttNtJI8WaEk65/5BI6rToTXPKG5LuMkPeeLvTZTIvmuC3GyV3d72vgM4majiAJm\ne0aEDU2F/Nm+MAxXL/z7k1IciZcjA8vlZ9jY3FsR3r4VmP2ctYzhIRUMUEekxDLu\nMMbDQZ8PNQas9ENpG1zV8HlEXK/Ue4zBvtOKrVn9eIBsPlzzt7Gu27s1eg4/GLHU\nydYm9lqNE2R52mdX0Kq43HyqW/ry2BrULgxXobT7lZY6hjRxGCGFP+fGFBmo2i0=\n=7nQ5\n-----END PGP SIGNATURE-----\n",
                    "verified": true
                }
            },
            "committer": {
                "avatar_url": "https://avatars.githubusercontent.com/u/19864447?v=4",
                "events_url": "https://api.github.com/users/web-flow/events{/privacy}",
                "followers_url": "https://api.github.com/users/web-flow/followers",
                "following_url": "https://api.github.com/users/web-flow/following{/other_user}",
                "gists_url": "https://api.github.com/users/web-flow/gists{/gist_id}",
                "gravatar_id": "",
                "html_url": "https://github.com/web-flow",
                "id": 19864447,
                "login": "web-flow",
                "node_id": "MDQ6VXNlcjE5ODY0NDQ3",
                "organizations_url": "https://api.github.com/users/web-flow/orgs",
                "received_events_url": "https://api.github.com/users/web-flow/received_events",
                "repos_url": "https://api.github.com/users/web-flow/repos",
                "site_admin": false,
                "starred_url": "https://api.github.com/users/web-flow/starred{/owner}{/repo}",
                "subscriptions_url": "https://api.github.com/users/web-flow/subscriptions",
                "type": "User",
                "url": "https://api.github.com/users/web-flow"
            },
            "html_url": "https://github.com/PrismarineJS/minecraft-jar-extractor/commit/d4c893fcbb6d3d32b9a2dd203300a304aaf44f3a",
            "node_id": "MDY6Q29tbWl0NDQyNjg2MTE6ZDRjODkzZmNiYjZkM2QzMmI5YTJkZDIwMzMwMGEzMDRhYWY0NGYzYQ==",
            "parents": [
                {
                    "html_url": "https://github.com/PrismarineJS/minecraft-jar-extractor/commit/c21d9491ea52804a64b6af36a49b95a8e7f35ee9",
                    "sha": "c21d9491ea52804a64b6af36a49b95a8e7f35ee9",
                    "url": "https://api.github.com/repos/PrismarineJS/minecraft-jar-extractor/commits/c21d9491ea52804a64b6af36a49b95a8e7f35ee9"
                }
            ],
            "sha": "d4c893fcbb6d3d32b9a2dd203300a304aaf44f3a",
            "url": "https://api.github.com/repos/PrismarineJS/minecraft-jar-extractor/commits/d4c893fcbb6d3d32b9a2dd203300a304aaf44f3a"
        }
    ],
    "commits": 1,
    "commits_url": "https://api.github.com/repos/PrismarineJS/minecraft-jar-extractor/pulls/39/commits",
    "created_at": "2021-04-29T21:35:51Z",
    "deletions": 0,
    "diff_url": "https://github.com/PrismarineJS/minecraft-jar-extractor/pull/39.diff",
    "draft": false,
    "head": {
        "label": "PrismarineJS:dependabot/add-v2-config-file",
        "ref": "dependabot/add-v2-config-file",
        "repo": {
            "allow_forking": true,
            "archive_url": "https://api.github.com/repos/PrismarineJS/minecraft-jar-extractor/{archive_format}{/ref}",
            "archived": false,
            "assignees_url": "https://api.github.com/repos/PrismarineJS/minecraft-jar-extractor/assignees{/user}",
            "blobs_url": "https://api.github.com/repos/PrismarineJS/minecraft-jar-extractor/git/blobs{/sha}",
            "branches_url": "https://api.github.com/repos/PrismarineJS/minecraft-jar-extractor/branches{/branch}",
            "clone_url": "https://github.com/PrismarineJS/minecraft-jar-extractor.git",
            "collaborators_url": "https://api.github.com/repos/PrismarineJS/minecraft-jar-extractor/collaborators{/collaborator}",
            "comments_url": "https://api.github.com/repos/PrismarineJS/minecraft-jar-extractor/comments{/number}",
            "commits_url": "https://api.github.com/repos/PrismarineJS/minecraft-jar-extractor/commits{/sha}",
            "compare_url": "https://api.github.com/repos/PrismarineJS/minecraft-jar-extractor/compare/{base}...{head}",
            "contents_url": "https://api.github.com/repos/PrismarineJS/minecraft-jar-extractor/contents/{+path}",
            "contributors_url": "https://api.github.com/repos/PrismarineJS/minecraft-jar-extractor/contributors",
            "created_at": "2015-10-14T18:40:48Z",
            "default_branch": "master",
            "deployments_url": "https://api.github.com/repos/PrismarineJS/minecraft-jar-extractor/deployments",
            "description": "Extract structured data from the minecraft jar",
            "disabled": false,
            "downloads_url": "https://api.github.com/repos/PrismarineJS/minecraft-jar-extractor/downloads",
            "events_url": "https://api.github.com/repos/PrismarineJS/minecraft-jar-extractor/events",
            "fork": false,
            "forks": 8,
            "forks_count": 8,
            "forks_url": "https://api.github.com/repos/PrismarineJS/minecraft-jar-extractor/forks",
            "full_name": "PrismarineJS/minecraft-jar-extractor",
            "git_commits_url": "https://api.github.com/repos/PrismarineJS/minecraft-jar-extractor/git/commits{/sha}",
            "git_refs_url": "https://api.github.com/repos/PrismarineJS/minecraft-jar-extractor/git/refs{/sha}",
            "git_tags_url": "https://api.github.com/repos/PrismarineJS/minecraft-jar-extractor/git/tags{/sha}",
            "git_url": "git://github.com/PrismarineJS/minecraft-jar-extractor.git",
            "has_discussions": false,
            "has_downloads": true,
            "has_issues": true,
            "has_pages": false,
            "has_projects": true,
            "has_wiki": true,
            "homepage": null,
            "hooks_url": "https://api.github.com/repos/PrismarineJS/minecraft-jar-extractor/hooks",
            "html_url": "https://github.com/PrismarineJS/minecraft-jar-extractor",
            "id": 44268611,
            "is_template": false,
            "issue_comment_url": "https://api.github.com/repos/PrismarineJS/minecraft-jar-extractor/issues/comments{/number}",
            "issue_events_url": "https://api.github.com/repos/PrismarineJS/minecraft-jar-extractor/issues/events{/number}",
            "issues_url": "https://api.github.com/repos/PrismarineJS/minecraft-jar-extractor/issues{/number}",
            "keys_url": "https://api.github.com/repos/PrismarineJS/minecraft-jar-extractor/keys{/key_id}",
            "labels_url": "https://api.github.com/repos/PrismarineJS/minecraft-jar-extractor/labels{/name}",
            "language": "JavaScript",
            "languages_url": "https://api.github.com/repos/PrismarineJS/minecraft-jar-extractor/languages",
            "license": null,
            "merges_url": "https://api.github.com/repos/PrismarineJS/minecraft-jar-extractor/merges",
            "milestones_url": "https://api.github.com/repos/PrismarineJS/minecraft-jar-extractor/milestones{/number}",
            "mirror_url": null,
            "name": "minecraft-jar-extractor",
            "node_id": "MDEwOlJlcG9zaXRvcnk0NDI2ODYxMQ==",
            "notifications_url": "https://api.github.com/repos/PrismarineJS/minecraft-jar-extractor/notifications{?since,all,participating}",
            "open_issues": 6,
            "open_issues_count": 6,
            "owner": {
                "avatar_url": "https://avatars.githubusercontent.com/u/11053411?v=4",
                "events_url": "https://api.github.com/users/PrismarineJS/events{/privacy}",
                "followers_url": "https://api.github.com/users/PrismarineJS/followers",
                "following_url": "https://api.github.com/users/PrismarineJS/following{/other_user}",
                "gists_url": "https://api.github.com/users/PrismarineJS/gists{/gist_id}",
                "gravatar_id": "",
                "html_url": "https://github.com/PrismarineJS",
                "id": 11053411,
                "login": "PrismarineJS",
                "node_id": "MDEyOk9yZ2FuaXphdGlvbjExMDUzNDEx",
                "organizations_url": "https://api.github.com/users/PrismarineJS/orgs",
                "received_events_url": "https://api.github.com/users/PrismarineJS/received_events",
                "repos_url": "https://api.github.com/users/PrismarineJS/repos",
                "site_admin": false,
                "starred_url": "https://api.github.com/users/PrismarineJS/starred{/owner}{/repo}",
                "subscriptions_url": "https://api.github.com/users/PrismarineJS/subscriptions",
                "type": "Organization",
                "url": "https://api.github.com/users/PrismarineJS"
            },
            "private": false,
            "pulls_url": "https://api.github.com/repos/PrismarineJS/minecraft-jar-extractor/pulls{/number}",
            "pushed_at": "2023-04-10T14:58:32Z",
            "releases_url": "https://api.github.com/repos/PrismarineJS/minecraft-jar-extractor/releases{/id}",
            "size": 64,
            "ssh_url": "git@github.com:PrismarineJS/minecraft-jar-extractor.git",
            "stargazers_count": 8,
            "stargazers_url": "https://api.github.com/repos/PrismarineJS/minecraft-jar-extractor/stargazers",
            "statuses_url": "https://api.github.com/repos/PrismarineJS/minecraft-jar-extractor/statuses/{sha}",
            "subscribers_url": "https://api.github.com/repos/PrismarineJS/minecraft-jar-extractor/subscribers",
            "subscription_url": "https://api.github.com/repos/PrismarineJS/minecraft-jar-extractor/subscription",
            "svn_url": "https://github.com/PrismarineJS/minecraft-jar-extractor",
            "tags_url": "https://api.github.com/repos/PrismarineJS/minecraft-jar-extractor/tags",
            "teams_url": "https://api.github.com/repos/PrismarineJS/minecraft-jar-extractor/teams",
            "topics": [],
            "trees_url": "https://api.github.com/repos/PrismarineJS/minecraft-jar-extractor/git/trees{/sha}",
            "updated_at": "2022-06-15T00:56:15Z",
            "url": "https://api.github.com/repos/PrismarineJS/minecraft-jar-extractor",
            "visibility": "public",
            "watchers": 8,
            "watchers_count": 8,
            "web_commit_signoff_required": false
        },
        "sha": "d4c893fcbb6d3d32b9a2dd203300a304aaf44f3a",
        "user": {
            "avatar_url": "https://avatars.githubusercontent.com/u/11053411?v=4",
            "events_url": "https://api.github.com/users/PrismarineJS/events{/privacy}",
            "followers_url": "https://api.github.com/users/PrismarineJS/followers",
            "following_url": "https://api.github.com/users/PrismarineJS/following{/other_user}",
            "gists_url": "https://api.github.com/users/PrismarineJS/gists{/gist_id}",
            "gravatar_id": "",
            "html_url": "https://github.com/PrismarineJS",
            "id": 11053411,
            "login": "PrismarineJS",
            "node_id": "MDEyOk9yZ2FuaXphdGlvbjExMDUzNDEx",
            "organizations_url": "https://api.github.com/users/PrismarineJS/orgs",
            "received_events_url": "https://api.github.com/users/PrismarineJS/received_events",
            "repos_url": "https://api.github.com/users/PrismarineJS/repos",
            "site_admin": false,
            "starred_url": "https://api.github.com/users/PrismarineJS/starred{/owner}{/repo}",
            "subscriptions_url": "https://api.github.com/users/PrismarineJS/subscriptions",
            "type": "Organization",
            "url": "https://api.github.com/users/PrismarineJS"
        }
    },
    "html_url": "https://github.com/PrismarineJS/minecraft-jar-extractor/pull/39",
    "id": 626568181,
    "issue_url": "https://api.github.com/repos/PrismarineJS/minecraft-jar-extractor/issues/39",
    "labels": [
        {
            "color": "0366d6",
            "default": false,
            "description": "Pull requests that update a dependency file",
            "id": 2067070497,
            "name": "dependencies",
            "node_id": "MDU6TGFiZWwyMDY3MDcwNDk3",
            "url": "https://api.github.com/repos/PrismarineJS/minecraft-jar-extractor/labels/dependencies"
        }
    ],
    "locked": false,
    "maintainer_can_modify": false,
    "merge_commit_sha": "5e0503469b1bf1f012029eac7de9d9456e6e5f20",
    "mergeable": null,
    "mergeable_state": "unknown",
    "merged": true,
    "merged_at": "2021-05-01T23:03:17Z",
    "merged_by": {
        "avatar_url": "https://avatars.githubusercontent.com/u/2346494?v=4",
        "events_url": "https://api.github.com/users/rom1504/events{/privacy}",
        "followers_url": "https://api.github.com/users/rom1504/followers",
        "following_url": "https://api.github.com/users/rom1504/following{/other_user}",
        "gists_url": "https://api.github.com/users/rom1504/gists{/gist_id}",
        "gravatar_id": "",
        "html_url": "https://github.com/rom1504",
        "id": 2346494,
        "login": "rom1504",
        "node_id": "MDQ6VXNlcjIzNDY0OTQ=",
        "organizations_url": "https://api.github.com/users/rom1504/orgs",
        "received_events_url": "https://api.github.com/users/rom1504/received_events",
        "repos_url": "https://api.github.com/users/rom1504/repos",
        "site_admin": false,
        "starred_url": "https://api.github.com/users/rom1504/starred{/owner}{/repo}",
        "subscriptions_url": "https://api.github.com/users/rom1504/subscriptions",
        "type": "User",
        "url": "https://api.github.com/users/rom1504"
    },
    "milestone": null,
    "node_id": "MDExOlB1bGxSZXF1ZXN0NjI2NTY4MTgx",
    "number": 39,
    "patch_url": "https://github.com/PrismarineJS/minecraft-jar-extractor/pull/39.patch",
    "rebaseable": null,
    "requested_reviewers": [],
    "requested_teams": [],
    "review_comment_url": "https://api.github.com/repos/PrismarineJS/minecraft-jar-extractor/pulls/comments{/number}",
    "review_comments": 0,
    "review_comments_url": "https://api.github.com/repos/PrismarineJS/minecraft-jar-extractor/pulls/39/comments",
    "state": "closed",
    "statuses_url": "https://api.github.com/repos/PrismarineJS/minecraft-jar-extractor/statuses/d4c893fcbb6d3d32b9a2dd203300a304aaf44f3a",
    "title": "Upgrade to GitHub-native Dependabot",
    "updated_at": "2021-05-01T23:03:17Z",
    "url": "https://api.github.com/repos/PrismarineJS/minecraft-jar-extractor/pulls/39",
    "user": {
        "avatar_url": "https://avatars.githubusercontent.com/in/2141?v=4",
        "events_url": "https://api.github.com/users/dependabot-preview%5Bbot%5D/events{/privacy}",
        "followers_url": "https://api.github.com/users/dependabot-preview%5Bbot%5D/followers",
        "following_url": "https://api.github.com/users/dependabot-preview%5Bbot%5D/following{/other_user}",
        "gists_url": "https://api.github.com/users/dependabot-preview%5Bbot%5D/gists{/gist_id}",
        "gravatar_id": "",
        "html_url": "https://github.com/apps/dependabot-preview",
        "id": 27856297,
        "login": "dependabot-preview[bot]",
        "node_id": "MDM6Qm90Mjc4NTYyOTc=",
        "organizations_url": "https://api.github.com/users/dependabot-preview%5Bbot%5D/orgs",
        "received_events_url": "https://api.github.com/users/dependabot-preview%5Bbot%5D/received_events",
        "repos_url": "https://api.github.com/users/dependabot-preview%5Bbot%5D/repos",
        "site_admin": false,
        "starred_url": "https://api.github.com/users/dependabot-preview%5Bbot%5D/starred{/owner}{/repo}",
        "subscriptions_url": "https://api.github.com/users/dependabot-preview%5Bbot%5D/subscriptions",
        "type": "Bot",
        "url": "https://api.github.com/users/dependabot-preview%5Bbot%5D"
    }
}