{
    "_links": {
        "comments": {
            "href": "https://api.github.com/repos/PrismarineJS/minecraft-jar-extractor/issues/53/comments"
        },
        "commits": {
            "href": "https://api.github.com/repos/PrismarineJS/minecraft-jar-extractor/pulls/53/commits"
        },
        "html": {
            "href": "https://github.com/PrismarineJS/minecraft-jar-extractor/pull/53"
        },
        "issue": {
            "href": "https://api.github.com/repos/PrismarineJS/minecraft-jar-extractor/issues/53"
        },
        "review_comment": {
            "href": "https://api.github.com/repos/PrismarineJS/minecraft-jar-extractor/pulls/comments{/number}"
        },
        "review_comments": {
            "href": "https://api.github.com/repos/PrismarineJS/minecraft-jar-extractor/pulls/53/comments"
        },
        "self": {
            "href": "https://api.github.com/repos/PrismarineJS/minecraft-jar-extractor/pulls/53"
        },
        "statuses": {
            "href": "https://api.github.com/repos/PrismarineJS/minecraft-jar-extractor/statuses/1aa14919c3660f07b9429eb82c43c761317266cd"
        }
    },
    "active_lock_reason": null,
    "additions": 1,
    "assignee": null,
    "assignees": [],
    "author_association": "CONTRIBUTOR",
    "auto_merge": null,
    "base": {
        "label": "PrismarineJS:master",
        "ref": "master",
        "repo": {
            "allow_forking": true,
            "archive_url": "https://api.github.com/repos/PrismarineJS/minecraft-jar-extractor/{archive_format}{/ref}",
            "archived": false,
            "assignees_url": "https://api.github.com/repos/PrismarineJS/minecraft-jar-extractor/assignees{/user}",
            "blobs_url": "https://api.github.com/repos/PrismarineJS/minecraft-jar-extractor/git/blobs{/sha}",
            "branches_url": "https://api.github.com/repos/PrismarineJS/minecraft-jar-extractor/branches{/branch}",
            "clone_url": "https://github.com/PrismarineJS/minecraft-jar-extractor.git",
            "collaborators_url": "https://api.github.com/repos/PrismarineJS/minecraft-jar-extractor/collaborators{/collaborator}",
            "comments_url": "https://api.github.com/repos/PrismarineJS/minecraft-jar-extractor/comments{/number}",
            "commits_url": "https://api.github.com/repos/PrismarineJS/minecraft-jar-extractor/commits{/sha}",
            "compare_url": "https://api.github.com/repos/PrismarineJS/minecraft-jar-extractor/compare/{base}...{head}",
            "contents_url": "https://api.github.com/repos/PrismarineJS/minecraft-jar-extractor/contents/{+path}",
            "contributors_url": "https://api.github.com/repos/PrismarineJS/minecraft-jar-extractor/contributors",
            "created_at": "2015-10-14T18:40:48Z",
            "default_branch": "master",
            "deployments_url": "https://api.github.com/repos/PrismarineJS/minecraft-jar-extractor/deployments",
            "description": "Extract structured data from the minecraft jar",
            "disabled": false,
            "downloads_url": "https://api.github.com/repos/PrismarineJS/minecraft-jar-extractor/downloads",
            "events_url": "https://api.github.com/repos/PrismarineJS/minecraft-jar-extractor/events",
            "fork": false,
            "forks": 8,
            "forks_count": 8,
            "forks_url": "https://api.github.com/repos/PrismarineJS/minecraft-jar-extractor/forks",
            "full_name": "PrismarineJS/minecraft-jar-extractor",
            "git_commits_url": "https://api.github.com/repos/PrismarineJS/minecraft-jar-extractor/git/commits{/sha}",
            "git_refs_url": "https://api.github.com/repos/PrismarineJS/minecraft-jar-extractor/git/refs{/sha}",
            "git_tags_url": "https://api.github.com/repos/PrismarineJS/minecraft-jar-extractor/git/tags{/sha}",
            "git_url": "git://github.com/PrismarineJS/minecraft-jar-extractor.git",
            "has_discussions": false,
            "has_downloads": true,
            "has_issues": true,
            "has_pages": false,
            "has_projects": true,
            "has_wiki": true,
            "homepage": null,
            "hooks_url": "https://api.github.com/repos/PrismarineJS/minecraft-jar-extractor/hooks",
            "html_url": "https://github.com/PrismarineJS/minecraft-jar-extractor",
            "id": 44268611,
            "is_template": false,
            "issue_comment_url": "https://api.github.com/repos/PrismarineJS/minecraft-jar-extractor/issues/comments{/number}",
            "issue_events_url": "https://api.github.com/repos/PrismarineJS/minecraft-jar-extractor/issues/events{/number}",
            "issues_url": "https://api.github.com/repos/PrismarineJS/minecraft-jar-extractor/issues{/number}",
            "keys_url": "https://api.github.com/repos/PrismarineJS/minecraft-jar-extractor/keys{/key_id}",
            "labels_url": "https://api.github.com/repos/PrismarineJS/minecraft-jar-extractor/labels{/name}",
            "language": "JavaScript",
            "languages_url": "https://api.github.com/repos/PrismarineJS/minecraft-jar-extractor/languages",
            "license": null,
            "merges_url": "https://api.github.com/repos/PrismarineJS/minecraft-jar-extractor/merges",
            "milestones_url": "https://api.github.com/repos/PrismarineJS/minecraft-jar-extractor/milestones{/number}",
            "mirror_url": null,
            "name": "minecraft-jar-extractor",
            "node_id": "MDEwOlJlcG9zaXRvcnk0NDI2ODYxMQ==",
            "notifications_url": "https://api.github.com/repos/PrismarineJS/minecraft-jar-extractor/notifications{?since,all,participating}",
            "open_issues": 6,
            "open_issues_count": 6,
            "owner": {
                "avatar_url": "https://avatars.githubusercontent.com/u/11053411?v=4",
                "events_url": "https://api.github.com/users/PrismarineJS/events{/privacy}",
                "followers_url": "https://api.github.com/users/PrismarineJS/followers",
                "following_url": "https://api.github.com/users/PrismarineJS/following{/other_user}",
                "gists_url": "https://api.github.com/users/PrismarineJS/gists{/gist_id}",
                "gravatar_id": "",
                "html_url": "https://github.com/PrismarineJS",
                "id": 11053411,
                "login": "PrismarineJS",
                "node_id": "MDEyOk9yZ2FuaXphdGlvbjExMDUzNDEx",
                "organizations_url": "https://api.github.com/users/PrismarineJS/orgs",
                "received_events_url": "https://api.github.com/users/PrismarineJS/received_events",
                "repos_url": "https://api.github.com/users/PrismarineJS/repos",
                "site_admin": false,
                "starred_url": "https://api.github.com/users/PrismarineJS/starred{/owner}{/repo}",
                "subscriptions_url": "https://api.github.com/users/PrismarineJS/subscriptions",
                "type": "Organization",
                "url": "https://api.github.com/users/PrismarineJS"
            },
            "private": false,
            "pulls_url": "https://api.github.com/repos/PrismarineJS/minecraft-jar-extractor/pulls{/number}",
            "pushed_at": "2023-04-10T14:58:32Z",
            "releases_url": "https://api.github.com/repos/PrismarineJS/minecraft-jar-extractor/releases{/id}",
            "size": 64,
            "ssh_url": "git@github.com:PrismarineJS/minecraft-jar-extractor.git",
            "stargazers_count": 8,
            "stargazers_url": "https://api.github.com/repos/PrismarineJS/minecraft-jar-extractor/stargazers",
            "statuses_url": "https://api.github.com/repos/PrismarineJS/minecraft-jar-extractor/statuses/{sha}",
            "subscribers_url": "https://api.github.com/repos/PrismarineJS/minecraft-jar-extractor/subscribers",
            "subscription_url": "https://api.github.com/repos/PrismarineJS/minecraft-jar-extractor/subscription",
            "svn_url": "https://github.com/PrismarineJS/minecraft-jar-extractor",
            "tags_url": "https://api.github.com/repos/PrismarineJS/minecraft-jar-extractor/tags",
            "teams_url": "https://api.github.com/repos/PrismarineJS/minecraft-jar-extractor/teams",
            "topics": [],
            "trees_url": "https://api.github.com/repos/PrismarineJS/minecraft-jar-extractor/git/trees{/sha}",
            "updated_at": "2022-06-15T00:56:15Z",
            "url": "https://api.github.com/repos/PrismarineJS/minecraft-jar-extractor",
            "visibility": "public",
            "watchers": 8,
            "watchers_count": 8,
            "web_commit_signoff_required": false
        },
        "sha": "97eafe70f2d3d5abc6e0472dcf2932eb36e10be7",
        "user": {
            "avatar_url": "https://avatars.githubusercontent.com/u/11053411?v=4",
            "events_url": "https://api.github.com/users/PrismarineJS/events{/privacy}",
            "followers_url": "https://api.github.com/users/PrismarineJS/followers",
            "following_url": "https://api.github.com/users/PrismarineJS/following{/other_user}",
            "gists_url": "https://api.github.com/users/PrismarineJS/gists{/gist_id}",
            "gravatar_id": "",
            "html_url": "https://github.com/PrismarineJS",
            "id": 11053411,
            "login": "PrismarineJS",
            "node_id": "MDEyOk9yZ2FuaXphdGlvbjExMDUzNDEx",
            "organizations_url": "https://api.github.com/users/PrismarineJS/orgs",
            "received_events_url": "https://api.github.com/users/PrismarineJS/received_events",
            "repos_url": "https://api.github.com/users/PrismarineJS/repos",
            "site_admin": false,
            "starred_url": "https://api.github.com/users/PrismarineJS/starred{/owner}{/repo}",
            "subscriptions_url": "https://api.github.com/users/PrismarineJS/subscriptions",
            "type": "Organization",
            "url": "https://api.github.com/users/PrismarineJS"
        }
    },
    "body": "Bumps [mkdirp](https://github.com/isaacs/node-mkdirp) from 0.5.6 to 2.0.0.\n<details>\n<summary>Changelog</summary>\n<p><em>Sourced from <a href=\"https://github.com/isaacs/node-mkdirp/blob/main/CHANGELOG.md\">mkdirp's changelog</a>.</em></p>\n<blockquote>\n<h1>Changers Lorgs!</h1>\n<h2>2.0</h2>\n<p>Export hybrid module with TypeScript types.</p>\n<h2>1.0</h2>\n<p>Full rewrite.  Essentially a brand new module.</p>\n<ul>\n<li>Return a promise instead of taking a callback.</li>\n<li>Use native <code>fs.mkdir(path, { recursive: true })</code> when available.</li>\n<li>Drop support for outdated Node.js versions.  (Technically still works on\nNode.js v8, but only 10 and above are officially supported.)</li>\n</ul>\n<h2>0.x</h2>\n<p>Original and most widely used recursive directory creation implementation\nin JavaScript, dating back to 2010.</p>\n</blockquote>\n</details>\n<details>\n<summary>Commits</summary>\n<ul>\n<li><a href=\"https://github.com/isaacs/node-mkdirp/commit/6e4e301b93a761bafe3bc1e2b231f84730f41082\"><code>6e4e301</code></a> 2.0.0</li>\n<li><a href=\"https://github.com/isaacs/node-mkdirp/commit/ac939f5336bff2d6abced31011a5e3b59c6074bb\"><code>ac939f5</code></a> Port to hybrid module with types</li>\n<li><a href=\"https://github.com/isaacs/node-mkdirp/commit/ede1515df03b950c31503f8728bad6a2016875ac\"><code>ede1515</code></a> chore: add copyright year to license</li>\n<li><a href=\"https://github.com/isaacs/node-mkdirp/commit/0945f03f067b1f86c545f6277ff8ef54c0b3ddc7\"><code>0945f03</code></a> ci: makework</li>\n<li><a href=\"https://github.com/isaacs/node-mkdirp/commit/27da11343cba2e4d1d0834d9bf3400b05cb035f8\"><code>27da113</code></a> remove travis</li>\n<li><a href=\"https://github.com/isaacs/node-mkdirp/commit/5574282ff79bf9ac60eca88952018dff37040f0c\"><code>5574282</code></a> add GitHub Actions CI and CODEOWNERS file</li>\n<li><a href=\"https://github.com/isaacs/node-mkdirp/commit/5d56e26ea58bef760aeefaa84652adab42df6f29\"><code>5d56e26</code></a> tests should pass in node v8</li>\n<li><a href=\"https://github.com/isaacs/node-mkdirp/commit/d2e853301fe37b94244fe55b1b68bd96d17a1261\"><code>d2e8533</code></a> remove umask from readme</li>\n<li><a href=\"https://github.com/isaacs/node-mkdirp/commit/b694079b54a0a59ef150c54b29c7c24e90d642f5\"><code>b694079</code></a> 1.0.4</li>\n<li><a href=\"https://github.com/isaacs/node-mkdirp/commit/2d42170b9ff33d24c4381a30635705bca1a7f503\"><code>2d42170</code></a> Remove unnecessary process.umask()</li>\n<li>Additional commits viewable in <a href=\"https://github.com/isaacs/node-mkdirp/compare/v0.5.6...v2.0.0\">compare view</a></li>\n</ul>\n</details>\n<br />\n\n\n[![Dependabot compatibility score](https://dependabot-badges.githubapp.com/badges/compatibility_score?dependency-name=mkdirp&package-manager=npm_and_yarn&previous-version=0.5.6&new-version=2.0.0)](https://docs.github.com/en/github/managing-security-vulnerabilities/about-dependabot-security-updates#about-compatibility-scores)\n\nDependabot will resolve any conflicts with this PR as long as you don't alter it yourself. You can also trigger a rebase manually by commenting `@dependabot rebase`.\n\n[//]: # (dependabot-automerge-start)\n[//]: # (dependabot-automerge-end)\n\n---\n\n<details>\n<summary>Dependabot commands and options</summary>\n<br />\n\nYou can trigger Dependabot actions by commenting on this PR:\n- `@dependabot rebase` will rebase this PR\n- `@dependabot recreate` will recreate this PR, overwriting any edits that have been made to it\n- `@dependabot merge` will merge this PR after your CI passes on it\n- `@dependabot squash and merge` will squash and merge this PR after your CI passes on it\n- `@dependabot cancel merge` will cancel a previously requested merge and block automerging\n- `@dependabot reopen` will reopen this PR if it is closed\n- `@dependabot close` will close this PR and stop Dependabot recreating it. You can achieve the same result by closing it manually\n- `@dependabot ignore this major version` will close this PR and stop Dependabot creating any more for this major version (unless you reopen the PR or upgrade to it yourself)\n- `@dependabot ignore this minor version` will close this PR and stop Dependabot creating any more for this minor version (unless you reopen the PR or upgrade to it yourself)\n- `@dependabot ignore this dependency` will close this PR and stop Dependabot creating any more for this dependency (unless you reopen the PR or upgrade to it yourself)\n\n\n</details>",
    "changed_files": 1,
    "closed_at": "2023-01-17T14:02:23Z",
    "comment_data": [],
    "comment_regular_data": [
        {
            "author_association": "CONTRIBUTOR",
            "body": "Superseded by #54.",
            "created_at": "2023-01-17T14:02:23Z",
            "html_url": "https://github.com/PrismarineJS/minecraft-jar-extractor/pull/53#issuecomment-1385472161",
            "id": 1385472161,
            "issue_url": "https://api.github.com/repos/PrismarineJS/minecraft-jar-extractor/issues/53",
            "node_id": "IC_kwDOAqN8Q85SlKCh",
            "performed_via_github_app": null,
            "reactions": {
                "+1": 0,
                "-1": 0,
                "confused": 0,
                "eyes": 0,
                "heart": 0,
                "hooray": 0,
                "laugh": 0,
                "rocket": 0,
                "total_count": 0,
                "url": "https://api.github.com/repos/PrismarineJS/minecraft-jar-extractor/issues/comments/1385472161/reactions"
            },
            "updated_at": "2023-01-17T14:02:23Z",
            "url": "https://api.github.com/repos/PrismarineJS/minecraft-jar-extractor/issues/comments/1385472161",
            "user": {
                "avatar_url": "https://avatars.githubusercontent.com/in/29110?v=4",
                "events_url": "https://api.github.com/users/dependabot%5Bbot%5D/events{/privacy}",
                "followers_url": "https://api.github.com/users/dependabot%5Bbot%5D/followers",
                "following_url": "https://api.github.com/users/dependabot%5Bbot%5D/following{/other_user}",
                "gists_url": "https://api.github.com/users/dependabot%5Bbot%5D/gists{/gist_id}",
                "gravatar_id": "",
                "html_url": "https://github.com/apps/dependabot",
                "id": 49699333,
                "login": "dependabot[bot]",
                "node_id": "MDM6Qm90NDk2OTkzMzM=",
                "organizations_url": "https://api.github.com/users/dependabot%5Bbot%5D/orgs",
                "received_events_url": "https://api.github.com/users/dependabot%5Bbot%5D/received_events",
                "repos_url": "https://api.github.com/users/dependabot%5Bbot%5D/repos",
                "site_admin": false,
                "starred_url": "https://api.github.com/users/dependabot%5Bbot%5D/starred{/owner}{/repo}",
                "subscriptions_url": "https://api.github.com/users/dependabot%5Bbot%5D/subscriptions",
                "type": "Bot",
                "url": "https://api.github.com/users/dependabot%5Bbot%5D"
            }
        }
    ],
    "comments": 1,
    "comments_url": "https://api.github.com/repos/PrismarineJS/minecraft-jar-extractor/issues/53/comments",
    "commit_data": [
        {
            "author": {
                "avatar_url": "https://avatars.githubusercontent.com/in/29110?v=4",
                "events_url": "https://api.github.com/users/dependabot%5Bbot%5D/events{/privacy}",
                "followers_url": "https://api.github.com/users/dependabot%5Bbot%5D/followers",
                "following_url": "https://api.github.com/users/dependabot%5Bbot%5D/following{/other_user}",
                "gists_url": "https://api.github.com/users/dependabot%5Bbot%5D/gists{/gist_id}",
                "gravatar_id": "",
                "html_url": "https://github.com/apps/dependabot",
                "id": 49699333,
                "login": "dependabot[bot]",
                "node_id": "MDM6Qm90NDk2OTkzMzM=",
                "organizations_url": "https://api.github.com/users/dependabot%5Bbot%5D/orgs",
                "received_events_url": "https://api.github.com/users/dependabot%5Bbot%5D/received_events",
                "repos_url": "https://api.github.com/users/dependabot%5Bbot%5D/repos",
                "site_admin": false,
                "starred_url": "https://api.github.com/users/dependabot%5Bbot%5D/starred{/owner}{/repo}",
                "subscriptions_url": "https://api.github.com/users/dependabot%5Bbot%5D/subscriptions",
                "type": "Bot",
                "url": "https://api.github.com/users/dependabot%5Bbot%5D"
            },
            "comments_url": "https://api.github.com/repos/PrismarineJS/minecraft-jar-extractor/commits/1aa14919c3660f07b9429eb82c43c761317266cd/comments",
            "commit": {
                "author": {
                    "date": "2023-01-16T14:03:59Z",
                    "email": "49699333+dependabot[bot]@users.noreply.github.com",
                    "name": "dependabot[bot]"
                },
                "comment_count": 0,
                "committer": {
                    "date": "2023-01-16T14:03:59Z",
                    "email": "noreply@github.com",
                    "name": "GitHub"
                },
                "message": "Bump mkdirp from 0.5.6 to 2.0.0\n\nBumps [mkdirp](https://github.com/isaacs/node-mkdirp) from 0.5.6 to 2.0.0.\n- [Release notes](https://github.com/isaacs/node-mkdirp/releases)\n- [Changelog](https://github.com/isaacs/node-mkdirp/blob/main/CHANGELOG.md)\n- [Commits](https://github.com/isaacs/node-mkdirp/compare/v0.5.6...v2.0.0)\n\n---\nupdated-dependencies:\n- dependency-name: mkdirp\n  dependency-type: direct:production\n  update-type: version-update:semver-major\n...\n\nSigned-off-by: dependabot[bot] <support@github.com>",
                "tree": {
                    "sha": "0302b7cf268c6ffa8b1a744cb14572599b6e3fcc",
                    "url": "https://api.github.com/repos/PrismarineJS/minecraft-jar-extractor/git/trees/0302b7cf268c6ffa8b1a744cb14572599b6e3fcc"
                },
                "url": "https://api.github.com/repos/PrismarineJS/minecraft-jar-extractor/git/commits/1aa14919c3660f07b9429eb82c43c761317266cd",
                "verification": {
                    "payload": "tree 0302b7cf268c6ffa8b1a744cb14572599b6e3fcc\nparent 97eafe70f2d3d5abc6e0472dcf2932eb36e10be7\nauthor dependabot[bot] <49699333+dependabot[bot]@users.noreply.github.com> 1673877839 +0000\ncommitter GitHub <noreply@github.com> 1673877839 +0000\n\nBump mkdirp from 0.5.6 to 2.0.0\n\nBumps [mkdirp](https://github.com/isaacs/node-mkdirp) from 0.5.6 to 2.0.0.\n- [Release notes](https://github.com/isaacs/node-mkdirp/releases)\n- [Changelog](https://github.com/isaacs/node-mkdirp/blob/main/CHANGELOG.md)\n- [Commits](https://github.com/isaacs/node-mkdirp/compare/v0.5.6...v2.0.0)\n\n---\nupdated-dependencies:\n- dependency-name: mkdirp\n  dependency-type: direct:production\n  update-type: version-update:semver-major\n...\n\nSigned-off-by: dependabot[bot] <support@github.com>",
                    "reason": "valid",
                    "signature": "-----BEGIN PGP SIGNATURE-----\n\nwsBcBAABCAAQBQJjxVlPCRBK7hj4Ov3rIwAAn3cIAIuZVgbJNcu0vK0N8TE0IvxE\nVszaXQLOS/ZsDh0BJ2JrTpLhHHeJsKKcfyOzOpVhfUAQcoVVfngdGAVQUwg5KuPL\nqgVmuhlHrcfnHFOA7OVbZkkoupsE+gZNK2k43o+X1huIx3uNuvp+n+ce+lKeW39H\nBot2dKgxBuLGofBuBw+SVNK1jD8oa8kgYVr4e2rt/2KEsSjNOyL5Cc6JS/7Z9MPs\no2G4jKMdrl5YXjbked7WX2HOlvRNIAeRO2tiBIW/9MYj097E/JLYKUSbmgeO/sou\npr3nMMDgGVu2+av+hfnc95oy8eAQzhLjAZA7y/ajA8it1MzwgGzz1rXGTCuEJq8=\n=3nIS\n-----END PGP SIGNATURE-----\n",
                    "verified": true
                }
            },
            "committer": {
                "avatar_url": "https://avatars.githubusercontent.com/u/19864447?v=4",
                "events_url": "https://api.github.com/users/web-flow/events{/privacy}",
                "followers_url": "https://api.github.com/users/web-flow/followers",
                "following_url": "https://api.github.com/users/web-flow/following{/other_user}",
                "gists_url": "https://api.github.com/users/web-flow/gists{/gist_id}",
                "gravatar_id": "",
                "html_url": "https://github.com/web-flow",
                "id": 19864447,
                "login": "web-flow",
                "node_id": "MDQ6VXNlcjE5ODY0NDQ3",
                "organizations_url": "https://api.github.com/users/web-flow/orgs",
                "received_events_url": "https://api.github.com/users/web-flow/received_events",
                "repos_url": "https://api.github.com/users/web-flow/repos",
                "site_admin": false,
                "starred_url": "https://api.github.com/users/web-flow/starred{/owner}{/repo}",
                "subscriptions_url": "https://api.github.com/users/web-flow/subscriptions",
                "type": "User",
                "url": "https://api.github.com/users/web-flow"
            },
            "html_url": "https://github.com/PrismarineJS/minecraft-jar-extractor/commit/1aa14919c3660f07b9429eb82c43c761317266cd",
            "node_id": "C_kwDOAqN8Q9oAKDFhYTE0OTE5YzM2NjBmMDdiOTQyOWViODJjNDNjNzYxMzE3MjY2Y2Q",
            "parents": [
                {
                    "html_url": "https://github.com/PrismarineJS/minecraft-jar-extractor/commit/97eafe70f2d3d5abc6e0472dcf2932eb36e10be7",
                    "sha": "97eafe70f2d3d5abc6e0472dcf2932eb36e10be7",
                    "url": "https://api.github.com/repos/PrismarineJS/minecraft-jar-extractor/commits/97eafe70f2d3d5abc6e0472dcf2932eb36e10be7"
                }
            ],
            "sha": "1aa14919c3660f07b9429eb82c43c761317266cd",
            "url": "https://api.github.com/repos/PrismarineJS/minecraft-jar-extractor/commits/1aa14919c3660f07b9429eb82c43c761317266cd"
        }
    ],
    "commits": 1,
    "commits_url": "https://api.github.com/repos/PrismarineJS/minecraft-jar-extractor/pulls/53/commits",
    "created_at": "2023-01-16T14:04:00Z",
    "deletions": 1,
    "diff_url": "https://github.com/PrismarineJS/minecraft-jar-extractor/pull/53.diff",
    "draft": false,
    "head": {
        "label": "PrismarineJS:dependabot/npm_and_yarn/mkdirp-2.0.0",
        "ref": "dependabot/npm_and_yarn/mkdirp-2.0.0",
        "repo": {
            "allow_forking": true,
            "archive_url": "https://api.github.com/repos/PrismarineJS/minecraft-jar-extractor/{archive_format}{/ref}",
            "archived": false,
            "assignees_url": "https://api.github.com/repos/PrismarineJS/minecraft-jar-extractor/assignees{/user}",
            "blobs_url": "https://api.github.com/repos/PrismarineJS/minecraft-jar-extractor/git/blobs{/sha}",
            "branches_url": "https://api.github.com/repos/PrismarineJS/minecraft-jar-extractor/branches{/branch}",
            "clone_url": "https://github.com/PrismarineJS/minecraft-jar-extractor.git",
            "collaborators_url": "https://api.github.com/repos/PrismarineJS/minecraft-jar-extractor/collaborators{/collaborator}",
            "comments_url": "https://api.github.com/repos/PrismarineJS/minecraft-jar-extractor/comments{/number}",
            "commits_url": "https://api.github.com/repos/PrismarineJS/minecraft-jar-extractor/commits{/sha}",
            "compare_url": "https://api.github.com/repos/PrismarineJS/minecraft-jar-extractor/compare/{base}...{head}",
            "contents_url": "https://api.github.com/repos/PrismarineJS/minecraft-jar-extractor/contents/{+path}",
            "contributors_url": "https://api.github.com/repos/PrismarineJS/minecraft-jar-extractor/contributors",
            "created_at": "2015-10-14T18:40:48Z",
            "default_branch": "master",
            "deployments_url": "https://api.github.com/repos/PrismarineJS/minecraft-jar-extractor/deployments",
            "description": "Extract structured data from the minecraft jar",
            "disabled": false,
            "downloads_url": "https://api.github.com/repos/PrismarineJS/minecraft-jar-extractor/downloads",
            "events_url": "https://api.github.com/repos/PrismarineJS/minecraft-jar-extractor/events",
            "fork": false,
            "forks": 8,
            "forks_count": 8,
            "forks_url": "https://api.github.com/repos/PrismarineJS/minecraft-jar-extractor/forks",
            "full_name": "PrismarineJS/minecraft-jar-extractor",
            "git_commits_url": "https://api.github.com/repos/PrismarineJS/minecraft-jar-extractor/git/commits{/sha}",
            "git_refs_url": "https://api.github.com/repos/PrismarineJS/minecraft-jar-extractor/git/refs{/sha}",
            "git_tags_url": "https://api.github.com/repos/PrismarineJS/minecraft-jar-extractor/git/tags{/sha}",
            "git_url": "git://github.com/PrismarineJS/minecraft-jar-extractor.git",
            "has_discussions": false,
            "has_downloads": true,
            "has_issues": true,
            "has_pages": false,
            "has_projects": true,
            "has_wiki": true,
            "homepage": null,
            "hooks_url": "https://api.github.com/repos/PrismarineJS/minecraft-jar-extractor/hooks",
            "html_url": "https://github.com/PrismarineJS/minecraft-jar-extractor",
            "id": 44268611,
            "is_template": false,
            "issue_comment_url": "https://api.github.com/repos/PrismarineJS/minecraft-jar-extractor/issues/comments{/number}",
            "issue_events_url": "https://api.github.com/repos/PrismarineJS/minecraft-jar-extractor/issues/events{/number}",
            "issues_url": "https://api.github.com/repos/PrismarineJS/minecraft-jar-extractor/issues{/number}",
            "keys_url": "https://api.github.com/repos/PrismarineJS/minecraft-jar-extractor/keys{/key_id}",
            "labels_url": "https://api.github.com/repos/PrismarineJS/minecraft-jar-extractor/labels{/name}",
            "language": "JavaScript",
            "languages_url": "https://api.github.com/repos/PrismarineJS/minecraft-jar-extractor/languages",
            "license": null,
            "merges_url": "https://api.github.com/repos/PrismarineJS/minecraft-jar-extractor/merges",
            "milestones_url": "https://api.github.com/repos/PrismarineJS/minecraft-jar-extractor/milestones{/number}",
            "mirror_url": null,
            "name": "minecraft-jar-extractor",
            "node_id": "MDEwOlJlcG9zaXRvcnk0NDI2ODYxMQ==",
            "notifications_url": "https://api.github.com/repos/PrismarineJS/minecraft-jar-extractor/notifications{?since,all,participating}",
            "open_issues": 6,
            "open_issues_count": 6,
            "owner": {
                "avatar_url": "https://avatars.githubusercontent.com/u/11053411?v=4",
                "events_url": "https://api.github.com/users/PrismarineJS/events{/privacy}",
                "followers_url": "https://api.github.com/users/PrismarineJS/followers",
                "following_url": "https://api.github.com/users/PrismarineJS/following{/other_user}",
                "gists_url": "https://api.github.com/users/PrismarineJS/gists{/gist_id}",
                "gravatar_id": "",
                "html_url": "https://github.com/PrismarineJS",
                "id": 11053411,
                "login": "PrismarineJS",
                "node_id": "MDEyOk9yZ2FuaXphdGlvbjExMDUzNDEx",
                "organizations_url": "https://api.github.com/users/PrismarineJS/orgs",
                "received_events_url": "https://api.github.com/users/PrismarineJS/received_events",
                "repos_url": "https://api.github.com/users/PrismarineJS/repos",
                "site_admin": false,
                "starred_url": "https://api.github.com/users/PrismarineJS/starred{/owner}{/repo}",
                "subscriptions_url": "https://api.github.com/users/PrismarineJS/subscriptions",
                "type": "Organization",
                "url": "https://api.github.com/users/PrismarineJS"
            },
            "private": false,
            "pulls_url": "https://api.github.com/repos/PrismarineJS/minecraft-jar-extractor/pulls{/number}",
            "pushed_at": "2023-04-10T14:58:32Z",
            "releases_url": "https://api.github.com/repos/PrismarineJS/minecraft-jar-extractor/releases{/id}",
            "size": 64,
            "ssh_url": "git@github.com:PrismarineJS/minecraft-jar-extractor.git",
            "stargazers_count": 8,
            "stargazers_url": "https://api.github.com/repos/PrismarineJS/minecraft-jar-extractor/stargazers",
            "statuses_url": "https://api.github.com/repos/PrismarineJS/minecraft-jar-extractor/statuses/{sha}",
            "subscribers_url": "https://api.github.com/repos/PrismarineJS/minecraft-jar-extractor/subscribers",
            "subscription_url": "https://api.github.com/repos/PrismarineJS/minecraft-jar-extractor/subscription",
            "svn_url": "https://github.com/PrismarineJS/minecraft-jar-extractor",
            "tags_url": "https://api.github.com/repos/PrismarineJS/minecraft-jar-extractor/tags",
            "teams_url": "https://api.github.com/repos/PrismarineJS/minecraft-jar-extractor/teams",
            "topics": [],
            "trees_url": "https://api.github.com/repos/PrismarineJS/minecraft-jar-extractor/git/trees{/sha}",
            "updated_at": "2022-06-15T00:56:15Z",
            "url": "https://api.github.com/repos/PrismarineJS/minecraft-jar-extractor",
            "visibility": "public",
            "watchers": 8,
            "watchers_count": 8,
            "web_commit_signoff_required": false
        },
        "sha": "1aa14919c3660f07b9429eb82c43c761317266cd",
        "user": {
            "avatar_url": "https://avatars.githubusercontent.com/u/11053411?v=4",
            "events_url": "https://api.github.com/users/PrismarineJS/events{/privacy}",
            "followers_url": "https://api.github.com/users/PrismarineJS/followers",
            "following_url": "https://api.github.com/users/PrismarineJS/following{/other_user}",
            "gists_url": "https://api.github.com/users/PrismarineJS/gists{/gist_id}",
            "gravatar_id": "",
            "html_url": "https://github.com/PrismarineJS",
            "id": 11053411,
            "login": "PrismarineJS",
            "node_id": "MDEyOk9yZ2FuaXphdGlvbjExMDUzNDEx",
            "organizations_url": "https://api.github.com/users/PrismarineJS/orgs",
            "received_events_url": "https://api.github.com/users/PrismarineJS/received_events",
            "repos_url": "https://api.github.com/users/PrismarineJS/repos",
            "site_admin": false,
            "starred_url": "https://api.github.com/users/PrismarineJS/starred{/owner}{/repo}",
            "subscriptions_url": "https://api.github.com/users/PrismarineJS/subscriptions",
            "type": "Organization",
            "url": "https://api.github.com/users/PrismarineJS"
        }
    },
    "html_url": "https://github.com/PrismarineJS/minecraft-jar-extractor/pull/53",
    "id": 1199062382,
    "issue_url": "https://api.github.com/repos/PrismarineJS/minecraft-jar-extractor/issues/53",
    "labels": [
        {
            "color": "0366d6",
            "default": false,
            "description": "Pull requests that update a dependency file",
            "id": 2067070497,
            "name": "dependencies",
            "node_id": "MDU6TGFiZWwyMDY3MDcwNDk3",
            "url": "https://api.github.com/repos/PrismarineJS/minecraft-jar-extractor/labels/dependencies"
        }
    ],
    "locked": false,
    "maintainer_can_modify": false,
    "merge_commit_sha": "776220ee19a243d0d8ff3870d201b8e1c97a94b4",
    "mergeable": null,
    "mergeable_state": "unknown",
    "merged": false,
    "merged_at": null,
    "merged_by": null,
    "milestone": null,
    "node_id": "PR_kwDOAqN8Q85HeD1u",
    "number": 53,
    "patch_url": "https://github.com/PrismarineJS/minecraft-jar-extractor/pull/53.patch",
    "rebaseable": null,
    "requested_reviewers": [],
    "requested_teams": [],
    "review_comment_url": "https://api.github.com/repos/PrismarineJS/minecraft-jar-extractor/pulls/comments{/number}",
    "review_comments": 0,
    "review_comments_url": "https://api.github.com/repos/PrismarineJS/minecraft-jar-extractor/pulls/53/comments",
    "state": "closed",
    "statuses_url": "https://api.github.com/repos/PrismarineJS/minecraft-jar-extractor/statuses/1aa14919c3660f07b9429eb82c43c761317266cd",
    "title": "Bump mkdirp from 0.5.6 to 2.0.0",
    "updated_at": "2023-01-17T14:02:26Z",
    "url": "https://api.github.com/repos/PrismarineJS/minecraft-jar-extractor/pulls/53",
    "user": {
        "avatar_url": "https://avatars.githubusercontent.com/in/29110?v=4",
        "events_url": "https://api.github.com/users/dependabot%5Bbot%5D/events{/privacy}",
        "followers_url": "https://api.github.com/users/dependabot%5Bbot%5D/followers",
        "following_url": "https://api.github.com/users/dependabot%5Bbot%5D/following{/other_user}",
        "gists_url": "https://api.github.com/users/dependabot%5Bbot%5D/gists{/gist_id}",
        "gravatar_id": "",
        "html_url": "https://github.com/apps/dependabot",
        "id": 49699333,
        "login": "dependabot[bot]",
        "node_id": "MDM6Qm90NDk2OTkzMzM=",
        "organizations_url": "https://api.github.com/users/dependabot%5Bbot%5D/orgs",
        "received_events_url": "https://api.github.com/users/dependabot%5Bbot%5D/received_events",
        "repos_url": "https://api.github.com/users/dependabot%5Bbot%5D/repos",
        "site_admin": false,
        "starred_url": "https://api.github.com/users/dependabot%5Bbot%5D/starred{/owner}{/repo}",
        "subscriptions_url": "https://api.github.com/users/dependabot%5Bbot%5D/subscriptions",
        "type": "Bot",
        "url": "https://api.github.com/users/dependabot%5Bbot%5D"
    }
}