{
    "active_lock_reason": null,
    "assignee": null,
    "assignees": [],
    "author_association": "NONE",
    "body": "I'm getting the above issue when trying to include prismarine-nbt in a **svelte** / vite frontend web project.\n\n![Image](https://github.com/user-attachments/assets/3f2aee07-402c-49b8-a6d6-d999fdf7d665)\n\nMy relevant code snippet:\n\n```ts\nimport * as nbt from \"prismarine-nbt\";\n\nexport async function readNBTFile(file: File) {\n    const buffer = await file.arrayBuffer();\n    console.log(buffer);\n    const { parsed, type } = await nbt.parse(buffer); // <- error happens here\n    console.log({ parsed, type });\n}\n```\n\nusing the same code (but with callbacks instead of async/await) it works fine with [nbt.js](https://github.com/sjmulder/nbt-js), however it's a no longer maintained project so I'd very much prefer to use this one instead.",
    "closed_at": "2025-02-05T16:46:55Z",
    "closed_by": {
        "avatar_url": "https://avatars.githubusercontent.com/u/7681159?v=4",
        "events_url": "https://api.github.com/users/Plagiatus/events{/privacy}",
        "followers_url": "https://api.github.com/users/Plagiatus/followers",
        "following_url": "https://api.github.com/users/Plagiatus/following{/other_user}",
        "gists_url": "https://api.github.com/users/Plagiatus/gists{/gist_id}",
        "gravatar_id": "",
        "html_url": "https://github.com/Plagiatus",
        "id": 7681159,
        "login": "Plagiatus",
        "node_id": "MDQ6VXNlcjc2ODExNTk=",
        "organizations_url": "https://api.github.com/users/Plagiatus/orgs",
        "received_events_url": "https://api.github.com/users/Plagiatus/received_events",
        "repos_url": "https://api.github.com/users/Plagiatus/repos",
        "site_admin": false,
        "starred_url": "https://api.github.com/users/Plagiatus/starred{/owner}{/repo}",
        "subscriptions_url": "https://api.github.com/users/Plagiatus/subscriptions",
        "type": "User",
        "url": "https://api.github.com/users/Plagiatus",
        "user_view_type": "public"
    },
    "comment_data": [
        {
            "author_association": "MEMBER",
            "body": "You need to pass a Node.js `Buffer`, not an ArrayBuffer",
            "created_at": "2025-02-05T14:58:10Z",
            "html_url": "https://github.com/PrismarineJS/prismarine-nbt/issues/124#issuecomment-2637100628",
            "id": 2637100628,
            "issue_url": "https://api.github.com/repos/PrismarineJS/prismarine-nbt/issues/124",
            "node_id": "IC_kwDOAeT0wM6dLvZU",
            "performed_via_github_app": null,
            "reactions": {
                "+1": 0,
                "-1": 0,
                "confused": 0,
                "eyes": 0,
                "heart": 0,
                "hooray": 0,
                "laugh": 0,
                "rocket": 0,
                "total_count": 0,
                "url": "https://api.github.com/repos/PrismarineJS/prismarine-nbt/issues/comments/2637100628/reactions"
            },
            "updated_at": "2025-02-05T14:58:10Z",
            "url": "https://api.github.com/repos/PrismarineJS/prismarine-nbt/issues/comments/2637100628",
            "user": {
                "avatar_url": "https://avatars.githubusercontent.com/u/13713600?v=4",
                "events_url": "https://api.github.com/users/extremeheat/events{/privacy}",
                "followers_url": "https://api.github.com/users/extremeheat/followers",
                "following_url": "https://api.github.com/users/extremeheat/following{/other_user}",
                "gists_url": "https://api.github.com/users/extremeheat/gists{/gist_id}",
                "gravatar_id": "",
                "html_url": "https://github.com/extremeheat",
                "id": 13713600,
                "login": "extremeheat",
                "node_id": "MDQ6VXNlcjEzNzEzNjAw",
                "organizations_url": "https://api.github.com/users/extremeheat/orgs",
                "received_events_url": "https://api.github.com/users/extremeheat/received_events",
                "repos_url": "https://api.github.com/users/extremeheat/repos",
                "site_admin": false,
                "starred_url": "https://api.github.com/users/extremeheat/starred{/owner}{/repo}",
                "subscriptions_url": "https://api.github.com/users/extremeheat/subscriptions",
                "type": "User",
                "url": "https://api.github.com/users/extremeheat",
                "user_view_type": "public"
            }
        },
        {
            "author_association": "NONE",
            "body": "I was afraid something like that would be the case. This unfortunately makes using it purely on the frontend very inconvenient.\n\nThanks anyways.",
            "created_at": "2025-02-05T16:46:55Z",
            "html_url": "https://github.com/PrismarineJS/prismarine-nbt/issues/124#issuecomment-2637468521",
            "id": 2637468521,
            "issue_url": "https://api.github.com/repos/PrismarineJS/prismarine-nbt/issues/124",
            "node_id": "IC_kwDOAeT0wM6dNJNp",
            "performed_via_github_app": null,
            "reactions": {
                "+1": 0,
                "-1": 0,
                "confused": 0,
                "eyes": 0,
                "heart": 0,
                "hooray": 0,
                "laugh": 0,
                "rocket": 0,
                "total_count": 0,
                "url": "https://api.github.com/repos/PrismarineJS/prismarine-nbt/issues/comments/2637468521/reactions"
            },
            "updated_at": "2025-02-05T16:46:55Z",
            "url": "https://api.github.com/repos/PrismarineJS/prismarine-nbt/issues/comments/2637468521",
            "user": {
                "avatar_url": "https://avatars.githubusercontent.com/u/7681159?v=4",
                "events_url": "https://api.github.com/users/Plagiatus/events{/privacy}",
                "followers_url": "https://api.github.com/users/Plagiatus/followers",
                "following_url": "https://api.github.com/users/Plagiatus/following{/other_user}",
                "gists_url": "https://api.github.com/users/Plagiatus/gists{/gist_id}",
                "gravatar_id": "",
                "html_url": "https://github.com/Plagiatus",
                "id": 7681159,
                "login": "Plagiatus",
                "node_id": "MDQ6VXNlcjc2ODExNTk=",
                "organizations_url": "https://api.github.com/users/Plagiatus/orgs",
                "received_events_url": "https://api.github.com/users/Plagiatus/received_events",
                "repos_url": "https://api.github.com/users/Plagiatus/repos",
                "site_admin": false,
                "starred_url": "https://api.github.com/users/Plagiatus/starred{/owner}{/repo}",
                "subscriptions_url": "https://api.github.com/users/Plagiatus/subscriptions",
                "type": "User",
                "url": "https://api.github.com/users/Plagiatus",
                "user_view_type": "public"
            }
        },
        {
            "author_association": "MEMBER",
            "body": "If you want to use prismarine-nbt (a nodejs library) on the web you will need to transpile to something browser compatible as with any other Node.js library.\n\nTool like browserify or webpack can do this. Those will implement the Node.js Buffer object that you can then instantiate to pass into prismarine-nbt. We also have a section on this in the readme https://github.com/PrismarineJS/prismarine-nbt?tab=readme-ov-file#browser-usage",
            "created_at": "2025-02-06T03:56:41Z",
            "html_url": "https://github.com/PrismarineJS/prismarine-nbt/issues/124#issuecomment-2638767970",
            "id": 2638767970,
            "issue_url": "https://api.github.com/repos/PrismarineJS/prismarine-nbt/issues/124",
            "node_id": "IC_kwDOAeT0wM6dSGdi",
            "performed_via_github_app": null,
            "reactions": {
                "+1": 0,
                "-1": 0,
                "confused": 0,
                "eyes": 0,
                "heart": 0,
                "hooray": 0,
                "laugh": 0,
                "rocket": 0,
                "total_count": 0,
                "url": "https://api.github.com/repos/PrismarineJS/prismarine-nbt/issues/comments/2638767970/reactions"
            },
            "updated_at": "2025-02-06T03:56:41Z",
            "url": "https://api.github.com/repos/PrismarineJS/prismarine-nbt/issues/comments/2638767970",
            "user": {
                "avatar_url": "https://avatars.githubusercontent.com/u/13713600?v=4",
                "events_url": "https://api.github.com/users/extremeheat/events{/privacy}",
                "followers_url": "https://api.github.com/users/extremeheat/followers",
                "following_url": "https://api.github.com/users/extremeheat/following{/other_user}",
                "gists_url": "https://api.github.com/users/extremeheat/gists{/gist_id}",
                "gravatar_id": "",
                "html_url": "https://github.com/extremeheat",
                "id": 13713600,
                "login": "extremeheat",
                "node_id": "MDQ6VXNlcjEzNzEzNjAw",
                "organizations_url": "https://api.github.com/users/extremeheat/orgs",
                "received_events_url": "https://api.github.com/users/extremeheat/received_events",
                "repos_url": "https://api.github.com/users/extremeheat/repos",
                "site_admin": false,
                "starred_url": "https://api.github.com/users/extremeheat/starred{/owner}{/repo}",
                "subscriptions_url": "https://api.github.com/users/extremeheat/subscriptions",
                "type": "User",
                "url": "https://api.github.com/users/extremeheat",
                "user_view_type": "public"
            }
        },
        {
            "author_association": "MEMBER",
            "body": "Since this has been brung up a few times (eg #56), we could do some sanity check before and maybe some conversion inside `parse` (Blob/ArrayBuffer => Node.js Buffer) to handle some of the handleable user mistakes",
            "created_at": "2025-02-06T06:02:07Z",
            "html_url": "https://github.com/PrismarineJS/prismarine-nbt/issues/124#issuecomment-2638915533",
            "id": 2638915533,
            "issue_url": "https://api.github.com/repos/PrismarineJS/prismarine-nbt/issues/124",
            "node_id": "IC_kwDOAeT0wM6dSqfN",
            "performed_via_github_app": null,
            "reactions": {
                "+1": 0,
                "-1": 0,
                "confused": 0,
                "eyes": 0,
                "heart": 0,
                "hooray": 0,
                "laugh": 0,
                "rocket": 0,
                "total_count": 0,
                "url": "https://api.github.com/repos/PrismarineJS/prismarine-nbt/issues/comments/2638915533/reactions"
            },
            "updated_at": "2025-02-06T06:02:07Z",
            "url": "https://api.github.com/repos/PrismarineJS/prismarine-nbt/issues/comments/2638915533",
            "user": {
                "avatar_url": "https://avatars.githubusercontent.com/u/13713600?v=4",
                "events_url": "https://api.github.com/users/extremeheat/events{/privacy}",
                "followers_url": "https://api.github.com/users/extremeheat/followers",
                "following_url": "https://api.github.com/users/extremeheat/following{/other_user}",
                "gists_url": "https://api.github.com/users/extremeheat/gists{/gist_id}",
                "gravatar_id": "",
                "html_url": "https://github.com/extremeheat",
                "id": 13713600,
                "login": "extremeheat",
                "node_id": "MDQ6VXNlcjEzNzEzNjAw",
                "organizations_url": "https://api.github.com/users/extremeheat/orgs",
                "received_events_url": "https://api.github.com/users/extremeheat/received_events",
                "repos_url": "https://api.github.com/users/extremeheat/repos",
                "site_admin": false,
                "starred_url": "https://api.github.com/users/extremeheat/starred{/owner}{/repo}",
                "subscriptions_url": "https://api.github.com/users/extremeheat/subscriptions",
                "type": "User",
                "url": "https://api.github.com/users/extremeheat",
                "user_view_type": "public"
            }
        }
    ],
    "comments": 4,
    "comments_url": "https://api.github.com/repos/PrismarineJS/prismarine-nbt/issues/124/comments",
    "created_at": "2025-02-05T09:41:34Z",
    "event_data": [
        {
            "actor": {
                "avatar_url": "https://avatars.githubusercontent.com/u/7681159?v=4",
                "events_url": "https://api.github.com/users/Plagiatus/events{/privacy}",
                "followers_url": "https://api.github.com/users/Plagiatus/followers",
                "following_url": "https://api.github.com/users/Plagiatus/following{/other_user}",
                "gists_url": "https://api.github.com/users/Plagiatus/gists{/gist_id}",
                "gravatar_id": "",
                "html_url": "https://github.com/Plagiatus",
                "id": 7681159,
                "login": "Plagiatus",
                "node_id": "MDQ6VXNlcjc2ODExNTk=",
                "organizations_url": "https://api.github.com/users/Plagiatus/orgs",
                "received_events_url": "https://api.github.com/users/Plagiatus/received_events",
                "repos_url": "https://api.github.com/users/Plagiatus/repos",
                "site_admin": false,
                "starred_url": "https://api.github.com/users/Plagiatus/starred{/owner}{/repo}",
                "subscriptions_url": "https://api.github.com/users/Plagiatus/subscriptions",
                "type": "User",
                "url": "https://api.github.com/users/Plagiatus",
                "user_view_type": "public"
            },
            "commit_id": null,
            "commit_url": null,
            "created_at": "2025-02-05T16:46:55Z",
            "event": "closed",
            "id": 16197776366,
            "node_id": "CE_lADOAeT0wM6o00zjzwAAAAPFdnPu",
            "performed_via_github_app": null,
            "state_reason": null,
            "url": "https://api.github.com/repos/PrismarineJS/prismarine-nbt/issues/events/16197776366"
        }
    ],
    "events_url": "https://api.github.com/repos/PrismarineJS/prismarine-nbt/issues/124/events",
    "html_url": "https://github.com/PrismarineJS/prismarine-nbt/issues/124",
    "id": 2832420067,
    "labels": [],
    "labels_url": "https://api.github.com/repos/PrismarineJS/prismarine-nbt/issues/124/labels{/name}",
    "locked": false,
    "milestone": null,
    "node_id": "I_kwDOAeT0wM6o00zj",
    "number": 124,
    "performed_via_github_app": null,
    "reactions": {
        "+1": 0,
        "-1": 0,
        "confused": 0,
        "eyes": 0,
        "heart": 0,
        "hooray": 0,
        "laugh": 0,
        "rocket": 0,
        "total_count": 0,
        "url": "https://api.github.com/repos/PrismarineJS/prismarine-nbt/issues/124/reactions"
    },
    "repository_url": "https://api.github.com/repos/PrismarineJS/prismarine-nbt",
    "state": "closed",
    "state_reason": "completed",
    "sub_issues_summary": {
        "completed": 0,
        "percent_completed": 0,
        "total": 0
    },
    "timeline_url": "https://api.github.com/repos/PrismarineJS/prismarine-nbt/issues/124/timeline",
    "title": "TypeError: Read error for undefined : buffer[bufferReader] is not a function",
    "updated_at": "2025-02-06T06:02:08Z",
    "url": "https://api.github.com/repos/PrismarineJS/prismarine-nbt/issues/124",
    "user": {
        "avatar_url": "https://avatars.githubusercontent.com/u/7681159?v=4",
        "events_url": "https://api.github.com/users/Plagiatus/events{/privacy}",
        "followers_url": "https://api.github.com/users/Plagiatus/followers",
        "following_url": "https://api.github.com/users/Plagiatus/following{/other_user}",
        "gists_url": "https://api.github.com/users/Plagiatus/gists{/gist_id}",
        "gravatar_id": "",
        "html_url": "https://github.com/Plagiatus",
        "id": 7681159,
        "login": "Plagiatus",
        "node_id": "MDQ6VXNlcjc2ODExNTk=",
        "organizations_url": "https://api.github.com/users/Plagiatus/orgs",
        "received_events_url": "https://api.github.com/users/Plagiatus/received_events",
        "repos_url": "https://api.github.com/users/Plagiatus/repos",
        "site_admin": false,
        "starred_url": "https://api.github.com/users/Plagiatus/starred{/owner}{/repo}",
        "subscriptions_url": "https://api.github.com/users/Plagiatus/subscriptions",
        "type": "User",
        "url": "https://api.github.com/users/Plagiatus",
        "user_view_type": "public"
    }
}