{
    "_links": {
        "comments": {
            "href": "https://api.github.com/repos/PrismarineJS/prismarine-entity/issues/27/comments"
        },
        "commits": {
            "href": "https://api.github.com/repos/PrismarineJS/prismarine-entity/pulls/27/commits"
        },
        "html": {
            "href": "https://github.com/PrismarineJS/prismarine-entity/pull/27"
        },
        "issue": {
            "href": "https://api.github.com/repos/PrismarineJS/prismarine-entity/issues/27"
        },
        "review_comment": {
            "href": "https://api.github.com/repos/PrismarineJS/prismarine-entity/pulls/comments{/number}"
        },
        "review_comments": {
            "href": "https://api.github.com/repos/PrismarineJS/prismarine-entity/pulls/27/comments"
        },
        "self": {
            "href": "https://api.github.com/repos/PrismarineJS/prismarine-entity/pulls/27"
        },
        "statuses": {
            "href": "https://api.github.com/repos/PrismarineJS/prismarine-entity/statuses/9d6dd3a9720891b63e8e40aa90620675d6073258"
        }
    },
    "active_lock_reason": null,
    "additions": 1,
    "assignee": null,
    "assignees": [],
    "author_association": "CONTRIBUTOR",
    "auto_merge": null,
    "base": {
        "label": "PrismarineJS:master",
        "ref": "master",
        "repo": {
            "allow_forking": true,
            "archive_url": "https://api.github.com/repos/PrismarineJS/prismarine-entity/{archive_format}{/ref}",
            "archived": false,
            "assignees_url": "https://api.github.com/repos/PrismarineJS/prismarine-entity/assignees{/user}",
            "blobs_url": "https://api.github.com/repos/PrismarineJS/prismarine-entity/git/blobs{/sha}",
            "branches_url": "https://api.github.com/repos/PrismarineJS/prismarine-entity/branches{/branch}",
            "clone_url": "https://github.com/PrismarineJS/prismarine-entity.git",
            "collaborators_url": "https://api.github.com/repos/PrismarineJS/prismarine-entity/collaborators{/collaborator}",
            "comments_url": "https://api.github.com/repos/PrismarineJS/prismarine-entity/comments{/number}",
            "commits_url": "https://api.github.com/repos/PrismarineJS/prismarine-entity/commits{/sha}",
            "compare_url": "https://api.github.com/repos/PrismarineJS/prismarine-entity/compare/{base}...{head}",
            "contents_url": "https://api.github.com/repos/PrismarineJS/prismarine-entity/contents/{+path}",
            "contributors_url": "https://api.github.com/repos/PrismarineJS/prismarine-entity/contributors",
            "created_at": "2015-08-30T18:35:47Z",
            "default_branch": "master",
            "deployments_url": "https://api.github.com/repos/PrismarineJS/prismarine-entity/deployments",
            "description": "Represent a minecraft entity",
            "disabled": false,
            "downloads_url": "https://api.github.com/repos/PrismarineJS/prismarine-entity/downloads",
            "events_url": "https://api.github.com/repos/PrismarineJS/prismarine-entity/events",
            "fork": false,
            "forks": 13,
            "forks_count": 13,
            "forks_url": "https://api.github.com/repos/PrismarineJS/prismarine-entity/forks",
            "full_name": "PrismarineJS/prismarine-entity",
            "git_commits_url": "https://api.github.com/repos/PrismarineJS/prismarine-entity/git/commits{/sha}",
            "git_refs_url": "https://api.github.com/repos/PrismarineJS/prismarine-entity/git/refs{/sha}",
            "git_tags_url": "https://api.github.com/repos/PrismarineJS/prismarine-entity/git/tags{/sha}",
            "git_url": "git://github.com/PrismarineJS/prismarine-entity.git",
            "has_discussions": false,
            "has_downloads": true,
            "has_issues": true,
            "has_pages": false,
            "has_projects": true,
            "has_wiki": true,
            "homepage": null,
            "hooks_url": "https://api.github.com/repos/PrismarineJS/prismarine-entity/hooks",
            "html_url": "https://github.com/PrismarineJS/prismarine-entity",
            "id": 41638901,
            "is_template": false,
            "issue_comment_url": "https://api.github.com/repos/PrismarineJS/prismarine-entity/issues/comments{/number}",
            "issue_events_url": "https://api.github.com/repos/PrismarineJS/prismarine-entity/issues/events{/number}",
            "issues_url": "https://api.github.com/repos/PrismarineJS/prismarine-entity/issues{/number}",
            "keys_url": "https://api.github.com/repos/PrismarineJS/prismarine-entity/keys{/key_id}",
            "labels_url": "https://api.github.com/repos/PrismarineJS/prismarine-entity/labels{/name}",
            "language": "JavaScript",
            "languages_url": "https://api.github.com/repos/PrismarineJS/prismarine-entity/languages",
            "license": null,
            "merges_url": "https://api.github.com/repos/PrismarineJS/prismarine-entity/merges",
            "milestones_url": "https://api.github.com/repos/PrismarineJS/prismarine-entity/milestones{/number}",
            "mirror_url": null,
            "name": "prismarine-entity",
            "node_id": "MDEwOlJlcG9zaXRvcnk0MTYzODkwMQ==",
            "notifications_url": "https://api.github.com/repos/PrismarineJS/prismarine-entity/notifications{?since,all,participating}",
            "open_issues": 7,
            "open_issues_count": 7,
            "owner": {
                "avatar_url": "https://avatars.githubusercontent.com/u/11053411?v=4",
                "events_url": "https://api.github.com/users/PrismarineJS/events{/privacy}",
                "followers_url": "https://api.github.com/users/PrismarineJS/followers",
                "following_url": "https://api.github.com/users/PrismarineJS/following{/other_user}",
                "gists_url": "https://api.github.com/users/PrismarineJS/gists{/gist_id}",
                "gravatar_id": "",
                "html_url": "https://github.com/PrismarineJS",
                "id": 11053411,
                "login": "PrismarineJS",
                "node_id": "MDEyOk9yZ2FuaXphdGlvbjExMDUzNDEx",
                "organizations_url": "https://api.github.com/users/PrismarineJS/orgs",
                "received_events_url": "https://api.github.com/users/PrismarineJS/received_events",
                "repos_url": "https://api.github.com/users/PrismarineJS/repos",
                "site_admin": false,
                "starred_url": "https://api.github.com/users/PrismarineJS/starred{/owner}{/repo}",
                "subscriptions_url": "https://api.github.com/users/PrismarineJS/subscriptions",
                "type": "Organization",
                "url": "https://api.github.com/users/PrismarineJS"
            },
            "private": false,
            "pulls_url": "https://api.github.com/repos/PrismarineJS/prismarine-entity/pulls{/number}",
            "pushed_at": "2023-03-04T19:02:53Z",
            "releases_url": "https://api.github.com/repos/PrismarineJS/prismarine-entity/releases{/id}",
            "size": 35,
            "ssh_url": "git@github.com:PrismarineJS/prismarine-entity.git",
            "stargazers_count": 12,
            "stargazers_url": "https://api.github.com/repos/PrismarineJS/prismarine-entity/stargazers",
            "statuses_url": "https://api.github.com/repos/PrismarineJS/prismarine-entity/statuses/{sha}",
            "subscribers_url": "https://api.github.com/repos/PrismarineJS/prismarine-entity/subscribers",
            "subscription_url": "https://api.github.com/repos/PrismarineJS/prismarine-entity/subscription",
            "svn_url": "https://github.com/PrismarineJS/prismarine-entity",
            "tags_url": "https://api.github.com/repos/PrismarineJS/prismarine-entity/tags",
            "teams_url": "https://api.github.com/repos/PrismarineJS/prismarine-entity/teams",
            "topics": [],
            "trees_url": "https://api.github.com/repos/PrismarineJS/prismarine-entity/git/trees{/sha}",
            "updated_at": "2023-01-29T16:49:48Z",
            "url": "https://api.github.com/repos/PrismarineJS/prismarine-entity",
            "visibility": "public",
            "watchers": 12,
            "watchers_count": 12,
            "web_commit_signoff_required": false
        },
        "sha": "290acb77a74e5d4744dbf065215786dd639a28aa",
        "user": {
            "avatar_url": "https://avatars.githubusercontent.com/u/11053411?v=4",
            "events_url": "https://api.github.com/users/PrismarineJS/events{/privacy}",
            "followers_url": "https://api.github.com/users/PrismarineJS/followers",
            "following_url": "https://api.github.com/users/PrismarineJS/following{/other_user}",
            "gists_url": "https://api.github.com/users/PrismarineJS/gists{/gist_id}",
            "gravatar_id": "",
            "html_url": "https://github.com/PrismarineJS",
            "id": 11053411,
            "login": "PrismarineJS",
            "node_id": "MDEyOk9yZ2FuaXphdGlvbjExMDUzNDEx",
            "organizations_url": "https://api.github.com/users/PrismarineJS/orgs",
            "received_events_url": "https://api.github.com/users/PrismarineJS/received_events",
            "repos_url": "https://api.github.com/users/PrismarineJS/repos",
            "site_admin": false,
            "starred_url": "https://api.github.com/users/PrismarineJS/starred{/owner}{/repo}",
            "subscriptions_url": "https://api.github.com/users/PrismarineJS/subscriptions",
            "type": "Organization",
            "url": "https://api.github.com/users/PrismarineJS"
        }
    },
    "body": "Bumps [@types/node](https://github.com/DefinitelyTyped/DefinitelyTyped/tree/HEAD/types/node) from 16.11.14 to 17.0.1.\n<details>\n<summary>Commits</summary>\n<ul>\n<li>See full diff in <a href=\"https://github.com/DefinitelyTyped/DefinitelyTyped/commits/HEAD/types/node\">compare view</a></li>\n</ul>\n</details>\n<br />\n\n\n[![Dependabot compatibility score](https://dependabot-badges.githubapp.com/badges/compatibility_score?dependency-name=@types/node&package-manager=npm_and_yarn&previous-version=16.11.14&new-version=17.0.1)](https://docs.github.com/en/github/managing-security-vulnerabilities/about-dependabot-security-updates#about-compatibility-scores)\n\nDependabot will resolve any conflicts with this PR as long as you don't alter it yourself. You can also trigger a rebase manually by commenting `@dependabot rebase`.\n\n[//]: # (dependabot-automerge-start)\n[//]: # (dependabot-automerge-end)\n\n---\n\n<details>\n<summary>Dependabot commands and options</summary>\n<br />\n\nYou can trigger Dependabot actions by commenting on this PR:\n- `@dependabot rebase` will rebase this PR\n- `@dependabot recreate` will recreate this PR, overwriting any edits that have been made to it\n- `@dependabot merge` will merge this PR after your CI passes on it\n- `@dependabot squash and merge` will squash and merge this PR after your CI passes on it\n- `@dependabot cancel merge` will cancel a previously requested merge and block automerging\n- `@dependabot reopen` will reopen this PR if it is closed\n- `@dependabot close` will close this PR and stop Dependabot recreating it. You can achieve the same result by closing it manually\n- `@dependabot ignore this major version` will close this PR and stop Dependabot creating any more for this major version (unless you reopen the PR or upgrade to it yourself)\n- `@dependabot ignore this minor version` will close this PR and stop Dependabot creating any more for this minor version (unless you reopen the PR or upgrade to it yourself)\n- `@dependabot ignore this dependency` will close this PR and stop Dependabot creating any more for this dependency (unless you reopen the PR or upgrade to it yourself)\n\n\n</details>",
    "changed_files": 1,
    "closed_at": "2021-12-21T18:11:09Z",
    "comment_data": [],
    "comment_regular_data": [
        {
            "author_association": "CONTRIBUTOR",
            "body": "Superseded by #28.",
            "created_at": "2021-12-21T18:11:08Z",
            "html_url": "https://github.com/PrismarineJS/prismarine-entity/pull/27#issuecomment-998990358",
            "id": 998990358,
            "issue_url": "https://api.github.com/repos/PrismarineJS/prismarine-entity/issues/27",
            "node_id": "IC_kwDOAntb9c47i2IW",
            "performed_via_github_app": null,
            "reactions": {
                "+1": 0,
                "-1": 0,
                "confused": 0,
                "eyes": 0,
                "heart": 0,
                "hooray": 0,
                "laugh": 0,
                "rocket": 0,
                "total_count": 0,
                "url": "https://api.github.com/repos/PrismarineJS/prismarine-entity/issues/comments/998990358/reactions"
            },
            "updated_at": "2021-12-21T18:11:08Z",
            "url": "https://api.github.com/repos/PrismarineJS/prismarine-entity/issues/comments/998990358",
            "user": {
                "avatar_url": "https://avatars.githubusercontent.com/in/29110?v=4",
                "events_url": "https://api.github.com/users/dependabot%5Bbot%5D/events{/privacy}",
                "followers_url": "https://api.github.com/users/dependabot%5Bbot%5D/followers",
                "following_url": "https://api.github.com/users/dependabot%5Bbot%5D/following{/other_user}",
                "gists_url": "https://api.github.com/users/dependabot%5Bbot%5D/gists{/gist_id}",
                "gravatar_id": "",
                "html_url": "https://github.com/apps/dependabot",
                "id": 49699333,
                "login": "dependabot[bot]",
                "node_id": "MDM6Qm90NDk2OTkzMzM=",
                "organizations_url": "https://api.github.com/users/dependabot%5Bbot%5D/orgs",
                "received_events_url": "https://api.github.com/users/dependabot%5Bbot%5D/received_events",
                "repos_url": "https://api.github.com/users/dependabot%5Bbot%5D/repos",
                "site_admin": false,
                "starred_url": "https://api.github.com/users/dependabot%5Bbot%5D/starred{/owner}{/repo}",
                "subscriptions_url": "https://api.github.com/users/dependabot%5Bbot%5D/subscriptions",
                "type": "Bot",
                "url": "https://api.github.com/users/dependabot%5Bbot%5D"
            }
        }
    ],
    "comments": 1,
    "comments_url": "https://api.github.com/repos/PrismarineJS/prismarine-entity/issues/27/comments",
    "commit_data": [
        {
            "author": {
                "avatar_url": "https://avatars.githubusercontent.com/in/29110?v=4",
                "events_url": "https://api.github.com/users/dependabot%5Bbot%5D/events{/privacy}",
                "followers_url": "https://api.github.com/users/dependabot%5Bbot%5D/followers",
                "following_url": "https://api.github.com/users/dependabot%5Bbot%5D/following{/other_user}",
                "gists_url": "https://api.github.com/users/dependabot%5Bbot%5D/gists{/gist_id}",
                "gravatar_id": "",
                "html_url": "https://github.com/apps/dependabot",
                "id": 49699333,
                "login": "dependabot[bot]",
                "node_id": "MDM6Qm90NDk2OTkzMzM=",
                "organizations_url": "https://api.github.com/users/dependabot%5Bbot%5D/orgs",
                "received_events_url": "https://api.github.com/users/dependabot%5Bbot%5D/received_events",
                "repos_url": "https://api.github.com/users/dependabot%5Bbot%5D/repos",
                "site_admin": false,
                "starred_url": "https://api.github.com/users/dependabot%5Bbot%5D/starred{/owner}{/repo}",
                "subscriptions_url": "https://api.github.com/users/dependabot%5Bbot%5D/subscriptions",
                "type": "Bot",
                "url": "https://api.github.com/users/dependabot%5Bbot%5D"
            },
            "comments_url": "https://api.github.com/repos/PrismarineJS/prismarine-entity/commits/9d6dd3a9720891b63e8e40aa90620675d6073258/comments",
            "commit": {
                "author": {
                    "date": "2021-12-20T18:10:26Z",
                    "email": "49699333+dependabot[bot]@users.noreply.github.com",
                    "name": "dependabot[bot]"
                },
                "comment_count": 0,
                "committer": {
                    "date": "2021-12-20T18:10:26Z",
                    "email": "noreply@github.com",
                    "name": "GitHub"
                },
                "message": "Bump @types/node from 16.11.14 to 17.0.1\n\nBumps [@types/node](https://github.com/DefinitelyTyped/DefinitelyTyped/tree/HEAD/types/node) from 16.11.14 to 17.0.1.\n- [Release notes](https://github.com/DefinitelyTyped/DefinitelyTyped/releases)\n- [Commits](https://github.com/DefinitelyTyped/DefinitelyTyped/commits/HEAD/types/node)\n\n---\nupdated-dependencies:\n- dependency-name: \"@types/node\"\n  dependency-type: direct:development\n  update-type: version-update:semver-major\n...\n\nSigned-off-by: dependabot[bot] <support@github.com>",
                "tree": {
                    "sha": "4579adcd825378edbfd02d2e9caa6f92a7adbb18",
                    "url": "https://api.github.com/repos/PrismarineJS/prismarine-entity/git/trees/4579adcd825378edbfd02d2e9caa6f92a7adbb18"
                },
                "url": "https://api.github.com/repos/PrismarineJS/prismarine-entity/git/commits/9d6dd3a9720891b63e8e40aa90620675d6073258",
                "verification": {
                    "payload": "tree 4579adcd825378edbfd02d2e9caa6f92a7adbb18\nparent 290acb77a74e5d4744dbf065215786dd639a28aa\nauthor dependabot[bot] <49699333+dependabot[bot]@users.noreply.github.com> 1640023826 +0000\ncommitter GitHub <noreply@github.com> 1640023826 +0000\n\nBump @types/node from 16.11.14 to 17.0.1\n\nBumps [@types/node](https://github.com/DefinitelyTyped/DefinitelyTyped/tree/HEAD/types/node) from 16.11.14 to 17.0.1.\n- [Release notes](https://github.com/DefinitelyTyped/DefinitelyTyped/releases)\n- [Commits](https://github.com/DefinitelyTyped/DefinitelyTyped/commits/HEAD/types/node)\n\n---\nupdated-dependencies:\n- dependency-name: \"@types/node\"\n  dependency-type: direct:development\n  update-type: version-update:semver-major\n...\n\nSigned-off-by: dependabot[bot] <support@github.com>",
                    "reason": "valid",
                    "signature": "-----BEGIN PGP SIGNATURE-----\n\nwsBcBAABCAAQBQJhwMcSCRBK7hj4Ov3rIwAAPl0IAHY0pLg8RlrdFoYRQ9kKORUZ\nlGS5xz3pGUptKgmQpxJGoHjEQH0ru0l5cmXpodixKmSguAe61LFFlK6U8tc/d9BY\np/Ee9NVc1//3tMaV7EsfzubuSRd+HaR6oqDAZajHpDoN6E8XCGtBgPaVwHLwSXj5\npwL28c7NWyjGmLwqo0EZToypCpP7S7TCF1Gjx571xoSaVuXt6yr55K9DqcYN1AYr\n1K6zb2Kte5i4jADidh3eUbFAqiP77UiRQFSouzrmmwLlbRzxeq4lXKYOROMVsfqK\n/xsY9dWNtiWL+UaosLEG5i9n/ZdM2J8Et4qlpBPuIgBU5+M4fWzS0iKiLq3hjRE=\n=iU1V\n-----END PGP SIGNATURE-----\n",
                    "verified": true
                }
            },
            "committer": {
                "avatar_url": "https://avatars.githubusercontent.com/u/19864447?v=4",
                "events_url": "https://api.github.com/users/web-flow/events{/privacy}",
                "followers_url": "https://api.github.com/users/web-flow/followers",
                "following_url": "https://api.github.com/users/web-flow/following{/other_user}",
                "gists_url": "https://api.github.com/users/web-flow/gists{/gist_id}",
                "gravatar_id": "",
                "html_url": "https://github.com/web-flow",
                "id": 19864447,
                "login": "web-flow",
                "node_id": "MDQ6VXNlcjE5ODY0NDQ3",
                "organizations_url": "https://api.github.com/users/web-flow/orgs",
                "received_events_url": "https://api.github.com/users/web-flow/received_events",
                "repos_url": "https://api.github.com/users/web-flow/repos",
                "site_admin": false,
                "starred_url": "https://api.github.com/users/web-flow/starred{/owner}{/repo}",
                "subscriptions_url": "https://api.github.com/users/web-flow/subscriptions",
                "type": "User",
                "url": "https://api.github.com/users/web-flow"
            },
            "html_url": "https://github.com/PrismarineJS/prismarine-entity/commit/9d6dd3a9720891b63e8e40aa90620675d6073258",
            "node_id": "C_kwDOAntb9doAKDlkNmRkM2E5NzIwODkxYjYzZThlNDBhYTkwNjIwNjc1ZDYwNzMyNTg",
            "parents": [
                {
                    "html_url": "https://github.com/PrismarineJS/prismarine-entity/commit/290acb77a74e5d4744dbf065215786dd639a28aa",
                    "sha": "290acb77a74e5d4744dbf065215786dd639a28aa",
                    "url": "https://api.github.com/repos/PrismarineJS/prismarine-entity/commits/290acb77a74e5d4744dbf065215786dd639a28aa"
                }
            ],
            "sha": "9d6dd3a9720891b63e8e40aa90620675d6073258",
            "url": "https://api.github.com/repos/PrismarineJS/prismarine-entity/commits/9d6dd3a9720891b63e8e40aa90620675d6073258"
        }
    ],
    "commits": 1,
    "commits_url": "https://api.github.com/repos/PrismarineJS/prismarine-entity/pulls/27/commits",
    "created_at": "2021-12-20T18:10:27Z",
    "deletions": 1,
    "diff_url": "https://github.com/PrismarineJS/prismarine-entity/pull/27.diff",
    "draft": false,
    "head": {
        "label": "PrismarineJS:dependabot/npm_and_yarn/types/node-17.0.1",
        "ref": "dependabot/npm_and_yarn/types/node-17.0.1",
        "repo": {
            "allow_forking": true,
            "archive_url": "https://api.github.com/repos/PrismarineJS/prismarine-entity/{archive_format}{/ref}",
            "archived": false,
            "assignees_url": "https://api.github.com/repos/PrismarineJS/prismarine-entity/assignees{/user}",
            "blobs_url": "https://api.github.com/repos/PrismarineJS/prismarine-entity/git/blobs{/sha}",
            "branches_url": "https://api.github.com/repos/PrismarineJS/prismarine-entity/branches{/branch}",
            "clone_url": "https://github.com/PrismarineJS/prismarine-entity.git",
            "collaborators_url": "https://api.github.com/repos/PrismarineJS/prismarine-entity/collaborators{/collaborator}",
            "comments_url": "https://api.github.com/repos/PrismarineJS/prismarine-entity/comments{/number}",
            "commits_url": "https://api.github.com/repos/PrismarineJS/prismarine-entity/commits{/sha}",
            "compare_url": "https://api.github.com/repos/PrismarineJS/prismarine-entity/compare/{base}...{head}",
            "contents_url": "https://api.github.com/repos/PrismarineJS/prismarine-entity/contents/{+path}",
            "contributors_url": "https://api.github.com/repos/PrismarineJS/prismarine-entity/contributors",
            "created_at": "2015-08-30T18:35:47Z",
            "default_branch": "master",
            "deployments_url": "https://api.github.com/repos/PrismarineJS/prismarine-entity/deployments",
            "description": "Represent a minecraft entity",
            "disabled": false,
            "downloads_url": "https://api.github.com/repos/PrismarineJS/prismarine-entity/downloads",
            "events_url": "https://api.github.com/repos/PrismarineJS/prismarine-entity/events",
            "fork": false,
            "forks": 13,
            "forks_count": 13,
            "forks_url": "https://api.github.com/repos/PrismarineJS/prismarine-entity/forks",
            "full_name": "PrismarineJS/prismarine-entity",
            "git_commits_url": "https://api.github.com/repos/PrismarineJS/prismarine-entity/git/commits{/sha}",
            "git_refs_url": "https://api.github.com/repos/PrismarineJS/prismarine-entity/git/refs{/sha}",
            "git_tags_url": "https://api.github.com/repos/PrismarineJS/prismarine-entity/git/tags{/sha}",
            "git_url": "git://github.com/PrismarineJS/prismarine-entity.git",
            "has_discussions": false,
            "has_downloads": true,
            "has_issues": true,
            "has_pages": false,
            "has_projects": true,
            "has_wiki": true,
            "homepage": null,
            "hooks_url": "https://api.github.com/repos/PrismarineJS/prismarine-entity/hooks",
            "html_url": "https://github.com/PrismarineJS/prismarine-entity",
            "id": 41638901,
            "is_template": false,
            "issue_comment_url": "https://api.github.com/repos/PrismarineJS/prismarine-entity/issues/comments{/number}",
            "issue_events_url": "https://api.github.com/repos/PrismarineJS/prismarine-entity/issues/events{/number}",
            "issues_url": "https://api.github.com/repos/PrismarineJS/prismarine-entity/issues{/number}",
            "keys_url": "https://api.github.com/repos/PrismarineJS/prismarine-entity/keys{/key_id}",
            "labels_url": "https://api.github.com/repos/PrismarineJS/prismarine-entity/labels{/name}",
            "language": "JavaScript",
            "languages_url": "https://api.github.com/repos/PrismarineJS/prismarine-entity/languages",
            "license": null,
            "merges_url": "https://api.github.com/repos/PrismarineJS/prismarine-entity/merges",
            "milestones_url": "https://api.github.com/repos/PrismarineJS/prismarine-entity/milestones{/number}",
            "mirror_url": null,
            "name": "prismarine-entity",
            "node_id": "MDEwOlJlcG9zaXRvcnk0MTYzODkwMQ==",
            "notifications_url": "https://api.github.com/repos/PrismarineJS/prismarine-entity/notifications{?since,all,participating}",
            "open_issues": 7,
            "open_issues_count": 7,
            "owner": {
                "avatar_url": "https://avatars.githubusercontent.com/u/11053411?v=4",
                "events_url": "https://api.github.com/users/PrismarineJS/events{/privacy}",
                "followers_url": "https://api.github.com/users/PrismarineJS/followers",
                "following_url": "https://api.github.com/users/PrismarineJS/following{/other_user}",
                "gists_url": "https://api.github.com/users/PrismarineJS/gists{/gist_id}",
                "gravatar_id": "",
                "html_url": "https://github.com/PrismarineJS",
                "id": 11053411,
                "login": "PrismarineJS",
                "node_id": "MDEyOk9yZ2FuaXphdGlvbjExMDUzNDEx",
                "organizations_url": "https://api.github.com/users/PrismarineJS/orgs",
                "received_events_url": "https://api.github.com/users/PrismarineJS/received_events",
                "repos_url": "https://api.github.com/users/PrismarineJS/repos",
                "site_admin": false,
                "starred_url": "https://api.github.com/users/PrismarineJS/starred{/owner}{/repo}",
                "subscriptions_url": "https://api.github.com/users/PrismarineJS/subscriptions",
                "type": "Organization",
                "url": "https://api.github.com/users/PrismarineJS"
            },
            "private": false,
            "pulls_url": "https://api.github.com/repos/PrismarineJS/prismarine-entity/pulls{/number}",
            "pushed_at": "2023-03-04T19:02:53Z",
            "releases_url": "https://api.github.com/repos/PrismarineJS/prismarine-entity/releases{/id}",
            "size": 35,
            "ssh_url": "git@github.com:PrismarineJS/prismarine-entity.git",
            "stargazers_count": 12,
            "stargazers_url": "https://api.github.com/repos/PrismarineJS/prismarine-entity/stargazers",
            "statuses_url": "https://api.github.com/repos/PrismarineJS/prismarine-entity/statuses/{sha}",
            "subscribers_url": "https://api.github.com/repos/PrismarineJS/prismarine-entity/subscribers",
            "subscription_url": "https://api.github.com/repos/PrismarineJS/prismarine-entity/subscription",
            "svn_url": "https://github.com/PrismarineJS/prismarine-entity",
            "tags_url": "https://api.github.com/repos/PrismarineJS/prismarine-entity/tags",
            "teams_url": "https://api.github.com/repos/PrismarineJS/prismarine-entity/teams",
            "topics": [],
            "trees_url": "https://api.github.com/repos/PrismarineJS/prismarine-entity/git/trees{/sha}",
            "updated_at": "2023-01-29T16:49:48Z",
            "url": "https://api.github.com/repos/PrismarineJS/prismarine-entity",
            "visibility": "public",
            "watchers": 12,
            "watchers_count": 12,
            "web_commit_signoff_required": false
        },
        "sha": "9d6dd3a9720891b63e8e40aa90620675d6073258",
        "user": {
            "avatar_url": "https://avatars.githubusercontent.com/u/11053411?v=4",
            "events_url": "https://api.github.com/users/PrismarineJS/events{/privacy}",
            "followers_url": "https://api.github.com/users/PrismarineJS/followers",
            "following_url": "https://api.github.com/users/PrismarineJS/following{/other_user}",
            "gists_url": "https://api.github.com/users/PrismarineJS/gists{/gist_id}",
            "gravatar_id": "",
            "html_url": "https://github.com/PrismarineJS",
            "id": 11053411,
            "login": "PrismarineJS",
            "node_id": "MDEyOk9yZ2FuaXphdGlvbjExMDUzNDEx",
            "organizations_url": "https://api.github.com/users/PrismarineJS/orgs",
            "received_events_url": "https://api.github.com/users/PrismarineJS/received_events",
            "repos_url": "https://api.github.com/users/PrismarineJS/repos",
            "site_admin": false,
            "starred_url": "https://api.github.com/users/PrismarineJS/starred{/owner}{/repo}",
            "subscriptions_url": "https://api.github.com/users/PrismarineJS/subscriptions",
            "type": "Organization",
            "url": "https://api.github.com/users/PrismarineJS"
        }
    },
    "html_url": "https://github.com/PrismarineJS/prismarine-entity/pull/27",
    "id": 806879827,
    "issue_url": "https://api.github.com/repos/PrismarineJS/prismarine-entity/issues/27",
    "labels": [
        {
            "color": "0366d6",
            "default": false,
            "description": "Pull requests that update a dependency file",
            "id": 2067070421,
            "name": "dependencies",
            "node_id": "MDU6TGFiZWwyMDY3MDcwNDIx",
            "url": "https://api.github.com/repos/PrismarineJS/prismarine-entity/labels/dependencies"
        }
    ],
    "locked": false,
    "maintainer_can_modify": false,
    "merge_commit_sha": "f41f78144057b35c7c08de6f96f5f9eddf63b8ee",
    "mergeable": null,
    "mergeable_state": "unknown",
    "merged": false,
    "merged_at": null,
    "merged_by": null,
    "milestone": null,
    "node_id": "PR_kwDOAntb9c4wGAJT",
    "number": 27,
    "patch_url": "https://github.com/PrismarineJS/prismarine-entity/pull/27.patch",
    "rebaseable": null,
    "requested_reviewers": [],
    "requested_teams": [],
    "review_comment_url": "https://api.github.com/repos/PrismarineJS/prismarine-entity/pulls/comments{/number}",
    "review_comments": 0,
    "review_comments_url": "https://api.github.com/repos/PrismarineJS/prismarine-entity/pulls/27/comments",
    "state": "closed",
    "statuses_url": "https://api.github.com/repos/PrismarineJS/prismarine-entity/statuses/9d6dd3a9720891b63e8e40aa90620675d6073258",
    "title": "Bump @types/node from 16.11.14 to 17.0.1",
    "updated_at": "2021-12-21T18:11:10Z",
    "url": "https://api.github.com/repos/PrismarineJS/prismarine-entity/pulls/27",
    "user": {
        "avatar_url": "https://avatars.githubusercontent.com/in/29110?v=4",
        "events_url": "https://api.github.com/users/dependabot%5Bbot%5D/events{/privacy}",
        "followers_url": "https://api.github.com/users/dependabot%5Bbot%5D/followers",
        "following_url": "https://api.github.com/users/dependabot%5Bbot%5D/following{/other_user}",
        "gists_url": "https://api.github.com/users/dependabot%5Bbot%5D/gists{/gist_id}",
        "gravatar_id": "",
        "html_url": "https://github.com/apps/dependabot",
        "id": 49699333,
        "login": "dependabot[bot]",
        "node_id": "MDM6Qm90NDk2OTkzMzM=",
        "organizations_url": "https://api.github.com/users/dependabot%5Bbot%5D/orgs",
        "received_events_url": "https://api.github.com/users/dependabot%5Bbot%5D/received_events",
        "repos_url": "https://api.github.com/users/dependabot%5Bbot%5D/repos",
        "site_admin": false,
        "starred_url": "https://api.github.com/users/dependabot%5Bbot%5D/starred{/owner}{/repo}",
        "subscriptions_url": "https://api.github.com/users/dependabot%5Bbot%5D/subscriptions",
        "type": "Bot",
        "url": "https://api.github.com/users/dependabot%5Bbot%5D"
    }
}