{
    "_links": {
        "comments": {
            "href": "https://api.github.com/repos/PrismarineJS/prismarine-entity/issues/69/comments"
        },
        "commits": {
            "href": "https://api.github.com/repos/PrismarineJS/prismarine-entity/pulls/69/commits"
        },
        "html": {
            "href": "https://github.com/PrismarineJS/prismarine-entity/pull/69"
        },
        "issue": {
            "href": "https://api.github.com/repos/PrismarineJS/prismarine-entity/issues/69"
        },
        "review_comment": {
            "href": "https://api.github.com/repos/PrismarineJS/prismarine-entity/pulls/comments{/number}"
        },
        "review_comments": {
            "href": "https://api.github.com/repos/PrismarineJS/prismarine-entity/pulls/69/comments"
        },
        "self": {
            "href": "https://api.github.com/repos/PrismarineJS/prismarine-entity/pulls/69"
        },
        "statuses": {
            "href": "https://api.github.com/repos/PrismarineJS/prismarine-entity/statuses/efa6dc46700bde6c689fd9e3186962b7295cbd41"
        }
    },
    "active_lock_reason": null,
    "additions": 5,
    "assignee": null,
    "assignees": [],
    "author_association": "CONTRIBUTOR",
    "auto_merge": null,
    "base": {
        "label": "PrismarineJS:master",
        "ref": "master",
        "repo": {
            "allow_forking": true,
            "archive_url": "https://api.github.com/repos/PrismarineJS/prismarine-entity/{archive_format}{/ref}",
            "archived": false,
            "assignees_url": "https://api.github.com/repos/PrismarineJS/prismarine-entity/assignees{/user}",
            "blobs_url": "https://api.github.com/repos/PrismarineJS/prismarine-entity/git/blobs{/sha}",
            "branches_url": "https://api.github.com/repos/PrismarineJS/prismarine-entity/branches{/branch}",
            "clone_url": "https://github.com/PrismarineJS/prismarine-entity.git",
            "collaborators_url": "https://api.github.com/repos/PrismarineJS/prismarine-entity/collaborators{/collaborator}",
            "comments_url": "https://api.github.com/repos/PrismarineJS/prismarine-entity/comments{/number}",
            "commits_url": "https://api.github.com/repos/PrismarineJS/prismarine-entity/commits{/sha}",
            "compare_url": "https://api.github.com/repos/PrismarineJS/prismarine-entity/compare/{base}...{head}",
            "contents_url": "https://api.github.com/repos/PrismarineJS/prismarine-entity/contents/{+path}",
            "contributors_url": "https://api.github.com/repos/PrismarineJS/prismarine-entity/contributors",
            "created_at": "2015-08-30T18:35:47Z",
            "default_branch": "master",
            "deployments_url": "https://api.github.com/repos/PrismarineJS/prismarine-entity/deployments",
            "description": "Represent a minecraft entity",
            "disabled": false,
            "downloads_url": "https://api.github.com/repos/PrismarineJS/prismarine-entity/downloads",
            "events_url": "https://api.github.com/repos/PrismarineJS/prismarine-entity/events",
            "fork": false,
            "forks": 17,
            "forks_count": 17,
            "forks_url": "https://api.github.com/repos/PrismarineJS/prismarine-entity/forks",
            "full_name": "PrismarineJS/prismarine-entity",
            "git_commits_url": "https://api.github.com/repos/PrismarineJS/prismarine-entity/git/commits{/sha}",
            "git_refs_url": "https://api.github.com/repos/PrismarineJS/prismarine-entity/git/refs{/sha}",
            "git_tags_url": "https://api.github.com/repos/PrismarineJS/prismarine-entity/git/tags{/sha}",
            "git_url": "git://github.com/PrismarineJS/prismarine-entity.git",
            "has_discussions": false,
            "has_downloads": true,
            "has_issues": true,
            "has_pages": false,
            "has_projects": true,
            "has_wiki": true,
            "homepage": null,
            "hooks_url": "https://api.github.com/repos/PrismarineJS/prismarine-entity/hooks",
            "html_url": "https://github.com/PrismarineJS/prismarine-entity",
            "id": 41638901,
            "is_template": false,
            "issue_comment_url": "https://api.github.com/repos/PrismarineJS/prismarine-entity/issues/comments{/number}",
            "issue_events_url": "https://api.github.com/repos/PrismarineJS/prismarine-entity/issues/events{/number}",
            "issues_url": "https://api.github.com/repos/PrismarineJS/prismarine-entity/issues{/number}",
            "keys_url": "https://api.github.com/repos/PrismarineJS/prismarine-entity/keys{/key_id}",
            "labels_url": "https://api.github.com/repos/PrismarineJS/prismarine-entity/labels{/name}",
            "language": "JavaScript",
            "languages_url": "https://api.github.com/repos/PrismarineJS/prismarine-entity/languages",
            "license": null,
            "merges_url": "https://api.github.com/repos/PrismarineJS/prismarine-entity/merges",
            "milestones_url": "https://api.github.com/repos/PrismarineJS/prismarine-entity/milestones{/number}",
            "mirror_url": null,
            "name": "prismarine-entity",
            "node_id": "MDEwOlJlcG9zaXRvcnk0MTYzODkwMQ==",
            "notifications_url": "https://api.github.com/repos/PrismarineJS/prismarine-entity/notifications{?since,all,participating}",
            "open_issues": 8,
            "open_issues_count": 8,
            "owner": {
                "avatar_url": "https://avatars.githubusercontent.com/u/11053411?v=4",
                "events_url": "https://api.github.com/users/PrismarineJS/events{/privacy}",
                "followers_url": "https://api.github.com/users/PrismarineJS/followers",
                "following_url": "https://api.github.com/users/PrismarineJS/following{/other_user}",
                "gists_url": "https://api.github.com/users/PrismarineJS/gists{/gist_id}",
                "gravatar_id": "",
                "html_url": "https://github.com/PrismarineJS",
                "id": 11053411,
                "login": "PrismarineJS",
                "node_id": "MDEyOk9yZ2FuaXphdGlvbjExMDUzNDEx",
                "organizations_url": "https://api.github.com/users/PrismarineJS/orgs",
                "received_events_url": "https://api.github.com/users/PrismarineJS/received_events",
                "repos_url": "https://api.github.com/users/PrismarineJS/repos",
                "site_admin": false,
                "starred_url": "https://api.github.com/users/PrismarineJS/starred{/owner}{/repo}",
                "subscriptions_url": "https://api.github.com/users/PrismarineJS/subscriptions",
                "type": "Organization",
                "url": "https://api.github.com/users/PrismarineJS"
            },
            "private": false,
            "pulls_url": "https://api.github.com/repos/PrismarineJS/prismarine-entity/pulls{/number}",
            "pushed_at": "2023-11-01T13:50:02Z",
            "releases_url": "https://api.github.com/repos/PrismarineJS/prismarine-entity/releases{/id}",
            "size": 48,
            "ssh_url": "git@github.com:PrismarineJS/prismarine-entity.git",
            "stargazers_count": 20,
            "stargazers_url": "https://api.github.com/repos/PrismarineJS/prismarine-entity/stargazers",
            "statuses_url": "https://api.github.com/repos/PrismarineJS/prismarine-entity/statuses/{sha}",
            "subscribers_url": "https://api.github.com/repos/PrismarineJS/prismarine-entity/subscribers",
            "subscription_url": "https://api.github.com/repos/PrismarineJS/prismarine-entity/subscription",
            "svn_url": "https://github.com/PrismarineJS/prismarine-entity",
            "tags_url": "https://api.github.com/repos/PrismarineJS/prismarine-entity/tags",
            "teams_url": "https://api.github.com/repos/PrismarineJS/prismarine-entity/teams",
            "topics": [],
            "trees_url": "https://api.github.com/repos/PrismarineJS/prismarine-entity/git/trees{/sha}",
            "updated_at": "2023-10-22T21:17:51Z",
            "url": "https://api.github.com/repos/PrismarineJS/prismarine-entity",
            "visibility": "public",
            "watchers": 20,
            "watchers_count": 20,
            "web_commit_signoff_required": false
        },
        "sha": "b2f756de52fa7ceb2675fe9c2f950fa7398bc425",
        "user": {
            "avatar_url": "https://avatars.githubusercontent.com/u/11053411?v=4",
            "events_url": "https://api.github.com/users/PrismarineJS/events{/privacy}",
            "followers_url": "https://api.github.com/users/PrismarineJS/followers",
            "following_url": "https://api.github.com/users/PrismarineJS/following{/other_user}",
            "gists_url": "https://api.github.com/users/PrismarineJS/gists{/gist_id}",
            "gravatar_id": "",
            "html_url": "https://github.com/PrismarineJS",
            "id": 11053411,
            "login": "PrismarineJS",
            "node_id": "MDEyOk9yZ2FuaXphdGlvbjExMDUzNDEx",
            "organizations_url": "https://api.github.com/users/PrismarineJS/orgs",
            "received_events_url": "https://api.github.com/users/PrismarineJS/received_events",
            "repos_url": "https://api.github.com/users/PrismarineJS/repos",
            "site_admin": false,
            "starred_url": "https://api.github.com/users/PrismarineJS/starred{/owner}{/repo}",
            "subscriptions_url": "https://api.github.com/users/PrismarineJS/subscriptions",
            "type": "Organization",
            "url": "https://api.github.com/users/PrismarineJS"
        }
    },
    "body": null,
    "changed_files": 2,
    "closed_at": "2023-08-25T20:29:39Z",
    "comment_data": [],
    "comment_regular_data": [
        {
            "author_association": "MEMBER",
            "body": "/makerelease",
            "created_at": "2023-08-25T20:29:47Z",
            "html_url": "https://github.com/PrismarineJS/prismarine-entity/pull/69#issuecomment-1693895391",
            "id": 1693895391,
            "issue_url": "https://api.github.com/repos/PrismarineJS/prismarine-entity/issues/69",
            "node_id": "IC_kwDOAntb9c5k9srf",
            "performed_via_github_app": null,
            "reactions": {
                "+1": 0,
                "-1": 0,
                "confused": 0,
                "eyes": 1,
                "heart": 0,
                "hooray": 0,
                "laugh": 0,
                "rocket": 0,
                "total_count": 1,
                "url": "https://api.github.com/repos/PrismarineJS/prismarine-entity/issues/comments/1693895391/reactions"
            },
            "updated_at": "2023-08-25T20:29:47Z",
            "url": "https://api.github.com/repos/PrismarineJS/prismarine-entity/issues/comments/1693895391",
            "user": {
                "avatar_url": "https://avatars.githubusercontent.com/u/2346494?v=4",
                "events_url": "https://api.github.com/users/rom1504/events{/privacy}",
                "followers_url": "https://api.github.com/users/rom1504/followers",
                "following_url": "https://api.github.com/users/rom1504/following{/other_user}",
                "gists_url": "https://api.github.com/users/rom1504/gists{/gist_id}",
                "gravatar_id": "",
                "html_url": "https://github.com/rom1504",
                "id": 2346494,
                "login": "rom1504",
                "node_id": "MDQ6VXNlcjIzNDY0OTQ=",
                "organizations_url": "https://api.github.com/users/rom1504/orgs",
                "received_events_url": "https://api.github.com/users/rom1504/received_events",
                "repos_url": "https://api.github.com/users/rom1504/repos",
                "site_admin": false,
                "starred_url": "https://api.github.com/users/rom1504/starred{/owner}{/repo}",
                "subscriptions_url": "https://api.github.com/users/rom1504/subscriptions",
                "type": "User",
                "url": "https://api.github.com/users/rom1504"
            }
        }
    ],
    "comments": 1,
    "comments_url": "https://api.github.com/repos/PrismarineJS/prismarine-entity/issues/69/comments",
    "commit_data": [
        {
            "author": {
                "avatar_url": "https://avatars.githubusercontent.com/u/5100321?v=4",
                "events_url": "https://api.github.com/users/lkwilson/events{/privacy}",
                "followers_url": "https://api.github.com/users/lkwilson/followers",
                "following_url": "https://api.github.com/users/lkwilson/following{/other_user}",
                "gists_url": "https://api.github.com/users/lkwilson/gists{/gist_id}",
                "gravatar_id": "",
                "html_url": "https://github.com/lkwilson",
                "id": 5100321,
                "login": "lkwilson",
                "node_id": "MDQ6VXNlcjUxMDAzMjE=",
                "organizations_url": "https://api.github.com/users/lkwilson/orgs",
                "received_events_url": "https://api.github.com/users/lkwilson/received_events",
                "repos_url": "https://api.github.com/users/lkwilson/repos",
                "site_admin": false,
                "starred_url": "https://api.github.com/users/lkwilson/starred{/owner}{/repo}",
                "subscriptions_url": "https://api.github.com/users/lkwilson/subscriptions",
                "type": "User",
                "url": "https://api.github.com/users/lkwilson"
            },
            "comments_url": "https://api.github.com/repos/PrismarineJS/prismarine-entity/commits/efa6dc46700bde6c689fd9e3186962b7295cbd41/comments",
            "commit": {
                "author": {
                    "date": "2023-08-23T01:52:42Z",
                    "email": "lkwilson96@gmail.com",
                    "name": "Lucas Wilson"
                },
                "comment_count": 0,
                "committer": {
                    "date": "2023-08-24T14:24:38Z",
                    "email": "lkwilson96@gmail.com",
                    "name": "Lucas Wilson"
                },
                "message": "Add default elytra flying value",
                "tree": {
                    "sha": "488a9db6a57e4798787f110a3944331a4b576785",
                    "url": "https://api.github.com/repos/PrismarineJS/prismarine-entity/git/trees/488a9db6a57e4798787f110a3944331a4b576785"
                },
                "url": "https://api.github.com/repos/PrismarineJS/prismarine-entity/git/commits/efa6dc46700bde6c689fd9e3186962b7295cbd41",
                "verification": {
                    "payload": null,
                    "reason": "unsigned",
                    "signature": null,
                    "verified": false
                }
            },
            "committer": {
                "avatar_url": "https://avatars.githubusercontent.com/u/5100321?v=4",
                "events_url": "https://api.github.com/users/lkwilson/events{/privacy}",
                "followers_url": "https://api.github.com/users/lkwilson/followers",
                "following_url": "https://api.github.com/users/lkwilson/following{/other_user}",
                "gists_url": "https://api.github.com/users/lkwilson/gists{/gist_id}",
                "gravatar_id": "",
                "html_url": "https://github.com/lkwilson",
                "id": 5100321,
                "login": "lkwilson",
                "node_id": "MDQ6VXNlcjUxMDAzMjE=",
                "organizations_url": "https://api.github.com/users/lkwilson/orgs",
                "received_events_url": "https://api.github.com/users/lkwilson/received_events",
                "repos_url": "https://api.github.com/users/lkwilson/repos",
                "site_admin": false,
                "starred_url": "https://api.github.com/users/lkwilson/starred{/owner}{/repo}",
                "subscriptions_url": "https://api.github.com/users/lkwilson/subscriptions",
                "type": "User",
                "url": "https://api.github.com/users/lkwilson"
            },
            "html_url": "https://github.com/PrismarineJS/prismarine-entity/commit/efa6dc46700bde6c689fd9e3186962b7295cbd41",
            "node_id": "C_kwDOKKTbINoAKGVmYTZkYzQ2NzAwYmRlNmM2ODlmZDllMzE4Njk2MmI3Mjk1Y2JkNDE",
            "parents": [
                {
                    "html_url": "https://github.com/PrismarineJS/prismarine-entity/commit/b2f756de52fa7ceb2675fe9c2f950fa7398bc425",
                    "sha": "b2f756de52fa7ceb2675fe9c2f950fa7398bc425",
                    "url": "https://api.github.com/repos/PrismarineJS/prismarine-entity/commits/b2f756de52fa7ceb2675fe9c2f950fa7398bc425"
                }
            ],
            "sha": "efa6dc46700bde6c689fd9e3186962b7295cbd41",
            "url": "https://api.github.com/repos/PrismarineJS/prismarine-entity/commits/efa6dc46700bde6c689fd9e3186962b7295cbd41"
        }
    ],
    "commits": 1,
    "commits_url": "https://api.github.com/repos/PrismarineJS/prismarine-entity/pulls/69/commits",
    "created_at": "2023-08-24T13:57:25Z",
    "deletions": 0,
    "diff_url": "https://github.com/PrismarineJS/prismarine-entity/pull/69.diff",
    "draft": false,
    "head": {
        "label": "lkwilson:elytra-flying",
        "ref": "elytra-flying",
        "repo": {
            "allow_forking": true,
            "archive_url": "https://api.github.com/repos/lkwilson/prismarine-entity/{archive_format}{/ref}",
            "archived": false,
            "assignees_url": "https://api.github.com/repos/lkwilson/prismarine-entity/assignees{/user}",
            "blobs_url": "https://api.github.com/repos/lkwilson/prismarine-entity/git/blobs{/sha}",
            "branches_url": "https://api.github.com/repos/lkwilson/prismarine-entity/branches{/branch}",
            "clone_url": "https://github.com/lkwilson/prismarine-entity.git",
            "collaborators_url": "https://api.github.com/repos/lkwilson/prismarine-entity/collaborators{/collaborator}",
            "comments_url": "https://api.github.com/repos/lkwilson/prismarine-entity/comments{/number}",
            "commits_url": "https://api.github.com/repos/lkwilson/prismarine-entity/commits{/sha}",
            "compare_url": "https://api.github.com/repos/lkwilson/prismarine-entity/compare/{base}...{head}",
            "contents_url": "https://api.github.com/repos/lkwilson/prismarine-entity/contents/{+path}",
            "contributors_url": "https://api.github.com/repos/lkwilson/prismarine-entity/contributors",
            "created_at": "2023-08-23T01:51:04Z",
            "default_branch": "master",
            "deployments_url": "https://api.github.com/repos/lkwilson/prismarine-entity/deployments",
            "description": "Represent a minecraft entity",
            "disabled": false,
            "downloads_url": "https://api.github.com/repos/lkwilson/prismarine-entity/downloads",
            "events_url": "https://api.github.com/repos/lkwilson/prismarine-entity/events",
            "fork": true,
            "forks": 0,
            "forks_count": 0,
            "forks_url": "https://api.github.com/repos/lkwilson/prismarine-entity/forks",
            "full_name": "lkwilson/prismarine-entity",
            "git_commits_url": "https://api.github.com/repos/lkwilson/prismarine-entity/git/commits{/sha}",
            "git_refs_url": "https://api.github.com/repos/lkwilson/prismarine-entity/git/refs{/sha}",
            "git_tags_url": "https://api.github.com/repos/lkwilson/prismarine-entity/git/tags{/sha}",
            "git_url": "git://github.com/lkwilson/prismarine-entity.git",
            "has_discussions": false,
            "has_downloads": true,
            "has_issues": false,
            "has_pages": false,
            "has_projects": true,
            "has_wiki": true,
            "homepage": null,
            "hooks_url": "https://api.github.com/repos/lkwilson/prismarine-entity/hooks",
            "html_url": "https://github.com/lkwilson/prismarine-entity",
            "id": 681892640,
            "is_template": false,
            "issue_comment_url": "https://api.github.com/repos/lkwilson/prismarine-entity/issues/comments{/number}",
            "issue_events_url": "https://api.github.com/repos/lkwilson/prismarine-entity/issues/events{/number}",
            "issues_url": "https://api.github.com/repos/lkwilson/prismarine-entity/issues{/number}",
            "keys_url": "https://api.github.com/repos/lkwilson/prismarine-entity/keys{/key_id}",
            "labels_url": "https://api.github.com/repos/lkwilson/prismarine-entity/labels{/name}",
            "language": null,
            "languages_url": "https://api.github.com/repos/lkwilson/prismarine-entity/languages",
            "license": null,
            "merges_url": "https://api.github.com/repos/lkwilson/prismarine-entity/merges",
            "milestones_url": "https://api.github.com/repos/lkwilson/prismarine-entity/milestones{/number}",
            "mirror_url": null,
            "name": "prismarine-entity",
            "node_id": "R_kgDOKKTbIA",
            "notifications_url": "https://api.github.com/repos/lkwilson/prismarine-entity/notifications{?since,all,participating}",
            "open_issues": 0,
            "open_issues_count": 0,
            "owner": {
                "avatar_url": "https://avatars.githubusercontent.com/u/5100321?v=4",
                "events_url": "https://api.github.com/users/lkwilson/events{/privacy}",
                "followers_url": "https://api.github.com/users/lkwilson/followers",
                "following_url": "https://api.github.com/users/lkwilson/following{/other_user}",
                "gists_url": "https://api.github.com/users/lkwilson/gists{/gist_id}",
                "gravatar_id": "",
                "html_url": "https://github.com/lkwilson",
                "id": 5100321,
                "login": "lkwilson",
                "node_id": "MDQ6VXNlcjUxMDAzMjE=",
                "organizations_url": "https://api.github.com/users/lkwilson/orgs",
                "received_events_url": "https://api.github.com/users/lkwilson/received_events",
                "repos_url": "https://api.github.com/users/lkwilson/repos",
                "site_admin": false,
                "starred_url": "https://api.github.com/users/lkwilson/starred{/owner}{/repo}",
                "subscriptions_url": "https://api.github.com/users/lkwilson/subscriptions",
                "type": "User",
                "url": "https://api.github.com/users/lkwilson"
            },
            "private": false,
            "pulls_url": "https://api.github.com/repos/lkwilson/prismarine-entity/pulls{/number}",
            "pushed_at": "2023-08-26T14:14:40Z",
            "releases_url": "https://api.github.com/repos/lkwilson/prismarine-entity/releases{/id}",
            "size": 39,
            "ssh_url": "git@github.com:lkwilson/prismarine-entity.git",
            "stargazers_count": 0,
            "stargazers_url": "https://api.github.com/repos/lkwilson/prismarine-entity/stargazers",
            "statuses_url": "https://api.github.com/repos/lkwilson/prismarine-entity/statuses/{sha}",
            "subscribers_url": "https://api.github.com/repos/lkwilson/prismarine-entity/subscribers",
            "subscription_url": "https://api.github.com/repos/lkwilson/prismarine-entity/subscription",
            "svn_url": "https://github.com/lkwilson/prismarine-entity",
            "tags_url": "https://api.github.com/repos/lkwilson/prismarine-entity/tags",
            "teams_url": "https://api.github.com/repos/lkwilson/prismarine-entity/teams",
            "topics": [],
            "trees_url": "https://api.github.com/repos/lkwilson/prismarine-entity/git/trees{/sha}",
            "updated_at": "2023-08-23T01:51:05Z",
            "url": "https://api.github.com/repos/lkwilson/prismarine-entity",
            "visibility": "public",
            "watchers": 0,
            "watchers_count": 0,
            "web_commit_signoff_required": false
        },
        "sha": "efa6dc46700bde6c689fd9e3186962b7295cbd41",
        "user": {
            "avatar_url": "https://avatars.githubusercontent.com/u/5100321?v=4",
            "events_url": "https://api.github.com/users/lkwilson/events{/privacy}",
            "followers_url": "https://api.github.com/users/lkwilson/followers",
            "following_url": "https://api.github.com/users/lkwilson/following{/other_user}",
            "gists_url": "https://api.github.com/users/lkwilson/gists{/gist_id}",
            "gravatar_id": "",
            "html_url": "https://github.com/lkwilson",
            "id": 5100321,
            "login": "lkwilson",
            "node_id": "MDQ6VXNlcjUxMDAzMjE=",
            "organizations_url": "https://api.github.com/users/lkwilson/orgs",
            "received_events_url": "https://api.github.com/users/lkwilson/received_events",
            "repos_url": "https://api.github.com/users/lkwilson/repos",
            "site_admin": false,
            "starred_url": "https://api.github.com/users/lkwilson/starred{/owner}{/repo}",
            "subscriptions_url": "https://api.github.com/users/lkwilson/subscriptions",
            "type": "User",
            "url": "https://api.github.com/users/lkwilson"
        }
    },
    "html_url": "https://github.com/PrismarineJS/prismarine-entity/pull/69",
    "id": 1488103176,
    "issue_url": "https://api.github.com/repos/PrismarineJS/prismarine-entity/issues/69",
    "labels": [],
    "locked": false,
    "maintainer_can_modify": false,
    "merge_commit_sha": "f124abd47b42a908a676b91b0fcb55b1fd1a77b9",
    "mergeable": null,
    "mergeable_state": "unknown",
    "merged": true,
    "merged_at": "2023-08-25T20:29:39Z",
    "merged_by": {
        "avatar_url": "https://avatars.githubusercontent.com/u/2346494?v=4",
        "events_url": "https://api.github.com/users/rom1504/events{/privacy}",
        "followers_url": "https://api.github.com/users/rom1504/followers",
        "following_url": "https://api.github.com/users/rom1504/following{/other_user}",
        "gists_url": "https://api.github.com/users/rom1504/gists{/gist_id}",
        "gravatar_id": "",
        "html_url": "https://github.com/rom1504",
        "id": 2346494,
        "login": "rom1504",
        "node_id": "MDQ6VXNlcjIzNDY0OTQ=",
        "organizations_url": "https://api.github.com/users/rom1504/orgs",
        "received_events_url": "https://api.github.com/users/rom1504/received_events",
        "repos_url": "https://api.github.com/users/rom1504/repos",
        "site_admin": false,
        "starred_url": "https://api.github.com/users/rom1504/starred{/owner}{/repo}",
        "subscriptions_url": "https://api.github.com/users/rom1504/subscriptions",
        "type": "User",
        "url": "https://api.github.com/users/rom1504"
    },
    "milestone": null,
    "node_id": "PR_kwDOAntb9c5YsqcI",
    "number": 69,
    "patch_url": "https://github.com/PrismarineJS/prismarine-entity/pull/69.patch",
    "rebaseable": null,
    "requested_reviewers": [],
    "requested_teams": [],
    "review_comment_url": "https://api.github.com/repos/PrismarineJS/prismarine-entity/pulls/comments{/number}",
    "review_comments": 0,
    "review_comments_url": "https://api.github.com/repos/PrismarineJS/prismarine-entity/pulls/69/comments",
    "state": "closed",
    "statuses_url": "https://api.github.com/repos/PrismarineJS/prismarine-entity/statuses/efa6dc46700bde6c689fd9e3186962b7295cbd41",
    "title": "Add elytra flying property",
    "updated_at": "2023-08-26T14:14:41Z",
    "url": "https://api.github.com/repos/PrismarineJS/prismarine-entity/pulls/69",
    "user": {
        "avatar_url": "https://avatars.githubusercontent.com/u/5100321?v=4",
        "events_url": "https://api.github.com/users/lkwilson/events{/privacy}",
        "followers_url": "https://api.github.com/users/lkwilson/followers",
        "following_url": "https://api.github.com/users/lkwilson/following{/other_user}",
        "gists_url": "https://api.github.com/users/lkwilson/gists{/gist_id}",
        "gravatar_id": "",
        "html_url": "https://github.com/lkwilson",
        "id": 5100321,
        "login": "lkwilson",
        "node_id": "MDQ6VXNlcjUxMDAzMjE=",
        "organizations_url": "https://api.github.com/users/lkwilson/orgs",
        "received_events_url": "https://api.github.com/users/lkwilson/received_events",
        "repos_url": "https://api.github.com/users/lkwilson/repos",
        "site_admin": false,
        "starred_url": "https://api.github.com/users/lkwilson/starred{/owner}{/repo}",
        "subscriptions_url": "https://api.github.com/users/lkwilson/subscriptions",
        "type": "User",
        "url": "https://api.github.com/users/lkwilson"
    }
}