{
    "_links": {
        "comments": {
            "href": "https://api.github.com/repos/PrismarineJS/prismarine-registry/issues/20/comments"
        },
        "commits": {
            "href": "https://api.github.com/repos/PrismarineJS/prismarine-registry/pulls/20/commits"
        },
        "html": {
            "href": "https://github.com/PrismarineJS/prismarine-registry/pull/20"
        },
        "issue": {
            "href": "https://api.github.com/repos/PrismarineJS/prismarine-registry/issues/20"
        },
        "review_comment": {
            "href": "https://api.github.com/repos/PrismarineJS/prismarine-registry/pulls/comments{/number}"
        },
        "review_comments": {
            "href": "https://api.github.com/repos/PrismarineJS/prismarine-registry/pulls/20/comments"
        },
        "self": {
            "href": "https://api.github.com/repos/PrismarineJS/prismarine-registry/pulls/20"
        },
        "statuses": {
            "href": "https://api.github.com/repos/PrismarineJS/prismarine-registry/statuses/9e7f3faac5fa6815d7cf9705492f05f844ef390e"
        }
    },
    "active_lock_reason": null,
    "additions": 1,
    "assignee": null,
    "assignees": [],
    "author_association": "CONTRIBUTOR",
    "auto_merge": null,
    "base": {
        "label": "PrismarineJS:master",
        "ref": "master",
        "repo": {
            "allow_forking": true,
            "archive_url": "https://api.github.com/repos/PrismarineJS/prismarine-registry/{archive_format}{/ref}",
            "archived": false,
            "assignees_url": "https://api.github.com/repos/PrismarineJS/prismarine-registry/assignees{/user}",
            "blobs_url": "https://api.github.com/repos/PrismarineJS/prismarine-registry/git/blobs{/sha}",
            "branches_url": "https://api.github.com/repos/PrismarineJS/prismarine-registry/branches{/branch}",
            "clone_url": "https://github.com/PrismarineJS/prismarine-registry.git",
            "collaborators_url": "https://api.github.com/repos/PrismarineJS/prismarine-registry/collaborators{/collaborator}",
            "comments_url": "https://api.github.com/repos/PrismarineJS/prismarine-registry/comments{/number}",
            "commits_url": "https://api.github.com/repos/PrismarineJS/prismarine-registry/commits{/sha}",
            "compare_url": "https://api.github.com/repos/PrismarineJS/prismarine-registry/compare/{base}...{head}",
            "contents_url": "https://api.github.com/repos/PrismarineJS/prismarine-registry/contents/{+path}",
            "contributors_url": "https://api.github.com/repos/PrismarineJS/prismarine-registry/contributors",
            "created_at": "2022-01-03T18:51:08Z",
            "default_branch": "master",
            "deployments_url": "https://api.github.com/repos/PrismarineJS/prismarine-registry/deployments",
            "description": null,
            "disabled": false,
            "downloads_url": "https://api.github.com/repos/PrismarineJS/prismarine-registry/downloads",
            "events_url": "https://api.github.com/repos/PrismarineJS/prismarine-registry/events",
            "fork": false,
            "forks": 8,
            "forks_count": 8,
            "forks_url": "https://api.github.com/repos/PrismarineJS/prismarine-registry/forks",
            "full_name": "PrismarineJS/prismarine-registry",
            "git_commits_url": "https://api.github.com/repos/PrismarineJS/prismarine-registry/git/commits{/sha}",
            "git_refs_url": "https://api.github.com/repos/PrismarineJS/prismarine-registry/git/refs{/sha}",
            "git_tags_url": "https://api.github.com/repos/PrismarineJS/prismarine-registry/git/tags{/sha}",
            "git_url": "git://github.com/PrismarineJS/prismarine-registry.git",
            "has_discussions": false,
            "has_downloads": true,
            "has_issues": true,
            "has_pages": false,
            "has_projects": true,
            "has_wiki": true,
            "homepage": null,
            "hooks_url": "https://api.github.com/repos/PrismarineJS/prismarine-registry/hooks",
            "html_url": "https://github.com/PrismarineJS/prismarine-registry",
            "id": 444167260,
            "is_template": false,
            "issue_comment_url": "https://api.github.com/repos/PrismarineJS/prismarine-registry/issues/comments{/number}",
            "issue_events_url": "https://api.github.com/repos/PrismarineJS/prismarine-registry/issues/events{/number}",
            "issues_url": "https://api.github.com/repos/PrismarineJS/prismarine-registry/issues{/number}",
            "keys_url": "https://api.github.com/repos/PrismarineJS/prismarine-registry/keys{/key_id}",
            "labels_url": "https://api.github.com/repos/PrismarineJS/prismarine-registry/labels{/name}",
            "language": "JavaScript",
            "languages_url": "https://api.github.com/repos/PrismarineJS/prismarine-registry/languages",
            "license": {
                "key": "mit",
                "name": "MIT License",
                "node_id": "MDc6TGljZW5zZTEz",
                "spdx_id": "MIT",
                "url": "https://api.github.com/licenses/mit"
            },
            "merges_url": "https://api.github.com/repos/PrismarineJS/prismarine-registry/merges",
            "milestones_url": "https://api.github.com/repos/PrismarineJS/prismarine-registry/milestones{/number}",
            "mirror_url": null,
            "name": "prismarine-registry",
            "node_id": "R_kgDOGnl0XA",
            "notifications_url": "https://api.github.com/repos/PrismarineJS/prismarine-registry/notifications{?since,all,participating}",
            "open_issues": 7,
            "open_issues_count": 7,
            "owner": {
                "avatar_url": "https://avatars.githubusercontent.com/u/11053411?v=4",
                "events_url": "https://api.github.com/users/PrismarineJS/events{/privacy}",
                "followers_url": "https://api.github.com/users/PrismarineJS/followers",
                "following_url": "https://api.github.com/users/PrismarineJS/following{/other_user}",
                "gists_url": "https://api.github.com/users/PrismarineJS/gists{/gist_id}",
                "gravatar_id": "",
                "html_url": "https://github.com/PrismarineJS",
                "id": 11053411,
                "login": "PrismarineJS",
                "node_id": "MDEyOk9yZ2FuaXphdGlvbjExMDUzNDEx",
                "organizations_url": "https://api.github.com/users/PrismarineJS/orgs",
                "received_events_url": "https://api.github.com/users/PrismarineJS/received_events",
                "repos_url": "https://api.github.com/users/PrismarineJS/repos",
                "site_admin": false,
                "starred_url": "https://api.github.com/users/PrismarineJS/starred{/owner}{/repo}",
                "subscriptions_url": "https://api.github.com/users/PrismarineJS/subscriptions",
                "type": "Organization",
                "url": "https://api.github.com/users/PrismarineJS"
            },
            "private": false,
            "pulls_url": "https://api.github.com/repos/PrismarineJS/prismarine-registry/pulls{/number}",
            "pushed_at": "2023-03-27T21:16:02Z",
            "releases_url": "https://api.github.com/repos/PrismarineJS/prismarine-registry/releases{/id}",
            "size": 32,
            "ssh_url": "git@github.com:PrismarineJS/prismarine-registry.git",
            "stargazers_count": 0,
            "stargazers_url": "https://api.github.com/repos/PrismarineJS/prismarine-registry/stargazers",
            "statuses_url": "https://api.github.com/repos/PrismarineJS/prismarine-registry/statuses/{sha}",
            "subscribers_url": "https://api.github.com/repos/PrismarineJS/prismarine-registry/subscribers",
            "subscription_url": "https://api.github.com/repos/PrismarineJS/prismarine-registry/subscription",
            "svn_url": "https://github.com/PrismarineJS/prismarine-registry",
            "tags_url": "https://api.github.com/repos/PrismarineJS/prismarine-registry/tags",
            "teams_url": "https://api.github.com/repos/PrismarineJS/prismarine-registry/teams",
            "topics": [],
            "trees_url": "https://api.github.com/repos/PrismarineJS/prismarine-registry/git/trees{/sha}",
            "updated_at": "2022-01-13T14:28:29Z",
            "url": "https://api.github.com/repos/PrismarineJS/prismarine-registry",
            "visibility": "public",
            "watchers": 0,
            "watchers_count": 0,
            "web_commit_signoff_required": false
        },
        "sha": "e9315e6037950c487f4443bcead09da237bb93d6",
        "user": {
            "avatar_url": "https://avatars.githubusercontent.com/u/11053411?v=4",
            "events_url": "https://api.github.com/users/PrismarineJS/events{/privacy}",
            "followers_url": "https://api.github.com/users/PrismarineJS/followers",
            "following_url": "https://api.github.com/users/PrismarineJS/following{/other_user}",
            "gists_url": "https://api.github.com/users/PrismarineJS/gists{/gist_id}",
            "gravatar_id": "",
            "html_url": "https://github.com/PrismarineJS",
            "id": 11053411,
            "login": "PrismarineJS",
            "node_id": "MDEyOk9yZ2FuaXphdGlvbjExMDUzNDEx",
            "organizations_url": "https://api.github.com/users/PrismarineJS/orgs",
            "received_events_url": "https://api.github.com/users/PrismarineJS/received_events",
            "repos_url": "https://api.github.com/users/PrismarineJS/repos",
            "site_admin": false,
            "starred_url": "https://api.github.com/users/PrismarineJS/starred{/owner}{/repo}",
            "subscriptions_url": "https://api.github.com/users/PrismarineJS/subscriptions",
            "type": "Organization",
            "url": "https://api.github.com/users/PrismarineJS"
        }
    },
    "body": "format changed to no longer be within decoration, now one level higher",
    "changed_files": 1,
    "closed_at": "2022-11-20T00:45:45Z",
    "comment_data": [],
    "comment_regular_data": [],
    "comments": 0,
    "comments_url": "https://api.github.com/repos/PrismarineJS/prismarine-registry/issues/20/comments",
    "commit_data": [
        {
            "author": null,
            "comments_url": "https://api.github.com/repos/PrismarineJS/prismarine-registry/commits/9e7f3faac5fa6815d7cf9705492f05f844ef390e/comments",
            "commit": {
                "author": {
                    "date": "2022-10-30T02:31:39Z",
                    "email": "jtsiskin@fb.com",
                    "name": "Jared Siskin"
                },
                "comment_count": 0,
                "committer": {
                    "date": "2022-10-30T02:31:39Z",
                    "email": "jtsiskin@fb.com",
                    "name": "Jared Siskin"
                },
                "message": "Update for 1.19.2",
                "tree": {
                    "sha": "4158ffa62b422d054a674e2a0ab63326dc98f4af",
                    "url": "https://api.github.com/repos/PrismarineJS/prismarine-registry/git/trees/4158ffa62b422d054a674e2a0ab63326dc98f4af"
                },
                "url": "https://api.github.com/repos/PrismarineJS/prismarine-registry/git/commits/9e7f3faac5fa6815d7cf9705492f05f844ef390e",
                "verification": {
                    "payload": null,
                    "reason": "unsigned",
                    "signature": null,
                    "verified": false
                }
            },
            "committer": null,
            "html_url": "https://github.com/PrismarineJS/prismarine-registry/commit/9e7f3faac5fa6815d7cf9705492f05f844ef390e",
            "node_id": "C_kwDOIVfvbtoAKDllN2YzZmFhYzVmYTY4MTVkN2NmOTcwNTQ5MmYwNWY4NDRlZjM5MGU",
            "parents": [
                {
                    "html_url": "https://github.com/PrismarineJS/prismarine-registry/commit/e9315e6037950c487f4443bcead09da237bb93d6",
                    "sha": "e9315e6037950c487f4443bcead09da237bb93d6",
                    "url": "https://api.github.com/repos/PrismarineJS/prismarine-registry/commits/e9315e6037950c487f4443bcead09da237bb93d6"
                }
            ],
            "sha": "9e7f3faac5fa6815d7cf9705492f05f844ef390e",
            "url": "https://api.github.com/repos/PrismarineJS/prismarine-registry/commits/9e7f3faac5fa6815d7cf9705492f05f844ef390e"
        }
    ],
    "commits": 1,
    "commits_url": "https://api.github.com/repos/PrismarineJS/prismarine-registry/pulls/20/commits",
    "created_at": "2022-10-30T02:53:16Z",
    "deletions": 1,
    "diff_url": "https://github.com/PrismarineJS/prismarine-registry/pull/20.diff",
    "draft": false,
    "head": {
        "label": "jtsiskin:master",
        "ref": "master",
        "repo": {
            "allow_forking": true,
            "archive_url": "https://api.github.com/repos/jtsiskin/prismarine-registry/{archive_format}{/ref}",
            "archived": false,
            "assignees_url": "https://api.github.com/repos/jtsiskin/prismarine-registry/assignees{/user}",
            "blobs_url": "https://api.github.com/repos/jtsiskin/prismarine-registry/git/blobs{/sha}",
            "branches_url": "https://api.github.com/repos/jtsiskin/prismarine-registry/branches{/branch}",
            "clone_url": "https://github.com/jtsiskin/prismarine-registry.git",
            "collaborators_url": "https://api.github.com/repos/jtsiskin/prismarine-registry/collaborators{/collaborator}",
            "comments_url": "https://api.github.com/repos/jtsiskin/prismarine-registry/comments{/number}",
            "commits_url": "https://api.github.com/repos/jtsiskin/prismarine-registry/commits{/sha}",
            "compare_url": "https://api.github.com/repos/jtsiskin/prismarine-registry/compare/{base}...{head}",
            "contents_url": "https://api.github.com/repos/jtsiskin/prismarine-registry/contents/{+path}",
            "contributors_url": "https://api.github.com/repos/jtsiskin/prismarine-registry/contributors",
            "created_at": "2022-10-30T02:51:10Z",
            "default_branch": "master",
            "deployments_url": "https://api.github.com/repos/jtsiskin/prismarine-registry/deployments",
            "description": null,
            "disabled": false,
            "downloads_url": "https://api.github.com/repos/jtsiskin/prismarine-registry/downloads",
            "events_url": "https://api.github.com/repos/jtsiskin/prismarine-registry/events",
            "fork": true,
            "forks": 0,
            "forks_count": 0,
            "forks_url": "https://api.github.com/repos/jtsiskin/prismarine-registry/forks",
            "full_name": "jtsiskin/prismarine-registry",
            "git_commits_url": "https://api.github.com/repos/jtsiskin/prismarine-registry/git/commits{/sha}",
            "git_refs_url": "https://api.github.com/repos/jtsiskin/prismarine-registry/git/refs{/sha}",
            "git_tags_url": "https://api.github.com/repos/jtsiskin/prismarine-registry/git/tags{/sha}",
            "git_url": "git://github.com/jtsiskin/prismarine-registry.git",
            "has_discussions": false,
            "has_downloads": true,
            "has_issues": false,
            "has_pages": false,
            "has_projects": true,
            "has_wiki": true,
            "homepage": null,
            "hooks_url": "https://api.github.com/repos/jtsiskin/prismarine-registry/hooks",
            "html_url": "https://github.com/jtsiskin/prismarine-registry",
            "id": 559411054,
            "is_template": false,
            "issue_comment_url": "https://api.github.com/repos/jtsiskin/prismarine-registry/issues/comments{/number}",
            "issue_events_url": "https://api.github.com/repos/jtsiskin/prismarine-registry/issues/events{/number}",
            "issues_url": "https://api.github.com/repos/jtsiskin/prismarine-registry/issues{/number}",
            "keys_url": "https://api.github.com/repos/jtsiskin/prismarine-registry/keys{/key_id}",
            "labels_url": "https://api.github.com/repos/jtsiskin/prismarine-registry/labels{/name}",
            "language": "JavaScript",
            "languages_url": "https://api.github.com/repos/jtsiskin/prismarine-registry/languages",
            "license": {
                "key": "mit",
                "name": "MIT License",
                "node_id": "MDc6TGljZW5zZTEz",
                "spdx_id": "MIT",
                "url": "https://api.github.com/licenses/mit"
            },
            "merges_url": "https://api.github.com/repos/jtsiskin/prismarine-registry/merges",
            "milestones_url": "https://api.github.com/repos/jtsiskin/prismarine-registry/milestones{/number}",
            "mirror_url": null,
            "name": "prismarine-registry",
            "node_id": "R_kgDOIVfvbg",
            "notifications_url": "https://api.github.com/repos/jtsiskin/prismarine-registry/notifications{?since,all,participating}",
            "open_issues": 0,
            "open_issues_count": 0,
            "owner": {
                "avatar_url": "https://avatars.githubusercontent.com/u/11904459?v=4",
                "events_url": "https://api.github.com/users/jtsiskin/events{/privacy}",
                "followers_url": "https://api.github.com/users/jtsiskin/followers",
                "following_url": "https://api.github.com/users/jtsiskin/following{/other_user}",
                "gists_url": "https://api.github.com/users/jtsiskin/gists{/gist_id}",
                "gravatar_id": "",
                "html_url": "https://github.com/jtsiskin",
                "id": 11904459,
                "login": "jtsiskin",
                "node_id": "MDQ6VXNlcjExOTA0NDU5",
                "organizations_url": "https://api.github.com/users/jtsiskin/orgs",
                "received_events_url": "https://api.github.com/users/jtsiskin/received_events",
                "repos_url": "https://api.github.com/users/jtsiskin/repos",
                "site_admin": false,
                "starred_url": "https://api.github.com/users/jtsiskin/starred{/owner}{/repo}",
                "subscriptions_url": "https://api.github.com/users/jtsiskin/subscriptions",
                "type": "User",
                "url": "https://api.github.com/users/jtsiskin"
            },
            "private": false,
            "pulls_url": "https://api.github.com/repos/jtsiskin/prismarine-registry/pulls{/number}",
            "pushed_at": "2022-10-30T02:51:48Z",
            "releases_url": "https://api.github.com/repos/jtsiskin/prismarine-registry/releases{/id}",
            "size": 27,
            "ssh_url": "git@github.com:jtsiskin/prismarine-registry.git",
            "stargazers_count": 0,
            "stargazers_url": "https://api.github.com/repos/jtsiskin/prismarine-registry/stargazers",
            "statuses_url": "https://api.github.com/repos/jtsiskin/prismarine-registry/statuses/{sha}",
            "subscribers_url": "https://api.github.com/repos/jtsiskin/prismarine-registry/subscribers",
            "subscription_url": "https://api.github.com/repos/jtsiskin/prismarine-registry/subscription",
            "svn_url": "https://github.com/jtsiskin/prismarine-registry",
            "tags_url": "https://api.github.com/repos/jtsiskin/prismarine-registry/tags",
            "teams_url": "https://api.github.com/repos/jtsiskin/prismarine-registry/teams",
            "topics": [],
            "trees_url": "https://api.github.com/repos/jtsiskin/prismarine-registry/git/trees{/sha}",
            "updated_at": "2022-10-30T02:51:52Z",
            "url": "https://api.github.com/repos/jtsiskin/prismarine-registry",
            "visibility": "public",
            "watchers": 0,
            "watchers_count": 0,
            "web_commit_signoff_required": false
        },
        "sha": "9e7f3faac5fa6815d7cf9705492f05f844ef390e",
        "user": {
            "avatar_url": "https://avatars.githubusercontent.com/u/11904459?v=4",
            "events_url": "https://api.github.com/users/jtsiskin/events{/privacy}",
            "followers_url": "https://api.github.com/users/jtsiskin/followers",
            "following_url": "https://api.github.com/users/jtsiskin/following{/other_user}",
            "gists_url": "https://api.github.com/users/jtsiskin/gists{/gist_id}",
            "gravatar_id": "",
            "html_url": "https://github.com/jtsiskin",
            "id": 11904459,
            "login": "jtsiskin",
            "node_id": "MDQ6VXNlcjExOTA0NDU5",
            "organizations_url": "https://api.github.com/users/jtsiskin/orgs",
            "received_events_url": "https://api.github.com/users/jtsiskin/received_events",
            "repos_url": "https://api.github.com/users/jtsiskin/repos",
            "site_admin": false,
            "starred_url": "https://api.github.com/users/jtsiskin/starred{/owner}{/repo}",
            "subscriptions_url": "https://api.github.com/users/jtsiskin/subscriptions",
            "type": "User",
            "url": "https://api.github.com/users/jtsiskin"
        }
    },
    "html_url": "https://github.com/PrismarineJS/prismarine-registry/pull/20",
    "id": 1104237742,
    "issue_url": "https://api.github.com/repos/PrismarineJS/prismarine-registry/issues/20",
    "labels": [],
    "locked": false,
    "maintainer_can_modify": false,
    "merge_commit_sha": "5c23c3046d21f89ba2d8e7c58ff9439148f046ab",
    "mergeable": null,
    "mergeable_state": "unknown",
    "merged": true,
    "merged_at": "2022-11-20T00:45:45Z",
    "merged_by": {
        "avatar_url": "https://avatars.githubusercontent.com/u/2346494?v=4",
        "events_url": "https://api.github.com/users/rom1504/events{/privacy}",
        "followers_url": "https://api.github.com/users/rom1504/followers",
        "following_url": "https://api.github.com/users/rom1504/following{/other_user}",
        "gists_url": "https://api.github.com/users/rom1504/gists{/gist_id}",
        "gravatar_id": "",
        "html_url": "https://github.com/rom1504",
        "id": 2346494,
        "login": "rom1504",
        "node_id": "MDQ6VXNlcjIzNDY0OTQ=",
        "organizations_url": "https://api.github.com/users/rom1504/orgs",
        "received_events_url": "https://api.github.com/users/rom1504/received_events",
        "repos_url": "https://api.github.com/users/rom1504/repos",
        "site_admin": false,
        "starred_url": "https://api.github.com/users/rom1504/starred{/owner}{/repo}",
        "subscriptions_url": "https://api.github.com/users/rom1504/subscriptions",
        "type": "User",
        "url": "https://api.github.com/users/rom1504"
    },
    "milestone": null,
    "node_id": "PR_kwDOGnl0XM5B0VSu",
    "number": 20,
    "patch_url": "https://github.com/PrismarineJS/prismarine-registry/pull/20.patch",
    "rebaseable": null,
    "requested_reviewers": [],
    "requested_teams": [],
    "review_comment_url": "https://api.github.com/repos/PrismarineJS/prismarine-registry/pulls/comments{/number}",
    "review_comments": 0,
    "review_comments_url": "https://api.github.com/repos/PrismarineJS/prismarine-registry/pulls/20/comments",
    "state": "closed",
    "statuses_url": "https://api.github.com/repos/PrismarineJS/prismarine-registry/statuses/9e7f3faac5fa6815d7cf9705492f05f844ef390e",
    "title": "Update to support validating 1.19.2 minecraft-data protocol.json",
    "updated_at": "2022-11-20T00:45:46Z",
    "url": "https://api.github.com/repos/PrismarineJS/prismarine-registry/pulls/20",
    "user": {
        "avatar_url": "https://avatars.githubusercontent.com/u/11904459?v=4",
        "events_url": "https://api.github.com/users/jtsiskin/events{/privacy}",
        "followers_url": "https://api.github.com/users/jtsiskin/followers",
        "following_url": "https://api.github.com/users/jtsiskin/following{/other_user}",
        "gists_url": "https://api.github.com/users/jtsiskin/gists{/gist_id}",
        "gravatar_id": "",
        "html_url": "https://github.com/jtsiskin",
        "id": 11904459,
        "login": "jtsiskin",
        "node_id": "MDQ6VXNlcjExOTA0NDU5",
        "organizations_url": "https://api.github.com/users/jtsiskin/orgs",
        "received_events_url": "https://api.github.com/users/jtsiskin/received_events",
        "repos_url": "https://api.github.com/users/jtsiskin/repos",
        "site_admin": false,
        "starred_url": "https://api.github.com/users/jtsiskin/starred{/owner}{/repo}",
        "subscriptions_url": "https://api.github.com/users/jtsiskin/subscriptions",
        "type": "User",
        "url": "https://api.github.com/users/jtsiskin"
    }
}