{
    "_links": {
        "comments": {
            "href": "https://api.github.com/repos/PrismarineJS/prismarine-registry/issues/30/comments"
        },
        "commits": {
            "href": "https://api.github.com/repos/PrismarineJS/prismarine-registry/pulls/30/commits"
        },
        "html": {
            "href": "https://github.com/PrismarineJS/prismarine-registry/pull/30"
        },
        "issue": {
            "href": "https://api.github.com/repos/PrismarineJS/prismarine-registry/issues/30"
        },
        "review_comment": {
            "href": "https://api.github.com/repos/PrismarineJS/prismarine-registry/pulls/comments{/number}"
        },
        "review_comments": {
            "href": "https://api.github.com/repos/PrismarineJS/prismarine-registry/pulls/30/comments"
        },
        "self": {
            "href": "https://api.github.com/repos/PrismarineJS/prismarine-registry/pulls/30"
        },
        "statuses": {
            "href": "https://api.github.com/repos/PrismarineJS/prismarine-registry/statuses/ccaca6c17a2c4cb0b735c565b29e7be92837b5f0"
        }
    },
    "active_lock_reason": null,
    "additions": 2,
    "assignee": null,
    "assignees": [],
    "author_association": "CONTRIBUTOR",
    "auto_merge": null,
    "base": {
        "label": "PrismarineJS:master",
        "ref": "master",
        "repo": {
            "allow_forking": true,
            "archive_url": "https://api.github.com/repos/PrismarineJS/prismarine-registry/{archive_format}{/ref}",
            "archived": false,
            "assignees_url": "https://api.github.com/repos/PrismarineJS/prismarine-registry/assignees{/user}",
            "blobs_url": "https://api.github.com/repos/PrismarineJS/prismarine-registry/git/blobs{/sha}",
            "branches_url": "https://api.github.com/repos/PrismarineJS/prismarine-registry/branches{/branch}",
            "clone_url": "https://github.com/PrismarineJS/prismarine-registry.git",
            "collaborators_url": "https://api.github.com/repos/PrismarineJS/prismarine-registry/collaborators{/collaborator}",
            "comments_url": "https://api.github.com/repos/PrismarineJS/prismarine-registry/comments{/number}",
            "commits_url": "https://api.github.com/repos/PrismarineJS/prismarine-registry/commits{/sha}",
            "compare_url": "https://api.github.com/repos/PrismarineJS/prismarine-registry/compare/{base}...{head}",
            "contents_url": "https://api.github.com/repos/PrismarineJS/prismarine-registry/contents/{+path}",
            "contributors_url": "https://api.github.com/repos/PrismarineJS/prismarine-registry/contributors",
            "created_at": "2022-01-03T18:51:08Z",
            "default_branch": "master",
            "deployments_url": "https://api.github.com/repos/PrismarineJS/prismarine-registry/deployments",
            "description": null,
            "disabled": false,
            "downloads_url": "https://api.github.com/repos/PrismarineJS/prismarine-registry/downloads",
            "events_url": "https://api.github.com/repos/PrismarineJS/prismarine-registry/events",
            "fork": false,
            "forks": 8,
            "forks_count": 8,
            "forks_url": "https://api.github.com/repos/PrismarineJS/prismarine-registry/forks",
            "full_name": "PrismarineJS/prismarine-registry",
            "git_commits_url": "https://api.github.com/repos/PrismarineJS/prismarine-registry/git/commits{/sha}",
            "git_refs_url": "https://api.github.com/repos/PrismarineJS/prismarine-registry/git/refs{/sha}",
            "git_tags_url": "https://api.github.com/repos/PrismarineJS/prismarine-registry/git/tags{/sha}",
            "git_url": "git://github.com/PrismarineJS/prismarine-registry.git",
            "has_discussions": false,
            "has_downloads": true,
            "has_issues": true,
            "has_pages": false,
            "has_projects": true,
            "has_wiki": true,
            "homepage": null,
            "hooks_url": "https://api.github.com/repos/PrismarineJS/prismarine-registry/hooks",
            "html_url": "https://github.com/PrismarineJS/prismarine-registry",
            "id": 444167260,
            "is_template": false,
            "issue_comment_url": "https://api.github.com/repos/PrismarineJS/prismarine-registry/issues/comments{/number}",
            "issue_events_url": "https://api.github.com/repos/PrismarineJS/prismarine-registry/issues/events{/number}",
            "issues_url": "https://api.github.com/repos/PrismarineJS/prismarine-registry/issues{/number}",
            "keys_url": "https://api.github.com/repos/PrismarineJS/prismarine-registry/keys{/key_id}",
            "labels_url": "https://api.github.com/repos/PrismarineJS/prismarine-registry/labels{/name}",
            "language": "JavaScript",
            "languages_url": "https://api.github.com/repos/PrismarineJS/prismarine-registry/languages",
            "license": {
                "key": "mit",
                "name": "MIT License",
                "node_id": "MDc6TGljZW5zZTEz",
                "spdx_id": "MIT",
                "url": "https://api.github.com/licenses/mit"
            },
            "merges_url": "https://api.github.com/repos/PrismarineJS/prismarine-registry/merges",
            "milestones_url": "https://api.github.com/repos/PrismarineJS/prismarine-registry/milestones{/number}",
            "mirror_url": null,
            "name": "prismarine-registry",
            "node_id": "R_kgDOGnl0XA",
            "notifications_url": "https://api.github.com/repos/PrismarineJS/prismarine-registry/notifications{?since,all,participating}",
            "open_issues": 7,
            "open_issues_count": 7,
            "owner": {
                "avatar_url": "https://avatars.githubusercontent.com/u/11053411?v=4",
                "events_url": "https://api.github.com/users/PrismarineJS/events{/privacy}",
                "followers_url": "https://api.github.com/users/PrismarineJS/followers",
                "following_url": "https://api.github.com/users/PrismarineJS/following{/other_user}",
                "gists_url": "https://api.github.com/users/PrismarineJS/gists{/gist_id}",
                "gravatar_id": "",
                "html_url": "https://github.com/PrismarineJS",
                "id": 11053411,
                "login": "PrismarineJS",
                "node_id": "MDEyOk9yZ2FuaXphdGlvbjExMDUzNDEx",
                "organizations_url": "https://api.github.com/users/PrismarineJS/orgs",
                "received_events_url": "https://api.github.com/users/PrismarineJS/received_events",
                "repos_url": "https://api.github.com/users/PrismarineJS/repos",
                "site_admin": false,
                "starred_url": "https://api.github.com/users/PrismarineJS/starred{/owner}{/repo}",
                "subscriptions_url": "https://api.github.com/users/PrismarineJS/subscriptions",
                "type": "Organization",
                "url": "https://api.github.com/users/PrismarineJS"
            },
            "private": false,
            "pulls_url": "https://api.github.com/repos/PrismarineJS/prismarine-registry/pulls{/number}",
            "pushed_at": "2023-05-20T13:05:22Z",
            "releases_url": "https://api.github.com/repos/PrismarineJS/prismarine-registry/releases{/id}",
            "size": 33,
            "ssh_url": "git@github.com:PrismarineJS/prismarine-registry.git",
            "stargazers_count": 0,
            "stargazers_url": "https://api.github.com/repos/PrismarineJS/prismarine-registry/stargazers",
            "statuses_url": "https://api.github.com/repos/PrismarineJS/prismarine-registry/statuses/{sha}",
            "subscribers_url": "https://api.github.com/repos/PrismarineJS/prismarine-registry/subscribers",
            "subscription_url": "https://api.github.com/repos/PrismarineJS/prismarine-registry/subscription",
            "svn_url": "https://github.com/PrismarineJS/prismarine-registry",
            "tags_url": "https://api.github.com/repos/PrismarineJS/prismarine-registry/tags",
            "teams_url": "https://api.github.com/repos/PrismarineJS/prismarine-registry/teams",
            "topics": [],
            "trees_url": "https://api.github.com/repos/PrismarineJS/prismarine-registry/git/trees{/sha}",
            "updated_at": "2022-01-13T14:28:29Z",
            "url": "https://api.github.com/repos/PrismarineJS/prismarine-registry",
            "visibility": "public",
            "watchers": 0,
            "watchers_count": 0,
            "web_commit_signoff_required": false
        },
        "sha": "aa79776e7ff7c15ca68d9ea1d9d61869abce33ca",
        "user": {
            "avatar_url": "https://avatars.githubusercontent.com/u/11053411?v=4",
            "events_url": "https://api.github.com/users/PrismarineJS/events{/privacy}",
            "followers_url": "https://api.github.com/users/PrismarineJS/followers",
            "following_url": "https://api.github.com/users/PrismarineJS/following{/other_user}",
            "gists_url": "https://api.github.com/users/PrismarineJS/gists{/gist_id}",
            "gravatar_id": "",
            "html_url": "https://github.com/PrismarineJS",
            "id": 11053411,
            "login": "PrismarineJS",
            "node_id": "MDEyOk9yZ2FuaXphdGlvbjExMDUzNDEx",
            "organizations_url": "https://api.github.com/users/PrismarineJS/orgs",
            "received_events_url": "https://api.github.com/users/PrismarineJS/received_events",
            "repos_url": "https://api.github.com/users/PrismarineJS/repos",
            "site_admin": false,
            "starred_url": "https://api.github.com/users/PrismarineJS/starred{/owner}{/repo}",
            "subscriptions_url": "https://api.github.com/users/PrismarineJS/subscriptions",
            "type": "Organization",
            "url": "https://api.github.com/users/PrismarineJS"
        }
    },
    "body": null,
    "changed_files": 1,
    "closed_at": "2023-05-20T13:05:22Z",
    "comment_data": [],
    "comment_regular_data": [],
    "comments": 0,
    "comments_url": "https://api.github.com/repos/PrismarineJS/prismarine-registry/issues/30/comments",
    "commit_data": [
        {
            "author": null,
            "comments_url": "https://api.github.com/repos/PrismarineJS/prismarine-registry/commits/ccaca6c17a2c4cb0b735c565b29e7be92837b5f0/comments",
            "commit": {
                "author": {
                    "date": "2023-05-19T15:41:03Z",
                    "email": "frej@valoks.com",
                    "name": "Frej Alexander Nielsen"
                },
                "comment_count": 0,
                "committer": {
                    "date": "2023-05-19T15:41:03Z",
                    "email": "frej@valoks.com",
                    "name": "Frej Alexander Nielsen"
                },
                "message": "Add style to chatFormattingById",
                "tree": {
                    "sha": "dc40792728c7fae4c56e8899d73b5ab1ebf4a70d",
                    "url": "https://api.github.com/repos/PrismarineJS/prismarine-registry/git/trees/dc40792728c7fae4c56e8899d73b5ab1ebf4a70d"
                },
                "url": "https://api.github.com/repos/PrismarineJS/prismarine-registry/git/commits/ccaca6c17a2c4cb0b735c565b29e7be92837b5f0",
                "verification": {
                    "payload": null,
                    "reason": "unsigned",
                    "signature": null,
                    "verified": false
                }
            },
            "committer": null,
            "html_url": "https://github.com/PrismarineJS/prismarine-registry/commit/ccaca6c17a2c4cb0b735c565b29e7be92837b5f0",
            "node_id": "C_kwDOJlHTy9oAKGNjYWNhNmMxN2EyYzRjYjBiNzM1YzU2NWIyOWU3YmU5MjgzN2I1ZjA",
            "parents": [
                {
                    "html_url": "https://github.com/PrismarineJS/prismarine-registry/commit/aa79776e7ff7c15ca68d9ea1d9d61869abce33ca",
                    "sha": "aa79776e7ff7c15ca68d9ea1d9d61869abce33ca",
                    "url": "https://api.github.com/repos/PrismarineJS/prismarine-registry/commits/aa79776e7ff7c15ca68d9ea1d9d61869abce33ca"
                }
            ],
            "sha": "ccaca6c17a2c4cb0b735c565b29e7be92837b5f0",
            "url": "https://api.github.com/repos/PrismarineJS/prismarine-registry/commits/ccaca6c17a2c4cb0b735c565b29e7be92837b5f0"
        }
    ],
    "commits": 1,
    "commits_url": "https://api.github.com/repos/PrismarineJS/prismarine-registry/pulls/30/commits",
    "created_at": "2023-05-19T15:41:09Z",
    "deletions": 1,
    "diff_url": "https://github.com/PrismarineJS/prismarine-registry/pull/30.diff",
    "draft": false,
    "head": {
        "label": "frej4189:master",
        "ref": "master",
        "repo": {
            "allow_forking": true,
            "archive_url": "https://api.github.com/repos/frej4189/prismarine-registry/{archive_format}{/ref}",
            "archived": false,
            "assignees_url": "https://api.github.com/repos/frej4189/prismarine-registry/assignees{/user}",
            "blobs_url": "https://api.github.com/repos/frej4189/prismarine-registry/git/blobs{/sha}",
            "branches_url": "https://api.github.com/repos/frej4189/prismarine-registry/branches{/branch}",
            "clone_url": "https://github.com/frej4189/prismarine-registry.git",
            "collaborators_url": "https://api.github.com/repos/frej4189/prismarine-registry/collaborators{/collaborator}",
            "comments_url": "https://api.github.com/repos/frej4189/prismarine-registry/comments{/number}",
            "commits_url": "https://api.github.com/repos/frej4189/prismarine-registry/commits{/sha}",
            "compare_url": "https://api.github.com/repos/frej4189/prismarine-registry/compare/{base}...{head}",
            "contents_url": "https://api.github.com/repos/frej4189/prismarine-registry/contents/{+path}",
            "contributors_url": "https://api.github.com/repos/frej4189/prismarine-registry/contributors",
            "created_at": "2023-05-19T15:38:21Z",
            "default_branch": "master",
            "deployments_url": "https://api.github.com/repos/frej4189/prismarine-registry/deployments",
            "description": null,
            "disabled": false,
            "downloads_url": "https://api.github.com/repos/frej4189/prismarine-registry/downloads",
            "events_url": "https://api.github.com/repos/frej4189/prismarine-registry/events",
            "fork": true,
            "forks": 0,
            "forks_count": 0,
            "forks_url": "https://api.github.com/repos/frej4189/prismarine-registry/forks",
            "full_name": "frej4189/prismarine-registry",
            "git_commits_url": "https://api.github.com/repos/frej4189/prismarine-registry/git/commits{/sha}",
            "git_refs_url": "https://api.github.com/repos/frej4189/prismarine-registry/git/refs{/sha}",
            "git_tags_url": "https://api.github.com/repos/frej4189/prismarine-registry/git/tags{/sha}",
            "git_url": "git://github.com/frej4189/prismarine-registry.git",
            "has_discussions": false,
            "has_downloads": true,
            "has_issues": false,
            "has_pages": false,
            "has_projects": true,
            "has_wiki": true,
            "homepage": null,
            "hooks_url": "https://api.github.com/repos/frej4189/prismarine-registry/hooks",
            "html_url": "https://github.com/frej4189/prismarine-registry",
            "id": 642896843,
            "is_template": false,
            "issue_comment_url": "https://api.github.com/repos/frej4189/prismarine-registry/issues/comments{/number}",
            "issue_events_url": "https://api.github.com/repos/frej4189/prismarine-registry/issues/events{/number}",
            "issues_url": "https://api.github.com/repos/frej4189/prismarine-registry/issues{/number}",
            "keys_url": "https://api.github.com/repos/frej4189/prismarine-registry/keys{/key_id}",
            "labels_url": "https://api.github.com/repos/frej4189/prismarine-registry/labels{/name}",
            "language": "JavaScript",
            "languages_url": "https://api.github.com/repos/frej4189/prismarine-registry/languages",
            "license": {
                "key": "mit",
                "name": "MIT License",
                "node_id": "MDc6TGljZW5zZTEz",
                "spdx_id": "MIT",
                "url": "https://api.github.com/licenses/mit"
            },
            "merges_url": "https://api.github.com/repos/frej4189/prismarine-registry/merges",
            "milestones_url": "https://api.github.com/repos/frej4189/prismarine-registry/milestones{/number}",
            "mirror_url": null,
            "name": "prismarine-registry",
            "node_id": "R_kgDOJlHTyw",
            "notifications_url": "https://api.github.com/repos/frej4189/prismarine-registry/notifications{?since,all,participating}",
            "open_issues": 0,
            "open_issues_count": 0,
            "owner": {
                "avatar_url": "https://avatars.githubusercontent.com/u/13559737?v=4",
                "events_url": "https://api.github.com/users/frej4189/events{/privacy}",
                "followers_url": "https://api.github.com/users/frej4189/followers",
                "following_url": "https://api.github.com/users/frej4189/following{/other_user}",
                "gists_url": "https://api.github.com/users/frej4189/gists{/gist_id}",
                "gravatar_id": "",
                "html_url": "https://github.com/frej4189",
                "id": 13559737,
                "login": "frej4189",
                "node_id": "MDQ6VXNlcjEzNTU5NzM3",
                "organizations_url": "https://api.github.com/users/frej4189/orgs",
                "received_events_url": "https://api.github.com/users/frej4189/received_events",
                "repos_url": "https://api.github.com/users/frej4189/repos",
                "site_admin": false,
                "starred_url": "https://api.github.com/users/frej4189/starred{/owner}{/repo}",
                "subscriptions_url": "https://api.github.com/users/frej4189/subscriptions",
                "type": "User",
                "url": "https://api.github.com/users/frej4189"
            },
            "private": false,
            "pulls_url": "https://api.github.com/repos/frej4189/prismarine-registry/pulls{/number}",
            "pushed_at": "2023-05-19T15:41:00Z",
            "releases_url": "https://api.github.com/repos/frej4189/prismarine-registry/releases{/id}",
            "size": 30,
            "ssh_url": "git@github.com:frej4189/prismarine-registry.git",
            "stargazers_count": 0,
            "stargazers_url": "https://api.github.com/repos/frej4189/prismarine-registry/stargazers",
            "statuses_url": "https://api.github.com/repos/frej4189/prismarine-registry/statuses/{sha}",
            "subscribers_url": "https://api.github.com/repos/frej4189/prismarine-registry/subscribers",
            "subscription_url": "https://api.github.com/repos/frej4189/prismarine-registry/subscription",
            "svn_url": "https://github.com/frej4189/prismarine-registry",
            "tags_url": "https://api.github.com/repos/frej4189/prismarine-registry/tags",
            "teams_url": "https://api.github.com/repos/frej4189/prismarine-registry/teams",
            "topics": [],
            "trees_url": "https://api.github.com/repos/frej4189/prismarine-registry/git/trees{/sha}",
            "updated_at": "2023-05-19T15:41:04Z",
            "url": "https://api.github.com/repos/frej4189/prismarine-registry",
            "visibility": "public",
            "watchers": 0,
            "watchers_count": 0,
            "web_commit_signoff_required": false
        },
        "sha": "ccaca6c17a2c4cb0b735c565b29e7be92837b5f0",
        "user": {
            "avatar_url": "https://avatars.githubusercontent.com/u/13559737?v=4",
            "events_url": "https://api.github.com/users/frej4189/events{/privacy}",
            "followers_url": "https://api.github.com/users/frej4189/followers",
            "following_url": "https://api.github.com/users/frej4189/following{/other_user}",
            "gists_url": "https://api.github.com/users/frej4189/gists{/gist_id}",
            "gravatar_id": "",
            "html_url": "https://github.com/frej4189",
            "id": 13559737,
            "login": "frej4189",
            "node_id": "MDQ6VXNlcjEzNTU5NzM3",
            "organizations_url": "https://api.github.com/users/frej4189/orgs",
            "received_events_url": "https://api.github.com/users/frej4189/received_events",
            "repos_url": "https://api.github.com/users/frej4189/repos",
            "site_admin": false,
            "starred_url": "https://api.github.com/users/frej4189/starred{/owner}{/repo}",
            "subscriptions_url": "https://api.github.com/users/frej4189/subscriptions",
            "type": "User",
            "url": "https://api.github.com/users/frej4189"
        }
    },
    "html_url": "https://github.com/PrismarineJS/prismarine-registry/pull/30",
    "id": 1357332496,
    "issue_url": "https://api.github.com/repos/PrismarineJS/prismarine-registry/issues/30",
    "labels": [],
    "locked": false,
    "maintainer_can_modify": false,
    "merge_commit_sha": "6f9c4a19f301097cdd7841e6ad2c3f184e8acb24",
    "mergeable": null,
    "mergeable_state": "unknown",
    "merged": true,
    "merged_at": "2023-05-20T13:05:22Z",
    "merged_by": {
        "avatar_url": "https://avatars.githubusercontent.com/u/2346494?v=4",
        "events_url": "https://api.github.com/users/rom1504/events{/privacy}",
        "followers_url": "https://api.github.com/users/rom1504/followers",
        "following_url": "https://api.github.com/users/rom1504/following{/other_user}",
        "gists_url": "https://api.github.com/users/rom1504/gists{/gist_id}",
        "gravatar_id": "",
        "html_url": "https://github.com/rom1504",
        "id": 2346494,
        "login": "rom1504",
        "node_id": "MDQ6VXNlcjIzNDY0OTQ=",
        "organizations_url": "https://api.github.com/users/rom1504/orgs",
        "received_events_url": "https://api.github.com/users/rom1504/received_events",
        "repos_url": "https://api.github.com/users/rom1504/repos",
        "site_admin": false,
        "starred_url": "https://api.github.com/users/rom1504/starred{/owner}{/repo}",
        "subscriptions_url": "https://api.github.com/users/rom1504/subscriptions",
        "type": "User",
        "url": "https://api.github.com/users/rom1504"
    },
    "milestone": null,
    "node_id": "PR_kwDOGnl0XM5Q50AQ",
    "number": 30,
    "patch_url": "https://github.com/PrismarineJS/prismarine-registry/pull/30.patch",
    "rebaseable": null,
    "requested_reviewers": [],
    "requested_teams": [],
    "review_comment_url": "https://api.github.com/repos/PrismarineJS/prismarine-registry/pulls/comments{/number}",
    "review_comments": 0,
    "review_comments_url": "https://api.github.com/repos/PrismarineJS/prismarine-registry/pulls/30/comments",
    "state": "closed",
    "statuses_url": "https://api.github.com/repos/PrismarineJS/prismarine-registry/statuses/ccaca6c17a2c4cb0b735c565b29e7be92837b5f0",
    "title": "Add style to chatFormattingById",
    "updated_at": "2023-05-20T13:05:22Z",
    "url": "https://api.github.com/repos/PrismarineJS/prismarine-registry/pulls/30",
    "user": {
        "avatar_url": "https://avatars.githubusercontent.com/u/13559737?v=4",
        "events_url": "https://api.github.com/users/frej4189/events{/privacy}",
        "followers_url": "https://api.github.com/users/frej4189/followers",
        "following_url": "https://api.github.com/users/frej4189/following{/other_user}",
        "gists_url": "https://api.github.com/users/frej4189/gists{/gist_id}",
        "gravatar_id": "",
        "html_url": "https://github.com/frej4189",
        "id": 13559737,
        "login": "frej4189",
        "node_id": "MDQ6VXNlcjEzNTU5NzM3",
        "organizations_url": "https://api.github.com/users/frej4189/orgs",
        "received_events_url": "https://api.github.com/users/frej4189/received_events",
        "repos_url": "https://api.github.com/users/frej4189/repos",
        "site_admin": false,
        "starred_url": "https://api.github.com/users/frej4189/starred{/owner}{/repo}",
        "subscriptions_url": "https://api.github.com/users/frej4189/subscriptions",
        "type": "User",
        "url": "https://api.github.com/users/frej4189"
    }
}