{
    "_links": {
        "comments": {
            "href": "https://api.github.com/repos/PrismarineJS/node-minecraft-protocol/issues/111/comments"
        },
        "commits": {
            "href": "https://api.github.com/repos/PrismarineJS/node-minecraft-protocol/pulls/111/commits"
        },
        "html": {
            "href": "https://github.com/PrismarineJS/node-minecraft-protocol/pull/111"
        },
        "issue": {
            "href": "https://api.github.com/repos/PrismarineJS/node-minecraft-protocol/issues/111"
        },
        "review_comment": {
            "href": "https://api.github.com/repos/PrismarineJS/node-minecraft-protocol/pulls/comments{/number}"
        },
        "review_comments": {
            "href": "https://api.github.com/repos/PrismarineJS/node-minecraft-protocol/pulls/111/comments"
        },
        "self": {
            "href": "https://api.github.com/repos/PrismarineJS/node-minecraft-protocol/pulls/111"
        },
        "statuses": {
            "href": "https://api.github.com/repos/PrismarineJS/node-minecraft-protocol/statuses/afc16cd208193fa27603012d57b36c36727eba8a"
        }
    },
    "active_lock_reason": null,
    "additions": 3,
    "assignee": null,
    "assignees": [],
    "author_association": "CONTRIBUTOR",
    "auto_merge": null,
    "base": {
        "label": "PrismarineJS:master",
        "ref": "master",
        "repo": {
            "allow_forking": true,
            "archive_url": "https://api.github.com/repos/PrismarineJS/node-minecraft-protocol/{archive_format}{/ref}",
            "archived": false,
            "assignees_url": "https://api.github.com/repos/PrismarineJS/node-minecraft-protocol/assignees{/user}",
            "blobs_url": "https://api.github.com/repos/PrismarineJS/node-minecraft-protocol/git/blobs{/sha}",
            "branches_url": "https://api.github.com/repos/PrismarineJS/node-minecraft-protocol/branches{/branch}",
            "clone_url": "https://github.com/PrismarineJS/node-minecraft-protocol.git",
            "collaborators_url": "https://api.github.com/repos/PrismarineJS/node-minecraft-protocol/collaborators{/collaborator}",
            "comments_url": "https://api.github.com/repos/PrismarineJS/node-minecraft-protocol/comments{/number}",
            "commits_url": "https://api.github.com/repos/PrismarineJS/node-minecraft-protocol/commits{/sha}",
            "compare_url": "https://api.github.com/repos/PrismarineJS/node-minecraft-protocol/compare/{base}...{head}",
            "contents_url": "https://api.github.com/repos/PrismarineJS/node-minecraft-protocol/contents/{+path}",
            "contributors_url": "https://api.github.com/repos/PrismarineJS/node-minecraft-protocol/contributors",
            "created_at": "2013-01-01T09:17:05Z",
            "default_branch": "master",
            "deployments_url": "https://api.github.com/repos/PrismarineJS/node-minecraft-protocol/deployments",
            "description": "Parse and serialize minecraft packets, plus authentication and encryption.",
            "disabled": false,
            "downloads_url": "https://api.github.com/repos/PrismarineJS/node-minecraft-protocol/downloads",
            "events_url": "https://api.github.com/repos/PrismarineJS/node-minecraft-protocol/events",
            "fork": false,
            "forks": 222,
            "forks_count": 222,
            "forks_url": "https://api.github.com/repos/PrismarineJS/node-minecraft-protocol/forks",
            "full_name": "PrismarineJS/node-minecraft-protocol",
            "git_commits_url": "https://api.github.com/repos/PrismarineJS/node-minecraft-protocol/git/commits{/sha}",
            "git_refs_url": "https://api.github.com/repos/PrismarineJS/node-minecraft-protocol/git/refs{/sha}",
            "git_tags_url": "https://api.github.com/repos/PrismarineJS/node-minecraft-protocol/git/tags{/sha}",
            "git_url": "git://github.com/PrismarineJS/node-minecraft-protocol.git",
            "has_discussions": false,
            "has_downloads": true,
            "has_issues": true,
            "has_pages": true,
            "has_projects": true,
            "has_wiki": true,
            "homepage": "https://prismarinejs.github.io/node-minecraft-protocol/",
            "hooks_url": "https://api.github.com/repos/PrismarineJS/node-minecraft-protocol/hooks",
            "html_url": "https://github.com/PrismarineJS/node-minecraft-protocol",
            "id": 7394347,
            "is_template": false,
            "issue_comment_url": "https://api.github.com/repos/PrismarineJS/node-minecraft-protocol/issues/comments{/number}",
            "issue_events_url": "https://api.github.com/repos/PrismarineJS/node-minecraft-protocol/issues/events{/number}",
            "issues_url": "https://api.github.com/repos/PrismarineJS/node-minecraft-protocol/issues{/number}",
            "keys_url": "https://api.github.com/repos/PrismarineJS/node-minecraft-protocol/keys{/key_id}",
            "labels_url": "https://api.github.com/repos/PrismarineJS/node-minecraft-protocol/labels{/name}",
            "language": "JavaScript",
            "languages_url": "https://api.github.com/repos/PrismarineJS/node-minecraft-protocol/languages",
            "license": {
                "key": "bsd-3-clause",
                "name": "BSD 3-Clause \"New\" or \"Revised\" License",
                "node_id": "MDc6TGljZW5zZTU=",
                "spdx_id": "BSD-3-Clause",
                "url": "https://api.github.com/licenses/bsd-3-clause"
            },
            "merges_url": "https://api.github.com/repos/PrismarineJS/node-minecraft-protocol/merges",
            "milestones_url": "https://api.github.com/repos/PrismarineJS/node-minecraft-protocol/milestones{/number}",
            "mirror_url": null,
            "name": "node-minecraft-protocol",
            "node_id": "MDEwOlJlcG9zaXRvcnk3Mzk0MzQ3",
            "notifications_url": "https://api.github.com/repos/PrismarineJS/node-minecraft-protocol/notifications{?since,all,participating}",
            "open_issues": 92,
            "open_issues_count": 92,
            "owner": {
                "avatar_url": "https://avatars.githubusercontent.com/u/11053411?v=4",
                "events_url": "https://api.github.com/users/PrismarineJS/events{/privacy}",
                "followers_url": "https://api.github.com/users/PrismarineJS/followers",
                "following_url": "https://api.github.com/users/PrismarineJS/following{/other_user}",
                "gists_url": "https://api.github.com/users/PrismarineJS/gists{/gist_id}",
                "gravatar_id": "",
                "html_url": "https://github.com/PrismarineJS",
                "id": 11053411,
                "login": "PrismarineJS",
                "node_id": "MDEyOk9yZ2FuaXphdGlvbjExMDUzNDEx",
                "organizations_url": "https://api.github.com/users/PrismarineJS/orgs",
                "received_events_url": "https://api.github.com/users/PrismarineJS/received_events",
                "repos_url": "https://api.github.com/users/PrismarineJS/repos",
                "site_admin": false,
                "starred_url": "https://api.github.com/users/PrismarineJS/starred{/owner}{/repo}",
                "subscriptions_url": "https://api.github.com/users/PrismarineJS/subscriptions",
                "type": "Organization",
                "url": "https://api.github.com/users/PrismarineJS"
            },
            "private": false,
            "pulls_url": "https://api.github.com/repos/PrismarineJS/node-minecraft-protocol/pulls{/number}",
            "pushed_at": "2023-04-22T09:19:41Z",
            "releases_url": "https://api.github.com/repos/PrismarineJS/node-minecraft-protocol/releases{/id}",
            "size": 1785,
            "ssh_url": "git@github.com:PrismarineJS/node-minecraft-protocol.git",
            "stargazers_count": 1063,
            "stargazers_url": "https://api.github.com/repos/PrismarineJS/node-minecraft-protocol/stargazers",
            "statuses_url": "https://api.github.com/repos/PrismarineJS/node-minecraft-protocol/statuses/{sha}",
            "subscribers_url": "https://api.github.com/repos/PrismarineJS/node-minecraft-protocol/subscribers",
            "subscription_url": "https://api.github.com/repos/PrismarineJS/node-minecraft-protocol/subscription",
            "svn_url": "https://github.com/PrismarineJS/node-minecraft-protocol",
            "tags_url": "https://api.github.com/repos/PrismarineJS/node-minecraft-protocol/tags",
            "teams_url": "https://api.github.com/repos/PrismarineJS/node-minecraft-protocol/teams",
            "topics": [
                "client",
                "minecraft",
                "network",
                "packets",
                "protocol",
                "proxy",
                "server"
            ],
            "trees_url": "https://api.github.com/repos/PrismarineJS/node-minecraft-protocol/git/trees{/sha}",
            "updated_at": "2023-04-22T17:20:34Z",
            "url": "https://api.github.com/repos/PrismarineJS/node-minecraft-protocol",
            "visibility": "public",
            "watchers": 1063,
            "watchers_count": 1063,
            "web_commit_signoff_required": false
        },
        "sha": "98cfb4ae37d70fcd7c6835becd52e03978cbd755",
        "user": {
            "avatar_url": "https://avatars.githubusercontent.com/u/11053411?v=4",
            "events_url": "https://api.github.com/users/PrismarineJS/events{/privacy}",
            "followers_url": "https://api.github.com/users/PrismarineJS/followers",
            "following_url": "https://api.github.com/users/PrismarineJS/following{/other_user}",
            "gists_url": "https://api.github.com/users/PrismarineJS/gists{/gist_id}",
            "gravatar_id": "",
            "html_url": "https://github.com/PrismarineJS",
            "id": 11053411,
            "login": "PrismarineJS",
            "node_id": "MDEyOk9yZ2FuaXphdGlvbjExMDUzNDEx",
            "organizations_url": "https://api.github.com/users/PrismarineJS/orgs",
            "received_events_url": "https://api.github.com/users/PrismarineJS/received_events",
            "repos_url": "https://api.github.com/users/PrismarineJS/repos",
            "site_admin": false,
            "starred_url": "https://api.github.com/users/PrismarineJS/starred{/owner}{/repo}",
            "subscriptions_url": "https://api.github.com/users/PrismarineJS/subscriptions",
            "type": "Organization",
            "url": "https://api.github.com/users/PrismarineJS"
        }
    },
    "body": "### CraftJS/node-minecraft-protocol now has a Chat Room on Gitter\n\n@roblabla has just created a chat room. You can visit it here: [https://gitter.im/CraftJS/node-minecraft-protocol](https://gitter.im/CraftJS/node-minecraft-protocol?utm_source=badge&utm_medium=badge&utm_campaign=pr-badge&content=body_link).\n\nThis pull-request adds this badge to your README.md:\n\n[![Gitter](https://badges.gitter.im/Join%20Chat.svg)](https://gitter.im/CraftJS/node-minecraft-protocol?utm_source=badge&utm_medium=badge&utm_campaign=pr-badge&utm_content=body_badge)\n\nIf my aim is a little off, please [let me know](https://github.com/gitterHQ/readme-badger/issues).\n\nHappy chatting.\n\nPS: [Click here](https://gitter.im/settings/badger/opt-out) if you would prefer not to receive automatic pull-requests from Gitter in future.\n",
    "changed_files": 1,
    "closed_at": "2015-02-18T22:21:40Z",
    "comment_data": [],
    "comment_regular_data": [],
    "comments": 0,
    "comments_url": "https://api.github.com/repos/PrismarineJS/node-minecraft-protocol/issues/111/comments",
    "commit_data": [
        {
            "author": {
                "avatar_url": "https://avatars.githubusercontent.com/u/8518239?v=4",
                "events_url": "https://api.github.com/users/gitter-badger/events{/privacy}",
                "followers_url": "https://api.github.com/users/gitter-badger/followers",
                "following_url": "https://api.github.com/users/gitter-badger/following{/other_user}",
                "gists_url": "https://api.github.com/users/gitter-badger/gists{/gist_id}",
                "gravatar_id": "",
                "html_url": "https://github.com/gitter-badger",
                "id": 8518239,
                "login": "gitter-badger",
                "node_id": "MDQ6VXNlcjg1MTgyMzk=",
                "organizations_url": "https://api.github.com/users/gitter-badger/orgs",
                "received_events_url": "https://api.github.com/users/gitter-badger/received_events",
                "repos_url": "https://api.github.com/users/gitter-badger/repos",
                "site_admin": false,
                "starred_url": "https://api.github.com/users/gitter-badger/starred{/owner}{/repo}",
                "subscriptions_url": "https://api.github.com/users/gitter-badger/subscriptions",
                "type": "User",
                "url": "https://api.github.com/users/gitter-badger"
            },
            "comments_url": "https://api.github.com/repos/PrismarineJS/node-minecraft-protocol/commits/afc16cd208193fa27603012d57b36c36727eba8a/comments",
            "commit": {
                "author": {
                    "date": "2015-02-18T22:12:18Z",
                    "email": "badger@gitter.im",
                    "name": "The Gitter Badger"
                },
                "comment_count": 0,
                "committer": {
                    "date": "2015-02-18T22:12:18Z",
                    "email": "badger@gitter.im",
                    "name": "The Gitter Badger"
                },
                "message": "Added Gitter badge",
                "tree": {
                    "sha": "beda2ad09464485473d09c8b57764c61a09c67f4",
                    "url": "https://api.github.com/repos/PrismarineJS/node-minecraft-protocol/git/trees/beda2ad09464485473d09c8b57764c61a09c67f4"
                },
                "url": "https://api.github.com/repos/PrismarineJS/node-minecraft-protocol/git/commits/afc16cd208193fa27603012d57b36c36727eba8a",
                "verification": {
                    "payload": null,
                    "reason": "unsigned",
                    "signature": null,
                    "verified": false
                }
            },
            "committer": {
                "avatar_url": "https://avatars.githubusercontent.com/u/8518239?v=4",
                "events_url": "https://api.github.com/users/gitter-badger/events{/privacy}",
                "followers_url": "https://api.github.com/users/gitter-badger/followers",
                "following_url": "https://api.github.com/users/gitter-badger/following{/other_user}",
                "gists_url": "https://api.github.com/users/gitter-badger/gists{/gist_id}",
                "gravatar_id": "",
                "html_url": "https://github.com/gitter-badger",
                "id": 8518239,
                "login": "gitter-badger",
                "node_id": "MDQ6VXNlcjg1MTgyMzk=",
                "organizations_url": "https://api.github.com/users/gitter-badger/orgs",
                "received_events_url": "https://api.github.com/users/gitter-badger/received_events",
                "repos_url": "https://api.github.com/users/gitter-badger/repos",
                "site_admin": false,
                "starred_url": "https://api.github.com/users/gitter-badger/starred{/owner}{/repo}",
                "subscriptions_url": "https://api.github.com/users/gitter-badger/subscriptions",
                "type": "User",
                "url": "https://api.github.com/users/gitter-badger"
            },
            "html_url": "https://github.com/PrismarineJS/node-minecraft-protocol/commit/afc16cd208193fa27603012d57b36c36727eba8a",
            "node_id": "MDY6Q29tbWl0NzM5NDM0NzphZmMxNmNkMjA4MTkzZmEyNzYwMzAxMmQ1N2IzNmMzNjcyN2ViYThh",
            "parents": [
                {
                    "html_url": "https://github.com/PrismarineJS/node-minecraft-protocol/commit/09cdf6c77df39655c2dd2e0f7b6dba8d2bfe51f2",
                    "sha": "09cdf6c77df39655c2dd2e0f7b6dba8d2bfe51f2",
                    "url": "https://api.github.com/repos/PrismarineJS/node-minecraft-protocol/commits/09cdf6c77df39655c2dd2e0f7b6dba8d2bfe51f2"
                }
            ],
            "sha": "afc16cd208193fa27603012d57b36c36727eba8a",
            "url": "https://api.github.com/repos/PrismarineJS/node-minecraft-protocol/commits/afc16cd208193fa27603012d57b36c36727eba8a"
        }
    ],
    "commits": 1,
    "commits_url": "https://api.github.com/repos/PrismarineJS/node-minecraft-protocol/pulls/111/commits",
    "created_at": "2015-02-18T22:12:18Z",
    "deletions": 0,
    "diff_url": "https://github.com/PrismarineJS/node-minecraft-protocol/pull/111.diff",
    "draft": false,
    "head": {
        "label": "gitter-badger:gitter-badge-1",
        "ref": "gitter-badge-1",
        "repo": null,
        "sha": "afc16cd208193fa27603012d57b36c36727eba8a",
        "user": {
            "avatar_url": "https://avatars.githubusercontent.com/u/8518239?v=4",
            "events_url": "https://api.github.com/users/gitter-badger/events{/privacy}",
            "followers_url": "https://api.github.com/users/gitter-badger/followers",
            "following_url": "https://api.github.com/users/gitter-badger/following{/other_user}",
            "gists_url": "https://api.github.com/users/gitter-badger/gists{/gist_id}",
            "gravatar_id": "",
            "html_url": "https://github.com/gitter-badger",
            "id": 8518239,
            "login": "gitter-badger",
            "node_id": "MDQ6VXNlcjg1MTgyMzk=",
            "organizations_url": "https://api.github.com/users/gitter-badger/orgs",
            "received_events_url": "https://api.github.com/users/gitter-badger/received_events",
            "repos_url": "https://api.github.com/users/gitter-badger/repos",
            "site_admin": false,
            "starred_url": "https://api.github.com/users/gitter-badger/starred{/owner}{/repo}",
            "subscriptions_url": "https://api.github.com/users/gitter-badger/subscriptions",
            "type": "User",
            "url": "https://api.github.com/users/gitter-badger"
        }
    },
    "html_url": "https://github.com/PrismarineJS/node-minecraft-protocol/pull/111",
    "id": 29568555,
    "issue_url": "https://api.github.com/repos/PrismarineJS/node-minecraft-protocol/issues/111",
    "labels": [],
    "locked": false,
    "maintainer_can_modify": false,
    "merge_commit_sha": "7dbc1ee59d0530fac96555068710096004917067",
    "mergeable": null,
    "mergeable_state": "unknown",
    "merged": false,
    "merged_at": null,
    "merged_by": null,
    "milestone": null,
    "node_id": "MDExOlB1bGxSZXF1ZXN0Mjk1Njg1NTU=",
    "number": 111,
    "patch_url": "https://github.com/PrismarineJS/node-minecraft-protocol/pull/111.patch",
    "rebaseable": null,
    "requested_reviewers": [],
    "requested_teams": [],
    "review_comment_url": "https://api.github.com/repos/PrismarineJS/node-minecraft-protocol/pulls/comments{/number}",
    "review_comments": 0,
    "review_comments_url": "https://api.github.com/repos/PrismarineJS/node-minecraft-protocol/pulls/111/comments",
    "state": "closed",
    "statuses_url": "https://api.github.com/repos/PrismarineJS/node-minecraft-protocol/statuses/afc16cd208193fa27603012d57b36c36727eba8a",
    "title": "Add a Gitter chat badge to README.md",
    "updated_at": "2015-02-18T22:21:40Z",
    "url": "https://api.github.com/repos/PrismarineJS/node-minecraft-protocol/pulls/111",
    "user": {
        "avatar_url": "https://avatars.githubusercontent.com/u/8518239?v=4",
        "events_url": "https://api.github.com/users/gitter-badger/events{/privacy}",
        "followers_url": "https://api.github.com/users/gitter-badger/followers",
        "following_url": "https://api.github.com/users/gitter-badger/following{/other_user}",
        "gists_url": "https://api.github.com/users/gitter-badger/gists{/gist_id}",
        "gravatar_id": "",
        "html_url": "https://github.com/gitter-badger",
        "id": 8518239,
        "login": "gitter-badger",
        "node_id": "MDQ6VXNlcjg1MTgyMzk=",
        "organizations_url": "https://api.github.com/users/gitter-badger/orgs",
        "received_events_url": "https://api.github.com/users/gitter-badger/received_events",
        "repos_url": "https://api.github.com/users/gitter-badger/repos",
        "site_admin": false,
        "starred_url": "https://api.github.com/users/gitter-badger/starred{/owner}{/repo}",
        "subscriptions_url": "https://api.github.com/users/gitter-badger/subscriptions",
        "type": "User",
        "url": "https://api.github.com/users/gitter-badger"
    }
}