{
    "_links": {
        "comments": {
            "href": "https://api.github.com/repos/PrismarineJS/node-minecraft-protocol/issues/1238/comments"
        },
        "commits": {
            "href": "https://api.github.com/repos/PrismarineJS/node-minecraft-protocol/pulls/1238/commits"
        },
        "html": {
            "href": "https://github.com/PrismarineJS/node-minecraft-protocol/pull/1238"
        },
        "issue": {
            "href": "https://api.github.com/repos/PrismarineJS/node-minecraft-protocol/issues/1238"
        },
        "review_comment": {
            "href": "https://api.github.com/repos/PrismarineJS/node-minecraft-protocol/pulls/comments{/number}"
        },
        "review_comments": {
            "href": "https://api.github.com/repos/PrismarineJS/node-minecraft-protocol/pulls/1238/comments"
        },
        "self": {
            "href": "https://api.github.com/repos/PrismarineJS/node-minecraft-protocol/pulls/1238"
        },
        "statuses": {
            "href": "https://api.github.com/repos/PrismarineJS/node-minecraft-protocol/statuses/fc8a08afd7c650f1767f70dab8c424dc5420bb00"
        }
    },
    "active_lock_reason": null,
    "additions": 1,
    "assignee": null,
    "assignees": [],
    "author_association": "NONE",
    "auto_merge": null,
    "base": {
        "label": "PrismarineJS:master",
        "ref": "master",
        "repo": {
            "allow_forking": true,
            "archive_url": "https://api.github.com/repos/PrismarineJS/node-minecraft-protocol/{archive_format}{/ref}",
            "archived": false,
            "assignees_url": "https://api.github.com/repos/PrismarineJS/node-minecraft-protocol/assignees{/user}",
            "blobs_url": "https://api.github.com/repos/PrismarineJS/node-minecraft-protocol/git/blobs{/sha}",
            "branches_url": "https://api.github.com/repos/PrismarineJS/node-minecraft-protocol/branches{/branch}",
            "clone_url": "https://github.com/PrismarineJS/node-minecraft-protocol.git",
            "collaborators_url": "https://api.github.com/repos/PrismarineJS/node-minecraft-protocol/collaborators{/collaborator}",
            "comments_url": "https://api.github.com/repos/PrismarineJS/node-minecraft-protocol/comments{/number}",
            "commits_url": "https://api.github.com/repos/PrismarineJS/node-minecraft-protocol/commits{/sha}",
            "compare_url": "https://api.github.com/repos/PrismarineJS/node-minecraft-protocol/compare/{base}...{head}",
            "contents_url": "https://api.github.com/repos/PrismarineJS/node-minecraft-protocol/contents/{+path}",
            "contributors_url": "https://api.github.com/repos/PrismarineJS/node-minecraft-protocol/contributors",
            "created_at": "2013-01-01T09:17:05Z",
            "default_branch": "master",
            "deployments_url": "https://api.github.com/repos/PrismarineJS/node-minecraft-protocol/deployments",
            "description": "Parse and serialize minecraft packets, plus authentication and encryption.",
            "disabled": false,
            "downloads_url": "https://api.github.com/repos/PrismarineJS/node-minecraft-protocol/downloads",
            "events_url": "https://api.github.com/repos/PrismarineJS/node-minecraft-protocol/events",
            "fork": false,
            "forks": 223,
            "forks_count": 223,
            "forks_url": "https://api.github.com/repos/PrismarineJS/node-minecraft-protocol/forks",
            "full_name": "PrismarineJS/node-minecraft-protocol",
            "git_commits_url": "https://api.github.com/repos/PrismarineJS/node-minecraft-protocol/git/commits{/sha}",
            "git_refs_url": "https://api.github.com/repos/PrismarineJS/node-minecraft-protocol/git/refs{/sha}",
            "git_tags_url": "https://api.github.com/repos/PrismarineJS/node-minecraft-protocol/git/tags{/sha}",
            "git_url": "git://github.com/PrismarineJS/node-minecraft-protocol.git",
            "has_discussions": false,
            "has_downloads": true,
            "has_issues": true,
            "has_pages": true,
            "has_projects": true,
            "has_wiki": true,
            "homepage": "https://prismarinejs.github.io/node-minecraft-protocol/",
            "hooks_url": "https://api.github.com/repos/PrismarineJS/node-minecraft-protocol/hooks",
            "html_url": "https://github.com/PrismarineJS/node-minecraft-protocol",
            "id": 7394347,
            "is_template": false,
            "issue_comment_url": "https://api.github.com/repos/PrismarineJS/node-minecraft-protocol/issues/comments{/number}",
            "issue_events_url": "https://api.github.com/repos/PrismarineJS/node-minecraft-protocol/issues/events{/number}",
            "issues_url": "https://api.github.com/repos/PrismarineJS/node-minecraft-protocol/issues{/number}",
            "keys_url": "https://api.github.com/repos/PrismarineJS/node-minecraft-protocol/keys{/key_id}",
            "labels_url": "https://api.github.com/repos/PrismarineJS/node-minecraft-protocol/labels{/name}",
            "language": "JavaScript",
            "languages_url": "https://api.github.com/repos/PrismarineJS/node-minecraft-protocol/languages",
            "license": {
                "key": "bsd-3-clause",
                "name": "BSD 3-Clause \"New\" or \"Revised\" License",
                "node_id": "MDc6TGljZW5zZTU=",
                "spdx_id": "BSD-3-Clause",
                "url": "https://api.github.com/licenses/bsd-3-clause"
            },
            "merges_url": "https://api.github.com/repos/PrismarineJS/node-minecraft-protocol/merges",
            "milestones_url": "https://api.github.com/repos/PrismarineJS/node-minecraft-protocol/milestones{/number}",
            "mirror_url": null,
            "name": "node-minecraft-protocol",
            "node_id": "MDEwOlJlcG9zaXRvcnk3Mzk0MzQ3",
            "notifications_url": "https://api.github.com/repos/PrismarineJS/node-minecraft-protocol/notifications{?since,all,participating}",
            "open_issues": 88,
            "open_issues_count": 88,
            "owner": {
                "avatar_url": "https://avatars.githubusercontent.com/u/11053411?v=4",
                "events_url": "https://api.github.com/users/PrismarineJS/events{/privacy}",
                "followers_url": "https://api.github.com/users/PrismarineJS/followers",
                "following_url": "https://api.github.com/users/PrismarineJS/following{/other_user}",
                "gists_url": "https://api.github.com/users/PrismarineJS/gists{/gist_id}",
                "gravatar_id": "",
                "html_url": "https://github.com/PrismarineJS",
                "id": 11053411,
                "login": "PrismarineJS",
                "node_id": "MDEyOk9yZ2FuaXphdGlvbjExMDUzNDEx",
                "organizations_url": "https://api.github.com/users/PrismarineJS/orgs",
                "received_events_url": "https://api.github.com/users/PrismarineJS/received_events",
                "repos_url": "https://api.github.com/users/PrismarineJS/repos",
                "site_admin": false,
                "starred_url": "https://api.github.com/users/PrismarineJS/starred{/owner}{/repo}",
                "subscriptions_url": "https://api.github.com/users/PrismarineJS/subscriptions",
                "type": "Organization",
                "url": "https://api.github.com/users/PrismarineJS"
            },
            "private": false,
            "pulls_url": "https://api.github.com/repos/PrismarineJS/node-minecraft-protocol/pulls{/number}",
            "pushed_at": "2023-07-22T12:59:37Z",
            "releases_url": "https://api.github.com/repos/PrismarineJS/node-minecraft-protocol/releases{/id}",
            "size": 1827,
            "ssh_url": "git@github.com:PrismarineJS/node-minecraft-protocol.git",
            "stargazers_count": 1104,
            "stargazers_url": "https://api.github.com/repos/PrismarineJS/node-minecraft-protocol/stargazers",
            "statuses_url": "https://api.github.com/repos/PrismarineJS/node-minecraft-protocol/statuses/{sha}",
            "subscribers_url": "https://api.github.com/repos/PrismarineJS/node-minecraft-protocol/subscribers",
            "subscription_url": "https://api.github.com/repos/PrismarineJS/node-minecraft-protocol/subscription",
            "svn_url": "https://github.com/PrismarineJS/node-minecraft-protocol",
            "tags_url": "https://api.github.com/repos/PrismarineJS/node-minecraft-protocol/tags",
            "teams_url": "https://api.github.com/repos/PrismarineJS/node-minecraft-protocol/teams",
            "topics": [
                "client",
                "minecraft",
                "network",
                "packets",
                "protocol",
                "proxy",
                "server"
            ],
            "trees_url": "https://api.github.com/repos/PrismarineJS/node-minecraft-protocol/git/trees{/sha}",
            "updated_at": "2023-07-21T23:04:11Z",
            "url": "https://api.github.com/repos/PrismarineJS/node-minecraft-protocol",
            "visibility": "public",
            "watchers": 1104,
            "watchers_count": 1104,
            "web_commit_signoff_required": false
        },
        "sha": "5a64f1435947e8ee4352f0149443bf6406180da7",
        "user": {
            "avatar_url": "https://avatars.githubusercontent.com/u/11053411?v=4",
            "events_url": "https://api.github.com/users/PrismarineJS/events{/privacy}",
            "followers_url": "https://api.github.com/users/PrismarineJS/followers",
            "following_url": "https://api.github.com/users/PrismarineJS/following{/other_user}",
            "gists_url": "https://api.github.com/users/PrismarineJS/gists{/gist_id}",
            "gravatar_id": "",
            "html_url": "https://github.com/PrismarineJS",
            "id": 11053411,
            "login": "PrismarineJS",
            "node_id": "MDEyOk9yZ2FuaXphdGlvbjExMDUzNDEx",
            "organizations_url": "https://api.github.com/users/PrismarineJS/orgs",
            "received_events_url": "https://api.github.com/users/PrismarineJS/received_events",
            "repos_url": "https://api.github.com/users/PrismarineJS/repos",
            "site_admin": false,
            "starred_url": "https://api.github.com/users/PrismarineJS/starred{/owner}{/repo}",
            "subscriptions_url": "https://api.github.com/users/PrismarineJS/subscriptions",
            "type": "Organization",
            "url": "https://api.github.com/users/PrismarineJS"
        }
    },
    "body": "this patches everything that is a bug",
    "changed_files": 1,
    "closed_at": "2023-07-22T13:02:44Z",
    "comment_data": [],
    "comment_regular_data": [],
    "comments": 0,
    "comments_url": "https://api.github.com/repos/PrismarineJS/node-minecraft-protocol/issues/1238/comments",
    "commit_data": [
        {
            "author": {
                "avatar_url": "https://avatars.githubusercontent.com/u/69821200?v=4",
                "events_url": "https://api.github.com/users/RealLava/events{/privacy}",
                "followers_url": "https://api.github.com/users/RealLava/followers",
                "following_url": "https://api.github.com/users/RealLava/following{/other_user}",
                "gists_url": "https://api.github.com/users/RealLava/gists{/gist_id}",
                "gravatar_id": "",
                "html_url": "https://github.com/RealLava",
                "id": 69821200,
                "login": "RealLava",
                "node_id": "MDQ6VXNlcjY5ODIxMjAw",
                "organizations_url": "https://api.github.com/users/RealLava/orgs",
                "received_events_url": "https://api.github.com/users/RealLava/received_events",
                "repos_url": "https://api.github.com/users/RealLava/repos",
                "site_admin": false,
                "starred_url": "https://api.github.com/users/RealLava/starred{/owner}{/repo}",
                "subscriptions_url": "https://api.github.com/users/RealLava/subscriptions",
                "type": "User",
                "url": "https://api.github.com/users/RealLava"
            },
            "comments_url": "https://api.github.com/repos/PrismarineJS/node-minecraft-protocol/commits/fc8a08afd7c650f1767f70dab8c424dc5420bb00/comments",
            "commit": {
                "author": {
                    "date": "2023-07-15T03:17:03Z",
                    "email": "69821200+RealLava@users.noreply.github.com",
                    "name": "Lava"
                },
                "comment_count": 0,
                "committer": {
                    "date": "2023-07-15T03:17:03Z",
                    "email": "noreply@github.com",
                    "name": "GitHub"
                },
                "message": "Update .gitpod.yml",
                "tree": {
                    "sha": "befde5c9c5ab8d5e516f3d794f840c9efa41ccbe",
                    "url": "https://api.github.com/repos/PrismarineJS/node-minecraft-protocol/git/trees/befde5c9c5ab8d5e516f3d794f840c9efa41ccbe"
                },
                "url": "https://api.github.com/repos/PrismarineJS/node-minecraft-protocol/git/commits/fc8a08afd7c650f1767f70dab8c424dc5420bb00",
                "verification": {
                    "payload": "tree befde5c9c5ab8d5e516f3d794f840c9efa41ccbe\nparent 5a64f1435947e8ee4352f0149443bf6406180da7\nauthor Lava <69821200+RealLava@users.noreply.github.com> 1689391023 -0400\ncommitter GitHub <noreply@github.com> 1689391023 -0400\n\nUpdate .gitpod.yml",
                    "reason": "valid",
                    "signature": "-----BEGIN PGP SIGNATURE-----\n\nwsBcBAABCAAQBQJksg+vCRBK7hj4Ov3rIwAAWm0IAAqnBuF1F4oesQyZJseoVSWr\naSaiFXFbGydD7XWs6Y4tdnXDTaDyLrBHGX1SNTNqfXbwxQ/eGUV4xoNH2cEqOryI\n/krMcfcVkHlGXvk2ePt3hj7NIjolyEuUgjh2KweuHeoUZS012nL4pDKqNPpnjHk+\n1duKgsWqzITdhDdSyKgIvlN/8oYlEnrd/6oUPVLsxG/hiHz5M+L61SnMABjYNW2C\nCD3GI+SPX6EbvIFzbJj2vbsa+tp6phzVFN9WU3ES9zioFUqMnv2G7QKrxTdMvJh2\n2wUeXlyj+r0l/oMsawxWG1J7vQ63MyAWv9DVu1Lv+lFSrsVt3afOCsaDzIVA8sc=\n=+O71\n-----END PGP SIGNATURE-----\n",
                    "verified": true
                }
            },
            "committer": {
                "avatar_url": "https://avatars.githubusercontent.com/u/19864447?v=4",
                "events_url": "https://api.github.com/users/web-flow/events{/privacy}",
                "followers_url": "https://api.github.com/users/web-flow/followers",
                "following_url": "https://api.github.com/users/web-flow/following{/other_user}",
                "gists_url": "https://api.github.com/users/web-flow/gists{/gist_id}",
                "gravatar_id": "",
                "html_url": "https://github.com/web-flow",
                "id": 19864447,
                "login": "web-flow",
                "node_id": "MDQ6VXNlcjE5ODY0NDQ3",
                "organizations_url": "https://api.github.com/users/web-flow/orgs",
                "received_events_url": "https://api.github.com/users/web-flow/received_events",
                "repos_url": "https://api.github.com/users/web-flow/repos",
                "site_admin": false,
                "starred_url": "https://api.github.com/users/web-flow/starred{/owner}{/repo}",
                "subscriptions_url": "https://api.github.com/users/web-flow/subscriptions",
                "type": "User",
                "url": "https://api.github.com/users/web-flow"
            },
            "html_url": "https://github.com/PrismarineJS/node-minecraft-protocol/commit/fc8a08afd7c650f1767f70dab8c424dc5420bb00",
            "node_id": "C_kwDOJ7vf29oAKGZjOGEwOGFmZDdjNjUwZjE3NjdmNzBkYWI4YzQyNGRjNTQyMGJiMDA",
            "parents": [
                {
                    "html_url": "https://github.com/PrismarineJS/node-minecraft-protocol/commit/5a64f1435947e8ee4352f0149443bf6406180da7",
                    "sha": "5a64f1435947e8ee4352f0149443bf6406180da7",
                    "url": "https://api.github.com/repos/PrismarineJS/node-minecraft-protocol/commits/5a64f1435947e8ee4352f0149443bf6406180da7"
                }
            ],
            "sha": "fc8a08afd7c650f1767f70dab8c424dc5420bb00",
            "url": "https://api.github.com/repos/PrismarineJS/node-minecraft-protocol/commits/fc8a08afd7c650f1767f70dab8c424dc5420bb00"
        }
    ],
    "commits": 1,
    "commits_url": "https://api.github.com/repos/PrismarineJS/node-minecraft-protocol/pulls/1238/commits",
    "created_at": "2023-07-15T03:17:20Z",
    "deletions": 1,
    "diff_url": "https://github.com/PrismarineJS/node-minecraft-protocol/pull/1238.diff",
    "draft": false,
    "head": {
        "label": "RealLava:patch-1",
        "ref": "patch-1",
        "repo": {
            "allow_forking": true,
            "archive_url": "https://api.github.com/repos/RealLava/node-minecraft-protocol/{archive_format}{/ref}",
            "archived": false,
            "assignees_url": "https://api.github.com/repos/RealLava/node-minecraft-protocol/assignees{/user}",
            "blobs_url": "https://api.github.com/repos/RealLava/node-minecraft-protocol/git/blobs{/sha}",
            "branches_url": "https://api.github.com/repos/RealLava/node-minecraft-protocol/branches{/branch}",
            "clone_url": "https://github.com/RealLava/node-minecraft-protocol.git",
            "collaborators_url": "https://api.github.com/repos/RealLava/node-minecraft-protocol/collaborators{/collaborator}",
            "comments_url": "https://api.github.com/repos/RealLava/node-minecraft-protocol/comments{/number}",
            "commits_url": "https://api.github.com/repos/RealLava/node-minecraft-protocol/commits{/sha}",
            "compare_url": "https://api.github.com/repos/RealLava/node-minecraft-protocol/compare/{base}...{head}",
            "contents_url": "https://api.github.com/repos/RealLava/node-minecraft-protocol/contents/{+path}",
            "contributors_url": "https://api.github.com/repos/RealLava/node-minecraft-protocol/contributors",
            "created_at": "2023-07-15T03:16:55Z",
            "default_branch": "master",
            "deployments_url": "https://api.github.com/repos/RealLava/node-minecraft-protocol/deployments",
            "description": "Parse and serialize minecraft packets, plus authentication and encryption.",
            "disabled": false,
            "downloads_url": "https://api.github.com/repos/RealLava/node-minecraft-protocol/downloads",
            "events_url": "https://api.github.com/repos/RealLava/node-minecraft-protocol/events",
            "fork": true,
            "forks": 0,
            "forks_count": 0,
            "forks_url": "https://api.github.com/repos/RealLava/node-minecraft-protocol/forks",
            "full_name": "RealLava/node-minecraft-protocol",
            "git_commits_url": "https://api.github.com/repos/RealLava/node-minecraft-protocol/git/commits{/sha}",
            "git_refs_url": "https://api.github.com/repos/RealLava/node-minecraft-protocol/git/refs{/sha}",
            "git_tags_url": "https://api.github.com/repos/RealLava/node-minecraft-protocol/git/tags{/sha}",
            "git_url": "git://github.com/RealLava/node-minecraft-protocol.git",
            "has_discussions": false,
            "has_downloads": true,
            "has_issues": false,
            "has_pages": false,
            "has_projects": true,
            "has_wiki": true,
            "homepage": "https://prismarinejs.github.io/node-minecraft-protocol/",
            "hooks_url": "https://api.github.com/repos/RealLava/node-minecraft-protocol/hooks",
            "html_url": "https://github.com/RealLava/node-minecraft-protocol",
            "id": 666623963,
            "is_template": false,
            "issue_comment_url": "https://api.github.com/repos/RealLava/node-minecraft-protocol/issues/comments{/number}",
            "issue_events_url": "https://api.github.com/repos/RealLava/node-minecraft-protocol/issues/events{/number}",
            "issues_url": "https://api.github.com/repos/RealLava/node-minecraft-protocol/issues{/number}",
            "keys_url": "https://api.github.com/repos/RealLava/node-minecraft-protocol/keys{/key_id}",
            "labels_url": "https://api.github.com/repos/RealLava/node-minecraft-protocol/labels{/name}",
            "language": null,
            "languages_url": "https://api.github.com/repos/RealLava/node-minecraft-protocol/languages",
            "license": {
                "key": "bsd-3-clause",
                "name": "BSD 3-Clause \"New\" or \"Revised\" License",
                "node_id": "MDc6TGljZW5zZTU=",
                "spdx_id": "BSD-3-Clause",
                "url": "https://api.github.com/licenses/bsd-3-clause"
            },
            "merges_url": "https://api.github.com/repos/RealLava/node-minecraft-protocol/merges",
            "milestones_url": "https://api.github.com/repos/RealLava/node-minecraft-protocol/milestones{/number}",
            "mirror_url": null,
            "name": "node-minecraft-protocol",
            "node_id": "R_kgDOJ7vf2w",
            "notifications_url": "https://api.github.com/repos/RealLava/node-minecraft-protocol/notifications{?since,all,participating}",
            "open_issues": 0,
            "open_issues_count": 0,
            "owner": {
                "avatar_url": "https://avatars.githubusercontent.com/u/69821200?v=4",
                "events_url": "https://api.github.com/users/RealLava/events{/privacy}",
                "followers_url": "https://api.github.com/users/RealLava/followers",
                "following_url": "https://api.github.com/users/RealLava/following{/other_user}",
                "gists_url": "https://api.github.com/users/RealLava/gists{/gist_id}",
                "gravatar_id": "",
                "html_url": "https://github.com/RealLava",
                "id": 69821200,
                "login": "RealLava",
                "node_id": "MDQ6VXNlcjY5ODIxMjAw",
                "organizations_url": "https://api.github.com/users/RealLava/orgs",
                "received_events_url": "https://api.github.com/users/RealLava/received_events",
                "repos_url": "https://api.github.com/users/RealLava/repos",
                "site_admin": false,
                "starred_url": "https://api.github.com/users/RealLava/starred{/owner}{/repo}",
                "subscriptions_url": "https://api.github.com/users/RealLava/subscriptions",
                "type": "User",
                "url": "https://api.github.com/users/RealLava"
            },
            "private": false,
            "pulls_url": "https://api.github.com/repos/RealLava/node-minecraft-protocol/pulls{/number}",
            "pushed_at": "2023-07-15T03:17:03Z",
            "releases_url": "https://api.github.com/repos/RealLava/node-minecraft-protocol/releases{/id}",
            "size": 1833,
            "ssh_url": "git@github.com:RealLava/node-minecraft-protocol.git",
            "stargazers_count": 0,
            "stargazers_url": "https://api.github.com/repos/RealLava/node-minecraft-protocol/stargazers",
            "statuses_url": "https://api.github.com/repos/RealLava/node-minecraft-protocol/statuses/{sha}",
            "subscribers_url": "https://api.github.com/repos/RealLava/node-minecraft-protocol/subscribers",
            "subscription_url": "https://api.github.com/repos/RealLava/node-minecraft-protocol/subscription",
            "svn_url": "https://github.com/RealLava/node-minecraft-protocol",
            "tags_url": "https://api.github.com/repos/RealLava/node-minecraft-protocol/tags",
            "teams_url": "https://api.github.com/repos/RealLava/node-minecraft-protocol/teams",
            "topics": [],
            "trees_url": "https://api.github.com/repos/RealLava/node-minecraft-protocol/git/trees{/sha}",
            "updated_at": "2023-07-15T03:16:55Z",
            "url": "https://api.github.com/repos/RealLava/node-minecraft-protocol",
            "visibility": "public",
            "watchers": 0,
            "watchers_count": 0,
            "web_commit_signoff_required": false
        },
        "sha": "fc8a08afd7c650f1767f70dab8c424dc5420bb00",
        "user": {
            "avatar_url": "https://avatars.githubusercontent.com/u/69821200?v=4",
            "events_url": "https://api.github.com/users/RealLava/events{/privacy}",
            "followers_url": "https://api.github.com/users/RealLava/followers",
            "following_url": "https://api.github.com/users/RealLava/following{/other_user}",
            "gists_url": "https://api.github.com/users/RealLava/gists{/gist_id}",
            "gravatar_id": "",
            "html_url": "https://github.com/RealLava",
            "id": 69821200,
            "login": "RealLava",
            "node_id": "MDQ6VXNlcjY5ODIxMjAw",
            "organizations_url": "https://api.github.com/users/RealLava/orgs",
            "received_events_url": "https://api.github.com/users/RealLava/received_events",
            "repos_url": "https://api.github.com/users/RealLava/repos",
            "site_admin": false,
            "starred_url": "https://api.github.com/users/RealLava/starred{/owner}{/repo}",
            "subscriptions_url": "https://api.github.com/users/RealLava/subscriptions",
            "type": "User",
            "url": "https://api.github.com/users/RealLava"
        }
    },
    "html_url": "https://github.com/PrismarineJS/node-minecraft-protocol/pull/1238",
    "id": 1435661913,
    "issue_url": "https://api.github.com/repos/PrismarineJS/node-minecraft-protocol/issues/1238",
    "labels": [],
    "locked": false,
    "maintainer_can_modify": false,
    "merge_commit_sha": "0b81bd6e47ff1f32cdc5e57aa047efefa90f6c3f",
    "mergeable": true,
    "mergeable_state": "blocked",
    "merged": false,
    "merged_at": null,
    "merged_by": null,
    "milestone": null,
    "node_id": "PR_kwDOAHDUK85VknZZ",
    "number": 1238,
    "patch_url": "https://github.com/PrismarineJS/node-minecraft-protocol/pull/1238.patch",
    "rebaseable": false,
    "requested_reviewers": [],
    "requested_teams": [],
    "review_comment_url": "https://api.github.com/repos/PrismarineJS/node-minecraft-protocol/pulls/comments{/number}",
    "review_comments": 0,
    "review_comments_url": "https://api.github.com/repos/PrismarineJS/node-minecraft-protocol/pulls/1238/comments",
    "state": "closed",
    "statuses_url": "https://api.github.com/repos/PrismarineJS/node-minecraft-protocol/statuses/fc8a08afd7c650f1767f70dab8c424dc5420bb00",
    "title": "fix to all the bugs ever",
    "updated_at": "2023-07-22T13:02:44Z",
    "url": "https://api.github.com/repos/PrismarineJS/node-minecraft-protocol/pulls/1238",
    "user": {
        "avatar_url": "https://avatars.githubusercontent.com/u/69821200?v=4",
        "events_url": "https://api.github.com/users/RealLava/events{/privacy}",
        "followers_url": "https://api.github.com/users/RealLava/followers",
        "following_url": "https://api.github.com/users/RealLava/following{/other_user}",
        "gists_url": "https://api.github.com/users/RealLava/gists{/gist_id}",
        "gravatar_id": "",
        "html_url": "https://github.com/RealLava",
        "id": 69821200,
        "login": "RealLava",
        "node_id": "MDQ6VXNlcjY5ODIxMjAw",
        "organizations_url": "https://api.github.com/users/RealLava/orgs",
        "received_events_url": "https://api.github.com/users/RealLava/received_events",
        "repos_url": "https://api.github.com/users/RealLava/repos",
        "site_admin": false,
        "starred_url": "https://api.github.com/users/RealLava/starred{/owner}{/repo}",
        "subscriptions_url": "https://api.github.com/users/RealLava/subscriptions",
        "type": "User",
        "url": "https://api.github.com/users/RealLava"
    }
}