{
    "_links": {
        "comments": {
            "href": "https://api.github.com/repos/PrismarineJS/node-minecraft-protocol/issues/322/comments"
        },
        "commits": {
            "href": "https://api.github.com/repos/PrismarineJS/node-minecraft-protocol/pulls/322/commits"
        },
        "html": {
            "href": "https://github.com/PrismarineJS/node-minecraft-protocol/pull/322"
        },
        "issue": {
            "href": "https://api.github.com/repos/PrismarineJS/node-minecraft-protocol/issues/322"
        },
        "review_comment": {
            "href": "https://api.github.com/repos/PrismarineJS/node-minecraft-protocol/pulls/comments{/number}"
        },
        "review_comments": {
            "href": "https://api.github.com/repos/PrismarineJS/node-minecraft-protocol/pulls/322/comments"
        },
        "self": {
            "href": "https://api.github.com/repos/PrismarineJS/node-minecraft-protocol/pulls/322"
        },
        "statuses": {
            "href": "https://api.github.com/repos/PrismarineJS/node-minecraft-protocol/statuses/942e08667472c2d155ec5f0bd259797e5e6a2746"
        }
    },
    "active_lock_reason": null,
    "additions": 4,
    "assignee": null,
    "assignees": [],
    "author_association": "MEMBER",
    "auto_merge": null,
    "base": {
        "label": "PrismarineJS:master",
        "ref": "master",
        "repo": {
            "allow_forking": true,
            "archive_url": "https://api.github.com/repos/PrismarineJS/node-minecraft-protocol/{archive_format}{/ref}",
            "archived": false,
            "assignees_url": "https://api.github.com/repos/PrismarineJS/node-minecraft-protocol/assignees{/user}",
            "blobs_url": "https://api.github.com/repos/PrismarineJS/node-minecraft-protocol/git/blobs{/sha}",
            "branches_url": "https://api.github.com/repos/PrismarineJS/node-minecraft-protocol/branches{/branch}",
            "clone_url": "https://github.com/PrismarineJS/node-minecraft-protocol.git",
            "collaborators_url": "https://api.github.com/repos/PrismarineJS/node-minecraft-protocol/collaborators{/collaborator}",
            "comments_url": "https://api.github.com/repos/PrismarineJS/node-minecraft-protocol/comments{/number}",
            "commits_url": "https://api.github.com/repos/PrismarineJS/node-minecraft-protocol/commits{/sha}",
            "compare_url": "https://api.github.com/repos/PrismarineJS/node-minecraft-protocol/compare/{base}...{head}",
            "contents_url": "https://api.github.com/repos/PrismarineJS/node-minecraft-protocol/contents/{+path}",
            "contributors_url": "https://api.github.com/repos/PrismarineJS/node-minecraft-protocol/contributors",
            "created_at": "2013-01-01T09:17:05Z",
            "default_branch": "master",
            "deployments_url": "https://api.github.com/repos/PrismarineJS/node-minecraft-protocol/deployments",
            "description": "Parse and serialize minecraft packets, plus authentication and encryption.",
            "disabled": false,
            "downloads_url": "https://api.github.com/repos/PrismarineJS/node-minecraft-protocol/downloads",
            "events_url": "https://api.github.com/repos/PrismarineJS/node-minecraft-protocol/events",
            "fork": false,
            "forks": 222,
            "forks_count": 222,
            "forks_url": "https://api.github.com/repos/PrismarineJS/node-minecraft-protocol/forks",
            "full_name": "PrismarineJS/node-minecraft-protocol",
            "git_commits_url": "https://api.github.com/repos/PrismarineJS/node-minecraft-protocol/git/commits{/sha}",
            "git_refs_url": "https://api.github.com/repos/PrismarineJS/node-minecraft-protocol/git/refs{/sha}",
            "git_tags_url": "https://api.github.com/repos/PrismarineJS/node-minecraft-protocol/git/tags{/sha}",
            "git_url": "git://github.com/PrismarineJS/node-minecraft-protocol.git",
            "has_discussions": false,
            "has_downloads": true,
            "has_issues": true,
            "has_pages": true,
            "has_projects": true,
            "has_wiki": true,
            "homepage": "https://prismarinejs.github.io/node-minecraft-protocol/",
            "hooks_url": "https://api.github.com/repos/PrismarineJS/node-minecraft-protocol/hooks",
            "html_url": "https://github.com/PrismarineJS/node-minecraft-protocol",
            "id": 7394347,
            "is_template": false,
            "issue_comment_url": "https://api.github.com/repos/PrismarineJS/node-minecraft-protocol/issues/comments{/number}",
            "issue_events_url": "https://api.github.com/repos/PrismarineJS/node-minecraft-protocol/issues/events{/number}",
            "issues_url": "https://api.github.com/repos/PrismarineJS/node-minecraft-protocol/issues{/number}",
            "keys_url": "https://api.github.com/repos/PrismarineJS/node-minecraft-protocol/keys{/key_id}",
            "labels_url": "https://api.github.com/repos/PrismarineJS/node-minecraft-protocol/labels{/name}",
            "language": "JavaScript",
            "languages_url": "https://api.github.com/repos/PrismarineJS/node-minecraft-protocol/languages",
            "license": {
                "key": "bsd-3-clause",
                "name": "BSD 3-Clause \"New\" or \"Revised\" License",
                "node_id": "MDc6TGljZW5zZTU=",
                "spdx_id": "BSD-3-Clause",
                "url": "https://api.github.com/licenses/bsd-3-clause"
            },
            "merges_url": "https://api.github.com/repos/PrismarineJS/node-minecraft-protocol/merges",
            "milestones_url": "https://api.github.com/repos/PrismarineJS/node-minecraft-protocol/milestones{/number}",
            "mirror_url": null,
            "name": "node-minecraft-protocol",
            "node_id": "MDEwOlJlcG9zaXRvcnk3Mzk0MzQ3",
            "notifications_url": "https://api.github.com/repos/PrismarineJS/node-minecraft-protocol/notifications{?since,all,participating}",
            "open_issues": 92,
            "open_issues_count": 92,
            "owner": {
                "avatar_url": "https://avatars.githubusercontent.com/u/11053411?v=4",
                "events_url": "https://api.github.com/users/PrismarineJS/events{/privacy}",
                "followers_url": "https://api.github.com/users/PrismarineJS/followers",
                "following_url": "https://api.github.com/users/PrismarineJS/following{/other_user}",
                "gists_url": "https://api.github.com/users/PrismarineJS/gists{/gist_id}",
                "gravatar_id": "",
                "html_url": "https://github.com/PrismarineJS",
                "id": 11053411,
                "login": "PrismarineJS",
                "node_id": "MDEyOk9yZ2FuaXphdGlvbjExMDUzNDEx",
                "organizations_url": "https://api.github.com/users/PrismarineJS/orgs",
                "received_events_url": "https://api.github.com/users/PrismarineJS/received_events",
                "repos_url": "https://api.github.com/users/PrismarineJS/repos",
                "site_admin": false,
                "starred_url": "https://api.github.com/users/PrismarineJS/starred{/owner}{/repo}",
                "subscriptions_url": "https://api.github.com/users/PrismarineJS/subscriptions",
                "type": "Organization",
                "url": "https://api.github.com/users/PrismarineJS"
            },
            "private": false,
            "pulls_url": "https://api.github.com/repos/PrismarineJS/node-minecraft-protocol/pulls{/number}",
            "pushed_at": "2023-04-22T09:19:41Z",
            "releases_url": "https://api.github.com/repos/PrismarineJS/node-minecraft-protocol/releases{/id}",
            "size": 1785,
            "ssh_url": "git@github.com:PrismarineJS/node-minecraft-protocol.git",
            "stargazers_count": 1063,
            "stargazers_url": "https://api.github.com/repos/PrismarineJS/node-minecraft-protocol/stargazers",
            "statuses_url": "https://api.github.com/repos/PrismarineJS/node-minecraft-protocol/statuses/{sha}",
            "subscribers_url": "https://api.github.com/repos/PrismarineJS/node-minecraft-protocol/subscribers",
            "subscription_url": "https://api.github.com/repos/PrismarineJS/node-minecraft-protocol/subscription",
            "svn_url": "https://github.com/PrismarineJS/node-minecraft-protocol",
            "tags_url": "https://api.github.com/repos/PrismarineJS/node-minecraft-protocol/tags",
            "teams_url": "https://api.github.com/repos/PrismarineJS/node-minecraft-protocol/teams",
            "topics": [
                "client",
                "minecraft",
                "network",
                "packets",
                "protocol",
                "proxy",
                "server"
            ],
            "trees_url": "https://api.github.com/repos/PrismarineJS/node-minecraft-protocol/git/trees{/sha}",
            "updated_at": "2023-04-22T17:20:34Z",
            "url": "https://api.github.com/repos/PrismarineJS/node-minecraft-protocol",
            "visibility": "public",
            "watchers": 1063,
            "watchers_count": 1063,
            "web_commit_signoff_required": false
        },
        "sha": "e9d959e219c23840fd439e5fdc5645b4289268e3",
        "user": {
            "avatar_url": "https://avatars.githubusercontent.com/u/11053411?v=4",
            "events_url": "https://api.github.com/users/PrismarineJS/events{/privacy}",
            "followers_url": "https://api.github.com/users/PrismarineJS/followers",
            "following_url": "https://api.github.com/users/PrismarineJS/following{/other_user}",
            "gists_url": "https://api.github.com/users/PrismarineJS/gists{/gist_id}",
            "gravatar_id": "",
            "html_url": "https://github.com/PrismarineJS",
            "id": 11053411,
            "login": "PrismarineJS",
            "node_id": "MDEyOk9yZ2FuaXphdGlvbjExMDUzNDEx",
            "organizations_url": "https://api.github.com/users/PrismarineJS/orgs",
            "received_events_url": "https://api.github.com/users/PrismarineJS/received_events",
            "repos_url": "https://api.github.com/users/PrismarineJS/repos",
            "site_admin": false,
            "starred_url": "https://api.github.com/users/PrismarineJS/starred{/owner}{/repo}",
            "subscriptions_url": "https://api.github.com/users/PrismarineJS/subscriptions",
            "type": "Organization",
            "url": "https://api.github.com/users/PrismarineJS"
        }
    },
    "body": "similar to https://github.com/PrismarineJS/node-minecraft-protocol/pull/305 , but with babel-preset-es2015\n\nnicer dist/\n",
    "changed_files": 3,
    "closed_at": "2016-02-01T09:31:03Z",
    "comment_data": [],
    "comment_regular_data": [
        {
            "author_association": "MEMBER",
            "body": "This adds the requirement to use (the latest) node5, I'm not 100% sure if we want to do that right now really, node5 is changing fairly fast.\n",
            "created_at": "2016-01-22T10:25:22Z",
            "html_url": "https://github.com/PrismarineJS/node-minecraft-protocol/pull/322#issuecomment-173871742",
            "id": 173871742,
            "issue_url": "https://api.github.com/repos/PrismarineJS/node-minecraft-protocol/issues/322",
            "node_id": "MDEyOklzc3VlQ29tbWVudDE3Mzg3MTc0Mg==",
            "performed_via_github_app": null,
            "reactions": {
                "+1": 0,
                "-1": 0,
                "confused": 0,
                "eyes": 0,
                "heart": 0,
                "hooray": 0,
                "laugh": 0,
                "rocket": 0,
                "total_count": 0,
                "url": "https://api.github.com/repos/PrismarineJS/node-minecraft-protocol/issues/comments/173871742/reactions"
            },
            "updated_at": "2016-01-22T10:25:22Z",
            "url": "https://api.github.com/repos/PrismarineJS/node-minecraft-protocol/issues/comments/173871742",
            "user": {
                "avatar_url": "https://avatars.githubusercontent.com/u/2346494?v=4",
                "events_url": "https://api.github.com/users/rom1504/events{/privacy}",
                "followers_url": "https://api.github.com/users/rom1504/followers",
                "following_url": "https://api.github.com/users/rom1504/following{/other_user}",
                "gists_url": "https://api.github.com/users/rom1504/gists{/gist_id}",
                "gravatar_id": "",
                "html_url": "https://github.com/rom1504",
                "id": 2346494,
                "login": "rom1504",
                "node_id": "MDQ6VXNlcjIzNDY0OTQ=",
                "organizations_url": "https://api.github.com/users/rom1504/orgs",
                "received_events_url": "https://api.github.com/users/rom1504/received_events",
                "repos_url": "https://api.github.com/users/rom1504/repos",
                "site_admin": false,
                "starred_url": "https://api.github.com/users/rom1504/starred{/owner}{/repo}",
                "subscriptions_url": "https://api.github.com/users/rom1504/subscriptions",
                "type": "User",
                "url": "https://api.github.com/users/rom1504"
            }
        },
        {
            "author_association": "MEMBER",
            "body": "Node changing fast isn't really the problem.\n\nThe biggest problem is whether node5 is available on debian/ubuntu. I believe the current nodejs available on debian is node4. So you'll have to tell those people how to install a newer version of node or live with them unable to use NMP :|\n",
            "created_at": "2016-01-23T13:58:59Z",
            "html_url": "https://github.com/PrismarineJS/node-minecraft-protocol/pull/322#issuecomment-174188224",
            "id": 174188224,
            "issue_url": "https://api.github.com/repos/PrismarineJS/node-minecraft-protocol/issues/322",
            "node_id": "MDEyOklzc3VlQ29tbWVudDE3NDE4ODIyNA==",
            "performed_via_github_app": null,
            "reactions": {
                "+1": 0,
                "-1": 0,
                "confused": 0,
                "eyes": 0,
                "heart": 0,
                "hooray": 0,
                "laugh": 0,
                "rocket": 0,
                "total_count": 0,
                "url": "https://api.github.com/repos/PrismarineJS/node-minecraft-protocol/issues/comments/174188224/reactions"
            },
            "updated_at": "2016-01-23T13:58:59Z",
            "url": "https://api.github.com/repos/PrismarineJS/node-minecraft-protocol/issues/comments/174188224",
            "user": {
                "avatar_url": "https://avatars.githubusercontent.com/u/1069318?v=4",
                "events_url": "https://api.github.com/users/roblabla/events{/privacy}",
                "followers_url": "https://api.github.com/users/roblabla/followers",
                "following_url": "https://api.github.com/users/roblabla/following{/other_user}",
                "gists_url": "https://api.github.com/users/roblabla/gists{/gist_id}",
                "gravatar_id": "",
                "html_url": "https://github.com/roblabla",
                "id": 1069318,
                "login": "roblabla",
                "node_id": "MDQ6VXNlcjEwNjkzMTg=",
                "organizations_url": "https://api.github.com/users/roblabla/orgs",
                "received_events_url": "https://api.github.com/users/roblabla/received_events",
                "repos_url": "https://api.github.com/users/roblabla/repos",
                "site_admin": false,
                "starred_url": "https://api.github.com/users/roblabla/starred{/owner}{/repo}",
                "subscriptions_url": "https://api.github.com/users/roblabla/subscriptions",
                "type": "User",
                "url": "https://api.github.com/users/roblabla"
            }
        },
        {
            "author_association": "MEMBER",
            "body": "The newest version available in Debian/Ubuntu is 0.10\nBut people are already installing node by other ways AFAIK\n",
            "created_at": "2016-01-23T14:07:05Z",
            "html_url": "https://github.com/PrismarineJS/node-minecraft-protocol/pull/322#issuecomment-174189123",
            "id": 174189123,
            "issue_url": "https://api.github.com/repos/PrismarineJS/node-minecraft-protocol/issues/322",
            "node_id": "MDEyOklzc3VlQ29tbWVudDE3NDE4OTEyMw==",
            "performed_via_github_app": null,
            "reactions": {
                "+1": 0,
                "-1": 0,
                "confused": 0,
                "eyes": 0,
                "heart": 0,
                "hooray": 0,
                "laugh": 0,
                "rocket": 0,
                "total_count": 0,
                "url": "https://api.github.com/repos/PrismarineJS/node-minecraft-protocol/issues/comments/174189123/reactions"
            },
            "updated_at": "2016-01-23T14:07:05Z",
            "url": "https://api.github.com/repos/PrismarineJS/node-minecraft-protocol/issues/comments/174189123",
            "user": {
                "avatar_url": "https://avatars.githubusercontent.com/u/2346494?v=4",
                "events_url": "https://api.github.com/users/rom1504/events{/privacy}",
                "followers_url": "https://api.github.com/users/rom1504/followers",
                "following_url": "https://api.github.com/users/rom1504/following{/other_user}",
                "gists_url": "https://api.github.com/users/rom1504/gists{/gist_id}",
                "gravatar_id": "",
                "html_url": "https://github.com/rom1504",
                "id": 2346494,
                "login": "rom1504",
                "node_id": "MDQ6VXNlcjIzNDY0OTQ=",
                "organizations_url": "https://api.github.com/users/rom1504/orgs",
                "received_events_url": "https://api.github.com/users/rom1504/received_events",
                "repos_url": "https://api.github.com/users/rom1504/repos",
                "site_admin": false,
                "starred_url": "https://api.github.com/users/rom1504/starred{/owner}{/repo}",
                "subscriptions_url": "https://api.github.com/users/rom1504/subscriptions",
                "type": "User",
                "url": "https://api.github.com/users/rom1504"
            }
        },
        {
            "author_association": "MEMBER",
            "body": "[nvm](https://www.npmjs.com/package/nvm) (node version manager) is a good way to install node.js, and manage multiple versions. I use it but my concern is support, according to https://nodejs.org/en/ the \"Mature and Dependable\" long-term support node version is v4, so I think it would be prudent to support the LTS version to maximize long-term compatibility, unless there are compelling reasons to do otherwise (like getting rid of the build step: https://github.com/PrismarineJS/node-minecraft-protocol/pull/319 - but that may need to wait until ES6 is better supported).\n",
            "created_at": "2016-01-24T05:50:32Z",
            "html_url": "https://github.com/PrismarineJS/node-minecraft-protocol/pull/322#issuecomment-174258503",
            "id": 174258503,
            "issue_url": "https://api.github.com/repos/PrismarineJS/node-minecraft-protocol/issues/322",
            "node_id": "MDEyOklzc3VlQ29tbWVudDE3NDI1ODUwMw==",
            "performed_via_github_app": null,
            "reactions": {
                "+1": 0,
                "-1": 0,
                "confused": 0,
                "eyes": 0,
                "heart": 0,
                "hooray": 0,
                "laugh": 0,
                "rocket": 0,
                "total_count": 0,
                "url": "https://api.github.com/repos/PrismarineJS/node-minecraft-protocol/issues/comments/174258503/reactions"
            },
            "updated_at": "2016-01-24T05:51:34Z",
            "url": "https://api.github.com/repos/PrismarineJS/node-minecraft-protocol/issues/comments/174258503",
            "user": {
                "avatar_url": "https://avatars.githubusercontent.com/u/5897956?v=4",
                "events_url": "https://api.github.com/users/deathcap/events{/privacy}",
                "followers_url": "https://api.github.com/users/deathcap/followers",
                "following_url": "https://api.github.com/users/deathcap/following{/other_user}",
                "gists_url": "https://api.github.com/users/deathcap/gists{/gist_id}",
                "gravatar_id": "",
                "html_url": "https://github.com/deathcap",
                "id": 5897956,
                "login": "deathcap",
                "node_id": "MDQ6VXNlcjU4OTc5NTY=",
                "organizations_url": "https://api.github.com/users/deathcap/orgs",
                "received_events_url": "https://api.github.com/users/deathcap/received_events",
                "repos_url": "https://api.github.com/users/deathcap/repos",
                "site_admin": false,
                "starred_url": "https://api.github.com/users/deathcap/starred{/owner}{/repo}",
                "subscriptions_url": "https://api.github.com/users/deathcap/subscriptions",
                "type": "User",
                "url": "https://api.github.com/users/deathcap"
            }
        },
        {
            "author_association": "MEMBER",
            "body": "Let's close this for now. It can be reopened later when es6 situation is clearer (related to https://github.com/PrismarineJS/node-minecraft-protocol/pull/319 )\n",
            "created_at": "2016-02-01T09:31:03Z",
            "html_url": "https://github.com/PrismarineJS/node-minecraft-protocol/pull/322#issuecomment-177874066",
            "id": 177874066,
            "issue_url": "https://api.github.com/repos/PrismarineJS/node-minecraft-protocol/issues/322",
            "node_id": "MDEyOklzc3VlQ29tbWVudDE3Nzg3NDA2Ng==",
            "performed_via_github_app": null,
            "reactions": {
                "+1": 0,
                "-1": 0,
                "confused": 0,
                "eyes": 0,
                "heart": 0,
                "hooray": 0,
                "laugh": 0,
                "rocket": 0,
                "total_count": 0,
                "url": "https://api.github.com/repos/PrismarineJS/node-minecraft-protocol/issues/comments/177874066/reactions"
            },
            "updated_at": "2016-02-01T09:31:03Z",
            "url": "https://api.github.com/repos/PrismarineJS/node-minecraft-protocol/issues/comments/177874066",
            "user": {
                "avatar_url": "https://avatars.githubusercontent.com/u/2346494?v=4",
                "events_url": "https://api.github.com/users/rom1504/events{/privacy}",
                "followers_url": "https://api.github.com/users/rom1504/followers",
                "following_url": "https://api.github.com/users/rom1504/following{/other_user}",
                "gists_url": "https://api.github.com/users/rom1504/gists{/gist_id}",
                "gravatar_id": "",
                "html_url": "https://github.com/rom1504",
                "id": 2346494,
                "login": "rom1504",
                "node_id": "MDQ6VXNlcjIzNDY0OTQ=",
                "organizations_url": "https://api.github.com/users/rom1504/orgs",
                "received_events_url": "https://api.github.com/users/rom1504/received_events",
                "repos_url": "https://api.github.com/users/rom1504/repos",
                "site_admin": false,
                "starred_url": "https://api.github.com/users/rom1504/starred{/owner}{/repo}",
                "subscriptions_url": "https://api.github.com/users/rom1504/subscriptions",
                "type": "User",
                "url": "https://api.github.com/users/rom1504"
            }
        }
    ],
    "comments": 5,
    "comments_url": "https://api.github.com/repos/PrismarineJS/node-minecraft-protocol/issues/322/comments",
    "commit_data": [
        {
            "author": {
                "avatar_url": "https://avatars.githubusercontent.com/u/2346494?v=4",
                "events_url": "https://api.github.com/users/rom1504/events{/privacy}",
                "followers_url": "https://api.github.com/users/rom1504/followers",
                "following_url": "https://api.github.com/users/rom1504/following{/other_user}",
                "gists_url": "https://api.github.com/users/rom1504/gists{/gist_id}",
                "gravatar_id": "",
                "html_url": "https://github.com/rom1504",
                "id": 2346494,
                "login": "rom1504",
                "node_id": "MDQ6VXNlcjIzNDY0OTQ=",
                "organizations_url": "https://api.github.com/users/rom1504/orgs",
                "received_events_url": "https://api.github.com/users/rom1504/received_events",
                "repos_url": "https://api.github.com/users/rom1504/repos",
                "site_admin": false,
                "starred_url": "https://api.github.com/users/rom1504/starred{/owner}{/repo}",
                "subscriptions_url": "https://api.github.com/users/rom1504/subscriptions",
                "type": "User",
                "url": "https://api.github.com/users/rom1504"
            },
            "comments_url": "https://api.github.com/repos/PrismarineJS/node-minecraft-protocol/commits/bad378821caa555c84947753d6693c6b649d7824/comments",
            "commit": {
                "author": {
                    "date": "2016-01-19T23:53:48Z",
                    "email": "romain.rom1@gmail.com",
                    "name": "Romain Beaumont"
                },
                "comment_count": 0,
                "committer": {
                    "date": "2016-02-01T09:30:38Z",
                    "email": "romain.rom1@gmail.com",
                    "name": "Romain Beaumont"
                },
                "message": "use babel-preset-es2015-node5 instead of babel-preset-es2015, nicer dist/",
                "tree": {
                    "sha": "ba062ebc1869ea9585be0828adbc9e3309d7cbc5",
                    "url": "https://api.github.com/repos/PrismarineJS/node-minecraft-protocol/git/trees/ba062ebc1869ea9585be0828adbc9e3309d7cbc5"
                },
                "url": "https://api.github.com/repos/PrismarineJS/node-minecraft-protocol/git/commits/bad378821caa555c84947753d6693c6b649d7824",
                "verification": {
                    "payload": null,
                    "reason": "unsigned",
                    "signature": null,
                    "verified": false
                }
            },
            "committer": {
                "avatar_url": "https://avatars.githubusercontent.com/u/2346494?v=4",
                "events_url": "https://api.github.com/users/rom1504/events{/privacy}",
                "followers_url": "https://api.github.com/users/rom1504/followers",
                "following_url": "https://api.github.com/users/rom1504/following{/other_user}",
                "gists_url": "https://api.github.com/users/rom1504/gists{/gist_id}",
                "gravatar_id": "",
                "html_url": "https://github.com/rom1504",
                "id": 2346494,
                "login": "rom1504",
                "node_id": "MDQ6VXNlcjIzNDY0OTQ=",
                "organizations_url": "https://api.github.com/users/rom1504/orgs",
                "received_events_url": "https://api.github.com/users/rom1504/received_events",
                "repos_url": "https://api.github.com/users/rom1504/repos",
                "site_admin": false,
                "starred_url": "https://api.github.com/users/rom1504/starred{/owner}{/repo}",
                "subscriptions_url": "https://api.github.com/users/rom1504/subscriptions",
                "type": "User",
                "url": "https://api.github.com/users/rom1504"
            },
            "html_url": "https://github.com/PrismarineJS/node-minecraft-protocol/commit/bad378821caa555c84947753d6693c6b649d7824",
            "node_id": "MDY6Q29tbWl0MzI2NTY2NTc6YmFkMzc4ODIxY2FhNTU1Yzg0OTQ3NzUzZDY2OTNjNmI2NDlkNzgyNA==",
            "parents": [
                {
                    "html_url": "https://github.com/PrismarineJS/node-minecraft-protocol/commit/e9d959e219c23840fd439e5fdc5645b4289268e3",
                    "sha": "e9d959e219c23840fd439e5fdc5645b4289268e3",
                    "url": "https://api.github.com/repos/PrismarineJS/node-minecraft-protocol/commits/e9d959e219c23840fd439e5fdc5645b4289268e3"
                }
            ],
            "sha": "bad378821caa555c84947753d6693c6b649d7824",
            "url": "https://api.github.com/repos/PrismarineJS/node-minecraft-protocol/commits/bad378821caa555c84947753d6693c6b649d7824"
        },
        {
            "author": {
                "avatar_url": "https://avatars.githubusercontent.com/u/2346494?v=4",
                "events_url": "https://api.github.com/users/rom1504/events{/privacy}",
                "followers_url": "https://api.github.com/users/rom1504/followers",
                "following_url": "https://api.github.com/users/rom1504/following{/other_user}",
                "gists_url": "https://api.github.com/users/rom1504/gists{/gist_id}",
                "gravatar_id": "",
                "html_url": "https://github.com/rom1504",
                "id": 2346494,
                "login": "rom1504",
                "node_id": "MDQ6VXNlcjIzNDY0OTQ=",
                "organizations_url": "https://api.github.com/users/rom1504/orgs",
                "received_events_url": "https://api.github.com/users/rom1504/received_events",
                "repos_url": "https://api.github.com/users/rom1504/repos",
                "site_admin": false,
                "starred_url": "https://api.github.com/users/rom1504/starred{/owner}{/repo}",
                "subscriptions_url": "https://api.github.com/users/rom1504/subscriptions",
                "type": "User",
                "url": "https://api.github.com/users/rom1504"
            },
            "comments_url": "https://api.github.com/repos/PrismarineJS/node-minecraft-protocol/commits/942e08667472c2d155ec5f0bd259797e5e6a2746/comments",
            "commit": {
                "author": {
                    "date": "2016-01-19T23:58:05Z",
                    "email": "romain.rom1@gmail.com",
                    "name": "Romain Beaumont"
                },
                "comment_count": 0,
                "committer": {
                    "date": "2016-02-01T09:30:38Z",
                    "email": "romain.rom1@gmail.com",
                    "name": "Romain Beaumont"
                },
                "message": "requires node5",
                "tree": {
                    "sha": "c022caab7dc27c502966ec1e8cf7b4c235e014b4",
                    "url": "https://api.github.com/repos/PrismarineJS/node-minecraft-protocol/git/trees/c022caab7dc27c502966ec1e8cf7b4c235e014b4"
                },
                "url": "https://api.github.com/repos/PrismarineJS/node-minecraft-protocol/git/commits/942e08667472c2d155ec5f0bd259797e5e6a2746",
                "verification": {
                    "payload": null,
                    "reason": "unsigned",
                    "signature": null,
                    "verified": false
                }
            },
            "committer": {
                "avatar_url": "https://avatars.githubusercontent.com/u/2346494?v=4",
                "events_url": "https://api.github.com/users/rom1504/events{/privacy}",
                "followers_url": "https://api.github.com/users/rom1504/followers",
                "following_url": "https://api.github.com/users/rom1504/following{/other_user}",
                "gists_url": "https://api.github.com/users/rom1504/gists{/gist_id}",
                "gravatar_id": "",
                "html_url": "https://github.com/rom1504",
                "id": 2346494,
                "login": "rom1504",
                "node_id": "MDQ6VXNlcjIzNDY0OTQ=",
                "organizations_url": "https://api.github.com/users/rom1504/orgs",
                "received_events_url": "https://api.github.com/users/rom1504/received_events",
                "repos_url": "https://api.github.com/users/rom1504/repos",
                "site_admin": false,
                "starred_url": "https://api.github.com/users/rom1504/starred{/owner}{/repo}",
                "subscriptions_url": "https://api.github.com/users/rom1504/subscriptions",
                "type": "User",
                "url": "https://api.github.com/users/rom1504"
            },
            "html_url": "https://github.com/PrismarineJS/node-minecraft-protocol/commit/942e08667472c2d155ec5f0bd259797e5e6a2746",
            "node_id": "MDY6Q29tbWl0MzI2NTY2NTc6OTQyZTA4NjY3NDcyYzJkMTU1ZWM1ZjBiZDI1OTc5N2U1ZTZhMjc0Ng==",
            "parents": [
                {
                    "html_url": "https://github.com/PrismarineJS/node-minecraft-protocol/commit/bad378821caa555c84947753d6693c6b649d7824",
                    "sha": "bad378821caa555c84947753d6693c6b649d7824",
                    "url": "https://api.github.com/repos/PrismarineJS/node-minecraft-protocol/commits/bad378821caa555c84947753d6693c6b649d7824"
                }
            ],
            "sha": "942e08667472c2d155ec5f0bd259797e5e6a2746",
            "url": "https://api.github.com/repos/PrismarineJS/node-minecraft-protocol/commits/942e08667472c2d155ec5f0bd259797e5e6a2746"
        }
    ],
    "commits": 2,
    "commits_url": "https://api.github.com/repos/PrismarineJS/node-minecraft-protocol/pulls/322/commits",
    "created_at": "2016-01-19T23:54:49Z",
    "deletions": 4,
    "diff_url": "https://github.com/PrismarineJS/node-minecraft-protocol/pull/322.diff",
    "draft": false,
    "head": {
        "label": "rom1504:babel6_node5",
        "ref": "babel6_node5",
        "repo": {
            "allow_forking": true,
            "archive_url": "https://api.github.com/repos/rom1504/node-minecraft-protocol/{archive_format}{/ref}",
            "archived": false,
            "assignees_url": "https://api.github.com/repos/rom1504/node-minecraft-protocol/assignees{/user}",
            "blobs_url": "https://api.github.com/repos/rom1504/node-minecraft-protocol/git/blobs{/sha}",
            "branches_url": "https://api.github.com/repos/rom1504/node-minecraft-protocol/branches{/branch}",
            "clone_url": "https://github.com/rom1504/node-minecraft-protocol.git",
            "collaborators_url": "https://api.github.com/repos/rom1504/node-minecraft-protocol/collaborators{/collaborator}",
            "comments_url": "https://api.github.com/repos/rom1504/node-minecraft-protocol/comments{/number}",
            "commits_url": "https://api.github.com/repos/rom1504/node-minecraft-protocol/commits{/sha}",
            "compare_url": "https://api.github.com/repos/rom1504/node-minecraft-protocol/compare/{base}...{head}",
            "contents_url": "https://api.github.com/repos/rom1504/node-minecraft-protocol/contents/{+path}",
            "contributors_url": "https://api.github.com/repos/rom1504/node-minecraft-protocol/contributors",
            "created_at": "2015-03-22T01:05:17Z",
            "default_branch": "master",
            "deployments_url": "https://api.github.com/repos/rom1504/node-minecraft-protocol/deployments",
            "description": "Parse and serialize minecraft packets, plus authentication and encryption.",
            "disabled": false,
            "downloads_url": "https://api.github.com/repos/rom1504/node-minecraft-protocol/downloads",
            "events_url": "https://api.github.com/repos/rom1504/node-minecraft-protocol/events",
            "fork": true,
            "forks": 0,
            "forks_count": 0,
            "forks_url": "https://api.github.com/repos/rom1504/node-minecraft-protocol/forks",
            "full_name": "rom1504/node-minecraft-protocol",
            "git_commits_url": "https://api.github.com/repos/rom1504/node-minecraft-protocol/git/commits{/sha}",
            "git_refs_url": "https://api.github.com/repos/rom1504/node-minecraft-protocol/git/refs{/sha}",
            "git_tags_url": "https://api.github.com/repos/rom1504/node-minecraft-protocol/git/tags{/sha}",
            "git_url": "git://github.com/rom1504/node-minecraft-protocol.git",
            "has_discussions": false,
            "has_downloads": true,
            "has_issues": false,
            "has_pages": false,
            "has_projects": true,
            "has_wiki": true,
            "homepage": "http://prismarinejs.github.io/",
            "hooks_url": "https://api.github.com/repos/rom1504/node-minecraft-protocol/hooks",
            "html_url": "https://github.com/rom1504/node-minecraft-protocol",
            "id": 32656657,
            "is_template": false,
            "issue_comment_url": "https://api.github.com/repos/rom1504/node-minecraft-protocol/issues/comments{/number}",
            "issue_events_url": "https://api.github.com/repos/rom1504/node-minecraft-protocol/issues/events{/number}",
            "issues_url": "https://api.github.com/repos/rom1504/node-minecraft-protocol/issues{/number}",
            "keys_url": "https://api.github.com/repos/rom1504/node-minecraft-protocol/keys{/key_id}",
            "labels_url": "https://api.github.com/repos/rom1504/node-minecraft-protocol/labels{/name}",
            "language": "JavaScript",
            "languages_url": "https://api.github.com/repos/rom1504/node-minecraft-protocol/languages",
            "license": null,
            "merges_url": "https://api.github.com/repos/rom1504/node-minecraft-protocol/merges",
            "milestones_url": "https://api.github.com/repos/rom1504/node-minecraft-protocol/milestones{/number}",
            "mirror_url": null,
            "name": "node-minecraft-protocol",
            "node_id": "MDEwOlJlcG9zaXRvcnkzMjY1NjY1Nw==",
            "notifications_url": "https://api.github.com/repos/rom1504/node-minecraft-protocol/notifications{?since,all,participating}",
            "open_issues": 0,
            "open_issues_count": 0,
            "owner": {
                "avatar_url": "https://avatars.githubusercontent.com/u/2346494?v=4",
                "events_url": "https://api.github.com/users/rom1504/events{/privacy}",
                "followers_url": "https://api.github.com/users/rom1504/followers",
                "following_url": "https://api.github.com/users/rom1504/following{/other_user}",
                "gists_url": "https://api.github.com/users/rom1504/gists{/gist_id}",
                "gravatar_id": "",
                "html_url": "https://github.com/rom1504",
                "id": 2346494,
                "login": "rom1504",
                "node_id": "MDQ6VXNlcjIzNDY0OTQ=",
                "organizations_url": "https://api.github.com/users/rom1504/orgs",
                "received_events_url": "https://api.github.com/users/rom1504/received_events",
                "repos_url": "https://api.github.com/users/rom1504/repos",
                "site_admin": false,
                "starred_url": "https://api.github.com/users/rom1504/starred{/owner}{/repo}",
                "subscriptions_url": "https://api.github.com/users/rom1504/subscriptions",
                "type": "User",
                "url": "https://api.github.com/users/rom1504"
            },
            "private": false,
            "pulls_url": "https://api.github.com/repos/rom1504/node-minecraft-protocol/pulls{/number}",
            "pushed_at": "2016-08-10T18:06:44Z",
            "releases_url": "https://api.github.com/repos/rom1504/node-minecraft-protocol/releases{/id}",
            "size": 1006,
            "ssh_url": "git@github.com:rom1504/node-minecraft-protocol.git",
            "stargazers_count": 0,
            "stargazers_url": "https://api.github.com/repos/rom1504/node-minecraft-protocol/stargazers",
            "statuses_url": "https://api.github.com/repos/rom1504/node-minecraft-protocol/statuses/{sha}",
            "subscribers_url": "https://api.github.com/repos/rom1504/node-minecraft-protocol/subscribers",
            "subscription_url": "https://api.github.com/repos/rom1504/node-minecraft-protocol/subscription",
            "svn_url": "https://github.com/rom1504/node-minecraft-protocol",
            "tags_url": "https://api.github.com/repos/rom1504/node-minecraft-protocol/tags",
            "teams_url": "https://api.github.com/repos/rom1504/node-minecraft-protocol/teams",
            "topics": [],
            "trees_url": "https://api.github.com/repos/rom1504/node-minecraft-protocol/git/trees{/sha}",
            "updated_at": "2016-01-19T23:44:33Z",
            "url": "https://api.github.com/repos/rom1504/node-minecraft-protocol",
            "visibility": "public",
            "watchers": 0,
            "watchers_count": 0,
            "web_commit_signoff_required": false
        },
        "sha": "942e08667472c2d155ec5f0bd259797e5e6a2746",
        "user": {
            "avatar_url": "https://avatars.githubusercontent.com/u/2346494?v=4",
            "events_url": "https://api.github.com/users/rom1504/events{/privacy}",
            "followers_url": "https://api.github.com/users/rom1504/followers",
            "following_url": "https://api.github.com/users/rom1504/following{/other_user}",
            "gists_url": "https://api.github.com/users/rom1504/gists{/gist_id}",
            "gravatar_id": "",
            "html_url": "https://github.com/rom1504",
            "id": 2346494,
            "login": "rom1504",
            "node_id": "MDQ6VXNlcjIzNDY0OTQ=",
            "organizations_url": "https://api.github.com/users/rom1504/orgs",
            "received_events_url": "https://api.github.com/users/rom1504/received_events",
            "repos_url": "https://api.github.com/users/rom1504/repos",
            "site_admin": false,
            "starred_url": "https://api.github.com/users/rom1504/starred{/owner}{/repo}",
            "subscriptions_url": "https://api.github.com/users/rom1504/subscriptions",
            "type": "User",
            "url": "https://api.github.com/users/rom1504"
        }
    },
    "html_url": "https://github.com/PrismarineJS/node-minecraft-protocol/pull/322",
    "id": 56544840,
    "issue_url": "https://api.github.com/repos/PrismarineJS/node-minecraft-protocol/issues/322",
    "labels": [],
    "locked": false,
    "maintainer_can_modify": false,
    "merge_commit_sha": "0021f1dc101f570d4dbf01390dae914dba2683fa",
    "mergeable": false,
    "mergeable_state": "dirty",
    "merged": false,
    "merged_at": null,
    "merged_by": null,
    "milestone": null,
    "node_id": "MDExOlB1bGxSZXF1ZXN0NTY1NDQ4NDA=",
    "number": 322,
    "patch_url": "https://github.com/PrismarineJS/node-minecraft-protocol/pull/322.patch",
    "rebaseable": false,
    "requested_reviewers": [],
    "requested_teams": [],
    "review_comment_url": "https://api.github.com/repos/PrismarineJS/node-minecraft-protocol/pulls/comments{/number}",
    "review_comments": 0,
    "review_comments_url": "https://api.github.com/repos/PrismarineJS/node-minecraft-protocol/pulls/322/comments",
    "state": "closed",
    "statuses_url": "https://api.github.com/repos/PrismarineJS/node-minecraft-protocol/statuses/942e08667472c2d155ec5f0bd259797e5e6a2746",
    "title": "[WIP] Babel6 node5",
    "updated_at": "2016-02-01T09:31:03Z",
    "url": "https://api.github.com/repos/PrismarineJS/node-minecraft-protocol/pulls/322",
    "user": {
        "avatar_url": "https://avatars.githubusercontent.com/u/2346494?v=4",
        "events_url": "https://api.github.com/users/rom1504/events{/privacy}",
        "followers_url": "https://api.github.com/users/rom1504/followers",
        "following_url": "https://api.github.com/users/rom1504/following{/other_user}",
        "gists_url": "https://api.github.com/users/rom1504/gists{/gist_id}",
        "gravatar_id": "",
        "html_url": "https://github.com/rom1504",
        "id": 2346494,
        "login": "rom1504",
        "node_id": "MDQ6VXNlcjIzNDY0OTQ=",
        "organizations_url": "https://api.github.com/users/rom1504/orgs",
        "received_events_url": "https://api.github.com/users/rom1504/received_events",
        "repos_url": "https://api.github.com/users/rom1504/repos",
        "site_admin": false,
        "starred_url": "https://api.github.com/users/rom1504/starred{/owner}{/repo}",
        "subscriptions_url": "https://api.github.com/users/rom1504/subscriptions",
        "type": "User",
        "url": "https://api.github.com/users/rom1504"
    }
}