{
    "_links": {
        "comments": {
            "href": "https://api.github.com/repos/PrismarineJS/node-minecraft-protocol/issues/476/comments"
        },
        "commits": {
            "href": "https://api.github.com/repos/PrismarineJS/node-minecraft-protocol/pulls/476/commits"
        },
        "html": {
            "href": "https://github.com/PrismarineJS/node-minecraft-protocol/pull/476"
        },
        "issue": {
            "href": "https://api.github.com/repos/PrismarineJS/node-minecraft-protocol/issues/476"
        },
        "review_comment": {
            "href": "https://api.github.com/repos/PrismarineJS/node-minecraft-protocol/pulls/comments{/number}"
        },
        "review_comments": {
            "href": "https://api.github.com/repos/PrismarineJS/node-minecraft-protocol/pulls/476/comments"
        },
        "self": {
            "href": "https://api.github.com/repos/PrismarineJS/node-minecraft-protocol/pulls/476"
        },
        "statuses": {
            "href": "https://api.github.com/repos/PrismarineJS/node-minecraft-protocol/statuses/5eae30177c8f801b3e694e4792c4354fe01ed84f"
        }
    },
    "active_lock_reason": null,
    "additions": 1,
    "assignee": null,
    "assignees": [],
    "author_association": "CONTRIBUTOR",
    "auto_merge": null,
    "base": {
        "label": "PrismarineJS:master",
        "ref": "master",
        "repo": {
            "allow_forking": true,
            "archive_url": "https://api.github.com/repos/PrismarineJS/node-minecraft-protocol/{archive_format}{/ref}",
            "archived": false,
            "assignees_url": "https://api.github.com/repos/PrismarineJS/node-minecraft-protocol/assignees{/user}",
            "blobs_url": "https://api.github.com/repos/PrismarineJS/node-minecraft-protocol/git/blobs{/sha}",
            "branches_url": "https://api.github.com/repos/PrismarineJS/node-minecraft-protocol/branches{/branch}",
            "clone_url": "https://github.com/PrismarineJS/node-minecraft-protocol.git",
            "collaborators_url": "https://api.github.com/repos/PrismarineJS/node-minecraft-protocol/collaborators{/collaborator}",
            "comments_url": "https://api.github.com/repos/PrismarineJS/node-minecraft-protocol/comments{/number}",
            "commits_url": "https://api.github.com/repos/PrismarineJS/node-minecraft-protocol/commits{/sha}",
            "compare_url": "https://api.github.com/repos/PrismarineJS/node-minecraft-protocol/compare/{base}...{head}",
            "contents_url": "https://api.github.com/repos/PrismarineJS/node-minecraft-protocol/contents/{+path}",
            "contributors_url": "https://api.github.com/repos/PrismarineJS/node-minecraft-protocol/contributors",
            "created_at": "2013-01-01T09:17:05Z",
            "default_branch": "master",
            "deployments_url": "https://api.github.com/repos/PrismarineJS/node-minecraft-protocol/deployments",
            "description": "Parse and serialize minecraft packets, plus authentication and encryption.",
            "disabled": false,
            "downloads_url": "https://api.github.com/repos/PrismarineJS/node-minecraft-protocol/downloads",
            "events_url": "https://api.github.com/repos/PrismarineJS/node-minecraft-protocol/events",
            "fork": false,
            "forks": 222,
            "forks_count": 222,
            "forks_url": "https://api.github.com/repos/PrismarineJS/node-minecraft-protocol/forks",
            "full_name": "PrismarineJS/node-minecraft-protocol",
            "git_commits_url": "https://api.github.com/repos/PrismarineJS/node-minecraft-protocol/git/commits{/sha}",
            "git_refs_url": "https://api.github.com/repos/PrismarineJS/node-minecraft-protocol/git/refs{/sha}",
            "git_tags_url": "https://api.github.com/repos/PrismarineJS/node-minecraft-protocol/git/tags{/sha}",
            "git_url": "git://github.com/PrismarineJS/node-minecraft-protocol.git",
            "has_discussions": false,
            "has_downloads": true,
            "has_issues": true,
            "has_pages": true,
            "has_projects": true,
            "has_wiki": true,
            "homepage": "https://prismarinejs.github.io/node-minecraft-protocol/",
            "hooks_url": "https://api.github.com/repos/PrismarineJS/node-minecraft-protocol/hooks",
            "html_url": "https://github.com/PrismarineJS/node-minecraft-protocol",
            "id": 7394347,
            "is_template": false,
            "issue_comment_url": "https://api.github.com/repos/PrismarineJS/node-minecraft-protocol/issues/comments{/number}",
            "issue_events_url": "https://api.github.com/repos/PrismarineJS/node-minecraft-protocol/issues/events{/number}",
            "issues_url": "https://api.github.com/repos/PrismarineJS/node-minecraft-protocol/issues{/number}",
            "keys_url": "https://api.github.com/repos/PrismarineJS/node-minecraft-protocol/keys{/key_id}",
            "labels_url": "https://api.github.com/repos/PrismarineJS/node-minecraft-protocol/labels{/name}",
            "language": "JavaScript",
            "languages_url": "https://api.github.com/repos/PrismarineJS/node-minecraft-protocol/languages",
            "license": {
                "key": "bsd-3-clause",
                "name": "BSD 3-Clause \"New\" or \"Revised\" License",
                "node_id": "MDc6TGljZW5zZTU=",
                "spdx_id": "BSD-3-Clause",
                "url": "https://api.github.com/licenses/bsd-3-clause"
            },
            "merges_url": "https://api.github.com/repos/PrismarineJS/node-minecraft-protocol/merges",
            "milestones_url": "https://api.github.com/repos/PrismarineJS/node-minecraft-protocol/milestones{/number}",
            "mirror_url": null,
            "name": "node-minecraft-protocol",
            "node_id": "MDEwOlJlcG9zaXRvcnk3Mzk0MzQ3",
            "notifications_url": "https://api.github.com/repos/PrismarineJS/node-minecraft-protocol/notifications{?since,all,participating}",
            "open_issues": 92,
            "open_issues_count": 92,
            "owner": {
                "avatar_url": "https://avatars.githubusercontent.com/u/11053411?v=4",
                "events_url": "https://api.github.com/users/PrismarineJS/events{/privacy}",
                "followers_url": "https://api.github.com/users/PrismarineJS/followers",
                "following_url": "https://api.github.com/users/PrismarineJS/following{/other_user}",
                "gists_url": "https://api.github.com/users/PrismarineJS/gists{/gist_id}",
                "gravatar_id": "",
                "html_url": "https://github.com/PrismarineJS",
                "id": 11053411,
                "login": "PrismarineJS",
                "node_id": "MDEyOk9yZ2FuaXphdGlvbjExMDUzNDEx",
                "organizations_url": "https://api.github.com/users/PrismarineJS/orgs",
                "received_events_url": "https://api.github.com/users/PrismarineJS/received_events",
                "repos_url": "https://api.github.com/users/PrismarineJS/repos",
                "site_admin": false,
                "starred_url": "https://api.github.com/users/PrismarineJS/starred{/owner}{/repo}",
                "subscriptions_url": "https://api.github.com/users/PrismarineJS/subscriptions",
                "type": "Organization",
                "url": "https://api.github.com/users/PrismarineJS"
            },
            "private": false,
            "pulls_url": "https://api.github.com/repos/PrismarineJS/node-minecraft-protocol/pulls{/number}",
            "pushed_at": "2023-04-22T09:19:41Z",
            "releases_url": "https://api.github.com/repos/PrismarineJS/node-minecraft-protocol/releases{/id}",
            "size": 1785,
            "ssh_url": "git@github.com:PrismarineJS/node-minecraft-protocol.git",
            "stargazers_count": 1063,
            "stargazers_url": "https://api.github.com/repos/PrismarineJS/node-minecraft-protocol/stargazers",
            "statuses_url": "https://api.github.com/repos/PrismarineJS/node-minecraft-protocol/statuses/{sha}",
            "subscribers_url": "https://api.github.com/repos/PrismarineJS/node-minecraft-protocol/subscribers",
            "subscription_url": "https://api.github.com/repos/PrismarineJS/node-minecraft-protocol/subscription",
            "svn_url": "https://github.com/PrismarineJS/node-minecraft-protocol",
            "tags_url": "https://api.github.com/repos/PrismarineJS/node-minecraft-protocol/tags",
            "teams_url": "https://api.github.com/repos/PrismarineJS/node-minecraft-protocol/teams",
            "topics": [
                "client",
                "minecraft",
                "network",
                "packets",
                "protocol",
                "proxy",
                "server"
            ],
            "trees_url": "https://api.github.com/repos/PrismarineJS/node-minecraft-protocol/git/trees{/sha}",
            "updated_at": "2023-04-22T17:20:34Z",
            "url": "https://api.github.com/repos/PrismarineJS/node-minecraft-protocol",
            "visibility": "public",
            "watchers": 1063,
            "watchers_count": 1063,
            "web_commit_signoff_required": false
        },
        "sha": "1e74dc2c1bab3aa64996c70900dbaf84e2ee7f29",
        "user": {
            "avatar_url": "https://avatars.githubusercontent.com/u/11053411?v=4",
            "events_url": "https://api.github.com/users/PrismarineJS/events{/privacy}",
            "followers_url": "https://api.github.com/users/PrismarineJS/followers",
            "following_url": "https://api.github.com/users/PrismarineJS/following{/other_user}",
            "gists_url": "https://api.github.com/users/PrismarineJS/gists{/gist_id}",
            "gravatar_id": "",
            "html_url": "https://github.com/PrismarineJS",
            "id": 11053411,
            "login": "PrismarineJS",
            "node_id": "MDEyOk9yZ2FuaXphdGlvbjExMDUzNDEx",
            "organizations_url": "https://api.github.com/users/PrismarineJS/orgs",
            "received_events_url": "https://api.github.com/users/PrismarineJS/received_events",
            "repos_url": "https://api.github.com/users/PrismarineJS/repos",
            "site_admin": false,
            "starred_url": "https://api.github.com/users/PrismarineJS/starred{/owner}{/repo}",
            "subscriptions_url": "https://api.github.com/users/PrismarineJS/subscriptions",
            "type": "Organization",
            "url": "https://api.github.com/users/PrismarineJS"
        }
    },
    "body": "Hello lovely humans,\n\n[debug](https://www.npmjs.com/package/debug) just published its new version 2.6.3.\n\n<table>\n  <tr>\n    <th align=left>\n      State\n    </th>\n    <td>\n      Failing tests :rotating_light:\n    </td>\n  </tr>\n  <tr>\n    <th align=left>\n      Dependency\n    </td>\n    <td>\n      debug\n    </td>\n  </tr>\n  <tr>\n    <th align=left>\n      New version\n    </td>\n    <td>\n      2.6.3\n    </td>\n  </tr>\n  <tr>\n    <th align=left>\n      Type\n    </td>\n    <td>\n      dependency\n    </td>\n  </tr>\n</table>\n\nThis version is **covered** by your **current version range** and after updating it in your project **the build went from success to failure**.\n\nAs debug is a direct dependency of this project **this is very likely breaking your project right now**. If other packages depend on you it’s very likely also breaking them.\nI recommend you give this issue a very high priority. I’m sure you can resolve this :muscle:\n\n\nOf course this could just be a false positive, caused by a flaky test suite, or third parties that are currently broken or unavailable, but that would be another problem I’d recommend working on.\n\n\nDo you have any ideas how I could improve these pull requests? Did I report anything you think isn’t right?\nAre you unsure about how things are supposed to work?\n\nThere is a collection of [frequently asked questions](https://greenkeeper.io/faq.html) and while I’m just a bot, there is a group of people who are happy to teach me new things. [Let them know](https://github.com/greenkeeperio/greenkeeper/issues/new).\n\nGood luck with your project :sparkles:\n\nYou rock!\n\n:palm_tree:\n\n---\nThe new version differs by 136 commits .\n\n- [`9dc30f8`](https://github.com/visionmedia/debug/commit/9dc30f8378cc12192635cc6a31f0d96bb39be8bb) <code>release 2.6.3</code>\n- [`0fb8ea4`](https://github.com/visionmedia/debug/commit/0fb8ea4730ae06e6018d8723bee494b0dada30ad) <code>LocalStorage returns undefined for any key not present (#431)</code>\n- [`ce4d93e`](https://github.com/visionmedia/debug/commit/ce4d93e71d367f79ebc0f5aa73f9695a86831cdc) <code>changelog fix</code>\n- [`017a9d6`](https://github.com/visionmedia/debug/commit/017a9d68568fd24113bd73a477e0221aa969b732) <code>release 2.6.2</code>\n- [`23bc780`](https://github.com/visionmedia/debug/commit/23bc780b840da7f6eaffed6f90098fde27c5f4ca) <code>fix DEBUG_MAX_ARRAY_LENGTH</code>\n- [`065cbfb`](https://github.com/visionmedia/debug/commit/065cbfb1bf93cb4ea5f6bdd956aaba8e7e9f3822) <code> Add backers and sponsors from Open Collective (#422)</code>\n- [`918d686`](https://github.com/visionmedia/debug/commit/918d686521d3f8b4a0f6e0448351cdc06fdb84f6) <code>Revert \"add Slackin invite badge\"</code>\n- [`f46d671`](https://github.com/visionmedia/debug/commit/f46d67144d78a081c45a0d02cfec9da48b44e105) <code>add Slackin invite badge</code>\n- [`580a7a1`](https://github.com/visionmedia/debug/commit/580a7a18b3c7ee260ed95730676d5064fd1b50a4) <code>changed slackin url</code>\n- [`9f33c9a`](https://github.com/visionmedia/debug/commit/9f33c9a8a84636ae1c46489e10b2e919b9551f36) <code>added slackin</code>\n- [`941653e`](https://github.com/visionmedia/debug/commit/941653e3334e9e3e2cca87cad9bbf6c5cb245215) <code>release 2.6.1</code>\n- [`37e14d6`](https://github.com/visionmedia/debug/commit/37e14d6aad739c565cf225da7a204d2a1d1907ea) <code>Whitelist DEBUG_FD for values 1 and 2 only Fixes #410 (#415)</code>\n- [`705a9fe`](https://github.com/visionmedia/debug/commit/705a9fe6133019cae2dd96eaca1e8ce1e4dea835) <code>Merge pull request #414 from vgoma/export-default-fix</code>\n- [`78ae6c9`](https://github.com/visionmedia/debug/commit/78ae6c94122a5c23263b6ea6def0d7ead474fc66) <code>Fixed IE8 \"Expected identifier\" error</code>\n- [`1c163a4`](https://github.com/visionmedia/debug/commit/1c163a48c16fdfcaff734d2233bec6fff3d6f0f0) <code>added names and skips arrays erasing on enable call (#409)</code>\n\n\nThere are 136 commits in total. See the [full diff](https://github.com/visionmedia/debug/compare/b38458422b5aa8aa6d286b10dfe427e8a67e2b35...9dc30f8378cc12192635cc6a31f0d96bb39be8bb).\n\n---\n| ✨ Try the all new [Greenkeeper GitHub Integration](https://git.io/uptodate) ✨ |\n| --- |\n| With [Integrations](https://developer.github.com/early-access/integrations/) **first-class bot support** landed on GitHub and we’ve rewritten Greenkeeper to take full advantage of it. **Simpler setup, fewer pull-requests, faster than ever**.<br><br> <details><summary>Screencast</summary><img src=\"https://cloud.githubusercontent.com/assets/908178/19868156/20c1c0c4-9fa7-11e6-9f17-611c51677dbd.gif\" /></details><br> [**Try it today**](https://git.io/uptodate). Free for private repositories during beta. |",
    "changed_files": 1,
    "closed_at": "2017-03-14T15:45:30Z",
    "comment_data": [],
    "comment_regular_data": [],
    "comments": 0,
    "comments_url": "https://api.github.com/repos/PrismarineJS/node-minecraft-protocol/issues/476/comments",
    "commit_data": [
        {
            "author": {
                "avatar_url": "https://avatars.githubusercontent.com/u/14790466?v=4",
                "events_url": "https://api.github.com/users/greenkeeperio-bot/events{/privacy}",
                "followers_url": "https://api.github.com/users/greenkeeperio-bot/followers",
                "following_url": "https://api.github.com/users/greenkeeperio-bot/following{/other_user}",
                "gists_url": "https://api.github.com/users/greenkeeperio-bot/gists{/gist_id}",
                "gravatar_id": "",
                "html_url": "https://github.com/greenkeeperio-bot",
                "id": 14790466,
                "login": "greenkeeperio-bot",
                "node_id": "MDQ6VXNlcjE0NzkwNDY2",
                "organizations_url": "https://api.github.com/users/greenkeeperio-bot/orgs",
                "received_events_url": "https://api.github.com/users/greenkeeperio-bot/received_events",
                "repos_url": "https://api.github.com/users/greenkeeperio-bot/repos",
                "site_admin": false,
                "starred_url": "https://api.github.com/users/greenkeeperio-bot/starred{/owner}{/repo}",
                "subscriptions_url": "https://api.github.com/users/greenkeeperio-bot/subscriptions",
                "type": "User",
                "url": "https://api.github.com/users/greenkeeperio-bot"
            },
            "comments_url": "https://api.github.com/repos/PrismarineJS/node-minecraft-protocol/commits/5eae30177c8f801b3e694e4792c4354fe01ed84f/comments",
            "commit": {
                "author": {
                    "date": "2017-03-14T04:03:07Z",
                    "email": "support@greenkeeper.io",
                    "name": "greenkeeperio-bot"
                },
                "comment_count": 0,
                "committer": {
                    "date": "2017-03-14T04:03:07Z",
                    "email": "support@greenkeeper.io",
                    "name": "greenkeeperio-bot"
                },
                "message": "chore(package): update debug to version 2.6.3\n\nhttps://greenkeeper.io/",
                "tree": {
                    "sha": "fbf55d82af8e840b194cef691c10b8e088c5fb5f",
                    "url": "https://api.github.com/repos/PrismarineJS/node-minecraft-protocol/git/trees/fbf55d82af8e840b194cef691c10b8e088c5fb5f"
                },
                "url": "https://api.github.com/repos/PrismarineJS/node-minecraft-protocol/git/commits/5eae30177c8f801b3e694e4792c4354fe01ed84f",
                "verification": {
                    "payload": null,
                    "reason": "unsigned",
                    "signature": null,
                    "verified": false
                }
            },
            "committer": {
                "avatar_url": "https://avatars.githubusercontent.com/u/14790466?v=4",
                "events_url": "https://api.github.com/users/greenkeeperio-bot/events{/privacy}",
                "followers_url": "https://api.github.com/users/greenkeeperio-bot/followers",
                "following_url": "https://api.github.com/users/greenkeeperio-bot/following{/other_user}",
                "gists_url": "https://api.github.com/users/greenkeeperio-bot/gists{/gist_id}",
                "gravatar_id": "",
                "html_url": "https://github.com/greenkeeperio-bot",
                "id": 14790466,
                "login": "greenkeeperio-bot",
                "node_id": "MDQ6VXNlcjE0NzkwNDY2",
                "organizations_url": "https://api.github.com/users/greenkeeperio-bot/orgs",
                "received_events_url": "https://api.github.com/users/greenkeeperio-bot/received_events",
                "repos_url": "https://api.github.com/users/greenkeeperio-bot/repos",
                "site_admin": false,
                "starred_url": "https://api.github.com/users/greenkeeperio-bot/starred{/owner}{/repo}",
                "subscriptions_url": "https://api.github.com/users/greenkeeperio-bot/subscriptions",
                "type": "User",
                "url": "https://api.github.com/users/greenkeeperio-bot"
            },
            "html_url": "https://github.com/PrismarineJS/node-minecraft-protocol/commit/5eae30177c8f801b3e694e4792c4354fe01ed84f",
            "node_id": "MDY6Q29tbWl0NzM5NDM0Nzo1ZWFlMzAxNzdjOGY4MDFiM2U2OTRlNDc5MmM0MzU0ZmUwMWVkODRm",
            "parents": [
                {
                    "html_url": "https://github.com/PrismarineJS/node-minecraft-protocol/commit/1e74dc2c1bab3aa64996c70900dbaf84e2ee7f29",
                    "sha": "1e74dc2c1bab3aa64996c70900dbaf84e2ee7f29",
                    "url": "https://api.github.com/repos/PrismarineJS/node-minecraft-protocol/commits/1e74dc2c1bab3aa64996c70900dbaf84e2ee7f29"
                }
            ],
            "sha": "5eae30177c8f801b3e694e4792c4354fe01ed84f",
            "url": "https://api.github.com/repos/PrismarineJS/node-minecraft-protocol/commits/5eae30177c8f801b3e694e4792c4354fe01ed84f"
        }
    ],
    "commits": 1,
    "commits_url": "https://api.github.com/repos/PrismarineJS/node-minecraft-protocol/pulls/476/commits",
    "created_at": "2017-03-14T04:12:02Z",
    "deletions": 1,
    "diff_url": "https://github.com/PrismarineJS/node-minecraft-protocol/pull/476.diff",
    "draft": false,
    "head": {
        "label": "PrismarineJS:greenkeeper-debug-2.6.3",
        "ref": "greenkeeper-debug-2.6.3",
        "repo": {
            "allow_forking": true,
            "archive_url": "https://api.github.com/repos/PrismarineJS/node-minecraft-protocol/{archive_format}{/ref}",
            "archived": false,
            "assignees_url": "https://api.github.com/repos/PrismarineJS/node-minecraft-protocol/assignees{/user}",
            "blobs_url": "https://api.github.com/repos/PrismarineJS/node-minecraft-protocol/git/blobs{/sha}",
            "branches_url": "https://api.github.com/repos/PrismarineJS/node-minecraft-protocol/branches{/branch}",
            "clone_url": "https://github.com/PrismarineJS/node-minecraft-protocol.git",
            "collaborators_url": "https://api.github.com/repos/PrismarineJS/node-minecraft-protocol/collaborators{/collaborator}",
            "comments_url": "https://api.github.com/repos/PrismarineJS/node-minecraft-protocol/comments{/number}",
            "commits_url": "https://api.github.com/repos/PrismarineJS/node-minecraft-protocol/commits{/sha}",
            "compare_url": "https://api.github.com/repos/PrismarineJS/node-minecraft-protocol/compare/{base}...{head}",
            "contents_url": "https://api.github.com/repos/PrismarineJS/node-minecraft-protocol/contents/{+path}",
            "contributors_url": "https://api.github.com/repos/PrismarineJS/node-minecraft-protocol/contributors",
            "created_at": "2013-01-01T09:17:05Z",
            "default_branch": "master",
            "deployments_url": "https://api.github.com/repos/PrismarineJS/node-minecraft-protocol/deployments",
            "description": "Parse and serialize minecraft packets, plus authentication and encryption.",
            "disabled": false,
            "downloads_url": "https://api.github.com/repos/PrismarineJS/node-minecraft-protocol/downloads",
            "events_url": "https://api.github.com/repos/PrismarineJS/node-minecraft-protocol/events",
            "fork": false,
            "forks": 222,
            "forks_count": 222,
            "forks_url": "https://api.github.com/repos/PrismarineJS/node-minecraft-protocol/forks",
            "full_name": "PrismarineJS/node-minecraft-protocol",
            "git_commits_url": "https://api.github.com/repos/PrismarineJS/node-minecraft-protocol/git/commits{/sha}",
            "git_refs_url": "https://api.github.com/repos/PrismarineJS/node-minecraft-protocol/git/refs{/sha}",
            "git_tags_url": "https://api.github.com/repos/PrismarineJS/node-minecraft-protocol/git/tags{/sha}",
            "git_url": "git://github.com/PrismarineJS/node-minecraft-protocol.git",
            "has_discussions": false,
            "has_downloads": true,
            "has_issues": true,
            "has_pages": true,
            "has_projects": true,
            "has_wiki": true,
            "homepage": "https://prismarinejs.github.io/node-minecraft-protocol/",
            "hooks_url": "https://api.github.com/repos/PrismarineJS/node-minecraft-protocol/hooks",
            "html_url": "https://github.com/PrismarineJS/node-minecraft-protocol",
            "id": 7394347,
            "is_template": false,
            "issue_comment_url": "https://api.github.com/repos/PrismarineJS/node-minecraft-protocol/issues/comments{/number}",
            "issue_events_url": "https://api.github.com/repos/PrismarineJS/node-minecraft-protocol/issues/events{/number}",
            "issues_url": "https://api.github.com/repos/PrismarineJS/node-minecraft-protocol/issues{/number}",
            "keys_url": "https://api.github.com/repos/PrismarineJS/node-minecraft-protocol/keys{/key_id}",
            "labels_url": "https://api.github.com/repos/PrismarineJS/node-minecraft-protocol/labels{/name}",
            "language": "JavaScript",
            "languages_url": "https://api.github.com/repos/PrismarineJS/node-minecraft-protocol/languages",
            "license": {
                "key": "bsd-3-clause",
                "name": "BSD 3-Clause \"New\" or \"Revised\" License",
                "node_id": "MDc6TGljZW5zZTU=",
                "spdx_id": "BSD-3-Clause",
                "url": "https://api.github.com/licenses/bsd-3-clause"
            },
            "merges_url": "https://api.github.com/repos/PrismarineJS/node-minecraft-protocol/merges",
            "milestones_url": "https://api.github.com/repos/PrismarineJS/node-minecraft-protocol/milestones{/number}",
            "mirror_url": null,
            "name": "node-minecraft-protocol",
            "node_id": "MDEwOlJlcG9zaXRvcnk3Mzk0MzQ3",
            "notifications_url": "https://api.github.com/repos/PrismarineJS/node-minecraft-protocol/notifications{?since,all,participating}",
            "open_issues": 92,
            "open_issues_count": 92,
            "owner": {
                "avatar_url": "https://avatars.githubusercontent.com/u/11053411?v=4",
                "events_url": "https://api.github.com/users/PrismarineJS/events{/privacy}",
                "followers_url": "https://api.github.com/users/PrismarineJS/followers",
                "following_url": "https://api.github.com/users/PrismarineJS/following{/other_user}",
                "gists_url": "https://api.github.com/users/PrismarineJS/gists{/gist_id}",
                "gravatar_id": "",
                "html_url": "https://github.com/PrismarineJS",
                "id": 11053411,
                "login": "PrismarineJS",
                "node_id": "MDEyOk9yZ2FuaXphdGlvbjExMDUzNDEx",
                "organizations_url": "https://api.github.com/users/PrismarineJS/orgs",
                "received_events_url": "https://api.github.com/users/PrismarineJS/received_events",
                "repos_url": "https://api.github.com/users/PrismarineJS/repos",
                "site_admin": false,
                "starred_url": "https://api.github.com/users/PrismarineJS/starred{/owner}{/repo}",
                "subscriptions_url": "https://api.github.com/users/PrismarineJS/subscriptions",
                "type": "Organization",
                "url": "https://api.github.com/users/PrismarineJS"
            },
            "private": false,
            "pulls_url": "https://api.github.com/repos/PrismarineJS/node-minecraft-protocol/pulls{/number}",
            "pushed_at": "2023-04-22T09:19:41Z",
            "releases_url": "https://api.github.com/repos/PrismarineJS/node-minecraft-protocol/releases{/id}",
            "size": 1785,
            "ssh_url": "git@github.com:PrismarineJS/node-minecraft-protocol.git",
            "stargazers_count": 1063,
            "stargazers_url": "https://api.github.com/repos/PrismarineJS/node-minecraft-protocol/stargazers",
            "statuses_url": "https://api.github.com/repos/PrismarineJS/node-minecraft-protocol/statuses/{sha}",
            "subscribers_url": "https://api.github.com/repos/PrismarineJS/node-minecraft-protocol/subscribers",
            "subscription_url": "https://api.github.com/repos/PrismarineJS/node-minecraft-protocol/subscription",
            "svn_url": "https://github.com/PrismarineJS/node-minecraft-protocol",
            "tags_url": "https://api.github.com/repos/PrismarineJS/node-minecraft-protocol/tags",
            "teams_url": "https://api.github.com/repos/PrismarineJS/node-minecraft-protocol/teams",
            "topics": [
                "client",
                "minecraft",
                "network",
                "packets",
                "protocol",
                "proxy",
                "server"
            ],
            "trees_url": "https://api.github.com/repos/PrismarineJS/node-minecraft-protocol/git/trees{/sha}",
            "updated_at": "2023-04-22T17:20:34Z",
            "url": "https://api.github.com/repos/PrismarineJS/node-minecraft-protocol",
            "visibility": "public",
            "watchers": 1063,
            "watchers_count": 1063,
            "web_commit_signoff_required": false
        },
        "sha": "5eae30177c8f801b3e694e4792c4354fe01ed84f",
        "user": {
            "avatar_url": "https://avatars.githubusercontent.com/u/11053411?v=4",
            "events_url": "https://api.github.com/users/PrismarineJS/events{/privacy}",
            "followers_url": "https://api.github.com/users/PrismarineJS/followers",
            "following_url": "https://api.github.com/users/PrismarineJS/following{/other_user}",
            "gists_url": "https://api.github.com/users/PrismarineJS/gists{/gist_id}",
            "gravatar_id": "",
            "html_url": "https://github.com/PrismarineJS",
            "id": 11053411,
            "login": "PrismarineJS",
            "node_id": "MDEyOk9yZ2FuaXphdGlvbjExMDUzNDEx",
            "organizations_url": "https://api.github.com/users/PrismarineJS/orgs",
            "received_events_url": "https://api.github.com/users/PrismarineJS/received_events",
            "repos_url": "https://api.github.com/users/PrismarineJS/repos",
            "site_admin": false,
            "starred_url": "https://api.github.com/users/PrismarineJS/starred{/owner}{/repo}",
            "subscriptions_url": "https://api.github.com/users/PrismarineJS/subscriptions",
            "type": "Organization",
            "url": "https://api.github.com/users/PrismarineJS"
        }
    },
    "html_url": "https://github.com/PrismarineJS/node-minecraft-protocol/pull/476",
    "id": 110545089,
    "issue_url": "https://api.github.com/repos/PrismarineJS/node-minecraft-protocol/issues/476",
    "labels": [
        {
            "color": "ededed",
            "default": false,
            "description": null,
            "id": 352111526,
            "name": "greenkeeper",
            "node_id": "MDU6TGFiZWwzNTIxMTE1MjY=",
            "url": "https://api.github.com/repos/PrismarineJS/node-minecraft-protocol/labels/greenkeeper"
        }
    ],
    "locked": false,
    "maintainer_can_modify": false,
    "merge_commit_sha": "92524147433404b036c071da2c97beb1288c049f",
    "mergeable": null,
    "mergeable_state": "unknown",
    "merged": false,
    "merged_at": null,
    "merged_by": null,
    "milestone": null,
    "node_id": "MDExOlB1bGxSZXF1ZXN0MTEwNTQ1MDg5",
    "number": 476,
    "patch_url": "https://github.com/PrismarineJS/node-minecraft-protocol/pull/476.patch",
    "rebaseable": null,
    "requested_reviewers": [],
    "requested_teams": [],
    "review_comment_url": "https://api.github.com/repos/PrismarineJS/node-minecraft-protocol/pulls/comments{/number}",
    "review_comments": 0,
    "review_comments_url": "https://api.github.com/repos/PrismarineJS/node-minecraft-protocol/pulls/476/comments",
    "state": "closed",
    "statuses_url": "https://api.github.com/repos/PrismarineJS/node-minecraft-protocol/statuses/5eae30177c8f801b3e694e4792c4354fe01ed84f",
    "title": "debug@2.6.3 breaks build 🚨",
    "updated_at": "2017-03-14T15:45:33Z",
    "url": "https://api.github.com/repos/PrismarineJS/node-minecraft-protocol/pulls/476",
    "user": {
        "avatar_url": "https://avatars.githubusercontent.com/u/14790466?v=4",
        "events_url": "https://api.github.com/users/greenkeeperio-bot/events{/privacy}",
        "followers_url": "https://api.github.com/users/greenkeeperio-bot/followers",
        "following_url": "https://api.github.com/users/greenkeeperio-bot/following{/other_user}",
        "gists_url": "https://api.github.com/users/greenkeeperio-bot/gists{/gist_id}",
        "gravatar_id": "",
        "html_url": "https://github.com/greenkeeperio-bot",
        "id": 14790466,
        "login": "greenkeeperio-bot",
        "node_id": "MDQ6VXNlcjE0NzkwNDY2",
        "organizations_url": "https://api.github.com/users/greenkeeperio-bot/orgs",
        "received_events_url": "https://api.github.com/users/greenkeeperio-bot/received_events",
        "repos_url": "https://api.github.com/users/greenkeeperio-bot/repos",
        "site_admin": false,
        "starred_url": "https://api.github.com/users/greenkeeperio-bot/starred{/owner}{/repo}",
        "subscriptions_url": "https://api.github.com/users/greenkeeperio-bot/subscriptions",
        "type": "User",
        "url": "https://api.github.com/users/greenkeeperio-bot"
    }
}