{
    "_links": {
        "comments": {
            "href": "https://api.github.com/repos/PrismarineJS/node-minecraft-protocol/issues/566/comments"
        },
        "commits": {
            "href": "https://api.github.com/repos/PrismarineJS/node-minecraft-protocol/pulls/566/commits"
        },
        "html": {
            "href": "https://github.com/PrismarineJS/node-minecraft-protocol/pull/566"
        },
        "issue": {
            "href": "https://api.github.com/repos/PrismarineJS/node-minecraft-protocol/issues/566"
        },
        "review_comment": {
            "href": "https://api.github.com/repos/PrismarineJS/node-minecraft-protocol/pulls/comments{/number}"
        },
        "review_comments": {
            "href": "https://api.github.com/repos/PrismarineJS/node-minecraft-protocol/pulls/566/comments"
        },
        "self": {
            "href": "https://api.github.com/repos/PrismarineJS/node-minecraft-protocol/pulls/566"
        },
        "statuses": {
            "href": "https://api.github.com/repos/PrismarineJS/node-minecraft-protocol/statuses/069d95366c48428568533fc017ef13804b9e087b"
        }
    },
    "active_lock_reason": null,
    "additions": 6,
    "assignee": null,
    "assignees": [],
    "author_association": "MEMBER",
    "auto_merge": null,
    "base": {
        "label": "PrismarineJS:master",
        "ref": "master",
        "repo": {
            "allow_forking": true,
            "archive_url": "https://api.github.com/repos/PrismarineJS/node-minecraft-protocol/{archive_format}{/ref}",
            "archived": false,
            "assignees_url": "https://api.github.com/repos/PrismarineJS/node-minecraft-protocol/assignees{/user}",
            "blobs_url": "https://api.github.com/repos/PrismarineJS/node-minecraft-protocol/git/blobs{/sha}",
            "branches_url": "https://api.github.com/repos/PrismarineJS/node-minecraft-protocol/branches{/branch}",
            "clone_url": "https://github.com/PrismarineJS/node-minecraft-protocol.git",
            "collaborators_url": "https://api.github.com/repos/PrismarineJS/node-minecraft-protocol/collaborators{/collaborator}",
            "comments_url": "https://api.github.com/repos/PrismarineJS/node-minecraft-protocol/comments{/number}",
            "commits_url": "https://api.github.com/repos/PrismarineJS/node-minecraft-protocol/commits{/sha}",
            "compare_url": "https://api.github.com/repos/PrismarineJS/node-minecraft-protocol/compare/{base}...{head}",
            "contents_url": "https://api.github.com/repos/PrismarineJS/node-minecraft-protocol/contents/{+path}",
            "contributors_url": "https://api.github.com/repos/PrismarineJS/node-minecraft-protocol/contributors",
            "created_at": "2013-01-01T09:17:05Z",
            "default_branch": "master",
            "deployments_url": "https://api.github.com/repos/PrismarineJS/node-minecraft-protocol/deployments",
            "description": "Parse and serialize minecraft packets, plus authentication and encryption.",
            "disabled": false,
            "downloads_url": "https://api.github.com/repos/PrismarineJS/node-minecraft-protocol/downloads",
            "events_url": "https://api.github.com/repos/PrismarineJS/node-minecraft-protocol/events",
            "fork": false,
            "forks": 222,
            "forks_count": 222,
            "forks_url": "https://api.github.com/repos/PrismarineJS/node-minecraft-protocol/forks",
            "full_name": "PrismarineJS/node-minecraft-protocol",
            "git_commits_url": "https://api.github.com/repos/PrismarineJS/node-minecraft-protocol/git/commits{/sha}",
            "git_refs_url": "https://api.github.com/repos/PrismarineJS/node-minecraft-protocol/git/refs{/sha}",
            "git_tags_url": "https://api.github.com/repos/PrismarineJS/node-minecraft-protocol/git/tags{/sha}",
            "git_url": "git://github.com/PrismarineJS/node-minecraft-protocol.git",
            "has_discussions": false,
            "has_downloads": true,
            "has_issues": true,
            "has_pages": true,
            "has_projects": true,
            "has_wiki": true,
            "homepage": "https://prismarinejs.github.io/node-minecraft-protocol/",
            "hooks_url": "https://api.github.com/repos/PrismarineJS/node-minecraft-protocol/hooks",
            "html_url": "https://github.com/PrismarineJS/node-minecraft-protocol",
            "id": 7394347,
            "is_template": false,
            "issue_comment_url": "https://api.github.com/repos/PrismarineJS/node-minecraft-protocol/issues/comments{/number}",
            "issue_events_url": "https://api.github.com/repos/PrismarineJS/node-minecraft-protocol/issues/events{/number}",
            "issues_url": "https://api.github.com/repos/PrismarineJS/node-minecraft-protocol/issues{/number}",
            "keys_url": "https://api.github.com/repos/PrismarineJS/node-minecraft-protocol/keys{/key_id}",
            "labels_url": "https://api.github.com/repos/PrismarineJS/node-minecraft-protocol/labels{/name}",
            "language": "JavaScript",
            "languages_url": "https://api.github.com/repos/PrismarineJS/node-minecraft-protocol/languages",
            "license": {
                "key": "bsd-3-clause",
                "name": "BSD 3-Clause \"New\" or \"Revised\" License",
                "node_id": "MDc6TGljZW5zZTU=",
                "spdx_id": "BSD-3-Clause",
                "url": "https://api.github.com/licenses/bsd-3-clause"
            },
            "merges_url": "https://api.github.com/repos/PrismarineJS/node-minecraft-protocol/merges",
            "milestones_url": "https://api.github.com/repos/PrismarineJS/node-minecraft-protocol/milestones{/number}",
            "mirror_url": null,
            "name": "node-minecraft-protocol",
            "node_id": "MDEwOlJlcG9zaXRvcnk3Mzk0MzQ3",
            "notifications_url": "https://api.github.com/repos/PrismarineJS/node-minecraft-protocol/notifications{?since,all,participating}",
            "open_issues": 92,
            "open_issues_count": 92,
            "owner": {
                "avatar_url": "https://avatars.githubusercontent.com/u/11053411?v=4",
                "events_url": "https://api.github.com/users/PrismarineJS/events{/privacy}",
                "followers_url": "https://api.github.com/users/PrismarineJS/followers",
                "following_url": "https://api.github.com/users/PrismarineJS/following{/other_user}",
                "gists_url": "https://api.github.com/users/PrismarineJS/gists{/gist_id}",
                "gravatar_id": "",
                "html_url": "https://github.com/PrismarineJS",
                "id": 11053411,
                "login": "PrismarineJS",
                "node_id": "MDEyOk9yZ2FuaXphdGlvbjExMDUzNDEx",
                "organizations_url": "https://api.github.com/users/PrismarineJS/orgs",
                "received_events_url": "https://api.github.com/users/PrismarineJS/received_events",
                "repos_url": "https://api.github.com/users/PrismarineJS/repos",
                "site_admin": false,
                "starred_url": "https://api.github.com/users/PrismarineJS/starred{/owner}{/repo}",
                "subscriptions_url": "https://api.github.com/users/PrismarineJS/subscriptions",
                "type": "Organization",
                "url": "https://api.github.com/users/PrismarineJS"
            },
            "private": false,
            "pulls_url": "https://api.github.com/repos/PrismarineJS/node-minecraft-protocol/pulls{/number}",
            "pushed_at": "2023-04-22T09:19:41Z",
            "releases_url": "https://api.github.com/repos/PrismarineJS/node-minecraft-protocol/releases{/id}",
            "size": 1785,
            "ssh_url": "git@github.com:PrismarineJS/node-minecraft-protocol.git",
            "stargazers_count": 1063,
            "stargazers_url": "https://api.github.com/repos/PrismarineJS/node-minecraft-protocol/stargazers",
            "statuses_url": "https://api.github.com/repos/PrismarineJS/node-minecraft-protocol/statuses/{sha}",
            "subscribers_url": "https://api.github.com/repos/PrismarineJS/node-minecraft-protocol/subscribers",
            "subscription_url": "https://api.github.com/repos/PrismarineJS/node-minecraft-protocol/subscription",
            "svn_url": "https://github.com/PrismarineJS/node-minecraft-protocol",
            "tags_url": "https://api.github.com/repos/PrismarineJS/node-minecraft-protocol/tags",
            "teams_url": "https://api.github.com/repos/PrismarineJS/node-minecraft-protocol/teams",
            "topics": [
                "client",
                "minecraft",
                "network",
                "packets",
                "protocol",
                "proxy",
                "server"
            ],
            "trees_url": "https://api.github.com/repos/PrismarineJS/node-minecraft-protocol/git/trees{/sha}",
            "updated_at": "2023-04-22T17:20:34Z",
            "url": "https://api.github.com/repos/PrismarineJS/node-minecraft-protocol",
            "visibility": "public",
            "watchers": 1063,
            "watchers_count": 1063,
            "web_commit_signoff_required": false
        },
        "sha": "b8d38918c4201ba3892ed6e7e16552210dda0518",
        "user": {
            "avatar_url": "https://avatars.githubusercontent.com/u/11053411?v=4",
            "events_url": "https://api.github.com/users/PrismarineJS/events{/privacy}",
            "followers_url": "https://api.github.com/users/PrismarineJS/followers",
            "following_url": "https://api.github.com/users/PrismarineJS/following{/other_user}",
            "gists_url": "https://api.github.com/users/PrismarineJS/gists{/gist_id}",
            "gravatar_id": "",
            "html_url": "https://github.com/PrismarineJS",
            "id": 11053411,
            "login": "PrismarineJS",
            "node_id": "MDEyOk9yZ2FuaXphdGlvbjExMDUzNDEx",
            "organizations_url": "https://api.github.com/users/PrismarineJS/orgs",
            "received_events_url": "https://api.github.com/users/PrismarineJS/received_events",
            "repos_url": "https://api.github.com/users/PrismarineJS/repos",
            "site_admin": false,
            "starred_url": "https://api.github.com/users/PrismarineJS/starred{/owner}{/repo}",
            "subscriptions_url": "https://api.github.com/users/PrismarineJS/subscriptions",
            "type": "Organization",
            "url": "https://api.github.com/users/PrismarineJS"
        }
    },
    "body": "",
    "changed_files": 2,
    "closed_at": "2018-06-03T16:52:04Z",
    "comment_data": [],
    "comment_regular_data": [
        {
            "author_association": "MEMBER",
            "body": ":+1: \r\nplease add to doc https://github.com/PrismarineJS/node-minecraft-protocol/blob/master/doc/README.md",
            "created_at": "2018-06-03T16:07:49Z",
            "html_url": "https://github.com/PrismarineJS/node-minecraft-protocol/pull/566#issuecomment-394172475",
            "id": 394172475,
            "issue_url": "https://api.github.com/repos/PrismarineJS/node-minecraft-protocol/issues/566",
            "node_id": "MDEyOklzc3VlQ29tbWVudDM5NDE3MjQ3NQ==",
            "performed_via_github_app": null,
            "reactions": {
                "+1": 0,
                "-1": 0,
                "confused": 0,
                "eyes": 0,
                "heart": 0,
                "hooray": 0,
                "laugh": 0,
                "rocket": 0,
                "total_count": 0,
                "url": "https://api.github.com/repos/PrismarineJS/node-minecraft-protocol/issues/comments/394172475/reactions"
            },
            "updated_at": "2018-06-03T16:07:49Z",
            "url": "https://api.github.com/repos/PrismarineJS/node-minecraft-protocol/issues/comments/394172475",
            "user": {
                "avatar_url": "https://avatars.githubusercontent.com/u/2346494?v=4",
                "events_url": "https://api.github.com/users/rom1504/events{/privacy}",
                "followers_url": "https://api.github.com/users/rom1504/followers",
                "following_url": "https://api.github.com/users/rom1504/following{/other_user}",
                "gists_url": "https://api.github.com/users/rom1504/gists{/gist_id}",
                "gravatar_id": "",
                "html_url": "https://github.com/rom1504",
                "id": 2346494,
                "login": "rom1504",
                "node_id": "MDQ6VXNlcjIzNDY0OTQ=",
                "organizations_url": "https://api.github.com/users/rom1504/orgs",
                "received_events_url": "https://api.github.com/users/rom1504/received_events",
                "repos_url": "https://api.github.com/users/rom1504/repos",
                "site_admin": false,
                "starred_url": "https://api.github.com/users/rom1504/starred{/owner}{/repo}",
                "subscriptions_url": "https://api.github.com/users/rom1504/subscriptions",
                "type": "User",
                "url": "https://api.github.com/users/rom1504"
            }
        }
    ],
    "comments": 1,
    "comments_url": "https://api.github.com/repos/PrismarineJS/node-minecraft-protocol/issues/566/comments",
    "commit_data": [
        {
            "author": {
                "avatar_url": "https://avatars.githubusercontent.com/u/8838132?v=4",
                "events_url": "https://api.github.com/users/plexigras/events{/privacy}",
                "followers_url": "https://api.github.com/users/plexigras/followers",
                "following_url": "https://api.github.com/users/plexigras/following{/other_user}",
                "gists_url": "https://api.github.com/users/plexigras/gists{/gist_id}",
                "gravatar_id": "",
                "html_url": "https://github.com/plexigras",
                "id": 8838132,
                "login": "plexigras",
                "node_id": "MDQ6VXNlcjg4MzgxMzI=",
                "organizations_url": "https://api.github.com/users/plexigras/orgs",
                "received_events_url": "https://api.github.com/users/plexigras/received_events",
                "repos_url": "https://api.github.com/users/plexigras/repos",
                "site_admin": false,
                "starred_url": "https://api.github.com/users/plexigras/starred{/owner}{/repo}",
                "subscriptions_url": "https://api.github.com/users/plexigras/subscriptions",
                "type": "User",
                "url": "https://api.github.com/users/plexigras"
            },
            "comments_url": "https://api.github.com/repos/PrismarineJS/node-minecraft-protocol/commits/4560c1948f59662fa735b7e686d2c0df2957805d/comments",
            "commit": {
                "author": {
                    "date": "2018-06-03T15:57:03Z",
                    "email": "plexigras@aol.com",
                    "name": "plexigras"
                },
                "comment_count": 0,
                "committer": {
                    "date": "2018-06-03T15:57:03Z",
                    "email": "plexigras@aol.com",
                    "name": "plexigras"
                },
                "message": "added session data to session even",
                "tree": {
                    "sha": "98d3e23a0cd32e1b1759ae8d7d3158622aa86a4c",
                    "url": "https://api.github.com/repos/PrismarineJS/node-minecraft-protocol/git/trees/98d3e23a0cd32e1b1759ae8d7d3158622aa86a4c"
                },
                "url": "https://api.github.com/repos/PrismarineJS/node-minecraft-protocol/git/commits/4560c1948f59662fa735b7e686d2c0df2957805d",
                "verification": {
                    "payload": null,
                    "reason": "unsigned",
                    "signature": null,
                    "verified": false
                }
            },
            "committer": {
                "avatar_url": "https://avatars.githubusercontent.com/u/8838132?v=4",
                "events_url": "https://api.github.com/users/plexigras/events{/privacy}",
                "followers_url": "https://api.github.com/users/plexigras/followers",
                "following_url": "https://api.github.com/users/plexigras/following{/other_user}",
                "gists_url": "https://api.github.com/users/plexigras/gists{/gist_id}",
                "gravatar_id": "",
                "html_url": "https://github.com/plexigras",
                "id": 8838132,
                "login": "plexigras",
                "node_id": "MDQ6VXNlcjg4MzgxMzI=",
                "organizations_url": "https://api.github.com/users/plexigras/orgs",
                "received_events_url": "https://api.github.com/users/plexigras/received_events",
                "repos_url": "https://api.github.com/users/plexigras/repos",
                "site_admin": false,
                "starred_url": "https://api.github.com/users/plexigras/starred{/owner}{/repo}",
                "subscriptions_url": "https://api.github.com/users/plexigras/subscriptions",
                "type": "User",
                "url": "https://api.github.com/users/plexigras"
            },
            "html_url": "https://github.com/PrismarineJS/node-minecraft-protocol/commit/4560c1948f59662fa735b7e686d2c0df2957805d",
            "node_id": "MDY6Q29tbWl0NjUzMjM1MTY6NDU2MGMxOTQ4ZjU5NjYyZmE3MzViN2U2ODZkMmMwZGYyOTU3ODA1ZA==",
            "parents": [
                {
                    "html_url": "https://github.com/PrismarineJS/node-minecraft-protocol/commit/b8d38918c4201ba3892ed6e7e16552210dda0518",
                    "sha": "b8d38918c4201ba3892ed6e7e16552210dda0518",
                    "url": "https://api.github.com/repos/PrismarineJS/node-minecraft-protocol/commits/b8d38918c4201ba3892ed6e7e16552210dda0518"
                }
            ],
            "sha": "4560c1948f59662fa735b7e686d2c0df2957805d",
            "url": "https://api.github.com/repos/PrismarineJS/node-minecraft-protocol/commits/4560c1948f59662fa735b7e686d2c0df2957805d"
        },
        {
            "author": {
                "avatar_url": "https://avatars.githubusercontent.com/u/8838132?v=4",
                "events_url": "https://api.github.com/users/plexigras/events{/privacy}",
                "followers_url": "https://api.github.com/users/plexigras/followers",
                "following_url": "https://api.github.com/users/plexigras/following{/other_user}",
                "gists_url": "https://api.github.com/users/plexigras/gists{/gist_id}",
                "gravatar_id": "",
                "html_url": "https://github.com/plexigras",
                "id": 8838132,
                "login": "plexigras",
                "node_id": "MDQ6VXNlcjg4MzgxMzI=",
                "organizations_url": "https://api.github.com/users/plexigras/orgs",
                "received_events_url": "https://api.github.com/users/plexigras/received_events",
                "repos_url": "https://api.github.com/users/plexigras/repos",
                "site_admin": false,
                "starred_url": "https://api.github.com/users/plexigras/starred{/owner}{/repo}",
                "subscriptions_url": "https://api.github.com/users/plexigras/subscriptions",
                "type": "User",
                "url": "https://api.github.com/users/plexigras"
            },
            "comments_url": "https://api.github.com/repos/PrismarineJS/node-minecraft-protocol/commits/069d95366c48428568533fc017ef13804b9e087b/comments",
            "commit": {
                "author": {
                    "date": "2018-06-03T16:31:54Z",
                    "email": "plexigras@aol.com",
                    "name": "plexigras"
                },
                "comment_count": 0,
                "committer": {
                    "date": "2018-06-03T16:31:54Z",
                    "email": "plexigras@aol.com",
                    "name": "plexigras"
                },
                "message": "added session event to docs",
                "tree": {
                    "sha": "2c7d8d5512f0e9facbd3e80f7d8bbbd3fda5cc1c",
                    "url": "https://api.github.com/repos/PrismarineJS/node-minecraft-protocol/git/trees/2c7d8d5512f0e9facbd3e80f7d8bbbd3fda5cc1c"
                },
                "url": "https://api.github.com/repos/PrismarineJS/node-minecraft-protocol/git/commits/069d95366c48428568533fc017ef13804b9e087b",
                "verification": {
                    "payload": null,
                    "reason": "unsigned",
                    "signature": null,
                    "verified": false
                }
            },
            "committer": {
                "avatar_url": "https://avatars.githubusercontent.com/u/8838132?v=4",
                "events_url": "https://api.github.com/users/plexigras/events{/privacy}",
                "followers_url": "https://api.github.com/users/plexigras/followers",
                "following_url": "https://api.github.com/users/plexigras/following{/other_user}",
                "gists_url": "https://api.github.com/users/plexigras/gists{/gist_id}",
                "gravatar_id": "",
                "html_url": "https://github.com/plexigras",
                "id": 8838132,
                "login": "plexigras",
                "node_id": "MDQ6VXNlcjg4MzgxMzI=",
                "organizations_url": "https://api.github.com/users/plexigras/orgs",
                "received_events_url": "https://api.github.com/users/plexigras/received_events",
                "repos_url": "https://api.github.com/users/plexigras/repos",
                "site_admin": false,
                "starred_url": "https://api.github.com/users/plexigras/starred{/owner}{/repo}",
                "subscriptions_url": "https://api.github.com/users/plexigras/subscriptions",
                "type": "User",
                "url": "https://api.github.com/users/plexigras"
            },
            "html_url": "https://github.com/PrismarineJS/node-minecraft-protocol/commit/069d95366c48428568533fc017ef13804b9e087b",
            "node_id": "MDY6Q29tbWl0NjUzMjM1MTY6MDY5ZDk1MzY2YzQ4NDI4NTY4NTMzZmMwMTdlZjEzODA0YjllMDg3Yg==",
            "parents": [
                {
                    "html_url": "https://github.com/PrismarineJS/node-minecraft-protocol/commit/4560c1948f59662fa735b7e686d2c0df2957805d",
                    "sha": "4560c1948f59662fa735b7e686d2c0df2957805d",
                    "url": "https://api.github.com/repos/PrismarineJS/node-minecraft-protocol/commits/4560c1948f59662fa735b7e686d2c0df2957805d"
                }
            ],
            "sha": "069d95366c48428568533fc017ef13804b9e087b",
            "url": "https://api.github.com/repos/PrismarineJS/node-minecraft-protocol/commits/069d95366c48428568533fc017ef13804b9e087b"
        }
    ],
    "commits": 2,
    "commits_url": "https://api.github.com/repos/PrismarineJS/node-minecraft-protocol/pulls/566/commits",
    "created_at": "2018-06-03T15:58:06Z",
    "deletions": 1,
    "diff_url": "https://github.com/PrismarineJS/node-minecraft-protocol/pull/566.diff",
    "draft": false,
    "head": {
        "label": "plexigras:session-emit-fix",
        "ref": "session-emit-fix",
        "repo": {
            "allow_forking": true,
            "archive_url": "https://api.github.com/repos/plexigras/node-minecraft-protocol/{archive_format}{/ref}",
            "archived": false,
            "assignees_url": "https://api.github.com/repos/plexigras/node-minecraft-protocol/assignees{/user}",
            "blobs_url": "https://api.github.com/repos/plexigras/node-minecraft-protocol/git/blobs{/sha}",
            "branches_url": "https://api.github.com/repos/plexigras/node-minecraft-protocol/branches{/branch}",
            "clone_url": "https://github.com/plexigras/node-minecraft-protocol.git",
            "collaborators_url": "https://api.github.com/repos/plexigras/node-minecraft-protocol/collaborators{/collaborator}",
            "comments_url": "https://api.github.com/repos/plexigras/node-minecraft-protocol/comments{/number}",
            "commits_url": "https://api.github.com/repos/plexigras/node-minecraft-protocol/commits{/sha}",
            "compare_url": "https://api.github.com/repos/plexigras/node-minecraft-protocol/compare/{base}...{head}",
            "contents_url": "https://api.github.com/repos/plexigras/node-minecraft-protocol/contents/{+path}",
            "contributors_url": "https://api.github.com/repos/plexigras/node-minecraft-protocol/contributors",
            "created_at": "2016-08-09T19:48:34Z",
            "default_branch": "master",
            "deployments_url": "https://api.github.com/repos/plexigras/node-minecraft-protocol/deployments",
            "description": "Parse and serialize minecraft packets, plus authentication and encryption.",
            "disabled": false,
            "downloads_url": "https://api.github.com/repos/plexigras/node-minecraft-protocol/downloads",
            "events_url": "https://api.github.com/repos/plexigras/node-minecraft-protocol/events",
            "fork": true,
            "forks": 0,
            "forks_count": 0,
            "forks_url": "https://api.github.com/repos/plexigras/node-minecraft-protocol/forks",
            "full_name": "plexigras/node-minecraft-protocol",
            "git_commits_url": "https://api.github.com/repos/plexigras/node-minecraft-protocol/git/commits{/sha}",
            "git_refs_url": "https://api.github.com/repos/plexigras/node-minecraft-protocol/git/refs{/sha}",
            "git_tags_url": "https://api.github.com/repos/plexigras/node-minecraft-protocol/git/tags{/sha}",
            "git_url": "git://github.com/plexigras/node-minecraft-protocol.git",
            "has_discussions": false,
            "has_downloads": true,
            "has_issues": false,
            "has_pages": false,
            "has_projects": true,
            "has_wiki": true,
            "homepage": "http://prismarinejs.github.io/",
            "hooks_url": "https://api.github.com/repos/plexigras/node-minecraft-protocol/hooks",
            "html_url": "https://github.com/plexigras/node-minecraft-protocol",
            "id": 65323516,
            "is_template": false,
            "issue_comment_url": "https://api.github.com/repos/plexigras/node-minecraft-protocol/issues/comments{/number}",
            "issue_events_url": "https://api.github.com/repos/plexigras/node-minecraft-protocol/issues/events{/number}",
            "issues_url": "https://api.github.com/repos/plexigras/node-minecraft-protocol/issues{/number}",
            "keys_url": "https://api.github.com/repos/plexigras/node-minecraft-protocol/keys{/key_id}",
            "labels_url": "https://api.github.com/repos/plexigras/node-minecraft-protocol/labels{/name}",
            "language": "JavaScript",
            "languages_url": "https://api.github.com/repos/plexigras/node-minecraft-protocol/languages",
            "license": null,
            "merges_url": "https://api.github.com/repos/plexigras/node-minecraft-protocol/merges",
            "milestones_url": "https://api.github.com/repos/plexigras/node-minecraft-protocol/milestones{/number}",
            "mirror_url": null,
            "name": "node-minecraft-protocol",
            "node_id": "MDEwOlJlcG9zaXRvcnk2NTMyMzUxNg==",
            "notifications_url": "https://api.github.com/repos/plexigras/node-minecraft-protocol/notifications{?since,all,participating}",
            "open_issues": 0,
            "open_issues_count": 0,
            "owner": {
                "avatar_url": "https://avatars.githubusercontent.com/u/8838132?v=4",
                "events_url": "https://api.github.com/users/plexigras/events{/privacy}",
                "followers_url": "https://api.github.com/users/plexigras/followers",
                "following_url": "https://api.github.com/users/plexigras/following{/other_user}",
                "gists_url": "https://api.github.com/users/plexigras/gists{/gist_id}",
                "gravatar_id": "",
                "html_url": "https://github.com/plexigras",
                "id": 8838132,
                "login": "plexigras",
                "node_id": "MDQ6VXNlcjg4MzgxMzI=",
                "organizations_url": "https://api.github.com/users/plexigras/orgs",
                "received_events_url": "https://api.github.com/users/plexigras/received_events",
                "repos_url": "https://api.github.com/users/plexigras/repos",
                "site_admin": false,
                "starred_url": "https://api.github.com/users/plexigras/starred{/owner}{/repo}",
                "subscriptions_url": "https://api.github.com/users/plexigras/subscriptions",
                "type": "User",
                "url": "https://api.github.com/users/plexigras"
            },
            "private": false,
            "pulls_url": "https://api.github.com/repos/plexigras/node-minecraft-protocol/pulls{/number}",
            "pushed_at": "2018-06-03T16:30:44Z",
            "releases_url": "https://api.github.com/repos/plexigras/node-minecraft-protocol/releases{/id}",
            "size": 1134,
            "ssh_url": "git@github.com:plexigras/node-minecraft-protocol.git",
            "stargazers_count": 0,
            "stargazers_url": "https://api.github.com/repos/plexigras/node-minecraft-protocol/stargazers",
            "statuses_url": "https://api.github.com/repos/plexigras/node-minecraft-protocol/statuses/{sha}",
            "subscribers_url": "https://api.github.com/repos/plexigras/node-minecraft-protocol/subscribers",
            "subscription_url": "https://api.github.com/repos/plexigras/node-minecraft-protocol/subscription",
            "svn_url": "https://github.com/plexigras/node-minecraft-protocol",
            "tags_url": "https://api.github.com/repos/plexigras/node-minecraft-protocol/tags",
            "teams_url": "https://api.github.com/repos/plexigras/node-minecraft-protocol/teams",
            "topics": [],
            "trees_url": "https://api.github.com/repos/plexigras/node-minecraft-protocol/git/trees{/sha}",
            "updated_at": "2016-08-09T19:48:35Z",
            "url": "https://api.github.com/repos/plexigras/node-minecraft-protocol",
            "visibility": "public",
            "watchers": 0,
            "watchers_count": 0,
            "web_commit_signoff_required": false
        },
        "sha": "069d95366c48428568533fc017ef13804b9e087b",
        "user": {
            "avatar_url": "https://avatars.githubusercontent.com/u/8838132?v=4",
            "events_url": "https://api.github.com/users/plexigras/events{/privacy}",
            "followers_url": "https://api.github.com/users/plexigras/followers",
            "following_url": "https://api.github.com/users/plexigras/following{/other_user}",
            "gists_url": "https://api.github.com/users/plexigras/gists{/gist_id}",
            "gravatar_id": "",
            "html_url": "https://github.com/plexigras",
            "id": 8838132,
            "login": "plexigras",
            "node_id": "MDQ6VXNlcjg4MzgxMzI=",
            "organizations_url": "https://api.github.com/users/plexigras/orgs",
            "received_events_url": "https://api.github.com/users/plexigras/received_events",
            "repos_url": "https://api.github.com/users/plexigras/repos",
            "site_admin": false,
            "starred_url": "https://api.github.com/users/plexigras/starred{/owner}{/repo}",
            "subscriptions_url": "https://api.github.com/users/plexigras/subscriptions",
            "type": "User",
            "url": "https://api.github.com/users/plexigras"
        }
    },
    "html_url": "https://github.com/PrismarineJS/node-minecraft-protocol/pull/566",
    "id": 192254293,
    "issue_url": "https://api.github.com/repos/PrismarineJS/node-minecraft-protocol/issues/566",
    "labels": [],
    "locked": false,
    "maintainer_can_modify": false,
    "merge_commit_sha": "62d595937bf3bc35cc5588a3ec2ad7b324f1c265",
    "mergeable": null,
    "mergeable_state": "unknown",
    "merged": true,
    "merged_at": "2018-06-03T16:52:04Z",
    "merged_by": {
        "avatar_url": "https://avatars.githubusercontent.com/u/2346494?v=4",
        "events_url": "https://api.github.com/users/rom1504/events{/privacy}",
        "followers_url": "https://api.github.com/users/rom1504/followers",
        "following_url": "https://api.github.com/users/rom1504/following{/other_user}",
        "gists_url": "https://api.github.com/users/rom1504/gists{/gist_id}",
        "gravatar_id": "",
        "html_url": "https://github.com/rom1504",
        "id": 2346494,
        "login": "rom1504",
        "node_id": "MDQ6VXNlcjIzNDY0OTQ=",
        "organizations_url": "https://api.github.com/users/rom1504/orgs",
        "received_events_url": "https://api.github.com/users/rom1504/received_events",
        "repos_url": "https://api.github.com/users/rom1504/repos",
        "site_admin": false,
        "starred_url": "https://api.github.com/users/rom1504/starred{/owner}{/repo}",
        "subscriptions_url": "https://api.github.com/users/rom1504/subscriptions",
        "type": "User",
        "url": "https://api.github.com/users/rom1504"
    },
    "milestone": null,
    "node_id": "MDExOlB1bGxSZXF1ZXN0MTkyMjU0Mjkz",
    "number": 566,
    "patch_url": "https://github.com/PrismarineJS/node-minecraft-protocol/pull/566.patch",
    "rebaseable": null,
    "requested_reviewers": [],
    "requested_teams": [],
    "review_comment_url": "https://api.github.com/repos/PrismarineJS/node-minecraft-protocol/pulls/comments{/number}",
    "review_comments": 0,
    "review_comments_url": "https://api.github.com/repos/PrismarineJS/node-minecraft-protocol/pulls/566/comments",
    "state": "closed",
    "statuses_url": "https://api.github.com/repos/PrismarineJS/node-minecraft-protocol/statuses/069d95366c48428568533fc017ef13804b9e087b",
    "title": "added session data to session even",
    "updated_at": "2018-06-03T16:52:04Z",
    "url": "https://api.github.com/repos/PrismarineJS/node-minecraft-protocol/pulls/566",
    "user": {
        "avatar_url": "https://avatars.githubusercontent.com/u/8838132?v=4",
        "events_url": "https://api.github.com/users/plexigras/events{/privacy}",
        "followers_url": "https://api.github.com/users/plexigras/followers",
        "following_url": "https://api.github.com/users/plexigras/following{/other_user}",
        "gists_url": "https://api.github.com/users/plexigras/gists{/gist_id}",
        "gravatar_id": "",
        "html_url": "https://github.com/plexigras",
        "id": 8838132,
        "login": "plexigras",
        "node_id": "MDQ6VXNlcjg4MzgxMzI=",
        "organizations_url": "https://api.github.com/users/plexigras/orgs",
        "received_events_url": "https://api.github.com/users/plexigras/received_events",
        "repos_url": "https://api.github.com/users/plexigras/repos",
        "site_admin": false,
        "starred_url": "https://api.github.com/users/plexigras/starred{/owner}{/repo}",
        "subscriptions_url": "https://api.github.com/users/plexigras/subscriptions",
        "type": "User",
        "url": "https://api.github.com/users/plexigras"
    }
}