{
    "_links": {
        "comments": {
            "href": "https://api.github.com/repos/PrismarineJS/node-minecraft-protocol/issues/76/comments"
        },
        "commits": {
            "href": "https://api.github.com/repos/PrismarineJS/node-minecraft-protocol/pulls/76/commits"
        },
        "html": {
            "href": "https://github.com/PrismarineJS/node-minecraft-protocol/pull/76"
        },
        "issue": {
            "href": "https://api.github.com/repos/PrismarineJS/node-minecraft-protocol/issues/76"
        },
        "review_comment": {
            "href": "https://api.github.com/repos/PrismarineJS/node-minecraft-protocol/pulls/comments{/number}"
        },
        "review_comments": {
            "href": "https://api.github.com/repos/PrismarineJS/node-minecraft-protocol/pulls/76/comments"
        },
        "self": {
            "href": "https://api.github.com/repos/PrismarineJS/node-minecraft-protocol/pulls/76"
        },
        "statuses": {
            "href": "https://api.github.com/repos/PrismarineJS/node-minecraft-protocol/statuses/aa0402979eca7ca6cdd6bedd2cef9400b55a235d"
        }
    },
    "active_lock_reason": null,
    "additions": 11,
    "assignee": null,
    "assignees": [],
    "author_association": "NONE",
    "auto_merge": null,
    "base": {
        "label": "PrismarineJS:master",
        "ref": "master",
        "repo": {
            "allow_forking": true,
            "archive_url": "https://api.github.com/repos/PrismarineJS/node-minecraft-protocol/{archive_format}{/ref}",
            "archived": false,
            "assignees_url": "https://api.github.com/repos/PrismarineJS/node-minecraft-protocol/assignees{/user}",
            "blobs_url": "https://api.github.com/repos/PrismarineJS/node-minecraft-protocol/git/blobs{/sha}",
            "branches_url": "https://api.github.com/repos/PrismarineJS/node-minecraft-protocol/branches{/branch}",
            "clone_url": "https://github.com/PrismarineJS/node-minecraft-protocol.git",
            "collaborators_url": "https://api.github.com/repos/PrismarineJS/node-minecraft-protocol/collaborators{/collaborator}",
            "comments_url": "https://api.github.com/repos/PrismarineJS/node-minecraft-protocol/comments{/number}",
            "commits_url": "https://api.github.com/repos/PrismarineJS/node-minecraft-protocol/commits{/sha}",
            "compare_url": "https://api.github.com/repos/PrismarineJS/node-minecraft-protocol/compare/{base}...{head}",
            "contents_url": "https://api.github.com/repos/PrismarineJS/node-minecraft-protocol/contents/{+path}",
            "contributors_url": "https://api.github.com/repos/PrismarineJS/node-minecraft-protocol/contributors",
            "created_at": "2013-01-01T09:17:05Z",
            "default_branch": "master",
            "deployments_url": "https://api.github.com/repos/PrismarineJS/node-minecraft-protocol/deployments",
            "description": "Parse and serialize minecraft packets, plus authentication and encryption.",
            "disabled": false,
            "downloads_url": "https://api.github.com/repos/PrismarineJS/node-minecraft-protocol/downloads",
            "events_url": "https://api.github.com/repos/PrismarineJS/node-minecraft-protocol/events",
            "fork": false,
            "forks": 222,
            "forks_count": 222,
            "forks_url": "https://api.github.com/repos/PrismarineJS/node-minecraft-protocol/forks",
            "full_name": "PrismarineJS/node-minecraft-protocol",
            "git_commits_url": "https://api.github.com/repos/PrismarineJS/node-minecraft-protocol/git/commits{/sha}",
            "git_refs_url": "https://api.github.com/repos/PrismarineJS/node-minecraft-protocol/git/refs{/sha}",
            "git_tags_url": "https://api.github.com/repos/PrismarineJS/node-minecraft-protocol/git/tags{/sha}",
            "git_url": "git://github.com/PrismarineJS/node-minecraft-protocol.git",
            "has_discussions": false,
            "has_downloads": true,
            "has_issues": true,
            "has_pages": true,
            "has_projects": true,
            "has_wiki": true,
            "homepage": "https://prismarinejs.github.io/node-minecraft-protocol/",
            "hooks_url": "https://api.github.com/repos/PrismarineJS/node-minecraft-protocol/hooks",
            "html_url": "https://github.com/PrismarineJS/node-minecraft-protocol",
            "id": 7394347,
            "is_template": false,
            "issue_comment_url": "https://api.github.com/repos/PrismarineJS/node-minecraft-protocol/issues/comments{/number}",
            "issue_events_url": "https://api.github.com/repos/PrismarineJS/node-minecraft-protocol/issues/events{/number}",
            "issues_url": "https://api.github.com/repos/PrismarineJS/node-minecraft-protocol/issues{/number}",
            "keys_url": "https://api.github.com/repos/PrismarineJS/node-minecraft-protocol/keys{/key_id}",
            "labels_url": "https://api.github.com/repos/PrismarineJS/node-minecraft-protocol/labels{/name}",
            "language": "JavaScript",
            "languages_url": "https://api.github.com/repos/PrismarineJS/node-minecraft-protocol/languages",
            "license": {
                "key": "bsd-3-clause",
                "name": "BSD 3-Clause \"New\" or \"Revised\" License",
                "node_id": "MDc6TGljZW5zZTU=",
                "spdx_id": "BSD-3-Clause",
                "url": "https://api.github.com/licenses/bsd-3-clause"
            },
            "merges_url": "https://api.github.com/repos/PrismarineJS/node-minecraft-protocol/merges",
            "milestones_url": "https://api.github.com/repos/PrismarineJS/node-minecraft-protocol/milestones{/number}",
            "mirror_url": null,
            "name": "node-minecraft-protocol",
            "node_id": "MDEwOlJlcG9zaXRvcnk3Mzk0MzQ3",
            "notifications_url": "https://api.github.com/repos/PrismarineJS/node-minecraft-protocol/notifications{?since,all,participating}",
            "open_issues": 92,
            "open_issues_count": 92,
            "owner": {
                "avatar_url": "https://avatars.githubusercontent.com/u/11053411?v=4",
                "events_url": "https://api.github.com/users/PrismarineJS/events{/privacy}",
                "followers_url": "https://api.github.com/users/PrismarineJS/followers",
                "following_url": "https://api.github.com/users/PrismarineJS/following{/other_user}",
                "gists_url": "https://api.github.com/users/PrismarineJS/gists{/gist_id}",
                "gravatar_id": "",
                "html_url": "https://github.com/PrismarineJS",
                "id": 11053411,
                "login": "PrismarineJS",
                "node_id": "MDEyOk9yZ2FuaXphdGlvbjExMDUzNDEx",
                "organizations_url": "https://api.github.com/users/PrismarineJS/orgs",
                "received_events_url": "https://api.github.com/users/PrismarineJS/received_events",
                "repos_url": "https://api.github.com/users/PrismarineJS/repos",
                "site_admin": false,
                "starred_url": "https://api.github.com/users/PrismarineJS/starred{/owner}{/repo}",
                "subscriptions_url": "https://api.github.com/users/PrismarineJS/subscriptions",
                "type": "Organization",
                "url": "https://api.github.com/users/PrismarineJS"
            },
            "private": false,
            "pulls_url": "https://api.github.com/repos/PrismarineJS/node-minecraft-protocol/pulls{/number}",
            "pushed_at": "2023-04-22T09:19:41Z",
            "releases_url": "https://api.github.com/repos/PrismarineJS/node-minecraft-protocol/releases{/id}",
            "size": 1785,
            "ssh_url": "git@github.com:PrismarineJS/node-minecraft-protocol.git",
            "stargazers_count": 1063,
            "stargazers_url": "https://api.github.com/repos/PrismarineJS/node-minecraft-protocol/stargazers",
            "statuses_url": "https://api.github.com/repos/PrismarineJS/node-minecraft-protocol/statuses/{sha}",
            "subscribers_url": "https://api.github.com/repos/PrismarineJS/node-minecraft-protocol/subscribers",
            "subscription_url": "https://api.github.com/repos/PrismarineJS/node-minecraft-protocol/subscription",
            "svn_url": "https://github.com/PrismarineJS/node-minecraft-protocol",
            "tags_url": "https://api.github.com/repos/PrismarineJS/node-minecraft-protocol/tags",
            "teams_url": "https://api.github.com/repos/PrismarineJS/node-minecraft-protocol/teams",
            "topics": [
                "client",
                "minecraft",
                "network",
                "packets",
                "protocol",
                "proxy",
                "server"
            ],
            "trees_url": "https://api.github.com/repos/PrismarineJS/node-minecraft-protocol/git/trees{/sha}",
            "updated_at": "2023-04-22T17:20:34Z",
            "url": "https://api.github.com/repos/PrismarineJS/node-minecraft-protocol",
            "visibility": "public",
            "watchers": 1063,
            "watchers_count": 1063,
            "web_commit_signoff_required": false
        },
        "sha": "4e48226c8c76025546d1a54b08554ce550ead21b",
        "user": {
            "avatar_url": "https://avatars.githubusercontent.com/u/11053411?v=4",
            "events_url": "https://api.github.com/users/PrismarineJS/events{/privacy}",
            "followers_url": "https://api.github.com/users/PrismarineJS/followers",
            "following_url": "https://api.github.com/users/PrismarineJS/following{/other_user}",
            "gists_url": "https://api.github.com/users/PrismarineJS/gists{/gist_id}",
            "gravatar_id": "",
            "html_url": "https://github.com/PrismarineJS",
            "id": 11053411,
            "login": "PrismarineJS",
            "node_id": "MDEyOk9yZ2FuaXphdGlvbjExMDUzNDEx",
            "organizations_url": "https://api.github.com/users/PrismarineJS/orgs",
            "received_events_url": "https://api.github.com/users/PrismarineJS/received_events",
            "repos_url": "https://api.github.com/users/PrismarineJS/repos",
            "site_admin": false,
            "starred_url": "https://api.github.com/users/PrismarineJS/starred{/owner}{/repo}",
            "subscriptions_url": "https://api.github.com/users/PrismarineJS/subscriptions",
            "type": "Organization",
            "url": "https://api.github.com/users/PrismarineJS"
        }
    },
    "body": "fix the problem that wrong length used when sending strings\n\nalso modify some packet variable name\n",
    "changed_files": 1,
    "closed_at": "2014-02-22T17:54:23Z",
    "comment_data": [],
    "comment_regular_data": [
        {
            "author_association": "NONE",
            "body": "packet - PLAY 0x02 toServer\nI change the name of 2nd field from \"mouseLeft\" to \"mouse\".\nThis field change from boolean to byte in 1.7\nHowever, in this field, 0 (false when casting to boolean) represents left click, so it's not left anymore.\n",
            "created_at": "2014-02-22T11:04:08Z",
            "html_url": "https://github.com/PrismarineJS/node-minecraft-protocol/pull/76#issuecomment-35800126",
            "id": 35800126,
            "issue_url": "https://api.github.com/repos/PrismarineJS/node-minecraft-protocol/issues/76",
            "node_id": "MDEyOklzc3VlQ29tbWVudDM1ODAwMTI2",
            "performed_via_github_app": null,
            "reactions": {
                "+1": 0,
                "-1": 0,
                "confused": 0,
                "eyes": 0,
                "heart": 0,
                "hooray": 0,
                "laugh": 0,
                "rocket": 0,
                "total_count": 0,
                "url": "https://api.github.com/repos/PrismarineJS/node-minecraft-protocol/issues/comments/35800126/reactions"
            },
            "updated_at": "2014-02-22T11:04:08Z",
            "url": "https://api.github.com/repos/PrismarineJS/node-minecraft-protocol/issues/comments/35800126",
            "user": {
                "avatar_url": "https://avatars.githubusercontent.com/u/3490463?v=4",
                "events_url": "https://api.github.com/users/danny8376/events{/privacy}",
                "followers_url": "https://api.github.com/users/danny8376/followers",
                "following_url": "https://api.github.com/users/danny8376/following{/other_user}",
                "gists_url": "https://api.github.com/users/danny8376/gists{/gist_id}",
                "gravatar_id": "",
                "html_url": "https://github.com/danny8376",
                "id": 3490463,
                "login": "danny8376",
                "node_id": "MDQ6VXNlcjM0OTA0NjM=",
                "organizations_url": "https://api.github.com/users/danny8376/orgs",
                "received_events_url": "https://api.github.com/users/danny8376/received_events",
                "repos_url": "https://api.github.com/users/danny8376/repos",
                "site_admin": false,
                "starred_url": "https://api.github.com/users/danny8376/starred{/owner}{/repo}",
                "subscriptions_url": "https://api.github.com/users/danny8376/subscriptions",
                "type": "User",
                "url": "https://api.github.com/users/danny8376"
            }
        },
        {
            "author_association": "MEMBER",
            "body": "Ah, nice catch !\nThis gets my :+1: .\n",
            "created_at": "2014-02-22T14:17:38Z",
            "html_url": "https://github.com/PrismarineJS/node-minecraft-protocol/pull/76#issuecomment-35803565",
            "id": 35803565,
            "issue_url": "https://api.github.com/repos/PrismarineJS/node-minecraft-protocol/issues/76",
            "node_id": "MDEyOklzc3VlQ29tbWVudDM1ODAzNTY1",
            "performed_via_github_app": null,
            "reactions": {
                "+1": 0,
                "-1": 0,
                "confused": 0,
                "eyes": 0,
                "heart": 0,
                "hooray": 0,
                "laugh": 0,
                "rocket": 0,
                "total_count": 0,
                "url": "https://api.github.com/repos/PrismarineJS/node-minecraft-protocol/issues/comments/35803565/reactions"
            },
            "updated_at": "2014-02-22T14:17:38Z",
            "url": "https://api.github.com/repos/PrismarineJS/node-minecraft-protocol/issues/comments/35803565",
            "user": {
                "avatar_url": "https://avatars.githubusercontent.com/u/1069318?v=4",
                "events_url": "https://api.github.com/users/roblabla/events{/privacy}",
                "followers_url": "https://api.github.com/users/roblabla/followers",
                "following_url": "https://api.github.com/users/roblabla/following{/other_user}",
                "gists_url": "https://api.github.com/users/roblabla/gists{/gist_id}",
                "gravatar_id": "",
                "html_url": "https://github.com/roblabla",
                "id": 1069318,
                "login": "roblabla",
                "node_id": "MDQ6VXNlcjEwNjkzMTg=",
                "organizations_url": "https://api.github.com/users/roblabla/orgs",
                "received_events_url": "https://api.github.com/users/roblabla/received_events",
                "repos_url": "https://api.github.com/users/roblabla/repos",
                "site_admin": false,
                "starred_url": "https://api.github.com/users/roblabla/starred{/owner}{/repo}",
                "subscriptions_url": "https://api.github.com/users/roblabla/subscriptions",
                "type": "User",
                "url": "https://api.github.com/users/roblabla"
            }
        }
    ],
    "comments": 2,
    "comments_url": "https://api.github.com/repos/PrismarineJS/node-minecraft-protocol/issues/76/comments",
    "commit_data": [
        {
            "author": {
                "avatar_url": "https://avatars.githubusercontent.com/u/3490463?v=4",
                "events_url": "https://api.github.com/users/danny8376/events{/privacy}",
                "followers_url": "https://api.github.com/users/danny8376/followers",
                "following_url": "https://api.github.com/users/danny8376/following{/other_user}",
                "gists_url": "https://api.github.com/users/danny8376/gists{/gist_id}",
                "gravatar_id": "",
                "html_url": "https://github.com/danny8376",
                "id": 3490463,
                "login": "danny8376",
                "node_id": "MDQ6VXNlcjM0OTA0NjM=",
                "organizations_url": "https://api.github.com/users/danny8376/orgs",
                "received_events_url": "https://api.github.com/users/danny8376/received_events",
                "repos_url": "https://api.github.com/users/danny8376/repos",
                "site_admin": false,
                "starred_url": "https://api.github.com/users/danny8376/starred{/owner}{/repo}",
                "subscriptions_url": "https://api.github.com/users/danny8376/subscriptions",
                "type": "User",
                "url": "https://api.github.com/users/danny8376"
            },
            "comments_url": "https://api.github.com/repos/PrismarineJS/node-minecraft-protocol/commits/aa0402979eca7ca6cdd6bedd2cef9400b55a235d/comments",
            "commit": {
                "author": {
                    "date": "2014-02-22T10:38:39Z",
                    "email": "danny8376+code@gmail.com",
                    "name": "DannyAAM"
                },
                "comment_count": 0,
                "committer": {
                    "date": "2014-02-22T10:52:24Z",
                    "email": "danny8376+code@gmail.com",
                    "name": "DannyAAM"
                },
                "message": "modify some packet variable name\n\nfix chat problem with multi-byte characters",
                "tree": {
                    "sha": "bbd33e29072eeab1598e9c173f38c108f4c7bfaf",
                    "url": "https://api.github.com/repos/PrismarineJS/node-minecraft-protocol/git/trees/bbd33e29072eeab1598e9c173f38c108f4c7bfaf"
                },
                "url": "https://api.github.com/repos/PrismarineJS/node-minecraft-protocol/git/commits/aa0402979eca7ca6cdd6bedd2cef9400b55a235d",
                "verification": {
                    "payload": null,
                    "reason": "unsigned",
                    "signature": null,
                    "verified": false
                }
            },
            "committer": {
                "avatar_url": "https://avatars.githubusercontent.com/u/3490463?v=4",
                "events_url": "https://api.github.com/users/danny8376/events{/privacy}",
                "followers_url": "https://api.github.com/users/danny8376/followers",
                "following_url": "https://api.github.com/users/danny8376/following{/other_user}",
                "gists_url": "https://api.github.com/users/danny8376/gists{/gist_id}",
                "gravatar_id": "",
                "html_url": "https://github.com/danny8376",
                "id": 3490463,
                "login": "danny8376",
                "node_id": "MDQ6VXNlcjM0OTA0NjM=",
                "organizations_url": "https://api.github.com/users/danny8376/orgs",
                "received_events_url": "https://api.github.com/users/danny8376/received_events",
                "repos_url": "https://api.github.com/users/danny8376/repos",
                "site_admin": false,
                "starred_url": "https://api.github.com/users/danny8376/starred{/owner}{/repo}",
                "subscriptions_url": "https://api.github.com/users/danny8376/subscriptions",
                "type": "User",
                "url": "https://api.github.com/users/danny8376"
            },
            "html_url": "https://github.com/PrismarineJS/node-minecraft-protocol/commit/aa0402979eca7ca6cdd6bedd2cef9400b55a235d",
            "node_id": "MDY6Q29tbWl0MTcwODI3MTk6YWEwNDAyOTc5ZWNhN2NhNmNkZDZiZWRkMmNlZjk0MDBiNTVhMjM1ZA==",
            "parents": [
                {
                    "html_url": "https://github.com/PrismarineJS/node-minecraft-protocol/commit/4e48226c8c76025546d1a54b08554ce550ead21b",
                    "sha": "4e48226c8c76025546d1a54b08554ce550ead21b",
                    "url": "https://api.github.com/repos/PrismarineJS/node-minecraft-protocol/commits/4e48226c8c76025546d1a54b08554ce550ead21b"
                }
            ],
            "sha": "aa0402979eca7ca6cdd6bedd2cef9400b55a235d",
            "url": "https://api.github.com/repos/PrismarineJS/node-minecraft-protocol/commits/aa0402979eca7ca6cdd6bedd2cef9400b55a235d"
        }
    ],
    "commits": 1,
    "commits_url": "https://api.github.com/repos/PrismarineJS/node-minecraft-protocol/pulls/76/commits",
    "created_at": "2014-02-22T10:53:25Z",
    "deletions": 8,
    "diff_url": "https://github.com/PrismarineJS/node-minecraft-protocol/pull/76.diff",
    "draft": false,
    "head": {
        "label": "danny8376:somefix",
        "ref": "somefix",
        "repo": {
            "allow_forking": true,
            "archive_url": "https://api.github.com/repos/danny8376/node-minecraft-protocol/{archive_format}{/ref}",
            "archived": false,
            "assignees_url": "https://api.github.com/repos/danny8376/node-minecraft-protocol/assignees{/user}",
            "blobs_url": "https://api.github.com/repos/danny8376/node-minecraft-protocol/git/blobs{/sha}",
            "branches_url": "https://api.github.com/repos/danny8376/node-minecraft-protocol/branches{/branch}",
            "clone_url": "https://github.com/danny8376/node-minecraft-protocol.git",
            "collaborators_url": "https://api.github.com/repos/danny8376/node-minecraft-protocol/collaborators{/collaborator}",
            "comments_url": "https://api.github.com/repos/danny8376/node-minecraft-protocol/comments{/number}",
            "commits_url": "https://api.github.com/repos/danny8376/node-minecraft-protocol/commits{/sha}",
            "compare_url": "https://api.github.com/repos/danny8376/node-minecraft-protocol/compare/{base}...{head}",
            "contents_url": "https://api.github.com/repos/danny8376/node-minecraft-protocol/contents/{+path}",
            "contributors_url": "https://api.github.com/repos/danny8376/node-minecraft-protocol/contributors",
            "created_at": "2014-02-22T10:27:29Z",
            "default_branch": "master",
            "deployments_url": "https://api.github.com/repos/danny8376/node-minecraft-protocol/deployments",
            "description": "Parse and serialize minecraft packets, plus authentication and encryption.",
            "disabled": false,
            "downloads_url": "https://api.github.com/repos/danny8376/node-minecraft-protocol/downloads",
            "events_url": "https://api.github.com/repos/danny8376/node-minecraft-protocol/events",
            "fork": true,
            "forks": 0,
            "forks_count": 0,
            "forks_url": "https://api.github.com/repos/danny8376/node-minecraft-protocol/forks",
            "full_name": "danny8376/node-minecraft-protocol",
            "git_commits_url": "https://api.github.com/repos/danny8376/node-minecraft-protocol/git/commits{/sha}",
            "git_refs_url": "https://api.github.com/repos/danny8376/node-minecraft-protocol/git/refs{/sha}",
            "git_tags_url": "https://api.github.com/repos/danny8376/node-minecraft-protocol/git/tags{/sha}",
            "git_url": "git://github.com/danny8376/node-minecraft-protocol.git",
            "has_discussions": false,
            "has_downloads": true,
            "has_issues": false,
            "has_pages": false,
            "has_projects": true,
            "has_wiki": true,
            "homepage": "",
            "hooks_url": "https://api.github.com/repos/danny8376/node-minecraft-protocol/hooks",
            "html_url": "https://github.com/danny8376/node-minecraft-protocol",
            "id": 17082719,
            "is_template": false,
            "issue_comment_url": "https://api.github.com/repos/danny8376/node-minecraft-protocol/issues/comments{/number}",
            "issue_events_url": "https://api.github.com/repos/danny8376/node-minecraft-protocol/issues/events{/number}",
            "issues_url": "https://api.github.com/repos/danny8376/node-minecraft-protocol/issues{/number}",
            "keys_url": "https://api.github.com/repos/danny8376/node-minecraft-protocol/keys{/key_id}",
            "labels_url": "https://api.github.com/repos/danny8376/node-minecraft-protocol/labels{/name}",
            "language": "JavaScript",
            "languages_url": "https://api.github.com/repos/danny8376/node-minecraft-protocol/languages",
            "license": null,
            "merges_url": "https://api.github.com/repos/danny8376/node-minecraft-protocol/merges",
            "milestones_url": "https://api.github.com/repos/danny8376/node-minecraft-protocol/milestones{/number}",
            "mirror_url": null,
            "name": "node-minecraft-protocol",
            "node_id": "MDEwOlJlcG9zaXRvcnkxNzA4MjcxOQ==",
            "notifications_url": "https://api.github.com/repos/danny8376/node-minecraft-protocol/notifications{?since,all,participating}",
            "open_issues": 0,
            "open_issues_count": 0,
            "owner": {
                "avatar_url": "https://avatars.githubusercontent.com/u/3490463?v=4",
                "events_url": "https://api.github.com/users/danny8376/events{/privacy}",
                "followers_url": "https://api.github.com/users/danny8376/followers",
                "following_url": "https://api.github.com/users/danny8376/following{/other_user}",
                "gists_url": "https://api.github.com/users/danny8376/gists{/gist_id}",
                "gravatar_id": "",
                "html_url": "https://github.com/danny8376",
                "id": 3490463,
                "login": "danny8376",
                "node_id": "MDQ6VXNlcjM0OTA0NjM=",
                "organizations_url": "https://api.github.com/users/danny8376/orgs",
                "received_events_url": "https://api.github.com/users/danny8376/received_events",
                "repos_url": "https://api.github.com/users/danny8376/repos",
                "site_admin": false,
                "starred_url": "https://api.github.com/users/danny8376/starred{/owner}{/repo}",
                "subscriptions_url": "https://api.github.com/users/danny8376/subscriptions",
                "type": "User",
                "url": "https://api.github.com/users/danny8376"
            },
            "private": false,
            "pulls_url": "https://api.github.com/repos/danny8376/node-minecraft-protocol/pulls{/number}",
            "pushed_at": "2014-02-22T10:52:51Z",
            "releases_url": "https://api.github.com/repos/danny8376/node-minecraft-protocol/releases{/id}",
            "size": 366,
            "ssh_url": "git@github.com:danny8376/node-minecraft-protocol.git",
            "stargazers_count": 0,
            "stargazers_url": "https://api.github.com/repos/danny8376/node-minecraft-protocol/stargazers",
            "statuses_url": "https://api.github.com/repos/danny8376/node-minecraft-protocol/statuses/{sha}",
            "subscribers_url": "https://api.github.com/repos/danny8376/node-minecraft-protocol/subscribers",
            "subscription_url": "https://api.github.com/repos/danny8376/node-minecraft-protocol/subscription",
            "svn_url": "https://github.com/danny8376/node-minecraft-protocol",
            "tags_url": "https://api.github.com/repos/danny8376/node-minecraft-protocol/tags",
            "teams_url": "https://api.github.com/repos/danny8376/node-minecraft-protocol/teams",
            "topics": [],
            "trees_url": "https://api.github.com/repos/danny8376/node-minecraft-protocol/git/trees{/sha}",
            "updated_at": "2015-02-18T22:05:41Z",
            "url": "https://api.github.com/repos/danny8376/node-minecraft-protocol",
            "visibility": "public",
            "watchers": 0,
            "watchers_count": 0,
            "web_commit_signoff_required": false
        },
        "sha": "aa0402979eca7ca6cdd6bedd2cef9400b55a235d",
        "user": {
            "avatar_url": "https://avatars.githubusercontent.com/u/3490463?v=4",
            "events_url": "https://api.github.com/users/danny8376/events{/privacy}",
            "followers_url": "https://api.github.com/users/danny8376/followers",
            "following_url": "https://api.github.com/users/danny8376/following{/other_user}",
            "gists_url": "https://api.github.com/users/danny8376/gists{/gist_id}",
            "gravatar_id": "",
            "html_url": "https://github.com/danny8376",
            "id": 3490463,
            "login": "danny8376",
            "node_id": "MDQ6VXNlcjM0OTA0NjM=",
            "organizations_url": "https://api.github.com/users/danny8376/orgs",
            "received_events_url": "https://api.github.com/users/danny8376/received_events",
            "repos_url": "https://api.github.com/users/danny8376/repos",
            "site_admin": false,
            "starred_url": "https://api.github.com/users/danny8376/starred{/owner}{/repo}",
            "subscriptions_url": "https://api.github.com/users/danny8376/subscriptions",
            "type": "User",
            "url": "https://api.github.com/users/danny8376"
        }
    },
    "html_url": "https://github.com/PrismarineJS/node-minecraft-protocol/pull/76",
    "id": 12821905,
    "issue_url": "https://api.github.com/repos/PrismarineJS/node-minecraft-protocol/issues/76",
    "labels": [
        {
            "color": "fc2929",
            "default": true,
            "description": null,
            "id": 23544340,
            "name": "bug",
            "node_id": "MDU6TGFiZWwyMzU0NDM0MA==",
            "url": "https://api.github.com/repos/PrismarineJS/node-minecraft-protocol/labels/bug"
        }
    ],
    "locked": false,
    "maintainer_can_modify": false,
    "merge_commit_sha": "2e46f673d25cfbdf7ccf15f0b7e59908cd6560d0",
    "mergeable": null,
    "mergeable_state": "unknown",
    "merged": true,
    "merged_at": "2014-02-22T17:54:23Z",
    "merged_by": {
        "avatar_url": "https://avatars.githubusercontent.com/u/106511?v=4",
        "events_url": "https://api.github.com/users/andrewrk/events{/privacy}",
        "followers_url": "https://api.github.com/users/andrewrk/followers",
        "following_url": "https://api.github.com/users/andrewrk/following{/other_user}",
        "gists_url": "https://api.github.com/users/andrewrk/gists{/gist_id}",
        "gravatar_id": "",
        "html_url": "https://github.com/andrewrk",
        "id": 106511,
        "login": "andrewrk",
        "node_id": "MDQ6VXNlcjEwNjUxMQ==",
        "organizations_url": "https://api.github.com/users/andrewrk/orgs",
        "received_events_url": "https://api.github.com/users/andrewrk/received_events",
        "repos_url": "https://api.github.com/users/andrewrk/repos",
        "site_admin": false,
        "starred_url": "https://api.github.com/users/andrewrk/starred{/owner}{/repo}",
        "subscriptions_url": "https://api.github.com/users/andrewrk/subscriptions",
        "type": "User",
        "url": "https://api.github.com/users/andrewrk"
    },
    "milestone": null,
    "node_id": "MDExOlB1bGxSZXF1ZXN0MTI4MjE5MDU=",
    "number": 76,
    "patch_url": "https://github.com/PrismarineJS/node-minecraft-protocol/pull/76.patch",
    "rebaseable": null,
    "requested_reviewers": [],
    "requested_teams": [],
    "review_comment_url": "https://api.github.com/repos/PrismarineJS/node-minecraft-protocol/pulls/comments{/number}",
    "review_comments": 0,
    "review_comments_url": "https://api.github.com/repos/PrismarineJS/node-minecraft-protocol/pulls/76/comments",
    "state": "closed",
    "statuses_url": "https://api.github.com/repos/PrismarineJS/node-minecraft-protocol/statuses/aa0402979eca7ca6cdd6bedd2cef9400b55a235d",
    "title": "fix chat problem with multi-byte characters",
    "updated_at": "2014-07-19T06:07:31Z",
    "url": "https://api.github.com/repos/PrismarineJS/node-minecraft-protocol/pulls/76",
    "user": {
        "avatar_url": "https://avatars.githubusercontent.com/u/3490463?v=4",
        "events_url": "https://api.github.com/users/danny8376/events{/privacy}",
        "followers_url": "https://api.github.com/users/danny8376/followers",
        "following_url": "https://api.github.com/users/danny8376/following{/other_user}",
        "gists_url": "https://api.github.com/users/danny8376/gists{/gist_id}",
        "gravatar_id": "",
        "html_url": "https://github.com/danny8376",
        "id": 3490463,
        "login": "danny8376",
        "node_id": "MDQ6VXNlcjM0OTA0NjM=",
        "organizations_url": "https://api.github.com/users/danny8376/orgs",
        "received_events_url": "https://api.github.com/users/danny8376/received_events",
        "repos_url": "https://api.github.com/users/danny8376/repos",
        "site_admin": false,
        "starred_url": "https://api.github.com/users/danny8376/starred{/owner}{/repo}",
        "subscriptions_url": "https://api.github.com/users/danny8376/subscriptions",
        "type": "User",
        "url": "https://api.github.com/users/danny8376"
    }
}