{
    "_links": {
        "comments": {
            "href": "https://api.github.com/repos/PrismarineJS/prismarine-gameplay/issues/103/comments"
        },
        "commits": {
            "href": "https://api.github.com/repos/PrismarineJS/prismarine-gameplay/pulls/103/commits"
        },
        "html": {
            "href": "https://github.com/PrismarineJS/prismarine-gameplay/pull/103"
        },
        "issue": {
            "href": "https://api.github.com/repos/PrismarineJS/prismarine-gameplay/issues/103"
        },
        "review_comment": {
            "href": "https://api.github.com/repos/PrismarineJS/prismarine-gameplay/pulls/comments{/number}"
        },
        "review_comments": {
            "href": "https://api.github.com/repos/PrismarineJS/prismarine-gameplay/pulls/103/comments"
        },
        "self": {
            "href": "https://api.github.com/repos/PrismarineJS/prismarine-gameplay/pulls/103"
        },
        "statuses": {
            "href": "https://api.github.com/repos/PrismarineJS/prismarine-gameplay/statuses/475d1d050afc2c698fbabb0b6e00de5dae7fe747"
        }
    },
    "active_lock_reason": null,
    "additions": 1,
    "assignee": null,
    "assignees": [],
    "author_association": "CONTRIBUTOR",
    "auto_merge": null,
    "base": {
        "label": "PrismarineJS:master",
        "ref": "master",
        "repo": {
            "allow_forking": true,
            "archive_url": "https://api.github.com/repos/PrismarineJS/prismarine-gameplay/{archive_format}{/ref}",
            "archived": false,
            "assignees_url": "https://api.github.com/repos/PrismarineJS/prismarine-gameplay/assignees{/user}",
            "blobs_url": "https://api.github.com/repos/PrismarineJS/prismarine-gameplay/git/blobs{/sha}",
            "branches_url": "https://api.github.com/repos/PrismarineJS/prismarine-gameplay/branches{/branch}",
            "clone_url": "https://github.com/PrismarineJS/prismarine-gameplay.git",
            "collaborators_url": "https://api.github.com/repos/PrismarineJS/prismarine-gameplay/collaborators{/collaborator}",
            "comments_url": "https://api.github.com/repos/PrismarineJS/prismarine-gameplay/comments{/number}",
            "commits_url": "https://api.github.com/repos/PrismarineJS/prismarine-gameplay/commits{/sha}",
            "compare_url": "https://api.github.com/repos/PrismarineJS/prismarine-gameplay/compare/{base}...{head}",
            "contents_url": "https://api.github.com/repos/PrismarineJS/prismarine-gameplay/contents/{+path}",
            "contributors_url": "https://api.github.com/repos/PrismarineJS/prismarine-gameplay/contributors",
            "created_at": "2020-07-12T11:04:43Z",
            "default_branch": "master",
            "deployments_url": "https://api.github.com/repos/PrismarineJS/prismarine-gameplay/deployments",
            "description": "A high level gameplay API for making Mineflayer bots.",
            "disabled": false,
            "downloads_url": "https://api.github.com/repos/PrismarineJS/prismarine-gameplay/downloads",
            "events_url": "https://api.github.com/repos/PrismarineJS/prismarine-gameplay/events",
            "fork": false,
            "forks": 3,
            "forks_count": 3,
            "forks_url": "https://api.github.com/repos/PrismarineJS/prismarine-gameplay/forks",
            "full_name": "PrismarineJS/prismarine-gameplay",
            "git_commits_url": "https://api.github.com/repos/PrismarineJS/prismarine-gameplay/git/commits{/sha}",
            "git_refs_url": "https://api.github.com/repos/PrismarineJS/prismarine-gameplay/git/refs{/sha}",
            "git_tags_url": "https://api.github.com/repos/PrismarineJS/prismarine-gameplay/git/tags{/sha}",
            "git_url": "git://github.com/PrismarineJS/prismarine-gameplay.git",
            "has_discussions": false,
            "has_downloads": true,
            "has_issues": true,
            "has_pages": false,
            "has_projects": true,
            "has_wiki": true,
            "homepage": null,
            "hooks_url": "https://api.github.com/repos/PrismarineJS/prismarine-gameplay/hooks",
            "html_url": "https://github.com/PrismarineJS/prismarine-gameplay",
            "id": 279046568,
            "is_template": false,
            "issue_comment_url": "https://api.github.com/repos/PrismarineJS/prismarine-gameplay/issues/comments{/number}",
            "issue_events_url": "https://api.github.com/repos/PrismarineJS/prismarine-gameplay/issues/events{/number}",
            "issues_url": "https://api.github.com/repos/PrismarineJS/prismarine-gameplay/issues{/number}",
            "keys_url": "https://api.github.com/repos/PrismarineJS/prismarine-gameplay/keys{/key_id}",
            "labels_url": "https://api.github.com/repos/PrismarineJS/prismarine-gameplay/labels{/name}",
            "language": "TypeScript",
            "languages_url": "https://api.github.com/repos/PrismarineJS/prismarine-gameplay/languages",
            "license": {
                "key": "mit",
                "name": "MIT License",
                "node_id": "MDc6TGljZW5zZTEz",
                "spdx_id": "MIT",
                "url": "https://api.github.com/licenses/mit"
            },
            "merges_url": "https://api.github.com/repos/PrismarineJS/prismarine-gameplay/merges",
            "milestones_url": "https://api.github.com/repos/PrismarineJS/prismarine-gameplay/milestones{/number}",
            "mirror_url": null,
            "name": "prismarine-gameplay",
            "node_id": "MDEwOlJlcG9zaXRvcnkyNzkwNDY1Njg=",
            "notifications_url": "https://api.github.com/repos/PrismarineJS/prismarine-gameplay/notifications{?since,all,participating}",
            "open_issues": 10,
            "open_issues_count": 10,
            "owner": {
                "avatar_url": "https://avatars.githubusercontent.com/u/11053411?v=4",
                "events_url": "https://api.github.com/users/PrismarineJS/events{/privacy}",
                "followers_url": "https://api.github.com/users/PrismarineJS/followers",
                "following_url": "https://api.github.com/users/PrismarineJS/following{/other_user}",
                "gists_url": "https://api.github.com/users/PrismarineJS/gists{/gist_id}",
                "gravatar_id": "",
                "html_url": "https://github.com/PrismarineJS",
                "id": 11053411,
                "login": "PrismarineJS",
                "node_id": "MDEyOk9yZ2FuaXphdGlvbjExMDUzNDEx",
                "organizations_url": "https://api.github.com/users/PrismarineJS/orgs",
                "received_events_url": "https://api.github.com/users/PrismarineJS/received_events",
                "repos_url": "https://api.github.com/users/PrismarineJS/repos",
                "site_admin": false,
                "starred_url": "https://api.github.com/users/PrismarineJS/starred{/owner}{/repo}",
                "subscriptions_url": "https://api.github.com/users/PrismarineJS/subscriptions",
                "type": "Organization",
                "url": "https://api.github.com/users/PrismarineJS"
            },
            "private": false,
            "pulls_url": "https://api.github.com/repos/PrismarineJS/prismarine-gameplay/pulls{/number}",
            "pushed_at": "2023-04-10T14:58:49Z",
            "releases_url": "https://api.github.com/repos/PrismarineJS/prismarine-gameplay/releases{/id}",
            "size": 82,
            "ssh_url": "git@github.com:PrismarineJS/prismarine-gameplay.git",
            "stargazers_count": 10,
            "stargazers_url": "https://api.github.com/repos/PrismarineJS/prismarine-gameplay/stargazers",
            "statuses_url": "https://api.github.com/repos/PrismarineJS/prismarine-gameplay/statuses/{sha}",
            "subscribers_url": "https://api.github.com/repos/PrismarineJS/prismarine-gameplay/subscribers",
            "subscription_url": "https://api.github.com/repos/PrismarineJS/prismarine-gameplay/subscription",
            "svn_url": "https://github.com/PrismarineJS/prismarine-gameplay",
            "tags_url": "https://api.github.com/repos/PrismarineJS/prismarine-gameplay/tags",
            "teams_url": "https://api.github.com/repos/PrismarineJS/prismarine-gameplay/teams",
            "topics": [],
            "trees_url": "https://api.github.com/repos/PrismarineJS/prismarine-gameplay/git/trees{/sha}",
            "updated_at": "2022-08-05T10:46:31Z",
            "url": "https://api.github.com/repos/PrismarineJS/prismarine-gameplay",
            "visibility": "public",
            "watchers": 10,
            "watchers_count": 10,
            "web_commit_signoff_required": false
        },
        "sha": "76aac7f68ea6ae12114b025bc5eca0e8d8ed3010",
        "user": {
            "avatar_url": "https://avatars.githubusercontent.com/u/11053411?v=4",
            "events_url": "https://api.github.com/users/PrismarineJS/events{/privacy}",
            "followers_url": "https://api.github.com/users/PrismarineJS/followers",
            "following_url": "https://api.github.com/users/PrismarineJS/following{/other_user}",
            "gists_url": "https://api.github.com/users/PrismarineJS/gists{/gist_id}",
            "gravatar_id": "",
            "html_url": "https://github.com/PrismarineJS",
            "id": 11053411,
            "login": "PrismarineJS",
            "node_id": "MDEyOk9yZ2FuaXphdGlvbjExMDUzNDEx",
            "organizations_url": "https://api.github.com/users/PrismarineJS/orgs",
            "received_events_url": "https://api.github.com/users/PrismarineJS/received_events",
            "repos_url": "https://api.github.com/users/PrismarineJS/repos",
            "site_admin": false,
            "starred_url": "https://api.github.com/users/PrismarineJS/starred{/owner}{/repo}",
            "subscriptions_url": "https://api.github.com/users/PrismarineJS/subscriptions",
            "type": "Organization",
            "url": "https://api.github.com/users/PrismarineJS"
        }
    },
    "body": "Bumps [minecraft-data](https://github.com/PrismarineJS/node-minecraft-data) from 2.221.0 to 3.25.2.\n<details>\n<summary>Release notes</summary>\n<p><em>Sourced from <a href=\"https://github.com/PrismarineJS/node-minecraft-data/releases\">minecraft-data's releases</a>.</em></p>\n<blockquote>\n<h2>Release 3.25.2</h2>\n<p>3.25.2</p>\n<h2>Release 3.25.1</h2>\n<p>3.25.1</p>\n<h2>Release 3.25.0</h2>\n<p>3.25.0</p>\n<h2>Release 3.24.0</h2>\n<p>3.24.0</p>\n<h2>Release 3.23.0</h2>\n<p>3.23.0</p>\n<h2>Release 3.22.0</h2>\n<p>3.22.0</p>\n<h2>Release 3.21.0</h2>\n<p>3.21.0</p>\n<h2>Release 3.20.0</h2>\n<p>3.20.0</p>\n<h2>Release 3.19.0</h2>\n<p>3.19.0</p>\n<h2>Release 3.18.0</h2>\n<p>3.18.0</p>\n<h2>Release 3.17.0</h2>\n<p>3.17.0</p>\n<h2>Release 3.16.0</h2>\n<p>3.16.0</p>\n<h2>Release 3.15.3</h2>\n<p>3.15.3</p>\n<h2>Release 3.15.2</h2>\n<p>3.15.2</p>\n<h2>Release 3.15.1</h2>\n<p>3.15.1</p>\n<h2>Release 3.15.0</h2>\n<p>3.15.0</p>\n<h2>Release 3.14.1</h2>\n<p>3.14.1</p>\n<!-- raw HTML omitted -->\n</blockquote>\n<p>... (truncated)</p>\n</details>\n<details>\n<summary>Changelog</summary>\n<p><em>Sourced from <a href=\"https://github.com/PrismarineJS/node-minecraft-data/blob/master/doc/history.md\">minecraft-data's changelog</a>.</em></p>\n<blockquote>\n<h2>3.25.2</h2>\n<ul>\n<li>update <code>minecraft-data</code></li>\n</ul>\n<h2>3.25.1</h2>\n<ul>\n<li>update <code>minecraft-data</code></li>\n</ul>\n<h2>3.25.0</h2>\n<ul>\n<li>update <code>minecraft-data</code></li>\n</ul>\n<h2>3.24.0</h2>\n<ul>\n<li>update <code>minecraft-data</code></li>\n</ul>\n<h2>3.23.0</h2>\n<ul>\n<li>update <code>minecraft-data</code></li>\n</ul>\n<h2>3.22.0</h2>\n<ul>\n<li>update <code>minecraft-data</code></li>\n</ul>\n<h2>3.21.0</h2>\n<ul>\n<li>update <code>minecraft-data</code></li>\n</ul>\n<h2>3.20.0</h2>\n<ul>\n<li>update <code>minecraft-data</code></li>\n</ul>\n<h2>3.19.0</h2>\n<ul>\n<li>update <code>minecraft-data</code></li>\n</ul>\n<h2>3.18.0</h2>\n<ul>\n<li>update <code>minecraft-data</code></li>\n</ul>\n<h2>3.17.0</h2>\n<ul>\n<li>update <code>minecraft-data</code></li>\n</ul>\n<h2>3.16.0</h2>\n<ul>\n<li>update <code>minecraft-data</code></li>\n</ul>\n<h2>3.15.3</h2>\n<!-- raw HTML omitted -->\n</blockquote>\n<p>... (truncated)</p>\n</details>\n<details>\n<summary>Commits</summary>\n<ul>\n<li><a href=\"https://github.com/PrismarineJS/node-minecraft-data/commit/4df9dfabccb58776cbca985bef041cc67420135c\"><code>4df9dfa</code></a> Release 3.25.2 (<a href=\"https://github-redirect.dependabot.com/PrismarineJS/node-minecraft-data/issues/256\">#256</a>)</li>\n<li><a href=\"https://github.com/PrismarineJS/node-minecraft-data/commit/17261f4f60380ee7076ea28e976552fdaa359f8a\"><code>17261f4</code></a> Release 3.25.1 (<a href=\"https://github-redirect.dependabot.com/PrismarineJS/node-minecraft-data/issues/255\">#255</a>)</li>\n<li><a href=\"https://github.com/PrismarineJS/node-minecraft-data/commit/bc8d52682742abd54a65b4c2570ae10d8df80a43\"><code>bc8d526</code></a> Release 3.25.0 (<a href=\"https://github-redirect.dependabot.com/PrismarineJS/node-minecraft-data/issues/254\">#254</a>)</li>\n<li><a href=\"https://github.com/PrismarineJS/node-minecraft-data/commit/6c10fe73f511835e02011c22d7817d2ebe112946\"><code>6c10fe7</code></a> Add feature.version for single-version features (<a href=\"https://github-redirect.dependabot.com/PrismarineJS/node-minecraft-data/issues/253\">#253</a>)</li>\n<li><a href=\"https://github.com/PrismarineJS/node-minecraft-data/commit/8330b48f55faf15a44cc6a1c783bd7a9e7da62a4\"><code>8330b48</code></a> Release 3.24.0 (<a href=\"https://github-redirect.dependabot.com/PrismarineJS/node-minecraft-data/issues/251\">#251</a>)</li>\n<li><a href=\"https://github.com/PrismarineJS/node-minecraft-data/commit/2669edb42c0f2cb14fd6285a009ed3274732730c\"><code>2669edb</code></a> Release 3.23.0 (<a href=\"https://github-redirect.dependabot.com/PrismarineJS/node-minecraft-data/issues/250\">#250</a>)</li>\n<li><a href=\"https://github.com/PrismarineJS/node-minecraft-data/commit/a91943c79e1113ed0f59c240503c323f1e4b4813\"><code>a91943c</code></a> Release 3.22.0 (<a href=\"https://github-redirect.dependabot.com/PrismarineJS/node-minecraft-data/issues/249\">#249</a>)</li>\n<li><a href=\"https://github.com/PrismarineJS/node-minecraft-data/commit/1c6647781fc62f2ca150395722dd162e3d0a83a7\"><code>1c66477</code></a> Release 3.21.0 (<a href=\"https://github-redirect.dependabot.com/PrismarineJS/node-minecraft-data/issues/248\">#248</a>)</li>\n<li><a href=\"https://github.com/PrismarineJS/node-minecraft-data/commit/b36461402e9a55be4b64becfb68bd1d03b535e5d\"><code>b364614</code></a> Release 3.20.0 (<a href=\"https://github-redirect.dependabot.com/PrismarineJS/node-minecraft-data/issues/247\">#247</a>)</li>\n<li><a href=\"https://github.com/PrismarineJS/node-minecraft-data/commit/768932b78530ca9961282cab4378971271cff945\"><code>768932b</code></a> Release 3.19.0 (<a href=\"https://github-redirect.dependabot.com/PrismarineJS/node-minecraft-data/issues/246\">#246</a>)</li>\n<li>Additional commits viewable in <a href=\"https://github.com/PrismarineJS/node-minecraft-data/compare/2.221.0...3.25.2\">compare view</a></li>\n</ul>\n</details>\n<br />\n\n\n[![Dependabot compatibility score](https://dependabot-badges.githubapp.com/badges/compatibility_score?dependency-name=minecraft-data&package-manager=npm_and_yarn&previous-version=2.221.0&new-version=3.25.2)](https://docs.github.com/en/github/managing-security-vulnerabilities/about-dependabot-security-updates#about-compatibility-scores)\n\nDependabot will resolve any conflicts with this PR as long as you don't alter it yourself. You can also trigger a rebase manually by commenting `@dependabot rebase`.\n\n[//]: # (dependabot-automerge-start)\n[//]: # (dependabot-automerge-end)\n\n---\n\n<details>\n<summary>Dependabot commands and options</summary>\n<br />\n\nYou can trigger Dependabot actions by commenting on this PR:\n- `@dependabot rebase` will rebase this PR\n- `@dependabot recreate` will recreate this PR, overwriting any edits that have been made to it\n- `@dependabot merge` will merge this PR after your CI passes on it\n- `@dependabot squash and merge` will squash and merge this PR after your CI passes on it\n- `@dependabot cancel merge` will cancel a previously requested merge and block automerging\n- `@dependabot reopen` will reopen this PR if it is closed\n- `@dependabot close` will close this PR and stop Dependabot recreating it. You can achieve the same result by closing it manually\n- `@dependabot ignore this major version` will close this PR and stop Dependabot creating any more for this major version (unless you reopen the PR or upgrade to it yourself)\n- `@dependabot ignore this minor version` will close this PR and stop Dependabot creating any more for this minor version (unless you reopen the PR or upgrade to it yourself)\n- `@dependabot ignore this dependency` will close this PR and stop Dependabot creating any more for this dependency (unless you reopen the PR or upgrade to it yourself)\n\n\n</details>",
    "changed_files": 1,
    "closed_at": "2023-01-30T14:04:06Z",
    "comment_data": [],
    "comment_regular_data": [
        {
            "author_association": "CONTRIBUTOR",
            "body": "Superseded by #104.",
            "created_at": "2023-01-30T14:04:05Z",
            "html_url": "https://github.com/PrismarineJS/prismarine-gameplay/pull/103#issuecomment-1408681829",
            "id": 1408681829,
            "issue_url": "https://api.github.com/repos/PrismarineJS/prismarine-gameplay/issues/103",
            "node_id": "IC_kwDOEKHpqM5T9sdl",
            "performed_via_github_app": null,
            "reactions": {
                "+1": 0,
                "-1": 0,
                "confused": 0,
                "eyes": 0,
                "heart": 0,
                "hooray": 0,
                "laugh": 0,
                "rocket": 0,
                "total_count": 0,
                "url": "https://api.github.com/repos/PrismarineJS/prismarine-gameplay/issues/comments/1408681829/reactions"
            },
            "updated_at": "2023-01-30T14:04:05Z",
            "url": "https://api.github.com/repos/PrismarineJS/prismarine-gameplay/issues/comments/1408681829",
            "user": {
                "avatar_url": "https://avatars.githubusercontent.com/in/29110?v=4",
                "events_url": "https://api.github.com/users/dependabot%5Bbot%5D/events{/privacy}",
                "followers_url": "https://api.github.com/users/dependabot%5Bbot%5D/followers",
                "following_url": "https://api.github.com/users/dependabot%5Bbot%5D/following{/other_user}",
                "gists_url": "https://api.github.com/users/dependabot%5Bbot%5D/gists{/gist_id}",
                "gravatar_id": "",
                "html_url": "https://github.com/apps/dependabot",
                "id": 49699333,
                "login": "dependabot[bot]",
                "node_id": "MDM6Qm90NDk2OTkzMzM=",
                "organizations_url": "https://api.github.com/users/dependabot%5Bbot%5D/orgs",
                "received_events_url": "https://api.github.com/users/dependabot%5Bbot%5D/received_events",
                "repos_url": "https://api.github.com/users/dependabot%5Bbot%5D/repos",
                "site_admin": false,
                "starred_url": "https://api.github.com/users/dependabot%5Bbot%5D/starred{/owner}{/repo}",
                "subscriptions_url": "https://api.github.com/users/dependabot%5Bbot%5D/subscriptions",
                "type": "Bot",
                "url": "https://api.github.com/users/dependabot%5Bbot%5D"
            }
        }
    ],
    "comments": 1,
    "comments_url": "https://api.github.com/repos/PrismarineJS/prismarine-gameplay/issues/103/comments",
    "commit_data": [
        {
            "author": {
                "avatar_url": "https://avatars.githubusercontent.com/in/29110?v=4",
                "events_url": "https://api.github.com/users/dependabot%5Bbot%5D/events{/privacy}",
                "followers_url": "https://api.github.com/users/dependabot%5Bbot%5D/followers",
                "following_url": "https://api.github.com/users/dependabot%5Bbot%5D/following{/other_user}",
                "gists_url": "https://api.github.com/users/dependabot%5Bbot%5D/gists{/gist_id}",
                "gravatar_id": "",
                "html_url": "https://github.com/apps/dependabot",
                "id": 49699333,
                "login": "dependabot[bot]",
                "node_id": "MDM6Qm90NDk2OTkzMzM=",
                "organizations_url": "https://api.github.com/users/dependabot%5Bbot%5D/orgs",
                "received_events_url": "https://api.github.com/users/dependabot%5Bbot%5D/received_events",
                "repos_url": "https://api.github.com/users/dependabot%5Bbot%5D/repos",
                "site_admin": false,
                "starred_url": "https://api.github.com/users/dependabot%5Bbot%5D/starred{/owner}{/repo}",
                "subscriptions_url": "https://api.github.com/users/dependabot%5Bbot%5D/subscriptions",
                "type": "Bot",
                "url": "https://api.github.com/users/dependabot%5Bbot%5D"
            },
            "comments_url": "https://api.github.com/repos/PrismarineJS/prismarine-gameplay/commits/475d1d050afc2c698fbabb0b6e00de5dae7fe747/comments",
            "commit": {
                "author": {
                    "date": "2023-01-23T14:03:43Z",
                    "email": "49699333+dependabot[bot]@users.noreply.github.com",
                    "name": "dependabot[bot]"
                },
                "comment_count": 0,
                "committer": {
                    "date": "2023-01-23T14:03:43Z",
                    "email": "noreply@github.com",
                    "name": "GitHub"
                },
                "message": "Bump minecraft-data from 2.221.0 to 3.25.2\n\nBumps [minecraft-data](https://github.com/PrismarineJS/node-minecraft-data) from 2.221.0 to 3.25.2.\n- [Release notes](https://github.com/PrismarineJS/node-minecraft-data/releases)\n- [Changelog](https://github.com/PrismarineJS/node-minecraft-data/blob/master/doc/history.md)\n- [Commits](https://github.com/PrismarineJS/node-minecraft-data/compare/2.221.0...3.25.2)\n\n---\nupdated-dependencies:\n- dependency-name: minecraft-data\n  dependency-type: direct:production\n  update-type: version-update:semver-major\n...\n\nSigned-off-by: dependabot[bot] <support@github.com>",
                "tree": {
                    "sha": "7fd38191c85c70b6a201f42b4295f91506253c15",
                    "url": "https://api.github.com/repos/PrismarineJS/prismarine-gameplay/git/trees/7fd38191c85c70b6a201f42b4295f91506253c15"
                },
                "url": "https://api.github.com/repos/PrismarineJS/prismarine-gameplay/git/commits/475d1d050afc2c698fbabb0b6e00de5dae7fe747",
                "verification": {
                    "payload": "tree 7fd38191c85c70b6a201f42b4295f91506253c15\nparent 76aac7f68ea6ae12114b025bc5eca0e8d8ed3010\nauthor dependabot[bot] <49699333+dependabot[bot]@users.noreply.github.com> 1674482623 +0000\ncommitter GitHub <noreply@github.com> 1674482623 +0000\n\nBump minecraft-data from 2.221.0 to 3.25.2\n\nBumps [minecraft-data](https://github.com/PrismarineJS/node-minecraft-data) from 2.221.0 to 3.25.2.\n- [Release notes](https://github.com/PrismarineJS/node-minecraft-data/releases)\n- [Changelog](https://github.com/PrismarineJS/node-minecraft-data/blob/master/doc/history.md)\n- [Commits](https://github.com/PrismarineJS/node-minecraft-data/compare/2.221.0...3.25.2)\n\n---\nupdated-dependencies:\n- dependency-name: minecraft-data\n  dependency-type: direct:production\n  update-type: version-update:semver-major\n...\n\nSigned-off-by: dependabot[bot] <support@github.com>",
                    "reason": "valid",
                    "signature": "-----BEGIN PGP SIGNATURE-----\n\nwsBcBAABCAAQBQJjzpO/CRBK7hj4Ov3rIwAA/fMIACQ6VgJ5D/5vfsQBec3wDE2q\nopbDI/6Vj6FRQcdVICYLrFBJdFVF/ucKsr1lcIyLSB8rGU8q4kmUFJ9F0BJgSURl\ntUmh1ZqI83RVBIjzV1wSGiUhhiHQSiT202ZB1MTjYVqRR8yAG/dgb9GAw/f7RW1x\niCWKxR44Uty0yq5EMT1yUnhIs4cNFMK32rGjJJgrJhVtXuwdn+q4q88TJepcP3Wt\nFLuu0qxnYRpSPQp3718hUPLdAqZoDpVvNcib8vfb8psU5exNGMRkTn1GdLnVqkMr\nqRv1bzCx916uIiteDW/uBJUsZRnlea/JQ07clk0b7PYTq3H2sdAXP/1r7xEuJGc=\n=pBoR\n-----END PGP SIGNATURE-----\n",
                    "verified": true
                }
            },
            "committer": {
                "avatar_url": "https://avatars.githubusercontent.com/u/19864447?v=4",
                "events_url": "https://api.github.com/users/web-flow/events{/privacy}",
                "followers_url": "https://api.github.com/users/web-flow/followers",
                "following_url": "https://api.github.com/users/web-flow/following{/other_user}",
                "gists_url": "https://api.github.com/users/web-flow/gists{/gist_id}",
                "gravatar_id": "",
                "html_url": "https://github.com/web-flow",
                "id": 19864447,
                "login": "web-flow",
                "node_id": "MDQ6VXNlcjE5ODY0NDQ3",
                "organizations_url": "https://api.github.com/users/web-flow/orgs",
                "received_events_url": "https://api.github.com/users/web-flow/received_events",
                "repos_url": "https://api.github.com/users/web-flow/repos",
                "site_admin": false,
                "starred_url": "https://api.github.com/users/web-flow/starred{/owner}{/repo}",
                "subscriptions_url": "https://api.github.com/users/web-flow/subscriptions",
                "type": "User",
                "url": "https://api.github.com/users/web-flow"
            },
            "html_url": "https://github.com/PrismarineJS/prismarine-gameplay/commit/475d1d050afc2c698fbabb0b6e00de5dae7fe747",
            "node_id": "C_kwDOEKHpqNoAKDQ3NWQxZDA1MGFmYzJjNjk4ZmJhYmIwYjZlMDBkZTVkYWU3ZmU3NDc",
            "parents": [
                {
                    "html_url": "https://github.com/PrismarineJS/prismarine-gameplay/commit/76aac7f68ea6ae12114b025bc5eca0e8d8ed3010",
                    "sha": "76aac7f68ea6ae12114b025bc5eca0e8d8ed3010",
                    "url": "https://api.github.com/repos/PrismarineJS/prismarine-gameplay/commits/76aac7f68ea6ae12114b025bc5eca0e8d8ed3010"
                }
            ],
            "sha": "475d1d050afc2c698fbabb0b6e00de5dae7fe747",
            "url": "https://api.github.com/repos/PrismarineJS/prismarine-gameplay/commits/475d1d050afc2c698fbabb0b6e00de5dae7fe747"
        }
    ],
    "commits": 1,
    "commits_url": "https://api.github.com/repos/PrismarineJS/prismarine-gameplay/pulls/103/commits",
    "created_at": "2023-01-23T14:03:44Z",
    "deletions": 1,
    "diff_url": "https://github.com/PrismarineJS/prismarine-gameplay/pull/103.diff",
    "draft": false,
    "head": {
        "label": "PrismarineJS:dependabot/npm_and_yarn/minecraft-data-3.25.2",
        "ref": "dependabot/npm_and_yarn/minecraft-data-3.25.2",
        "repo": {
            "allow_forking": true,
            "archive_url": "https://api.github.com/repos/PrismarineJS/prismarine-gameplay/{archive_format}{/ref}",
            "archived": false,
            "assignees_url": "https://api.github.com/repos/PrismarineJS/prismarine-gameplay/assignees{/user}",
            "blobs_url": "https://api.github.com/repos/PrismarineJS/prismarine-gameplay/git/blobs{/sha}",
            "branches_url": "https://api.github.com/repos/PrismarineJS/prismarine-gameplay/branches{/branch}",
            "clone_url": "https://github.com/PrismarineJS/prismarine-gameplay.git",
            "collaborators_url": "https://api.github.com/repos/PrismarineJS/prismarine-gameplay/collaborators{/collaborator}",
            "comments_url": "https://api.github.com/repos/PrismarineJS/prismarine-gameplay/comments{/number}",
            "commits_url": "https://api.github.com/repos/PrismarineJS/prismarine-gameplay/commits{/sha}",
            "compare_url": "https://api.github.com/repos/PrismarineJS/prismarine-gameplay/compare/{base}...{head}",
            "contents_url": "https://api.github.com/repos/PrismarineJS/prismarine-gameplay/contents/{+path}",
            "contributors_url": "https://api.github.com/repos/PrismarineJS/prismarine-gameplay/contributors",
            "created_at": "2020-07-12T11:04:43Z",
            "default_branch": "master",
            "deployments_url": "https://api.github.com/repos/PrismarineJS/prismarine-gameplay/deployments",
            "description": "A high level gameplay API for making Mineflayer bots.",
            "disabled": false,
            "downloads_url": "https://api.github.com/repos/PrismarineJS/prismarine-gameplay/downloads",
            "events_url": "https://api.github.com/repos/PrismarineJS/prismarine-gameplay/events",
            "fork": false,
            "forks": 3,
            "forks_count": 3,
            "forks_url": "https://api.github.com/repos/PrismarineJS/prismarine-gameplay/forks",
            "full_name": "PrismarineJS/prismarine-gameplay",
            "git_commits_url": "https://api.github.com/repos/PrismarineJS/prismarine-gameplay/git/commits{/sha}",
            "git_refs_url": "https://api.github.com/repos/PrismarineJS/prismarine-gameplay/git/refs{/sha}",
            "git_tags_url": "https://api.github.com/repos/PrismarineJS/prismarine-gameplay/git/tags{/sha}",
            "git_url": "git://github.com/PrismarineJS/prismarine-gameplay.git",
            "has_discussions": false,
            "has_downloads": true,
            "has_issues": true,
            "has_pages": false,
            "has_projects": true,
            "has_wiki": true,
            "homepage": null,
            "hooks_url": "https://api.github.com/repos/PrismarineJS/prismarine-gameplay/hooks",
            "html_url": "https://github.com/PrismarineJS/prismarine-gameplay",
            "id": 279046568,
            "is_template": false,
            "issue_comment_url": "https://api.github.com/repos/PrismarineJS/prismarine-gameplay/issues/comments{/number}",
            "issue_events_url": "https://api.github.com/repos/PrismarineJS/prismarine-gameplay/issues/events{/number}",
            "issues_url": "https://api.github.com/repos/PrismarineJS/prismarine-gameplay/issues{/number}",
            "keys_url": "https://api.github.com/repos/PrismarineJS/prismarine-gameplay/keys{/key_id}",
            "labels_url": "https://api.github.com/repos/PrismarineJS/prismarine-gameplay/labels{/name}",
            "language": "TypeScript",
            "languages_url": "https://api.github.com/repos/PrismarineJS/prismarine-gameplay/languages",
            "license": {
                "key": "mit",
                "name": "MIT License",
                "node_id": "MDc6TGljZW5zZTEz",
                "spdx_id": "MIT",
                "url": "https://api.github.com/licenses/mit"
            },
            "merges_url": "https://api.github.com/repos/PrismarineJS/prismarine-gameplay/merges",
            "milestones_url": "https://api.github.com/repos/PrismarineJS/prismarine-gameplay/milestones{/number}",
            "mirror_url": null,
            "name": "prismarine-gameplay",
            "node_id": "MDEwOlJlcG9zaXRvcnkyNzkwNDY1Njg=",
            "notifications_url": "https://api.github.com/repos/PrismarineJS/prismarine-gameplay/notifications{?since,all,participating}",
            "open_issues": 10,
            "open_issues_count": 10,
            "owner": {
                "avatar_url": "https://avatars.githubusercontent.com/u/11053411?v=4",
                "events_url": "https://api.github.com/users/PrismarineJS/events{/privacy}",
                "followers_url": "https://api.github.com/users/PrismarineJS/followers",
                "following_url": "https://api.github.com/users/PrismarineJS/following{/other_user}",
                "gists_url": "https://api.github.com/users/PrismarineJS/gists{/gist_id}",
                "gravatar_id": "",
                "html_url": "https://github.com/PrismarineJS",
                "id": 11053411,
                "login": "PrismarineJS",
                "node_id": "MDEyOk9yZ2FuaXphdGlvbjExMDUzNDEx",
                "organizations_url": "https://api.github.com/users/PrismarineJS/orgs",
                "received_events_url": "https://api.github.com/users/PrismarineJS/received_events",
                "repos_url": "https://api.github.com/users/PrismarineJS/repos",
                "site_admin": false,
                "starred_url": "https://api.github.com/users/PrismarineJS/starred{/owner}{/repo}",
                "subscriptions_url": "https://api.github.com/users/PrismarineJS/subscriptions",
                "type": "Organization",
                "url": "https://api.github.com/users/PrismarineJS"
            },
            "private": false,
            "pulls_url": "https://api.github.com/repos/PrismarineJS/prismarine-gameplay/pulls{/number}",
            "pushed_at": "2023-04-10T14:58:49Z",
            "releases_url": "https://api.github.com/repos/PrismarineJS/prismarine-gameplay/releases{/id}",
            "size": 82,
            "ssh_url": "git@github.com:PrismarineJS/prismarine-gameplay.git",
            "stargazers_count": 10,
            "stargazers_url": "https://api.github.com/repos/PrismarineJS/prismarine-gameplay/stargazers",
            "statuses_url": "https://api.github.com/repos/PrismarineJS/prismarine-gameplay/statuses/{sha}",
            "subscribers_url": "https://api.github.com/repos/PrismarineJS/prismarine-gameplay/subscribers",
            "subscription_url": "https://api.github.com/repos/PrismarineJS/prismarine-gameplay/subscription",
            "svn_url": "https://github.com/PrismarineJS/prismarine-gameplay",
            "tags_url": "https://api.github.com/repos/PrismarineJS/prismarine-gameplay/tags",
            "teams_url": "https://api.github.com/repos/PrismarineJS/prismarine-gameplay/teams",
            "topics": [],
            "trees_url": "https://api.github.com/repos/PrismarineJS/prismarine-gameplay/git/trees{/sha}",
            "updated_at": "2022-08-05T10:46:31Z",
            "url": "https://api.github.com/repos/PrismarineJS/prismarine-gameplay",
            "visibility": "public",
            "watchers": 10,
            "watchers_count": 10,
            "web_commit_signoff_required": false
        },
        "sha": "475d1d050afc2c698fbabb0b6e00de5dae7fe747",
        "user": {
            "avatar_url": "https://avatars.githubusercontent.com/u/11053411?v=4",
            "events_url": "https://api.github.com/users/PrismarineJS/events{/privacy}",
            "followers_url": "https://api.github.com/users/PrismarineJS/followers",
            "following_url": "https://api.github.com/users/PrismarineJS/following{/other_user}",
            "gists_url": "https://api.github.com/users/PrismarineJS/gists{/gist_id}",
            "gravatar_id": "",
            "html_url": "https://github.com/PrismarineJS",
            "id": 11053411,
            "login": "PrismarineJS",
            "node_id": "MDEyOk9yZ2FuaXphdGlvbjExMDUzNDEx",
            "organizations_url": "https://api.github.com/users/PrismarineJS/orgs",
            "received_events_url": "https://api.github.com/users/PrismarineJS/received_events",
            "repos_url": "https://api.github.com/users/PrismarineJS/repos",
            "site_admin": false,
            "starred_url": "https://api.github.com/users/PrismarineJS/starred{/owner}{/repo}",
            "subscriptions_url": "https://api.github.com/users/PrismarineJS/subscriptions",
            "type": "Organization",
            "url": "https://api.github.com/users/PrismarineJS"
        }
    },
    "html_url": "https://github.com/PrismarineJS/prismarine-gameplay/pull/103",
    "id": 1213499268,
    "issue_url": "https://api.github.com/repos/PrismarineJS/prismarine-gameplay/issues/103",
    "labels": [
        {
            "color": "0366d6",
            "default": false,
            "description": "Pull requests that update a dependency file",
            "id": 2474652192,
            "name": "dependencies",
            "node_id": "MDU6TGFiZWwyNDc0NjUyMTky",
            "url": "https://api.github.com/repos/PrismarineJS/prismarine-gameplay/labels/dependencies"
        }
    ],
    "locked": false,
    "maintainer_can_modify": false,
    "merge_commit_sha": "a4bbfdefd936889e94cb6099ac1f4a4f0d807a1a",
    "mergeable": true,
    "mergeable_state": "blocked",
    "merged": false,
    "merged_at": null,
    "merged_by": null,
    "milestone": null,
    "node_id": "PR_kwDOEKHpqM5IVIeE",
    "number": 103,
    "patch_url": "https://github.com/PrismarineJS/prismarine-gameplay/pull/103.patch",
    "rebaseable": false,
    "requested_reviewers": [],
    "requested_teams": [],
    "review_comment_url": "https://api.github.com/repos/PrismarineJS/prismarine-gameplay/pulls/comments{/number}",
    "review_comments": 0,
    "review_comments_url": "https://api.github.com/repos/PrismarineJS/prismarine-gameplay/pulls/103/comments",
    "state": "closed",
    "statuses_url": "https://api.github.com/repos/PrismarineJS/prismarine-gameplay/statuses/475d1d050afc2c698fbabb0b6e00de5dae7fe747",
    "title": "Bump minecraft-data from 2.221.0 to 3.25.2",
    "updated_at": "2023-01-30T14:04:09Z",
    "url": "https://api.github.com/repos/PrismarineJS/prismarine-gameplay/pulls/103",
    "user": {
        "avatar_url": "https://avatars.githubusercontent.com/in/29110?v=4",
        "events_url": "https://api.github.com/users/dependabot%5Bbot%5D/events{/privacy}",
        "followers_url": "https://api.github.com/users/dependabot%5Bbot%5D/followers",
        "following_url": "https://api.github.com/users/dependabot%5Bbot%5D/following{/other_user}",
        "gists_url": "https://api.github.com/users/dependabot%5Bbot%5D/gists{/gist_id}",
        "gravatar_id": "",
        "html_url": "https://github.com/apps/dependabot",
        "id": 49699333,
        "login": "dependabot[bot]",
        "node_id": "MDM6Qm90NDk2OTkzMzM=",
        "organizations_url": "https://api.github.com/users/dependabot%5Bbot%5D/orgs",
        "received_events_url": "https://api.github.com/users/dependabot%5Bbot%5D/received_events",
        "repos_url": "https://api.github.com/users/dependabot%5Bbot%5D/repos",
        "site_admin": false,
        "starred_url": "https://api.github.com/users/dependabot%5Bbot%5D/starred{/owner}{/repo}",
        "subscriptions_url": "https://api.github.com/users/dependabot%5Bbot%5D/subscriptions",
        "type": "Bot",
        "url": "https://api.github.com/users/dependabot%5Bbot%5D"
    }
}