{
    "_links": {
        "comments": {
            "href": "https://api.github.com/repos/PrismarineJS/prismarine-gameplay/issues/124/comments"
        },
        "commits": {
            "href": "https://api.github.com/repos/PrismarineJS/prismarine-gameplay/pulls/124/commits"
        },
        "html": {
            "href": "https://github.com/PrismarineJS/prismarine-gameplay/pull/124"
        },
        "issue": {
            "href": "https://api.github.com/repos/PrismarineJS/prismarine-gameplay/issues/124"
        },
        "review_comment": {
            "href": "https://api.github.com/repos/PrismarineJS/prismarine-gameplay/pulls/comments{/number}"
        },
        "review_comments": {
            "href": "https://api.github.com/repos/PrismarineJS/prismarine-gameplay/pulls/124/comments"
        },
        "self": {
            "href": "https://api.github.com/repos/PrismarineJS/prismarine-gameplay/pulls/124"
        },
        "statuses": {
            "href": "https://api.github.com/repos/PrismarineJS/prismarine-gameplay/statuses/c9fc2f7950bb30e63b311e5c2c11ecf2e8d3ac87"
        }
    },
    "active_lock_reason": null,
    "additions": 1,
    "assignee": null,
    "assignees": [],
    "author_association": "CONTRIBUTOR",
    "auto_merge": null,
    "base": {
        "label": "PrismarineJS:master",
        "ref": "master",
        "repo": {
            "allow_forking": true,
            "archive_url": "https://api.github.com/repos/PrismarineJS/prismarine-gameplay/{archive_format}{/ref}",
            "archived": false,
            "assignees_url": "https://api.github.com/repos/PrismarineJS/prismarine-gameplay/assignees{/user}",
            "blobs_url": "https://api.github.com/repos/PrismarineJS/prismarine-gameplay/git/blobs{/sha}",
            "branches_url": "https://api.github.com/repos/PrismarineJS/prismarine-gameplay/branches{/branch}",
            "clone_url": "https://github.com/PrismarineJS/prismarine-gameplay.git",
            "collaborators_url": "https://api.github.com/repos/PrismarineJS/prismarine-gameplay/collaborators{/collaborator}",
            "comments_url": "https://api.github.com/repos/PrismarineJS/prismarine-gameplay/comments{/number}",
            "commits_url": "https://api.github.com/repos/PrismarineJS/prismarine-gameplay/commits{/sha}",
            "compare_url": "https://api.github.com/repos/PrismarineJS/prismarine-gameplay/compare/{base}...{head}",
            "contents_url": "https://api.github.com/repos/PrismarineJS/prismarine-gameplay/contents/{+path}",
            "contributors_url": "https://api.github.com/repos/PrismarineJS/prismarine-gameplay/contributors",
            "created_at": "2020-07-12T11:04:43Z",
            "default_branch": "master",
            "deployments_url": "https://api.github.com/repos/PrismarineJS/prismarine-gameplay/deployments",
            "description": "A high level gameplay API for making Mineflayer bots.",
            "disabled": false,
            "downloads_url": "https://api.github.com/repos/PrismarineJS/prismarine-gameplay/downloads",
            "events_url": "https://api.github.com/repos/PrismarineJS/prismarine-gameplay/events",
            "fork": false,
            "forks": 3,
            "forks_count": 3,
            "forks_url": "https://api.github.com/repos/PrismarineJS/prismarine-gameplay/forks",
            "full_name": "PrismarineJS/prismarine-gameplay",
            "git_commits_url": "https://api.github.com/repos/PrismarineJS/prismarine-gameplay/git/commits{/sha}",
            "git_refs_url": "https://api.github.com/repos/PrismarineJS/prismarine-gameplay/git/refs{/sha}",
            "git_tags_url": "https://api.github.com/repos/PrismarineJS/prismarine-gameplay/git/tags{/sha}",
            "git_url": "git://github.com/PrismarineJS/prismarine-gameplay.git",
            "has_discussions": false,
            "has_downloads": true,
            "has_issues": true,
            "has_pages": false,
            "has_projects": true,
            "has_wiki": true,
            "homepage": null,
            "hooks_url": "https://api.github.com/repos/PrismarineJS/prismarine-gameplay/hooks",
            "html_url": "https://github.com/PrismarineJS/prismarine-gameplay",
            "id": 279046568,
            "is_template": false,
            "issue_comment_url": "https://api.github.com/repos/PrismarineJS/prismarine-gameplay/issues/comments{/number}",
            "issue_events_url": "https://api.github.com/repos/PrismarineJS/prismarine-gameplay/issues/events{/number}",
            "issues_url": "https://api.github.com/repos/PrismarineJS/prismarine-gameplay/issues{/number}",
            "keys_url": "https://api.github.com/repos/PrismarineJS/prismarine-gameplay/keys{/key_id}",
            "labels_url": "https://api.github.com/repos/PrismarineJS/prismarine-gameplay/labels{/name}",
            "language": "TypeScript",
            "languages_url": "https://api.github.com/repos/PrismarineJS/prismarine-gameplay/languages",
            "license": {
                "key": "mit",
                "name": "MIT License",
                "node_id": "MDc6TGljZW5zZTEz",
                "spdx_id": "MIT",
                "url": "https://api.github.com/licenses/mit"
            },
            "merges_url": "https://api.github.com/repos/PrismarineJS/prismarine-gameplay/merges",
            "milestones_url": "https://api.github.com/repos/PrismarineJS/prismarine-gameplay/milestones{/number}",
            "mirror_url": null,
            "name": "prismarine-gameplay",
            "node_id": "MDEwOlJlcG9zaXRvcnkyNzkwNDY1Njg=",
            "notifications_url": "https://api.github.com/repos/PrismarineJS/prismarine-gameplay/notifications{?since,all,participating}",
            "open_issues": 9,
            "open_issues_count": 9,
            "owner": {
                "avatar_url": "https://avatars.githubusercontent.com/u/11053411?v=4",
                "events_url": "https://api.github.com/users/PrismarineJS/events{/privacy}",
                "followers_url": "https://api.github.com/users/PrismarineJS/followers",
                "following_url": "https://api.github.com/users/PrismarineJS/following{/other_user}",
                "gists_url": "https://api.github.com/users/PrismarineJS/gists{/gist_id}",
                "gravatar_id": "",
                "html_url": "https://github.com/PrismarineJS",
                "id": 11053411,
                "login": "PrismarineJS",
                "node_id": "MDEyOk9yZ2FuaXphdGlvbjExMDUzNDEx",
                "organizations_url": "https://api.github.com/users/PrismarineJS/orgs",
                "received_events_url": "https://api.github.com/users/PrismarineJS/received_events",
                "repos_url": "https://api.github.com/users/PrismarineJS/repos",
                "site_admin": false,
                "starred_url": "https://api.github.com/users/PrismarineJS/starred{/owner}{/repo}",
                "subscriptions_url": "https://api.github.com/users/PrismarineJS/subscriptions",
                "type": "Organization",
                "url": "https://api.github.com/users/PrismarineJS"
            },
            "private": false,
            "pulls_url": "https://api.github.com/repos/PrismarineJS/prismarine-gameplay/pulls{/number}",
            "pushed_at": "2023-09-04T21:05:07Z",
            "releases_url": "https://api.github.com/repos/PrismarineJS/prismarine-gameplay/releases{/id}",
            "size": 83,
            "ssh_url": "git@github.com:PrismarineJS/prismarine-gameplay.git",
            "stargazers_count": 11,
            "stargazers_url": "https://api.github.com/repos/PrismarineJS/prismarine-gameplay/stargazers",
            "statuses_url": "https://api.github.com/repos/PrismarineJS/prismarine-gameplay/statuses/{sha}",
            "subscribers_url": "https://api.github.com/repos/PrismarineJS/prismarine-gameplay/subscribers",
            "subscription_url": "https://api.github.com/repos/PrismarineJS/prismarine-gameplay/subscription",
            "svn_url": "https://github.com/PrismarineJS/prismarine-gameplay",
            "tags_url": "https://api.github.com/repos/PrismarineJS/prismarine-gameplay/tags",
            "teams_url": "https://api.github.com/repos/PrismarineJS/prismarine-gameplay/teams",
            "topics": [],
            "trees_url": "https://api.github.com/repos/PrismarineJS/prismarine-gameplay/git/trees{/sha}",
            "updated_at": "2023-06-13T06:22:53Z",
            "url": "https://api.github.com/repos/PrismarineJS/prismarine-gameplay",
            "visibility": "public",
            "watchers": 11,
            "watchers_count": 11,
            "web_commit_signoff_required": false
        },
        "sha": "51b6ef49d6a4179bf5eaf7be1cbbb73851f51756",
        "user": {
            "avatar_url": "https://avatars.githubusercontent.com/u/11053411?v=4",
            "events_url": "https://api.github.com/users/PrismarineJS/events{/privacy}",
            "followers_url": "https://api.github.com/users/PrismarineJS/followers",
            "following_url": "https://api.github.com/users/PrismarineJS/following{/other_user}",
            "gists_url": "https://api.github.com/users/PrismarineJS/gists{/gist_id}",
            "gravatar_id": "",
            "html_url": "https://github.com/PrismarineJS",
            "id": 11053411,
            "login": "PrismarineJS",
            "node_id": "MDEyOk9yZ2FuaXphdGlvbjExMDUzNDEx",
            "organizations_url": "https://api.github.com/users/PrismarineJS/orgs",
            "received_events_url": "https://api.github.com/users/PrismarineJS/received_events",
            "repos_url": "https://api.github.com/users/PrismarineJS/repos",
            "site_admin": false,
            "starred_url": "https://api.github.com/users/PrismarineJS/starred{/owner}{/repo}",
            "subscriptions_url": "https://api.github.com/users/PrismarineJS/subscriptions",
            "type": "Organization",
            "url": "https://api.github.com/users/PrismarineJS"
        }
    },
    "body": "Bumps [mineflayer](https://github.com/PrismarineJS/mineflayer) from 2.41.0 to 4.12.0.\n<details>\n<summary>Release notes</summary>\n<p><em>Sourced from <a href=\"https://github.com/PrismarineJS/mineflayer/releases\">mineflayer's releases</a>.</em></p>\n<blockquote>\n<h2>Release 4.12.0</h2>\n<p>4.12.0</p>\n<h2>Release 4.11.0</h2>\n<p>4.11.0</p>\n<h2>Release 4.10.1</h2>\n<p>4.10.1</p>\n<h2>Release 4.10.0</h2>\n<p>4.10.0</p>\n<h2>Release 4.9.0</h2>\n<p>4.9.0</p>\n<h2>Release 4.8.1</h2>\n<p>4.8.1</p>\n<h2>Release 4.8.0</h2>\n<p>4.8.0</p>\n<h2>Release 4.7.0</h2>\n<p>4.7.0</p>\n<h2>Release 4.6.0</h2>\n<p>4.6.0</p>\n<h2>Release 4.5.1</h2>\n<p>4.5.1</p>\n<h2>Release 4.5.0</h2>\n<p>4.5.0</p>\n<h2>Release 4.4.0</h2>\n<p>4.4.0</p>\n<h2>Release 4.3.0</h2>\n<p>4.3.0</p>\n<h2>Release 4.2.0</h2>\n<p>4.2.0</p>\n<h2>Release 4.1.0</h2>\n<p>4.1.0</p>\n<h2>Release 4.0.0</h2>\n<p>4.0.0</p>\n<h2>Release 3.18.0</h2>\n<p>3.18.0</p>\n<!-- raw HTML omitted -->\n</blockquote>\n<p>... (truncated)</p>\n</details>\n<details>\n<summary>Changelog</summary>\n<p><em>Sourced from <a href=\"https://github.com/PrismarineJS/mineflayer/blob/master/docs/history.md\">mineflayer's changelog</a>.</em></p>\n<blockquote>\n<h2>4.12.0</h2>\n<ul>\n<li>[Mineflayer physics refactor (<a href=\"https://redirect.github.com/PrismarineJS/mineflayer/issues/2492\">#2492</a>)](<a href=\"https://github.com/PrismarineJS/mineflayer/commit/d0eb3a1afe6cda7b04ae2f88052cd868ba0c0c4f\">https://github.com/PrismarineJS/mineflayer/commit/d0eb3a1afe6cda7b04ae2f88052cd868ba0c0c4f</a>) (thanks <a href=\"https://github.com/U5B\"><code>@​U5B</code></a>)</li>\n</ul>\n<h2>4.11.0</h2>\n<ul>\n<li>[Import changedSlots computation from prismarine-windows (<a href=\"https://redirect.github.com/PrismarineJS/mineflayer/issues/3134\">#3134</a>)](<a href=\"https://github.com/PrismarineJS/mineflayer/commit/e5b5eeecf1133c1c80c0ef48d6e72fed77d84834\">https://github.com/PrismarineJS/mineflayer/commit/e5b5eeecf1133c1c80c0ef48d6e72fed77d84834</a>) (thanks <a href=\"https://github.com/kaduvert\"><code>@​kaduvert</code></a>)</li>\n<li>[Make the place block success check ignore block updates received with no block type changes (<a href=\"https://redirect.github.com/PrismarineJS/mineflayer/issues/3090\">#3090</a>)](<a href=\"https://github.com/PrismarineJS/mineflayer/commit/bbdd93afe2e31d1f1e899176e7edf8e73af5d5d3\">https://github.com/PrismarineJS/mineflayer/commit/bbdd93afe2e31d1f1e899176e7edf8e73af5d5d3</a>) (thanks <a href=\"https://github.com/PondWader\"><code>@​PondWader</code></a>)</li>\n<li>[Use node-minecraft-protocol for chat (<a href=\"https://redirect.github.com/PrismarineJS/mineflayer/issues/3110\">#3110</a>)](<a href=\"https://github.com/PrismarineJS/mineflayer/commit/385fba65ed6ebe632c870c7cf234666cacf5a766\">https://github.com/PrismarineJS/mineflayer/commit/385fba65ed6ebe632c870c7cf234666cacf5a766</a>) (thanks <a href=\"https://github.com/lkwilson\"><code>@​lkwilson</code></a>)</li>\n<li>[Extended useChests.js tests (<a href=\"https://redirect.github.com/PrismarineJS/mineflayer/issues/3132\">#3132</a>)](<a href=\"https://github.com/PrismarineJS/mineflayer/commit/131a7ea63c9c6b2cce41ebb29a26c898f859471d\">https://github.com/PrismarineJS/mineflayer/commit/131a7ea63c9c6b2cce41ebb29a26c898f859471d</a>) (thanks <a href=\"https://github.com/kaduvert\"><code>@​kaduvert</code></a>)</li>\n<li>[Allow more click modes (<a href=\"https://redirect.github.com/PrismarineJS/mineflayer/issues/3133\">#3133</a>)](<a href=\"https://github.com/PrismarineJS/mineflayer/commit/a315653bb94274113c9d6078d4c2ab840af0f62a\">https://github.com/PrismarineJS/mineflayer/commit/a315653bb94274113c9d6078d4c2ab840af0f62a</a>) (thanks <a href=\"https://github.com/kaduvert\"><code>@​kaduvert</code></a>)</li>\n<li>[Add nether test (<a href=\"https://redirect.github.com/PrismarineJS/mineflayer/issues/2932\">#2932</a>)](<a href=\"https://github.com/PrismarineJS/mineflayer/commit/6b1d6ea15c72edc5b761b78765a53d2ab7d0d274\">https://github.com/PrismarineJS/mineflayer/commit/6b1d6ea15c72edc5b761b78765a53d2ab7d0d274</a>) (thanks <a href=\"https://github.com/frej4189\"><code>@​frej4189</code></a>)</li>\n<li><a href=\"https://github.com/PrismarineJS/mineflayer/commit/acc6ec9b5e61d566facb76e9c3ff512cc9a5137f\">Explicitly depend on pitem 1.14.0 with fix</a> (thanks <a href=\"https://github.com/rom1504\"><code>@​rom1504</code></a>)</li>\n<li>[Make sure we pass a string to a storagebuilder (<a href=\"https://redirect.github.com/PrismarineJS/mineflayer/issues/2645\">#2645</a>)](<a href=\"https://github.com/PrismarineJS/mineflayer/commit/fc95843dac69bc1101dd5ec898a2aaf4dcfbf520\">https://github.com/PrismarineJS/mineflayer/commit/fc95843dac69bc1101dd5ec898a2aaf4dcfbf520</a>) (thanks <a href=\"https://github.com/u9g\"><code>@​u9g</code></a>)</li>\n<li>[extra types for enchantments (<a href=\"https://redirect.github.com/PrismarineJS/mineflayer/issues/3123\">#3123</a>)](<a href=\"https://github.com/PrismarineJS/mineflayer/commit/b336d2259d1ce0935bf8e10a4edb3c0a9030fb10\">https://github.com/PrismarineJS/mineflayer/commit/b336d2259d1ce0935bf8e10a4edb3c0a9030fb10</a>) (thanks <a href=\"https://github.com/zisis912\"><code>@​zisis912</code></a>)</li>\n<li>[Add 1.20 to supported versions in readme (<a href=\"https://redirect.github.com/PrismarineJS/mineflayer/issues/3111\">#3111</a>)](<a href=\"https://github.com/PrismarineJS/mineflayer/commit/d764706f53dbe7ba16cf49645d66d192a309cc5c\">https://github.com/PrismarineJS/mineflayer/commit/d764706f53dbe7ba16cf49645d66d192a309cc5c</a>) (thanks <a href=\"https://github.com/litfa\"><code>@​litfa</code></a>)</li>\n<li>[Handle hand swap entity status (<a href=\"https://redirect.github.com/PrismarineJS/mineflayer/issues/3097\">#3097</a>)](<a href=\"https://github.com/PrismarineJS/mineflayer/commit/a80d69a8f1a637ab1a0720ec776fc4f05c38afed\">https://github.com/PrismarineJS/mineflayer/commit/a80d69a8f1a637ab1a0720ec776fc4f05c38afed</a>) (thanks <a href=\"https://github.com/PondWader\"><code>@​PondWader</code></a>)</li>\n<li>[Add command gh workflow allowing to use release command in comments (<a href=\"https://redirect.github.com/PrismarineJS/mineflayer/issues/3116\">#3116</a>)](<a href=\"https://github.com/PrismarineJS/mineflayer/commit/5a55744ee0dc670f984229ec2629239bdc3e5705\">https://github.com/PrismarineJS/mineflayer/commit/5a55744ee0dc670f984229ec2629239bdc3e5705</a>) (thanks <a href=\"https://github.com/rom1504\"><code>@​rom1504</code></a>)</li>\n</ul>\n<h2>4.10.1</h2>\n<ul>\n<li>Fix attempting to access unloaded chunks (<a href=\"https://github.com/frej4189\"><code>@​frej4189</code></a>)</li>\n</ul>\n<h2>4.10.0</h2>\n<ul>\n<li>Fix handling for entities with unknown metadata (<a href=\"https://github.com/extremeheat\"><code>@​extremeheat</code></a>)</li>\n<li>support 1.20 (<a href=\"https://github.com/PondWader\"><code>@​PondWader</code></a>)</li>\n</ul>\n<h2>4.9.0</h2>\n<ul>\n<li>Fix bot not updating world height on respawn packet (<a href=\"https://github.com/frej4189\"><code>@​frej4189</code></a>)</li>\n<li>Persist properties received in player_info packet (<a href=\"https://github.com/Paulomart\"><code>@​Paulomart</code></a>)</li>\n<li>Fix reference error with block updates (<a href=\"https://github.com/IceTank\"><code>@​IceTank</code></a>)</li>\n<li>Add spectator to gameModes array (<a href=\"https://github.com/williamd5\"><code>@​williamd5</code></a>)</li>\n<li>Standardize dimensions for all versions (<a href=\"https://github.com/sefirosweb\"><code>@​sefirosweb</code></a>)</li>\n<li>Emit inject_allowed after a timeout of 0 (<a href=\"https://github.com/IceTank\"><code>@​IceTank</code></a>)</li>\n<li>Add window transaction timeout (<a href=\"https://github.com/firejoust\"><code>@​firejoust</code></a>)</li>\n<li>Made bot auto respawning togglable (<a href=\"https://github.com/Averagess\"><code>@​Averagess</code></a>)</li>\n<li>support 1.19.4 (<a href=\"https://github.com/extremeheat\"><code>@​extremeheat</code></a>)</li>\n</ul>\n<h2>4.8.1</h2>\n<ul>\n<li>Fix client crashing when player_remove contains unknown player (<a href=\"https://github.com/frej4189\"><code>@​frej4189</code></a>)</li>\n<li>Improve look and fix bug slow craft (<a href=\"https://github.com/sefirosweb\"><code>@​sefirosweb</code></a>)</li>\n<li>Fix player entity being unset when player is updated (<a href=\"https://github.com/frej4189\"><code>@​frej4189</code></a>)</li>\n<li>Fix type (<a href=\"https://github.com/sefirosweb\"><code>@​sefirosweb</code></a>)</li>\n<li>Improve crafting stacks (<a href=\"https://github.com/sefirosweb\"><code>@​sefirosweb</code></a>)</li>\n<li>add example for using the node:readline module (<a href=\"https://github.com/Jovan-04\"><code>@​Jovan-04</code></a>)</li>\n</ul>\n<h2>4.8.0</h2>\n<ul>\n<li>Update chat parsing (<a href=\"https://github.com/frej4189\"><code>@​frej4189</code></a>)</li>\n</ul>\n<!-- raw HTML omitted -->\n</blockquote>\n<p>... (truncated)</p>\n</details>\n<details>\n<summary>Commits</summary>\n<ul>\n<li><a href=\"https://github.com/PrismarineJS/mineflayer/commit/39dc20aac375b6505f2ef25522344d4c08f9090e\"><code>39dc20a</code></a> Release 4.12.0 (<a href=\"https://redirect.github.com/PrismarineJS/mineflayer/issues/3156\">#3156</a>)</li>\n<li><a href=\"https://github.com/PrismarineJS/mineflayer/commit/d0eb3a1afe6cda7b04ae2f88052cd868ba0c0c4f\"><code>d0eb3a1</code></a> Mineflayer physics refactor (<a href=\"https://redirect.github.com/PrismarineJS/mineflayer/issues/2492\">#2492</a>)</li>\n<li><a href=\"https://github.com/PrismarineJS/mineflayer/commit/a16d270ee6d576ae31ddcbe72d6e27e7ec486665\"><code>a16d270</code></a> Release 4.11.0 (<a href=\"https://redirect.github.com/PrismarineJS/mineflayer/issues/3146\">#3146</a>)</li>\n<li><a href=\"https://github.com/PrismarineJS/mineflayer/commit/e5b5eeecf1133c1c80c0ef48d6e72fed77d84834\"><code>e5b5eee</code></a> Import changedSlots computation from prismarine-windows (<a href=\"https://redirect.github.com/PrismarineJS/mineflayer/issues/3134\">#3134</a>)</li>\n<li><a href=\"https://github.com/PrismarineJS/mineflayer/commit/bbdd93afe2e31d1f1e899176e7edf8e73af5d5d3\"><code>bbdd93a</code></a> Make the place block success check ignore block updates received with no bloc...</li>\n<li><a href=\"https://github.com/PrismarineJS/mineflayer/commit/385fba65ed6ebe632c870c7cf234666cacf5a766\"><code>385fba6</code></a> Use node-minecraft-protocol for chat (<a href=\"https://redirect.github.com/PrismarineJS/mineflayer/issues/3110\">#3110</a>)</li>\n<li><a href=\"https://github.com/PrismarineJS/mineflayer/commit/131a7ea63c9c6b2cce41ebb29a26c898f859471d\"><code>131a7ea</code></a> Extended useChests.js tests (<a href=\"https://redirect.github.com/PrismarineJS/mineflayer/issues/3132\">#3132</a>)</li>\n<li><a href=\"https://github.com/PrismarineJS/mineflayer/commit/a315653bb94274113c9d6078d4c2ab840af0f62a\"><code>a315653</code></a> Allow more click modes (<a href=\"https://redirect.github.com/PrismarineJS/mineflayer/issues/3133\">#3133</a>)</li>\n<li><a href=\"https://github.com/PrismarineJS/mineflayer/commit/6b1d6ea15c72edc5b761b78765a53d2ab7d0d274\"><code>6b1d6ea</code></a> Add nether test (<a href=\"https://redirect.github.com/PrismarineJS/mineflayer/issues/2932\">#2932</a>)</li>\n<li><a href=\"https://github.com/PrismarineJS/mineflayer/commit/acc6ec9b5e61d566facb76e9c3ff512cc9a5137f\"><code>acc6ec9</code></a> Explicitly depend on pitem 1.14.0 with fix</li>\n<li>Additional commits viewable in <a href=\"https://github.com/PrismarineJS/mineflayer/compare/2.41.0...4.12.0\">compare view</a></li>\n</ul>\n</details>\n<br />\n\n<details>\n<summary>Most Recent Ignore Conditions Applied to This Pull Request</summary>\n\n| Dependency Name | Ignore Conditions |\n| --- | --- |\n| mineflayer | [>= 3.a, < 4] |\n</details>\n\n\n[![Dependabot compatibility score](https://dependabot-badges.githubapp.com/badges/compatibility_score?dependency-name=mineflayer&package-manager=npm_and_yarn&previous-version=2.41.0&new-version=4.12.0)](https://docs.github.com/en/github/managing-security-vulnerabilities/about-dependabot-security-updates#about-compatibility-scores)\n\nDependabot will resolve any conflicts with this PR as long as you don't alter it yourself. You can also trigger a rebase manually by commenting `@dependabot rebase`.\n\n[//]: # (dependabot-automerge-start)\n[//]: # (dependabot-automerge-end)\n\n---\n\n<details>\n<summary>Dependabot commands and options</summary>\n<br />\n\nYou can trigger Dependabot actions by commenting on this PR:\n- `@dependabot rebase` will rebase this PR\n- `@dependabot recreate` will recreate this PR, overwriting any edits that have been made to it\n- `@dependabot merge` will merge this PR after your CI passes on it\n- `@dependabot squash and merge` will squash and merge this PR after your CI passes on it\n- `@dependabot cancel merge` will cancel a previously requested merge and block automerging\n- `@dependabot reopen` will reopen this PR if it is closed\n- `@dependabot close` will close this PR and stop Dependabot recreating it. You can achieve the same result by closing it manually\n- `@dependabot show <dependency name> ignore conditions` will show all of the ignore conditions of the specified dependency\n- `@dependabot ignore this major version` will close this PR and stop Dependabot creating any more for this major version (unless you reopen the PR or upgrade to it yourself)\n- `@dependabot ignore this minor version` will close this PR and stop Dependabot creating any more for this minor version (unless you reopen the PR or upgrade to it yourself)\n- `@dependabot ignore this dependency` will close this PR and stop Dependabot creating any more for this dependency (unless you reopen the PR or upgrade to it yourself)\n\n\n</details>",
    "changed_files": 1,
    "closed_at": "2023-08-25T20:55:34Z",
    "comment_data": [],
    "comment_regular_data": [
        {
            "author_association": "NONE",
            "body": "<!-- overview-comment -->\n**Removed dependencies detected.** Learn more about [Socket for GitHub ↗︎](https://socket.dev?utm_medium=gh)\n\n**🚮 Removed packages:** [mineflayer@2.41.0](https://socket.dev/npm/package/mineflayer/overview/2.41.0)\n\n",
            "created_at": "2023-08-18T14:44:34Z",
            "html_url": "https://github.com/PrismarineJS/prismarine-gameplay/pull/124#issuecomment-1684026475",
            "id": 1684026475,
            "issue_url": "https://api.github.com/repos/PrismarineJS/prismarine-gameplay/issues/124",
            "node_id": "IC_kwDOEKHpqM5kYDRr",
            "performed_via_github_app": null,
            "reactions": {
                "+1": 0,
                "-1": 0,
                "confused": 0,
                "eyes": 0,
                "heart": 0,
                "hooray": 0,
                "laugh": 0,
                "rocket": 0,
                "total_count": 0,
                "url": "https://api.github.com/repos/PrismarineJS/prismarine-gameplay/issues/comments/1684026475/reactions"
            },
            "updated_at": "2023-08-18T14:44:34Z",
            "url": "https://api.github.com/repos/PrismarineJS/prismarine-gameplay/issues/comments/1684026475",
            "user": {
                "avatar_url": "https://avatars.githubusercontent.com/in/156372?v=4",
                "events_url": "https://api.github.com/users/socket-security%5Bbot%5D/events{/privacy}",
                "followers_url": "https://api.github.com/users/socket-security%5Bbot%5D/followers",
                "following_url": "https://api.github.com/users/socket-security%5Bbot%5D/following{/other_user}",
                "gists_url": "https://api.github.com/users/socket-security%5Bbot%5D/gists{/gist_id}",
                "gravatar_id": "",
                "html_url": "https://github.com/apps/socket-security",
                "id": 95510084,
                "login": "socket-security[bot]",
                "node_id": "BOT_kgDOBbFeRA",
                "organizations_url": "https://api.github.com/users/socket-security%5Bbot%5D/orgs",
                "received_events_url": "https://api.github.com/users/socket-security%5Bbot%5D/received_events",
                "repos_url": "https://api.github.com/users/socket-security%5Bbot%5D/repos",
                "site_admin": false,
                "starred_url": "https://api.github.com/users/socket-security%5Bbot%5D/starred{/owner}{/repo}",
                "subscriptions_url": "https://api.github.com/users/socket-security%5Bbot%5D/subscriptions",
                "type": "Bot",
                "url": "https://api.github.com/users/socket-security%5Bbot%5D"
            }
        },
        {
            "author_association": "CONTRIBUTOR",
            "body": "OK, I won't notify you again about this release, but will get in touch when a new version is available. If you'd rather skip all updates until the next major or minor version, let me know by commenting `@dependabot ignore this major version` or `@dependabot ignore this minor version`. You can also ignore all major, minor, or patch releases for a dependency by adding an [`ignore` condition](https://docs.github.com/en/code-security/supply-chain-security/configuration-options-for-dependency-updates#ignore) with the desired `update_types` to your config file.\n\nIf you change your mind, just re-open this PR and I'll resolve any conflicts on it.",
            "created_at": "2023-08-25T20:55:36Z",
            "html_url": "https://github.com/PrismarineJS/prismarine-gameplay/pull/124#issuecomment-1693920095",
            "id": 1693920095,
            "issue_url": "https://api.github.com/repos/PrismarineJS/prismarine-gameplay/issues/124",
            "node_id": "IC_kwDOEKHpqM5k9ytf",
            "performed_via_github_app": null,
            "reactions": {
                "+1": 0,
                "-1": 0,
                "confused": 0,
                "eyes": 0,
                "heart": 0,
                "hooray": 0,
                "laugh": 0,
                "rocket": 0,
                "total_count": 0,
                "url": "https://api.github.com/repos/PrismarineJS/prismarine-gameplay/issues/comments/1693920095/reactions"
            },
            "updated_at": "2023-08-25T20:55:36Z",
            "url": "https://api.github.com/repos/PrismarineJS/prismarine-gameplay/issues/comments/1693920095",
            "user": {
                "avatar_url": "https://avatars.githubusercontent.com/in/29110?v=4",
                "events_url": "https://api.github.com/users/dependabot%5Bbot%5D/events{/privacy}",
                "followers_url": "https://api.github.com/users/dependabot%5Bbot%5D/followers",
                "following_url": "https://api.github.com/users/dependabot%5Bbot%5D/following{/other_user}",
                "gists_url": "https://api.github.com/users/dependabot%5Bbot%5D/gists{/gist_id}",
                "gravatar_id": "",
                "html_url": "https://github.com/apps/dependabot",
                "id": 49699333,
                "login": "dependabot[bot]",
                "node_id": "MDM6Qm90NDk2OTkzMzM=",
                "organizations_url": "https://api.github.com/users/dependabot%5Bbot%5D/orgs",
                "received_events_url": "https://api.github.com/users/dependabot%5Bbot%5D/received_events",
                "repos_url": "https://api.github.com/users/dependabot%5Bbot%5D/repos",
                "site_admin": false,
                "starred_url": "https://api.github.com/users/dependabot%5Bbot%5D/starred{/owner}{/repo}",
                "subscriptions_url": "https://api.github.com/users/dependabot%5Bbot%5D/subscriptions",
                "type": "Bot",
                "url": "https://api.github.com/users/dependabot%5Bbot%5D"
            }
        }
    ],
    "comments": 2,
    "comments_url": "https://api.github.com/repos/PrismarineJS/prismarine-gameplay/issues/124/comments",
    "commit_data": [
        {
            "author": {
                "avatar_url": "https://avatars.githubusercontent.com/in/29110?v=4",
                "events_url": "https://api.github.com/users/dependabot%5Bbot%5D/events{/privacy}",
                "followers_url": "https://api.github.com/users/dependabot%5Bbot%5D/followers",
                "following_url": "https://api.github.com/users/dependabot%5Bbot%5D/following{/other_user}",
                "gists_url": "https://api.github.com/users/dependabot%5Bbot%5D/gists{/gist_id}",
                "gravatar_id": "",
                "html_url": "https://github.com/apps/dependabot",
                "id": 49699333,
                "login": "dependabot[bot]",
                "node_id": "MDM6Qm90NDk2OTkzMzM=",
                "organizations_url": "https://api.github.com/users/dependabot%5Bbot%5D/orgs",
                "received_events_url": "https://api.github.com/users/dependabot%5Bbot%5D/received_events",
                "repos_url": "https://api.github.com/users/dependabot%5Bbot%5D/repos",
                "site_admin": false,
                "starred_url": "https://api.github.com/users/dependabot%5Bbot%5D/starred{/owner}{/repo}",
                "subscriptions_url": "https://api.github.com/users/dependabot%5Bbot%5D/subscriptions",
                "type": "Bot",
                "url": "https://api.github.com/users/dependabot%5Bbot%5D"
            },
            "comments_url": "https://api.github.com/repos/PrismarineJS/prismarine-gameplay/commits/c9fc2f7950bb30e63b311e5c2c11ecf2e8d3ac87/comments",
            "commit": {
                "author": {
                    "date": "2023-08-18T14:43:45Z",
                    "email": "49699333+dependabot[bot]@users.noreply.github.com",
                    "name": "dependabot[bot]"
                },
                "comment_count": 0,
                "committer": {
                    "date": "2023-08-18T14:43:45Z",
                    "email": "noreply@github.com",
                    "name": "GitHub"
                },
                "message": "Bump mineflayer from 2.41.0 to 4.12.0\n\nBumps [mineflayer](https://github.com/PrismarineJS/mineflayer) from 2.41.0 to 4.12.0.\n- [Release notes](https://github.com/PrismarineJS/mineflayer/releases)\n- [Changelog](https://github.com/PrismarineJS/mineflayer/blob/master/docs/history.md)\n- [Commits](https://github.com/PrismarineJS/mineflayer/compare/2.41.0...4.12.0)\n\n---\nupdated-dependencies:\n- dependency-name: mineflayer\n  dependency-type: direct:production\n  update-type: version-update:semver-major\n...\n\nSigned-off-by: dependabot[bot] <support@github.com>",
                "tree": {
                    "sha": "c8e7cfbc6aefef8e2d08c5628ba6fa34a29a6991",
                    "url": "https://api.github.com/repos/PrismarineJS/prismarine-gameplay/git/trees/c8e7cfbc6aefef8e2d08c5628ba6fa34a29a6991"
                },
                "url": "https://api.github.com/repos/PrismarineJS/prismarine-gameplay/git/commits/c9fc2f7950bb30e63b311e5c2c11ecf2e8d3ac87",
                "verification": {
                    "payload": "tree c8e7cfbc6aefef8e2d08c5628ba6fa34a29a6991\nparent 51b6ef49d6a4179bf5eaf7be1cbbb73851f51756\nauthor dependabot[bot] <49699333+dependabot[bot]@users.noreply.github.com> 1692369825 +0000\ncommitter GitHub <noreply@github.com> 1692369825 +0000\n\nBump mineflayer from 2.41.0 to 4.12.0\n\nBumps [mineflayer](https://github.com/PrismarineJS/mineflayer) from 2.41.0 to 4.12.0.\n- [Release notes](https://github.com/PrismarineJS/mineflayer/releases)\n- [Changelog](https://github.com/PrismarineJS/mineflayer/blob/master/docs/history.md)\n- [Commits](https://github.com/PrismarineJS/mineflayer/compare/2.41.0...4.12.0)\n\n---\nupdated-dependencies:\n- dependency-name: mineflayer\n  dependency-type: direct:production\n  update-type: version-update:semver-major\n...\n\nSigned-off-by: dependabot[bot] <support@github.com>",
                    "reason": "valid",
                    "signature": "-----BEGIN PGP SIGNATURE-----\n\nwsBcBAABCAAQBQJk34OhCRBK7hj4Ov3rIwAAH/sIAK82xWxcO0XkmRTwus1aX3RA\nTGJVR24by4vYw6Bn9Blg1NRo+5yIdOsUUUQpMWmuWxppjekjbUiEI9moXT+51luz\n3S8iip3Dgo6TqLV0+SfCoVv8uBg6wR0ZH3WnjJ+XI3KTPvvcRUgm91A28RIcEAv/\ntxJiuYtp91NDkrqaCAupzYOjXKgSNJHBcMMeqeiMkVxUo5teH8WFG+myD0335BR/\nopLGRrQSFHxV91XvS5MP0efDrz8D4qdTKjM32LwRTu7qcRZf1pDff+ZXtdzs+Pjq\n/huoysv9It4K5pdFCcWBbDRz+Q9elan6uq7rP08JSflRuCRU6fOxehl9OO4Aqeg=\n=y+h7\n-----END PGP SIGNATURE-----\n",
                    "verified": true
                }
            },
            "committer": {
                "avatar_url": "https://avatars.githubusercontent.com/u/19864447?v=4",
                "events_url": "https://api.github.com/users/web-flow/events{/privacy}",
                "followers_url": "https://api.github.com/users/web-flow/followers",
                "following_url": "https://api.github.com/users/web-flow/following{/other_user}",
                "gists_url": "https://api.github.com/users/web-flow/gists{/gist_id}",
                "gravatar_id": "",
                "html_url": "https://github.com/web-flow",
                "id": 19864447,
                "login": "web-flow",
                "node_id": "MDQ6VXNlcjE5ODY0NDQ3",
                "organizations_url": "https://api.github.com/users/web-flow/orgs",
                "received_events_url": "https://api.github.com/users/web-flow/received_events",
                "repos_url": "https://api.github.com/users/web-flow/repos",
                "site_admin": false,
                "starred_url": "https://api.github.com/users/web-flow/starred{/owner}{/repo}",
                "subscriptions_url": "https://api.github.com/users/web-flow/subscriptions",
                "type": "User",
                "url": "https://api.github.com/users/web-flow"
            },
            "html_url": "https://github.com/PrismarineJS/prismarine-gameplay/commit/c9fc2f7950bb30e63b311e5c2c11ecf2e8d3ac87",
            "node_id": "C_kwDOEKHpqNoAKGM5ZmMyZjc5NTBiYjMwZTYzYjMxMWU1YzJjMTFlY2YyZThkM2FjODc",
            "parents": [
                {
                    "html_url": "https://github.com/PrismarineJS/prismarine-gameplay/commit/51b6ef49d6a4179bf5eaf7be1cbbb73851f51756",
                    "sha": "51b6ef49d6a4179bf5eaf7be1cbbb73851f51756",
                    "url": "https://api.github.com/repos/PrismarineJS/prismarine-gameplay/commits/51b6ef49d6a4179bf5eaf7be1cbbb73851f51756"
                }
            ],
            "sha": "c9fc2f7950bb30e63b311e5c2c11ecf2e8d3ac87",
            "url": "https://api.github.com/repos/PrismarineJS/prismarine-gameplay/commits/c9fc2f7950bb30e63b311e5c2c11ecf2e8d3ac87"
        }
    ],
    "commits": 1,
    "commits_url": "https://api.github.com/repos/PrismarineJS/prismarine-gameplay/pulls/124/commits",
    "created_at": "2023-08-18T14:43:46Z",
    "deletions": 1,
    "diff_url": "https://github.com/PrismarineJS/prismarine-gameplay/pull/124.diff",
    "draft": false,
    "head": {
        "label": "PrismarineJS:dependabot/npm_and_yarn/mineflayer-4.12.0",
        "ref": "dependabot/npm_and_yarn/mineflayer-4.12.0",
        "repo": {
            "allow_forking": true,
            "archive_url": "https://api.github.com/repos/PrismarineJS/prismarine-gameplay/{archive_format}{/ref}",
            "archived": false,
            "assignees_url": "https://api.github.com/repos/PrismarineJS/prismarine-gameplay/assignees{/user}",
            "blobs_url": "https://api.github.com/repos/PrismarineJS/prismarine-gameplay/git/blobs{/sha}",
            "branches_url": "https://api.github.com/repos/PrismarineJS/prismarine-gameplay/branches{/branch}",
            "clone_url": "https://github.com/PrismarineJS/prismarine-gameplay.git",
            "collaborators_url": "https://api.github.com/repos/PrismarineJS/prismarine-gameplay/collaborators{/collaborator}",
            "comments_url": "https://api.github.com/repos/PrismarineJS/prismarine-gameplay/comments{/number}",
            "commits_url": "https://api.github.com/repos/PrismarineJS/prismarine-gameplay/commits{/sha}",
            "compare_url": "https://api.github.com/repos/PrismarineJS/prismarine-gameplay/compare/{base}...{head}",
            "contents_url": "https://api.github.com/repos/PrismarineJS/prismarine-gameplay/contents/{+path}",
            "contributors_url": "https://api.github.com/repos/PrismarineJS/prismarine-gameplay/contributors",
            "created_at": "2020-07-12T11:04:43Z",
            "default_branch": "master",
            "deployments_url": "https://api.github.com/repos/PrismarineJS/prismarine-gameplay/deployments",
            "description": "A high level gameplay API for making Mineflayer bots.",
            "disabled": false,
            "downloads_url": "https://api.github.com/repos/PrismarineJS/prismarine-gameplay/downloads",
            "events_url": "https://api.github.com/repos/PrismarineJS/prismarine-gameplay/events",
            "fork": false,
            "forks": 3,
            "forks_count": 3,
            "forks_url": "https://api.github.com/repos/PrismarineJS/prismarine-gameplay/forks",
            "full_name": "PrismarineJS/prismarine-gameplay",
            "git_commits_url": "https://api.github.com/repos/PrismarineJS/prismarine-gameplay/git/commits{/sha}",
            "git_refs_url": "https://api.github.com/repos/PrismarineJS/prismarine-gameplay/git/refs{/sha}",
            "git_tags_url": "https://api.github.com/repos/PrismarineJS/prismarine-gameplay/git/tags{/sha}",
            "git_url": "git://github.com/PrismarineJS/prismarine-gameplay.git",
            "has_discussions": false,
            "has_downloads": true,
            "has_issues": true,
            "has_pages": false,
            "has_projects": true,
            "has_wiki": true,
            "homepage": null,
            "hooks_url": "https://api.github.com/repos/PrismarineJS/prismarine-gameplay/hooks",
            "html_url": "https://github.com/PrismarineJS/prismarine-gameplay",
            "id": 279046568,
            "is_template": false,
            "issue_comment_url": "https://api.github.com/repos/PrismarineJS/prismarine-gameplay/issues/comments{/number}",
            "issue_events_url": "https://api.github.com/repos/PrismarineJS/prismarine-gameplay/issues/events{/number}",
            "issues_url": "https://api.github.com/repos/PrismarineJS/prismarine-gameplay/issues{/number}",
            "keys_url": "https://api.github.com/repos/PrismarineJS/prismarine-gameplay/keys{/key_id}",
            "labels_url": "https://api.github.com/repos/PrismarineJS/prismarine-gameplay/labels{/name}",
            "language": "TypeScript",
            "languages_url": "https://api.github.com/repos/PrismarineJS/prismarine-gameplay/languages",
            "license": {
                "key": "mit",
                "name": "MIT License",
                "node_id": "MDc6TGljZW5zZTEz",
                "spdx_id": "MIT",
                "url": "https://api.github.com/licenses/mit"
            },
            "merges_url": "https://api.github.com/repos/PrismarineJS/prismarine-gameplay/merges",
            "milestones_url": "https://api.github.com/repos/PrismarineJS/prismarine-gameplay/milestones{/number}",
            "mirror_url": null,
            "name": "prismarine-gameplay",
            "node_id": "MDEwOlJlcG9zaXRvcnkyNzkwNDY1Njg=",
            "notifications_url": "https://api.github.com/repos/PrismarineJS/prismarine-gameplay/notifications{?since,all,participating}",
            "open_issues": 9,
            "open_issues_count": 9,
            "owner": {
                "avatar_url": "https://avatars.githubusercontent.com/u/11053411?v=4",
                "events_url": "https://api.github.com/users/PrismarineJS/events{/privacy}",
                "followers_url": "https://api.github.com/users/PrismarineJS/followers",
                "following_url": "https://api.github.com/users/PrismarineJS/following{/other_user}",
                "gists_url": "https://api.github.com/users/PrismarineJS/gists{/gist_id}",
                "gravatar_id": "",
                "html_url": "https://github.com/PrismarineJS",
                "id": 11053411,
                "login": "PrismarineJS",
                "node_id": "MDEyOk9yZ2FuaXphdGlvbjExMDUzNDEx",
                "organizations_url": "https://api.github.com/users/PrismarineJS/orgs",
                "received_events_url": "https://api.github.com/users/PrismarineJS/received_events",
                "repos_url": "https://api.github.com/users/PrismarineJS/repos",
                "site_admin": false,
                "starred_url": "https://api.github.com/users/PrismarineJS/starred{/owner}{/repo}",
                "subscriptions_url": "https://api.github.com/users/PrismarineJS/subscriptions",
                "type": "Organization",
                "url": "https://api.github.com/users/PrismarineJS"
            },
            "private": false,
            "pulls_url": "https://api.github.com/repos/PrismarineJS/prismarine-gameplay/pulls{/number}",
            "pushed_at": "2023-09-04T21:05:07Z",
            "releases_url": "https://api.github.com/repos/PrismarineJS/prismarine-gameplay/releases{/id}",
            "size": 83,
            "ssh_url": "git@github.com:PrismarineJS/prismarine-gameplay.git",
            "stargazers_count": 11,
            "stargazers_url": "https://api.github.com/repos/PrismarineJS/prismarine-gameplay/stargazers",
            "statuses_url": "https://api.github.com/repos/PrismarineJS/prismarine-gameplay/statuses/{sha}",
            "subscribers_url": "https://api.github.com/repos/PrismarineJS/prismarine-gameplay/subscribers",
            "subscription_url": "https://api.github.com/repos/PrismarineJS/prismarine-gameplay/subscription",
            "svn_url": "https://github.com/PrismarineJS/prismarine-gameplay",
            "tags_url": "https://api.github.com/repos/PrismarineJS/prismarine-gameplay/tags",
            "teams_url": "https://api.github.com/repos/PrismarineJS/prismarine-gameplay/teams",
            "topics": [],
            "trees_url": "https://api.github.com/repos/PrismarineJS/prismarine-gameplay/git/trees{/sha}",
            "updated_at": "2023-06-13T06:22:53Z",
            "url": "https://api.github.com/repos/PrismarineJS/prismarine-gameplay",
            "visibility": "public",
            "watchers": 11,
            "watchers_count": 11,
            "web_commit_signoff_required": false
        },
        "sha": "c9fc2f7950bb30e63b311e5c2c11ecf2e8d3ac87",
        "user": {
            "avatar_url": "https://avatars.githubusercontent.com/u/11053411?v=4",
            "events_url": "https://api.github.com/users/PrismarineJS/events{/privacy}",
            "followers_url": "https://api.github.com/users/PrismarineJS/followers",
            "following_url": "https://api.github.com/users/PrismarineJS/following{/other_user}",
            "gists_url": "https://api.github.com/users/PrismarineJS/gists{/gist_id}",
            "gravatar_id": "",
            "html_url": "https://github.com/PrismarineJS",
            "id": 11053411,
            "login": "PrismarineJS",
            "node_id": "MDEyOk9yZ2FuaXphdGlvbjExMDUzNDEx",
            "organizations_url": "https://api.github.com/users/PrismarineJS/orgs",
            "received_events_url": "https://api.github.com/users/PrismarineJS/received_events",
            "repos_url": "https://api.github.com/users/PrismarineJS/repos",
            "site_admin": false,
            "starred_url": "https://api.github.com/users/PrismarineJS/starred{/owner}{/repo}",
            "subscriptions_url": "https://api.github.com/users/PrismarineJS/subscriptions",
            "type": "Organization",
            "url": "https://api.github.com/users/PrismarineJS"
        }
    },
    "html_url": "https://github.com/PrismarineJS/prismarine-gameplay/pull/124",
    "id": 1480689810,
    "issue_url": "https://api.github.com/repos/PrismarineJS/prismarine-gameplay/issues/124",
    "labels": [
        {
            "color": "0366d6",
            "default": false,
            "description": "Pull requests that update a dependency file",
            "id": 2474652192,
            "name": "dependencies",
            "node_id": "MDU6TGFiZWwyNDc0NjUyMTky",
            "url": "https://api.github.com/repos/PrismarineJS/prismarine-gameplay/labels/dependencies"
        }
    ],
    "locked": false,
    "maintainer_can_modify": false,
    "merge_commit_sha": "0f5503478255d32dfc1c102673707da10c63efc0",
    "mergeable": true,
    "mergeable_state": "blocked",
    "merged": false,
    "merged_at": null,
    "merged_by": null,
    "milestone": null,
    "node_id": "PR_kwDOEKHpqM5YQYiS",
    "number": 124,
    "patch_url": "https://github.com/PrismarineJS/prismarine-gameplay/pull/124.patch",
    "rebaseable": false,
    "requested_reviewers": [],
    "requested_teams": [],
    "review_comment_url": "https://api.github.com/repos/PrismarineJS/prismarine-gameplay/pulls/comments{/number}",
    "review_comments": 0,
    "review_comments_url": "https://api.github.com/repos/PrismarineJS/prismarine-gameplay/pulls/124/comments",
    "state": "closed",
    "statuses_url": "https://api.github.com/repos/PrismarineJS/prismarine-gameplay/statuses/c9fc2f7950bb30e63b311e5c2c11ecf2e8d3ac87",
    "title": "Bump mineflayer from 2.41.0 to 4.12.0",
    "updated_at": "2023-08-25T20:55:44Z",
    "url": "https://api.github.com/repos/PrismarineJS/prismarine-gameplay/pulls/124",
    "user": {
        "avatar_url": "https://avatars.githubusercontent.com/in/29110?v=4",
        "events_url": "https://api.github.com/users/dependabot%5Bbot%5D/events{/privacy}",
        "followers_url": "https://api.github.com/users/dependabot%5Bbot%5D/followers",
        "following_url": "https://api.github.com/users/dependabot%5Bbot%5D/following{/other_user}",
        "gists_url": "https://api.github.com/users/dependabot%5Bbot%5D/gists{/gist_id}",
        "gravatar_id": "",
        "html_url": "https://github.com/apps/dependabot",
        "id": 49699333,
        "login": "dependabot[bot]",
        "node_id": "MDM6Qm90NDk2OTkzMzM=",
        "organizations_url": "https://api.github.com/users/dependabot%5Bbot%5D/orgs",
        "received_events_url": "https://api.github.com/users/dependabot%5Bbot%5D/received_events",
        "repos_url": "https://api.github.com/users/dependabot%5Bbot%5D/repos",
        "site_admin": false,
        "starred_url": "https://api.github.com/users/dependabot%5Bbot%5D/starred{/owner}{/repo}",
        "subscriptions_url": "https://api.github.com/users/dependabot%5Bbot%5D/subscriptions",
        "type": "Bot",
        "url": "https://api.github.com/users/dependabot%5Bbot%5D"
    }
}