{
    "_links": {
        "comments": {
            "href": "https://api.github.com/repos/PrismarineJS/prismarine-gameplay/issues/93/comments"
        },
        "commits": {
            "href": "https://api.github.com/repos/PrismarineJS/prismarine-gameplay/pulls/93/commits"
        },
        "html": {
            "href": "https://github.com/PrismarineJS/prismarine-gameplay/pull/93"
        },
        "issue": {
            "href": "https://api.github.com/repos/PrismarineJS/prismarine-gameplay/issues/93"
        },
        "review_comment": {
            "href": "https://api.github.com/repos/PrismarineJS/prismarine-gameplay/pulls/comments{/number}"
        },
        "review_comments": {
            "href": "https://api.github.com/repos/PrismarineJS/prismarine-gameplay/pulls/93/comments"
        },
        "self": {
            "href": "https://api.github.com/repos/PrismarineJS/prismarine-gameplay/pulls/93"
        },
        "statuses": {
            "href": "https://api.github.com/repos/PrismarineJS/prismarine-gameplay/statuses/848b85ef2e5e5c75c70a456162ac0a4dd08ec953"
        }
    },
    "active_lock_reason": null,
    "additions": 1,
    "assignee": null,
    "assignees": [],
    "author_association": "CONTRIBUTOR",
    "auto_merge": null,
    "base": {
        "label": "PrismarineJS:master",
        "ref": "master",
        "repo": {
            "allow_forking": true,
            "archive_url": "https://api.github.com/repos/PrismarineJS/prismarine-gameplay/{archive_format}{/ref}",
            "archived": false,
            "assignees_url": "https://api.github.com/repos/PrismarineJS/prismarine-gameplay/assignees{/user}",
            "blobs_url": "https://api.github.com/repos/PrismarineJS/prismarine-gameplay/git/blobs{/sha}",
            "branches_url": "https://api.github.com/repos/PrismarineJS/prismarine-gameplay/branches{/branch}",
            "clone_url": "https://github.com/PrismarineJS/prismarine-gameplay.git",
            "collaborators_url": "https://api.github.com/repos/PrismarineJS/prismarine-gameplay/collaborators{/collaborator}",
            "comments_url": "https://api.github.com/repos/PrismarineJS/prismarine-gameplay/comments{/number}",
            "commits_url": "https://api.github.com/repos/PrismarineJS/prismarine-gameplay/commits{/sha}",
            "compare_url": "https://api.github.com/repos/PrismarineJS/prismarine-gameplay/compare/{base}...{head}",
            "contents_url": "https://api.github.com/repos/PrismarineJS/prismarine-gameplay/contents/{+path}",
            "contributors_url": "https://api.github.com/repos/PrismarineJS/prismarine-gameplay/contributors",
            "created_at": "2020-07-12T11:04:43Z",
            "default_branch": "master",
            "deployments_url": "https://api.github.com/repos/PrismarineJS/prismarine-gameplay/deployments",
            "description": "A high level gameplay API for making Mineflayer bots.",
            "disabled": false,
            "downloads_url": "https://api.github.com/repos/PrismarineJS/prismarine-gameplay/downloads",
            "events_url": "https://api.github.com/repos/PrismarineJS/prismarine-gameplay/events",
            "fork": false,
            "forks": 3,
            "forks_count": 3,
            "forks_url": "https://api.github.com/repos/PrismarineJS/prismarine-gameplay/forks",
            "full_name": "PrismarineJS/prismarine-gameplay",
            "git_commits_url": "https://api.github.com/repos/PrismarineJS/prismarine-gameplay/git/commits{/sha}",
            "git_refs_url": "https://api.github.com/repos/PrismarineJS/prismarine-gameplay/git/refs{/sha}",
            "git_tags_url": "https://api.github.com/repos/PrismarineJS/prismarine-gameplay/git/tags{/sha}",
            "git_url": "git://github.com/PrismarineJS/prismarine-gameplay.git",
            "has_discussions": false,
            "has_downloads": true,
            "has_issues": true,
            "has_pages": false,
            "has_projects": true,
            "has_wiki": true,
            "homepage": null,
            "hooks_url": "https://api.github.com/repos/PrismarineJS/prismarine-gameplay/hooks",
            "html_url": "https://github.com/PrismarineJS/prismarine-gameplay",
            "id": 279046568,
            "is_template": false,
            "issue_comment_url": "https://api.github.com/repos/PrismarineJS/prismarine-gameplay/issues/comments{/number}",
            "issue_events_url": "https://api.github.com/repos/PrismarineJS/prismarine-gameplay/issues/events{/number}",
            "issues_url": "https://api.github.com/repos/PrismarineJS/prismarine-gameplay/issues{/number}",
            "keys_url": "https://api.github.com/repos/PrismarineJS/prismarine-gameplay/keys{/key_id}",
            "labels_url": "https://api.github.com/repos/PrismarineJS/prismarine-gameplay/labels{/name}",
            "language": "TypeScript",
            "languages_url": "https://api.github.com/repos/PrismarineJS/prismarine-gameplay/languages",
            "license": {
                "key": "mit",
                "name": "MIT License",
                "node_id": "MDc6TGljZW5zZTEz",
                "spdx_id": "MIT",
                "url": "https://api.github.com/licenses/mit"
            },
            "merges_url": "https://api.github.com/repos/PrismarineJS/prismarine-gameplay/merges",
            "milestones_url": "https://api.github.com/repos/PrismarineJS/prismarine-gameplay/milestones{/number}",
            "mirror_url": null,
            "name": "prismarine-gameplay",
            "node_id": "MDEwOlJlcG9zaXRvcnkyNzkwNDY1Njg=",
            "notifications_url": "https://api.github.com/repos/PrismarineJS/prismarine-gameplay/notifications{?since,all,participating}",
            "open_issues": 10,
            "open_issues_count": 10,
            "owner": {
                "avatar_url": "https://avatars.githubusercontent.com/u/11053411?v=4",
                "events_url": "https://api.github.com/users/PrismarineJS/events{/privacy}",
                "followers_url": "https://api.github.com/users/PrismarineJS/followers",
                "following_url": "https://api.github.com/users/PrismarineJS/following{/other_user}",
                "gists_url": "https://api.github.com/users/PrismarineJS/gists{/gist_id}",
                "gravatar_id": "",
                "html_url": "https://github.com/PrismarineJS",
                "id": 11053411,
                "login": "PrismarineJS",
                "node_id": "MDEyOk9yZ2FuaXphdGlvbjExMDUzNDEx",
                "organizations_url": "https://api.github.com/users/PrismarineJS/orgs",
                "received_events_url": "https://api.github.com/users/PrismarineJS/received_events",
                "repos_url": "https://api.github.com/users/PrismarineJS/repos",
                "site_admin": false,
                "starred_url": "https://api.github.com/users/PrismarineJS/starred{/owner}{/repo}",
                "subscriptions_url": "https://api.github.com/users/PrismarineJS/subscriptions",
                "type": "Organization",
                "url": "https://api.github.com/users/PrismarineJS"
            },
            "private": false,
            "pulls_url": "https://api.github.com/repos/PrismarineJS/prismarine-gameplay/pulls{/number}",
            "pushed_at": "2023-04-10T14:58:49Z",
            "releases_url": "https://api.github.com/repos/PrismarineJS/prismarine-gameplay/releases{/id}",
            "size": 82,
            "ssh_url": "git@github.com:PrismarineJS/prismarine-gameplay.git",
            "stargazers_count": 10,
            "stargazers_url": "https://api.github.com/repos/PrismarineJS/prismarine-gameplay/stargazers",
            "statuses_url": "https://api.github.com/repos/PrismarineJS/prismarine-gameplay/statuses/{sha}",
            "subscribers_url": "https://api.github.com/repos/PrismarineJS/prismarine-gameplay/subscribers",
            "subscription_url": "https://api.github.com/repos/PrismarineJS/prismarine-gameplay/subscription",
            "svn_url": "https://github.com/PrismarineJS/prismarine-gameplay",
            "tags_url": "https://api.github.com/repos/PrismarineJS/prismarine-gameplay/tags",
            "teams_url": "https://api.github.com/repos/PrismarineJS/prismarine-gameplay/teams",
            "topics": [],
            "trees_url": "https://api.github.com/repos/PrismarineJS/prismarine-gameplay/git/trees{/sha}",
            "updated_at": "2022-08-05T10:46:31Z",
            "url": "https://api.github.com/repos/PrismarineJS/prismarine-gameplay",
            "visibility": "public",
            "watchers": 10,
            "watchers_count": 10,
            "web_commit_signoff_required": false
        },
        "sha": "76aac7f68ea6ae12114b025bc5eca0e8d8ed3010",
        "user": {
            "avatar_url": "https://avatars.githubusercontent.com/u/11053411?v=4",
            "events_url": "https://api.github.com/users/PrismarineJS/events{/privacy}",
            "followers_url": "https://api.github.com/users/PrismarineJS/followers",
            "following_url": "https://api.github.com/users/PrismarineJS/following{/other_user}",
            "gists_url": "https://api.github.com/users/PrismarineJS/gists{/gist_id}",
            "gravatar_id": "",
            "html_url": "https://github.com/PrismarineJS",
            "id": 11053411,
            "login": "PrismarineJS",
            "node_id": "MDEyOk9yZ2FuaXphdGlvbjExMDUzNDEx",
            "organizations_url": "https://api.github.com/users/PrismarineJS/orgs",
            "received_events_url": "https://api.github.com/users/PrismarineJS/received_events",
            "repos_url": "https://api.github.com/users/PrismarineJS/repos",
            "site_admin": false,
            "starred_url": "https://api.github.com/users/PrismarineJS/starred{/owner}{/repo}",
            "subscriptions_url": "https://api.github.com/users/PrismarineJS/subscriptions",
            "type": "Organization",
            "url": "https://api.github.com/users/PrismarineJS"
        }
    },
    "body": "Bumps [minecraft-data](https://github.com/PrismarineJS/node-minecraft-data) from 2.221.0 to 3.17.0.\n<details>\n<summary>Release notes</summary>\n<p><em>Sourced from <a href=\"https://github.com/PrismarineJS/node-minecraft-data/releases\">minecraft-data's releases</a>.</em></p>\n<blockquote>\n<h2>Release 3.17.0</h2>\n<p>3.17.0</p>\n<h2>Release 3.16.0</h2>\n<p>3.16.0</p>\n<h2>Release 3.15.3</h2>\n<p>3.15.3</p>\n<h2>Release 3.15.2</h2>\n<p>3.15.2</p>\n<h2>Release 3.15.1</h2>\n<p>3.15.1</p>\n<h2>Release 3.15.0</h2>\n<p>3.15.0</p>\n<h2>Release 3.14.1</h2>\n<p>3.14.1</p>\n<h2>Release 3.14.0</h2>\n<p>3.14.0</p>\n<h2>Release 3.13.0</h2>\n<p>3.13.0</p>\n<h2>Release 3.12.0</h2>\n<p>3.12.0</p>\n<h2>Release 3.11.0</h2>\n<p>3.11.0</p>\n<h2>Release 3.10.2</h2>\n<p>3.10.2</p>\n<h2>Release 3.10.1</h2>\n<p>3.10.1</p>\n<h2>Release 3.9.1</h2>\n<p>3.9.1</p>\n<h2>Release 3.9.0</h2>\n<p>3.9.0</p>\n<h2>Release 3.8.0</h2>\n<p>3.8.0</p>\n<h2>Release 3.7.3</h2>\n<p>3.7.3</p>\n<!-- raw HTML omitted -->\n</blockquote>\n<p>... (truncated)</p>\n</details>\n<details>\n<summary>Changelog</summary>\n<p><em>Sourced from <a href=\"https://github.com/PrismarineJS/node-minecraft-data/blob/master/doc/history.md\">minecraft-data's changelog</a>.</em></p>\n<blockquote>\n<h2>3.17.0</h2>\n<ul>\n<li>update <code>minecraft-data</code></li>\n</ul>\n<h2>3.16.0</h2>\n<ul>\n<li>update <code>minecraft-data</code></li>\n</ul>\n<h2>3.15.3</h2>\n<ul>\n<li>update <code>minecraft-data</code></li>\n</ul>\n<h2>3.15.2</h2>\n<ul>\n<li>Fix entities by id</li>\n</ul>\n<h2>3.15.1</h2>\n<ul>\n<li>update <code>minecraft-data</code></li>\n</ul>\n<h2>3.15.0</h2>\n<ul>\n<li>update <code>minecraft-data</code></li>\n</ul>\n<h2>3.14.1</h2>\n<ul>\n<li>Support supportFeature on bedrock</li>\n</ul>\n<h2>3.14.0</h2>\n<ul>\n<li>update <code>minecraft-data</code></li>\n</ul>\n<h2>3.13.0</h2>\n<ul>\n<li>update <code>minecraft-data</code></li>\n</ul>\n<h2>3.12.0</h2>\n<ul>\n<li>update <code>minecraft-data</code></li>\n</ul>\n<h2>3.11.0</h2>\n<ul>\n<li>update <code>minecraft-data</code></li>\n</ul>\n<h2>3.10.2</h2>\n<ul>\n<li>update <code>minecraft-data</code></li>\n</ul>\n<h2>3.10.1</h2>\n<!-- raw HTML omitted -->\n</blockquote>\n<p>... (truncated)</p>\n</details>\n<details>\n<summary>Commits</summary>\n<ul>\n<li><a href=\"https://github.com/PrismarineJS/node-minecraft-data/commit/d8d9a621b36f47ec1691d90d91bf07821996a400\"><code>d8d9a62</code></a> Release 3.17.0 (<a href=\"https://github-redirect.dependabot.com/PrismarineJS/node-minecraft-data/issues/244\">#244</a>)</li>\n<li><a href=\"https://github.com/PrismarineJS/node-minecraft-data/commit/c359ede720e299d5be8e0d0856cfffe66a661c92\"><code>c359ede</code></a> Release 3.16.0 (<a href=\"https://github-redirect.dependabot.com/PrismarineJS/node-minecraft-data/issues/243\">#243</a>)</li>\n<li><a href=\"https://github.com/PrismarineJS/node-minecraft-data/commit/a4bc659dd95d7691c8d120ae4ec8c09802bfa5a6\"><code>a4bc659</code></a> Release 3.15.3 (<a href=\"https://github-redirect.dependabot.com/PrismarineJS/node-minecraft-data/issues/242\">#242</a>)</li>\n<li><a href=\"https://github.com/PrismarineJS/node-minecraft-data/commit/8f546370259445aa36b68c75c31bba6f1d3525ba\"><code>8f54637</code></a> Release 3.15.2 (<a href=\"https://github-redirect.dependabot.com/PrismarineJS/node-minecraft-data/issues/241\">#241</a>)</li>\n<li><a href=\"https://github.com/PrismarineJS/node-minecraft-data/commit/542925dfcabdecbfe0556db54530fc806827c302\"><code>542925d</code></a> Fix entitiesById being undefined (<a href=\"https://github-redirect.dependabot.com/PrismarineJS/node-minecraft-data/issues/240\">#240</a>)</li>\n<li><a href=\"https://github.com/PrismarineJS/node-minecraft-data/commit/d3f23eadca290ecf991f1ee9b58ac241e3a66fec\"><code>d3f23ea</code></a> Release 3.15.1 (<a href=\"https://github-redirect.dependabot.com/PrismarineJS/node-minecraft-data/issues/239\">#239</a>)</li>\n<li><a href=\"https://github.com/PrismarineJS/node-minecraft-data/commit/e5b96480cbf1e5516126e396dc4f2c191eba5037\"><code>e5b9648</code></a> Release 3.15.0 (<a href=\"https://github-redirect.dependabot.com/PrismarineJS/node-minecraft-data/issues/238\">#238</a>)</li>\n<li><a href=\"https://github.com/PrismarineJS/node-minecraft-data/commit/78fd7386759a70d0207a01df1806ab703c8ca8c1\"><code>78fd738</code></a> Release 3.14.1 (<a href=\"https://github-redirect.dependabot.com/PrismarineJS/node-minecraft-data/issues/237\">#237</a>)</li>\n<li><a href=\"https://github.com/PrismarineJS/node-minecraft-data/commit/637b4673f120aa25d50344f5b5d06a302bf6e5da\"><code>637b467</code></a> Support <code>supportFeature</code> on bedrock (<a href=\"https://github-redirect.dependabot.com/PrismarineJS/node-minecraft-data/issues/235\">#235</a>)</li>\n<li><a href=\"https://github.com/PrismarineJS/node-minecraft-data/commit/fe818fede75fefaafd94c6f01c4f548003a91cdb\"><code>fe818fe</code></a> Release 3.14.0 (<a href=\"https://github-redirect.dependabot.com/PrismarineJS/node-minecraft-data/issues/236\">#236</a>)</li>\n<li>Additional commits viewable in <a href=\"https://github.com/PrismarineJS/node-minecraft-data/compare/2.221.0...3.17.0\">compare view</a></li>\n</ul>\n</details>\n<br />\n\n\n[![Dependabot compatibility score](https://dependabot-badges.githubapp.com/badges/compatibility_score?dependency-name=minecraft-data&package-manager=npm_and_yarn&previous-version=2.221.0&new-version=3.17.0)](https://docs.github.com/en/github/managing-security-vulnerabilities/about-dependabot-security-updates#about-compatibility-scores)\n\nDependabot will resolve any conflicts with this PR as long as you don't alter it yourself. You can also trigger a rebase manually by commenting `@dependabot rebase`.\n\n[//]: # (dependabot-automerge-start)\n[//]: # (dependabot-automerge-end)\n\n---\n\n<details>\n<summary>Dependabot commands and options</summary>\n<br />\n\nYou can trigger Dependabot actions by commenting on this PR:\n- `@dependabot rebase` will rebase this PR\n- `@dependabot recreate` will recreate this PR, overwriting any edits that have been made to it\n- `@dependabot merge` will merge this PR after your CI passes on it\n- `@dependabot squash and merge` will squash and merge this PR after your CI passes on it\n- `@dependabot cancel merge` will cancel a previously requested merge and block automerging\n- `@dependabot reopen` will reopen this PR if it is closed\n- `@dependabot close` will close this PR and stop Dependabot recreating it. You can achieve the same result by closing it manually\n- `@dependabot ignore this major version` will close this PR and stop Dependabot creating any more for this major version (unless you reopen the PR or upgrade to it yourself)\n- `@dependabot ignore this minor version` will close this PR and stop Dependabot creating any more for this minor version (unless you reopen the PR or upgrade to it yourself)\n- `@dependabot ignore this dependency` will close this PR and stop Dependabot creating any more for this dependency (unless you reopen the PR or upgrade to it yourself)\n\n\n</details>",
    "changed_files": 1,
    "closed_at": "2022-11-11T14:10:52Z",
    "comment_data": [],
    "comment_regular_data": [
        {
            "author_association": "CONTRIBUTOR",
            "body": "Superseded by #95.",
            "created_at": "2022-11-11T14:10:51Z",
            "html_url": "https://github.com/PrismarineJS/prismarine-gameplay/pull/93#issuecomment-1311742284",
            "id": 1311742284,
            "issue_url": "https://api.github.com/repos/PrismarineJS/prismarine-gameplay/issues/93",
            "node_id": "IC_kwDOEKHpqM5OL5lM",
            "performed_via_github_app": null,
            "reactions": {
                "+1": 0,
                "-1": 0,
                "confused": 0,
                "eyes": 0,
                "heart": 0,
                "hooray": 0,
                "laugh": 0,
                "rocket": 0,
                "total_count": 0,
                "url": "https://api.github.com/repos/PrismarineJS/prismarine-gameplay/issues/comments/1311742284/reactions"
            },
            "updated_at": "2022-11-11T14:10:51Z",
            "url": "https://api.github.com/repos/PrismarineJS/prismarine-gameplay/issues/comments/1311742284",
            "user": {
                "avatar_url": "https://avatars.githubusercontent.com/in/29110?v=4",
                "events_url": "https://api.github.com/users/dependabot%5Bbot%5D/events{/privacy}",
                "followers_url": "https://api.github.com/users/dependabot%5Bbot%5D/followers",
                "following_url": "https://api.github.com/users/dependabot%5Bbot%5D/following{/other_user}",
                "gists_url": "https://api.github.com/users/dependabot%5Bbot%5D/gists{/gist_id}",
                "gravatar_id": "",
                "html_url": "https://github.com/apps/dependabot",
                "id": 49699333,
                "login": "dependabot[bot]",
                "node_id": "MDM6Qm90NDk2OTkzMzM=",
                "organizations_url": "https://api.github.com/users/dependabot%5Bbot%5D/orgs",
                "received_events_url": "https://api.github.com/users/dependabot%5Bbot%5D/received_events",
                "repos_url": "https://api.github.com/users/dependabot%5Bbot%5D/repos",
                "site_admin": false,
                "starred_url": "https://api.github.com/users/dependabot%5Bbot%5D/starred{/owner}{/repo}",
                "subscriptions_url": "https://api.github.com/users/dependabot%5Bbot%5D/subscriptions",
                "type": "Bot",
                "url": "https://api.github.com/users/dependabot%5Bbot%5D"
            }
        }
    ],
    "comments": 1,
    "comments_url": "https://api.github.com/repos/PrismarineJS/prismarine-gameplay/issues/93/comments",
    "commit_data": [
        {
            "author": {
                "avatar_url": "https://avatars.githubusercontent.com/in/29110?v=4",
                "events_url": "https://api.github.com/users/dependabot%5Bbot%5D/events{/privacy}",
                "followers_url": "https://api.github.com/users/dependabot%5Bbot%5D/followers",
                "following_url": "https://api.github.com/users/dependabot%5Bbot%5D/following{/other_user}",
                "gists_url": "https://api.github.com/users/dependabot%5Bbot%5D/gists{/gist_id}",
                "gravatar_id": "",
                "html_url": "https://github.com/apps/dependabot",
                "id": 49699333,
                "login": "dependabot[bot]",
                "node_id": "MDM6Qm90NDk2OTkzMzM=",
                "organizations_url": "https://api.github.com/users/dependabot%5Bbot%5D/orgs",
                "received_events_url": "https://api.github.com/users/dependabot%5Bbot%5D/received_events",
                "repos_url": "https://api.github.com/users/dependabot%5Bbot%5D/repos",
                "site_admin": false,
                "starred_url": "https://api.github.com/users/dependabot%5Bbot%5D/starred{/owner}{/repo}",
                "subscriptions_url": "https://api.github.com/users/dependabot%5Bbot%5D/subscriptions",
                "type": "Bot",
                "url": "https://api.github.com/users/dependabot%5Bbot%5D"
            },
            "comments_url": "https://api.github.com/repos/PrismarineJS/prismarine-gameplay/commits/848b85ef2e5e5c75c70a456162ac0a4dd08ec953/comments",
            "commit": {
                "author": {
                    "date": "2022-10-31T14:18:38Z",
                    "email": "49699333+dependabot[bot]@users.noreply.github.com",
                    "name": "dependabot[bot]"
                },
                "comment_count": 0,
                "committer": {
                    "date": "2022-10-31T14:18:38Z",
                    "email": "noreply@github.com",
                    "name": "GitHub"
                },
                "message": "Bump minecraft-data from 2.221.0 to 3.17.0\n\nBumps [minecraft-data](https://github.com/PrismarineJS/node-minecraft-data) from 2.221.0 to 3.17.0.\n- [Release notes](https://github.com/PrismarineJS/node-minecraft-data/releases)\n- [Changelog](https://github.com/PrismarineJS/node-minecraft-data/blob/master/doc/history.md)\n- [Commits](https://github.com/PrismarineJS/node-minecraft-data/compare/2.221.0...3.17.0)\n\n---\nupdated-dependencies:\n- dependency-name: minecraft-data\n  dependency-type: direct:production\n  update-type: version-update:semver-major\n...\n\nSigned-off-by: dependabot[bot] <support@github.com>",
                "tree": {
                    "sha": "b2459159b3b15768f21fb024c8988e5675e7b958",
                    "url": "https://api.github.com/repos/PrismarineJS/prismarine-gameplay/git/trees/b2459159b3b15768f21fb024c8988e5675e7b958"
                },
                "url": "https://api.github.com/repos/PrismarineJS/prismarine-gameplay/git/commits/848b85ef2e5e5c75c70a456162ac0a4dd08ec953",
                "verification": {
                    "payload": "tree b2459159b3b15768f21fb024c8988e5675e7b958\nparent 76aac7f68ea6ae12114b025bc5eca0e8d8ed3010\nauthor dependabot[bot] <49699333+dependabot[bot]@users.noreply.github.com> 1667225918 +0000\ncommitter GitHub <noreply@github.com> 1667225918 +0000\n\nBump minecraft-data from 2.221.0 to 3.17.0\n\nBumps [minecraft-data](https://github.com/PrismarineJS/node-minecraft-data) from 2.221.0 to 3.17.0.\n- [Release notes](https://github.com/PrismarineJS/node-minecraft-data/releases)\n- [Changelog](https://github.com/PrismarineJS/node-minecraft-data/blob/master/doc/history.md)\n- [Commits](https://github.com/PrismarineJS/node-minecraft-data/compare/2.221.0...3.17.0)\n\n---\nupdated-dependencies:\n- dependency-name: minecraft-data\n  dependency-type: direct:production\n  update-type: version-update:semver-major\n...\n\nSigned-off-by: dependabot[bot] <support@github.com>",
                    "reason": "valid",
                    "signature": "-----BEGIN PGP SIGNATURE-----\n\nwsBcBAABCAAQBQJjX9k+CRBK7hj4Ov3rIwAA1o0IAKr8PaumbYgAUQEcV+8K77dr\nmvnqchelSzqsdTFwjZFcnP1xKrpQEwtUMoNE6P6Q4RKZ65VmczHlcdRQ5S4NeYzp\n1ELjwodugyCp3M//B2aVzOuNx07khFogY5cAEPg5T+khklxdZL1W+ftjo5g4ny/3\ngOBARU9cMdexgf1Bk9rd8qd/fUhg1leQjw87/22PHJOkd/SIIu8mCXsptwHX8+eD\n3srvpqzt80zFWndsVPpIaswJ32000VHTw1iBcftAG4XO54fGsVNZWAr2RCCTXZix\nzQEMHJQwkdfgpLpPeuLS4jnGvRto254w6qZrJu3/Pd5KQbGkeZuZB1Pzc+48WQ8=\n=2PBG\n-----END PGP SIGNATURE-----\n",
                    "verified": true
                }
            },
            "committer": {
                "avatar_url": "https://avatars.githubusercontent.com/u/19864447?v=4",
                "events_url": "https://api.github.com/users/web-flow/events{/privacy}",
                "followers_url": "https://api.github.com/users/web-flow/followers",
                "following_url": "https://api.github.com/users/web-flow/following{/other_user}",
                "gists_url": "https://api.github.com/users/web-flow/gists{/gist_id}",
                "gravatar_id": "",
                "html_url": "https://github.com/web-flow",
                "id": 19864447,
                "login": "web-flow",
                "node_id": "MDQ6VXNlcjE5ODY0NDQ3",
                "organizations_url": "https://api.github.com/users/web-flow/orgs",
                "received_events_url": "https://api.github.com/users/web-flow/received_events",
                "repos_url": "https://api.github.com/users/web-flow/repos",
                "site_admin": false,
                "starred_url": "https://api.github.com/users/web-flow/starred{/owner}{/repo}",
                "subscriptions_url": "https://api.github.com/users/web-flow/subscriptions",
                "type": "User",
                "url": "https://api.github.com/users/web-flow"
            },
            "html_url": "https://github.com/PrismarineJS/prismarine-gameplay/commit/848b85ef2e5e5c75c70a456162ac0a4dd08ec953",
            "node_id": "C_kwDOEKHpqNoAKDg0OGI4NWVmMmU1ZTVjNzVjNzBhNDU2MTYyYWMwYTRkZDA4ZWM5NTM",
            "parents": [
                {
                    "html_url": "https://github.com/PrismarineJS/prismarine-gameplay/commit/76aac7f68ea6ae12114b025bc5eca0e8d8ed3010",
                    "sha": "76aac7f68ea6ae12114b025bc5eca0e8d8ed3010",
                    "url": "https://api.github.com/repos/PrismarineJS/prismarine-gameplay/commits/76aac7f68ea6ae12114b025bc5eca0e8d8ed3010"
                }
            ],
            "sha": "848b85ef2e5e5c75c70a456162ac0a4dd08ec953",
            "url": "https://api.github.com/repos/PrismarineJS/prismarine-gameplay/commits/848b85ef2e5e5c75c70a456162ac0a4dd08ec953"
        }
    ],
    "commits": 1,
    "commits_url": "https://api.github.com/repos/PrismarineJS/prismarine-gameplay/pulls/93/commits",
    "created_at": "2022-10-31T14:18:39Z",
    "deletions": 1,
    "diff_url": "https://github.com/PrismarineJS/prismarine-gameplay/pull/93.diff",
    "draft": false,
    "head": {
        "label": "PrismarineJS:dependabot/npm_and_yarn/minecraft-data-3.17.0",
        "ref": "dependabot/npm_and_yarn/minecraft-data-3.17.0",
        "repo": {
            "allow_forking": true,
            "archive_url": "https://api.github.com/repos/PrismarineJS/prismarine-gameplay/{archive_format}{/ref}",
            "archived": false,
            "assignees_url": "https://api.github.com/repos/PrismarineJS/prismarine-gameplay/assignees{/user}",
            "blobs_url": "https://api.github.com/repos/PrismarineJS/prismarine-gameplay/git/blobs{/sha}",
            "branches_url": "https://api.github.com/repos/PrismarineJS/prismarine-gameplay/branches{/branch}",
            "clone_url": "https://github.com/PrismarineJS/prismarine-gameplay.git",
            "collaborators_url": "https://api.github.com/repos/PrismarineJS/prismarine-gameplay/collaborators{/collaborator}",
            "comments_url": "https://api.github.com/repos/PrismarineJS/prismarine-gameplay/comments{/number}",
            "commits_url": "https://api.github.com/repos/PrismarineJS/prismarine-gameplay/commits{/sha}",
            "compare_url": "https://api.github.com/repos/PrismarineJS/prismarine-gameplay/compare/{base}...{head}",
            "contents_url": "https://api.github.com/repos/PrismarineJS/prismarine-gameplay/contents/{+path}",
            "contributors_url": "https://api.github.com/repos/PrismarineJS/prismarine-gameplay/contributors",
            "created_at": "2020-07-12T11:04:43Z",
            "default_branch": "master",
            "deployments_url": "https://api.github.com/repos/PrismarineJS/prismarine-gameplay/deployments",
            "description": "A high level gameplay API for making Mineflayer bots.",
            "disabled": false,
            "downloads_url": "https://api.github.com/repos/PrismarineJS/prismarine-gameplay/downloads",
            "events_url": "https://api.github.com/repos/PrismarineJS/prismarine-gameplay/events",
            "fork": false,
            "forks": 3,
            "forks_count": 3,
            "forks_url": "https://api.github.com/repos/PrismarineJS/prismarine-gameplay/forks",
            "full_name": "PrismarineJS/prismarine-gameplay",
            "git_commits_url": "https://api.github.com/repos/PrismarineJS/prismarine-gameplay/git/commits{/sha}",
            "git_refs_url": "https://api.github.com/repos/PrismarineJS/prismarine-gameplay/git/refs{/sha}",
            "git_tags_url": "https://api.github.com/repos/PrismarineJS/prismarine-gameplay/git/tags{/sha}",
            "git_url": "git://github.com/PrismarineJS/prismarine-gameplay.git",
            "has_discussions": false,
            "has_downloads": true,
            "has_issues": true,
            "has_pages": false,
            "has_projects": true,
            "has_wiki": true,
            "homepage": null,
            "hooks_url": "https://api.github.com/repos/PrismarineJS/prismarine-gameplay/hooks",
            "html_url": "https://github.com/PrismarineJS/prismarine-gameplay",
            "id": 279046568,
            "is_template": false,
            "issue_comment_url": "https://api.github.com/repos/PrismarineJS/prismarine-gameplay/issues/comments{/number}",
            "issue_events_url": "https://api.github.com/repos/PrismarineJS/prismarine-gameplay/issues/events{/number}",
            "issues_url": "https://api.github.com/repos/PrismarineJS/prismarine-gameplay/issues{/number}",
            "keys_url": "https://api.github.com/repos/PrismarineJS/prismarine-gameplay/keys{/key_id}",
            "labels_url": "https://api.github.com/repos/PrismarineJS/prismarine-gameplay/labels{/name}",
            "language": "TypeScript",
            "languages_url": "https://api.github.com/repos/PrismarineJS/prismarine-gameplay/languages",
            "license": {
                "key": "mit",
                "name": "MIT License",
                "node_id": "MDc6TGljZW5zZTEz",
                "spdx_id": "MIT",
                "url": "https://api.github.com/licenses/mit"
            },
            "merges_url": "https://api.github.com/repos/PrismarineJS/prismarine-gameplay/merges",
            "milestones_url": "https://api.github.com/repos/PrismarineJS/prismarine-gameplay/milestones{/number}",
            "mirror_url": null,
            "name": "prismarine-gameplay",
            "node_id": "MDEwOlJlcG9zaXRvcnkyNzkwNDY1Njg=",
            "notifications_url": "https://api.github.com/repos/PrismarineJS/prismarine-gameplay/notifications{?since,all,participating}",
            "open_issues": 10,
            "open_issues_count": 10,
            "owner": {
                "avatar_url": "https://avatars.githubusercontent.com/u/11053411?v=4",
                "events_url": "https://api.github.com/users/PrismarineJS/events{/privacy}",
                "followers_url": "https://api.github.com/users/PrismarineJS/followers",
                "following_url": "https://api.github.com/users/PrismarineJS/following{/other_user}",
                "gists_url": "https://api.github.com/users/PrismarineJS/gists{/gist_id}",
                "gravatar_id": "",
                "html_url": "https://github.com/PrismarineJS",
                "id": 11053411,
                "login": "PrismarineJS",
                "node_id": "MDEyOk9yZ2FuaXphdGlvbjExMDUzNDEx",
                "organizations_url": "https://api.github.com/users/PrismarineJS/orgs",
                "received_events_url": "https://api.github.com/users/PrismarineJS/received_events",
                "repos_url": "https://api.github.com/users/PrismarineJS/repos",
                "site_admin": false,
                "starred_url": "https://api.github.com/users/PrismarineJS/starred{/owner}{/repo}",
                "subscriptions_url": "https://api.github.com/users/PrismarineJS/subscriptions",
                "type": "Organization",
                "url": "https://api.github.com/users/PrismarineJS"
            },
            "private": false,
            "pulls_url": "https://api.github.com/repos/PrismarineJS/prismarine-gameplay/pulls{/number}",
            "pushed_at": "2023-04-10T14:58:49Z",
            "releases_url": "https://api.github.com/repos/PrismarineJS/prismarine-gameplay/releases{/id}",
            "size": 82,
            "ssh_url": "git@github.com:PrismarineJS/prismarine-gameplay.git",
            "stargazers_count": 10,
            "stargazers_url": "https://api.github.com/repos/PrismarineJS/prismarine-gameplay/stargazers",
            "statuses_url": "https://api.github.com/repos/PrismarineJS/prismarine-gameplay/statuses/{sha}",
            "subscribers_url": "https://api.github.com/repos/PrismarineJS/prismarine-gameplay/subscribers",
            "subscription_url": "https://api.github.com/repos/PrismarineJS/prismarine-gameplay/subscription",
            "svn_url": "https://github.com/PrismarineJS/prismarine-gameplay",
            "tags_url": "https://api.github.com/repos/PrismarineJS/prismarine-gameplay/tags",
            "teams_url": "https://api.github.com/repos/PrismarineJS/prismarine-gameplay/teams",
            "topics": [],
            "trees_url": "https://api.github.com/repos/PrismarineJS/prismarine-gameplay/git/trees{/sha}",
            "updated_at": "2022-08-05T10:46:31Z",
            "url": "https://api.github.com/repos/PrismarineJS/prismarine-gameplay",
            "visibility": "public",
            "watchers": 10,
            "watchers_count": 10,
            "web_commit_signoff_required": false
        },
        "sha": "848b85ef2e5e5c75c70a456162ac0a4dd08ec953",
        "user": {
            "avatar_url": "https://avatars.githubusercontent.com/u/11053411?v=4",
            "events_url": "https://api.github.com/users/PrismarineJS/events{/privacy}",
            "followers_url": "https://api.github.com/users/PrismarineJS/followers",
            "following_url": "https://api.github.com/users/PrismarineJS/following{/other_user}",
            "gists_url": "https://api.github.com/users/PrismarineJS/gists{/gist_id}",
            "gravatar_id": "",
            "html_url": "https://github.com/PrismarineJS",
            "id": 11053411,
            "login": "PrismarineJS",
            "node_id": "MDEyOk9yZ2FuaXphdGlvbjExMDUzNDEx",
            "organizations_url": "https://api.github.com/users/PrismarineJS/orgs",
            "received_events_url": "https://api.github.com/users/PrismarineJS/received_events",
            "repos_url": "https://api.github.com/users/PrismarineJS/repos",
            "site_admin": false,
            "starred_url": "https://api.github.com/users/PrismarineJS/starred{/owner}{/repo}",
            "subscriptions_url": "https://api.github.com/users/PrismarineJS/subscriptions",
            "type": "Organization",
            "url": "https://api.github.com/users/PrismarineJS"
        }
    },
    "html_url": "https://github.com/PrismarineJS/prismarine-gameplay/pull/93",
    "id": 1105424389,
    "issue_url": "https://api.github.com/repos/PrismarineJS/prismarine-gameplay/issues/93",
    "labels": [
        {
            "color": "0366d6",
            "default": false,
            "description": "Pull requests that update a dependency file",
            "id": 2474652192,
            "name": "dependencies",
            "node_id": "MDU6TGFiZWwyNDc0NjUyMTky",
            "url": "https://api.github.com/repos/PrismarineJS/prismarine-gameplay/labels/dependencies"
        }
    ],
    "locked": false,
    "maintainer_can_modify": false,
    "merge_commit_sha": "0bc7446e2b6e8c8d01005a321edeae73d3dbc88e",
    "mergeable": true,
    "mergeable_state": "blocked",
    "merged": false,
    "merged_at": null,
    "merged_by": null,
    "milestone": null,
    "node_id": "PR_kwDOEKHpqM5B43AF",
    "number": 93,
    "patch_url": "https://github.com/PrismarineJS/prismarine-gameplay/pull/93.patch",
    "rebaseable": false,
    "requested_reviewers": [],
    "requested_teams": [],
    "review_comment_url": "https://api.github.com/repos/PrismarineJS/prismarine-gameplay/pulls/comments{/number}",
    "review_comments": 0,
    "review_comments_url": "https://api.github.com/repos/PrismarineJS/prismarine-gameplay/pulls/93/comments",
    "state": "closed",
    "statuses_url": "https://api.github.com/repos/PrismarineJS/prismarine-gameplay/statuses/848b85ef2e5e5c75c70a456162ac0a4dd08ec953",
    "title": "Bump minecraft-data from 2.221.0 to 3.17.0",
    "updated_at": "2022-11-11T14:10:53Z",
    "url": "https://api.github.com/repos/PrismarineJS/prismarine-gameplay/pulls/93",
    "user": {
        "avatar_url": "https://avatars.githubusercontent.com/in/29110?v=4",
        "events_url": "https://api.github.com/users/dependabot%5Bbot%5D/events{/privacy}",
        "followers_url": "https://api.github.com/users/dependabot%5Bbot%5D/followers",
        "following_url": "https://api.github.com/users/dependabot%5Bbot%5D/following{/other_user}",
        "gists_url": "https://api.github.com/users/dependabot%5Bbot%5D/gists{/gist_id}",
        "gravatar_id": "",
        "html_url": "https://github.com/apps/dependabot",
        "id": 49699333,
        "login": "dependabot[bot]",
        "node_id": "MDM6Qm90NDk2OTkzMzM=",
        "organizations_url": "https://api.github.com/users/dependabot%5Bbot%5D/orgs",
        "received_events_url": "https://api.github.com/users/dependabot%5Bbot%5D/received_events",
        "repos_url": "https://api.github.com/users/dependabot%5Bbot%5D/repos",
        "site_admin": false,
        "starred_url": "https://api.github.com/users/dependabot%5Bbot%5D/starred{/owner}{/repo}",
        "subscriptions_url": "https://api.github.com/users/dependabot%5Bbot%5D/subscriptions",
        "type": "Bot",
        "url": "https://api.github.com/users/dependabot%5Bbot%5D"
    }
}