{
    "_links": {
        "comments": {
            "href": "https://api.github.com/repos/PrismarineJS/bedrock-protocol/issues/136/comments"
        },
        "commits": {
            "href": "https://api.github.com/repos/PrismarineJS/bedrock-protocol/pulls/136/commits"
        },
        "html": {
            "href": "https://github.com/PrismarineJS/bedrock-protocol/pull/136"
        },
        "issue": {
            "href": "https://api.github.com/repos/PrismarineJS/bedrock-protocol/issues/136"
        },
        "review_comment": {
            "href": "https://api.github.com/repos/PrismarineJS/bedrock-protocol/pulls/comments{/number}"
        },
        "review_comments": {
            "href": "https://api.github.com/repos/PrismarineJS/bedrock-protocol/pulls/136/comments"
        },
        "self": {
            "href": "https://api.github.com/repos/PrismarineJS/bedrock-protocol/pulls/136"
        },
        "statuses": {
            "href": "https://api.github.com/repos/PrismarineJS/bedrock-protocol/statuses/06f29e486226b8210810f3d4dec1f01a8507a7cd"
        }
    },
    "active_lock_reason": null,
    "additions": 16,
    "assignee": null,
    "assignees": [],
    "author_association": "MEMBER",
    "auto_merge": null,
    "base": {
        "label": "PrismarineJS:master",
        "ref": "master",
        "repo": {
            "allow_forking": true,
            "archive_url": "https://api.github.com/repos/PrismarineJS/bedrock-protocol/{archive_format}{/ref}",
            "archived": false,
            "assignees_url": "https://api.github.com/repos/PrismarineJS/bedrock-protocol/assignees{/user}",
            "blobs_url": "https://api.github.com/repos/PrismarineJS/bedrock-protocol/git/blobs{/sha}",
            "branches_url": "https://api.github.com/repos/PrismarineJS/bedrock-protocol/branches{/branch}",
            "clone_url": "https://github.com/PrismarineJS/bedrock-protocol.git",
            "collaborators_url": "https://api.github.com/repos/PrismarineJS/bedrock-protocol/collaborators{/collaborator}",
            "comments_url": "https://api.github.com/repos/PrismarineJS/bedrock-protocol/comments{/number}",
            "commits_url": "https://api.github.com/repos/PrismarineJS/bedrock-protocol/commits{/sha}",
            "compare_url": "https://api.github.com/repos/PrismarineJS/bedrock-protocol/compare/{base}...{head}",
            "contents_url": "https://api.github.com/repos/PrismarineJS/bedrock-protocol/contents/{+path}",
            "contributors_url": "https://api.github.com/repos/PrismarineJS/bedrock-protocol/contributors",
            "created_at": "2016-02-13T18:10:23Z",
            "default_branch": "master",
            "deployments_url": "https://api.github.com/repos/PrismarineJS/bedrock-protocol/deployments",
            "description": "Minecraft Bedrock protocol library, with authentication and encryption",
            "disabled": false,
            "downloads_url": "https://api.github.com/repos/PrismarineJS/bedrock-protocol/downloads",
            "events_url": "https://api.github.com/repos/PrismarineJS/bedrock-protocol/events",
            "fork": false,
            "forks": 56,
            "forks_count": 56,
            "forks_url": "https://api.github.com/repos/PrismarineJS/bedrock-protocol/forks",
            "full_name": "PrismarineJS/bedrock-protocol",
            "git_commits_url": "https://api.github.com/repos/PrismarineJS/bedrock-protocol/git/commits{/sha}",
            "git_refs_url": "https://api.github.com/repos/PrismarineJS/bedrock-protocol/git/refs{/sha}",
            "git_tags_url": "https://api.github.com/repos/PrismarineJS/bedrock-protocol/git/tags{/sha}",
            "git_url": "git://github.com/PrismarineJS/bedrock-protocol.git",
            "has_discussions": true,
            "has_downloads": true,
            "has_issues": true,
            "has_pages": false,
            "has_projects": true,
            "has_wiki": true,
            "homepage": "https://prismarinejs.github.io/minecraft-data/?v=bedrock_1.17.10&d=protocol",
            "hooks_url": "https://api.github.com/repos/PrismarineJS/bedrock-protocol/hooks",
            "html_url": "https://github.com/PrismarineJS/bedrock-protocol",
            "id": 51658481,
            "is_template": false,
            "issue_comment_url": "https://api.github.com/repos/PrismarineJS/bedrock-protocol/issues/comments{/number}",
            "issue_events_url": "https://api.github.com/repos/PrismarineJS/bedrock-protocol/issues/events{/number}",
            "issues_url": "https://api.github.com/repos/PrismarineJS/bedrock-protocol/issues{/number}",
            "keys_url": "https://api.github.com/repos/PrismarineJS/bedrock-protocol/keys{/key_id}",
            "labels_url": "https://api.github.com/repos/PrismarineJS/bedrock-protocol/labels{/name}",
            "language": "JavaScript",
            "languages_url": "https://api.github.com/repos/PrismarineJS/bedrock-protocol/languages",
            "license": {
                "key": "mit",
                "name": "MIT License",
                "node_id": "MDc6TGljZW5zZTEz",
                "spdx_id": "MIT",
                "url": "https://api.github.com/licenses/mit"
            },
            "merges_url": "https://api.github.com/repos/PrismarineJS/bedrock-protocol/merges",
            "milestones_url": "https://api.github.com/repos/PrismarineJS/bedrock-protocol/milestones{/number}",
            "mirror_url": null,
            "name": "bedrock-protocol",
            "node_id": "MDEwOlJlcG9zaXRvcnk1MTY1ODQ4MQ==",
            "notifications_url": "https://api.github.com/repos/PrismarineJS/bedrock-protocol/notifications{?since,all,participating}",
            "open_issues": 17,
            "open_issues_count": 17,
            "owner": {
                "avatar_url": "https://avatars.githubusercontent.com/u/11053411?v=4",
                "events_url": "https://api.github.com/users/PrismarineJS/events{/privacy}",
                "followers_url": "https://api.github.com/users/PrismarineJS/followers",
                "following_url": "https://api.github.com/users/PrismarineJS/following{/other_user}",
                "gists_url": "https://api.github.com/users/PrismarineJS/gists{/gist_id}",
                "gravatar_id": "",
                "html_url": "https://github.com/PrismarineJS",
                "id": 11053411,
                "login": "PrismarineJS",
                "node_id": "MDEyOk9yZ2FuaXphdGlvbjExMDUzNDEx",
                "organizations_url": "https://api.github.com/users/PrismarineJS/orgs",
                "received_events_url": "https://api.github.com/users/PrismarineJS/received_events",
                "repos_url": "https://api.github.com/users/PrismarineJS/repos",
                "site_admin": false,
                "starred_url": "https://api.github.com/users/PrismarineJS/starred{/owner}{/repo}",
                "subscriptions_url": "https://api.github.com/users/PrismarineJS/subscriptions",
                "type": "Organization",
                "url": "https://api.github.com/users/PrismarineJS"
            },
            "private": false,
            "pulls_url": "https://api.github.com/repos/PrismarineJS/bedrock-protocol/pulls{/number}",
            "pushed_at": "2023-04-25T11:43:28Z",
            "releases_url": "https://api.github.com/repos/PrismarineJS/bedrock-protocol/releases{/id}",
            "size": 979,
            "ssh_url": "git@github.com:PrismarineJS/bedrock-protocol.git",
            "stargazers_count": 193,
            "stargazers_url": "https://api.github.com/repos/PrismarineJS/bedrock-protocol/stargazers",
            "statuses_url": "https://api.github.com/repos/PrismarineJS/bedrock-protocol/statuses/{sha}",
            "subscribers_url": "https://api.github.com/repos/PrismarineJS/bedrock-protocol/subscribers",
            "subscription_url": "https://api.github.com/repos/PrismarineJS/bedrock-protocol/subscription",
            "svn_url": "https://github.com/PrismarineJS/bedrock-protocol",
            "tags_url": "https://api.github.com/repos/PrismarineJS/bedrock-protocol/tags",
            "teams_url": "https://api.github.com/repos/PrismarineJS/bedrock-protocol/teams",
            "topics": [
                "bedrock",
                "bedrock-edition",
                "bedrock-protocol",
                "minecraft",
                "minecraft-pocket-edition",
                "raknet"
            ],
            "trees_url": "https://api.github.com/repos/PrismarineJS/bedrock-protocol/git/trees{/sha}",
            "updated_at": "2023-04-23T17:00:04Z",
            "url": "https://api.github.com/repos/PrismarineJS/bedrock-protocol",
            "visibility": "public",
            "watchers": 193,
            "watchers_count": 193,
            "web_commit_signoff_required": false
        },
        "sha": "2056b7e00168a8dc44f8193c50d9115d888b8df7",
        "user": {
            "avatar_url": "https://avatars.githubusercontent.com/u/11053411?v=4",
            "events_url": "https://api.github.com/users/PrismarineJS/events{/privacy}",
            "followers_url": "https://api.github.com/users/PrismarineJS/followers",
            "following_url": "https://api.github.com/users/PrismarineJS/following{/other_user}",
            "gists_url": "https://api.github.com/users/PrismarineJS/gists{/gist_id}",
            "gravatar_id": "",
            "html_url": "https://github.com/PrismarineJS",
            "id": 11053411,
            "login": "PrismarineJS",
            "node_id": "MDEyOk9yZ2FuaXphdGlvbjExMDUzNDEx",
            "organizations_url": "https://api.github.com/users/PrismarineJS/orgs",
            "received_events_url": "https://api.github.com/users/PrismarineJS/received_events",
            "repos_url": "https://api.github.com/users/PrismarineJS/repos",
            "site_admin": false,
            "starred_url": "https://api.github.com/users/PrismarineJS/starred{/owner}{/repo}",
            "subscriptions_url": "https://api.github.com/users/PrismarineJS/subscriptions",
            "type": "Organization",
            "url": "https://api.github.com/users/PrismarineJS"
        }
    },
    "body": "Update some examples, remove some leftover dependencies from prismarine-auth move",
    "changed_files": 11,
    "closed_at": "2021-09-18T23:50:44Z",
    "comment_data": [],
    "comment_regular_data": [],
    "comments": 0,
    "comments_url": "https://api.github.com/repos/PrismarineJS/bedrock-protocol/issues/136/comments",
    "commit_data": [
        {
            "author": {
                "avatar_url": "https://avatars.githubusercontent.com/u/13713600?v=4",
                "events_url": "https://api.github.com/users/extremeheat/events{/privacy}",
                "followers_url": "https://api.github.com/users/extremeheat/followers",
                "following_url": "https://api.github.com/users/extremeheat/following{/other_user}",
                "gists_url": "https://api.github.com/users/extremeheat/gists{/gist_id}",
                "gravatar_id": "",
                "html_url": "https://github.com/extremeheat",
                "id": 13713600,
                "login": "extremeheat",
                "node_id": "MDQ6VXNlcjEzNzEzNjAw",
                "organizations_url": "https://api.github.com/users/extremeheat/orgs",
                "received_events_url": "https://api.github.com/users/extremeheat/received_events",
                "repos_url": "https://api.github.com/users/extremeheat/repos",
                "site_admin": false,
                "starred_url": "https://api.github.com/users/extremeheat/starred{/owner}{/repo}",
                "subscriptions_url": "https://api.github.com/users/extremeheat/subscriptions",
                "type": "User",
                "url": "https://api.github.com/users/extremeheat"
            },
            "comments_url": "https://api.github.com/repos/PrismarineJS/bedrock-protocol/commits/86b40d31c4991d2242985d8edc5452d90434a4d4/comments",
            "commit": {
                "author": {
                    "date": "2021-09-17T19:41:18Z",
                    "email": "extreme@protonmail.ch",
                    "name": "extremeheat"
                },
                "comment_count": 0,
                "committer": {
                    "date": "2021-09-17T19:41:18Z",
                    "email": "extreme@protonmail.ch",
                    "name": "extremeheat"
                },
                "message": "Update some examples, cleanup",
                "tree": {
                    "sha": "faa1e71ec39e5b1077b0c6b5a14c683d8af7260d",
                    "url": "https://api.github.com/repos/PrismarineJS/bedrock-protocol/git/trees/faa1e71ec39e5b1077b0c6b5a14c683d8af7260d"
                },
                "url": "https://api.github.com/repos/PrismarineJS/bedrock-protocol/git/commits/86b40d31c4991d2242985d8edc5452d90434a4d4",
                "verification": {
                    "payload": null,
                    "reason": "unsigned",
                    "signature": null,
                    "verified": false
                }
            },
            "committer": {
                "avatar_url": "https://avatars.githubusercontent.com/u/13713600?v=4",
                "events_url": "https://api.github.com/users/extremeheat/events{/privacy}",
                "followers_url": "https://api.github.com/users/extremeheat/followers",
                "following_url": "https://api.github.com/users/extremeheat/following{/other_user}",
                "gists_url": "https://api.github.com/users/extremeheat/gists{/gist_id}",
                "gravatar_id": "",
                "html_url": "https://github.com/extremeheat",
                "id": 13713600,
                "login": "extremeheat",
                "node_id": "MDQ6VXNlcjEzNzEzNjAw",
                "organizations_url": "https://api.github.com/users/extremeheat/orgs",
                "received_events_url": "https://api.github.com/users/extremeheat/received_events",
                "repos_url": "https://api.github.com/users/extremeheat/repos",
                "site_admin": false,
                "starred_url": "https://api.github.com/users/extremeheat/starred{/owner}{/repo}",
                "subscriptions_url": "https://api.github.com/users/extremeheat/subscriptions",
                "type": "User",
                "url": "https://api.github.com/users/extremeheat"
            },
            "html_url": "https://github.com/PrismarineJS/bedrock-protocol/commit/86b40d31c4991d2242985d8edc5452d90434a4d4",
            "node_id": "MDY6Q29tbWl0MzMyMTIxNTc2Ojg2YjQwZDMxYzQ5OTFkMjI0Mjk4NWQ4ZWRjNTQ1MmQ5MDQzNGE0ZDQ=",
            "parents": [
                {
                    "html_url": "https://github.com/PrismarineJS/bedrock-protocol/commit/2056b7e00168a8dc44f8193c50d9115d888b8df7",
                    "sha": "2056b7e00168a8dc44f8193c50d9115d888b8df7",
                    "url": "https://api.github.com/repos/PrismarineJS/bedrock-protocol/commits/2056b7e00168a8dc44f8193c50d9115d888b8df7"
                }
            ],
            "sha": "86b40d31c4991d2242985d8edc5452d90434a4d4",
            "url": "https://api.github.com/repos/PrismarineJS/bedrock-protocol/commits/86b40d31c4991d2242985d8edc5452d90434a4d4"
        },
        {
            "author": {
                "avatar_url": "https://avatars.githubusercontent.com/u/13713600?v=4",
                "events_url": "https://api.github.com/users/extremeheat/events{/privacy}",
                "followers_url": "https://api.github.com/users/extremeheat/followers",
                "following_url": "https://api.github.com/users/extremeheat/following{/other_user}",
                "gists_url": "https://api.github.com/users/extremeheat/gists{/gist_id}",
                "gravatar_id": "",
                "html_url": "https://github.com/extremeheat",
                "id": 13713600,
                "login": "extremeheat",
                "node_id": "MDQ6VXNlcjEzNzEzNjAw",
                "organizations_url": "https://api.github.com/users/extremeheat/orgs",
                "received_events_url": "https://api.github.com/users/extremeheat/received_events",
                "repos_url": "https://api.github.com/users/extremeheat/repos",
                "site_admin": false,
                "starred_url": "https://api.github.com/users/extremeheat/starred{/owner}{/repo}",
                "subscriptions_url": "https://api.github.com/users/extremeheat/subscriptions",
                "type": "User",
                "url": "https://api.github.com/users/extremeheat"
            },
            "comments_url": "https://api.github.com/repos/PrismarineJS/bedrock-protocol/commits/06f29e486226b8210810f3d4dec1f01a8507a7cd/comments",
            "commit": {
                "author": {
                    "date": "2021-09-17T19:42:58Z",
                    "email": "extreme@protonmail.ch",
                    "name": "extremeheat"
                },
                "comment_count": 0,
                "committer": {
                    "date": "2021-09-17T19:42:58Z",
                    "email": "extreme@protonmail.ch",
                    "name": "extremeheat"
                },
                "message": "lint",
                "tree": {
                    "sha": "3066c48cb76a1fb4355dbec8c35a740e0042c280",
                    "url": "https://api.github.com/repos/PrismarineJS/bedrock-protocol/git/trees/3066c48cb76a1fb4355dbec8c35a740e0042c280"
                },
                "url": "https://api.github.com/repos/PrismarineJS/bedrock-protocol/git/commits/06f29e486226b8210810f3d4dec1f01a8507a7cd",
                "verification": {
                    "payload": null,
                    "reason": "unsigned",
                    "signature": null,
                    "verified": false
                }
            },
            "committer": {
                "avatar_url": "https://avatars.githubusercontent.com/u/13713600?v=4",
                "events_url": "https://api.github.com/users/extremeheat/events{/privacy}",
                "followers_url": "https://api.github.com/users/extremeheat/followers",
                "following_url": "https://api.github.com/users/extremeheat/following{/other_user}",
                "gists_url": "https://api.github.com/users/extremeheat/gists{/gist_id}",
                "gravatar_id": "",
                "html_url": "https://github.com/extremeheat",
                "id": 13713600,
                "login": "extremeheat",
                "node_id": "MDQ6VXNlcjEzNzEzNjAw",
                "organizations_url": "https://api.github.com/users/extremeheat/orgs",
                "received_events_url": "https://api.github.com/users/extremeheat/received_events",
                "repos_url": "https://api.github.com/users/extremeheat/repos",
                "site_admin": false,
                "starred_url": "https://api.github.com/users/extremeheat/starred{/owner}{/repo}",
                "subscriptions_url": "https://api.github.com/users/extremeheat/subscriptions",
                "type": "User",
                "url": "https://api.github.com/users/extremeheat"
            },
            "html_url": "https://github.com/PrismarineJS/bedrock-protocol/commit/06f29e486226b8210810f3d4dec1f01a8507a7cd",
            "node_id": "MDY6Q29tbWl0MzMyMTIxNTc2OjA2ZjI5ZTQ4NjIyNmI4MjEwODEwZjNkNGRlYzFmMDFhODUwN2E3Y2Q=",
            "parents": [
                {
                    "html_url": "https://github.com/PrismarineJS/bedrock-protocol/commit/86b40d31c4991d2242985d8edc5452d90434a4d4",
                    "sha": "86b40d31c4991d2242985d8edc5452d90434a4d4",
                    "url": "https://api.github.com/repos/PrismarineJS/bedrock-protocol/commits/86b40d31c4991d2242985d8edc5452d90434a4d4"
                }
            ],
            "sha": "06f29e486226b8210810f3d4dec1f01a8507a7cd",
            "url": "https://api.github.com/repos/PrismarineJS/bedrock-protocol/commits/06f29e486226b8210810f3d4dec1f01a8507a7cd"
        }
    ],
    "commits": 2,
    "commits_url": "https://api.github.com/repos/PrismarineJS/bedrock-protocol/pulls/136/commits",
    "created_at": "2021-09-17T19:42:30Z",
    "deletions": 38,
    "diff_url": "https://github.com/PrismarineJS/bedrock-protocol/pull/136.diff",
    "draft": false,
    "head": {
        "label": "extremeheat:update-examples",
        "ref": "update-examples",
        "repo": {
            "allow_forking": true,
            "archive_url": "https://api.github.com/repos/extremeheat/bedrock-protocol/{archive_format}{/ref}",
            "archived": false,
            "assignees_url": "https://api.github.com/repos/extremeheat/bedrock-protocol/assignees{/user}",
            "blobs_url": "https://api.github.com/repos/extremeheat/bedrock-protocol/git/blobs{/sha}",
            "branches_url": "https://api.github.com/repos/extremeheat/bedrock-protocol/branches{/branch}",
            "clone_url": "https://github.com/extremeheat/bedrock-protocol.git",
            "collaborators_url": "https://api.github.com/repos/extremeheat/bedrock-protocol/collaborators{/collaborator}",
            "comments_url": "https://api.github.com/repos/extremeheat/bedrock-protocol/comments{/number}",
            "commits_url": "https://api.github.com/repos/extremeheat/bedrock-protocol/commits{/sha}",
            "compare_url": "https://api.github.com/repos/extremeheat/bedrock-protocol/compare/{base}...{head}",
            "contents_url": "https://api.github.com/repos/extremeheat/bedrock-protocol/contents/{+path}",
            "contributors_url": "https://api.github.com/repos/extremeheat/bedrock-protocol/contributors",
            "created_at": "2021-01-23T03:48:46Z",
            "default_branch": "master",
            "deployments_url": "https://api.github.com/repos/extremeheat/bedrock-protocol/deployments",
            "description": "Minecraft Bedrock protocol library, with authentication and encryption",
            "disabled": false,
            "downloads_url": "https://api.github.com/repos/extremeheat/bedrock-protocol/downloads",
            "events_url": "https://api.github.com/repos/extremeheat/bedrock-protocol/events",
            "fork": true,
            "forks": 3,
            "forks_count": 3,
            "forks_url": "https://api.github.com/repos/extremeheat/bedrock-protocol/forks",
            "full_name": "extremeheat/bedrock-protocol",
            "git_commits_url": "https://api.github.com/repos/extremeheat/bedrock-protocol/git/commits{/sha}",
            "git_refs_url": "https://api.github.com/repos/extremeheat/bedrock-protocol/git/refs{/sha}",
            "git_tags_url": "https://api.github.com/repos/extremeheat/bedrock-protocol/git/tags{/sha}",
            "git_url": "git://github.com/extremeheat/bedrock-protocol.git",
            "has_discussions": false,
            "has_downloads": true,
            "has_issues": true,
            "has_pages": true,
            "has_projects": true,
            "has_wiki": true,
            "homepage": "",
            "hooks_url": "https://api.github.com/repos/extremeheat/bedrock-protocol/hooks",
            "html_url": "https://github.com/extremeheat/bedrock-protocol",
            "id": 332121576,
            "is_template": false,
            "issue_comment_url": "https://api.github.com/repos/extremeheat/bedrock-protocol/issues/comments{/number}",
            "issue_events_url": "https://api.github.com/repos/extremeheat/bedrock-protocol/issues/events{/number}",
            "issues_url": "https://api.github.com/repos/extremeheat/bedrock-protocol/issues{/number}",
            "keys_url": "https://api.github.com/repos/extremeheat/bedrock-protocol/keys{/key_id}",
            "labels_url": "https://api.github.com/repos/extremeheat/bedrock-protocol/labels{/name}",
            "language": "JavaScript",
            "languages_url": "https://api.github.com/repos/extremeheat/bedrock-protocol/languages",
            "license": {
                "key": "mit",
                "name": "MIT License",
                "node_id": "MDc6TGljZW5zZTEz",
                "spdx_id": "MIT",
                "url": "https://api.github.com/licenses/mit"
            },
            "merges_url": "https://api.github.com/repos/extremeheat/bedrock-protocol/merges",
            "milestones_url": "https://api.github.com/repos/extremeheat/bedrock-protocol/milestones{/number}",
            "mirror_url": null,
            "name": "bedrock-protocol",
            "node_id": "MDEwOlJlcG9zaXRvcnkzMzIxMjE1NzY=",
            "notifications_url": "https://api.github.com/repos/extremeheat/bedrock-protocol/notifications{?since,all,participating}",
            "open_issues": 4,
            "open_issues_count": 4,
            "owner": {
                "avatar_url": "https://avatars.githubusercontent.com/u/13713600?v=4",
                "events_url": "https://api.github.com/users/extremeheat/events{/privacy}",
                "followers_url": "https://api.github.com/users/extremeheat/followers",
                "following_url": "https://api.github.com/users/extremeheat/following{/other_user}",
                "gists_url": "https://api.github.com/users/extremeheat/gists{/gist_id}",
                "gravatar_id": "",
                "html_url": "https://github.com/extremeheat",
                "id": 13713600,
                "login": "extremeheat",
                "node_id": "MDQ6VXNlcjEzNzEzNjAw",
                "organizations_url": "https://api.github.com/users/extremeheat/orgs",
                "received_events_url": "https://api.github.com/users/extremeheat/received_events",
                "repos_url": "https://api.github.com/users/extremeheat/repos",
                "site_admin": false,
                "starred_url": "https://api.github.com/users/extremeheat/starred{/owner}{/repo}",
                "subscriptions_url": "https://api.github.com/users/extremeheat/subscriptions",
                "type": "User",
                "url": "https://api.github.com/users/extremeheat"
            },
            "private": false,
            "pulls_url": "https://api.github.com/repos/extremeheat/bedrock-protocol/pulls{/number}",
            "pushed_at": "2023-04-22T21:51:10Z",
            "releases_url": "https://api.github.com/repos/extremeheat/bedrock-protocol/releases{/id}",
            "size": 1175,
            "ssh_url": "git@github.com:extremeheat/bedrock-protocol.git",
            "stargazers_count": 2,
            "stargazers_url": "https://api.github.com/repos/extremeheat/bedrock-protocol/stargazers",
            "statuses_url": "https://api.github.com/repos/extremeheat/bedrock-protocol/statuses/{sha}",
            "subscribers_url": "https://api.github.com/repos/extremeheat/bedrock-protocol/subscribers",
            "subscription_url": "https://api.github.com/repos/extremeheat/bedrock-protocol/subscription",
            "svn_url": "https://github.com/extremeheat/bedrock-protocol",
            "tags_url": "https://api.github.com/repos/extremeheat/bedrock-protocol/tags",
            "teams_url": "https://api.github.com/repos/extremeheat/bedrock-protocol/teams",
            "topics": [],
            "trees_url": "https://api.github.com/repos/extremeheat/bedrock-protocol/git/trees{/sha}",
            "updated_at": "2022-03-22T21:28:49Z",
            "url": "https://api.github.com/repos/extremeheat/bedrock-protocol",
            "visibility": "public",
            "watchers": 2,
            "watchers_count": 2,
            "web_commit_signoff_required": false
        },
        "sha": "06f29e486226b8210810f3d4dec1f01a8507a7cd",
        "user": {
            "avatar_url": "https://avatars.githubusercontent.com/u/13713600?v=4",
            "events_url": "https://api.github.com/users/extremeheat/events{/privacy}",
            "followers_url": "https://api.github.com/users/extremeheat/followers",
            "following_url": "https://api.github.com/users/extremeheat/following{/other_user}",
            "gists_url": "https://api.github.com/users/extremeheat/gists{/gist_id}",
            "gravatar_id": "",
            "html_url": "https://github.com/extremeheat",
            "id": 13713600,
            "login": "extremeheat",
            "node_id": "MDQ6VXNlcjEzNzEzNjAw",
            "organizations_url": "https://api.github.com/users/extremeheat/orgs",
            "received_events_url": "https://api.github.com/users/extremeheat/received_events",
            "repos_url": "https://api.github.com/users/extremeheat/repos",
            "site_admin": false,
            "starred_url": "https://api.github.com/users/extremeheat/starred{/owner}{/repo}",
            "subscriptions_url": "https://api.github.com/users/extremeheat/subscriptions",
            "type": "User",
            "url": "https://api.github.com/users/extremeheat"
        }
    },
    "html_url": "https://github.com/PrismarineJS/bedrock-protocol/pull/136",
    "id": 736631629,
    "issue_url": "https://api.github.com/repos/PrismarineJS/bedrock-protocol/issues/136",
    "labels": [],
    "locked": false,
    "maintainer_can_modify": false,
    "merge_commit_sha": "1f7e94e5db4f13c2a4e5af04344e81230471519c",
    "mergeable": null,
    "mergeable_state": "unknown",
    "merged": true,
    "merged_at": "2021-09-18T23:50:44Z",
    "merged_by": {
        "avatar_url": "https://avatars.githubusercontent.com/u/13713600?v=4",
        "events_url": "https://api.github.com/users/extremeheat/events{/privacy}",
        "followers_url": "https://api.github.com/users/extremeheat/followers",
        "following_url": "https://api.github.com/users/extremeheat/following{/other_user}",
        "gists_url": "https://api.github.com/users/extremeheat/gists{/gist_id}",
        "gravatar_id": "",
        "html_url": "https://github.com/extremeheat",
        "id": 13713600,
        "login": "extremeheat",
        "node_id": "MDQ6VXNlcjEzNzEzNjAw",
        "organizations_url": "https://api.github.com/users/extremeheat/orgs",
        "received_events_url": "https://api.github.com/users/extremeheat/received_events",
        "repos_url": "https://api.github.com/users/extremeheat/repos",
        "site_admin": false,
        "starred_url": "https://api.github.com/users/extremeheat/starred{/owner}{/repo}",
        "subscriptions_url": "https://api.github.com/users/extremeheat/subscriptions",
        "type": "User",
        "url": "https://api.github.com/users/extremeheat"
    },
    "milestone": null,
    "node_id": "PR_kwDOAxQ-8c4r6BtN",
    "number": 136,
    "patch_url": "https://github.com/PrismarineJS/bedrock-protocol/pull/136.patch",
    "rebaseable": null,
    "requested_reviewers": [],
    "requested_teams": [],
    "review_comment_url": "https://api.github.com/repos/PrismarineJS/bedrock-protocol/pulls/comments{/number}",
    "review_comments": 0,
    "review_comments_url": "https://api.github.com/repos/PrismarineJS/bedrock-protocol/pulls/136/comments",
    "state": "closed",
    "statuses_url": "https://api.github.com/repos/PrismarineJS/bedrock-protocol/statuses/06f29e486226b8210810f3d4dec1f01a8507a7cd",
    "title": "Update some examples, cleanup",
    "updated_at": "2021-09-18T23:50:53Z",
    "url": "https://api.github.com/repos/PrismarineJS/bedrock-protocol/pulls/136",
    "user": {
        "avatar_url": "https://avatars.githubusercontent.com/u/13713600?v=4",
        "events_url": "https://api.github.com/users/extremeheat/events{/privacy}",
        "followers_url": "https://api.github.com/users/extremeheat/followers",
        "following_url": "https://api.github.com/users/extremeheat/following{/other_user}",
        "gists_url": "https://api.github.com/users/extremeheat/gists{/gist_id}",
        "gravatar_id": "",
        "html_url": "https://github.com/extremeheat",
        "id": 13713600,
        "login": "extremeheat",
        "node_id": "MDQ6VXNlcjEzNzEzNjAw",
        "organizations_url": "https://api.github.com/users/extremeheat/orgs",
        "received_events_url": "https://api.github.com/users/extremeheat/received_events",
        "repos_url": "https://api.github.com/users/extremeheat/repos",
        "site_admin": false,
        "starred_url": "https://api.github.com/users/extremeheat/starred{/owner}{/repo}",
        "subscriptions_url": "https://api.github.com/users/extremeheat/subscriptions",
        "type": "User",
        "url": "https://api.github.com/users/extremeheat"
    }
}