{
    "_links": {
        "comments": {
            "href": "https://api.github.com/repos/PrismarineJS/bedrock-protocol/issues/265/comments"
        },
        "commits": {
            "href": "https://api.github.com/repos/PrismarineJS/bedrock-protocol/pulls/265/commits"
        },
        "html": {
            "href": "https://github.com/PrismarineJS/bedrock-protocol/pull/265"
        },
        "issue": {
            "href": "https://api.github.com/repos/PrismarineJS/bedrock-protocol/issues/265"
        },
        "review_comment": {
            "href": "https://api.github.com/repos/PrismarineJS/bedrock-protocol/pulls/comments{/number}"
        },
        "review_comments": {
            "href": "https://api.github.com/repos/PrismarineJS/bedrock-protocol/pulls/265/comments"
        },
        "self": {
            "href": "https://api.github.com/repos/PrismarineJS/bedrock-protocol/pulls/265"
        },
        "statuses": {
            "href": "https://api.github.com/repos/PrismarineJS/bedrock-protocol/statuses/7dd447a8c429391059495624fb84682061d00eb6"
        }
    },
    "active_lock_reason": null,
    "additions": 7,
    "assignee": null,
    "assignees": [],
    "author_association": "MEMBER",
    "auto_merge": null,
    "base": {
        "label": "PrismarineJS:master",
        "ref": "master",
        "repo": {
            "allow_forking": true,
            "archive_url": "https://api.github.com/repos/PrismarineJS/bedrock-protocol/{archive_format}{/ref}",
            "archived": false,
            "assignees_url": "https://api.github.com/repos/PrismarineJS/bedrock-protocol/assignees{/user}",
            "blobs_url": "https://api.github.com/repos/PrismarineJS/bedrock-protocol/git/blobs{/sha}",
            "branches_url": "https://api.github.com/repos/PrismarineJS/bedrock-protocol/branches{/branch}",
            "clone_url": "https://github.com/PrismarineJS/bedrock-protocol.git",
            "collaborators_url": "https://api.github.com/repos/PrismarineJS/bedrock-protocol/collaborators{/collaborator}",
            "comments_url": "https://api.github.com/repos/PrismarineJS/bedrock-protocol/comments{/number}",
            "commits_url": "https://api.github.com/repos/PrismarineJS/bedrock-protocol/commits{/sha}",
            "compare_url": "https://api.github.com/repos/PrismarineJS/bedrock-protocol/compare/{base}...{head}",
            "contents_url": "https://api.github.com/repos/PrismarineJS/bedrock-protocol/contents/{+path}",
            "contributors_url": "https://api.github.com/repos/PrismarineJS/bedrock-protocol/contributors",
            "created_at": "2016-02-13T18:10:23Z",
            "default_branch": "master",
            "deployments_url": "https://api.github.com/repos/PrismarineJS/bedrock-protocol/deployments",
            "description": "Minecraft Bedrock protocol library, with authentication and encryption",
            "disabled": false,
            "downloads_url": "https://api.github.com/repos/PrismarineJS/bedrock-protocol/downloads",
            "events_url": "https://api.github.com/repos/PrismarineJS/bedrock-protocol/events",
            "fork": false,
            "forks": 56,
            "forks_count": 56,
            "forks_url": "https://api.github.com/repos/PrismarineJS/bedrock-protocol/forks",
            "full_name": "PrismarineJS/bedrock-protocol",
            "git_commits_url": "https://api.github.com/repos/PrismarineJS/bedrock-protocol/git/commits{/sha}",
            "git_refs_url": "https://api.github.com/repos/PrismarineJS/bedrock-protocol/git/refs{/sha}",
            "git_tags_url": "https://api.github.com/repos/PrismarineJS/bedrock-protocol/git/tags{/sha}",
            "git_url": "git://github.com/PrismarineJS/bedrock-protocol.git",
            "has_discussions": true,
            "has_downloads": true,
            "has_issues": true,
            "has_pages": false,
            "has_projects": true,
            "has_wiki": true,
            "homepage": "https://prismarinejs.github.io/minecraft-data/?v=bedrock_1.17.10&d=protocol",
            "hooks_url": "https://api.github.com/repos/PrismarineJS/bedrock-protocol/hooks",
            "html_url": "https://github.com/PrismarineJS/bedrock-protocol",
            "id": 51658481,
            "is_template": false,
            "issue_comment_url": "https://api.github.com/repos/PrismarineJS/bedrock-protocol/issues/comments{/number}",
            "issue_events_url": "https://api.github.com/repos/PrismarineJS/bedrock-protocol/issues/events{/number}",
            "issues_url": "https://api.github.com/repos/PrismarineJS/bedrock-protocol/issues{/number}",
            "keys_url": "https://api.github.com/repos/PrismarineJS/bedrock-protocol/keys{/key_id}",
            "labels_url": "https://api.github.com/repos/PrismarineJS/bedrock-protocol/labels{/name}",
            "language": "JavaScript",
            "languages_url": "https://api.github.com/repos/PrismarineJS/bedrock-protocol/languages",
            "license": {
                "key": "mit",
                "name": "MIT License",
                "node_id": "MDc6TGljZW5zZTEz",
                "spdx_id": "MIT",
                "url": "https://api.github.com/licenses/mit"
            },
            "merges_url": "https://api.github.com/repos/PrismarineJS/bedrock-protocol/merges",
            "milestones_url": "https://api.github.com/repos/PrismarineJS/bedrock-protocol/milestones{/number}",
            "mirror_url": null,
            "name": "bedrock-protocol",
            "node_id": "MDEwOlJlcG9zaXRvcnk1MTY1ODQ4MQ==",
            "notifications_url": "https://api.github.com/repos/PrismarineJS/bedrock-protocol/notifications{?since,all,participating}",
            "open_issues": 17,
            "open_issues_count": 17,
            "owner": {
                "avatar_url": "https://avatars.githubusercontent.com/u/11053411?v=4",
                "events_url": "https://api.github.com/users/PrismarineJS/events{/privacy}",
                "followers_url": "https://api.github.com/users/PrismarineJS/followers",
                "following_url": "https://api.github.com/users/PrismarineJS/following{/other_user}",
                "gists_url": "https://api.github.com/users/PrismarineJS/gists{/gist_id}",
                "gravatar_id": "",
                "html_url": "https://github.com/PrismarineJS",
                "id": 11053411,
                "login": "PrismarineJS",
                "node_id": "MDEyOk9yZ2FuaXphdGlvbjExMDUzNDEx",
                "organizations_url": "https://api.github.com/users/PrismarineJS/orgs",
                "received_events_url": "https://api.github.com/users/PrismarineJS/received_events",
                "repos_url": "https://api.github.com/users/PrismarineJS/repos",
                "site_admin": false,
                "starred_url": "https://api.github.com/users/PrismarineJS/starred{/owner}{/repo}",
                "subscriptions_url": "https://api.github.com/users/PrismarineJS/subscriptions",
                "type": "Organization",
                "url": "https://api.github.com/users/PrismarineJS"
            },
            "private": false,
            "pulls_url": "https://api.github.com/repos/PrismarineJS/bedrock-protocol/pulls{/number}",
            "pushed_at": "2023-04-25T11:43:28Z",
            "releases_url": "https://api.github.com/repos/PrismarineJS/bedrock-protocol/releases{/id}",
            "size": 979,
            "ssh_url": "git@github.com:PrismarineJS/bedrock-protocol.git",
            "stargazers_count": 193,
            "stargazers_url": "https://api.github.com/repos/PrismarineJS/bedrock-protocol/stargazers",
            "statuses_url": "https://api.github.com/repos/PrismarineJS/bedrock-protocol/statuses/{sha}",
            "subscribers_url": "https://api.github.com/repos/PrismarineJS/bedrock-protocol/subscribers",
            "subscription_url": "https://api.github.com/repos/PrismarineJS/bedrock-protocol/subscription",
            "svn_url": "https://github.com/PrismarineJS/bedrock-protocol",
            "tags_url": "https://api.github.com/repos/PrismarineJS/bedrock-protocol/tags",
            "teams_url": "https://api.github.com/repos/PrismarineJS/bedrock-protocol/teams",
            "topics": [
                "bedrock",
                "bedrock-edition",
                "bedrock-protocol",
                "minecraft",
                "minecraft-pocket-edition",
                "raknet"
            ],
            "trees_url": "https://api.github.com/repos/PrismarineJS/bedrock-protocol/git/trees{/sha}",
            "updated_at": "2023-04-23T17:00:04Z",
            "url": "https://api.github.com/repos/PrismarineJS/bedrock-protocol",
            "visibility": "public",
            "watchers": 193,
            "watchers_count": 193,
            "web_commit_signoff_required": false
        },
        "sha": "f5c91ba1c920860162389eb2fcbd5871c4b6467c",
        "user": {
            "avatar_url": "https://avatars.githubusercontent.com/u/11053411?v=4",
            "events_url": "https://api.github.com/users/PrismarineJS/events{/privacy}",
            "followers_url": "https://api.github.com/users/PrismarineJS/followers",
            "following_url": "https://api.github.com/users/PrismarineJS/following{/other_user}",
            "gists_url": "https://api.github.com/users/PrismarineJS/gists{/gist_id}",
            "gravatar_id": "",
            "html_url": "https://github.com/PrismarineJS",
            "id": 11053411,
            "login": "PrismarineJS",
            "node_id": "MDEyOk9yZ2FuaXphdGlvbjExMDUzNDEx",
            "organizations_url": "https://api.github.com/users/PrismarineJS/orgs",
            "received_events_url": "https://api.github.com/users/PrismarineJS/received_events",
            "repos_url": "https://api.github.com/users/PrismarineJS/repos",
            "site_admin": false,
            "starred_url": "https://api.github.com/users/PrismarineJS/starred{/owner}{/repo}",
            "subscriptions_url": "https://api.github.com/users/PrismarineJS/subscriptions",
            "type": "Organization",
            "url": "https://api.github.com/users/PrismarineJS"
        }
    },
    "body": null,
    "changed_files": 2,
    "closed_at": "2022-08-24T08:45:45Z",
    "comment_data": [],
    "comment_regular_data": [],
    "comments": 0,
    "comments_url": "https://api.github.com/repos/PrismarineJS/bedrock-protocol/issues/265/comments",
    "commit_data": [
        {
            "author": {
                "avatar_url": "https://avatars.githubusercontent.com/u/13713600?v=4",
                "events_url": "https://api.github.com/users/extremeheat/events{/privacy}",
                "followers_url": "https://api.github.com/users/extremeheat/followers",
                "following_url": "https://api.github.com/users/extremeheat/following{/other_user}",
                "gists_url": "https://api.github.com/users/extremeheat/gists{/gist_id}",
                "gravatar_id": "",
                "html_url": "https://github.com/extremeheat",
                "id": 13713600,
                "login": "extremeheat",
                "node_id": "MDQ6VXNlcjEzNzEzNjAw",
                "organizations_url": "https://api.github.com/users/extremeheat/orgs",
                "received_events_url": "https://api.github.com/users/extremeheat/received_events",
                "repos_url": "https://api.github.com/users/extremeheat/repos",
                "site_admin": false,
                "starred_url": "https://api.github.com/users/extremeheat/starred{/owner}{/repo}",
                "subscriptions_url": "https://api.github.com/users/extremeheat/subscriptions",
                "type": "User",
                "url": "https://api.github.com/users/extremeheat"
            },
            "comments_url": "https://api.github.com/repos/PrismarineJS/bedrock-protocol/commits/95e505e9975925ca9f68ac49884c5a3d02dfcf8b/comments",
            "commit": {
                "author": {
                    "date": "2022-08-24T04:40:41Z",
                    "email": "extreme@protonmail.ch",
                    "name": "extremeheat"
                },
                "comment_count": 0,
                "committer": {
                    "date": "2022-08-24T04:40:41Z",
                    "email": "noreply@github.com",
                    "name": "GitHub"
                },
                "message": "Update package.json",
                "tree": {
                    "sha": "a04d581bccda788bc5f52c01329113460ff43afc",
                    "url": "https://api.github.com/repos/PrismarineJS/bedrock-protocol/git/trees/a04d581bccda788bc5f52c01329113460ff43afc"
                },
                "url": "https://api.github.com/repos/PrismarineJS/bedrock-protocol/git/commits/95e505e9975925ca9f68ac49884c5a3d02dfcf8b",
                "verification": {
                    "payload": "tree a04d581bccda788bc5f52c01329113460ff43afc\nparent ce06762dce92079426bdc99e0fc93dfe827faf27\nauthor extremeheat <extreme@protonmail.ch> 1661316041 -0400\ncommitter GitHub <noreply@github.com> 1661316041 -0400\n\nUpdate package.json",
                    "reason": "valid",
                    "signature": "-----BEGIN PGP SIGNATURE-----\n\nwsBcBAABCAAQBQJjBavJCRBK7hj4Ov3rIwAA6gAIAEa4VaqDb823mN1OCBhf/0TA\nPdteqJNLjgcmkPM7DBwS15afjiQB7sdWeIbFNvrHtztThAMpprtvxB/enSyBUPFM\n7YQZlMeZIE9UCqxCX2QQsAHxJ0IupF6+J7e2JLBHZaZmmFIxdc8cpdjJUWwUGfQY\nP12nQSFPhNH6XtOZ8fGR1IgUZFkFtgbyT7XpJHaJJq5ux/82+GHAiDaDAjtdMVo7\ntHPgzUOKh7m2J6+uxm8w1zuQnBR5cevnd3HNui5+OnkBiVhT4ojiu2ZKuv5G/x/Q\n+NDZO3F7QbFge/ycXJpLhDlRbwZILcTFWptn8zJCb682iWGJNx932itX56UW3kA=\n=PJGx\n-----END PGP SIGNATURE-----\n",
                    "verified": true
                }
            },
            "committer": {
                "avatar_url": "https://avatars.githubusercontent.com/u/19864447?v=4",
                "events_url": "https://api.github.com/users/web-flow/events{/privacy}",
                "followers_url": "https://api.github.com/users/web-flow/followers",
                "following_url": "https://api.github.com/users/web-flow/following{/other_user}",
                "gists_url": "https://api.github.com/users/web-flow/gists{/gist_id}",
                "gravatar_id": "",
                "html_url": "https://github.com/web-flow",
                "id": 19864447,
                "login": "web-flow",
                "node_id": "MDQ6VXNlcjE5ODY0NDQ3",
                "organizations_url": "https://api.github.com/users/web-flow/orgs",
                "received_events_url": "https://api.github.com/users/web-flow/received_events",
                "repos_url": "https://api.github.com/users/web-flow/repos",
                "site_admin": false,
                "starred_url": "https://api.github.com/users/web-flow/starred{/owner}{/repo}",
                "subscriptions_url": "https://api.github.com/users/web-flow/subscriptions",
                "type": "User",
                "url": "https://api.github.com/users/web-flow"
            },
            "html_url": "https://github.com/PrismarineJS/bedrock-protocol/commit/95e505e9975925ca9f68ac49884c5a3d02dfcf8b",
            "node_id": "C_kwDOAxQ-8doAKDk1ZTUwNWU5OTc1OTI1Y2E5ZjY4YWM0OTg4NGM1YTNkMDJkZmNmOGI",
            "parents": [
                {
                    "html_url": "https://github.com/PrismarineJS/bedrock-protocol/commit/ce06762dce92079426bdc99e0fc93dfe827faf27",
                    "sha": "ce06762dce92079426bdc99e0fc93dfe827faf27",
                    "url": "https://api.github.com/repos/PrismarineJS/bedrock-protocol/commits/ce06762dce92079426bdc99e0fc93dfe827faf27"
                }
            ],
            "sha": "95e505e9975925ca9f68ac49884c5a3d02dfcf8b",
            "url": "https://api.github.com/repos/PrismarineJS/bedrock-protocol/commits/95e505e9975925ca9f68ac49884c5a3d02dfcf8b"
        },
        {
            "author": {
                "avatar_url": "https://avatars.githubusercontent.com/u/13713600?v=4",
                "events_url": "https://api.github.com/users/extremeheat/events{/privacy}",
                "followers_url": "https://api.github.com/users/extremeheat/followers",
                "following_url": "https://api.github.com/users/extremeheat/following{/other_user}",
                "gists_url": "https://api.github.com/users/extremeheat/gists{/gist_id}",
                "gravatar_id": "",
                "html_url": "https://github.com/extremeheat",
                "id": 13713600,
                "login": "extremeheat",
                "node_id": "MDQ6VXNlcjEzNzEzNjAw",
                "organizations_url": "https://api.github.com/users/extremeheat/orgs",
                "received_events_url": "https://api.github.com/users/extremeheat/received_events",
                "repos_url": "https://api.github.com/users/extremeheat/repos",
                "site_admin": false,
                "starred_url": "https://api.github.com/users/extremeheat/starred{/owner}{/repo}",
                "subscriptions_url": "https://api.github.com/users/extremeheat/subscriptions",
                "type": "User",
                "url": "https://api.github.com/users/extremeheat"
            },
            "comments_url": "https://api.github.com/repos/PrismarineJS/bedrock-protocol/commits/7dd447a8c429391059495624fb84682061d00eb6/comments",
            "commit": {
                "author": {
                    "date": "2022-08-24T04:50:40Z",
                    "email": "extreme@protonmail.ch",
                    "name": "extremeheat"
                },
                "comment_count": 0,
                "committer": {
                    "date": "2022-08-24T04:50:40Z",
                    "email": "noreply@github.com",
                    "name": "GitHub"
                },
                "message": "Update HISTORY.md",
                "tree": {
                    "sha": "c9e496b64603111d2752df6ea651949b413f734e",
                    "url": "https://api.github.com/repos/PrismarineJS/bedrock-protocol/git/trees/c9e496b64603111d2752df6ea651949b413f734e"
                },
                "url": "https://api.github.com/repos/PrismarineJS/bedrock-protocol/git/commits/7dd447a8c429391059495624fb84682061d00eb6",
                "verification": {
                    "payload": "tree c9e496b64603111d2752df6ea651949b413f734e\nparent 95e505e9975925ca9f68ac49884c5a3d02dfcf8b\nauthor extremeheat <extreme@protonmail.ch> 1661316640 -0400\ncommitter GitHub <noreply@github.com> 1661316640 -0400\n\nUpdate HISTORY.md",
                    "reason": "valid",
                    "signature": "-----BEGIN PGP SIGNATURE-----\n\nwsBcBAABCAAQBQJjBa4gCRBK7hj4Ov3rIwAAqKMIAJyGvLy9iKldAcoaD4s14xfy\naOiOUiNIPWBNvtYX065mMn/M79n2Ep2zOYs3el+ruQQyJvIFEpiovZSK0/AWOQAc\nJhYtobbVutPbSV6twPWpjkE9lHeJEcO63ggF/a79gtpziC8grjrHBhZsoPFfy+zH\nCih5yr8MYpqUQxyLNH1h0T6b51waBTLlBRUk2fpmnRU3SaULtrQ0l8+m+SuTtWSS\nqiwxwNMh06jvFP/dPhL67QRNU3n4fBm57fC9gxG5A7rZSPLvNoAMGSwwneb03T1K\nXWgv6QAcViDpvKWJs+0Q/0l4Ahv/vjAV5sJju8ETRByp3EpQTnqwclWDBoXssOo=\n=5mj7\n-----END PGP SIGNATURE-----\n",
                    "verified": true
                }
            },
            "committer": {
                "avatar_url": "https://avatars.githubusercontent.com/u/19864447?v=4",
                "events_url": "https://api.github.com/users/web-flow/events{/privacy}",
                "followers_url": "https://api.github.com/users/web-flow/followers",
                "following_url": "https://api.github.com/users/web-flow/following{/other_user}",
                "gists_url": "https://api.github.com/users/web-flow/gists{/gist_id}",
                "gravatar_id": "",
                "html_url": "https://github.com/web-flow",
                "id": 19864447,
                "login": "web-flow",
                "node_id": "MDQ6VXNlcjE5ODY0NDQ3",
                "organizations_url": "https://api.github.com/users/web-flow/orgs",
                "received_events_url": "https://api.github.com/users/web-flow/received_events",
                "repos_url": "https://api.github.com/users/web-flow/repos",
                "site_admin": false,
                "starred_url": "https://api.github.com/users/web-flow/starred{/owner}{/repo}",
                "subscriptions_url": "https://api.github.com/users/web-flow/subscriptions",
                "type": "User",
                "url": "https://api.github.com/users/web-flow"
            },
            "html_url": "https://github.com/PrismarineJS/bedrock-protocol/commit/7dd447a8c429391059495624fb84682061d00eb6",
            "node_id": "C_kwDOAxQ-8doAKDdkZDQ0N2E4YzQyOTM5MTA1OTQ5NTYyNGZiODQ2ODIwNjFkMDBlYjY",
            "parents": [
                {
                    "html_url": "https://github.com/PrismarineJS/bedrock-protocol/commit/95e505e9975925ca9f68ac49884c5a3d02dfcf8b",
                    "sha": "95e505e9975925ca9f68ac49884c5a3d02dfcf8b",
                    "url": "https://api.github.com/repos/PrismarineJS/bedrock-protocol/commits/95e505e9975925ca9f68ac49884c5a3d02dfcf8b"
                }
            ],
            "sha": "7dd447a8c429391059495624fb84682061d00eb6",
            "url": "https://api.github.com/repos/PrismarineJS/bedrock-protocol/commits/7dd447a8c429391059495624fb84682061d00eb6"
        }
    ],
    "commits": 2,
    "commits_url": "https://api.github.com/repos/PrismarineJS/bedrock-protocol/pulls/265/commits",
    "created_at": "2022-08-24T04:50:53Z",
    "deletions": 1,
    "diff_url": "https://github.com/PrismarineJS/bedrock-protocol/pull/265.diff",
    "draft": false,
    "head": {
        "label": "PrismarineJS:r3.17.0",
        "ref": "r3.17.0",
        "repo": {
            "allow_forking": true,
            "archive_url": "https://api.github.com/repos/PrismarineJS/bedrock-protocol/{archive_format}{/ref}",
            "archived": false,
            "assignees_url": "https://api.github.com/repos/PrismarineJS/bedrock-protocol/assignees{/user}",
            "blobs_url": "https://api.github.com/repos/PrismarineJS/bedrock-protocol/git/blobs{/sha}",
            "branches_url": "https://api.github.com/repos/PrismarineJS/bedrock-protocol/branches{/branch}",
            "clone_url": "https://github.com/PrismarineJS/bedrock-protocol.git",
            "collaborators_url": "https://api.github.com/repos/PrismarineJS/bedrock-protocol/collaborators{/collaborator}",
            "comments_url": "https://api.github.com/repos/PrismarineJS/bedrock-protocol/comments{/number}",
            "commits_url": "https://api.github.com/repos/PrismarineJS/bedrock-protocol/commits{/sha}",
            "compare_url": "https://api.github.com/repos/PrismarineJS/bedrock-protocol/compare/{base}...{head}",
            "contents_url": "https://api.github.com/repos/PrismarineJS/bedrock-protocol/contents/{+path}",
            "contributors_url": "https://api.github.com/repos/PrismarineJS/bedrock-protocol/contributors",
            "created_at": "2016-02-13T18:10:23Z",
            "default_branch": "master",
            "deployments_url": "https://api.github.com/repos/PrismarineJS/bedrock-protocol/deployments",
            "description": "Minecraft Bedrock protocol library, with authentication and encryption",
            "disabled": false,
            "downloads_url": "https://api.github.com/repos/PrismarineJS/bedrock-protocol/downloads",
            "events_url": "https://api.github.com/repos/PrismarineJS/bedrock-protocol/events",
            "fork": false,
            "forks": 56,
            "forks_count": 56,
            "forks_url": "https://api.github.com/repos/PrismarineJS/bedrock-protocol/forks",
            "full_name": "PrismarineJS/bedrock-protocol",
            "git_commits_url": "https://api.github.com/repos/PrismarineJS/bedrock-protocol/git/commits{/sha}",
            "git_refs_url": "https://api.github.com/repos/PrismarineJS/bedrock-protocol/git/refs{/sha}",
            "git_tags_url": "https://api.github.com/repos/PrismarineJS/bedrock-protocol/git/tags{/sha}",
            "git_url": "git://github.com/PrismarineJS/bedrock-protocol.git",
            "has_discussions": true,
            "has_downloads": true,
            "has_issues": true,
            "has_pages": false,
            "has_projects": true,
            "has_wiki": true,
            "homepage": "https://prismarinejs.github.io/minecraft-data/?v=bedrock_1.17.10&d=protocol",
            "hooks_url": "https://api.github.com/repos/PrismarineJS/bedrock-protocol/hooks",
            "html_url": "https://github.com/PrismarineJS/bedrock-protocol",
            "id": 51658481,
            "is_template": false,
            "issue_comment_url": "https://api.github.com/repos/PrismarineJS/bedrock-protocol/issues/comments{/number}",
            "issue_events_url": "https://api.github.com/repos/PrismarineJS/bedrock-protocol/issues/events{/number}",
            "issues_url": "https://api.github.com/repos/PrismarineJS/bedrock-protocol/issues{/number}",
            "keys_url": "https://api.github.com/repos/PrismarineJS/bedrock-protocol/keys{/key_id}",
            "labels_url": "https://api.github.com/repos/PrismarineJS/bedrock-protocol/labels{/name}",
            "language": "JavaScript",
            "languages_url": "https://api.github.com/repos/PrismarineJS/bedrock-protocol/languages",
            "license": {
                "key": "mit",
                "name": "MIT License",
                "node_id": "MDc6TGljZW5zZTEz",
                "spdx_id": "MIT",
                "url": "https://api.github.com/licenses/mit"
            },
            "merges_url": "https://api.github.com/repos/PrismarineJS/bedrock-protocol/merges",
            "milestones_url": "https://api.github.com/repos/PrismarineJS/bedrock-protocol/milestones{/number}",
            "mirror_url": null,
            "name": "bedrock-protocol",
            "node_id": "MDEwOlJlcG9zaXRvcnk1MTY1ODQ4MQ==",
            "notifications_url": "https://api.github.com/repos/PrismarineJS/bedrock-protocol/notifications{?since,all,participating}",
            "open_issues": 17,
            "open_issues_count": 17,
            "owner": {
                "avatar_url": "https://avatars.githubusercontent.com/u/11053411?v=4",
                "events_url": "https://api.github.com/users/PrismarineJS/events{/privacy}",
                "followers_url": "https://api.github.com/users/PrismarineJS/followers",
                "following_url": "https://api.github.com/users/PrismarineJS/following{/other_user}",
                "gists_url": "https://api.github.com/users/PrismarineJS/gists{/gist_id}",
                "gravatar_id": "",
                "html_url": "https://github.com/PrismarineJS",
                "id": 11053411,
                "login": "PrismarineJS",
                "node_id": "MDEyOk9yZ2FuaXphdGlvbjExMDUzNDEx",
                "organizations_url": "https://api.github.com/users/PrismarineJS/orgs",
                "received_events_url": "https://api.github.com/users/PrismarineJS/received_events",
                "repos_url": "https://api.github.com/users/PrismarineJS/repos",
                "site_admin": false,
                "starred_url": "https://api.github.com/users/PrismarineJS/starred{/owner}{/repo}",
                "subscriptions_url": "https://api.github.com/users/PrismarineJS/subscriptions",
                "type": "Organization",
                "url": "https://api.github.com/users/PrismarineJS"
            },
            "private": false,
            "pulls_url": "https://api.github.com/repos/PrismarineJS/bedrock-protocol/pulls{/number}",
            "pushed_at": "2023-04-25T11:43:28Z",
            "releases_url": "https://api.github.com/repos/PrismarineJS/bedrock-protocol/releases{/id}",
            "size": 979,
            "ssh_url": "git@github.com:PrismarineJS/bedrock-protocol.git",
            "stargazers_count": 193,
            "stargazers_url": "https://api.github.com/repos/PrismarineJS/bedrock-protocol/stargazers",
            "statuses_url": "https://api.github.com/repos/PrismarineJS/bedrock-protocol/statuses/{sha}",
            "subscribers_url": "https://api.github.com/repos/PrismarineJS/bedrock-protocol/subscribers",
            "subscription_url": "https://api.github.com/repos/PrismarineJS/bedrock-protocol/subscription",
            "svn_url": "https://github.com/PrismarineJS/bedrock-protocol",
            "tags_url": "https://api.github.com/repos/PrismarineJS/bedrock-protocol/tags",
            "teams_url": "https://api.github.com/repos/PrismarineJS/bedrock-protocol/teams",
            "topics": [
                "bedrock",
                "bedrock-edition",
                "bedrock-protocol",
                "minecraft",
                "minecraft-pocket-edition",
                "raknet"
            ],
            "trees_url": "https://api.github.com/repos/PrismarineJS/bedrock-protocol/git/trees{/sha}",
            "updated_at": "2023-04-23T17:00:04Z",
            "url": "https://api.github.com/repos/PrismarineJS/bedrock-protocol",
            "visibility": "public",
            "watchers": 193,
            "watchers_count": 193,
            "web_commit_signoff_required": false
        },
        "sha": "7dd447a8c429391059495624fb84682061d00eb6",
        "user": {
            "avatar_url": "https://avatars.githubusercontent.com/u/11053411?v=4",
            "events_url": "https://api.github.com/users/PrismarineJS/events{/privacy}",
            "followers_url": "https://api.github.com/users/PrismarineJS/followers",
            "following_url": "https://api.github.com/users/PrismarineJS/following{/other_user}",
            "gists_url": "https://api.github.com/users/PrismarineJS/gists{/gist_id}",
            "gravatar_id": "",
            "html_url": "https://github.com/PrismarineJS",
            "id": 11053411,
            "login": "PrismarineJS",
            "node_id": "MDEyOk9yZ2FuaXphdGlvbjExMDUzNDEx",
            "organizations_url": "https://api.github.com/users/PrismarineJS/orgs",
            "received_events_url": "https://api.github.com/users/PrismarineJS/received_events",
            "repos_url": "https://api.github.com/users/PrismarineJS/repos",
            "site_admin": false,
            "starred_url": "https://api.github.com/users/PrismarineJS/starred{/owner}{/repo}",
            "subscriptions_url": "https://api.github.com/users/PrismarineJS/subscriptions",
            "type": "Organization",
            "url": "https://api.github.com/users/PrismarineJS"
        }
    },
    "html_url": "https://github.com/PrismarineJS/bedrock-protocol/pull/265",
    "id": 1034973281,
    "issue_url": "https://api.github.com/repos/PrismarineJS/bedrock-protocol/issues/265",
    "labels": [],
    "locked": false,
    "maintainer_can_modify": false,
    "merge_commit_sha": "262a4eee00fd0cbce7280b934c8413b1e971730c",
    "mergeable": null,
    "mergeable_state": "unknown",
    "merged": true,
    "merged_at": "2022-08-24T08:45:45Z",
    "merged_by": {
        "avatar_url": "https://avatars.githubusercontent.com/u/13713600?v=4",
        "events_url": "https://api.github.com/users/extremeheat/events{/privacy}",
        "followers_url": "https://api.github.com/users/extremeheat/followers",
        "following_url": "https://api.github.com/users/extremeheat/following{/other_user}",
        "gists_url": "https://api.github.com/users/extremeheat/gists{/gist_id}",
        "gravatar_id": "",
        "html_url": "https://github.com/extremeheat",
        "id": 13713600,
        "login": "extremeheat",
        "node_id": "MDQ6VXNlcjEzNzEzNjAw",
        "organizations_url": "https://api.github.com/users/extremeheat/orgs",
        "received_events_url": "https://api.github.com/users/extremeheat/received_events",
        "repos_url": "https://api.github.com/users/extremeheat/repos",
        "site_admin": false,
        "starred_url": "https://api.github.com/users/extremeheat/starred{/owner}{/repo}",
        "subscriptions_url": "https://api.github.com/users/extremeheat/subscriptions",
        "type": "User",
        "url": "https://api.github.com/users/extremeheat"
    },
    "milestone": null,
    "node_id": "PR_kwDOAxQ-8c49sHBh",
    "number": 265,
    "patch_url": "https://github.com/PrismarineJS/bedrock-protocol/pull/265.patch",
    "rebaseable": null,
    "requested_reviewers": [],
    "requested_teams": [],
    "review_comment_url": "https://api.github.com/repos/PrismarineJS/bedrock-protocol/pulls/comments{/number}",
    "review_comments": 0,
    "review_comments_url": "https://api.github.com/repos/PrismarineJS/bedrock-protocol/pulls/265/comments",
    "state": "closed",
    "statuses_url": "https://api.github.com/repos/PrismarineJS/bedrock-protocol/statuses/7dd447a8c429391059495624fb84682061d00eb6",
    "title": "Release 3.17.0",
    "updated_at": "2022-08-24T08:45:48Z",
    "url": "https://api.github.com/repos/PrismarineJS/bedrock-protocol/pulls/265",
    "user": {
        "avatar_url": "https://avatars.githubusercontent.com/u/13713600?v=4",
        "events_url": "https://api.github.com/users/extremeheat/events{/privacy}",
        "followers_url": "https://api.github.com/users/extremeheat/followers",
        "following_url": "https://api.github.com/users/extremeheat/following{/other_user}",
        "gists_url": "https://api.github.com/users/extremeheat/gists{/gist_id}",
        "gravatar_id": "",
        "html_url": "https://github.com/extremeheat",
        "id": 13713600,
        "login": "extremeheat",
        "node_id": "MDQ6VXNlcjEzNzEzNjAw",
        "organizations_url": "https://api.github.com/users/extremeheat/orgs",
        "received_events_url": "https://api.github.com/users/extremeheat/received_events",
        "repos_url": "https://api.github.com/users/extremeheat/repos",
        "site_admin": false,
        "starred_url": "https://api.github.com/users/extremeheat/starred{/owner}{/repo}",
        "subscriptions_url": "https://api.github.com/users/extremeheat/subscriptions",
        "type": "User",
        "url": "https://api.github.com/users/extremeheat"
    }
}