{
    "_links": {
        "comments": {
            "href": "https://api.github.com/repos/PrismarineJS/bedrock-protocol/issues/540/comments"
        },
        "commits": {
            "href": "https://api.github.com/repos/PrismarineJS/bedrock-protocol/pulls/540/commits"
        },
        "html": {
            "href": "https://github.com/PrismarineJS/bedrock-protocol/pull/540"
        },
        "issue": {
            "href": "https://api.github.com/repos/PrismarineJS/bedrock-protocol/issues/540"
        },
        "review_comment": {
            "href": "https://api.github.com/repos/PrismarineJS/bedrock-protocol/pulls/comments{/number}"
        },
        "review_comments": {
            "href": "https://api.github.com/repos/PrismarineJS/bedrock-protocol/pulls/540/comments"
        },
        "self": {
            "href": "https://api.github.com/repos/PrismarineJS/bedrock-protocol/pulls/540"
        },
        "statuses": {
            "href": "https://api.github.com/repos/PrismarineJS/bedrock-protocol/statuses/c85e59d2537344c7610a0cc4635ed313bee23406"
        }
    },
    "active_lock_reason": null,
    "additions": 1,
    "assignee": null,
    "assignees": [],
    "author_association": "NONE",
    "auto_merge": null,
    "base": {
        "label": "PrismarineJS:master",
        "ref": "master",
        "repo": {
            "allow_forking": true,
            "archive_url": "https://api.github.com/repos/PrismarineJS/bedrock-protocol/{archive_format}{/ref}",
            "archived": false,
            "assignees_url": "https://api.github.com/repos/PrismarineJS/bedrock-protocol/assignees{/user}",
            "blobs_url": "https://api.github.com/repos/PrismarineJS/bedrock-protocol/git/blobs{/sha}",
            "branches_url": "https://api.github.com/repos/PrismarineJS/bedrock-protocol/branches{/branch}",
            "clone_url": "https://github.com/PrismarineJS/bedrock-protocol.git",
            "collaborators_url": "https://api.github.com/repos/PrismarineJS/bedrock-protocol/collaborators{/collaborator}",
            "comments_url": "https://api.github.com/repos/PrismarineJS/bedrock-protocol/comments{/number}",
            "commits_url": "https://api.github.com/repos/PrismarineJS/bedrock-protocol/commits{/sha}",
            "compare_url": "https://api.github.com/repos/PrismarineJS/bedrock-protocol/compare/{base}...{head}",
            "contents_url": "https://api.github.com/repos/PrismarineJS/bedrock-protocol/contents/{+path}",
            "contributors_url": "https://api.github.com/repos/PrismarineJS/bedrock-protocol/contributors",
            "created_at": "2016-02-13T18:10:23Z",
            "default_branch": "master",
            "deployments_url": "https://api.github.com/repos/PrismarineJS/bedrock-protocol/deployments",
            "description": "Minecraft Bedrock protocol library, with authentication and encryption",
            "disabled": false,
            "downloads_url": "https://api.github.com/repos/PrismarineJS/bedrock-protocol/downloads",
            "events_url": "https://api.github.com/repos/PrismarineJS/bedrock-protocol/events",
            "fork": false,
            "forks": 74,
            "forks_count": 74,
            "forks_url": "https://api.github.com/repos/PrismarineJS/bedrock-protocol/forks",
            "full_name": "PrismarineJS/bedrock-protocol",
            "git_commits_url": "https://api.github.com/repos/PrismarineJS/bedrock-protocol/git/commits{/sha}",
            "git_refs_url": "https://api.github.com/repos/PrismarineJS/bedrock-protocol/git/refs{/sha}",
            "git_tags_url": "https://api.github.com/repos/PrismarineJS/bedrock-protocol/git/tags{/sha}",
            "git_url": "git://github.com/PrismarineJS/bedrock-protocol.git",
            "has_discussions": true,
            "has_downloads": true,
            "has_issues": true,
            "has_pages": false,
            "has_projects": true,
            "has_wiki": true,
            "homepage": "https://prismarinejs.github.io/minecraft-data/?v=bedrock_1.17.10&d=protocol",
            "hooks_url": "https://api.github.com/repos/PrismarineJS/bedrock-protocol/hooks",
            "html_url": "https://github.com/PrismarineJS/bedrock-protocol",
            "id": 51658481,
            "is_template": false,
            "issue_comment_url": "https://api.github.com/repos/PrismarineJS/bedrock-protocol/issues/comments{/number}",
            "issue_events_url": "https://api.github.com/repos/PrismarineJS/bedrock-protocol/issues/events{/number}",
            "issues_url": "https://api.github.com/repos/PrismarineJS/bedrock-protocol/issues{/number}",
            "keys_url": "https://api.github.com/repos/PrismarineJS/bedrock-protocol/keys{/key_id}",
            "labels_url": "https://api.github.com/repos/PrismarineJS/bedrock-protocol/labels{/name}",
            "language": "JavaScript",
            "languages_url": "https://api.github.com/repos/PrismarineJS/bedrock-protocol/languages",
            "license": {
                "key": "mit",
                "name": "MIT License",
                "node_id": "MDc6TGljZW5zZTEz",
                "spdx_id": "MIT",
                "url": "https://api.github.com/licenses/mit"
            },
            "merges_url": "https://api.github.com/repos/PrismarineJS/bedrock-protocol/merges",
            "milestones_url": "https://api.github.com/repos/PrismarineJS/bedrock-protocol/milestones{/number}",
            "mirror_url": null,
            "name": "bedrock-protocol",
            "node_id": "MDEwOlJlcG9zaXRvcnk1MTY1ODQ4MQ==",
            "notifications_url": "https://api.github.com/repos/PrismarineJS/bedrock-protocol/notifications{?since,all,participating}",
            "open_issues": 33,
            "open_issues_count": 33,
            "owner": {
                "avatar_url": "https://avatars.githubusercontent.com/u/11053411?v=4",
                "events_url": "https://api.github.com/users/PrismarineJS/events{/privacy}",
                "followers_url": "https://api.github.com/users/PrismarineJS/followers",
                "following_url": "https://api.github.com/users/PrismarineJS/following{/other_user}",
                "gists_url": "https://api.github.com/users/PrismarineJS/gists{/gist_id}",
                "gravatar_id": "",
                "html_url": "https://github.com/PrismarineJS",
                "id": 11053411,
                "login": "PrismarineJS",
                "node_id": "MDEyOk9yZ2FuaXphdGlvbjExMDUzNDEx",
                "organizations_url": "https://api.github.com/users/PrismarineJS/orgs",
                "received_events_url": "https://api.github.com/users/PrismarineJS/received_events",
                "repos_url": "https://api.github.com/users/PrismarineJS/repos",
                "site_admin": false,
                "starred_url": "https://api.github.com/users/PrismarineJS/starred{/owner}{/repo}",
                "subscriptions_url": "https://api.github.com/users/PrismarineJS/subscriptions",
                "type": "Organization",
                "url": "https://api.github.com/users/PrismarineJS",
                "user_view_type": "public"
            },
            "private": false,
            "pulls_url": "https://api.github.com/repos/PrismarineJS/bedrock-protocol/pulls{/number}",
            "pushed_at": "2024-10-25T03:02:37Z",
            "releases_url": "https://api.github.com/repos/PrismarineJS/bedrock-protocol/releases{/id}",
            "size": 1065,
            "ssh_url": "git@github.com:PrismarineJS/bedrock-protocol.git",
            "stargazers_count": 314,
            "stargazers_url": "https://api.github.com/repos/PrismarineJS/bedrock-protocol/stargazers",
            "statuses_url": "https://api.github.com/repos/PrismarineJS/bedrock-protocol/statuses/{sha}",
            "subscribers_url": "https://api.github.com/repos/PrismarineJS/bedrock-protocol/subscribers",
            "subscription_url": "https://api.github.com/repos/PrismarineJS/bedrock-protocol/subscription",
            "svn_url": "https://github.com/PrismarineJS/bedrock-protocol",
            "tags_url": "https://api.github.com/repos/PrismarineJS/bedrock-protocol/tags",
            "teams_url": "https://api.github.com/repos/PrismarineJS/bedrock-protocol/teams",
            "topics": [
                "bedrock",
                "bedrock-edition",
                "bedrock-protocol",
                "minecraft",
                "minecraft-pocket-edition",
                "raknet"
            ],
            "trees_url": "https://api.github.com/repos/PrismarineJS/bedrock-protocol/git/trees{/sha}",
            "updated_at": "2024-11-11T08:59:10Z",
            "url": "https://api.github.com/repos/PrismarineJS/bedrock-protocol",
            "visibility": "public",
            "watchers": 314,
            "watchers_count": 314,
            "web_commit_signoff_required": false
        },
        "sha": "fa730786d5f8c6c066fe221d92c99f4331b97dee",
        "user": {
            "avatar_url": "https://avatars.githubusercontent.com/u/11053411?v=4",
            "events_url": "https://api.github.com/users/PrismarineJS/events{/privacy}",
            "followers_url": "https://api.github.com/users/PrismarineJS/followers",
            "following_url": "https://api.github.com/users/PrismarineJS/following{/other_user}",
            "gists_url": "https://api.github.com/users/PrismarineJS/gists{/gist_id}",
            "gravatar_id": "",
            "html_url": "https://github.com/PrismarineJS",
            "id": 11053411,
            "login": "PrismarineJS",
            "node_id": "MDEyOk9yZ2FuaXphdGlvbjExMDUzNDEx",
            "organizations_url": "https://api.github.com/users/PrismarineJS/orgs",
            "received_events_url": "https://api.github.com/users/PrismarineJS/received_events",
            "repos_url": "https://api.github.com/users/PrismarineJS/repos",
            "site_admin": false,
            "starred_url": "https://api.github.com/users/PrismarineJS/starred{/owner}{/repo}",
            "subscriptions_url": "https://api.github.com/users/PrismarineJS/subscriptions",
            "type": "Organization",
            "url": "https://api.github.com/users/PrismarineJS",
            "user_view_type": "public"
        }
    },
    "body": null,
    "changed_files": 1,
    "closed_at": "2024-11-14T22:01:28Z",
    "comment_data": [],
    "comment_regular_data": [
        {
            "author_association": "MEMBER",
            "body": "Same as 1.21.42. We should get rid of this type enum actually as it's incorrect.",
            "created_at": "2024-11-14T22:01:28Z",
            "html_url": "https://github.com/PrismarineJS/bedrock-protocol/pull/540#issuecomment-2477493951",
            "id": 2477493951,
            "issue_url": "https://api.github.com/repos/PrismarineJS/bedrock-protocol/issues/540",
            "node_id": "IC_kwDOAxQ-8c6Tq46_",
            "performed_via_github_app": null,
            "reactions": {
                "+1": 0,
                "-1": 0,
                "confused": 0,
                "eyes": 0,
                "heart": 0,
                "hooray": 0,
                "laugh": 0,
                "rocket": 0,
                "total_count": 0,
                "url": "https://api.github.com/repos/PrismarineJS/bedrock-protocol/issues/comments/2477493951/reactions"
            },
            "updated_at": "2024-11-14T22:01:28Z",
            "url": "https://api.github.com/repos/PrismarineJS/bedrock-protocol/issues/comments/2477493951",
            "user": {
                "avatar_url": "https://avatars.githubusercontent.com/u/13713600?v=4",
                "events_url": "https://api.github.com/users/extremeheat/events{/privacy}",
                "followers_url": "https://api.github.com/users/extremeheat/followers",
                "following_url": "https://api.github.com/users/extremeheat/following{/other_user}",
                "gists_url": "https://api.github.com/users/extremeheat/gists{/gist_id}",
                "gravatar_id": "",
                "html_url": "https://github.com/extremeheat",
                "id": 13713600,
                "login": "extremeheat",
                "node_id": "MDQ6VXNlcjEzNzEzNjAw",
                "organizations_url": "https://api.github.com/users/extremeheat/orgs",
                "received_events_url": "https://api.github.com/users/extremeheat/received_events",
                "repos_url": "https://api.github.com/users/extremeheat/repos",
                "site_admin": false,
                "starred_url": "https://api.github.com/users/extremeheat/starred{/owner}{/repo}",
                "subscriptions_url": "https://api.github.com/users/extremeheat/subscriptions",
                "type": "User",
                "url": "https://api.github.com/users/extremeheat",
                "user_view_type": "public"
            }
        }
    ],
    "comments": 1,
    "comments_url": "https://api.github.com/repos/PrismarineJS/bedrock-protocol/issues/540/comments",
    "commit_data": [
        {
            "author": {
                "avatar_url": "https://avatars.githubusercontent.com/u/150862765?v=4",
                "events_url": "https://api.github.com/users/cicerorph/events{/privacy}",
                "followers_url": "https://api.github.com/users/cicerorph/followers",
                "following_url": "https://api.github.com/users/cicerorph/following{/other_user}",
                "gists_url": "https://api.github.com/users/cicerorph/gists{/gist_id}",
                "gravatar_id": "",
                "html_url": "https://github.com/cicerorph",
                "id": 150862765,
                "login": "cicerorph",
                "node_id": "U_kgDOCP37rQ",
                "organizations_url": "https://api.github.com/users/cicerorph/orgs",
                "received_events_url": "https://api.github.com/users/cicerorph/received_events",
                "repos_url": "https://api.github.com/users/cicerorph/repos",
                "site_admin": false,
                "starred_url": "https://api.github.com/users/cicerorph/starred{/owner}{/repo}",
                "subscriptions_url": "https://api.github.com/users/cicerorph/subscriptions",
                "type": "User",
                "url": "https://api.github.com/users/cicerorph",
                "user_view_type": "public"
            },
            "comments_url": "https://api.github.com/repos/PrismarineJS/bedrock-protocol/commits/c85e59d2537344c7610a0cc4635ed313bee23406/comments",
            "commit": {
                "author": {
                    "date": "2024-10-28T19:27:37Z",
                    "email": "150862765+cicerorph@users.noreply.github.com",
                    "name": "Cicero"
                },
                "comment_count": 0,
                "committer": {
                    "date": "2024-10-28T19:27:37Z",
                    "email": "noreply@github.com",
                    "name": "GitHub"
                },
                "message": "Update index.d.ts",
                "tree": {
                    "sha": "9adf760b2b2f7243d49dbf5e258959efe0783f3f",
                    "url": "https://api.github.com/repos/PrismarineJS/bedrock-protocol/git/trees/9adf760b2b2f7243d49dbf5e258959efe0783f3f"
                },
                "url": "https://api.github.com/repos/PrismarineJS/bedrock-protocol/git/commits/c85e59d2537344c7610a0cc4635ed313bee23406",
                "verification": {
                    "payload": "tree 9adf760b2b2f7243d49dbf5e258959efe0783f3f\nparent fa730786d5f8c6c066fe221d92c99f4331b97dee\nauthor Cicero <150862765+cicerorph@users.noreply.github.com> 1730143657 -0300\ncommitter GitHub <noreply@github.com> 1730143657 -0300\n\nUpdate index.d.ts",
                    "reason": "valid",
                    "signature": "-----BEGIN PGP SIGNATURE-----\n\nwsFcBAABCAAQBQJnH+WqCRC1aQ7uu5UhlAAAdbkQADuJUTXHXUfPf35YjbvVPFRj\naJ9mwipyQkvsui908Wi7h6mnZSWYJjF95AefqClkFJ0Hhi4iJnwvCsZSzOas1Gu2\nr5wE+FelKny41GQFKxS9PVJlWvDe5gmxzd3dD+HRlgpYxrwipB8Z9Cx6+IVJL0kb\n8QUvgjHUMDArA0GQ944KV32/r1567hTHCRiqRevZF1z7pL7t9tsYWthvqfR4dvRM\n9lcAywitJDTyuuvmqXw2O0ruPQXyfVziIz/k4B+fb8cSCnr0yd5nwvowgyPRw/LS\n6/RBDirGijv8tP3jIQhzM1bPvusevA+iOux78GieDvEFNQn37Nqpf6qCgCMnEQgD\n8JBkmsXedYVUvvj1uumu4YcjuePXUzRvf+UqZyxt3/bfRB4VlINVYX47+Z3cDg0X\nLsSzV+nWvEkV2nfhMOQTGu6obLft1tUxFSCAzpuScE+6UvMVtu0UnkSu/QPsbeTT\nRD7OMiDrzzOYS4JF8HKIY2ceE3IjDo1scrtaip8tMlKdSsATfhyQtZUmyPi0yD4F\nTZZQmRO9FVZlcSvPlUbKIzM8LF0gACXBCLfwBVGvGfJQbEsDjxpw6V1XW+RlvkiI\nYV+29Mh53S/KY1H5+0M4JYQdAWX4Uf/bIzAup78dK0eLTuQkAXnQ0xg/4NUUNOVu\nrihexKUExeSo+ZFDtue/\n=XGqL\n-----END PGP SIGNATURE-----\n",
                    "verified": true,
                    "verified_at": "2024-11-05T19:49:23Z"
                }
            },
            "committer": {
                "avatar_url": "https://avatars.githubusercontent.com/u/19864447?v=4",
                "events_url": "https://api.github.com/users/web-flow/events{/privacy}",
                "followers_url": "https://api.github.com/users/web-flow/followers",
                "following_url": "https://api.github.com/users/web-flow/following{/other_user}",
                "gists_url": "https://api.github.com/users/web-flow/gists{/gist_id}",
                "gravatar_id": "",
                "html_url": "https://github.com/web-flow",
                "id": 19864447,
                "login": "web-flow",
                "node_id": "MDQ6VXNlcjE5ODY0NDQ3",
                "organizations_url": "https://api.github.com/users/web-flow/orgs",
                "received_events_url": "https://api.github.com/users/web-flow/received_events",
                "repos_url": "https://api.github.com/users/web-flow/repos",
                "site_admin": false,
                "starred_url": "https://api.github.com/users/web-flow/starred{/owner}{/repo}",
                "subscriptions_url": "https://api.github.com/users/web-flow/subscriptions",
                "type": "User",
                "url": "https://api.github.com/users/web-flow",
                "user_view_type": "public"
            },
            "html_url": "https://github.com/PrismarineJS/bedrock-protocol/commit/c85e59d2537344c7610a0cc4635ed313bee23406",
            "node_id": "C_kwDONHJ-WtoAKGM4NWU1OWQyNTM3MzQ0Yzc2MTBhMGNjNDYzNWVkMzEzYmVlMjM0MDY",
            "parents": [
                {
                    "html_url": "https://github.com/PrismarineJS/bedrock-protocol/commit/fa730786d5f8c6c066fe221d92c99f4331b97dee",
                    "sha": "fa730786d5f8c6c066fe221d92c99f4331b97dee",
                    "url": "https://api.github.com/repos/PrismarineJS/bedrock-protocol/commits/fa730786d5f8c6c066fe221d92c99f4331b97dee"
                }
            ],
            "sha": "c85e59d2537344c7610a0cc4635ed313bee23406",
            "url": "https://api.github.com/repos/PrismarineJS/bedrock-protocol/commits/c85e59d2537344c7610a0cc4635ed313bee23406"
        }
    ],
    "commits": 1,
    "commits_url": "https://api.github.com/repos/PrismarineJS/bedrock-protocol/pulls/540/commits",
    "created_at": "2024-10-28T19:27:51Z",
    "deletions": 1,
    "diff_url": "https://github.com/PrismarineJS/bedrock-protocol/pull/540.diff",
    "draft": false,
    "head": {
        "label": "cicerorph:patch-2",
        "ref": "patch-2",
        "repo": {
            "allow_forking": true,
            "archive_url": "https://api.github.com/repos/cicerorph/bedrock-protocol/{archive_format}{/ref}",
            "archived": false,
            "assignees_url": "https://api.github.com/repos/cicerorph/bedrock-protocol/assignees{/user}",
            "blobs_url": "https://api.github.com/repos/cicerorph/bedrock-protocol/git/blobs{/sha}",
            "branches_url": "https://api.github.com/repos/cicerorph/bedrock-protocol/branches{/branch}",
            "clone_url": "https://github.com/cicerorph/bedrock-protocol.git",
            "collaborators_url": "https://api.github.com/repos/cicerorph/bedrock-protocol/collaborators{/collaborator}",
            "comments_url": "https://api.github.com/repos/cicerorph/bedrock-protocol/comments{/number}",
            "commits_url": "https://api.github.com/repos/cicerorph/bedrock-protocol/commits{/sha}",
            "compare_url": "https://api.github.com/repos/cicerorph/bedrock-protocol/compare/{base}...{head}",
            "contents_url": "https://api.github.com/repos/cicerorph/bedrock-protocol/contents/{+path}",
            "contributors_url": "https://api.github.com/repos/cicerorph/bedrock-protocol/contributors",
            "created_at": "2024-10-28T19:27:09Z",
            "default_branch": "master",
            "deployments_url": "https://api.github.com/repos/cicerorph/bedrock-protocol/deployments",
            "description": "Minecraft Bedrock protocol library, with authentication and encryption",
            "disabled": false,
            "downloads_url": "https://api.github.com/repos/cicerorph/bedrock-protocol/downloads",
            "events_url": "https://api.github.com/repos/cicerorph/bedrock-protocol/events",
            "fork": true,
            "forks": 0,
            "forks_count": 0,
            "forks_url": "https://api.github.com/repos/cicerorph/bedrock-protocol/forks",
            "full_name": "cicerorph/bedrock-protocol",
            "git_commits_url": "https://api.github.com/repos/cicerorph/bedrock-protocol/git/commits{/sha}",
            "git_refs_url": "https://api.github.com/repos/cicerorph/bedrock-protocol/git/refs{/sha}",
            "git_tags_url": "https://api.github.com/repos/cicerorph/bedrock-protocol/git/tags{/sha}",
            "git_url": "git://github.com/cicerorph/bedrock-protocol.git",
            "has_discussions": false,
            "has_downloads": true,
            "has_issues": false,
            "has_pages": false,
            "has_projects": true,
            "has_wiki": true,
            "homepage": "https://prismarinejs.github.io/minecraft-data/?v=bedrock_1.17.10&d=protocol",
            "hooks_url": "https://api.github.com/repos/cicerorph/bedrock-protocol/hooks",
            "html_url": "https://github.com/cicerorph/bedrock-protocol",
            "id": 879918682,
            "is_template": false,
            "issue_comment_url": "https://api.github.com/repos/cicerorph/bedrock-protocol/issues/comments{/number}",
            "issue_events_url": "https://api.github.com/repos/cicerorph/bedrock-protocol/issues/events{/number}",
            "issues_url": "https://api.github.com/repos/cicerorph/bedrock-protocol/issues{/number}",
            "keys_url": "https://api.github.com/repos/cicerorph/bedrock-protocol/keys{/key_id}",
            "labels_url": "https://api.github.com/repos/cicerorph/bedrock-protocol/labels{/name}",
            "language": null,
            "languages_url": "https://api.github.com/repos/cicerorph/bedrock-protocol/languages",
            "license": {
                "key": "mit",
                "name": "MIT License",
                "node_id": "MDc6TGljZW5zZTEz",
                "spdx_id": "MIT",
                "url": "https://api.github.com/licenses/mit"
            },
            "merges_url": "https://api.github.com/repos/cicerorph/bedrock-protocol/merges",
            "milestones_url": "https://api.github.com/repos/cicerorph/bedrock-protocol/milestones{/number}",
            "mirror_url": null,
            "name": "bedrock-protocol",
            "node_id": "R_kgDONHJ-Wg",
            "notifications_url": "https://api.github.com/repos/cicerorph/bedrock-protocol/notifications{?since,all,participating}",
            "open_issues": 0,
            "open_issues_count": 0,
            "owner": {
                "avatar_url": "https://avatars.githubusercontent.com/u/150862765?v=4",
                "events_url": "https://api.github.com/users/cicerorph/events{/privacy}",
                "followers_url": "https://api.github.com/users/cicerorph/followers",
                "following_url": "https://api.github.com/users/cicerorph/following{/other_user}",
                "gists_url": "https://api.github.com/users/cicerorph/gists{/gist_id}",
                "gravatar_id": "",
                "html_url": "https://github.com/cicerorph",
                "id": 150862765,
                "login": "cicerorph",
                "node_id": "U_kgDOCP37rQ",
                "organizations_url": "https://api.github.com/users/cicerorph/orgs",
                "received_events_url": "https://api.github.com/users/cicerorph/received_events",
                "repos_url": "https://api.github.com/users/cicerorph/repos",
                "site_admin": false,
                "starred_url": "https://api.github.com/users/cicerorph/starred{/owner}{/repo}",
                "subscriptions_url": "https://api.github.com/users/cicerorph/subscriptions",
                "type": "User",
                "url": "https://api.github.com/users/cicerorph",
                "user_view_type": "public"
            },
            "private": false,
            "pulls_url": "https://api.github.com/repos/cicerorph/bedrock-protocol/pulls{/number}",
            "pushed_at": "2024-10-28T19:27:38Z",
            "releases_url": "https://api.github.com/repos/cicerorph/bedrock-protocol/releases{/id}",
            "size": 1070,
            "ssh_url": "git@github.com:cicerorph/bedrock-protocol.git",
            "stargazers_count": 0,
            "stargazers_url": "https://api.github.com/repos/cicerorph/bedrock-protocol/stargazers",
            "statuses_url": "https://api.github.com/repos/cicerorph/bedrock-protocol/statuses/{sha}",
            "subscribers_url": "https://api.github.com/repos/cicerorph/bedrock-protocol/subscribers",
            "subscription_url": "https://api.github.com/repos/cicerorph/bedrock-protocol/subscription",
            "svn_url": "https://github.com/cicerorph/bedrock-protocol",
            "tags_url": "https://api.github.com/repos/cicerorph/bedrock-protocol/tags",
            "teams_url": "https://api.github.com/repos/cicerorph/bedrock-protocol/teams",
            "topics": [],
            "trees_url": "https://api.github.com/repos/cicerorph/bedrock-protocol/git/trees{/sha}",
            "updated_at": "2024-10-28T19:27:09Z",
            "url": "https://api.github.com/repos/cicerorph/bedrock-protocol",
            "visibility": "public",
            "watchers": 0,
            "watchers_count": 0,
            "web_commit_signoff_required": false
        },
        "sha": "c85e59d2537344c7610a0cc4635ed313bee23406",
        "user": {
            "avatar_url": "https://avatars.githubusercontent.com/u/150862765?v=4",
            "events_url": "https://api.github.com/users/cicerorph/events{/privacy}",
            "followers_url": "https://api.github.com/users/cicerorph/followers",
            "following_url": "https://api.github.com/users/cicerorph/following{/other_user}",
            "gists_url": "https://api.github.com/users/cicerorph/gists{/gist_id}",
            "gravatar_id": "",
            "html_url": "https://github.com/cicerorph",
            "id": 150862765,
            "login": "cicerorph",
            "node_id": "U_kgDOCP37rQ",
            "organizations_url": "https://api.github.com/users/cicerorph/orgs",
            "received_events_url": "https://api.github.com/users/cicerorph/received_events",
            "repos_url": "https://api.github.com/users/cicerorph/repos",
            "site_admin": false,
            "starred_url": "https://api.github.com/users/cicerorph/starred{/owner}{/repo}",
            "subscriptions_url": "https://api.github.com/users/cicerorph/subscriptions",
            "type": "User",
            "url": "https://api.github.com/users/cicerorph",
            "user_view_type": "public"
        }
    },
    "html_url": "https://github.com/PrismarineJS/bedrock-protocol/pull/540",
    "id": 2149980918,
    "issue_url": "https://api.github.com/repos/PrismarineJS/bedrock-protocol/issues/540",
    "labels": [],
    "locked": false,
    "maintainer_can_modify": false,
    "merge_commit_sha": "bf38e8cb0193b79b8f2f5b5e14b76d2c839b9ab4",
    "mergeable": true,
    "mergeable_state": "blocked",
    "merged": false,
    "merged_at": null,
    "merged_by": null,
    "milestone": null,
    "node_id": "PR_kwDOAxQ-8c6AJhr2",
    "number": 540,
    "patch_url": "https://github.com/PrismarineJS/bedrock-protocol/pull/540.patch",
    "rebaseable": false,
    "requested_reviewers": [],
    "requested_teams": [],
    "review_comment_url": "https://api.github.com/repos/PrismarineJS/bedrock-protocol/pulls/comments{/number}",
    "review_comments": 0,
    "review_comments_url": "https://api.github.com/repos/PrismarineJS/bedrock-protocol/pulls/540/comments",
    "state": "closed",
    "statuses_url": "https://api.github.com/repos/PrismarineJS/bedrock-protocol/statuses/c85e59d2537344c7610a0cc4635ed313bee23406",
    "title": "1.21.41",
    "updated_at": "2024-11-14T22:01:29Z",
    "url": "https://api.github.com/repos/PrismarineJS/bedrock-protocol/pulls/540",
    "user": {
        "avatar_url": "https://avatars.githubusercontent.com/u/150862765?v=4",
        "events_url": "https://api.github.com/users/cicerorph/events{/privacy}",
        "followers_url": "https://api.github.com/users/cicerorph/followers",
        "following_url": "https://api.github.com/users/cicerorph/following{/other_user}",
        "gists_url": "https://api.github.com/users/cicerorph/gists{/gist_id}",
        "gravatar_id": "",
        "html_url": "https://github.com/cicerorph",
        "id": 150862765,
        "login": "cicerorph",
        "node_id": "U_kgDOCP37rQ",
        "organizations_url": "https://api.github.com/users/cicerorph/orgs",
        "received_events_url": "https://api.github.com/users/cicerorph/received_events",
        "repos_url": "https://api.github.com/users/cicerorph/repos",
        "site_admin": false,
        "starred_url": "https://api.github.com/users/cicerorph/starred{/owner}{/repo}",
        "subscriptions_url": "https://api.github.com/users/cicerorph/subscriptions",
        "type": "User",
        "url": "https://api.github.com/users/cicerorph",
        "user_view_type": "public"
    }
}