{
    "active_lock_reason": null,
    "assignee": null,
    "assignees": [],
    "author_association": "MEMBER",
    "body": "currently armor is chosen by itemId which disregards both nbt and enchants so...\r\nthis plugin would need to add support for\r\n\r\n- [ ] exact item equiping (dont equip by item id, equip by item reference)\r\n- [ ] choosing armor pieces by which has better enchants",
    "closed_at": null,
    "comment_data": [
        {
            "author_association": "MEMBER",
            "body": "to be decided: how to make enchant matching (ie: is blast prot. 4 better then prot. 2?)",
            "created_at": "2021-04-10T16:57:53Z",
            "html_url": "https://github.com/PrismarineJS/MineflayerArmorManager/issues/35#issuecomment-817170810",
            "id": 817170810,
            "issue_url": "https://api.github.com/repos/PrismarineJS/MineflayerArmorManager/issues/35",
            "node_id": "MDEyOklzc3VlQ29tbWVudDgxNzE3MDgxMA==",
            "performed_via_github_app": null,
            "reactions": {
                "+1": 0,
                "-1": 0,
                "confused": 0,
                "eyes": 0,
                "heart": 0,
                "hooray": 0,
                "laugh": 0,
                "rocket": 0,
                "total_count": 0,
                "url": "https://api.github.com/repos/PrismarineJS/MineflayerArmorManager/issues/comments/817170810/reactions"
            },
            "updated_at": "2021-04-10T16:57:53Z",
            "url": "https://api.github.com/repos/PrismarineJS/MineflayerArmorManager/issues/comments/817170810",
            "user": {
                "avatar_url": "https://avatars.githubusercontent.com/u/43508353?v=4",
                "events_url": "https://api.github.com/users/u9g/events{/privacy}",
                "followers_url": "https://api.github.com/users/u9g/followers",
                "following_url": "https://api.github.com/users/u9g/following{/other_user}",
                "gists_url": "https://api.github.com/users/u9g/gists{/gist_id}",
                "gravatar_id": "",
                "html_url": "https://github.com/u9g",
                "id": 43508353,
                "login": "u9g",
                "node_id": "MDQ6VXNlcjQzNTA4MzUz",
                "organizations_url": "https://api.github.com/users/u9g/orgs",
                "received_events_url": "https://api.github.com/users/u9g/received_events",
                "repos_url": "https://api.github.com/users/u9g/repos",
                "site_admin": false,
                "starred_url": "https://api.github.com/users/u9g/starred{/owner}{/repo}",
                "subscriptions_url": "https://api.github.com/users/u9g/subscriptions",
                "type": "User",
                "url": "https://api.github.com/users/u9g"
            }
        },
        {
            "author_association": "MEMBER",
            "body": "It might be good to have a config that allows for the developer to specify priority weights.",
            "created_at": "2021-04-11T07:36:42Z",
            "html_url": "https://github.com/PrismarineJS/MineflayerArmorManager/issues/35#issuecomment-817264182",
            "id": 817264182,
            "issue_url": "https://api.github.com/repos/PrismarineJS/MineflayerArmorManager/issues/35",
            "node_id": "MDEyOklzc3VlQ29tbWVudDgxNzI2NDE4Mg==",
            "performed_via_github_app": null,
            "reactions": {
                "+1": 0,
                "-1": 0,
                "confused": 0,
                "eyes": 0,
                "heart": 0,
                "hooray": 0,
                "laugh": 0,
                "rocket": 0,
                "total_count": 0,
                "url": "https://api.github.com/repos/PrismarineJS/MineflayerArmorManager/issues/comments/817264182/reactions"
            },
            "updated_at": "2021-04-11T07:36:42Z",
            "url": "https://api.github.com/repos/PrismarineJS/MineflayerArmorManager/issues/comments/817264182",
            "user": {
                "avatar_url": "https://avatars.githubusercontent.com/u/3118172?v=4",
                "events_url": "https://api.github.com/users/TheDudeFromCI/events{/privacy}",
                "followers_url": "https://api.github.com/users/TheDudeFromCI/followers",
                "following_url": "https://api.github.com/users/TheDudeFromCI/following{/other_user}",
                "gists_url": "https://api.github.com/users/TheDudeFromCI/gists{/gist_id}",
                "gravatar_id": "",
                "html_url": "https://github.com/TheDudeFromCI",
                "id": 3118172,
                "login": "TheDudeFromCI",
                "node_id": "MDQ6VXNlcjMxMTgxNzI=",
                "organizations_url": "https://api.github.com/users/TheDudeFromCI/orgs",
                "received_events_url": "https://api.github.com/users/TheDudeFromCI/received_events",
                "repos_url": "https://api.github.com/users/TheDudeFromCI/repos",
                "site_admin": false,
                "starred_url": "https://api.github.com/users/TheDudeFromCI/starred{/owner}{/repo}",
                "subscriptions_url": "https://api.github.com/users/TheDudeFromCI/subscriptions",
                "type": "User",
                "url": "https://api.github.com/users/TheDudeFromCI"
            }
        },
        {
            "author_association": "MEMBER",
            "body": "> It might be good to have a config that allows for the developer to specify priority weights.\n\nwe could do that, or we could use .sort on the array of items with the same itemType and just have a predefined sorter, or the developer can make their own sorter (which imo is much easier + will work for most people much better since they can debug it)",
            "created_at": "2021-04-11T07:43:08Z",
            "html_url": "https://github.com/PrismarineJS/MineflayerArmorManager/issues/35#issuecomment-817264845",
            "id": 817264845,
            "issue_url": "https://api.github.com/repos/PrismarineJS/MineflayerArmorManager/issues/35",
            "node_id": "MDEyOklzc3VlQ29tbWVudDgxNzI2NDg0NQ==",
            "performed_via_github_app": null,
            "reactions": {
                "+1": 0,
                "-1": 0,
                "confused": 0,
                "eyes": 0,
                "heart": 0,
                "hooray": 0,
                "laugh": 0,
                "rocket": 0,
                "total_count": 0,
                "url": "https://api.github.com/repos/PrismarineJS/MineflayerArmorManager/issues/comments/817264845/reactions"
            },
            "updated_at": "2021-04-11T07:43:08Z",
            "url": "https://api.github.com/repos/PrismarineJS/MineflayerArmorManager/issues/comments/817264845",
            "user": {
                "avatar_url": "https://avatars.githubusercontent.com/u/43508353?v=4",
                "events_url": "https://api.github.com/users/u9g/events{/privacy}",
                "followers_url": "https://api.github.com/users/u9g/followers",
                "following_url": "https://api.github.com/users/u9g/following{/other_user}",
                "gists_url": "https://api.github.com/users/u9g/gists{/gist_id}",
                "gravatar_id": "",
                "html_url": "https://github.com/u9g",
                "id": 43508353,
                "login": "u9g",
                "node_id": "MDQ6VXNlcjQzNTA4MzUz",
                "organizations_url": "https://api.github.com/users/u9g/orgs",
                "received_events_url": "https://api.github.com/users/u9g/received_events",
                "repos_url": "https://api.github.com/users/u9g/repos",
                "site_admin": false,
                "starred_url": "https://api.github.com/users/u9g/starred{/owner}{/repo}",
                "subscriptions_url": "https://api.github.com/users/u9g/subscriptions",
                "type": "User",
                "url": "https://api.github.com/users/u9g"
            }
        },
        {
            "author_association": "MEMBER",
            "body": "> > It might be good to have a config that allows for the developer to specify priority weights.\r\n> \r\n> we could do that, or we could use .sort on the array of items with the same itemType and just have a predefined sorter, or the developer can make their own sorter (which imo is much easier + will work for most people much better since they can debug it)\r\n\r\nThat would be fine, but I think it would be a good idea to add a list of premade common sorting methods, like max protection, or long lasting.",
            "created_at": "2021-04-11T07:48:48Z",
            "html_url": "https://github.com/PrismarineJS/MineflayerArmorManager/issues/35#issuecomment-817265422",
            "id": 817265422,
            "issue_url": "https://api.github.com/repos/PrismarineJS/MineflayerArmorManager/issues/35",
            "node_id": "MDEyOklzc3VlQ29tbWVudDgxNzI2NTQyMg==",
            "performed_via_github_app": null,
            "reactions": {
                "+1": 0,
                "-1": 0,
                "confused": 0,
                "eyes": 0,
                "heart": 0,
                "hooray": 0,
                "laugh": 0,
                "rocket": 0,
                "total_count": 0,
                "url": "https://api.github.com/repos/PrismarineJS/MineflayerArmorManager/issues/comments/817265422/reactions"
            },
            "updated_at": "2021-04-11T07:48:48Z",
            "url": "https://api.github.com/repos/PrismarineJS/MineflayerArmorManager/issues/comments/817265422",
            "user": {
                "avatar_url": "https://avatars.githubusercontent.com/u/3118172?v=4",
                "events_url": "https://api.github.com/users/TheDudeFromCI/events{/privacy}",
                "followers_url": "https://api.github.com/users/TheDudeFromCI/followers",
                "following_url": "https://api.github.com/users/TheDudeFromCI/following{/other_user}",
                "gists_url": "https://api.github.com/users/TheDudeFromCI/gists{/gist_id}",
                "gravatar_id": "",
                "html_url": "https://github.com/TheDudeFromCI",
                "id": 3118172,
                "login": "TheDudeFromCI",
                "node_id": "MDQ6VXNlcjMxMTgxNzI=",
                "organizations_url": "https://api.github.com/users/TheDudeFromCI/orgs",
                "received_events_url": "https://api.github.com/users/TheDudeFromCI/received_events",
                "repos_url": "https://api.github.com/users/TheDudeFromCI/repos",
                "site_admin": false,
                "starred_url": "https://api.github.com/users/TheDudeFromCI/starred{/owner}{/repo}",
                "subscriptions_url": "https://api.github.com/users/TheDudeFromCI/subscriptions",
                "type": "User",
                "url": "https://api.github.com/users/TheDudeFromCI"
            }
        },
        {
            "author_association": "MEMBER",
            "body": "Clarifying, I think the common sorting functions should be exported in addition to the ability for the user to create their own.",
            "created_at": "2021-04-11T07:52:45Z",
            "html_url": "https://github.com/PrismarineJS/MineflayerArmorManager/issues/35#issuecomment-817265907",
            "id": 817265907,
            "issue_url": "https://api.github.com/repos/PrismarineJS/MineflayerArmorManager/issues/35",
            "node_id": "MDEyOklzc3VlQ29tbWVudDgxNzI2NTkwNw==",
            "performed_via_github_app": null,
            "reactions": {
                "+1": 0,
                "-1": 0,
                "confused": 0,
                "eyes": 0,
                "heart": 0,
                "hooray": 0,
                "laugh": 0,
                "rocket": 0,
                "total_count": 0,
                "url": "https://api.github.com/repos/PrismarineJS/MineflayerArmorManager/issues/comments/817265907/reactions"
            },
            "updated_at": "2021-04-11T07:52:45Z",
            "url": "https://api.github.com/repos/PrismarineJS/MineflayerArmorManager/issues/comments/817265907",
            "user": {
                "avatar_url": "https://avatars.githubusercontent.com/u/3118172?v=4",
                "events_url": "https://api.github.com/users/TheDudeFromCI/events{/privacy}",
                "followers_url": "https://api.github.com/users/TheDudeFromCI/followers",
                "following_url": "https://api.github.com/users/TheDudeFromCI/following{/other_user}",
                "gists_url": "https://api.github.com/users/TheDudeFromCI/gists{/gist_id}",
                "gravatar_id": "",
                "html_url": "https://github.com/TheDudeFromCI",
                "id": 3118172,
                "login": "TheDudeFromCI",
                "node_id": "MDQ6VXNlcjMxMTgxNzI=",
                "organizations_url": "https://api.github.com/users/TheDudeFromCI/orgs",
                "received_events_url": "https://api.github.com/users/TheDudeFromCI/received_events",
                "repos_url": "https://api.github.com/users/TheDudeFromCI/repos",
                "site_admin": false,
                "starred_url": "https://api.github.com/users/TheDudeFromCI/starred{/owner}{/repo}",
                "subscriptions_url": "https://api.github.com/users/TheDudeFromCI/subscriptions",
                "type": "User",
                "url": "https://api.github.com/users/TheDudeFromCI"
            }
        },
        {
            "author_association": "MEMBER",
            "body": "> > > It might be good to have a config that allows for the developer to specify priority weights.\n> \n> > \n> \n> > we could do that, or we could use .sort on the array of items with the same itemType and just have a predefined sorter, or the developer can make their own sorter (which imo is much easier + will work for most people much better since they can debug it)\n> \n> \n> \n> That would be fine, but I think it would be a good idea to add a list of premade common sorting methods, like max protection, or long lasting.\n\nI think this is a case of just having good defaults which would be max protection (as that is by definition what better armor would be) because imo the longlasting one would be very easy to implement as a sorter function, (can even be included as an example)",
            "created_at": "2021-04-11T07:55:41Z",
            "html_url": "https://github.com/PrismarineJS/MineflayerArmorManager/issues/35#issuecomment-817266312",
            "id": 817266312,
            "issue_url": "https://api.github.com/repos/PrismarineJS/MineflayerArmorManager/issues/35",
            "node_id": "MDEyOklzc3VlQ29tbWVudDgxNzI2NjMxMg==",
            "performed_via_github_app": null,
            "reactions": {
                "+1": 0,
                "-1": 0,
                "confused": 0,
                "eyes": 0,
                "heart": 0,
                "hooray": 0,
                "laugh": 0,
                "rocket": 0,
                "total_count": 0,
                "url": "https://api.github.com/repos/PrismarineJS/MineflayerArmorManager/issues/comments/817266312/reactions"
            },
            "updated_at": "2021-04-11T07:55:41Z",
            "url": "https://api.github.com/repos/PrismarineJS/MineflayerArmorManager/issues/comments/817266312",
            "user": {
                "avatar_url": "https://avatars.githubusercontent.com/u/43508353?v=4",
                "events_url": "https://api.github.com/users/u9g/events{/privacy}",
                "followers_url": "https://api.github.com/users/u9g/followers",
                "following_url": "https://api.github.com/users/u9g/following{/other_user}",
                "gists_url": "https://api.github.com/users/u9g/gists{/gist_id}",
                "gravatar_id": "",
                "html_url": "https://github.com/u9g",
                "id": 43508353,
                "login": "u9g",
                "node_id": "MDQ6VXNlcjQzNTA4MzUz",
                "organizations_url": "https://api.github.com/users/u9g/orgs",
                "received_events_url": "https://api.github.com/users/u9g/received_events",
                "repos_url": "https://api.github.com/users/u9g/repos",
                "site_admin": false,
                "starred_url": "https://api.github.com/users/u9g/starred{/owner}{/repo}",
                "subscriptions_url": "https://api.github.com/users/u9g/subscriptions",
                "type": "User",
                "url": "https://api.github.com/users/u9g"
            }
        },
        {
            "author_association": "MEMBER",
            "body": "> > > > It might be good to have a config that allows for the developer to specify priority weights.\r\n> > \r\n> > \r\n> > > \r\n> > \r\n> > \r\n> > > we could do that, or we could use .sort on the array of items with the same itemType and just have a predefined sorter, or the developer can make their own sorter (which imo is much easier + will work for most people much better since they can debug it)\r\n> > \r\n> > \r\n> > That would be fine, but I think it would be a good idea to add a list of premade common sorting methods, like max protection, or long lasting.\r\n> \r\n> I think this is a case of just having good defaults which would be max protection (as that is by definition what better armor would be) because imo the longlasting one would be very easy to implement as a sorter function, (can even be included as an example)\r\n\r\nThat sounds good to me.",
            "created_at": "2021-04-11T07:57:46Z",
            "html_url": "https://github.com/PrismarineJS/MineflayerArmorManager/issues/35#issuecomment-817266541",
            "id": 817266541,
            "issue_url": "https://api.github.com/repos/PrismarineJS/MineflayerArmorManager/issues/35",
            "node_id": "MDEyOklzc3VlQ29tbWVudDgxNzI2NjU0MQ==",
            "performed_via_github_app": null,
            "reactions": {
                "+1": 0,
                "-1": 0,
                "confused": 0,
                "eyes": 0,
                "heart": 0,
                "hooray": 0,
                "laugh": 0,
                "rocket": 0,
                "total_count": 0,
                "url": "https://api.github.com/repos/PrismarineJS/MineflayerArmorManager/issues/comments/817266541/reactions"
            },
            "updated_at": "2021-04-11T07:57:46Z",
            "url": "https://api.github.com/repos/PrismarineJS/MineflayerArmorManager/issues/comments/817266541",
            "user": {
                "avatar_url": "https://avatars.githubusercontent.com/u/3118172?v=4",
                "events_url": "https://api.github.com/users/TheDudeFromCI/events{/privacy}",
                "followers_url": "https://api.github.com/users/TheDudeFromCI/followers",
                "following_url": "https://api.github.com/users/TheDudeFromCI/following{/other_user}",
                "gists_url": "https://api.github.com/users/TheDudeFromCI/gists{/gist_id}",
                "gravatar_id": "",
                "html_url": "https://github.com/TheDudeFromCI",
                "id": 3118172,
                "login": "TheDudeFromCI",
                "node_id": "MDQ6VXNlcjMxMTgxNzI=",
                "organizations_url": "https://api.github.com/users/TheDudeFromCI/orgs",
                "received_events_url": "https://api.github.com/users/TheDudeFromCI/received_events",
                "repos_url": "https://api.github.com/users/TheDudeFromCI/repos",
                "site_admin": false,
                "starred_url": "https://api.github.com/users/TheDudeFromCI/starred{/owner}{/repo}",
                "subscriptions_url": "https://api.github.com/users/TheDudeFromCI/subscriptions",
                "type": "User",
                "url": "https://api.github.com/users/TheDudeFromCI"
            }
        }
    ],
    "comments": 7,
    "comments_url": "https://api.github.com/repos/PrismarineJS/MineflayerArmorManager/issues/35/comments",
    "created_at": "2021-04-10T16:55:20Z",
    "event_data": [],
    "events_url": "https://api.github.com/repos/PrismarineJS/MineflayerArmorManager/issues/35/events",
    "html_url": "https://github.com/PrismarineJS/MineflayerArmorManager/issues/35",
    "id": 855110572,
    "labels": [],
    "labels_url": "https://api.github.com/repos/PrismarineJS/MineflayerArmorManager/issues/35/labels{/name}",
    "locked": false,
    "milestone": null,
    "node_id": "MDU6SXNzdWU4NTUxMTA1NzI=",
    "number": 35,
    "performed_via_github_app": null,
    "reactions": {
        "+1": 2,
        "-1": 0,
        "confused": 0,
        "eyes": 0,
        "heart": 0,
        "hooray": 0,
        "laugh": 0,
        "rocket": 0,
        "total_count": 2,
        "url": "https://api.github.com/repos/PrismarineJS/MineflayerArmorManager/issues/35/reactions"
    },
    "repository_url": "https://api.github.com/repos/PrismarineJS/MineflayerArmorManager",
    "state": "open",
    "state_reason": null,
    "timeline_url": "https://api.github.com/repos/PrismarineJS/MineflayerArmorManager/issues/35/timeline",
    "title": "Support enchants (and nbt)",
    "updated_at": "2021-04-11T07:57:46Z",
    "url": "https://api.github.com/repos/PrismarineJS/MineflayerArmorManager/issues/35",
    "user": {
        "avatar_url": "https://avatars.githubusercontent.com/u/43508353?v=4",
        "events_url": "https://api.github.com/users/u9g/events{/privacy}",
        "followers_url": "https://api.github.com/users/u9g/followers",
        "following_url": "https://api.github.com/users/u9g/following{/other_user}",
        "gists_url": "https://api.github.com/users/u9g/gists{/gist_id}",
        "gravatar_id": "",
        "html_url": "https://github.com/u9g",
        "id": 43508353,
        "login": "u9g",
        "node_id": "MDQ6VXNlcjQzNTA4MzUz",
        "organizations_url": "https://api.github.com/users/u9g/orgs",
        "received_events_url": "https://api.github.com/users/u9g/received_events",
        "repos_url": "https://api.github.com/users/u9g/repos",
        "site_admin": false,
        "starred_url": "https://api.github.com/users/u9g/starred{/owner}{/repo}",
        "subscriptions_url": "https://api.github.com/users/u9g/subscriptions",
        "type": "User",
        "url": "https://api.github.com/users/u9g"
    }
}