{
    "active_lock_reason": null,
    "assignee": null,
    "assignees": [],
    "author_association": "MEMBER",
    "body": "see http://minecraft.gamepedia.com/Entity#Motion_of_entities\n",
    "closed_at": null,
    "comment_data": [
        {
            "author_association": "MEMBER",
            "body": "and do that http://blog.benw.xyz/2014/01/minecraft-physics-steve-in-drag/ (in particular the drag part)\n\nmainly `acceleration=gravity−drag*velocity`\n",
            "created_at": "2015-11-28T19:56:39Z",
            "html_url": "https://github.com/PrismarineJS/flying-squid/issues/136#issuecomment-160332220",
            "id": 160332220,
            "issue_url": "https://api.github.com/repos/PrismarineJS/flying-squid/issues/136",
            "node_id": "MDEyOklzc3VlQ29tbWVudDE2MDMzMjIyMA==",
            "performed_via_github_app": null,
            "reactions": {
                "+1": 0,
                "-1": 0,
                "confused": 0,
                "eyes": 0,
                "heart": 0,
                "hooray": 0,
                "laugh": 0,
                "rocket": 0,
                "total_count": 0,
                "url": "https://api.github.com/repos/PrismarineJS/flying-squid/issues/comments/160332220/reactions"
            },
            "updated_at": "2015-11-28T20:00:38Z",
            "url": "https://api.github.com/repos/PrismarineJS/flying-squid/issues/comments/160332220",
            "user": {
                "avatar_url": "https://avatars.githubusercontent.com/u/2346494?v=4",
                "events_url": "https://api.github.com/users/rom1504/events{/privacy}",
                "followers_url": "https://api.github.com/users/rom1504/followers",
                "following_url": "https://api.github.com/users/rom1504/following{/other_user}",
                "gists_url": "https://api.github.com/users/rom1504/gists{/gist_id}",
                "gravatar_id": "",
                "html_url": "https://github.com/rom1504",
                "id": 2346494,
                "login": "rom1504",
                "node_id": "MDQ6VXNlcjIzNDY0OTQ=",
                "organizations_url": "https://api.github.com/users/rom1504/orgs",
                "received_events_url": "https://api.github.com/users/rom1504/received_events",
                "repos_url": "https://api.github.com/users/rom1504/repos",
                "site_admin": false,
                "starred_url": "https://api.github.com/users/rom1504/starred{/owner}{/repo}",
                "subscriptions_url": "https://api.github.com/users/rom1504/subscriptions",
                "type": "User",
                "url": "https://api.github.com/users/rom1504"
            }
        }
    ],
    "comments": 1,
    "comments_url": "https://api.github.com/repos/PrismarineJS/flying-squid/issues/136/comments",
    "created_at": "2015-11-28T19:26:57Z",
    "event_data": [
        {
            "actor": {
                "avatar_url": "https://avatars.githubusercontent.com/u/2346494?v=4",
                "events_url": "https://api.github.com/users/rom1504/events{/privacy}",
                "followers_url": "https://api.github.com/users/rom1504/followers",
                "following_url": "https://api.github.com/users/rom1504/following{/other_user}",
                "gists_url": "https://api.github.com/users/rom1504/gists{/gist_id}",
                "gravatar_id": "",
                "html_url": "https://github.com/rom1504",
                "id": 2346494,
                "login": "rom1504",
                "node_id": "MDQ6VXNlcjIzNDY0OTQ=",
                "organizations_url": "https://api.github.com/users/rom1504/orgs",
                "received_events_url": "https://api.github.com/users/rom1504/received_events",
                "repos_url": "https://api.github.com/users/rom1504/repos",
                "site_admin": false,
                "starred_url": "https://api.github.com/users/rom1504/starred{/owner}{/repo}",
                "subscriptions_url": "https://api.github.com/users/rom1504/subscriptions",
                "type": "User",
                "url": "https://api.github.com/users/rom1504"
            },
            "commit_id": null,
            "commit_url": null,
            "created_at": "2015-12-07T00:40:16Z",
            "event": "labeled",
            "id": 483899641,
            "label": {
                "color": "bbdd55",
                "name": "physics"
            },
            "node_id": "MDEyOkxhYmVsZWRFdmVudDQ4Mzg5OTY0MQ==",
            "performed_via_github_app": null,
            "url": "https://api.github.com/repos/PrismarineJS/flying-squid/issues/events/483899641"
        },
        {
            "actor": {
                "avatar_url": "https://avatars.githubusercontent.com/u/2346494?v=4",
                "events_url": "https://api.github.com/users/rom1504/events{/privacy}",
                "followers_url": "https://api.github.com/users/rom1504/followers",
                "following_url": "https://api.github.com/users/rom1504/following{/other_user}",
                "gists_url": "https://api.github.com/users/rom1504/gists{/gist_id}",
                "gravatar_id": "",
                "html_url": "https://github.com/rom1504",
                "id": 2346494,
                "login": "rom1504",
                "node_id": "MDQ6VXNlcjIzNDY0OTQ=",
                "organizations_url": "https://api.github.com/users/rom1504/orgs",
                "received_events_url": "https://api.github.com/users/rom1504/received_events",
                "repos_url": "https://api.github.com/users/rom1504/repos",
                "site_admin": false,
                "starred_url": "https://api.github.com/users/rom1504/starred{/owner}{/repo}",
                "subscriptions_url": "https://api.github.com/users/rom1504/subscriptions",
                "type": "User",
                "url": "https://api.github.com/users/rom1504"
            },
            "commit_id": null,
            "commit_url": null,
            "created_at": "2015-12-07T00:41:58Z",
            "event": "milestoned",
            "id": 483900188,
            "milestone": {
                "title": "0.3.0"
            },
            "node_id": "MDE1Ok1pbGVzdG9uZWRFdmVudDQ4MzkwMDE4OA==",
            "performed_via_github_app": null,
            "url": "https://api.github.com/repos/PrismarineJS/flying-squid/issues/events/483900188"
        },
        {
            "actor": {
                "avatar_url": "https://avatars.githubusercontent.com/u/2346494?v=4",
                "events_url": "https://api.github.com/users/rom1504/events{/privacy}",
                "followers_url": "https://api.github.com/users/rom1504/followers",
                "following_url": "https://api.github.com/users/rom1504/following{/other_user}",
                "gists_url": "https://api.github.com/users/rom1504/gists{/gist_id}",
                "gravatar_id": "",
                "html_url": "https://github.com/rom1504",
                "id": 2346494,
                "login": "rom1504",
                "node_id": "MDQ6VXNlcjIzNDY0OTQ=",
                "organizations_url": "https://api.github.com/users/rom1504/orgs",
                "received_events_url": "https://api.github.com/users/rom1504/received_events",
                "repos_url": "https://api.github.com/users/rom1504/repos",
                "site_admin": false,
                "starred_url": "https://api.github.com/users/rom1504/starred{/owner}{/repo}",
                "subscriptions_url": "https://api.github.com/users/rom1504/subscriptions",
                "type": "User",
                "url": "https://api.github.com/users/rom1504"
            },
            "commit_id": null,
            "commit_url": null,
            "created_at": "2015-12-07T00:41:58Z",
            "event": "milestoned",
            "id": 483900189,
            "milestone": {
                "title": "0.3.0"
            },
            "node_id": "MDE1Ok1pbGVzdG9uZWRFdmVudDQ4MzkwMDE4OQ==",
            "performed_via_github_app": null,
            "url": "https://api.github.com/repos/PrismarineJS/flying-squid/issues/events/483900189"
        },
        {
            "actor": {
                "avatar_url": "https://avatars.githubusercontent.com/u/2346494?v=4",
                "events_url": "https://api.github.com/users/rom1504/events{/privacy}",
                "followers_url": "https://api.github.com/users/rom1504/followers",
                "following_url": "https://api.github.com/users/rom1504/following{/other_user}",
                "gists_url": "https://api.github.com/users/rom1504/gists{/gist_id}",
                "gravatar_id": "",
                "html_url": "https://github.com/rom1504",
                "id": 2346494,
                "login": "rom1504",
                "node_id": "MDQ6VXNlcjIzNDY0OTQ=",
                "organizations_url": "https://api.github.com/users/rom1504/orgs",
                "received_events_url": "https://api.github.com/users/rom1504/received_events",
                "repos_url": "https://api.github.com/users/rom1504/repos",
                "site_admin": false,
                "starred_url": "https://api.github.com/users/rom1504/starred{/owner}{/repo}",
                "subscriptions_url": "https://api.github.com/users/rom1504/subscriptions",
                "type": "User",
                "url": "https://api.github.com/users/rom1504"
            },
            "commit_id": null,
            "commit_url": null,
            "created_at": "2015-12-11T00:15:23Z",
            "event": "demilestoned",
            "id": 488840029,
            "milestone": {
                "title": "0.3.0"
            },
            "node_id": "MDE3OkRlbWlsZXN0b25lZEV2ZW50NDg4ODQwMDI5",
            "performed_via_github_app": null,
            "url": "https://api.github.com/repos/PrismarineJS/flying-squid/issues/events/488840029"
        },
        {
            "actor": {
                "avatar_url": "https://avatars.githubusercontent.com/u/2346494?v=4",
                "events_url": "https://api.github.com/users/rom1504/events{/privacy}",
                "followers_url": "https://api.github.com/users/rom1504/followers",
                "following_url": "https://api.github.com/users/rom1504/following{/other_user}",
                "gists_url": "https://api.github.com/users/rom1504/gists{/gist_id}",
                "gravatar_id": "",
                "html_url": "https://github.com/rom1504",
                "id": 2346494,
                "login": "rom1504",
                "node_id": "MDQ6VXNlcjIzNDY0OTQ=",
                "organizations_url": "https://api.github.com/users/rom1504/orgs",
                "received_events_url": "https://api.github.com/users/rom1504/received_events",
                "repos_url": "https://api.github.com/users/rom1504/repos",
                "site_admin": false,
                "starred_url": "https://api.github.com/users/rom1504/starred{/owner}{/repo}",
                "subscriptions_url": "https://api.github.com/users/rom1504/subscriptions",
                "type": "User",
                "url": "https://api.github.com/users/rom1504"
            },
            "commit_id": null,
            "commit_url": null,
            "created_at": "2015-12-11T00:15:23Z",
            "event": "milestoned",
            "id": 488840030,
            "milestone": {
                "title": "0.4.0"
            },
            "node_id": "MDE1Ok1pbGVzdG9uZWRFdmVudDQ4ODg0MDAzMA==",
            "performed_via_github_app": null,
            "url": "https://api.github.com/repos/PrismarineJS/flying-squid/issues/events/488840030"
        },
        {
            "actor": {
                "avatar_url": "https://avatars.githubusercontent.com/u/2346494?v=4",
                "events_url": "https://api.github.com/users/rom1504/events{/privacy}",
                "followers_url": "https://api.github.com/users/rom1504/followers",
                "following_url": "https://api.github.com/users/rom1504/following{/other_user}",
                "gists_url": "https://api.github.com/users/rom1504/gists{/gist_id}",
                "gravatar_id": "",
                "html_url": "https://github.com/rom1504",
                "id": 2346494,
                "login": "rom1504",
                "node_id": "MDQ6VXNlcjIzNDY0OTQ=",
                "organizations_url": "https://api.github.com/users/rom1504/orgs",
                "received_events_url": "https://api.github.com/users/rom1504/received_events",
                "repos_url": "https://api.github.com/users/rom1504/repos",
                "site_admin": false,
                "starred_url": "https://api.github.com/users/rom1504/starred{/owner}{/repo}",
                "subscriptions_url": "https://api.github.com/users/rom1504/subscriptions",
                "type": "User",
                "url": "https://api.github.com/users/rom1504"
            },
            "commit_id": null,
            "commit_url": null,
            "created_at": "2015-12-11T00:15:23Z",
            "event": "milestoned",
            "id": 488840031,
            "milestone": {
                "title": "0.4.0"
            },
            "node_id": "MDE1Ok1pbGVzdG9uZWRFdmVudDQ4ODg0MDAzMQ==",
            "performed_via_github_app": null,
            "url": "https://api.github.com/repos/PrismarineJS/flying-squid/issues/events/488840031"
        },
        {
            "actor": {
                "avatar_url": "https://avatars.githubusercontent.com/u/2346494?v=4",
                "events_url": "https://api.github.com/users/rom1504/events{/privacy}",
                "followers_url": "https://api.github.com/users/rom1504/followers",
                "following_url": "https://api.github.com/users/rom1504/following{/other_user}",
                "gists_url": "https://api.github.com/users/rom1504/gists{/gist_id}",
                "gravatar_id": "",
                "html_url": "https://github.com/rom1504",
                "id": 2346494,
                "login": "rom1504",
                "node_id": "MDQ6VXNlcjIzNDY0OTQ=",
                "organizations_url": "https://api.github.com/users/rom1504/orgs",
                "received_events_url": "https://api.github.com/users/rom1504/received_events",
                "repos_url": "https://api.github.com/users/rom1504/repos",
                "site_admin": false,
                "starred_url": "https://api.github.com/users/rom1504/starred{/owner}{/repo}",
                "subscriptions_url": "https://api.github.com/users/rom1504/subscriptions",
                "type": "User",
                "url": "https://api.github.com/users/rom1504"
            },
            "commit_id": null,
            "commit_url": null,
            "created_at": "2015-12-11T00:15:23Z",
            "event": "demilestoned",
            "id": 488840032,
            "milestone": {
                "title": "0.3.0"
            },
            "node_id": "MDE3OkRlbWlsZXN0b25lZEV2ZW50NDg4ODQwMDMy",
            "performed_via_github_app": null,
            "url": "https://api.github.com/repos/PrismarineJS/flying-squid/issues/events/488840032"
        },
        {
            "actor": {
                "avatar_url": "https://avatars.githubusercontent.com/u/2346494?v=4",
                "events_url": "https://api.github.com/users/rom1504/events{/privacy}",
                "followers_url": "https://api.github.com/users/rom1504/followers",
                "following_url": "https://api.github.com/users/rom1504/following{/other_user}",
                "gists_url": "https://api.github.com/users/rom1504/gists{/gist_id}",
                "gravatar_id": "",
                "html_url": "https://github.com/rom1504",
                "id": 2346494,
                "login": "rom1504",
                "node_id": "MDQ6VXNlcjIzNDY0OTQ=",
                "organizations_url": "https://api.github.com/users/rom1504/orgs",
                "received_events_url": "https://api.github.com/users/rom1504/received_events",
                "repos_url": "https://api.github.com/users/rom1504/repos",
                "site_admin": false,
                "starred_url": "https://api.github.com/users/rom1504/starred{/owner}{/repo}",
                "subscriptions_url": "https://api.github.com/users/rom1504/subscriptions",
                "type": "User",
                "url": "https://api.github.com/users/rom1504"
            },
            "commit_id": null,
            "commit_url": null,
            "created_at": "2016-01-14T01:29:01Z",
            "event": "demilestoned",
            "id": 514450744,
            "milestone": {
                "title": "0.4.0"
            },
            "node_id": "MDE3OkRlbWlsZXN0b25lZEV2ZW50NTE0NDUwNzQ0",
            "performed_via_github_app": null,
            "url": "https://api.github.com/repos/PrismarineJS/flying-squid/issues/events/514450744"
        },
        {
            "actor": {
                "avatar_url": "https://avatars.githubusercontent.com/u/2346494?v=4",
                "events_url": "https://api.github.com/users/rom1504/events{/privacy}",
                "followers_url": "https://api.github.com/users/rom1504/followers",
                "following_url": "https://api.github.com/users/rom1504/following{/other_user}",
                "gists_url": "https://api.github.com/users/rom1504/gists{/gist_id}",
                "gravatar_id": "",
                "html_url": "https://github.com/rom1504",
                "id": 2346494,
                "login": "rom1504",
                "node_id": "MDQ6VXNlcjIzNDY0OTQ=",
                "organizations_url": "https://api.github.com/users/rom1504/orgs",
                "received_events_url": "https://api.github.com/users/rom1504/received_events",
                "repos_url": "https://api.github.com/users/rom1504/repos",
                "site_admin": false,
                "starred_url": "https://api.github.com/users/rom1504/starred{/owner}{/repo}",
                "subscriptions_url": "https://api.github.com/users/rom1504/subscriptions",
                "type": "User",
                "url": "https://api.github.com/users/rom1504"
            },
            "commit_id": null,
            "commit_url": null,
            "created_at": "2016-01-14T01:29:01Z",
            "event": "milestoned",
            "id": 514450745,
            "milestone": {
                "title": "0.5.0"
            },
            "node_id": "MDE1Ok1pbGVzdG9uZWRFdmVudDUxNDQ1MDc0NQ==",
            "performed_via_github_app": null,
            "url": "https://api.github.com/repos/PrismarineJS/flying-squid/issues/events/514450745"
        },
        {
            "actor": {
                "avatar_url": "https://avatars.githubusercontent.com/u/2346494?v=4",
                "events_url": "https://api.github.com/users/rom1504/events{/privacy}",
                "followers_url": "https://api.github.com/users/rom1504/followers",
                "following_url": "https://api.github.com/users/rom1504/following{/other_user}",
                "gists_url": "https://api.github.com/users/rom1504/gists{/gist_id}",
                "gravatar_id": "",
                "html_url": "https://github.com/rom1504",
                "id": 2346494,
                "login": "rom1504",
                "node_id": "MDQ6VXNlcjIzNDY0OTQ=",
                "organizations_url": "https://api.github.com/users/rom1504/orgs",
                "received_events_url": "https://api.github.com/users/rom1504/received_events",
                "repos_url": "https://api.github.com/users/rom1504/repos",
                "site_admin": false,
                "starred_url": "https://api.github.com/users/rom1504/starred{/owner}{/repo}",
                "subscriptions_url": "https://api.github.com/users/rom1504/subscriptions",
                "type": "User",
                "url": "https://api.github.com/users/rom1504"
            },
            "commit_id": null,
            "commit_url": null,
            "created_at": "2016-01-14T01:29:01Z",
            "event": "milestoned",
            "id": 514450747,
            "milestone": {
                "title": "0.5.0"
            },
            "node_id": "MDE1Ok1pbGVzdG9uZWRFdmVudDUxNDQ1MDc0Nw==",
            "performed_via_github_app": null,
            "url": "https://api.github.com/repos/PrismarineJS/flying-squid/issues/events/514450747"
        },
        {
            "actor": {
                "avatar_url": "https://avatars.githubusercontent.com/u/2346494?v=4",
                "events_url": "https://api.github.com/users/rom1504/events{/privacy}",
                "followers_url": "https://api.github.com/users/rom1504/followers",
                "following_url": "https://api.github.com/users/rom1504/following{/other_user}",
                "gists_url": "https://api.github.com/users/rom1504/gists{/gist_id}",
                "gravatar_id": "",
                "html_url": "https://github.com/rom1504",
                "id": 2346494,
                "login": "rom1504",
                "node_id": "MDQ6VXNlcjIzNDY0OTQ=",
                "organizations_url": "https://api.github.com/users/rom1504/orgs",
                "received_events_url": "https://api.github.com/users/rom1504/received_events",
                "repos_url": "https://api.github.com/users/rom1504/repos",
                "site_admin": false,
                "starred_url": "https://api.github.com/users/rom1504/starred{/owner}{/repo}",
                "subscriptions_url": "https://api.github.com/users/rom1504/subscriptions",
                "type": "User",
                "url": "https://api.github.com/users/rom1504"
            },
            "commit_id": null,
            "commit_url": null,
            "created_at": "2016-01-14T01:29:01Z",
            "event": "demilestoned",
            "id": 514450748,
            "milestone": {
                "title": "0.4.0"
            },
            "node_id": "MDE3OkRlbWlsZXN0b25lZEV2ZW50NTE0NDUwNzQ4",
            "performed_via_github_app": null,
            "url": "https://api.github.com/repos/PrismarineJS/flying-squid/issues/events/514450748"
        },
        {
            "actor": {
                "avatar_url": "https://avatars.githubusercontent.com/u/8526903?v=4",
                "events_url": "https://api.github.com/users/mhsjlw/events{/privacy}",
                "followers_url": "https://api.github.com/users/mhsjlw/followers",
                "following_url": "https://api.github.com/users/mhsjlw/following{/other_user}",
                "gists_url": "https://api.github.com/users/mhsjlw/gists{/gist_id}",
                "gravatar_id": "",
                "html_url": "https://github.com/mhsjlw",
                "id": 8526903,
                "login": "mhsjlw",
                "node_id": "MDQ6VXNlcjg1MjY5MDM=",
                "organizations_url": "https://api.github.com/users/mhsjlw/orgs",
                "received_events_url": "https://api.github.com/users/mhsjlw/received_events",
                "repos_url": "https://api.github.com/users/mhsjlw/repos",
                "site_admin": false,
                "starred_url": "https://api.github.com/users/mhsjlw/starred{/owner}{/repo}",
                "subscriptions_url": "https://api.github.com/users/mhsjlw/subscriptions",
                "type": "User",
                "url": "https://api.github.com/users/mhsjlw"
            },
            "commit_id": null,
            "commit_url": null,
            "created_at": "2017-11-18T18:08:33Z",
            "event": "demilestoned",
            "id": 1348482030,
            "milestone": {
                "title": "Next"
            },
            "node_id": "MDE3OkRlbWlsZXN0b25lZEV2ZW50MTM0ODQ4MjAzMA==",
            "performed_via_github_app": null,
            "url": "https://api.github.com/repos/PrismarineJS/flying-squid/issues/events/1348482030"
        }
    ],
    "events_url": "https://api.github.com/repos/PrismarineJS/flying-squid/issues/136/events",
    "html_url": "https://github.com/PrismarineJS/flying-squid/issues/136",
    "id": 119314046,
    "labels": [
        {
            "color": "bbdd55",
            "default": false,
            "description": null,
            "id": 296203236,
            "name": "physics",
            "node_id": "MDU6TGFiZWwyOTYyMDMyMzY=",
            "url": "https://api.github.com/repos/PrismarineJS/flying-squid/labels/physics"
        }
    ],
    "labels_url": "https://api.github.com/repos/PrismarineJS/flying-squid/issues/136/labels{/name}",
    "locked": false,
    "milestone": null,
    "node_id": "MDU6SXNzdWUxMTkzMTQwNDY=",
    "number": 136,
    "performed_via_github_app": null,
    "reactions": {
        "+1": 0,
        "-1": 0,
        "confused": 0,
        "eyes": 0,
        "heart": 0,
        "hooray": 0,
        "laugh": 0,
        "rocket": 0,
        "total_count": 0,
        "url": "https://api.github.com/repos/PrismarineJS/flying-squid/issues/136/reactions"
    },
    "repository_url": "https://api.github.com/repos/PrismarineJS/flying-squid",
    "state": "open",
    "state_reason": null,
    "timeline_url": "https://api.github.com/repos/PrismarineJS/flying-squid/issues/136/timeline",
    "title": "Set correct terminal velocities/gravity",
    "updated_at": "2017-11-18T18:08:33Z",
    "url": "https://api.github.com/repos/PrismarineJS/flying-squid/issues/136",
    "user": {
        "avatar_url": "https://avatars.githubusercontent.com/u/2346494?v=4",
        "events_url": "https://api.github.com/users/rom1504/events{/privacy}",
        "followers_url": "https://api.github.com/users/rom1504/followers",
        "following_url": "https://api.github.com/users/rom1504/following{/other_user}",
        "gists_url": "https://api.github.com/users/rom1504/gists{/gist_id}",
        "gravatar_id": "",
        "html_url": "https://github.com/rom1504",
        "id": 2346494,
        "login": "rom1504",
        "node_id": "MDQ6VXNlcjIzNDY0OTQ=",
        "organizations_url": "https://api.github.com/users/rom1504/orgs",
        "received_events_url": "https://api.github.com/users/rom1504/received_events",
        "repos_url": "https://api.github.com/users/rom1504/repos",
        "site_admin": false,
        "starred_url": "https://api.github.com/users/rom1504/starred{/owner}{/repo}",
        "subscriptions_url": "https://api.github.com/users/rom1504/subscriptions",
        "type": "User",
        "url": "https://api.github.com/users/rom1504"
    }
}