{
    "active_lock_reason": null,
    "assignee": null,
    "assignees": [],
    "author_association": "NONE",
    "body": "I have forked flying squid [to fix an issue that allows players to place blocks inside themselves](https://github.com/a1cd/flying-squid) I have fixed the issue but the test [can place a block](https://github.com/PrismarineJS/flying-squid/blob/73dd100d6f29c9e8b053e6f176da339254df102f/test/mineflayer.test.js#L124) tries to place a block in its own hit box. The test fails. I tried modifying it to place out of the hitbox.",
    "closed_at": "2021-07-06T15:20:56Z",
    "comment_data": [
        {
            "author_association": "MEMBER",
            "body": "have you tried moving the block out further? another approach is that you go and see what is happening in game",
            "created_at": "2021-07-06T14:59:12Z",
            "html_url": "https://github.com/PrismarineJS/flying-squid/issues/515#issuecomment-874836096",
            "id": 874836096,
            "issue_url": "https://api.github.com/repos/PrismarineJS/flying-squid/issues/515",
            "node_id": "MDEyOklzc3VlQ29tbWVudDg3NDgzNjA5Ng==",
            "performed_via_github_app": null,
            "reactions": {
                "+1": 0,
                "-1": 0,
                "confused": 0,
                "eyes": 0,
                "heart": 0,
                "hooray": 0,
                "laugh": 0,
                "rocket": 0,
                "total_count": 0,
                "url": "https://api.github.com/repos/PrismarineJS/flying-squid/issues/comments/874836096/reactions"
            },
            "updated_at": "2021-07-06T14:59:12Z",
            "url": "https://api.github.com/repos/PrismarineJS/flying-squid/issues/comments/874836096",
            "user": {
                "avatar_url": "https://avatars.githubusercontent.com/u/43508353?v=4",
                "events_url": "https://api.github.com/users/u9g/events{/privacy}",
                "followers_url": "https://api.github.com/users/u9g/followers",
                "following_url": "https://api.github.com/users/u9g/following{/other_user}",
                "gists_url": "https://api.github.com/users/u9g/gists{/gist_id}",
                "gravatar_id": "",
                "html_url": "https://github.com/u9g",
                "id": 43508353,
                "login": "u9g",
                "node_id": "MDQ6VXNlcjQzNTA4MzUz",
                "organizations_url": "https://api.github.com/users/u9g/orgs",
                "received_events_url": "https://api.github.com/users/u9g/received_events",
                "repos_url": "https://api.github.com/users/u9g/repos",
                "site_admin": false,
                "starred_url": "https://api.github.com/users/u9g/starred{/owner}{/repo}",
                "subscriptions_url": "https://api.github.com/users/u9g/subscriptions",
                "type": "User",
                "url": "https://api.github.com/users/u9g"
            }
        },
        {
            "author_association": "NONE",
            "body": "Yep I have tried that\r\n\r\nHow do I join a test world?",
            "created_at": "2021-07-06T14:59:48Z",
            "html_url": "https://github.com/PrismarineJS/flying-squid/issues/515#issuecomment-874836594",
            "id": 874836594,
            "issue_url": "https://api.github.com/repos/PrismarineJS/flying-squid/issues/515",
            "node_id": "MDEyOklzc3VlQ29tbWVudDg3NDgzNjU5NA==",
            "performed_via_github_app": null,
            "reactions": {
                "+1": 0,
                "-1": 0,
                "confused": 0,
                "eyes": 0,
                "heart": 0,
                "hooray": 0,
                "laugh": 0,
                "rocket": 0,
                "total_count": 0,
                "url": "https://api.github.com/repos/PrismarineJS/flying-squid/issues/comments/874836594/reactions"
            },
            "updated_at": "2021-07-06T14:59:48Z",
            "url": "https://api.github.com/repos/PrismarineJS/flying-squid/issues/comments/874836594",
            "user": {
                "avatar_url": "https://avatars.githubusercontent.com/u/71281043?v=4",
                "events_url": "https://api.github.com/users/a1cd/events{/privacy}",
                "followers_url": "https://api.github.com/users/a1cd/followers",
                "following_url": "https://api.github.com/users/a1cd/following{/other_user}",
                "gists_url": "https://api.github.com/users/a1cd/gists{/gist_id}",
                "gravatar_id": "",
                "html_url": "https://github.com/a1cd",
                "id": 71281043,
                "login": "a1cd",
                "node_id": "MDQ6VXNlcjcxMjgxMDQz",
                "organizations_url": "https://api.github.com/users/a1cd/orgs",
                "received_events_url": "https://api.github.com/users/a1cd/received_events",
                "repos_url": "https://api.github.com/users/a1cd/repos",
                "site_admin": false,
                "starred_url": "https://api.github.com/users/a1cd/starred{/owner}{/repo}",
                "subscriptions_url": "https://api.github.com/users/a1cd/subscriptions",
                "type": "User",
                "url": "https://api.github.com/users/a1cd"
            }
        },
        {
            "author_association": "MEMBER",
            "body": "here: https://github.com/PrismarineJS/flying-squid/blob/73dd100d6f29c9e8b053e6f176da339254df102f/test/mineflayer.test.js#L89\r\nadd this code: \r\n```js\r\nawait new Promise((resolve, reject) => {\r\nconsole.log(`Join now @ localhost:${port}`)\r\nsetTimeout(resolve, 20000)\r\n}\r\n```\r\n\r\nwhich will give you 20 seconds to join",
            "created_at": "2021-07-06T15:05:24Z",
            "html_url": "https://github.com/PrismarineJS/flying-squid/issues/515#issuecomment-874841365",
            "id": 874841365,
            "issue_url": "https://api.github.com/repos/PrismarineJS/flying-squid/issues/515",
            "node_id": "MDEyOklzc3VlQ29tbWVudDg3NDg0MTM2NQ==",
            "performed_via_github_app": null,
            "reactions": {
                "+1": 0,
                "-1": 0,
                "confused": 0,
                "eyes": 0,
                "heart": 0,
                "hooray": 0,
                "laugh": 0,
                "rocket": 0,
                "total_count": 0,
                "url": "https://api.github.com/repos/PrismarineJS/flying-squid/issues/comments/874841365/reactions"
            },
            "updated_at": "2021-07-06T15:05:40Z",
            "url": "https://api.github.com/repos/PrismarineJS/flying-squid/issues/comments/874841365",
            "user": {
                "avatar_url": "https://avatars.githubusercontent.com/u/43508353?v=4",
                "events_url": "https://api.github.com/users/u9g/events{/privacy}",
                "followers_url": "https://api.github.com/users/u9g/followers",
                "following_url": "https://api.github.com/users/u9g/following{/other_user}",
                "gists_url": "https://api.github.com/users/u9g/gists{/gist_id}",
                "gravatar_id": "",
                "html_url": "https://github.com/u9g",
                "id": 43508353,
                "login": "u9g",
                "node_id": "MDQ6VXNlcjQzNTA4MzUz",
                "organizations_url": "https://api.github.com/users/u9g/orgs",
                "received_events_url": "https://api.github.com/users/u9g/received_events",
                "repos_url": "https://api.github.com/users/u9g/repos",
                "site_admin": false,
                "starred_url": "https://api.github.com/users/u9g/starred{/owner}{/repo}",
                "subscriptions_url": "https://api.github.com/users/u9g/subscriptions",
                "type": "User",
                "url": "https://api.github.com/users/u9g"
            }
        },
        {
            "author_association": "NONE",
            "body": "Ok thanks!",
            "created_at": "2021-07-06T15:20:53Z",
            "html_url": "https://github.com/PrismarineJS/flying-squid/issues/515#issuecomment-874854309",
            "id": 874854309,
            "issue_url": "https://api.github.com/repos/PrismarineJS/flying-squid/issues/515",
            "node_id": "MDEyOklzc3VlQ29tbWVudDg3NDg1NDMwOQ==",
            "performed_via_github_app": null,
            "reactions": {
                "+1": 0,
                "-1": 0,
                "confused": 0,
                "eyes": 0,
                "heart": 0,
                "hooray": 0,
                "laugh": 0,
                "rocket": 0,
                "total_count": 0,
                "url": "https://api.github.com/repos/PrismarineJS/flying-squid/issues/comments/874854309/reactions"
            },
            "updated_at": "2021-07-06T15:20:53Z",
            "url": "https://api.github.com/repos/PrismarineJS/flying-squid/issues/comments/874854309",
            "user": {
                "avatar_url": "https://avatars.githubusercontent.com/u/71281043?v=4",
                "events_url": "https://api.github.com/users/a1cd/events{/privacy}",
                "followers_url": "https://api.github.com/users/a1cd/followers",
                "following_url": "https://api.github.com/users/a1cd/following{/other_user}",
                "gists_url": "https://api.github.com/users/a1cd/gists{/gist_id}",
                "gravatar_id": "",
                "html_url": "https://github.com/a1cd",
                "id": 71281043,
                "login": "a1cd",
                "node_id": "MDQ6VXNlcjcxMjgxMDQz",
                "organizations_url": "https://api.github.com/users/a1cd/orgs",
                "received_events_url": "https://api.github.com/users/a1cd/received_events",
                "repos_url": "https://api.github.com/users/a1cd/repos",
                "site_admin": false,
                "starred_url": "https://api.github.com/users/a1cd/starred{/owner}{/repo}",
                "subscriptions_url": "https://api.github.com/users/a1cd/subscriptions",
                "type": "User",
                "url": "https://api.github.com/users/a1cd"
            }
        }
    ],
    "comments": 4,
    "comments_url": "https://api.github.com/repos/PrismarineJS/flying-squid/issues/515/comments",
    "created_at": "2021-07-06T14:57:04Z",
    "event_data": [
        {
            "actor": {
                "avatar_url": "https://avatars.githubusercontent.com/u/71281043?v=4",
                "events_url": "https://api.github.com/users/a1cd/events{/privacy}",
                "followers_url": "https://api.github.com/users/a1cd/followers",
                "following_url": "https://api.github.com/users/a1cd/following{/other_user}",
                "gists_url": "https://api.github.com/users/a1cd/gists{/gist_id}",
                "gravatar_id": "",
                "html_url": "https://github.com/a1cd",
                "id": 71281043,
                "login": "a1cd",
                "node_id": "MDQ6VXNlcjcxMjgxMDQz",
                "organizations_url": "https://api.github.com/users/a1cd/orgs",
                "received_events_url": "https://api.github.com/users/a1cd/received_events",
                "repos_url": "https://api.github.com/users/a1cd/repos",
                "site_admin": false,
                "starred_url": "https://api.github.com/users/a1cd/starred{/owner}{/repo}",
                "subscriptions_url": "https://api.github.com/users/a1cd/subscriptions",
                "type": "User",
                "url": "https://api.github.com/users/a1cd"
            },
            "commit_id": null,
            "commit_url": null,
            "created_at": "2021-07-06T15:20:56Z",
            "event": "closed",
            "id": 4983953550,
            "node_id": "MDExOkNsb3NlZEV2ZW50NDk4Mzk1MzU1MA==",
            "performed_via_github_app": null,
            "state_reason": null,
            "url": "https://api.github.com/repos/PrismarineJS/flying-squid/issues/events/4983953550"
        }
    ],
    "events_url": "https://api.github.com/repos/PrismarineJS/flying-squid/issues/515/events",
    "html_url": "https://github.com/PrismarineJS/flying-squid/issues/515",
    "id": 937986679,
    "labels": [],
    "labels_url": "https://api.github.com/repos/PrismarineJS/flying-squid/issues/515/labels{/name}",
    "locked": false,
    "milestone": null,
    "node_id": "MDU6SXNzdWU5Mzc5ODY2Nzk=",
    "number": 515,
    "performed_via_github_app": null,
    "reactions": {
        "+1": 0,
        "-1": 0,
        "confused": 0,
        "eyes": 0,
        "heart": 0,
        "hooray": 0,
        "laugh": 0,
        "rocket": 0,
        "total_count": 0,
        "url": "https://api.github.com/repos/PrismarineJS/flying-squid/issues/515/reactions"
    },
    "repository_url": "https://api.github.com/repos/PrismarineJS/flying-squid",
    "state": "closed",
    "state_reason": "completed",
    "timeline_url": "https://api.github.com/repos/PrismarineJS/flying-squid/issues/515/timeline",
    "title": "Testing issues",
    "updated_at": "2021-07-06T15:20:56Z",
    "url": "https://api.github.com/repos/PrismarineJS/flying-squid/issues/515",
    "user": {
        "avatar_url": "https://avatars.githubusercontent.com/u/71281043?v=4",
        "events_url": "https://api.github.com/users/a1cd/events{/privacy}",
        "followers_url": "https://api.github.com/users/a1cd/followers",
        "following_url": "https://api.github.com/users/a1cd/following{/other_user}",
        "gists_url": "https://api.github.com/users/a1cd/gists{/gist_id}",
        "gravatar_id": "",
        "html_url": "https://github.com/a1cd",
        "id": 71281043,
        "login": "a1cd",
        "node_id": "MDQ6VXNlcjcxMjgxMDQz",
        "organizations_url": "https://api.github.com/users/a1cd/orgs",
        "received_events_url": "https://api.github.com/users/a1cd/received_events",
        "repos_url": "https://api.github.com/users/a1cd/repos",
        "site_admin": false,
        "starred_url": "https://api.github.com/users/a1cd/starred{/owner}{/repo}",
        "subscriptions_url": "https://api.github.com/users/a1cd/subscriptions",
        "type": "User",
        "url": "https://api.github.com/users/a1cd"
    }
}