{
    "active_lock_reason": null,
    "assignee": null,
    "assignees": [],
    "author_association": "NONE",
    "body": "What about TypeScript support? Could not find anything about this and could not install any Types. It is a great support in the development and helps to prevent mistakes and better understand what options you have.",
    "closed_at": "2022-04-11T15:20:43Z",
    "comment_data": [
        {
            "author_association": "NONE",
            "body": "That's a good suggestion. You can technically still run it in TypeScript because it compiles into JS, you just won't get IntelliSense - but I completely agree that this should be implemented.",
            "created_at": "2021-11-13T07:47:32Z",
            "html_url": "https://github.com/PrismarineJS/flying-squid/issues/533#issuecomment-967799963",
            "id": 967799963,
            "issue_url": "https://api.github.com/repos/PrismarineJS/flying-squid/issues/533",
            "node_id": "IC_kwDOAnecDM45r3Sb",
            "performed_via_github_app": null,
            "reactions": {
                "+1": 4,
                "-1": 0,
                "confused": 0,
                "eyes": 0,
                "heart": 0,
                "hooray": 0,
                "laugh": 0,
                "rocket": 0,
                "total_count": 4,
                "url": "https://api.github.com/repos/PrismarineJS/flying-squid/issues/comments/967799963/reactions"
            },
            "updated_at": "2021-11-13T07:47:32Z",
            "url": "https://api.github.com/repos/PrismarineJS/flying-squid/issues/comments/967799963",
            "user": {
                "avatar_url": "https://avatars.githubusercontent.com/u/71867548?v=4",
                "events_url": "https://api.github.com/users/ladyskye/events{/privacy}",
                "followers_url": "https://api.github.com/users/ladyskye/followers",
                "following_url": "https://api.github.com/users/ladyskye/following{/other_user}",
                "gists_url": "https://api.github.com/users/ladyskye/gists{/gist_id}",
                "gravatar_id": "",
                "html_url": "https://github.com/ladyskye",
                "id": 71867548,
                "login": "ladyskye",
                "node_id": "MDQ6VXNlcjcxODY3NTQ4",
                "organizations_url": "https://api.github.com/users/ladyskye/orgs",
                "received_events_url": "https://api.github.com/users/ladyskye/received_events",
                "repos_url": "https://api.github.com/users/ladyskye/repos",
                "site_admin": false,
                "starred_url": "https://api.github.com/users/ladyskye/starred{/owner}{/repo}",
                "subscriptions_url": "https://api.github.com/users/ladyskye/subscriptions",
                "type": "User",
                "url": "https://api.github.com/users/ladyskye"
            }
        },
        {
            "author_association": "NONE",
            "body": "> That's a good suggestion. You can technically still run it in TypeScript because it compiles into JS, you just won't get IntelliSense - but I completely agree that this should be implemented.\r\n\r\nYou **can** run it in normal ts, however with\r\n```json\r\n\"compilerOptions\": {\r\n  \"noEmitOnError\": true,\r\n  \"strict\": true\r\n}\r\n```\r\nTypescript will not let you compile it.\r\nMost ts preset configs contain atleast the `\"strict\": true` part of that.\r\n\r\nFurthermore, adding typescript deffinitions shouldn't be too hard, and moving the project to typescript and having ts auto-generate `.d.ts` files would be even easier.",
            "created_at": "2022-03-20T12:40:15Z",
            "html_url": "https://github.com/PrismarineJS/flying-squid/issues/533#issuecomment-1073242507",
            "id": 1073242507,
            "issue_url": "https://api.github.com/repos/PrismarineJS/flying-squid/issues/533",
            "node_id": "IC_kwDOAnecDM4_-GGL",
            "performed_via_github_app": null,
            "reactions": {
                "+1": 0,
                "-1": 0,
                "confused": 0,
                "eyes": 0,
                "heart": 0,
                "hooray": 0,
                "laugh": 0,
                "rocket": 0,
                "total_count": 0,
                "url": "https://api.github.com/repos/PrismarineJS/flying-squid/issues/comments/1073242507/reactions"
            },
            "updated_at": "2022-03-20T12:42:09Z",
            "url": "https://api.github.com/repos/PrismarineJS/flying-squid/issues/comments/1073242507",
            "user": {
                "avatar_url": "https://avatars.githubusercontent.com/u/92001109?v=4",
                "events_url": "https://api.github.com/users/djfjfofoc3/events{/privacy}",
                "followers_url": "https://api.github.com/users/djfjfofoc3/followers",
                "following_url": "https://api.github.com/users/djfjfofoc3/following{/other_user}",
                "gists_url": "https://api.github.com/users/djfjfofoc3/gists{/gist_id}",
                "gravatar_id": "",
                "html_url": "https://github.com/djfjfofoc3",
                "id": 92001109,
                "login": "djfjfofoc3",
                "node_id": "U_kgDOBXvTVQ",
                "organizations_url": "https://api.github.com/users/djfjfofoc3/orgs",
                "received_events_url": "https://api.github.com/users/djfjfofoc3/received_events",
                "repos_url": "https://api.github.com/users/djfjfofoc3/repos",
                "site_admin": false,
                "starred_url": "https://api.github.com/users/djfjfofoc3/starred{/owner}{/repo}",
                "subscriptions_url": "https://api.github.com/users/djfjfofoc3/subscriptions",
                "type": "User",
                "url": "https://api.github.com/users/djfjfofoc3"
            }
        }
    ],
    "comments": 2,
    "comments_url": "https://api.github.com/repos/PrismarineJS/flying-squid/issues/533/comments",
    "created_at": "2021-10-26T06:41:35Z",
    "event_data": [
        {
            "actor": {
                "avatar_url": "https://avatars.githubusercontent.com/u/2346494?v=4",
                "events_url": "https://api.github.com/users/rom1504/events{/privacy}",
                "followers_url": "https://api.github.com/users/rom1504/followers",
                "following_url": "https://api.github.com/users/rom1504/following{/other_user}",
                "gists_url": "https://api.github.com/users/rom1504/gists{/gist_id}",
                "gravatar_id": "",
                "html_url": "https://github.com/rom1504",
                "id": 2346494,
                "login": "rom1504",
                "node_id": "MDQ6VXNlcjIzNDY0OTQ=",
                "organizations_url": "https://api.github.com/users/rom1504/orgs",
                "received_events_url": "https://api.github.com/users/rom1504/received_events",
                "repos_url": "https://api.github.com/users/rom1504/repos",
                "site_admin": false,
                "starred_url": "https://api.github.com/users/rom1504/starred{/owner}{/repo}",
                "subscriptions_url": "https://api.github.com/users/rom1504/subscriptions",
                "type": "User",
                "url": "https://api.github.com/users/rom1504"
            },
            "commit_id": null,
            "commit_url": null,
            "created_at": "2022-04-11T15:20:44Z",
            "event": "closed",
            "id": 6410000318,
            "node_id": "CE_lADOAnecDM49vowwzwAAAAF-ENe-",
            "performed_via_github_app": null,
            "state_reason": null,
            "url": "https://api.github.com/repos/PrismarineJS/flying-squid/issues/events/6410000318"
        }
    ],
    "events_url": "https://api.github.com/repos/PrismarineJS/flying-squid/issues/533/events",
    "html_url": "https://github.com/PrismarineJS/flying-squid/issues/533",
    "id": 1035897904,
    "labels": [],
    "labels_url": "https://api.github.com/repos/PrismarineJS/flying-squid/issues/533/labels{/name}",
    "locked": false,
    "milestone": null,
    "node_id": "I_kwDOAnecDM49voww",
    "number": 533,
    "performed_via_github_app": null,
    "reactions": {
        "+1": 0,
        "-1": 0,
        "confused": 0,
        "eyes": 0,
        "heart": 0,
        "hooray": 0,
        "laugh": 0,
        "rocket": 0,
        "total_count": 0,
        "url": "https://api.github.com/repos/PrismarineJS/flying-squid/issues/533/reactions"
    },
    "repository_url": "https://api.github.com/repos/PrismarineJS/flying-squid",
    "state": "closed",
    "state_reason": "completed",
    "timeline_url": "https://api.github.com/repos/PrismarineJS/flying-squid/issues/533/timeline",
    "title": "TypeScript Support",
    "updated_at": "2022-04-11T15:20:43Z",
    "url": "https://api.github.com/repos/PrismarineJS/flying-squid/issues/533",
    "user": {
        "avatar_url": "https://avatars.githubusercontent.com/u/38178517?v=4",
        "events_url": "https://api.github.com/users/HrPlanlos/events{/privacy}",
        "followers_url": "https://api.github.com/users/HrPlanlos/followers",
        "following_url": "https://api.github.com/users/HrPlanlos/following{/other_user}",
        "gists_url": "https://api.github.com/users/HrPlanlos/gists{/gist_id}",
        "gravatar_id": "",
        "html_url": "https://github.com/HrPlanlos",
        "id": 38178517,
        "login": "HrPlanlos",
        "node_id": "MDQ6VXNlcjM4MTc4NTE3",
        "organizations_url": "https://api.github.com/users/HrPlanlos/orgs",
        "received_events_url": "https://api.github.com/users/HrPlanlos/received_events",
        "repos_url": "https://api.github.com/users/HrPlanlos/repos",
        "site_admin": false,
        "starred_url": "https://api.github.com/users/HrPlanlos/starred{/owner}{/repo}",
        "subscriptions_url": "https://api.github.com/users/HrPlanlos/subscriptions",
        "type": "User",
        "url": "https://api.github.com/users/HrPlanlos"
    }
}