{
    "active_lock_reason": null,
    "assignee": null,
    "assignees": [],
    "author_association": "CONTRIBUTOR",
    "body": "I think it can be confusing for new contributors to have both plugins and lib/plugins folder. Maybe rename the first folder to `modules` or `builtinPlugins`?\r\nI also have a plan to migrate the plugin system to TypeScript for massive intellisense. For example:\r\n\r\n```ts\r\n//@filename: player.ts\r\nexport default definePlugin({\r\n\tserver(...) {...},\r\n   player(player, serv, { version }) {/* ... */},\r\n})\r\n\r\ndeclare interface API {\r\n\tplayer: ...\r\n}\r\n```",
    "closed_at": "2024-01-06T12:13:20Z",
    "comment_data": [
        {
            "author_association": "MEMBER",
            "body": "I don't think any of these changes would help much and it would cause confusion by making the change in itself ",
            "created_at": "2024-01-06T12:13:16Z",
            "html_url": "https://github.com/PrismarineJS/flying-squid/issues/631#issuecomment-1879660181",
            "id": 1879660181,
            "issue_url": "https://api.github.com/repos/PrismarineJS/flying-squid/issues/631",
            "node_id": "IC_kwDOAnecDM5wCVaV",
            "performed_via_github_app": null,
            "reactions": {
                "+1": 0,
                "-1": 0,
                "confused": 0,
                "eyes": 0,
                "heart": 0,
                "hooray": 0,
                "laugh": 0,
                "rocket": 0,
                "total_count": 0,
                "url": "https://api.github.com/repos/PrismarineJS/flying-squid/issues/comments/1879660181/reactions"
            },
            "updated_at": "2024-01-06T12:13:16Z",
            "url": "https://api.github.com/repos/PrismarineJS/flying-squid/issues/comments/1879660181",
            "user": {
                "avatar_url": "https://avatars.githubusercontent.com/u/2346494?v=4",
                "events_url": "https://api.github.com/users/rom1504/events{/privacy}",
                "followers_url": "https://api.github.com/users/rom1504/followers",
                "following_url": "https://api.github.com/users/rom1504/following{/other_user}",
                "gists_url": "https://api.github.com/users/rom1504/gists{/gist_id}",
                "gravatar_id": "",
                "html_url": "https://github.com/rom1504",
                "id": 2346494,
                "login": "rom1504",
                "node_id": "MDQ6VXNlcjIzNDY0OTQ=",
                "organizations_url": "https://api.github.com/users/rom1504/orgs",
                "received_events_url": "https://api.github.com/users/rom1504/received_events",
                "repos_url": "https://api.github.com/users/rom1504/repos",
                "site_admin": false,
                "starred_url": "https://api.github.com/users/rom1504/starred{/owner}{/repo}",
                "subscriptions_url": "https://api.github.com/users/rom1504/subscriptions",
                "type": "User",
                "url": "https://api.github.com/users/rom1504"
            }
        },
        {
            "author_association": "CONTRIBUTOR",
            "body": "> I don't think any of these changes would help much and it would cause confusion by making the change in itself\r\n\r\ncan you rephrase. not clear",
            "created_at": "2024-01-06T12:28:13Z",
            "html_url": "https://github.com/PrismarineJS/flying-squid/issues/631#issuecomment-1879666480",
            "id": 1879666480,
            "issue_url": "https://api.github.com/repos/PrismarineJS/flying-squid/issues/631",
            "node_id": "IC_kwDOAnecDM5wCW8w",
            "performed_via_github_app": null,
            "reactions": {
                "+1": 0,
                "-1": 0,
                "confused": 0,
                "eyes": 0,
                "heart": 0,
                "hooray": 0,
                "laugh": 0,
                "rocket": 0,
                "total_count": 0,
                "url": "https://api.github.com/repos/PrismarineJS/flying-squid/issues/comments/1879666480/reactions"
            },
            "updated_at": "2024-01-06T12:28:13Z",
            "url": "https://api.github.com/repos/PrismarineJS/flying-squid/issues/comments/1879666480",
            "user": {
                "avatar_url": "https://avatars.githubusercontent.com/u/46503702?v=4",
                "events_url": "https://api.github.com/users/zardoy/events{/privacy}",
                "followers_url": "https://api.github.com/users/zardoy/followers",
                "following_url": "https://api.github.com/users/zardoy/following{/other_user}",
                "gists_url": "https://api.github.com/users/zardoy/gists{/gist_id}",
                "gravatar_id": "",
                "html_url": "https://github.com/zardoy",
                "id": 46503702,
                "login": "zardoy",
                "node_id": "MDQ6VXNlcjQ2NTAzNzAy",
                "organizations_url": "https://api.github.com/users/zardoy/orgs",
                "received_events_url": "https://api.github.com/users/zardoy/received_events",
                "repos_url": "https://api.github.com/users/zardoy/repos",
                "site_admin": false,
                "starred_url": "https://api.github.com/users/zardoy/starred{/owner}{/repo}",
                "subscriptions_url": "https://api.github.com/users/zardoy/subscriptions",
                "type": "User",
                "url": "https://api.github.com/users/zardoy"
            }
        },
        {
            "author_association": "CONTRIBUTOR",
            "body": "this structure seems less confusing and has a lot of benefits https://github.com/zardoy/space-squid/tree/everything/src/lib such as improved stability & intellisense (i mean its just structured, isnt' it?)",
            "created_at": "2024-01-06T12:30:07Z",
            "html_url": "https://github.com/PrismarineJS/flying-squid/issues/631#issuecomment-1879667029",
            "id": 1879667029,
            "issue_url": "https://api.github.com/repos/PrismarineJS/flying-squid/issues/631",
            "node_id": "IC_kwDOAnecDM5wCXFV",
            "performed_via_github_app": null,
            "reactions": {
                "+1": 0,
                "-1": 0,
                "confused": 0,
                "eyes": 0,
                "heart": 0,
                "hooray": 0,
                "laugh": 0,
                "rocket": 0,
                "total_count": 0,
                "url": "https://api.github.com/repos/PrismarineJS/flying-squid/issues/comments/1879667029/reactions"
            },
            "updated_at": "2024-01-06T12:30:07Z",
            "url": "https://api.github.com/repos/PrismarineJS/flying-squid/issues/comments/1879667029",
            "user": {
                "avatar_url": "https://avatars.githubusercontent.com/u/46503702?v=4",
                "events_url": "https://api.github.com/users/zardoy/events{/privacy}",
                "followers_url": "https://api.github.com/users/zardoy/followers",
                "following_url": "https://api.github.com/users/zardoy/following{/other_user}",
                "gists_url": "https://api.github.com/users/zardoy/gists{/gist_id}",
                "gravatar_id": "",
                "html_url": "https://github.com/zardoy",
                "id": 46503702,
                "login": "zardoy",
                "node_id": "MDQ6VXNlcjQ2NTAzNzAy",
                "organizations_url": "https://api.github.com/users/zardoy/orgs",
                "received_events_url": "https://api.github.com/users/zardoy/received_events",
                "repos_url": "https://api.github.com/users/zardoy/repos",
                "site_admin": false,
                "starred_url": "https://api.github.com/users/zardoy/starred{/owner}{/repo}",
                "subscriptions_url": "https://api.github.com/users/zardoy/subscriptions",
                "type": "User",
                "url": "https://api.github.com/users/zardoy"
            }
        },
        {
            "author_association": "MEMBER",
            "body": "That looks exactly the same as the current thing to me.\r\n\r\nDoing unnecessary changes increases confusion. For example it means you cannot compare as easily with older commits. In this case it's also incoherent with mineflayer naming.\r\n\r\nIs there any benefit?",
            "created_at": "2024-01-06T12:45:04Z",
            "html_url": "https://github.com/PrismarineJS/flying-squid/issues/631#issuecomment-1879671614",
            "id": 1879671614,
            "issue_url": "https://api.github.com/repos/PrismarineJS/flying-squid/issues/631",
            "node_id": "IC_kwDOAnecDM5wCYM-",
            "performed_via_github_app": null,
            "reactions": {
                "+1": 0,
                "-1": 0,
                "confused": 0,
                "eyes": 0,
                "heart": 0,
                "hooray": 0,
                "laugh": 0,
                "rocket": 0,
                "total_count": 0,
                "url": "https://api.github.com/repos/PrismarineJS/flying-squid/issues/comments/1879671614/reactions"
            },
            "updated_at": "2024-01-06T12:45:04Z",
            "url": "https://api.github.com/repos/PrismarineJS/flying-squid/issues/comments/1879671614",
            "user": {
                "avatar_url": "https://avatars.githubusercontent.com/u/2346494?v=4",
                "events_url": "https://api.github.com/users/rom1504/events{/privacy}",
                "followers_url": "https://api.github.com/users/rom1504/followers",
                "following_url": "https://api.github.com/users/rom1504/following{/other_user}",
                "gists_url": "https://api.github.com/users/rom1504/gists{/gist_id}",
                "gravatar_id": "",
                "html_url": "https://github.com/rom1504",
                "id": 2346494,
                "login": "rom1504",
                "node_id": "MDQ6VXNlcjIzNDY0OTQ=",
                "organizations_url": "https://api.github.com/users/rom1504/orgs",
                "received_events_url": "https://api.github.com/users/rom1504/received_events",
                "repos_url": "https://api.github.com/users/rom1504/repos",
                "site_admin": false,
                "starred_url": "https://api.github.com/users/rom1504/starred{/owner}{/repo}",
                "subscriptions_url": "https://api.github.com/users/rom1504/subscriptions",
                "type": "User",
                "url": "https://api.github.com/users/rom1504"
            }
        },
        {
            "author_association": "MEMBER",
            "body": "Btw I think it's too bad you keep doing these hard forks (https://github.com/PrismarineJS/flying-squid/compare/master...zardoy:space-squid:everything). The consequences of that is that someday your forks will go unmaintained and it'll be very hard / impossible to merge back into the main branch to build on top of any improvements \r\n\r\nDid you consider proposing incremental improvements instead?",
            "created_at": "2024-01-06T12:47:43Z",
            "html_url": "https://github.com/PrismarineJS/flying-squid/issues/631#issuecomment-1879672428",
            "id": 1879672428,
            "issue_url": "https://api.github.com/repos/PrismarineJS/flying-squid/issues/631",
            "node_id": "IC_kwDOAnecDM5wCYZs",
            "performed_via_github_app": null,
            "reactions": {
                "+1": 0,
                "-1": 0,
                "confused": 0,
                "eyes": 0,
                "heart": 0,
                "hooray": 0,
                "laugh": 0,
                "rocket": 0,
                "total_count": 0,
                "url": "https://api.github.com/repos/PrismarineJS/flying-squid/issues/comments/1879672428/reactions"
            },
            "updated_at": "2024-01-06T12:47:43Z",
            "url": "https://api.github.com/repos/PrismarineJS/flying-squid/issues/comments/1879672428",
            "user": {
                "avatar_url": "https://avatars.githubusercontent.com/u/2346494?v=4",
                "events_url": "https://api.github.com/users/rom1504/events{/privacy}",
                "followers_url": "https://api.github.com/users/rom1504/followers",
                "following_url": "https://api.github.com/users/rom1504/following{/other_user}",
                "gists_url": "https://api.github.com/users/rom1504/gists{/gist_id}",
                "gravatar_id": "",
                "html_url": "https://github.com/rom1504",
                "id": 2346494,
                "login": "rom1504",
                "node_id": "MDQ6VXNlcjIzNDY0OTQ=",
                "organizations_url": "https://api.github.com/users/rom1504/orgs",
                "received_events_url": "https://api.github.com/users/rom1504/received_events",
                "repos_url": "https://api.github.com/users/rom1504/repos",
                "site_admin": false,
                "starred_url": "https://api.github.com/users/rom1504/starred{/owner}{/repo}",
                "subscriptions_url": "https://api.github.com/users/rom1504/subscriptions",
                "type": "User",
                "url": "https://api.github.com/users/rom1504"
            }
        },
        {
            "author_association": "CONTRIBUTOR",
            "body": "> Btw I think it's too bad you keep doing these hard forks\r\n\r\nMy bad, sorry! Yes, my soft might be just terrible, I just do what I like to do and there is no point in working on the code for fun if you are not getting any fun.\r\n\r\n> The consequence of that is that someday your forks will go unmaintained and it'll be very hard / impossible to merge back into the main branch to build on top of any improvements\r\n\r\nWould be really great if you could give me more specific instructions on what would be more acceptable to you and what I can do here.\r\n\r\n> Did you consider proposing incremental improvements instead?\r\n\r\nIncremental changes are easier to do after doing bigger ones, also I tried here to have clean commits history (yes, sorry for not opening prs, was always planning to do that, but wasn't sure). If you want I can group / clean commit history just like you want. Would be much easier if you tell me how I can pick the changes and in what changes you are interested. And thanks for feedback!",
            "created_at": "2024-01-07T00:49:09Z",
            "html_url": "https://github.com/PrismarineJS/flying-squid/issues/631#issuecomment-1879897877",
            "id": 1879897877,
            "issue_url": "https://api.github.com/repos/PrismarineJS/flying-squid/issues/631",
            "node_id": "IC_kwDOAnecDM5wDPcV",
            "performed_via_github_app": null,
            "reactions": {
                "+1": 0,
                "-1": 0,
                "confused": 0,
                "eyes": 0,
                "heart": 0,
                "hooray": 0,
                "laugh": 0,
                "rocket": 0,
                "total_count": 0,
                "url": "https://api.github.com/repos/PrismarineJS/flying-squid/issues/comments/1879897877/reactions"
            },
            "updated_at": "2024-01-07T00:49:09Z",
            "url": "https://api.github.com/repos/PrismarineJS/flying-squid/issues/comments/1879897877",
            "user": {
                "avatar_url": "https://avatars.githubusercontent.com/u/46503702?v=4",
                "events_url": "https://api.github.com/users/zardoy/events{/privacy}",
                "followers_url": "https://api.github.com/users/zardoy/followers",
                "following_url": "https://api.github.com/users/zardoy/following{/other_user}",
                "gists_url": "https://api.github.com/users/zardoy/gists{/gist_id}",
                "gravatar_id": "",
                "html_url": "https://github.com/zardoy",
                "id": 46503702,
                "login": "zardoy",
                "node_id": "MDQ6VXNlcjQ2NTAzNzAy",
                "organizations_url": "https://api.github.com/users/zardoy/orgs",
                "received_events_url": "https://api.github.com/users/zardoy/received_events",
                "repos_url": "https://api.github.com/users/zardoy/repos",
                "site_admin": false,
                "starred_url": "https://api.github.com/users/zardoy/starred{/owner}{/repo}",
                "subscriptions_url": "https://api.github.com/users/zardoy/subscriptions",
                "type": "User",
                "url": "https://api.github.com/users/zardoy"
            }
        }
    ],
    "comments": 6,
    "comments_url": "https://api.github.com/repos/PrismarineJS/flying-squid/issues/631/comments",
    "created_at": "2023-08-21T18:32:52Z",
    "event_data": [
        {
            "actor": {
                "avatar_url": "https://avatars.githubusercontent.com/u/2346494?v=4",
                "events_url": "https://api.github.com/users/rom1504/events{/privacy}",
                "followers_url": "https://api.github.com/users/rom1504/followers",
                "following_url": "https://api.github.com/users/rom1504/following{/other_user}",
                "gists_url": "https://api.github.com/users/rom1504/gists{/gist_id}",
                "gravatar_id": "",
                "html_url": "https://github.com/rom1504",
                "id": 2346494,
                "login": "rom1504",
                "node_id": "MDQ6VXNlcjIzNDY0OTQ=",
                "organizations_url": "https://api.github.com/users/rom1504/orgs",
                "received_events_url": "https://api.github.com/users/rom1504/received_events",
                "repos_url": "https://api.github.com/users/rom1504/repos",
                "site_admin": false,
                "starred_url": "https://api.github.com/users/rom1504/starred{/owner}{/repo}",
                "subscriptions_url": "https://api.github.com/users/rom1504/subscriptions",
                "type": "User",
                "url": "https://api.github.com/users/rom1504"
            },
            "commit_id": null,
            "commit_url": null,
            "created_at": "2024-01-06T12:13:20Z",
            "event": "closed",
            "id": 11408205425,
            "node_id": "CE_lADOAnecDM5u3DHbzwAAAAKn-2Zx",
            "performed_via_github_app": null,
            "state_reason": null,
            "url": "https://api.github.com/repos/PrismarineJS/flying-squid/issues/events/11408205425"
        }
    ],
    "events_url": "https://api.github.com/repos/PrismarineJS/flying-squid/issues/631/events",
    "html_url": "https://github.com/PrismarineJS/flying-squid/issues/631",
    "id": 1859924443,
    "labels": [],
    "labels_url": "https://api.github.com/repos/PrismarineJS/flying-squid/issues/631/labels{/name}",
    "locked": false,
    "milestone": null,
    "node_id": "I_kwDOAnecDM5u3DHb",
    "number": 631,
    "performed_via_github_app": null,
    "reactions": {
        "+1": 0,
        "-1": 0,
        "confused": 0,
        "eyes": 0,
        "heart": 0,
        "hooray": 0,
        "laugh": 0,
        "rocket": 0,
        "total_count": 0,
        "url": "https://api.github.com/repos/PrismarineJS/flying-squid/issues/631/reactions"
    },
    "repository_url": "https://api.github.com/repos/PrismarineJS/flying-squid",
    "state": "closed",
    "state_reason": "completed",
    "timeline_url": "https://api.github.com/repos/PrismarineJS/flying-squid/issues/631/timeline",
    "title": "Rename builtin plugins to modules",
    "updated_at": "2024-01-07T00:49:10Z",
    "url": "https://api.github.com/repos/PrismarineJS/flying-squid/issues/631",
    "user": {
        "avatar_url": "https://avatars.githubusercontent.com/u/46503702?v=4",
        "events_url": "https://api.github.com/users/zardoy/events{/privacy}",
        "followers_url": "https://api.github.com/users/zardoy/followers",
        "following_url": "https://api.github.com/users/zardoy/following{/other_user}",
        "gists_url": "https://api.github.com/users/zardoy/gists{/gist_id}",
        "gravatar_id": "",
        "html_url": "https://github.com/zardoy",
        "id": 46503702,
        "login": "zardoy",
        "node_id": "MDQ6VXNlcjQ2NTAzNzAy",
        "organizations_url": "https://api.github.com/users/zardoy/orgs",
        "received_events_url": "https://api.github.com/users/zardoy/received_events",
        "repos_url": "https://api.github.com/users/zardoy/repos",
        "site_admin": false,
        "starred_url": "https://api.github.com/users/zardoy/starred{/owner}{/repo}",
        "subscriptions_url": "https://api.github.com/users/zardoy/subscriptions",
        "type": "User",
        "url": "https://api.github.com/users/zardoy"
    }
}