{
    "_links": {
        "comments": {
            "href": "https://api.github.com/repos/PrismarineJS/prismarine-auth/issues/120/comments"
        },
        "commits": {
            "href": "https://api.github.com/repos/PrismarineJS/prismarine-auth/pulls/120/commits"
        },
        "html": {
            "href": "https://github.com/PrismarineJS/prismarine-auth/pull/120"
        },
        "issue": {
            "href": "https://api.github.com/repos/PrismarineJS/prismarine-auth/issues/120"
        },
        "review_comment": {
            "href": "https://api.github.com/repos/PrismarineJS/prismarine-auth/pulls/comments{/number}"
        },
        "review_comments": {
            "href": "https://api.github.com/repos/PrismarineJS/prismarine-auth/pulls/120/comments"
        },
        "self": {
            "href": "https://api.github.com/repos/PrismarineJS/prismarine-auth/pulls/120"
        },
        "statuses": {
            "href": "https://api.github.com/repos/PrismarineJS/prismarine-auth/statuses/f46c48f43fd43a39c4c97553858a3ba03ef58aa1"
        }
    },
    "active_lock_reason": null,
    "additions": 1,
    "assignee": null,
    "assignees": [],
    "author_association": "CONTRIBUTOR",
    "auto_merge": null,
    "base": {
        "label": "PrismarineJS:master",
        "ref": "master",
        "repo": {
            "allow_forking": true,
            "archive_url": "https://api.github.com/repos/PrismarineJS/prismarine-auth/{archive_format}{/ref}",
            "archived": false,
            "assignees_url": "https://api.github.com/repos/PrismarineJS/prismarine-auth/assignees{/user}",
            "blobs_url": "https://api.github.com/repos/PrismarineJS/prismarine-auth/git/blobs{/sha}",
            "branches_url": "https://api.github.com/repos/PrismarineJS/prismarine-auth/branches{/branch}",
            "clone_url": "https://github.com/PrismarineJS/prismarine-auth.git",
            "collaborators_url": "https://api.github.com/repos/PrismarineJS/prismarine-auth/collaborators{/collaborator}",
            "comments_url": "https://api.github.com/repos/PrismarineJS/prismarine-auth/comments{/number}",
            "commits_url": "https://api.github.com/repos/PrismarineJS/prismarine-auth/commits{/sha}",
            "compare_url": "https://api.github.com/repos/PrismarineJS/prismarine-auth/compare/{base}...{head}",
            "contents_url": "https://api.github.com/repos/PrismarineJS/prismarine-auth/contents/{+path}",
            "contributors_url": "https://api.github.com/repos/PrismarineJS/prismarine-auth/contributors",
            "created_at": "2021-06-26T20:52:55Z",
            "default_branch": "master",
            "deployments_url": "https://api.github.com/repos/PrismarineJS/prismarine-auth/deployments",
            "description": "Microsoft/Xbox Live authentication ",
            "disabled": false,
            "downloads_url": "https://api.github.com/repos/PrismarineJS/prismarine-auth/downloads",
            "events_url": "https://api.github.com/repos/PrismarineJS/prismarine-auth/events",
            "fork": false,
            "forks": 22,
            "forks_count": 22,
            "forks_url": "https://api.github.com/repos/PrismarineJS/prismarine-auth/forks",
            "full_name": "PrismarineJS/prismarine-auth",
            "git_commits_url": "https://api.github.com/repos/PrismarineJS/prismarine-auth/git/commits{/sha}",
            "git_refs_url": "https://api.github.com/repos/PrismarineJS/prismarine-auth/git/refs{/sha}",
            "git_tags_url": "https://api.github.com/repos/PrismarineJS/prismarine-auth/git/tags{/sha}",
            "git_url": "git://github.com/PrismarineJS/prismarine-auth.git",
            "has_discussions": false,
            "has_downloads": true,
            "has_issues": true,
            "has_pages": false,
            "has_projects": true,
            "has_wiki": true,
            "homepage": "",
            "hooks_url": "https://api.github.com/repos/PrismarineJS/prismarine-auth/hooks",
            "html_url": "https://github.com/PrismarineJS/prismarine-auth",
            "id": 380594199,
            "is_template": false,
            "issue_comment_url": "https://api.github.com/repos/PrismarineJS/prismarine-auth/issues/comments{/number}",
            "issue_events_url": "https://api.github.com/repos/PrismarineJS/prismarine-auth/issues/events{/number}",
            "issues_url": "https://api.github.com/repos/PrismarineJS/prismarine-auth/issues{/number}",
            "keys_url": "https://api.github.com/repos/PrismarineJS/prismarine-auth/keys{/key_id}",
            "labels_url": "https://api.github.com/repos/PrismarineJS/prismarine-auth/labels{/name}",
            "language": "JavaScript",
            "languages_url": "https://api.github.com/repos/PrismarineJS/prismarine-auth/languages",
            "license": {
                "key": "mit",
                "name": "MIT License",
                "node_id": "MDc6TGljZW5zZTEz",
                "spdx_id": "MIT",
                "url": "https://api.github.com/licenses/mit"
            },
            "merges_url": "https://api.github.com/repos/PrismarineJS/prismarine-auth/merges",
            "milestones_url": "https://api.github.com/repos/PrismarineJS/prismarine-auth/milestones{/number}",
            "mirror_url": null,
            "name": "prismarine-auth",
            "node_id": "MDEwOlJlcG9zaXRvcnkzODA1OTQxOTk=",
            "notifications_url": "https://api.github.com/repos/PrismarineJS/prismarine-auth/notifications{?since,all,participating}",
            "open_issues": 9,
            "open_issues_count": 9,
            "owner": {
                "avatar_url": "https://avatars.githubusercontent.com/u/11053411?v=4",
                "events_url": "https://api.github.com/users/PrismarineJS/events{/privacy}",
                "followers_url": "https://api.github.com/users/PrismarineJS/followers",
                "following_url": "https://api.github.com/users/PrismarineJS/following{/other_user}",
                "gists_url": "https://api.github.com/users/PrismarineJS/gists{/gist_id}",
                "gravatar_id": "",
                "html_url": "https://github.com/PrismarineJS",
                "id": 11053411,
                "login": "PrismarineJS",
                "node_id": "MDEyOk9yZ2FuaXphdGlvbjExMDUzNDEx",
                "organizations_url": "https://api.github.com/users/PrismarineJS/orgs",
                "received_events_url": "https://api.github.com/users/PrismarineJS/received_events",
                "repos_url": "https://api.github.com/users/PrismarineJS/repos",
                "site_admin": false,
                "starred_url": "https://api.github.com/users/PrismarineJS/starred{/owner}{/repo}",
                "subscriptions_url": "https://api.github.com/users/PrismarineJS/subscriptions",
                "type": "Organization",
                "url": "https://api.github.com/users/PrismarineJS",
                "user_view_type": "public"
            },
            "private": false,
            "pulls_url": "https://api.github.com/repos/PrismarineJS/prismarine-auth/pulls{/number}",
            "pushed_at": "2025-02-04T06:21:52Z",
            "releases_url": "https://api.github.com/repos/PrismarineJS/prismarine-auth/releases{/id}",
            "size": 163,
            "ssh_url": "git@github.com:PrismarineJS/prismarine-auth.git",
            "stargazers_count": 52,
            "stargazers_url": "https://api.github.com/repos/PrismarineJS/prismarine-auth/stargazers",
            "statuses_url": "https://api.github.com/repos/PrismarineJS/prismarine-auth/statuses/{sha}",
            "subscribers_url": "https://api.github.com/repos/PrismarineJS/prismarine-auth/subscribers",
            "subscription_url": "https://api.github.com/repos/PrismarineJS/prismarine-auth/subscription",
            "svn_url": "https://github.com/PrismarineJS/prismarine-auth",
            "tags_url": "https://api.github.com/repos/PrismarineJS/prismarine-auth/tags",
            "teams_url": "https://api.github.com/repos/PrismarineJS/prismarine-auth/teams",
            "topics": [],
            "trees_url": "https://api.github.com/repos/PrismarineJS/prismarine-auth/git/trees{/sha}",
            "updated_at": "2025-02-03T07:44:54Z",
            "url": "https://api.github.com/repos/PrismarineJS/prismarine-auth",
            "visibility": "public",
            "watchers": 52,
            "watchers_count": 52,
            "web_commit_signoff_required": false
        },
        "sha": "1402f43dae29c8ffe65ffa2840b27542c06767ca",
        "user": {
            "avatar_url": "https://avatars.githubusercontent.com/u/11053411?v=4",
            "events_url": "https://api.github.com/users/PrismarineJS/events{/privacy}",
            "followers_url": "https://api.github.com/users/PrismarineJS/followers",
            "following_url": "https://api.github.com/users/PrismarineJS/following{/other_user}",
            "gists_url": "https://api.github.com/users/PrismarineJS/gists{/gist_id}",
            "gravatar_id": "",
            "html_url": "https://github.com/PrismarineJS",
            "id": 11053411,
            "login": "PrismarineJS",
            "node_id": "MDEyOk9yZ2FuaXphdGlvbjExMDUzNDEx",
            "organizations_url": "https://api.github.com/users/PrismarineJS/orgs",
            "received_events_url": "https://api.github.com/users/PrismarineJS/received_events",
            "repos_url": "https://api.github.com/users/PrismarineJS/repos",
            "site_admin": false,
            "starred_url": "https://api.github.com/users/PrismarineJS/starred{/owner}{/repo}",
            "subscriptions_url": "https://api.github.com/users/PrismarineJS/subscriptions",
            "type": "Organization",
            "url": "https://api.github.com/users/PrismarineJS",
            "user_view_type": "public"
        }
    },
    "body": "Bumps [@azure/msal-node](https://github.com/AzureAD/microsoft-authentication-library-for-js) from 2.16.2 to 3.1.0.\n<details>\n<summary>Release notes</summary>\n<p><em>Sourced from <a href=\"https://github.com/AzureAD/microsoft-authentication-library-for-js/releases\"><code>@​azure/msal-node</code>'s releases</a>.</em></p>\n<blockquote>\n<h2><code>@​azure/msal-angular</code> v3.1.0</h2>\n<h2>3.1.0</h2>\n<p>Tue, 05 Nov 2024 18:58:46 GMT</p>\n<h3>Minor changes</h3>\n<ul>\n<li>Bump <code>@​azure/msal-browser</code> to v3.27.0 (beachball)</li>\n<li>Bump eslint-config-msal to v0.0.0 (beachball)</li>\n</ul>\n<h2><code>@​azure/msal-node</code> v3.1.0</h2>\n<h2>3.1.0</h2>\n<p>Wed, 22 Jan 2025 21:45:31 GMT</p>\n<h3>Minor changes</h3>\n<ul>\n<li>Added Machine Learning as a Managed Identity Source <a href=\"https://redirect.github.com/AzureAD/microsoft-authentication-library-for-js/issues/7512\">#7512</a> (<a href=\"mailto:rginsburg@microsoft.com\">rginsburg@microsoft.com</a>)</li>\n<li>Bump <code>@​azure/msal-common</code> to v15.0.2 (beachball)</li>\n<li>Bump eslint-config-msal to v0.0.0 (beachball)</li>\n<li>Bump rollup-msal to v0.0.0 (beachball)</li>\n</ul>\n<h3>Patches</h3>\n<ul>\n<li>Fixed incorrect IMDS resource ID query parameter (<a href=\"mailto:rginsburg@microsoft.com\">rginsburg@microsoft.com</a>)</li>\n<li>Avoid calling class methods in their own constructors (<a href=\"mailto:thomas.norling@microsoft.com\">thomas.norling@microsoft.com</a>)</li>\n</ul>\n<h2><code>@​azure/msal-angular</code> v3.0.25</h2>\n<h2>3.0.25</h2>\n<p>Thu, 03 Oct 2024 00:40:42 GMT</p>\n<h3>Patches</h3>\n<ul>\n<li>Bump <code>@​azure/msal-browser</code> to v3.25.0 (beachball)</li>\n<li>Bump eslint-config-msal to v0.0.0 (beachball)</li>\n</ul>\n<h2><code>@​azure/msal-angular</code> v3.0.24</h2>\n<h2>3.0.24</h2>\n<p>Thu, 19 Sep 2024 23:48:30 GMT</p>\n<h3>Patches</h3>\n<ul>\n<li>Bump <code>@​azure/msal-browser</code> to v3.24.0 (beachball)</li>\n<li>Bump eslint-config-msal to v0.0.0 (beachball)</li>\n</ul>\n<h2><code>@​azure/msal-angular</code> v3.0.23</h2>\n<h2>3.0.23</h2>\n<!-- raw HTML omitted -->\n</blockquote>\n<p>... (truncated)</p>\n</details>\n<details>\n<summary>Commits</summary>\n<ul>\n<li><a href=\"https://github.com/AzureAD/microsoft-authentication-library-for-js/commit/ed34e05faa6c2b4664d2aad1f6106bfc56ad4a83\"><code>ed34e05</code></a> Bump package versions</li>\n<li><a href=\"https://github.com/AzureAD/microsoft-authentication-library-for-js/commit/8c2c0d1e1c9d2731475667638ac3738c8d50c91a\"><code>8c2c0d1</code></a> Update text around regional support for CDNs (<a href=\"https://redirect.github.com/AzureAD/microsoft-authentication-library-for-js/issues/7517\">#7517</a>)</li>\n<li><a href=\"https://github.com/AzureAD/microsoft-authentication-library-for-js/commit/5680416fb2f1513e4b00d12a0e87e293da336707\"><code>5680416</code></a> Update current account and active account behavior in NAA apps (<a href=\"https://redirect.github.com/AzureAD/microsoft-authentication-library-for-js/issues/7390\">#7390</a>)</li>\n<li><a href=\"https://github.com/AzureAD/microsoft-authentication-library-for-js/commit/6fd7c8797b77ede8003fcc89ae0fda4fc599f108\"><code>6fd7c87</code></a> Add npm install timeout param to build definitions (<a href=\"https://redirect.github.com/AzureAD/microsoft-authentication-library-for-js/issues/7506\">#7506</a>)</li>\n<li><a href=\"https://github.com/AzureAD/microsoft-authentication-library-for-js/commit/37cbca4ada794a626356ba2ffbbbbb4a7b7ea52c\"><code>37cbca4</code></a> Added Support for Azure Machine Learning in Managed Identity (<a href=\"https://redirect.github.com/AzureAD/microsoft-authentication-library-for-js/issues/7512\">#7512</a>)</li>\n<li><a href=\"https://github.com/AzureAD/microsoft-authentication-library-for-js/commit/7a684790ebb0f254bd8a61f709ecf2d9f085da58\"><code>7a68479</code></a> Fix initialization error due to undefined PerformanceClient (<a href=\"https://redirect.github.com/AzureAD/microsoft-authentication-library-for-js/issues/7513\">#7513</a>)</li>\n<li><a href=\"https://github.com/AzureAD/microsoft-authentication-library-for-js/commit/9e4503016e59eb7099775791cbbaff9b0ff6e28b\"><code>9e45030</code></a> Upgrade puppeteer (<a href=\"https://redirect.github.com/AzureAD/microsoft-authentication-library-for-js/issues/7438\">#7438</a>)</li>\n<li><a href=\"https://github.com/AzureAD/microsoft-authentication-library-for-js/commit/d28085905644510fbcfacfed98ed1b43014b67c1\"><code>d280859</code></a> Fixed incorrect IMDS resource ID query parameter (<a href=\"https://redirect.github.com/AzureAD/microsoft-authentication-library-for-js/issues/7488\">#7488</a>)</li>\n<li><a href=\"https://github.com/AzureAD/microsoft-authentication-library-for-js/commit/69238d1507b4029ed6269c6eb913c6339478c997\"><code>69238d1</code></a> Update changelogs with links to migration guides (<a href=\"https://redirect.github.com/AzureAD/microsoft-authentication-library-for-js/issues/7510\">#7510</a>)</li>\n<li><a href=\"https://github.com/AzureAD/microsoft-authentication-library-for-js/commit/2b2ddb22dcb16467edb9ae5e089d29f97b7f5fc7\"><code>2b2ddb2</code></a> Bump package versions</li>\n<li>Additional commits viewable in <a href=\"https://github.com/AzureAD/microsoft-authentication-library-for-js/compare/msal-node-v2.16.2...msal-node-v3.1.0\">compare view</a></li>\n</ul>\n</details>\n<br />\n\n\n[![Dependabot compatibility score](https://dependabot-badges.githubapp.com/badges/compatibility_score?dependency-name=@azure/msal-node&package-manager=npm_and_yarn&previous-version=2.16.2&new-version=3.1.0)](https://docs.github.com/en/github/managing-security-vulnerabilities/about-dependabot-security-updates#about-compatibility-scores)\n\nDependabot will resolve any conflicts with this PR as long as you don't alter it yourself. You can also trigger a rebase manually by commenting `@dependabot rebase`.\n\n[//]: # (dependabot-automerge-start)\n[//]: # (dependabot-automerge-end)\n\n---\n\n<details>\n<summary>Dependabot commands and options</summary>\n<br />\n\nYou can trigger Dependabot actions by commenting on this PR:\n- `@dependabot rebase` will rebase this PR\n- `@dependabot recreate` will recreate this PR, overwriting any edits that have been made to it\n- `@dependabot merge` will merge this PR after your CI passes on it\n- `@dependabot squash and merge` will squash and merge this PR after your CI passes on it\n- `@dependabot cancel merge` will cancel a previously requested merge and block automerging\n- `@dependabot reopen` will reopen this PR if it is closed\n- `@dependabot close` will close this PR and stop Dependabot recreating it. You can achieve the same result by closing it manually\n- `@dependabot show <dependency name> ignore conditions` will show all of the ignore conditions of the specified dependency\n- `@dependabot ignore this major version` will close this PR and stop Dependabot creating any more for this major version (unless you reopen the PR or upgrade to it yourself)\n- `@dependabot ignore this minor version` will close this PR and stop Dependabot creating any more for this minor version (unless you reopen the PR or upgrade to it yourself)\n- `@dependabot ignore this dependency` will close this PR and stop Dependabot creating any more for this dependency (unless you reopen the PR or upgrade to it yourself)\n\n\n</details>",
    "changed_files": 1,
    "closed_at": "2025-02-04T06:21:51Z",
    "comment_data": [],
    "comment_regular_data": [
        {
            "author_association": "NONE",
            "body": "<!-- overview-comment -->\n**Updated dependencies detected.** Learn more about [Socket for GitHub ↗︎](https://socket.dev?utm_medium=gh)\n\n\n| Package | New capabilities | Transitives | Size | Publisher |\n|:--- |:--- |:--- |:--- |:--- |\n| [npm/@azure/msal-node@3.1.0](https://socket.dev/npm/package/@azure/msal-node/overview/3.1.0) 🔁 [npm/@azure/msal-node@2.16.2](https://socket.dev/npm/package/@azure/msal-node/overview/2.16.2) | None | <a href=\"https://socket.dev/npm/package/@azure/msal-node/dependencies/3.1.0\">`+17`</a> | 5.26 MB | <a href=\"https://socket.dev/npm/user/azuread\">azuread</a> |\n\n\n\n[**View full report↗︎**](https://socket.dev/dashboard/org/PrismarineJS/diff/27b78c02-babe-4b79-a381-00d002d9bdf1/3ea0faa4-175c-4188-86a6-3fd154ba4fff)",
            "created_at": "2025-01-30T06:19:30Z",
            "html_url": "https://github.com/PrismarineJS/prismarine-auth/pull/120#issuecomment-2623612120",
            "id": 2623612120,
            "issue_url": "https://api.github.com/repos/PrismarineJS/prismarine-auth/issues/120",
            "node_id": "IC_kwDOFq9oF86cYSTY",
            "performed_via_github_app": {
                "client_id": "Iv1.0dc8bfb0ebf2ec17",
                "created_at": "2021-12-04T00:33:05Z",
                "description": "### Socket protects your app from malicious dependencies lurking in your open source supply chain.\r\n\r\nOpen source code makes up 90% of most codebases. It is critical to manage it effectively to reduce your security risk.\r\n\r\n## Detect and block open source supply chain attacks\r\n\r\nSecurity teams depend on Socket to prevent malicious open source dependencies from infiltrating their apps.\r\n\r\nSocket dramatically improves your open source security posture by _detecting and blocking the attacks you don't expect_ – malware, install scripts, hidden code, typo-squatting, and more – which aren't caught by traditional vulnerability scanners.\r\n\r\n- **Block malware** – Block emerging malware threats\r\n\r\n- **Block typo-squatting** – Block malicious packages that differ in name by only a few characters, and recommend the correct package\r\n\r\n- **Detect hidden code** – Detect obfuscated, minified, or hidden code\r\n\r\n- **Detect privileged API usage** – Report when a dependency update introduces new risky API usage – filesystem, network, child_process, eval()\r\n\r\n- **Detect suspicious updates** – Sudden inclusion of privileged APIs in patch or minor releases\r\n\r\nSocket currently [supports 60 detections](https://socket.dev/npm/issue) in 5 categories: supply chain risk, quality, maintenance, known vulnerabilities, and license problems.\r\n\r\n## Take charge of your dependency health\r\n\r\nSocket improves security outcomes and reduces work for security teams by **surfacing actionable security information directly inline in GitHub** so developers are empowered to make better decisions.\r\n\r\n- **Five minute deployment** – The easiest security product you'll ever deploy in your organization. Just install a GitHub app and you're done.\r\n\r\n- **Provide security feedback directly on PRs** – Empower developers to solve security issues before they're deployed into production.\r\n\r\n- **Automated security** – Spend security team resources auditing the highest-impact dependencies, instead of all or nothing.\r\n\r\n## Socket detects what vulnerability scanners can’t\r\n\r\nIt's no longer sufficient to scan for known vulnerabilities (CVEs) and stop there. And yet, that's what the leading \"supply chain security\" products do, leaving you vulnerable.\r\n\r\nIt can take weeks or months for a CVE to be discovered, reported, and detected by tools. But in today's culture of fast development, a malicious dependency can be updated, merged, and running in production in days or even sometimes hours.\r\n\r\nDefenders need a new approach to address emerging threats from malicious dependencies:\r\n\r\n- **Maintainer intentionally added malware** – Rogue maintainer sabotaged his own open source package with 100M downloads/month, affecting companies such as Amazon AWS\r\n\r\n- **Package hijacked and poisoned w/ cryptominers and password-stealing malware** – Deliberate malware introduced into multiple packages with 30M downloads/month each\r\n\r\n- **Package hijacked to add backdoor targeting a specific organization** – Obfuscated malware added to a dependency which targeted a single company, went undetected for over a week, and made it into their production build\r\n\r\n- **NPM package manager allowed anyone to publish new versions of any package** – Attackers could publish new versions of any NPM package without authorization _for multiple years_\r\n\r\nUsing third-party dependencies without proper vetting leaves you open to hacking, breaches, and assorted security misfortune.",
                "events": [
                    "check_run",
                    "check_suite",
                    "issue_comment",
                    "member",
                    "organization",
                    "public",
                    "pull_request",
                    "push",
                    "repository"
                ],
                "external_url": "https://socket.dev",
                "html_url": "https://github.com/apps/socket-security",
                "id": 156372,
                "name": "Socket Security",
                "node_id": "A_kwHOBCHXrM4AAmLU",
                "owner": {
                    "avatar_url": "https://avatars.githubusercontent.com/u/69326764?v=4",
                    "events_url": "https://api.github.com/users/SocketDev/events{/privacy}",
                    "followers_url": "https://api.github.com/users/SocketDev/followers",
                    "following_url": "https://api.github.com/users/SocketDev/following{/other_user}",
                    "gists_url": "https://api.github.com/users/SocketDev/gists{/gist_id}",
                    "gravatar_id": "",
                    "html_url": "https://github.com/SocketDev",
                    "id": 69326764,
                    "login": "SocketDev",
                    "node_id": "MDEyOk9yZ2FuaXphdGlvbjY5MzI2NzY0",
                    "organizations_url": "https://api.github.com/users/SocketDev/orgs",
                    "received_events_url": "https://api.github.com/users/SocketDev/received_events",
                    "repos_url": "https://api.github.com/users/SocketDev/repos",
                    "site_admin": false,
                    "starred_url": "https://api.github.com/users/SocketDev/starred{/owner}{/repo}",
                    "subscriptions_url": "https://api.github.com/users/SocketDev/subscriptions",
                    "type": "Organization",
                    "url": "https://api.github.com/users/SocketDev",
                    "user_view_type": "public"
                },
                "permissions": {
                    "checks": "write",
                    "contents": "read",
                    "emails": "read",
                    "issues": "read",
                    "members": "read",
                    "metadata": "read",
                    "pull_requests": "write"
                },
                "slug": "socket-security",
                "updated_at": "2023-03-08T20:20:07Z"
            },
            "reactions": {
                "+1": 0,
                "-1": 0,
                "confused": 0,
                "eyes": 0,
                "heart": 0,
                "hooray": 0,
                "laugh": 0,
                "rocket": 0,
                "total_count": 0,
                "url": "https://api.github.com/repos/PrismarineJS/prismarine-auth/issues/comments/2623612120/reactions"
            },
            "updated_at": "2025-01-30T06:19:30Z",
            "url": "https://api.github.com/repos/PrismarineJS/prismarine-auth/issues/comments/2623612120",
            "user": {
                "avatar_url": "https://avatars.githubusercontent.com/in/156372?v=4",
                "events_url": "https://api.github.com/users/socket-security%5Bbot%5D/events{/privacy}",
                "followers_url": "https://api.github.com/users/socket-security%5Bbot%5D/followers",
                "following_url": "https://api.github.com/users/socket-security%5Bbot%5D/following{/other_user}",
                "gists_url": "https://api.github.com/users/socket-security%5Bbot%5D/gists{/gist_id}",
                "gravatar_id": "",
                "html_url": "https://github.com/apps/socket-security",
                "id": 95510084,
                "login": "socket-security[bot]",
                "node_id": "BOT_kgDOBbFeRA",
                "organizations_url": "https://api.github.com/users/socket-security%5Bbot%5D/orgs",
                "received_events_url": "https://api.github.com/users/socket-security%5Bbot%5D/received_events",
                "repos_url": "https://api.github.com/users/socket-security%5Bbot%5D/repos",
                "site_admin": false,
                "starred_url": "https://api.github.com/users/socket-security%5Bbot%5D/starred{/owner}{/repo}",
                "subscriptions_url": "https://api.github.com/users/socket-security%5Bbot%5D/subscriptions",
                "type": "Bot",
                "url": "https://api.github.com/users/socket-security%5Bbot%5D",
                "user_view_type": "public"
            }
        },
        {
            "author_association": "CONTRIBUTOR",
            "body": "Superseded by #121.",
            "created_at": "2025-02-04T06:21:51Z",
            "html_url": "https://github.com/PrismarineJS/prismarine-auth/pull/120#issuecomment-2632984960",
            "id": 2632984960,
            "issue_url": "https://api.github.com/repos/PrismarineJS/prismarine-auth/issues/120",
            "node_id": "IC_kwDOFq9oF86c8CmA",
            "performed_via_github_app": {
                "client_id": "Iv1.4f9a6346434f815e",
                "created_at": "2019-04-16T22:34:25Z",
                "description": "",
                "events": [
                    "check_suite",
                    "issues",
                    "issue_comment",
                    "label",
                    "pull_request",
                    "pull_request_review",
                    "pull_request_review_comment",
                    "repository"
                ],
                "external_url": "https://dependabot-api.githubapp.com",
                "html_url": "https://github.com/apps/dependabot",
                "id": 29110,
                "name": "Dependabot",
                "node_id": "MDM6QXBwMjkxMTA=",
                "owner": {
                    "avatar_url": "https://avatars.githubusercontent.com/u/9919?v=4",
                    "events_url": "https://api.github.com/users/github/events{/privacy}",
                    "followers_url": "https://api.github.com/users/github/followers",
                    "following_url": "https://api.github.com/users/github/following{/other_user}",
                    "gists_url": "https://api.github.com/users/github/gists{/gist_id}",
                    "gravatar_id": "",
                    "html_url": "https://github.com/github",
                    "id": 9919,
                    "login": "github",
                    "node_id": "MDEyOk9yZ2FuaXphdGlvbjk5MTk=",
                    "organizations_url": "https://api.github.com/users/github/orgs",
                    "received_events_url": "https://api.github.com/users/github/received_events",
                    "repos_url": "https://api.github.com/users/github/repos",
                    "site_admin": false,
                    "starred_url": "https://api.github.com/users/github/starred{/owner}{/repo}",
                    "subscriptions_url": "https://api.github.com/users/github/subscriptions",
                    "type": "Organization",
                    "url": "https://api.github.com/users/github",
                    "user_view_type": "public"
                },
                "permissions": {
                    "actions": "read",
                    "checks": "write",
                    "contents": "write",
                    "issues": "write",
                    "members": "read",
                    "metadata": "read",
                    "pull_requests": "write",
                    "statuses": "read",
                    "vulnerability_alerts": "read",
                    "workflows": "write"
                },
                "slug": "dependabot",
                "updated_at": "2024-03-20T21:06:35Z"
            },
            "reactions": {
                "+1": 0,
                "-1": 0,
                "confused": 0,
                "eyes": 0,
                "heart": 0,
                "hooray": 0,
                "laugh": 0,
                "rocket": 0,
                "total_count": 0,
                "url": "https://api.github.com/repos/PrismarineJS/prismarine-auth/issues/comments/2632984960/reactions"
            },
            "updated_at": "2025-02-04T06:21:51Z",
            "url": "https://api.github.com/repos/PrismarineJS/prismarine-auth/issues/comments/2632984960",
            "user": {
                "avatar_url": "https://avatars.githubusercontent.com/in/29110?v=4",
                "events_url": "https://api.github.com/users/dependabot%5Bbot%5D/events{/privacy}",
                "followers_url": "https://api.github.com/users/dependabot%5Bbot%5D/followers",
                "following_url": "https://api.github.com/users/dependabot%5Bbot%5D/following{/other_user}",
                "gists_url": "https://api.github.com/users/dependabot%5Bbot%5D/gists{/gist_id}",
                "gravatar_id": "",
                "html_url": "https://github.com/apps/dependabot",
                "id": 49699333,
                "login": "dependabot[bot]",
                "node_id": "MDM6Qm90NDk2OTkzMzM=",
                "organizations_url": "https://api.github.com/users/dependabot%5Bbot%5D/orgs",
                "received_events_url": "https://api.github.com/users/dependabot%5Bbot%5D/received_events",
                "repos_url": "https://api.github.com/users/dependabot%5Bbot%5D/repos",
                "site_admin": false,
                "starred_url": "https://api.github.com/users/dependabot%5Bbot%5D/starred{/owner}{/repo}",
                "subscriptions_url": "https://api.github.com/users/dependabot%5Bbot%5D/subscriptions",
                "type": "Bot",
                "url": "https://api.github.com/users/dependabot%5Bbot%5D",
                "user_view_type": "public"
            }
        }
    ],
    "comments": 2,
    "comments_url": "https://api.github.com/repos/PrismarineJS/prismarine-auth/issues/120/comments",
    "commit_data": [
        {
            "author": {
                "avatar_url": "https://avatars.githubusercontent.com/in/29110?v=4",
                "events_url": "https://api.github.com/users/dependabot%5Bbot%5D/events{/privacy}",
                "followers_url": "https://api.github.com/users/dependabot%5Bbot%5D/followers",
                "following_url": "https://api.github.com/users/dependabot%5Bbot%5D/following{/other_user}",
                "gists_url": "https://api.github.com/users/dependabot%5Bbot%5D/gists{/gist_id}",
                "gravatar_id": "",
                "html_url": "https://github.com/apps/dependabot",
                "id": 49699333,
                "login": "dependabot[bot]",
                "node_id": "MDM6Qm90NDk2OTkzMzM=",
                "organizations_url": "https://api.github.com/users/dependabot%5Bbot%5D/orgs",
                "received_events_url": "https://api.github.com/users/dependabot%5Bbot%5D/received_events",
                "repos_url": "https://api.github.com/users/dependabot%5Bbot%5D/repos",
                "site_admin": false,
                "starred_url": "https://api.github.com/users/dependabot%5Bbot%5D/starred{/owner}{/repo}",
                "subscriptions_url": "https://api.github.com/users/dependabot%5Bbot%5D/subscriptions",
                "type": "Bot",
                "url": "https://api.github.com/users/dependabot%5Bbot%5D",
                "user_view_type": "public"
            },
            "comments_url": "https://api.github.com/repos/PrismarineJS/prismarine-auth/commits/f46c48f43fd43a39c4c97553858a3ba03ef58aa1/comments",
            "commit": {
                "author": {
                    "date": "2025-01-30T06:17:47Z",
                    "email": "49699333+dependabot[bot]@users.noreply.github.com",
                    "name": "dependabot[bot]"
                },
                "comment_count": 0,
                "committer": {
                    "date": "2025-01-30T06:17:47Z",
                    "email": "noreply@github.com",
                    "name": "GitHub"
                },
                "message": "Bump @azure/msal-node from 2.16.2 to 3.1.0\n\nBumps [@azure/msal-node](https://github.com/AzureAD/microsoft-authentication-library-for-js) from 2.16.2 to 3.1.0.\n- [Release notes](https://github.com/AzureAD/microsoft-authentication-library-for-js/releases)\n- [Commits](https://github.com/AzureAD/microsoft-authentication-library-for-js/compare/msal-node-v2.16.2...msal-node-v3.1.0)\n\n---\nupdated-dependencies:\n- dependency-name: \"@azure/msal-node\"\n  dependency-type: direct:production\n  update-type: version-update:semver-major\n...\n\nSigned-off-by: dependabot[bot] <support@github.com>",
                "tree": {
                    "sha": "95411800af09a27e6ec3d3c2f8019ba9faabe72b",
                    "url": "https://api.github.com/repos/PrismarineJS/prismarine-auth/git/trees/95411800af09a27e6ec3d3c2f8019ba9faabe72b"
                },
                "url": "https://api.github.com/repos/PrismarineJS/prismarine-auth/git/commits/f46c48f43fd43a39c4c97553858a3ba03ef58aa1",
                "verification": {
                    "payload": "tree 95411800af09a27e6ec3d3c2f8019ba9faabe72b\nparent 1402f43dae29c8ffe65ffa2840b27542c06767ca\nauthor dependabot[bot] <49699333+dependabot[bot]@users.noreply.github.com> 1738217867 +0000\ncommitter GitHub <noreply@github.com> 1738217867 +0000\n\nBump @azure/msal-node from 2.16.2 to 3.1.0\n\nBumps [@azure/msal-node](https://github.com/AzureAD/microsoft-authentication-library-for-js) from 2.16.2 to 3.1.0.\n- [Release notes](https://github.com/AzureAD/microsoft-authentication-library-for-js/releases)\n- [Commits](https://github.com/AzureAD/microsoft-authentication-library-for-js/compare/msal-node-v2.16.2...msal-node-v3.1.0)\n\n---\nupdated-dependencies:\n- dependency-name: \"@azure/msal-node\"\n  dependency-type: direct:production\n  update-type: version-update:semver-major\n...\n\nSigned-off-by: dependabot[bot] <support@github.com>",
                    "reason": "valid",
                    "signature": "-----BEGIN PGP SIGNATURE-----\n\nwsFcBAABCAAQBQJnmxmLCRC1aQ7uu5UhlAAAWq4QAE+FPCey+9Q/QfFa5j79+OZ5\nWsVHQ8u2Y7GVpVsaB+WoJlXibbjVCAuWjBRaGNFye0cDZmvuc1zSutcnJsoSE1H9\n7s5ve/lkv6ZQXxDO5TQkzsRXcnkWcBv7KosPSFb9VZ/NX5aGC9m8G/US2yG8zbnD\nqVAl2qWb7Cm3s5d/ZrkEAtcbIRDkX4wnGR9aLfKmP0u/ddaFNnyCyiD4e62TSqWe\nD8Bo6ef5nFUFp9unx6U7UK6NZR302C06ln/RDmhHzb1lpX317CrPxd1F3yFMcyA6\nOX1kS4msIY9mSV8c2zIK0fZp4Ah2+D/MKk5JXOdU1K8jqGNr9zY3Bstv5rcwbMAm\nAM8aDOk0hb+SbvUG/7nU/YOOxHQDnaFWP4POJINskhn/ePf0fQEc916pYzC9d3fw\nHYUEYErenC5ZHKRAm2/dqtNjH5Oqd5EC/EVL5pgCcTMvI+7IlBYv6buUjiCOI7nE\nNCzJ6OcNl15PVCYx+OGbzEo8w+LN7B78h0JUCL+gX//uqMlNDP7nMD43O/XVz4xv\nFirpnc1frkZ21V2Uex388k2R+m/i5mJWUTdhTXjb3VcGA5KJKGKPdcEP4gi1cFZ7\nFSwZZF5G4tHFxmY+hBxphWMRDwSOORydGEdQI3MH0EKIE7TpMhuk9QH6yqWMABIS\nAYl+shEgvMgipS3tXD0Z\n=6r6H\n-----END PGP SIGNATURE-----\n",
                    "verified": true,
                    "verified_at": "2025-01-30T06:17:47Z"
                }
            },
            "committer": {
                "avatar_url": "https://avatars.githubusercontent.com/u/19864447?v=4",
                "events_url": "https://api.github.com/users/web-flow/events{/privacy}",
                "followers_url": "https://api.github.com/users/web-flow/followers",
                "following_url": "https://api.github.com/users/web-flow/following{/other_user}",
                "gists_url": "https://api.github.com/users/web-flow/gists{/gist_id}",
                "gravatar_id": "",
                "html_url": "https://github.com/web-flow",
                "id": 19864447,
                "login": "web-flow",
                "node_id": "MDQ6VXNlcjE5ODY0NDQ3",
                "organizations_url": "https://api.github.com/users/web-flow/orgs",
                "received_events_url": "https://api.github.com/users/web-flow/received_events",
                "repos_url": "https://api.github.com/users/web-flow/repos",
                "site_admin": false,
                "starred_url": "https://api.github.com/users/web-flow/starred{/owner}{/repo}",
                "subscriptions_url": "https://api.github.com/users/web-flow/subscriptions",
                "type": "User",
                "url": "https://api.github.com/users/web-flow",
                "user_view_type": "public"
            },
            "html_url": "https://github.com/PrismarineJS/prismarine-auth/commit/f46c48f43fd43a39c4c97553858a3ba03ef58aa1",
            "node_id": "C_kwDOFq9oF9oAKGY0NmM0OGY0M2ZkNDNhMzljNGM5NzU1Mzg1OGEzYmEwM2VmNThhYTE",
            "parents": [
                {
                    "html_url": "https://github.com/PrismarineJS/prismarine-auth/commit/1402f43dae29c8ffe65ffa2840b27542c06767ca",
                    "sha": "1402f43dae29c8ffe65ffa2840b27542c06767ca",
                    "url": "https://api.github.com/repos/PrismarineJS/prismarine-auth/commits/1402f43dae29c8ffe65ffa2840b27542c06767ca"
                }
            ],
            "sha": "f46c48f43fd43a39c4c97553858a3ba03ef58aa1",
            "url": "https://api.github.com/repos/PrismarineJS/prismarine-auth/commits/f46c48f43fd43a39c4c97553858a3ba03ef58aa1"
        }
    ],
    "commits": 1,
    "commits_url": "https://api.github.com/repos/PrismarineJS/prismarine-auth/pulls/120/commits",
    "created_at": "2025-01-30T06:17:48Z",
    "deletions": 1,
    "diff_url": "https://github.com/PrismarineJS/prismarine-auth/pull/120.diff",
    "draft": false,
    "head": {
        "label": "PrismarineJS:dependabot/npm_and_yarn/azure/msal-node-3.1.0",
        "ref": "dependabot/npm_and_yarn/azure/msal-node-3.1.0",
        "repo": {
            "allow_forking": true,
            "archive_url": "https://api.github.com/repos/PrismarineJS/prismarine-auth/{archive_format}{/ref}",
            "archived": false,
            "assignees_url": "https://api.github.com/repos/PrismarineJS/prismarine-auth/assignees{/user}",
            "blobs_url": "https://api.github.com/repos/PrismarineJS/prismarine-auth/git/blobs{/sha}",
            "branches_url": "https://api.github.com/repos/PrismarineJS/prismarine-auth/branches{/branch}",
            "clone_url": "https://github.com/PrismarineJS/prismarine-auth.git",
            "collaborators_url": "https://api.github.com/repos/PrismarineJS/prismarine-auth/collaborators{/collaborator}",
            "comments_url": "https://api.github.com/repos/PrismarineJS/prismarine-auth/comments{/number}",
            "commits_url": "https://api.github.com/repos/PrismarineJS/prismarine-auth/commits{/sha}",
            "compare_url": "https://api.github.com/repos/PrismarineJS/prismarine-auth/compare/{base}...{head}",
            "contents_url": "https://api.github.com/repos/PrismarineJS/prismarine-auth/contents/{+path}",
            "contributors_url": "https://api.github.com/repos/PrismarineJS/prismarine-auth/contributors",
            "created_at": "2021-06-26T20:52:55Z",
            "default_branch": "master",
            "deployments_url": "https://api.github.com/repos/PrismarineJS/prismarine-auth/deployments",
            "description": "Microsoft/Xbox Live authentication ",
            "disabled": false,
            "downloads_url": "https://api.github.com/repos/PrismarineJS/prismarine-auth/downloads",
            "events_url": "https://api.github.com/repos/PrismarineJS/prismarine-auth/events",
            "fork": false,
            "forks": 22,
            "forks_count": 22,
            "forks_url": "https://api.github.com/repos/PrismarineJS/prismarine-auth/forks",
            "full_name": "PrismarineJS/prismarine-auth",
            "git_commits_url": "https://api.github.com/repos/PrismarineJS/prismarine-auth/git/commits{/sha}",
            "git_refs_url": "https://api.github.com/repos/PrismarineJS/prismarine-auth/git/refs{/sha}",
            "git_tags_url": "https://api.github.com/repos/PrismarineJS/prismarine-auth/git/tags{/sha}",
            "git_url": "git://github.com/PrismarineJS/prismarine-auth.git",
            "has_discussions": false,
            "has_downloads": true,
            "has_issues": true,
            "has_pages": false,
            "has_projects": true,
            "has_wiki": true,
            "homepage": "",
            "hooks_url": "https://api.github.com/repos/PrismarineJS/prismarine-auth/hooks",
            "html_url": "https://github.com/PrismarineJS/prismarine-auth",
            "id": 380594199,
            "is_template": false,
            "issue_comment_url": "https://api.github.com/repos/PrismarineJS/prismarine-auth/issues/comments{/number}",
            "issue_events_url": "https://api.github.com/repos/PrismarineJS/prismarine-auth/issues/events{/number}",
            "issues_url": "https://api.github.com/repos/PrismarineJS/prismarine-auth/issues{/number}",
            "keys_url": "https://api.github.com/repos/PrismarineJS/prismarine-auth/keys{/key_id}",
            "labels_url": "https://api.github.com/repos/PrismarineJS/prismarine-auth/labels{/name}",
            "language": "JavaScript",
            "languages_url": "https://api.github.com/repos/PrismarineJS/prismarine-auth/languages",
            "license": {
                "key": "mit",
                "name": "MIT License",
                "node_id": "MDc6TGljZW5zZTEz",
                "spdx_id": "MIT",
                "url": "https://api.github.com/licenses/mit"
            },
            "merges_url": "https://api.github.com/repos/PrismarineJS/prismarine-auth/merges",
            "milestones_url": "https://api.github.com/repos/PrismarineJS/prismarine-auth/milestones{/number}",
            "mirror_url": null,
            "name": "prismarine-auth",
            "node_id": "MDEwOlJlcG9zaXRvcnkzODA1OTQxOTk=",
            "notifications_url": "https://api.github.com/repos/PrismarineJS/prismarine-auth/notifications{?since,all,participating}",
            "open_issues": 9,
            "open_issues_count": 9,
            "owner": {
                "avatar_url": "https://avatars.githubusercontent.com/u/11053411?v=4",
                "events_url": "https://api.github.com/users/PrismarineJS/events{/privacy}",
                "followers_url": "https://api.github.com/users/PrismarineJS/followers",
                "following_url": "https://api.github.com/users/PrismarineJS/following{/other_user}",
                "gists_url": "https://api.github.com/users/PrismarineJS/gists{/gist_id}",
                "gravatar_id": "",
                "html_url": "https://github.com/PrismarineJS",
                "id": 11053411,
                "login": "PrismarineJS",
                "node_id": "MDEyOk9yZ2FuaXphdGlvbjExMDUzNDEx",
                "organizations_url": "https://api.github.com/users/PrismarineJS/orgs",
                "received_events_url": "https://api.github.com/users/PrismarineJS/received_events",
                "repos_url": "https://api.github.com/users/PrismarineJS/repos",
                "site_admin": false,
                "starred_url": "https://api.github.com/users/PrismarineJS/starred{/owner}{/repo}",
                "subscriptions_url": "https://api.github.com/users/PrismarineJS/subscriptions",
                "type": "Organization",
                "url": "https://api.github.com/users/PrismarineJS",
                "user_view_type": "public"
            },
            "private": false,
            "pulls_url": "https://api.github.com/repos/PrismarineJS/prismarine-auth/pulls{/number}",
            "pushed_at": "2025-02-04T06:21:52Z",
            "releases_url": "https://api.github.com/repos/PrismarineJS/prismarine-auth/releases{/id}",
            "size": 163,
            "ssh_url": "git@github.com:PrismarineJS/prismarine-auth.git",
            "stargazers_count": 52,
            "stargazers_url": "https://api.github.com/repos/PrismarineJS/prismarine-auth/stargazers",
            "statuses_url": "https://api.github.com/repos/PrismarineJS/prismarine-auth/statuses/{sha}",
            "subscribers_url": "https://api.github.com/repos/PrismarineJS/prismarine-auth/subscribers",
            "subscription_url": "https://api.github.com/repos/PrismarineJS/prismarine-auth/subscription",
            "svn_url": "https://github.com/PrismarineJS/prismarine-auth",
            "tags_url": "https://api.github.com/repos/PrismarineJS/prismarine-auth/tags",
            "teams_url": "https://api.github.com/repos/PrismarineJS/prismarine-auth/teams",
            "topics": [],
            "trees_url": "https://api.github.com/repos/PrismarineJS/prismarine-auth/git/trees{/sha}",
            "updated_at": "2025-02-03T07:44:54Z",
            "url": "https://api.github.com/repos/PrismarineJS/prismarine-auth",
            "visibility": "public",
            "watchers": 52,
            "watchers_count": 52,
            "web_commit_signoff_required": false
        },
        "sha": "f46c48f43fd43a39c4c97553858a3ba03ef58aa1",
        "user": {
            "avatar_url": "https://avatars.githubusercontent.com/u/11053411?v=4",
            "events_url": "https://api.github.com/users/PrismarineJS/events{/privacy}",
            "followers_url": "https://api.github.com/users/PrismarineJS/followers",
            "following_url": "https://api.github.com/users/PrismarineJS/following{/other_user}",
            "gists_url": "https://api.github.com/users/PrismarineJS/gists{/gist_id}",
            "gravatar_id": "",
            "html_url": "https://github.com/PrismarineJS",
            "id": 11053411,
            "login": "PrismarineJS",
            "node_id": "MDEyOk9yZ2FuaXphdGlvbjExMDUzNDEx",
            "organizations_url": "https://api.github.com/users/PrismarineJS/orgs",
            "received_events_url": "https://api.github.com/users/PrismarineJS/received_events",
            "repos_url": "https://api.github.com/users/PrismarineJS/repos",
            "site_admin": false,
            "starred_url": "https://api.github.com/users/PrismarineJS/starred{/owner}{/repo}",
            "subscriptions_url": "https://api.github.com/users/PrismarineJS/subscriptions",
            "type": "Organization",
            "url": "https://api.github.com/users/PrismarineJS",
            "user_view_type": "public"
        }
    },
    "html_url": "https://github.com/PrismarineJS/prismarine-auth/pull/120",
    "id": 2306130378,
    "issue_url": "https://api.github.com/repos/PrismarineJS/prismarine-auth/issues/120",
    "labels": [
        {
            "color": "0366d6",
            "default": false,
            "description": "Pull requests that update a dependency file",
            "id": 3203606531,
            "name": "dependencies",
            "node_id": "MDU6TGFiZWwzMjAzNjA2NTMx",
            "url": "https://api.github.com/repos/PrismarineJS/prismarine-auth/labels/dependencies"
        }
    ],
    "locked": false,
    "maintainer_can_modify": false,
    "merge_commit_sha": "6f23a46210cb1b5e5e1f1c1e77e5e2b3908b0808",
    "mergeable": true,
    "mergeable_state": "clean",
    "merged": false,
    "merged_at": null,
    "merged_by": null,
    "milestone": null,
    "node_id": "PR_kwDOFq9oF86JdMHK",
    "number": 120,
    "patch_url": "https://github.com/PrismarineJS/prismarine-auth/pull/120.patch",
    "rebaseable": false,
    "requested_reviewers": [],
    "requested_teams": [],
    "review_comment_url": "https://api.github.com/repos/PrismarineJS/prismarine-auth/pulls/comments{/number}",
    "review_comments": 0,
    "review_comments_url": "https://api.github.com/repos/PrismarineJS/prismarine-auth/pulls/120/comments",
    "state": "closed",
    "statuses_url": "https://api.github.com/repos/PrismarineJS/prismarine-auth/statuses/f46c48f43fd43a39c4c97553858a3ba03ef58aa1",
    "title": "Bump @azure/msal-node from 2.16.2 to 3.1.0",
    "updated_at": "2025-02-04T06:21:53Z",
    "url": "https://api.github.com/repos/PrismarineJS/prismarine-auth/pulls/120",
    "user": {
        "avatar_url": "https://avatars.githubusercontent.com/in/29110?v=4",
        "events_url": "https://api.github.com/users/dependabot%5Bbot%5D/events{/privacy}",
        "followers_url": "https://api.github.com/users/dependabot%5Bbot%5D/followers",
        "following_url": "https://api.github.com/users/dependabot%5Bbot%5D/following{/other_user}",
        "gists_url": "https://api.github.com/users/dependabot%5Bbot%5D/gists{/gist_id}",
        "gravatar_id": "",
        "html_url": "https://github.com/apps/dependabot",
        "id": 49699333,
        "login": "dependabot[bot]",
        "node_id": "MDM6Qm90NDk2OTkzMzM=",
        "organizations_url": "https://api.github.com/users/dependabot%5Bbot%5D/orgs",
        "received_events_url": "https://api.github.com/users/dependabot%5Bbot%5D/received_events",
        "repos_url": "https://api.github.com/users/dependabot%5Bbot%5D/repos",
        "site_admin": false,
        "starred_url": "https://api.github.com/users/dependabot%5Bbot%5D/starred{/owner}{/repo}",
        "subscriptions_url": "https://api.github.com/users/dependabot%5Bbot%5D/subscriptions",
        "type": "Bot",
        "url": "https://api.github.com/users/dependabot%5Bbot%5D",
        "user_view_type": "public"
    }
}