{
    "_links": {
        "comments": {
            "href": "https://api.github.com/repos/PrismarineJS/minecraft-wiki-extractor/issues/24/comments"
        },
        "commits": {
            "href": "https://api.github.com/repos/PrismarineJS/minecraft-wiki-extractor/pulls/24/commits"
        },
        "html": {
            "href": "https://github.com/PrismarineJS/minecraft-wiki-extractor/pull/24"
        },
        "issue": {
            "href": "https://api.github.com/repos/PrismarineJS/minecraft-wiki-extractor/issues/24"
        },
        "review_comment": {
            "href": "https://api.github.com/repos/PrismarineJS/minecraft-wiki-extractor/pulls/comments{/number}"
        },
        "review_comments": {
            "href": "https://api.github.com/repos/PrismarineJS/minecraft-wiki-extractor/pulls/24/comments"
        },
        "self": {
            "href": "https://api.github.com/repos/PrismarineJS/minecraft-wiki-extractor/pulls/24"
        },
        "statuses": {
            "href": "https://api.github.com/repos/PrismarineJS/minecraft-wiki-extractor/statuses/cde5f8aaaf1dd1eb75aae5c214072a02a24fd2c4"
        }
    },
    "active_lock_reason": null,
    "additions": 1,
    "assignee": null,
    "assignees": [],
    "author_association": "CONTRIBUTOR",
    "auto_merge": null,
    "base": {
        "label": "PrismarineJS:master",
        "ref": "master",
        "repo": {
            "allow_forking": true,
            "archive_url": "https://api.github.com/repos/PrismarineJS/minecraft-wiki-extractor/{archive_format}{/ref}",
            "archived": false,
            "assignees_url": "https://api.github.com/repos/PrismarineJS/minecraft-wiki-extractor/assignees{/user}",
            "blobs_url": "https://api.github.com/repos/PrismarineJS/minecraft-wiki-extractor/git/blobs{/sha}",
            "branches_url": "https://api.github.com/repos/PrismarineJS/minecraft-wiki-extractor/branches{/branch}",
            "clone_url": "https://github.com/PrismarineJS/minecraft-wiki-extractor.git",
            "collaborators_url": "https://api.github.com/repos/PrismarineJS/minecraft-wiki-extractor/collaborators{/collaborator}",
            "comments_url": "https://api.github.com/repos/PrismarineJS/minecraft-wiki-extractor/comments{/number}",
            "commits_url": "https://api.github.com/repos/PrismarineJS/minecraft-wiki-extractor/commits{/sha}",
            "compare_url": "https://api.github.com/repos/PrismarineJS/minecraft-wiki-extractor/compare/{base}...{head}",
            "contents_url": "https://api.github.com/repos/PrismarineJS/minecraft-wiki-extractor/contents/{+path}",
            "contributors_url": "https://api.github.com/repos/PrismarineJS/minecraft-wiki-extractor/contributors",
            "created_at": "2015-10-06T22:29:20Z",
            "default_branch": "master",
            "deployments_url": "https://api.github.com/repos/PrismarineJS/minecraft-wiki-extractor/deployments",
            "description": "Extract structured data from the minecraft wiki",
            "disabled": false,
            "downloads_url": "https://api.github.com/repos/PrismarineJS/minecraft-wiki-extractor/downloads",
            "events_url": "https://api.github.com/repos/PrismarineJS/minecraft-wiki-extractor/events",
            "fork": false,
            "forks": 7,
            "forks_count": 7,
            "forks_url": "https://api.github.com/repos/PrismarineJS/minecraft-wiki-extractor/forks",
            "full_name": "PrismarineJS/minecraft-wiki-extractor",
            "git_commits_url": "https://api.github.com/repos/PrismarineJS/minecraft-wiki-extractor/git/commits{/sha}",
            "git_refs_url": "https://api.github.com/repos/PrismarineJS/minecraft-wiki-extractor/git/refs{/sha}",
            "git_tags_url": "https://api.github.com/repos/PrismarineJS/minecraft-wiki-extractor/git/tags{/sha}",
            "git_url": "git://github.com/PrismarineJS/minecraft-wiki-extractor.git",
            "has_discussions": false,
            "has_downloads": true,
            "has_issues": true,
            "has_pages": false,
            "has_projects": true,
            "has_wiki": true,
            "homepage": null,
            "hooks_url": "https://api.github.com/repos/PrismarineJS/minecraft-wiki-extractor/hooks",
            "html_url": "https://github.com/PrismarineJS/minecraft-wiki-extractor",
            "id": 43782508,
            "is_template": false,
            "issue_comment_url": "https://api.github.com/repos/PrismarineJS/minecraft-wiki-extractor/issues/comments{/number}",
            "issue_events_url": "https://api.github.com/repos/PrismarineJS/minecraft-wiki-extractor/issues/events{/number}",
            "issues_url": "https://api.github.com/repos/PrismarineJS/minecraft-wiki-extractor/issues{/number}",
            "keys_url": "https://api.github.com/repos/PrismarineJS/minecraft-wiki-extractor/keys{/key_id}",
            "labels_url": "https://api.github.com/repos/PrismarineJS/minecraft-wiki-extractor/labels{/name}",
            "language": "JavaScript",
            "languages_url": "https://api.github.com/repos/PrismarineJS/minecraft-wiki-extractor/languages",
            "license": null,
            "merges_url": "https://api.github.com/repos/PrismarineJS/minecraft-wiki-extractor/merges",
            "milestones_url": "https://api.github.com/repos/PrismarineJS/minecraft-wiki-extractor/milestones{/number}",
            "mirror_url": null,
            "name": "minecraft-wiki-extractor",
            "node_id": "MDEwOlJlcG9zaXRvcnk0Mzc4MjUwOA==",
            "notifications_url": "https://api.github.com/repos/PrismarineJS/minecraft-wiki-extractor/notifications{?since,all,participating}",
            "open_issues": 20,
            "open_issues_count": 20,
            "owner": {
                "avatar_url": "https://avatars.githubusercontent.com/u/11053411?v=4",
                "events_url": "https://api.github.com/users/PrismarineJS/events{/privacy}",
                "followers_url": "https://api.github.com/users/PrismarineJS/followers",
                "following_url": "https://api.github.com/users/PrismarineJS/following{/other_user}",
                "gists_url": "https://api.github.com/users/PrismarineJS/gists{/gist_id}",
                "gravatar_id": "",
                "html_url": "https://github.com/PrismarineJS",
                "id": 11053411,
                "login": "PrismarineJS",
                "node_id": "MDEyOk9yZ2FuaXphdGlvbjExMDUzNDEx",
                "organizations_url": "https://api.github.com/users/PrismarineJS/orgs",
                "received_events_url": "https://api.github.com/users/PrismarineJS/received_events",
                "repos_url": "https://api.github.com/users/PrismarineJS/repos",
                "site_admin": false,
                "starred_url": "https://api.github.com/users/PrismarineJS/starred{/owner}{/repo}",
                "subscriptions_url": "https://api.github.com/users/PrismarineJS/subscriptions",
                "type": "Organization",
                "url": "https://api.github.com/users/PrismarineJS"
            },
            "private": false,
            "pulls_url": "https://api.github.com/repos/PrismarineJS/minecraft-wiki-extractor/pulls{/number}",
            "pushed_at": "2023-03-15T14:58:10Z",
            "releases_url": "https://api.github.com/repos/PrismarineJS/minecraft-wiki-extractor/releases{/id}",
            "size": 93,
            "ssh_url": "git@github.com:PrismarineJS/minecraft-wiki-extractor.git",
            "stargazers_count": 10,
            "stargazers_url": "https://api.github.com/repos/PrismarineJS/minecraft-wiki-extractor/stargazers",
            "statuses_url": "https://api.github.com/repos/PrismarineJS/minecraft-wiki-extractor/statuses/{sha}",
            "subscribers_url": "https://api.github.com/repos/PrismarineJS/minecraft-wiki-extractor/subscribers",
            "subscription_url": "https://api.github.com/repos/PrismarineJS/minecraft-wiki-extractor/subscription",
            "svn_url": "https://github.com/PrismarineJS/minecraft-wiki-extractor",
            "tags_url": "https://api.github.com/repos/PrismarineJS/minecraft-wiki-extractor/tags",
            "teams_url": "https://api.github.com/repos/PrismarineJS/minecraft-wiki-extractor/teams",
            "topics": [],
            "trees_url": "https://api.github.com/repos/PrismarineJS/minecraft-wiki-extractor/git/trees{/sha}",
            "updated_at": "2023-02-04T09:49:39Z",
            "url": "https://api.github.com/repos/PrismarineJS/minecraft-wiki-extractor",
            "visibility": "public",
            "watchers": 10,
            "watchers_count": 10,
            "web_commit_signoff_required": false
        },
        "sha": "c2c8a4bd04f0bf82e27f51f693123aec261b82c2",
        "user": {
            "avatar_url": "https://avatars.githubusercontent.com/u/11053411?v=4",
            "events_url": "https://api.github.com/users/PrismarineJS/events{/privacy}",
            "followers_url": "https://api.github.com/users/PrismarineJS/followers",
            "following_url": "https://api.github.com/users/PrismarineJS/following{/other_user}",
            "gists_url": "https://api.github.com/users/PrismarineJS/gists{/gist_id}",
            "gravatar_id": "",
            "html_url": "https://github.com/PrismarineJS",
            "id": 11053411,
            "login": "PrismarineJS",
            "node_id": "MDEyOk9yZ2FuaXphdGlvbjExMDUzNDEx",
            "organizations_url": "https://api.github.com/users/PrismarineJS/orgs",
            "received_events_url": "https://api.github.com/users/PrismarineJS/received_events",
            "repos_url": "https://api.github.com/users/PrismarineJS/repos",
            "site_admin": false,
            "starred_url": "https://api.github.com/users/PrismarineJS/starred{/owner}{/repo}",
            "subscriptions_url": "https://api.github.com/users/PrismarineJS/subscriptions",
            "type": "Organization",
            "url": "https://api.github.com/users/PrismarineJS"
        }
    },
    "body": "\n## The dependency [async](https://github.com/caolan/async) was updated from `2.6.2` to `3.0.1`.\nThis version is **not covered** by your **current version range**.\n\nIf you don’t accept this pull request, your project will work just like it did before. However, you might be missing out on a bunch of new features, fixes and/or performance improvements from the dependency update.\n\n---\n\n[Find out more about this release](https://github.com/caolan/async).\n\n<details>\n  <summary>FAQ and help</summary>\n\n  There is a collection of [frequently asked questions](https://greenkeeper.io/faq.html). If those don’t help, you can always [ask the humans behind Greenkeeper](https://github.com/greenkeeperio/greenkeeper/issues/new).\n</details>\n\n---\n\n\nYour [Greenkeeper](https://greenkeeper.io) bot :palm_tree:\n\n",
    "changed_files": 1,
    "closed_at": "2020-05-03T10:30:29Z",
    "comment_data": [],
    "comment_regular_data": [
        {
            "author_association": "CONTRIBUTOR",
            "body": "- The `dependency` [async](https://github.com/caolan/async) was updated from `2.6.2` to `3.1.0`.\n\n[Update to this version instead 🚀](https://github.com/PrismarineJS/minecraft-wiki-extractor/compare/master...PrismarineJS:greenkeeper%2Fasync-3.1.0)",
            "created_at": "2019-06-23T05:33:32Z",
            "html_url": "https://github.com/PrismarineJS/minecraft-wiki-extractor/pull/24#issuecomment-504721615",
            "id": 504721615,
            "issue_url": "https://api.github.com/repos/PrismarineJS/minecraft-wiki-extractor/issues/24",
            "node_id": "MDEyOklzc3VlQ29tbWVudDUwNDcyMTYxNQ==",
            "performed_via_github_app": null,
            "reactions": {
                "+1": 0,
                "-1": 0,
                "confused": 0,
                "eyes": 0,
                "heart": 0,
                "hooray": 0,
                "laugh": 0,
                "rocket": 0,
                "total_count": 0,
                "url": "https://api.github.com/repos/PrismarineJS/minecraft-wiki-extractor/issues/comments/504721615/reactions"
            },
            "updated_at": "2019-06-23T05:33:32Z",
            "url": "https://api.github.com/repos/PrismarineJS/minecraft-wiki-extractor/issues/comments/504721615",
            "user": {
                "avatar_url": "https://avatars.githubusercontent.com/in/505?v=4",
                "events_url": "https://api.github.com/users/greenkeeper%5Bbot%5D/events{/privacy}",
                "followers_url": "https://api.github.com/users/greenkeeper%5Bbot%5D/followers",
                "following_url": "https://api.github.com/users/greenkeeper%5Bbot%5D/following{/other_user}",
                "gists_url": "https://api.github.com/users/greenkeeper%5Bbot%5D/gists{/gist_id}",
                "gravatar_id": "",
                "html_url": "https://github.com/apps/greenkeeper",
                "id": 23040076,
                "login": "greenkeeper[bot]",
                "node_id": "MDM6Qm90MjMwNDAwNzY=",
                "organizations_url": "https://api.github.com/users/greenkeeper%5Bbot%5D/orgs",
                "received_events_url": "https://api.github.com/users/greenkeeper%5Bbot%5D/received_events",
                "repos_url": "https://api.github.com/users/greenkeeper%5Bbot%5D/repos",
                "site_admin": false,
                "starred_url": "https://api.github.com/users/greenkeeper%5Bbot%5D/starred{/owner}{/repo}",
                "subscriptions_url": "https://api.github.com/users/greenkeeper%5Bbot%5D/subscriptions",
                "type": "Bot",
                "url": "https://api.github.com/users/greenkeeper%5Bbot%5D"
            }
        },
        {
            "author_association": "CONTRIBUTOR",
            "body": "- The `dependency` [async](https://github.com/caolan/async) was updated from `2.6.3` to `3.1.1`.\n\n[Update to this version instead 🚀](https://github.com/PrismarineJS/minecraft-wiki-extractor/compare/master...PrismarineJS:greenkeeper%2Fasync-3.1.1)",
            "created_at": "2020-01-25T00:00:42Z",
            "html_url": "https://github.com/PrismarineJS/minecraft-wiki-extractor/pull/24#issuecomment-578348128",
            "id": 578348128,
            "issue_url": "https://api.github.com/repos/PrismarineJS/minecraft-wiki-extractor/issues/24",
            "node_id": "MDEyOklzc3VlQ29tbWVudDU3ODM0ODEyOA==",
            "performed_via_github_app": null,
            "reactions": {
                "+1": 0,
                "-1": 0,
                "confused": 0,
                "eyes": 0,
                "heart": 0,
                "hooray": 0,
                "laugh": 0,
                "rocket": 0,
                "total_count": 0,
                "url": "https://api.github.com/repos/PrismarineJS/minecraft-wiki-extractor/issues/comments/578348128/reactions"
            },
            "updated_at": "2020-01-25T00:00:42Z",
            "url": "https://api.github.com/repos/PrismarineJS/minecraft-wiki-extractor/issues/comments/578348128",
            "user": {
                "avatar_url": "https://avatars.githubusercontent.com/in/505?v=4",
                "events_url": "https://api.github.com/users/greenkeeper%5Bbot%5D/events{/privacy}",
                "followers_url": "https://api.github.com/users/greenkeeper%5Bbot%5D/followers",
                "following_url": "https://api.github.com/users/greenkeeper%5Bbot%5D/following{/other_user}",
                "gists_url": "https://api.github.com/users/greenkeeper%5Bbot%5D/gists{/gist_id}",
                "gravatar_id": "",
                "html_url": "https://github.com/apps/greenkeeper",
                "id": 23040076,
                "login": "greenkeeper[bot]",
                "node_id": "MDM6Qm90MjMwNDAwNzY=",
                "organizations_url": "https://api.github.com/users/greenkeeper%5Bbot%5D/orgs",
                "received_events_url": "https://api.github.com/users/greenkeeper%5Bbot%5D/received_events",
                "repos_url": "https://api.github.com/users/greenkeeper%5Bbot%5D/repos",
                "site_admin": false,
                "starred_url": "https://api.github.com/users/greenkeeper%5Bbot%5D/starred{/owner}{/repo}",
                "subscriptions_url": "https://api.github.com/users/greenkeeper%5Bbot%5D/subscriptions",
                "type": "Bot",
                "url": "https://api.github.com/users/greenkeeper%5Bbot%5D"
            }
        },
        {
            "author_association": "CONTRIBUTOR",
            "body": "- The `dependency` [async](https://github.com/caolan/async) was updated from `2.6.3` to `3.2.0`.\n\n[Update to this version instead 🚀](https://github.com/PrismarineJS/minecraft-wiki-extractor/compare/master...PrismarineJS:greenkeeper%2Fasync-3.2.0)",
            "created_at": "2020-02-24T03:00:29Z",
            "html_url": "https://github.com/PrismarineJS/minecraft-wiki-extractor/pull/24#issuecomment-590152488",
            "id": 590152488,
            "issue_url": "https://api.github.com/repos/PrismarineJS/minecraft-wiki-extractor/issues/24",
            "node_id": "MDEyOklzc3VlQ29tbWVudDU5MDE1MjQ4OA==",
            "performed_via_github_app": null,
            "reactions": {
                "+1": 0,
                "-1": 0,
                "confused": 0,
                "eyes": 0,
                "heart": 0,
                "hooray": 0,
                "laugh": 0,
                "rocket": 0,
                "total_count": 0,
                "url": "https://api.github.com/repos/PrismarineJS/minecraft-wiki-extractor/issues/comments/590152488/reactions"
            },
            "updated_at": "2020-02-24T03:00:29Z",
            "url": "https://api.github.com/repos/PrismarineJS/minecraft-wiki-extractor/issues/comments/590152488",
            "user": {
                "avatar_url": "https://avatars.githubusercontent.com/in/505?v=4",
                "events_url": "https://api.github.com/users/greenkeeper%5Bbot%5D/events{/privacy}",
                "followers_url": "https://api.github.com/users/greenkeeper%5Bbot%5D/followers",
                "following_url": "https://api.github.com/users/greenkeeper%5Bbot%5D/following{/other_user}",
                "gists_url": "https://api.github.com/users/greenkeeper%5Bbot%5D/gists{/gist_id}",
                "gravatar_id": "",
                "html_url": "https://github.com/apps/greenkeeper",
                "id": 23040076,
                "login": "greenkeeper[bot]",
                "node_id": "MDM6Qm90MjMwNDAwNzY=",
                "organizations_url": "https://api.github.com/users/greenkeeper%5Bbot%5D/orgs",
                "received_events_url": "https://api.github.com/users/greenkeeper%5Bbot%5D/received_events",
                "repos_url": "https://api.github.com/users/greenkeeper%5Bbot%5D/repos",
                "site_admin": false,
                "starred_url": "https://api.github.com/users/greenkeeper%5Bbot%5D/starred{/owner}{/repo}",
                "subscriptions_url": "https://api.github.com/users/greenkeeper%5Bbot%5D/subscriptions",
                "type": "Bot",
                "url": "https://api.github.com/users/greenkeeper%5Bbot%5D"
            }
        }
    ],
    "comments": 3,
    "comments_url": "https://api.github.com/repos/PrismarineJS/minecraft-wiki-extractor/issues/24/comments",
    "commit_data": [
        {
            "author": {
                "avatar_url": "https://avatars.githubusercontent.com/in/505?v=4",
                "events_url": "https://api.github.com/users/greenkeeper%5Bbot%5D/events{/privacy}",
                "followers_url": "https://api.github.com/users/greenkeeper%5Bbot%5D/followers",
                "following_url": "https://api.github.com/users/greenkeeper%5Bbot%5D/following{/other_user}",
                "gists_url": "https://api.github.com/users/greenkeeper%5Bbot%5D/gists{/gist_id}",
                "gravatar_id": "",
                "html_url": "https://github.com/apps/greenkeeper",
                "id": 23040076,
                "login": "greenkeeper[bot]",
                "node_id": "MDM6Qm90MjMwNDAwNzY=",
                "organizations_url": "https://api.github.com/users/greenkeeper%5Bbot%5D/orgs",
                "received_events_url": "https://api.github.com/users/greenkeeper%5Bbot%5D/received_events",
                "repos_url": "https://api.github.com/users/greenkeeper%5Bbot%5D/repos",
                "site_admin": false,
                "starred_url": "https://api.github.com/users/greenkeeper%5Bbot%5D/starred{/owner}{/repo}",
                "subscriptions_url": "https://api.github.com/users/greenkeeper%5Bbot%5D/subscriptions",
                "type": "Bot",
                "url": "https://api.github.com/users/greenkeeper%5Bbot%5D"
            },
            "comments_url": "https://api.github.com/repos/PrismarineJS/minecraft-wiki-extractor/commits/cde5f8aaaf1dd1eb75aae5c214072a02a24fd2c4/comments",
            "commit": {
                "author": {
                    "date": "2019-05-26T21:45:00Z",
                    "email": "greenkeeper[bot]@users.noreply.github.com",
                    "name": "greenkeeper[bot]"
                },
                "comment_count": 0,
                "committer": {
                    "date": "2019-05-26T21:45:00Z",
                    "email": "greenkeeper[bot]@users.noreply.github.com",
                    "name": "greenkeeper[bot]"
                },
                "message": "fix(package): update async to version 3.0.1",
                "tree": {
                    "sha": "f8b508004250e786f78bd2dd0f6594c803828073",
                    "url": "https://api.github.com/repos/PrismarineJS/minecraft-wiki-extractor/git/trees/f8b508004250e786f78bd2dd0f6594c803828073"
                },
                "url": "https://api.github.com/repos/PrismarineJS/minecraft-wiki-extractor/git/commits/cde5f8aaaf1dd1eb75aae5c214072a02a24fd2c4",
                "verification": {
                    "payload": null,
                    "reason": "unsigned",
                    "signature": null,
                    "verified": false
                }
            },
            "committer": {
                "avatar_url": "https://avatars.githubusercontent.com/in/505?v=4",
                "events_url": "https://api.github.com/users/greenkeeper%5Bbot%5D/events{/privacy}",
                "followers_url": "https://api.github.com/users/greenkeeper%5Bbot%5D/followers",
                "following_url": "https://api.github.com/users/greenkeeper%5Bbot%5D/following{/other_user}",
                "gists_url": "https://api.github.com/users/greenkeeper%5Bbot%5D/gists{/gist_id}",
                "gravatar_id": "",
                "html_url": "https://github.com/apps/greenkeeper",
                "id": 23040076,
                "login": "greenkeeper[bot]",
                "node_id": "MDM6Qm90MjMwNDAwNzY=",
                "organizations_url": "https://api.github.com/users/greenkeeper%5Bbot%5D/orgs",
                "received_events_url": "https://api.github.com/users/greenkeeper%5Bbot%5D/received_events",
                "repos_url": "https://api.github.com/users/greenkeeper%5Bbot%5D/repos",
                "site_admin": false,
                "starred_url": "https://api.github.com/users/greenkeeper%5Bbot%5D/starred{/owner}{/repo}",
                "subscriptions_url": "https://api.github.com/users/greenkeeper%5Bbot%5D/subscriptions",
                "type": "Bot",
                "url": "https://api.github.com/users/greenkeeper%5Bbot%5D"
            },
            "html_url": "https://github.com/PrismarineJS/minecraft-wiki-extractor/commit/cde5f8aaaf1dd1eb75aae5c214072a02a24fd2c4",
            "node_id": "MDY6Q29tbWl0NDM3ODI1MDg6Y2RlNWY4YWFhZjFkZDFlYjc1YWFlNWMyMTQwNzJhMDJhMjRmZDJjNA==",
            "parents": [
                {
                    "html_url": "https://github.com/PrismarineJS/minecraft-wiki-extractor/commit/c2c8a4bd04f0bf82e27f51f693123aec261b82c2",
                    "sha": "c2c8a4bd04f0bf82e27f51f693123aec261b82c2",
                    "url": "https://api.github.com/repos/PrismarineJS/minecraft-wiki-extractor/commits/c2c8a4bd04f0bf82e27f51f693123aec261b82c2"
                }
            ],
            "sha": "cde5f8aaaf1dd1eb75aae5c214072a02a24fd2c4",
            "url": "https://api.github.com/repos/PrismarineJS/minecraft-wiki-extractor/commits/cde5f8aaaf1dd1eb75aae5c214072a02a24fd2c4"
        }
    ],
    "commits": 1,
    "commits_url": "https://api.github.com/repos/PrismarineJS/minecraft-wiki-extractor/pulls/24/commits",
    "created_at": "2019-05-26T21:45:24Z",
    "deletions": 1,
    "diff_url": "https://github.com/PrismarineJS/minecraft-wiki-extractor/pull/24.diff",
    "draft": false,
    "head": {
        "label": "PrismarineJS:greenkeeper/async-3.0.1",
        "ref": "greenkeeper/async-3.0.1",
        "repo": {
            "allow_forking": true,
            "archive_url": "https://api.github.com/repos/PrismarineJS/minecraft-wiki-extractor/{archive_format}{/ref}",
            "archived": false,
            "assignees_url": "https://api.github.com/repos/PrismarineJS/minecraft-wiki-extractor/assignees{/user}",
            "blobs_url": "https://api.github.com/repos/PrismarineJS/minecraft-wiki-extractor/git/blobs{/sha}",
            "branches_url": "https://api.github.com/repos/PrismarineJS/minecraft-wiki-extractor/branches{/branch}",
            "clone_url": "https://github.com/PrismarineJS/minecraft-wiki-extractor.git",
            "collaborators_url": "https://api.github.com/repos/PrismarineJS/minecraft-wiki-extractor/collaborators{/collaborator}",
            "comments_url": "https://api.github.com/repos/PrismarineJS/minecraft-wiki-extractor/comments{/number}",
            "commits_url": "https://api.github.com/repos/PrismarineJS/minecraft-wiki-extractor/commits{/sha}",
            "compare_url": "https://api.github.com/repos/PrismarineJS/minecraft-wiki-extractor/compare/{base}...{head}",
            "contents_url": "https://api.github.com/repos/PrismarineJS/minecraft-wiki-extractor/contents/{+path}",
            "contributors_url": "https://api.github.com/repos/PrismarineJS/minecraft-wiki-extractor/contributors",
            "created_at": "2015-10-06T22:29:20Z",
            "default_branch": "master",
            "deployments_url": "https://api.github.com/repos/PrismarineJS/minecraft-wiki-extractor/deployments",
            "description": "Extract structured data from the minecraft wiki",
            "disabled": false,
            "downloads_url": "https://api.github.com/repos/PrismarineJS/minecraft-wiki-extractor/downloads",
            "events_url": "https://api.github.com/repos/PrismarineJS/minecraft-wiki-extractor/events",
            "fork": false,
            "forks": 7,
            "forks_count": 7,
            "forks_url": "https://api.github.com/repos/PrismarineJS/minecraft-wiki-extractor/forks",
            "full_name": "PrismarineJS/minecraft-wiki-extractor",
            "git_commits_url": "https://api.github.com/repos/PrismarineJS/minecraft-wiki-extractor/git/commits{/sha}",
            "git_refs_url": "https://api.github.com/repos/PrismarineJS/minecraft-wiki-extractor/git/refs{/sha}",
            "git_tags_url": "https://api.github.com/repos/PrismarineJS/minecraft-wiki-extractor/git/tags{/sha}",
            "git_url": "git://github.com/PrismarineJS/minecraft-wiki-extractor.git",
            "has_discussions": false,
            "has_downloads": true,
            "has_issues": true,
            "has_pages": false,
            "has_projects": true,
            "has_wiki": true,
            "homepage": null,
            "hooks_url": "https://api.github.com/repos/PrismarineJS/minecraft-wiki-extractor/hooks",
            "html_url": "https://github.com/PrismarineJS/minecraft-wiki-extractor",
            "id": 43782508,
            "is_template": false,
            "issue_comment_url": "https://api.github.com/repos/PrismarineJS/minecraft-wiki-extractor/issues/comments{/number}",
            "issue_events_url": "https://api.github.com/repos/PrismarineJS/minecraft-wiki-extractor/issues/events{/number}",
            "issues_url": "https://api.github.com/repos/PrismarineJS/minecraft-wiki-extractor/issues{/number}",
            "keys_url": "https://api.github.com/repos/PrismarineJS/minecraft-wiki-extractor/keys{/key_id}",
            "labels_url": "https://api.github.com/repos/PrismarineJS/minecraft-wiki-extractor/labels{/name}",
            "language": "JavaScript",
            "languages_url": "https://api.github.com/repos/PrismarineJS/minecraft-wiki-extractor/languages",
            "license": null,
            "merges_url": "https://api.github.com/repos/PrismarineJS/minecraft-wiki-extractor/merges",
            "milestones_url": "https://api.github.com/repos/PrismarineJS/minecraft-wiki-extractor/milestones{/number}",
            "mirror_url": null,
            "name": "minecraft-wiki-extractor",
            "node_id": "MDEwOlJlcG9zaXRvcnk0Mzc4MjUwOA==",
            "notifications_url": "https://api.github.com/repos/PrismarineJS/minecraft-wiki-extractor/notifications{?since,all,participating}",
            "open_issues": 20,
            "open_issues_count": 20,
            "owner": {
                "avatar_url": "https://avatars.githubusercontent.com/u/11053411?v=4",
                "events_url": "https://api.github.com/users/PrismarineJS/events{/privacy}",
                "followers_url": "https://api.github.com/users/PrismarineJS/followers",
                "following_url": "https://api.github.com/users/PrismarineJS/following{/other_user}",
                "gists_url": "https://api.github.com/users/PrismarineJS/gists{/gist_id}",
                "gravatar_id": "",
                "html_url": "https://github.com/PrismarineJS",
                "id": 11053411,
                "login": "PrismarineJS",
                "node_id": "MDEyOk9yZ2FuaXphdGlvbjExMDUzNDEx",
                "organizations_url": "https://api.github.com/users/PrismarineJS/orgs",
                "received_events_url": "https://api.github.com/users/PrismarineJS/received_events",
                "repos_url": "https://api.github.com/users/PrismarineJS/repos",
                "site_admin": false,
                "starred_url": "https://api.github.com/users/PrismarineJS/starred{/owner}{/repo}",
                "subscriptions_url": "https://api.github.com/users/PrismarineJS/subscriptions",
                "type": "Organization",
                "url": "https://api.github.com/users/PrismarineJS"
            },
            "private": false,
            "pulls_url": "https://api.github.com/repos/PrismarineJS/minecraft-wiki-extractor/pulls{/number}",
            "pushed_at": "2023-03-15T14:58:10Z",
            "releases_url": "https://api.github.com/repos/PrismarineJS/minecraft-wiki-extractor/releases{/id}",
            "size": 93,
            "ssh_url": "git@github.com:PrismarineJS/minecraft-wiki-extractor.git",
            "stargazers_count": 10,
            "stargazers_url": "https://api.github.com/repos/PrismarineJS/minecraft-wiki-extractor/stargazers",
            "statuses_url": "https://api.github.com/repos/PrismarineJS/minecraft-wiki-extractor/statuses/{sha}",
            "subscribers_url": "https://api.github.com/repos/PrismarineJS/minecraft-wiki-extractor/subscribers",
            "subscription_url": "https://api.github.com/repos/PrismarineJS/minecraft-wiki-extractor/subscription",
            "svn_url": "https://github.com/PrismarineJS/minecraft-wiki-extractor",
            "tags_url": "https://api.github.com/repos/PrismarineJS/minecraft-wiki-extractor/tags",
            "teams_url": "https://api.github.com/repos/PrismarineJS/minecraft-wiki-extractor/teams",
            "topics": [],
            "trees_url": "https://api.github.com/repos/PrismarineJS/minecraft-wiki-extractor/git/trees{/sha}",
            "updated_at": "2023-02-04T09:49:39Z",
            "url": "https://api.github.com/repos/PrismarineJS/minecraft-wiki-extractor",
            "visibility": "public",
            "watchers": 10,
            "watchers_count": 10,
            "web_commit_signoff_required": false
        },
        "sha": "cde5f8aaaf1dd1eb75aae5c214072a02a24fd2c4",
        "user": {
            "avatar_url": "https://avatars.githubusercontent.com/u/11053411?v=4",
            "events_url": "https://api.github.com/users/PrismarineJS/events{/privacy}",
            "followers_url": "https://api.github.com/users/PrismarineJS/followers",
            "following_url": "https://api.github.com/users/PrismarineJS/following{/other_user}",
            "gists_url": "https://api.github.com/users/PrismarineJS/gists{/gist_id}",
            "gravatar_id": "",
            "html_url": "https://github.com/PrismarineJS",
            "id": 11053411,
            "login": "PrismarineJS",
            "node_id": "MDEyOk9yZ2FuaXphdGlvbjExMDUzNDEx",
            "organizations_url": "https://api.github.com/users/PrismarineJS/orgs",
            "received_events_url": "https://api.github.com/users/PrismarineJS/received_events",
            "repos_url": "https://api.github.com/users/PrismarineJS/repos",
            "site_admin": false,
            "starred_url": "https://api.github.com/users/PrismarineJS/starred{/owner}{/repo}",
            "subscriptions_url": "https://api.github.com/users/PrismarineJS/subscriptions",
            "type": "Organization",
            "url": "https://api.github.com/users/PrismarineJS"
        }
    },
    "html_url": "https://github.com/PrismarineJS/minecraft-wiki-extractor/pull/24",
    "id": 282324981,
    "issue_url": "https://api.github.com/repos/PrismarineJS/minecraft-wiki-extractor/issues/24",
    "labels": [
        {
            "color": "00c775",
            "default": false,
            "description": null,
            "id": 560594840,
            "name": "greenkeeper",
            "node_id": "MDU6TGFiZWw1NjA1OTQ4NDA=",
            "url": "https://api.github.com/repos/PrismarineJS/minecraft-wiki-extractor/labels/greenkeeper"
        }
    ],
    "locked": false,
    "maintainer_can_modify": false,
    "merge_commit_sha": "475763c783c6f168861c1e08b75aa08d7096247b",
    "mergeable": null,
    "mergeable_state": "unknown",
    "merged": false,
    "merged_at": null,
    "merged_by": null,
    "milestone": null,
    "node_id": "MDExOlB1bGxSZXF1ZXN0MjgyMzI0OTgx",
    "number": 24,
    "patch_url": "https://github.com/PrismarineJS/minecraft-wiki-extractor/pull/24.patch",
    "rebaseable": null,
    "requested_reviewers": [],
    "requested_teams": [],
    "review_comment_url": "https://api.github.com/repos/PrismarineJS/minecraft-wiki-extractor/pulls/comments{/number}",
    "review_comments": 0,
    "review_comments_url": "https://api.github.com/repos/PrismarineJS/minecraft-wiki-extractor/pulls/24/comments",
    "state": "closed",
    "statuses_url": "https://api.github.com/repos/PrismarineJS/minecraft-wiki-extractor/statuses/cde5f8aaaf1dd1eb75aae5c214072a02a24fd2c4",
    "title": "Update async to the latest version 🚀",
    "updated_at": "2020-05-03T10:30:30Z",
    "url": "https://api.github.com/repos/PrismarineJS/minecraft-wiki-extractor/pulls/24",
    "user": {
        "avatar_url": "https://avatars.githubusercontent.com/in/505?v=4",
        "events_url": "https://api.github.com/users/greenkeeper%5Bbot%5D/events{/privacy}",
        "followers_url": "https://api.github.com/users/greenkeeper%5Bbot%5D/followers",
        "following_url": "https://api.github.com/users/greenkeeper%5Bbot%5D/following{/other_user}",
        "gists_url": "https://api.github.com/users/greenkeeper%5Bbot%5D/gists{/gist_id}",
        "gravatar_id": "",
        "html_url": "https://github.com/apps/greenkeeper",
        "id": 23040076,
        "login": "greenkeeper[bot]",
        "node_id": "MDM6Qm90MjMwNDAwNzY=",
        "organizations_url": "https://api.github.com/users/greenkeeper%5Bbot%5D/orgs",
        "received_events_url": "https://api.github.com/users/greenkeeper%5Bbot%5D/received_events",
        "repos_url": "https://api.github.com/users/greenkeeper%5Bbot%5D/repos",
        "site_admin": false,
        "starred_url": "https://api.github.com/users/greenkeeper%5Bbot%5D/starred{/owner}{/repo}",
        "subscriptions_url": "https://api.github.com/users/greenkeeper%5Bbot%5D/subscriptions",
        "type": "Bot",
        "url": "https://api.github.com/users/greenkeeper%5Bbot%5D"
    }
}