{
    "_links": {
        "comments": {
            "href": "https://api.github.com/repos/PrismarineJS/prismarine-realms/issues/7/comments"
        },
        "commits": {
            "href": "https://api.github.com/repos/PrismarineJS/prismarine-realms/pulls/7/commits"
        },
        "html": {
            "href": "https://github.com/PrismarineJS/prismarine-realms/pull/7"
        },
        "issue": {
            "href": "https://api.github.com/repos/PrismarineJS/prismarine-realms/issues/7"
        },
        "review_comment": {
            "href": "https://api.github.com/repos/PrismarineJS/prismarine-realms/pulls/comments{/number}"
        },
        "review_comments": {
            "href": "https://api.github.com/repos/PrismarineJS/prismarine-realms/pulls/7/comments"
        },
        "self": {
            "href": "https://api.github.com/repos/PrismarineJS/prismarine-realms/pulls/7"
        },
        "statuses": {
            "href": "https://api.github.com/repos/PrismarineJS/prismarine-realms/statuses/696cf34b9454f0c0d348de9a1186c8dfa9a220c4"
        }
    },
    "active_lock_reason": null,
    "additions": 30,
    "assignee": null,
    "assignees": [],
    "author_association": "MEMBER",
    "auto_merge": null,
    "base": {
        "label": "PrismarineJS:master",
        "ref": "master",
        "repo": {
            "allow_forking": true,
            "archive_url": "https://api.github.com/repos/PrismarineJS/prismarine-realms/{archive_format}{/ref}",
            "archived": false,
            "assignees_url": "https://api.github.com/repos/PrismarineJS/prismarine-realms/assignees{/user}",
            "blobs_url": "https://api.github.com/repos/PrismarineJS/prismarine-realms/git/blobs{/sha}",
            "branches_url": "https://api.github.com/repos/PrismarineJS/prismarine-realms/branches{/branch}",
            "clone_url": "https://github.com/PrismarineJS/prismarine-realms.git",
            "collaborators_url": "https://api.github.com/repos/PrismarineJS/prismarine-realms/collaborators{/collaborator}",
            "comments_url": "https://api.github.com/repos/PrismarineJS/prismarine-realms/comments{/number}",
            "commits_url": "https://api.github.com/repos/PrismarineJS/prismarine-realms/commits{/sha}",
            "compare_url": "https://api.github.com/repos/PrismarineJS/prismarine-realms/compare/{base}...{head}",
            "contents_url": "https://api.github.com/repos/PrismarineJS/prismarine-realms/contents/{+path}",
            "contributors_url": "https://api.github.com/repos/PrismarineJS/prismarine-realms/contributors",
            "created_at": "2022-03-05T05:42:24Z",
            "default_branch": "master",
            "deployments_url": "https://api.github.com/repos/PrismarineJS/prismarine-realms/deployments",
            "description": "Library for interacting with Minecraft Realms",
            "disabled": false,
            "downloads_url": "https://api.github.com/repos/PrismarineJS/prismarine-realms/downloads",
            "events_url": "https://api.github.com/repos/PrismarineJS/prismarine-realms/events",
            "fork": false,
            "forks": 4,
            "forks_count": 4,
            "forks_url": "https://api.github.com/repos/PrismarineJS/prismarine-realms/forks",
            "full_name": "PrismarineJS/prismarine-realms",
            "git_commits_url": "https://api.github.com/repos/PrismarineJS/prismarine-realms/git/commits{/sha}",
            "git_refs_url": "https://api.github.com/repos/PrismarineJS/prismarine-realms/git/refs{/sha}",
            "git_tags_url": "https://api.github.com/repos/PrismarineJS/prismarine-realms/git/tags{/sha}",
            "git_url": "git://github.com/PrismarineJS/prismarine-realms.git",
            "has_discussions": false,
            "has_downloads": true,
            "has_issues": true,
            "has_pages": false,
            "has_projects": true,
            "has_wiki": true,
            "homepage": "",
            "hooks_url": "https://api.github.com/repos/PrismarineJS/prismarine-realms/hooks",
            "html_url": "https://github.com/PrismarineJS/prismarine-realms",
            "id": 466361600,
            "is_template": false,
            "issue_comment_url": "https://api.github.com/repos/PrismarineJS/prismarine-realms/issues/comments{/number}",
            "issue_events_url": "https://api.github.com/repos/PrismarineJS/prismarine-realms/issues/events{/number}",
            "issues_url": "https://api.github.com/repos/PrismarineJS/prismarine-realms/issues{/number}",
            "keys_url": "https://api.github.com/repos/PrismarineJS/prismarine-realms/keys{/key_id}",
            "labels_url": "https://api.github.com/repos/PrismarineJS/prismarine-realms/labels{/name}",
            "language": "JavaScript",
            "languages_url": "https://api.github.com/repos/PrismarineJS/prismarine-realms/languages",
            "license": {
                "key": "mit",
                "name": "MIT License",
                "node_id": "MDc6TGljZW5zZTEz",
                "spdx_id": "MIT",
                "url": "https://api.github.com/licenses/mit"
            },
            "merges_url": "https://api.github.com/repos/PrismarineJS/prismarine-realms/merges",
            "milestones_url": "https://api.github.com/repos/PrismarineJS/prismarine-realms/milestones{/number}",
            "mirror_url": null,
            "name": "prismarine-realms",
            "node_id": "R_kgDOG8wdAA",
            "notifications_url": "https://api.github.com/repos/PrismarineJS/prismarine-realms/notifications{?since,all,participating}",
            "open_issues": 4,
            "open_issues_count": 4,
            "owner": {
                "avatar_url": "https://avatars.githubusercontent.com/u/11053411?v=4",
                "events_url": "https://api.github.com/users/PrismarineJS/events{/privacy}",
                "followers_url": "https://api.github.com/users/PrismarineJS/followers",
                "following_url": "https://api.github.com/users/PrismarineJS/following{/other_user}",
                "gists_url": "https://api.github.com/users/PrismarineJS/gists{/gist_id}",
                "gravatar_id": "",
                "html_url": "https://github.com/PrismarineJS",
                "id": 11053411,
                "login": "PrismarineJS",
                "node_id": "MDEyOk9yZ2FuaXphdGlvbjExMDUzNDEx",
                "organizations_url": "https://api.github.com/users/PrismarineJS/orgs",
                "received_events_url": "https://api.github.com/users/PrismarineJS/received_events",
                "repos_url": "https://api.github.com/users/PrismarineJS/repos",
                "site_admin": false,
                "starred_url": "https://api.github.com/users/PrismarineJS/starred{/owner}{/repo}",
                "subscriptions_url": "https://api.github.com/users/PrismarineJS/subscriptions",
                "type": "Organization",
                "url": "https://api.github.com/users/PrismarineJS"
            },
            "private": false,
            "pulls_url": "https://api.github.com/repos/PrismarineJS/prismarine-realms/pulls{/number}",
            "pushed_at": "2023-04-18T19:55:42Z",
            "releases_url": "https://api.github.com/repos/PrismarineJS/prismarine-realms/releases{/id}",
            "size": 46,
            "ssh_url": "git@github.com:PrismarineJS/prismarine-realms.git",
            "stargazers_count": 4,
            "stargazers_url": "https://api.github.com/repos/PrismarineJS/prismarine-realms/stargazers",
            "statuses_url": "https://api.github.com/repos/PrismarineJS/prismarine-realms/statuses/{sha}",
            "subscribers_url": "https://api.github.com/repos/PrismarineJS/prismarine-realms/subscribers",
            "subscription_url": "https://api.github.com/repos/PrismarineJS/prismarine-realms/subscription",
            "svn_url": "https://github.com/PrismarineJS/prismarine-realms",
            "tags_url": "https://api.github.com/repos/PrismarineJS/prismarine-realms/tags",
            "teams_url": "https://api.github.com/repos/PrismarineJS/prismarine-realms/teams",
            "topics": [],
            "trees_url": "https://api.github.com/repos/PrismarineJS/prismarine-realms/git/trees{/sha}",
            "updated_at": "2023-04-17T21:23:30Z",
            "url": "https://api.github.com/repos/PrismarineJS/prismarine-realms",
            "visibility": "public",
            "watchers": 4,
            "watchers_count": 4,
            "web_commit_signoff_required": false
        },
        "sha": "53996435aee571313975c91595ff747dac380a28",
        "user": {
            "avatar_url": "https://avatars.githubusercontent.com/u/11053411?v=4",
            "events_url": "https://api.github.com/users/PrismarineJS/events{/privacy}",
            "followers_url": "https://api.github.com/users/PrismarineJS/followers",
            "following_url": "https://api.github.com/users/PrismarineJS/following{/other_user}",
            "gists_url": "https://api.github.com/users/PrismarineJS/gists{/gist_id}",
            "gravatar_id": "",
            "html_url": "https://github.com/PrismarineJS",
            "id": 11053411,
            "login": "PrismarineJS",
            "node_id": "MDEyOk9yZ2FuaXphdGlvbjExMDUzNDEx",
            "organizations_url": "https://api.github.com/users/PrismarineJS/orgs",
            "received_events_url": "https://api.github.com/users/PrismarineJS/received_events",
            "repos_url": "https://api.github.com/users/PrismarineJS/repos",
            "site_admin": false,
            "starred_url": "https://api.github.com/users/PrismarineJS/starred{/owner}{/repo}",
            "subscriptions_url": "https://api.github.com/users/PrismarineJS/subscriptions",
            "type": "Organization",
            "url": "https://api.github.com/users/PrismarineJS"
        }
    },
    "body": "Remove superfluous error handling outside documented API, make the doc clear as to current capabilities",
    "changed_files": 7,
    "closed_at": "2022-04-03T22:32:25Z",
    "comment_data": [],
    "comment_regular_data": [],
    "comments": 0,
    "comments_url": "https://api.github.com/repos/PrismarineJS/prismarine-realms/issues/7/comments",
    "commit_data": [
        {
            "author": {
                "avatar_url": "https://avatars.githubusercontent.com/u/13713600?v=4",
                "events_url": "https://api.github.com/users/extremeheat/events{/privacy}",
                "followers_url": "https://api.github.com/users/extremeheat/followers",
                "following_url": "https://api.github.com/users/extremeheat/following{/other_user}",
                "gists_url": "https://api.github.com/users/extremeheat/gists{/gist_id}",
                "gravatar_id": "",
                "html_url": "https://github.com/extremeheat",
                "id": 13713600,
                "login": "extremeheat",
                "node_id": "MDQ6VXNlcjEzNzEzNjAw",
                "organizations_url": "https://api.github.com/users/extremeheat/orgs",
                "received_events_url": "https://api.github.com/users/extremeheat/received_events",
                "repos_url": "https://api.github.com/users/extremeheat/repos",
                "site_admin": false,
                "starred_url": "https://api.github.com/users/extremeheat/starred{/owner}{/repo}",
                "subscriptions_url": "https://api.github.com/users/extremeheat/subscriptions",
                "type": "User",
                "url": "https://api.github.com/users/extremeheat"
            },
            "comments_url": "https://api.github.com/repos/PrismarineJS/prismarine-realms/commits/1029a12e73f565fdd661f62398e40906ea630567/comments",
            "commit": {
                "author": {
                    "date": "2022-04-03T03:39:49Z",
                    "email": "extreme@protonmail.ch",
                    "name": "extremeheat"
                },
                "comment_count": 0,
                "committer": {
                    "date": "2022-04-03T03:40:50Z",
                    "email": "extreme@protonmail.ch",
                    "name": "extremeheat"
                },
                "message": "Delete .gitpod.DockerFile, not needed",
                "tree": {
                    "sha": "29a46b39482de1c08fda68feeb423bc69d7991d4",
                    "url": "https://api.github.com/repos/PrismarineJS/prismarine-realms/git/trees/29a46b39482de1c08fda68feeb423bc69d7991d4"
                },
                "url": "https://api.github.com/repos/PrismarineJS/prismarine-realms/git/commits/1029a12e73f565fdd661f62398e40906ea630567",
                "verification": {
                    "payload": null,
                    "reason": "unsigned",
                    "signature": null,
                    "verified": false
                }
            },
            "committer": {
                "avatar_url": "https://avatars.githubusercontent.com/u/13713600?v=4",
                "events_url": "https://api.github.com/users/extremeheat/events{/privacy}",
                "followers_url": "https://api.github.com/users/extremeheat/followers",
                "following_url": "https://api.github.com/users/extremeheat/following{/other_user}",
                "gists_url": "https://api.github.com/users/extremeheat/gists{/gist_id}",
                "gravatar_id": "",
                "html_url": "https://github.com/extremeheat",
                "id": 13713600,
                "login": "extremeheat",
                "node_id": "MDQ6VXNlcjEzNzEzNjAw",
                "organizations_url": "https://api.github.com/users/extremeheat/orgs",
                "received_events_url": "https://api.github.com/users/extremeheat/received_events",
                "repos_url": "https://api.github.com/users/extremeheat/repos",
                "site_admin": false,
                "starred_url": "https://api.github.com/users/extremeheat/starred{/owner}{/repo}",
                "subscriptions_url": "https://api.github.com/users/extremeheat/subscriptions",
                "type": "User",
                "url": "https://api.github.com/users/extremeheat"
            },
            "html_url": "https://github.com/PrismarineJS/prismarine-realms/commit/1029a12e73f565fdd661f62398e40906ea630567",
            "node_id": "C_kwDOHHHzIdoAKDEwMjlhMTJlNzNmNTY1ZmRkNjYxZjYyMzk4ZTQwOTA2ZWE2MzA1Njc",
            "parents": [
                {
                    "html_url": "https://github.com/PrismarineJS/prismarine-realms/commit/53996435aee571313975c91595ff747dac380a28",
                    "sha": "53996435aee571313975c91595ff747dac380a28",
                    "url": "https://api.github.com/repos/PrismarineJS/prismarine-realms/commits/53996435aee571313975c91595ff747dac380a28"
                }
            ],
            "sha": "1029a12e73f565fdd661f62398e40906ea630567",
            "url": "https://api.github.com/repos/PrismarineJS/prismarine-realms/commits/1029a12e73f565fdd661f62398e40906ea630567"
        },
        {
            "author": {
                "avatar_url": "https://avatars.githubusercontent.com/u/13713600?v=4",
                "events_url": "https://api.github.com/users/extremeheat/events{/privacy}",
                "followers_url": "https://api.github.com/users/extremeheat/followers",
                "following_url": "https://api.github.com/users/extremeheat/following{/other_user}",
                "gists_url": "https://api.github.com/users/extremeheat/gists{/gist_id}",
                "gravatar_id": "",
                "html_url": "https://github.com/extremeheat",
                "id": 13713600,
                "login": "extremeheat",
                "node_id": "MDQ6VXNlcjEzNzEzNjAw",
                "organizations_url": "https://api.github.com/users/extremeheat/orgs",
                "received_events_url": "https://api.github.com/users/extremeheat/received_events",
                "repos_url": "https://api.github.com/users/extremeheat/repos",
                "site_admin": false,
                "starred_url": "https://api.github.com/users/extremeheat/starred{/owner}{/repo}",
                "subscriptions_url": "https://api.github.com/users/extremeheat/subscriptions",
                "type": "User",
                "url": "https://api.github.com/users/extremeheat"
            },
            "comments_url": "https://api.github.com/repos/PrismarineJS/prismarine-realms/commits/498d1094a7725c6a1f7268363e5cbf28c9f54be8/comments",
            "commit": {
                "author": {
                    "date": "2022-04-03T04:37:19Z",
                    "email": "extreme@protonmail.ch",
                    "name": "extremeheat"
                },
                "comment_count": 0,
                "committer": {
                    "date": "2022-04-03T04:37:19Z",
                    "email": "extreme@protonmail.ch",
                    "name": "extremeheat"
                },
                "message": "Update doc/description and platform type handling",
                "tree": {
                    "sha": "4f5689452789aef9f0c224405764ad1c87ddf00e",
                    "url": "https://api.github.com/repos/PrismarineJS/prismarine-realms/git/trees/4f5689452789aef9f0c224405764ad1c87ddf00e"
                },
                "url": "https://api.github.com/repos/PrismarineJS/prismarine-realms/git/commits/498d1094a7725c6a1f7268363e5cbf28c9f54be8",
                "verification": {
                    "payload": null,
                    "reason": "unsigned",
                    "signature": null,
                    "verified": false
                }
            },
            "committer": {
                "avatar_url": "https://avatars.githubusercontent.com/u/13713600?v=4",
                "events_url": "https://api.github.com/users/extremeheat/events{/privacy}",
                "followers_url": "https://api.github.com/users/extremeheat/followers",
                "following_url": "https://api.github.com/users/extremeheat/following{/other_user}",
                "gists_url": "https://api.github.com/users/extremeheat/gists{/gist_id}",
                "gravatar_id": "",
                "html_url": "https://github.com/extremeheat",
                "id": 13713600,
                "login": "extremeheat",
                "node_id": "MDQ6VXNlcjEzNzEzNjAw",
                "organizations_url": "https://api.github.com/users/extremeheat/orgs",
                "received_events_url": "https://api.github.com/users/extremeheat/received_events",
                "repos_url": "https://api.github.com/users/extremeheat/repos",
                "site_admin": false,
                "starred_url": "https://api.github.com/users/extremeheat/starred{/owner}{/repo}",
                "subscriptions_url": "https://api.github.com/users/extremeheat/subscriptions",
                "type": "User",
                "url": "https://api.github.com/users/extremeheat"
            },
            "html_url": "https://github.com/PrismarineJS/prismarine-realms/commit/498d1094a7725c6a1f7268363e5cbf28c9f54be8",
            "node_id": "C_kwDOHHHzIdoAKDQ5OGQxMDk0YTc3MjVjNmExZjcyNjgzNjNlNWNiZjI4YzlmNTRiZTg",
            "parents": [
                {
                    "html_url": "https://github.com/PrismarineJS/prismarine-realms/commit/1029a12e73f565fdd661f62398e40906ea630567",
                    "sha": "1029a12e73f565fdd661f62398e40906ea630567",
                    "url": "https://api.github.com/repos/PrismarineJS/prismarine-realms/commits/1029a12e73f565fdd661f62398e40906ea630567"
                }
            ],
            "sha": "498d1094a7725c6a1f7268363e5cbf28c9f54be8",
            "url": "https://api.github.com/repos/PrismarineJS/prismarine-realms/commits/498d1094a7725c6a1f7268363e5cbf28c9f54be8"
        },
        {
            "author": {
                "avatar_url": "https://avatars.githubusercontent.com/u/13713600?v=4",
                "events_url": "https://api.github.com/users/extremeheat/events{/privacy}",
                "followers_url": "https://api.github.com/users/extremeheat/followers",
                "following_url": "https://api.github.com/users/extremeheat/following{/other_user}",
                "gists_url": "https://api.github.com/users/extremeheat/gists{/gist_id}",
                "gravatar_id": "",
                "html_url": "https://github.com/extremeheat",
                "id": 13713600,
                "login": "extremeheat",
                "node_id": "MDQ6VXNlcjEzNzEzNjAw",
                "organizations_url": "https://api.github.com/users/extremeheat/orgs",
                "received_events_url": "https://api.github.com/users/extremeheat/received_events",
                "repos_url": "https://api.github.com/users/extremeheat/repos",
                "site_admin": false,
                "starred_url": "https://api.github.com/users/extremeheat/starred{/owner}{/repo}",
                "subscriptions_url": "https://api.github.com/users/extremeheat/subscriptions",
                "type": "User",
                "url": "https://api.github.com/users/extremeheat"
            },
            "comments_url": "https://api.github.com/repos/PrismarineJS/prismarine-realms/commits/8eb1a1fc2d0770d487fb67192d94c30b32f39b99/comments",
            "commit": {
                "author": {
                    "date": "2022-04-03T04:40:08Z",
                    "email": "extreme@protonmail.ch",
                    "name": "extremeheat"
                },
                "comment_count": 0,
                "committer": {
                    "date": "2022-04-03T04:40:08Z",
                    "email": "extreme@protonmail.ch",
                    "name": "extremeheat"
                },
                "message": "remove unreachable error handling",
                "tree": {
                    "sha": "b229543c0af3d33a58211e5bf1ec944dcb700e42",
                    "url": "https://api.github.com/repos/PrismarineJS/prismarine-realms/git/trees/b229543c0af3d33a58211e5bf1ec944dcb700e42"
                },
                "url": "https://api.github.com/repos/PrismarineJS/prismarine-realms/git/commits/8eb1a1fc2d0770d487fb67192d94c30b32f39b99",
                "verification": {
                    "payload": null,
                    "reason": "unsigned",
                    "signature": null,
                    "verified": false
                }
            },
            "committer": {
                "avatar_url": "https://avatars.githubusercontent.com/u/13713600?v=4",
                "events_url": "https://api.github.com/users/extremeheat/events{/privacy}",
                "followers_url": "https://api.github.com/users/extremeheat/followers",
                "following_url": "https://api.github.com/users/extremeheat/following{/other_user}",
                "gists_url": "https://api.github.com/users/extremeheat/gists{/gist_id}",
                "gravatar_id": "",
                "html_url": "https://github.com/extremeheat",
                "id": 13713600,
                "login": "extremeheat",
                "node_id": "MDQ6VXNlcjEzNzEzNjAw",
                "organizations_url": "https://api.github.com/users/extremeheat/orgs",
                "received_events_url": "https://api.github.com/users/extremeheat/received_events",
                "repos_url": "https://api.github.com/users/extremeheat/repos",
                "site_admin": false,
                "starred_url": "https://api.github.com/users/extremeheat/starred{/owner}{/repo}",
                "subscriptions_url": "https://api.github.com/users/extremeheat/subscriptions",
                "type": "User",
                "url": "https://api.github.com/users/extremeheat"
            },
            "html_url": "https://github.com/PrismarineJS/prismarine-realms/commit/8eb1a1fc2d0770d487fb67192d94c30b32f39b99",
            "node_id": "C_kwDOHHHzIdoAKDhlYjFhMWZjMmQwNzcwZDQ4N2ZiNjcxOTJkOTRjMzBiMzJmMzliOTk",
            "parents": [
                {
                    "html_url": "https://github.com/PrismarineJS/prismarine-realms/commit/498d1094a7725c6a1f7268363e5cbf28c9f54be8",
                    "sha": "498d1094a7725c6a1f7268363e5cbf28c9f54be8",
                    "url": "https://api.github.com/repos/PrismarineJS/prismarine-realms/commits/498d1094a7725c6a1f7268363e5cbf28c9f54be8"
                }
            ],
            "sha": "8eb1a1fc2d0770d487fb67192d94c30b32f39b99",
            "url": "https://api.github.com/repos/PrismarineJS/prismarine-realms/commits/8eb1a1fc2d0770d487fb67192d94c30b32f39b99"
        },
        {
            "author": {
                "avatar_url": "https://avatars.githubusercontent.com/u/13713600?v=4",
                "events_url": "https://api.github.com/users/extremeheat/events{/privacy}",
                "followers_url": "https://api.github.com/users/extremeheat/followers",
                "following_url": "https://api.github.com/users/extremeheat/following{/other_user}",
                "gists_url": "https://api.github.com/users/extremeheat/gists{/gist_id}",
                "gravatar_id": "",
                "html_url": "https://github.com/extremeheat",
                "id": 13713600,
                "login": "extremeheat",
                "node_id": "MDQ6VXNlcjEzNzEzNjAw",
                "organizations_url": "https://api.github.com/users/extremeheat/orgs",
                "received_events_url": "https://api.github.com/users/extremeheat/received_events",
                "repos_url": "https://api.github.com/users/extremeheat/repos",
                "site_admin": false,
                "starred_url": "https://api.github.com/users/extremeheat/starred{/owner}{/repo}",
                "subscriptions_url": "https://api.github.com/users/extremeheat/subscriptions",
                "type": "User",
                "url": "https://api.github.com/users/extremeheat"
            },
            "comments_url": "https://api.github.com/repos/PrismarineJS/prismarine-realms/commits/bc343d9989c5dd10c2384b33d63953b817ed1c9b/comments",
            "commit": {
                "author": {
                    "date": "2022-04-03T07:21:37Z",
                    "email": "extreme@protonmail.ch",
                    "name": "extremeheat"
                },
                "comment_count": 0,
                "committer": {
                    "date": "2022-04-03T07:21:37Z",
                    "email": "noreply@github.com",
                    "name": "GitHub"
                },
                "message": "Update rest.js",
                "tree": {
                    "sha": "777782ac14e5b38be5cb90e835a9523acedc82c8",
                    "url": "https://api.github.com/repos/PrismarineJS/prismarine-realms/git/trees/777782ac14e5b38be5cb90e835a9523acedc82c8"
                },
                "url": "https://api.github.com/repos/PrismarineJS/prismarine-realms/git/commits/bc343d9989c5dd10c2384b33d63953b817ed1c9b",
                "verification": {
                    "payload": "tree 777782ac14e5b38be5cb90e835a9523acedc82c8\nparent 8eb1a1fc2d0770d487fb67192d94c30b32f39b99\nauthor extremeheat <extreme@protonmail.ch> 1648970497 -0400\ncommitter GitHub <noreply@github.com> 1648970497 -0400\n\nUpdate rest.js",
                    "reason": "valid",
                    "signature": "-----BEGIN PGP SIGNATURE-----\n\nwsBcBAABCAAQBQJiSUsBCRBK7hj4Ov3rIwAAcBkIAKxKNAhKc5L9b5OV19z3XIRg\nGwpEOj2zotQ9T2g7gOK02PrC3HaJuaZv3pRP1VHnePweceSxgOhF0c8DjICW3xLd\n81ZPP7ytNnyljolJTedzTiwraGCDm6WxnI9bQ/CCScSAql8xh27I4/Rc0iFzs9dt\nSaFKqq4jZ+xM6HsZeYKsSYgql/ytEVlm2uZDhNqTxP1Vo8dziqe7N8QR7PgeO5DL\nQGaTjlQn4MjnQLWbeE5Hlc1WSLuEyPZLT6lpnyZHbITCYS0U7/S/kuxWDeFCTgGp\n7VBf+HtcqdYpx5R6yT3YVcPKyROtmH0iPWQ4+/YDXtFaf5VRerKhRvs6cECpzjo=\n=A++m\n-----END PGP SIGNATURE-----\n",
                    "verified": true
                }
            },
            "committer": {
                "avatar_url": "https://avatars.githubusercontent.com/u/19864447?v=4",
                "events_url": "https://api.github.com/users/web-flow/events{/privacy}",
                "followers_url": "https://api.github.com/users/web-flow/followers",
                "following_url": "https://api.github.com/users/web-flow/following{/other_user}",
                "gists_url": "https://api.github.com/users/web-flow/gists{/gist_id}",
                "gravatar_id": "",
                "html_url": "https://github.com/web-flow",
                "id": 19864447,
                "login": "web-flow",
                "node_id": "MDQ6VXNlcjE5ODY0NDQ3",
                "organizations_url": "https://api.github.com/users/web-flow/orgs",
                "received_events_url": "https://api.github.com/users/web-flow/received_events",
                "repos_url": "https://api.github.com/users/web-flow/repos",
                "site_admin": false,
                "starred_url": "https://api.github.com/users/web-flow/starred{/owner}{/repo}",
                "subscriptions_url": "https://api.github.com/users/web-flow/subscriptions",
                "type": "User",
                "url": "https://api.github.com/users/web-flow"
            },
            "html_url": "https://github.com/PrismarineJS/prismarine-realms/commit/bc343d9989c5dd10c2384b33d63953b817ed1c9b",
            "node_id": "C_kwDOHHHzIdoAKGJjMzQzZDk5ODljNWRkMTBjMjM4NGIzM2Q2Mzk1M2I4MTdlZDFjOWI",
            "parents": [
                {
                    "html_url": "https://github.com/PrismarineJS/prismarine-realms/commit/8eb1a1fc2d0770d487fb67192d94c30b32f39b99",
                    "sha": "8eb1a1fc2d0770d487fb67192d94c30b32f39b99",
                    "url": "https://api.github.com/repos/PrismarineJS/prismarine-realms/commits/8eb1a1fc2d0770d487fb67192d94c30b32f39b99"
                }
            ],
            "sha": "bc343d9989c5dd10c2384b33d63953b817ed1c9b",
            "url": "https://api.github.com/repos/PrismarineJS/prismarine-realms/commits/bc343d9989c5dd10c2384b33d63953b817ed1c9b"
        },
        {
            "author": {
                "avatar_url": "https://avatars.githubusercontent.com/u/13713600?v=4",
                "events_url": "https://api.github.com/users/extremeheat/events{/privacy}",
                "followers_url": "https://api.github.com/users/extremeheat/followers",
                "following_url": "https://api.github.com/users/extremeheat/following{/other_user}",
                "gists_url": "https://api.github.com/users/extremeheat/gists{/gist_id}",
                "gravatar_id": "",
                "html_url": "https://github.com/extremeheat",
                "id": 13713600,
                "login": "extremeheat",
                "node_id": "MDQ6VXNlcjEzNzEzNjAw",
                "organizations_url": "https://api.github.com/users/extremeheat/orgs",
                "received_events_url": "https://api.github.com/users/extremeheat/received_events",
                "repos_url": "https://api.github.com/users/extremeheat/repos",
                "site_admin": false,
                "starred_url": "https://api.github.com/users/extremeheat/starred{/owner}{/repo}",
                "subscriptions_url": "https://api.github.com/users/extremeheat/subscriptions",
                "type": "User",
                "url": "https://api.github.com/users/extremeheat"
            },
            "comments_url": "https://api.github.com/repos/PrismarineJS/prismarine-realms/commits/696cf34b9454f0c0d348de9a1186c8dfa9a220c4/comments",
            "commit": {
                "author": {
                    "date": "2022-04-03T08:29:45Z",
                    "email": "extreme@protonmail.ch",
                    "name": "extremeheat"
                },
                "comment_count": 0,
                "committer": {
                    "date": "2022-04-03T08:29:45Z",
                    "email": "noreply@github.com",
                    "name": "GitHub"
                },
                "message": "Update rest.js",
                "tree": {
                    "sha": "6071453d81b12e0aa554998ef8ea220e1c31097d",
                    "url": "https://api.github.com/repos/PrismarineJS/prismarine-realms/git/trees/6071453d81b12e0aa554998ef8ea220e1c31097d"
                },
                "url": "https://api.github.com/repos/PrismarineJS/prismarine-realms/git/commits/696cf34b9454f0c0d348de9a1186c8dfa9a220c4",
                "verification": {
                    "payload": "tree 6071453d81b12e0aa554998ef8ea220e1c31097d\nparent bc343d9989c5dd10c2384b33d63953b817ed1c9b\nauthor extremeheat <extreme@protonmail.ch> 1648974585 -0400\ncommitter GitHub <noreply@github.com> 1648974585 -0400\n\nUpdate rest.js",
                    "reason": "valid",
                    "signature": "-----BEGIN PGP SIGNATURE-----\n\nwsBcBAABCAAQBQJiSVr5CRBK7hj4Ov3rIwAAj/YIAK6OwYgzaim84y6p3mpqPnb8\n1mTk3w+GKvt1wNPn+4VIBgY+nqFHgLCNOMuPdt5ppmQ/Qw+oSUars3ipurdZA1mD\ngupXZM9fzt8QcBktpwgaruVM25y105JinAw1a/sMw/1NGBoLrQNuNKWohpsrBeS1\nSYILLqen2CqQb7uHbLKcl8Rav8SweOVmYsxjGvJ1qWZYFBzgYJ5mRGcp48xuccbS\nihD9DFgNNEjnrcfBXAsifgQVW5JA3nRLSX0tJNr+rG4hKmoLWpndY9o7Siwk/9/g\not87lArUOulwjUikZ5Fpv0B4tWped57q1+xYeSoC50pGhBI/a2FQAu9kedV0CSQ=\n=eUeE\n-----END PGP SIGNATURE-----\n",
                    "verified": true
                }
            },
            "committer": {
                "avatar_url": "https://avatars.githubusercontent.com/u/19864447?v=4",
                "events_url": "https://api.github.com/users/web-flow/events{/privacy}",
                "followers_url": "https://api.github.com/users/web-flow/followers",
                "following_url": "https://api.github.com/users/web-flow/following{/other_user}",
                "gists_url": "https://api.github.com/users/web-flow/gists{/gist_id}",
                "gravatar_id": "",
                "html_url": "https://github.com/web-flow",
                "id": 19864447,
                "login": "web-flow",
                "node_id": "MDQ6VXNlcjE5ODY0NDQ3",
                "organizations_url": "https://api.github.com/users/web-flow/orgs",
                "received_events_url": "https://api.github.com/users/web-flow/received_events",
                "repos_url": "https://api.github.com/users/web-flow/repos",
                "site_admin": false,
                "starred_url": "https://api.github.com/users/web-flow/starred{/owner}{/repo}",
                "subscriptions_url": "https://api.github.com/users/web-flow/subscriptions",
                "type": "User",
                "url": "https://api.github.com/users/web-flow"
            },
            "html_url": "https://github.com/PrismarineJS/prismarine-realms/commit/696cf34b9454f0c0d348de9a1186c8dfa9a220c4",
            "node_id": "C_kwDOHHHzIdoAKDY5NmNmMzRiOTQ1NGYwYzBkMzQ4ZGU5YTExODZjOGRmYTlhMjIwYzQ",
            "parents": [
                {
                    "html_url": "https://github.com/PrismarineJS/prismarine-realms/commit/bc343d9989c5dd10c2384b33d63953b817ed1c9b",
                    "sha": "bc343d9989c5dd10c2384b33d63953b817ed1c9b",
                    "url": "https://api.github.com/repos/PrismarineJS/prismarine-realms/commits/bc343d9989c5dd10c2384b33d63953b817ed1c9b"
                }
            ],
            "sha": "696cf34b9454f0c0d348de9a1186c8dfa9a220c4",
            "url": "https://api.github.com/repos/PrismarineJS/prismarine-realms/commits/696cf34b9454f0c0d348de9a1186c8dfa9a220c4"
        }
    ],
    "commits": 5,
    "commits_url": "https://api.github.com/repos/PrismarineJS/prismarine-realms/pulls/7/commits",
    "created_at": "2022-04-03T04:44:55Z",
    "deletions": 55,
    "diff_url": "https://github.com/PrismarineJS/prismarine-realms/pull/7.diff",
    "draft": false,
    "head": {
        "label": "extremeheat:updates",
        "ref": "updates",
        "repo": {
            "allow_forking": true,
            "archive_url": "https://api.github.com/repos/extremeheat/prismarine-realms/{archive_format}{/ref}",
            "archived": false,
            "assignees_url": "https://api.github.com/repos/extremeheat/prismarine-realms/assignees{/user}",
            "blobs_url": "https://api.github.com/repos/extremeheat/prismarine-realms/git/blobs{/sha}",
            "branches_url": "https://api.github.com/repos/extremeheat/prismarine-realms/branches{/branch}",
            "clone_url": "https://github.com/extremeheat/prismarine-realms.git",
            "collaborators_url": "https://api.github.com/repos/extremeheat/prismarine-realms/collaborators{/collaborator}",
            "comments_url": "https://api.github.com/repos/extremeheat/prismarine-realms/comments{/number}",
            "commits_url": "https://api.github.com/repos/extremeheat/prismarine-realms/commits{/sha}",
            "compare_url": "https://api.github.com/repos/extremeheat/prismarine-realms/compare/{base}...{head}",
            "contents_url": "https://api.github.com/repos/extremeheat/prismarine-realms/contents/{+path}",
            "contributors_url": "https://api.github.com/repos/extremeheat/prismarine-realms/contributors",
            "created_at": "2022-04-03T03:39:34Z",
            "default_branch": "master",
            "deployments_url": "https://api.github.com/repos/extremeheat/prismarine-realms/deployments",
            "description": "Minecraft realm API",
            "disabled": false,
            "downloads_url": "https://api.github.com/repos/extremeheat/prismarine-realms/downloads",
            "events_url": "https://api.github.com/repos/extremeheat/prismarine-realms/events",
            "fork": true,
            "forks": 0,
            "forks_count": 0,
            "forks_url": "https://api.github.com/repos/extremeheat/prismarine-realms/forks",
            "full_name": "extremeheat/prismarine-realms",
            "git_commits_url": "https://api.github.com/repos/extremeheat/prismarine-realms/git/commits{/sha}",
            "git_refs_url": "https://api.github.com/repos/extremeheat/prismarine-realms/git/refs{/sha}",
            "git_tags_url": "https://api.github.com/repos/extremeheat/prismarine-realms/git/tags{/sha}",
            "git_url": "git://github.com/extremeheat/prismarine-realms.git",
            "has_discussions": false,
            "has_downloads": true,
            "has_issues": false,
            "has_pages": false,
            "has_projects": true,
            "has_wiki": true,
            "homepage": null,
            "hooks_url": "https://api.github.com/repos/extremeheat/prismarine-realms/hooks",
            "html_url": "https://github.com/extremeheat/prismarine-realms",
            "id": 477229857,
            "is_template": false,
            "issue_comment_url": "https://api.github.com/repos/extremeheat/prismarine-realms/issues/comments{/number}",
            "issue_events_url": "https://api.github.com/repos/extremeheat/prismarine-realms/issues/events{/number}",
            "issues_url": "https://api.github.com/repos/extremeheat/prismarine-realms/issues{/number}",
            "keys_url": "https://api.github.com/repos/extremeheat/prismarine-realms/keys{/key_id}",
            "labels_url": "https://api.github.com/repos/extremeheat/prismarine-realms/labels{/name}",
            "language": "JavaScript",
            "languages_url": "https://api.github.com/repos/extremeheat/prismarine-realms/languages",
            "license": {
                "key": "mit",
                "name": "MIT License",
                "node_id": "MDc6TGljZW5zZTEz",
                "spdx_id": "MIT",
                "url": "https://api.github.com/licenses/mit"
            },
            "merges_url": "https://api.github.com/repos/extremeheat/prismarine-realms/merges",
            "milestones_url": "https://api.github.com/repos/extremeheat/prismarine-realms/milestones{/number}",
            "mirror_url": null,
            "name": "prismarine-realms",
            "node_id": "R_kgDOHHHzIQ",
            "notifications_url": "https://api.github.com/repos/extremeheat/prismarine-realms/notifications{?since,all,participating}",
            "open_issues": 0,
            "open_issues_count": 0,
            "owner": {
                "avatar_url": "https://avatars.githubusercontent.com/u/13713600?v=4",
                "events_url": "https://api.github.com/users/extremeheat/events{/privacy}",
                "followers_url": "https://api.github.com/users/extremeheat/followers",
                "following_url": "https://api.github.com/users/extremeheat/following{/other_user}",
                "gists_url": "https://api.github.com/users/extremeheat/gists{/gist_id}",
                "gravatar_id": "",
                "html_url": "https://github.com/extremeheat",
                "id": 13713600,
                "login": "extremeheat",
                "node_id": "MDQ6VXNlcjEzNzEzNjAw",
                "organizations_url": "https://api.github.com/users/extremeheat/orgs",
                "received_events_url": "https://api.github.com/users/extremeheat/received_events",
                "repos_url": "https://api.github.com/users/extremeheat/repos",
                "site_admin": false,
                "starred_url": "https://api.github.com/users/extremeheat/starred{/owner}{/repo}",
                "subscriptions_url": "https://api.github.com/users/extremeheat/subscriptions",
                "type": "User",
                "url": "https://api.github.com/users/extremeheat"
            },
            "private": false,
            "pulls_url": "https://api.github.com/repos/extremeheat/prismarine-realms/pulls{/number}",
            "pushed_at": "2022-04-03T23:07:11Z",
            "releases_url": "https://api.github.com/repos/extremeheat/prismarine-realms/releases{/id}",
            "size": 18,
            "ssh_url": "git@github.com:extremeheat/prismarine-realms.git",
            "stargazers_count": 0,
            "stargazers_url": "https://api.github.com/repos/extremeheat/prismarine-realms/stargazers",
            "statuses_url": "https://api.github.com/repos/extremeheat/prismarine-realms/statuses/{sha}",
            "subscribers_url": "https://api.github.com/repos/extremeheat/prismarine-realms/subscribers",
            "subscription_url": "https://api.github.com/repos/extremeheat/prismarine-realms/subscription",
            "svn_url": "https://github.com/extremeheat/prismarine-realms",
            "tags_url": "https://api.github.com/repos/extremeheat/prismarine-realms/tags",
            "teams_url": "https://api.github.com/repos/extremeheat/prismarine-realms/teams",
            "topics": [],
            "trees_url": "https://api.github.com/repos/extremeheat/prismarine-realms/git/trees{/sha}",
            "updated_at": "2022-04-03T03:39:52Z",
            "url": "https://api.github.com/repos/extremeheat/prismarine-realms",
            "visibility": "public",
            "watchers": 0,
            "watchers_count": 0,
            "web_commit_signoff_required": false
        },
        "sha": "696cf34b9454f0c0d348de9a1186c8dfa9a220c4",
        "user": {
            "avatar_url": "https://avatars.githubusercontent.com/u/13713600?v=4",
            "events_url": "https://api.github.com/users/extremeheat/events{/privacy}",
            "followers_url": "https://api.github.com/users/extremeheat/followers",
            "following_url": "https://api.github.com/users/extremeheat/following{/other_user}",
            "gists_url": "https://api.github.com/users/extremeheat/gists{/gist_id}",
            "gravatar_id": "",
            "html_url": "https://github.com/extremeheat",
            "id": 13713600,
            "login": "extremeheat",
            "node_id": "MDQ6VXNlcjEzNzEzNjAw",
            "organizations_url": "https://api.github.com/users/extremeheat/orgs",
            "received_events_url": "https://api.github.com/users/extremeheat/received_events",
            "repos_url": "https://api.github.com/users/extremeheat/repos",
            "site_admin": false,
            "starred_url": "https://api.github.com/users/extremeheat/starred{/owner}{/repo}",
            "subscriptions_url": "https://api.github.com/users/extremeheat/subscriptions",
            "type": "User",
            "url": "https://api.github.com/users/extremeheat"
        }
    },
    "html_url": "https://github.com/PrismarineJS/prismarine-realms/pull/7",
    "id": 898202781,
    "issue_url": "https://api.github.com/repos/PrismarineJS/prismarine-realms/issues/7",
    "labels": [],
    "locked": false,
    "maintainer_can_modify": false,
    "merge_commit_sha": "a5495f2f4e28092bc2f6bb323d175bb858b788ef",
    "mergeable": null,
    "mergeable_state": "unknown",
    "merged": true,
    "merged_at": "2022-04-03T22:32:25Z",
    "merged_by": {
        "avatar_url": "https://avatars.githubusercontent.com/u/13713600?v=4",
        "events_url": "https://api.github.com/users/extremeheat/events{/privacy}",
        "followers_url": "https://api.github.com/users/extremeheat/followers",
        "following_url": "https://api.github.com/users/extremeheat/following{/other_user}",
        "gists_url": "https://api.github.com/users/extremeheat/gists{/gist_id}",
        "gravatar_id": "",
        "html_url": "https://github.com/extremeheat",
        "id": 13713600,
        "login": "extremeheat",
        "node_id": "MDQ6VXNlcjEzNzEzNjAw",
        "organizations_url": "https://api.github.com/users/extremeheat/orgs",
        "received_events_url": "https://api.github.com/users/extremeheat/received_events",
        "repos_url": "https://api.github.com/users/extremeheat/repos",
        "site_admin": false,
        "starred_url": "https://api.github.com/users/extremeheat/starred{/owner}{/repo}",
        "subscriptions_url": "https://api.github.com/users/extremeheat/subscriptions",
        "type": "User",
        "url": "https://api.github.com/users/extremeheat"
    },
    "milestone": null,
    "node_id": "PR_kwDOG8wdAM41iXyd",
    "number": 7,
    "patch_url": "https://github.com/PrismarineJS/prismarine-realms/pull/7.patch",
    "rebaseable": null,
    "requested_reviewers": [],
    "requested_teams": [],
    "review_comment_url": "https://api.github.com/repos/PrismarineJS/prismarine-realms/pulls/comments{/number}",
    "review_comments": 0,
    "review_comments_url": "https://api.github.com/repos/PrismarineJS/prismarine-realms/pulls/7/comments",
    "state": "closed",
    "statuses_url": "https://api.github.com/repos/PrismarineJS/prismarine-realms/statuses/696cf34b9454f0c0d348de9a1186c8dfa9a220c4",
    "title": "Update doc and platform type handling",
    "updated_at": "2022-04-03T23:07:11Z",
    "url": "https://api.github.com/repos/PrismarineJS/prismarine-realms/pulls/7",
    "user": {
        "avatar_url": "https://avatars.githubusercontent.com/u/13713600?v=4",
        "events_url": "https://api.github.com/users/extremeheat/events{/privacy}",
        "followers_url": "https://api.github.com/users/extremeheat/followers",
        "following_url": "https://api.github.com/users/extremeheat/following{/other_user}",
        "gists_url": "https://api.github.com/users/extremeheat/gists{/gist_id}",
        "gravatar_id": "",
        "html_url": "https://github.com/extremeheat",
        "id": 13713600,
        "login": "extremeheat",
        "node_id": "MDQ6VXNlcjEzNzEzNjAw",
        "organizations_url": "https://api.github.com/users/extremeheat/orgs",
        "received_events_url": "https://api.github.com/users/extremeheat/received_events",
        "repos_url": "https://api.github.com/users/extremeheat/repos",
        "site_admin": false,
        "starred_url": "https://api.github.com/users/extremeheat/starred{/owner}{/repo}",
        "subscriptions_url": "https://api.github.com/users/extremeheat/subscriptions",
        "type": "User",
        "url": "https://api.github.com/users/extremeheat"
    }
}