{
    "active_lock_reason": null,
    "assignee": {
        "avatar_url": "https://avatars.githubusercontent.com/u/1077050?v=4",
        "events_url": "https://api.github.com/users/dcbartlett/events{/privacy}",
        "followers_url": "https://api.github.com/users/dcbartlett/followers",
        "following_url": "https://api.github.com/users/dcbartlett/following{/other_user}",
        "gists_url": "https://api.github.com/users/dcbartlett/gists{/gist_id}",
        "gravatar_id": "",
        "html_url": "https://github.com/dcbartlett",
        "id": 1077050,
        "login": "dcbartlett",
        "node_id": "MDQ6VXNlcjEwNzcwNTA=",
        "organizations_url": "https://api.github.com/users/dcbartlett/orgs",
        "received_events_url": "https://api.github.com/users/dcbartlett/received_events",
        "repos_url": "https://api.github.com/users/dcbartlett/repos",
        "site_admin": false,
        "starred_url": "https://api.github.com/users/dcbartlett/starred{/owner}{/repo}",
        "subscriptions_url": "https://api.github.com/users/dcbartlett/subscriptions",
        "type": "User",
        "url": "https://api.github.com/users/dcbartlett"
    },
    "assignees": [
        {
            "avatar_url": "https://avatars.githubusercontent.com/u/1077050?v=4",
            "events_url": "https://api.github.com/users/dcbartlett/events{/privacy}",
            "followers_url": "https://api.github.com/users/dcbartlett/followers",
            "following_url": "https://api.github.com/users/dcbartlett/following{/other_user}",
            "gists_url": "https://api.github.com/users/dcbartlett/gists{/gist_id}",
            "gravatar_id": "",
            "html_url": "https://github.com/dcbartlett",
            "id": 1077050,
            "login": "dcbartlett",
            "node_id": "MDQ6VXNlcjEwNzcwNTA=",
            "organizations_url": "https://api.github.com/users/dcbartlett/orgs",
            "received_events_url": "https://api.github.com/users/dcbartlett/received_events",
            "repos_url": "https://api.github.com/users/dcbartlett/repos",
            "site_admin": false,
            "starred_url": "https://api.github.com/users/dcbartlett/starred{/owner}{/repo}",
            "subscriptions_url": "https://api.github.com/users/dcbartlett/subscriptions",
            "type": "User",
            "url": "https://api.github.com/users/dcbartlett"
        }
    ],
    "author_association": "MEMBER",
    "body": "This should include:\n- ~~Folders for Mocha tests and pre-poulated exmaple test~~\n- ~~Circle.yml configured accordingly~~\n- ~~example gulpfile~~\n- ~~example package.json~~\n- ~~example readme~~\n- ~~npmignore to override gitignore~~\n- ~~gitignore~~\n- ~~src folder~~\n",
    "closed_at": "2015-03-07T20:02:24Z",
    "comment_data": [
        {
            "author_association": "MEMBER",
            "body": "Completed.\n",
            "created_at": "2015-03-07T20:02:22Z",
            "html_url": "https://github.com/PrismarineJS/prismarine-server/issues/15#issuecomment-77707207",
            "id": 77707207,
            "issue_url": "https://api.github.com/repos/PrismarineJS/prismarine-server/issues/15",
            "node_id": "MDEyOklzc3VlQ29tbWVudDc3NzA3MjA3",
            "performed_via_github_app": null,
            "reactions": {
                "+1": 0,
                "-1": 0,
                "confused": 0,
                "eyes": 0,
                "heart": 0,
                "hooray": 0,
                "laugh": 0,
                "rocket": 0,
                "total_count": 0,
                "url": "https://api.github.com/repos/PrismarineJS/prismarine-server/issues/comments/77707207/reactions"
            },
            "updated_at": "2015-03-07T20:02:22Z",
            "url": "https://api.github.com/repos/PrismarineJS/prismarine-server/issues/comments/77707207",
            "user": {
                "avatar_url": "https://avatars.githubusercontent.com/u/1077050?v=4",
                "events_url": "https://api.github.com/users/dcbartlett/events{/privacy}",
                "followers_url": "https://api.github.com/users/dcbartlett/followers",
                "following_url": "https://api.github.com/users/dcbartlett/following{/other_user}",
                "gists_url": "https://api.github.com/users/dcbartlett/gists{/gist_id}",
                "gravatar_id": "",
                "html_url": "https://github.com/dcbartlett",
                "id": 1077050,
                "login": "dcbartlett",
                "node_id": "MDQ6VXNlcjEwNzcwNTA=",
                "organizations_url": "https://api.github.com/users/dcbartlett/orgs",
                "received_events_url": "https://api.github.com/users/dcbartlett/received_events",
                "repos_url": "https://api.github.com/users/dcbartlett/repos",
                "site_admin": false,
                "starred_url": "https://api.github.com/users/dcbartlett/starred{/owner}{/repo}",
                "subscriptions_url": "https://api.github.com/users/dcbartlett/subscriptions",
                "type": "User",
                "url": "https://api.github.com/users/dcbartlett"
            }
        }
    ],
    "comments": 1,
    "comments_url": "https://api.github.com/repos/PrismarineJS/prismarine-server/issues/15/comments",
    "created_at": "2015-03-06T00:33:13Z",
    "event_data": [
        {
            "actor": {
                "avatar_url": "https://avatars.githubusercontent.com/u/1077050?v=4",
                "events_url": "https://api.github.com/users/dcbartlett/events{/privacy}",
                "followers_url": "https://api.github.com/users/dcbartlett/followers",
                "following_url": "https://api.github.com/users/dcbartlett/following{/other_user}",
                "gists_url": "https://api.github.com/users/dcbartlett/gists{/gist_id}",
                "gravatar_id": "",
                "html_url": "https://github.com/dcbartlett",
                "id": 1077050,
                "login": "dcbartlett",
                "node_id": "MDQ6VXNlcjEwNzcwNTA=",
                "organizations_url": "https://api.github.com/users/dcbartlett/orgs",
                "received_events_url": "https://api.github.com/users/dcbartlett/received_events",
                "repos_url": "https://api.github.com/users/dcbartlett/repos",
                "site_admin": false,
                "starred_url": "https://api.github.com/users/dcbartlett/starred{/owner}{/repo}",
                "subscriptions_url": "https://api.github.com/users/dcbartlett/subscriptions",
                "type": "User",
                "url": "https://api.github.com/users/dcbartlett"
            },
            "assignee": {
                "avatar_url": "https://avatars.githubusercontent.com/u/1077050?v=4",
                "events_url": "https://api.github.com/users/dcbartlett/events{/privacy}",
                "followers_url": "https://api.github.com/users/dcbartlett/followers",
                "following_url": "https://api.github.com/users/dcbartlett/following{/other_user}",
                "gists_url": "https://api.github.com/users/dcbartlett/gists{/gist_id}",
                "gravatar_id": "",
                "html_url": "https://github.com/dcbartlett",
                "id": 1077050,
                "login": "dcbartlett",
                "node_id": "MDQ6VXNlcjEwNzcwNTA=",
                "organizations_url": "https://api.github.com/users/dcbartlett/orgs",
                "received_events_url": "https://api.github.com/users/dcbartlett/received_events",
                "repos_url": "https://api.github.com/users/dcbartlett/repos",
                "site_admin": false,
                "starred_url": "https://api.github.com/users/dcbartlett/starred{/owner}{/repo}",
                "subscriptions_url": "https://api.github.com/users/dcbartlett/subscriptions",
                "type": "User",
                "url": "https://api.github.com/users/dcbartlett"
            },
            "assigner": {
                "avatar_url": "https://avatars.githubusercontent.com/u/1077050?v=4",
                "events_url": "https://api.github.com/users/dcbartlett/events{/privacy}",
                "followers_url": "https://api.github.com/users/dcbartlett/followers",
                "following_url": "https://api.github.com/users/dcbartlett/following{/other_user}",
                "gists_url": "https://api.github.com/users/dcbartlett/gists{/gist_id}",
                "gravatar_id": "",
                "html_url": "https://github.com/dcbartlett",
                "id": 1077050,
                "login": "dcbartlett",
                "node_id": "MDQ6VXNlcjEwNzcwNTA=",
                "organizations_url": "https://api.github.com/users/dcbartlett/orgs",
                "received_events_url": "https://api.github.com/users/dcbartlett/received_events",
                "repos_url": "https://api.github.com/users/dcbartlett/repos",
                "site_admin": false,
                "starred_url": "https://api.github.com/users/dcbartlett/starred{/owner}{/repo}",
                "subscriptions_url": "https://api.github.com/users/dcbartlett/subscriptions",
                "type": "User",
                "url": "https://api.github.com/users/dcbartlett"
            },
            "commit_id": null,
            "commit_url": null,
            "created_at": "2015-03-06T17:29:15Z",
            "event": "assigned",
            "id": 247649121,
            "node_id": "MDEzOkFzc2lnbmVkRXZlbnQyNDc2NDkxMjE=",
            "performed_via_github_app": null,
            "url": "https://api.github.com/repos/PrismarineJS/prismarine-server/issues/events/247649121"
        },
        {
            "actor": {
                "avatar_url": "https://avatars.githubusercontent.com/u/1077050?v=4",
                "events_url": "https://api.github.com/users/dcbartlett/events{/privacy}",
                "followers_url": "https://api.github.com/users/dcbartlett/followers",
                "following_url": "https://api.github.com/users/dcbartlett/following{/other_user}",
                "gists_url": "https://api.github.com/users/dcbartlett/gists{/gist_id}",
                "gravatar_id": "",
                "html_url": "https://github.com/dcbartlett",
                "id": 1077050,
                "login": "dcbartlett",
                "node_id": "MDQ6VXNlcjEwNzcwNTA=",
                "organizations_url": "https://api.github.com/users/dcbartlett/orgs",
                "received_events_url": "https://api.github.com/users/dcbartlett/received_events",
                "repos_url": "https://api.github.com/users/dcbartlett/repos",
                "site_admin": false,
                "starred_url": "https://api.github.com/users/dcbartlett/starred{/owner}{/repo}",
                "subscriptions_url": "https://api.github.com/users/dcbartlett/subscriptions",
                "type": "User",
                "url": "https://api.github.com/users/dcbartlett"
            },
            "commit_id": null,
            "commit_url": null,
            "created_at": "2015-03-07T20:02:24Z",
            "event": "closed",
            "id": 248040644,
            "node_id": "MDExOkNsb3NlZEV2ZW50MjQ4MDQwNjQ0",
            "performed_via_github_app": null,
            "state_reason": null,
            "url": "https://api.github.com/repos/PrismarineJS/prismarine-server/issues/events/248040644"
        }
    ],
    "events_url": "https://api.github.com/repos/PrismarineJS/prismarine-server/issues/15/events",
    "html_url": "https://github.com/PrismarineJS/prismarine-server/issues/15",
    "id": 60040546,
    "labels": [],
    "labels_url": "https://api.github.com/repos/PrismarineJS/prismarine-server/issues/15/labels{/name}",
    "locked": true,
    "milestone": null,
    "node_id": "MDU6SXNzdWU2MDA0MDU0Ng==",
    "number": 15,
    "performed_via_github_app": null,
    "reactions": {
        "+1": 0,
        "-1": 0,
        "confused": 0,
        "eyes": 0,
        "heart": 0,
        "hooray": 0,
        "laugh": 0,
        "rocket": 0,
        "total_count": 0,
        "url": "https://api.github.com/repos/PrismarineJS/prismarine-server/issues/15/reactions"
    },
    "repository_url": "https://api.github.com/repos/PrismarineJS/prismarine-server",
    "state": "closed",
    "state_reason": "completed",
    "timeline_url": "https://api.github.com/repos/PrismarineJS/prismarine-server/issues/15/timeline",
    "title": "Create Prismarine-Module boilerplate",
    "updated_at": "2015-03-07T20:02:25Z",
    "url": "https://api.github.com/repos/PrismarineJS/prismarine-server/issues/15",
    "user": {
        "avatar_url": "https://avatars.githubusercontent.com/u/1077050?v=4",
        "events_url": "https://api.github.com/users/dcbartlett/events{/privacy}",
        "followers_url": "https://api.github.com/users/dcbartlett/followers",
        "following_url": "https://api.github.com/users/dcbartlett/following{/other_user}",
        "gists_url": "https://api.github.com/users/dcbartlett/gists{/gist_id}",
        "gravatar_id": "",
        "html_url": "https://github.com/dcbartlett",
        "id": 1077050,
        "login": "dcbartlett",
        "node_id": "MDQ6VXNlcjEwNzcwNTA=",
        "organizations_url": "https://api.github.com/users/dcbartlett/orgs",
        "received_events_url": "https://api.github.com/users/dcbartlett/received_events",
        "repos_url": "https://api.github.com/users/dcbartlett/repos",
        "site_admin": false,
        "starred_url": "https://api.github.com/users/dcbartlett/starred{/owner}{/repo}",
        "subscriptions_url": "https://api.github.com/users/dcbartlett/subscriptions",
        "type": "User",
        "url": "https://api.github.com/users/dcbartlett"
    }
}