{
    "_links": {
        "comments": {
            "href": "https://api.github.com/repos/PrismarineJS/node-minecraft-data/issues/106/comments"
        },
        "commits": {
            "href": "https://api.github.com/repos/PrismarineJS/node-minecraft-data/pulls/106/commits"
        },
        "html": {
            "href": "https://github.com/PrismarineJS/node-minecraft-data/pull/106"
        },
        "issue": {
            "href": "https://api.github.com/repos/PrismarineJS/node-minecraft-data/issues/106"
        },
        "review_comment": {
            "href": "https://api.github.com/repos/PrismarineJS/node-minecraft-data/pulls/comments{/number}"
        },
        "review_comments": {
            "href": "https://api.github.com/repos/PrismarineJS/node-minecraft-data/pulls/106/comments"
        },
        "self": {
            "href": "https://api.github.com/repos/PrismarineJS/node-minecraft-data/pulls/106"
        },
        "statuses": {
            "href": "https://api.github.com/repos/PrismarineJS/node-minecraft-data/statuses/841b61184737e996f504175f8c0eb2b6df46710f"
        }
    },
    "active_lock_reason": null,
    "additions": 6,
    "assignee": null,
    "assignees": [],
    "author_association": "MEMBER",
    "auto_merge": null,
    "base": {
        "label": "PrismarineJS:master",
        "ref": "master",
        "repo": {
            "allow_forking": true,
            "archive_url": "https://api.github.com/repos/PrismarineJS/node-minecraft-data/{archive_format}{/ref}",
            "archived": false,
            "assignees_url": "https://api.github.com/repos/PrismarineJS/node-minecraft-data/assignees{/user}",
            "blobs_url": "https://api.github.com/repos/PrismarineJS/node-minecraft-data/git/blobs{/sha}",
            "branches_url": "https://api.github.com/repos/PrismarineJS/node-minecraft-data/branches{/branch}",
            "clone_url": "https://github.com/PrismarineJS/node-minecraft-data.git",
            "collaborators_url": "https://api.github.com/repos/PrismarineJS/node-minecraft-data/collaborators{/collaborator}",
            "comments_url": "https://api.github.com/repos/PrismarineJS/node-minecraft-data/comments{/number}",
            "commits_url": "https://api.github.com/repos/PrismarineJS/node-minecraft-data/commits{/sha}",
            "compare_url": "https://api.github.com/repos/PrismarineJS/node-minecraft-data/compare/{base}...{head}",
            "contents_url": "https://api.github.com/repos/PrismarineJS/node-minecraft-data/contents/{+path}",
            "contributors_url": "https://api.github.com/repos/PrismarineJS/node-minecraft-data/contributors",
            "created_at": "2015-05-05T20:50:30Z",
            "default_branch": "master",
            "deployments_url": "https://api.github.com/repos/PrismarineJS/node-minecraft-data/deployments",
            "description": "Provide easy access to minecraft-data in node.js",
            "disabled": false,
            "downloads_url": "https://api.github.com/repos/PrismarineJS/node-minecraft-data/downloads",
            "events_url": "https://api.github.com/repos/PrismarineJS/node-minecraft-data/events",
            "fork": false,
            "forks": 40,
            "forks_count": 40,
            "forks_url": "https://api.github.com/repos/PrismarineJS/node-minecraft-data/forks",
            "full_name": "PrismarineJS/node-minecraft-data",
            "git_commits_url": "https://api.github.com/repos/PrismarineJS/node-minecraft-data/git/commits{/sha}",
            "git_refs_url": "https://api.github.com/repos/PrismarineJS/node-minecraft-data/git/refs{/sha}",
            "git_tags_url": "https://api.github.com/repos/PrismarineJS/node-minecraft-data/git/tags{/sha}",
            "git_url": "git://github.com/PrismarineJS/node-minecraft-data.git",
            "has_discussions": false,
            "has_downloads": true,
            "has_issues": true,
            "has_pages": false,
            "has_projects": true,
            "has_wiki": true,
            "homepage": "https://minecraft-data.prismarine.js.org/",
            "hooks_url": "https://api.github.com/repos/PrismarineJS/node-minecraft-data/hooks",
            "html_url": "https://github.com/PrismarineJS/node-minecraft-data",
            "id": 35123311,
            "is_template": false,
            "issue_comment_url": "https://api.github.com/repos/PrismarineJS/node-minecraft-data/issues/comments{/number}",
            "issue_events_url": "https://api.github.com/repos/PrismarineJS/node-minecraft-data/issues/events{/number}",
            "issues_url": "https://api.github.com/repos/PrismarineJS/node-minecraft-data/issues{/number}",
            "keys_url": "https://api.github.com/repos/PrismarineJS/node-minecraft-data/keys{/key_id}",
            "labels_url": "https://api.github.com/repos/PrismarineJS/node-minecraft-data/labels{/name}",
            "language": "JavaScript",
            "languages_url": "https://api.github.com/repos/PrismarineJS/node-minecraft-data/languages",
            "license": null,
            "merges_url": "https://api.github.com/repos/PrismarineJS/node-minecraft-data/merges",
            "milestones_url": "https://api.github.com/repos/PrismarineJS/node-minecraft-data/milestones{/number}",
            "mirror_url": null,
            "name": "node-minecraft-data",
            "node_id": "MDEwOlJlcG9zaXRvcnkzNTEyMzMxMQ==",
            "notifications_url": "https://api.github.com/repos/PrismarineJS/node-minecraft-data/notifications{?since,all,participating}",
            "open_issues": 7,
            "open_issues_count": 7,
            "owner": {
                "avatar_url": "https://avatars.githubusercontent.com/u/11053411?v=4",
                "events_url": "https://api.github.com/users/PrismarineJS/events{/privacy}",
                "followers_url": "https://api.github.com/users/PrismarineJS/followers",
                "following_url": "https://api.github.com/users/PrismarineJS/following{/other_user}",
                "gists_url": "https://api.github.com/users/PrismarineJS/gists{/gist_id}",
                "gravatar_id": "",
                "html_url": "https://github.com/PrismarineJS",
                "id": 11053411,
                "login": "PrismarineJS",
                "node_id": "MDEyOk9yZ2FuaXphdGlvbjExMDUzNDEx",
                "organizations_url": "https://api.github.com/users/PrismarineJS/orgs",
                "received_events_url": "https://api.github.com/users/PrismarineJS/received_events",
                "repos_url": "https://api.github.com/users/PrismarineJS/repos",
                "site_admin": false,
                "starred_url": "https://api.github.com/users/PrismarineJS/starred{/owner}{/repo}",
                "subscriptions_url": "https://api.github.com/users/PrismarineJS/subscriptions",
                "type": "Organization",
                "url": "https://api.github.com/users/PrismarineJS"
            },
            "private": false,
            "pulls_url": "https://api.github.com/repos/PrismarineJS/node-minecraft-data/pulls{/number}",
            "pushed_at": "2023-04-10T01:09:34Z",
            "releases_url": "https://api.github.com/repos/PrismarineJS/node-minecraft-data/releases{/id}",
            "size": 421,
            "ssh_url": "git@github.com:PrismarineJS/node-minecraft-data.git",
            "stargazers_count": 73,
            "stargazers_url": "https://api.github.com/repos/PrismarineJS/node-minecraft-data/stargazers",
            "statuses_url": "https://api.github.com/repos/PrismarineJS/node-minecraft-data/statuses/{sha}",
            "subscribers_url": "https://api.github.com/repos/PrismarineJS/node-minecraft-data/subscribers",
            "subscription_url": "https://api.github.com/repos/PrismarineJS/node-minecraft-data/subscription",
            "svn_url": "https://github.com/PrismarineJS/node-minecraft-data",
            "tags_url": "https://api.github.com/repos/PrismarineJS/node-minecraft-data/tags",
            "teams_url": "https://api.github.com/repos/PrismarineJS/node-minecraft-data/teams",
            "topics": [],
            "trees_url": "https://api.github.com/repos/PrismarineJS/node-minecraft-data/git/trees{/sha}",
            "updated_at": "2023-04-06T17:47:53Z",
            "url": "https://api.github.com/repos/PrismarineJS/node-minecraft-data",
            "visibility": "public",
            "watchers": 73,
            "watchers_count": 73,
            "web_commit_signoff_required": false
        },
        "sha": "94c83461727dbf64e7454d681cbddb1552b457b1",
        "user": {
            "avatar_url": "https://avatars.githubusercontent.com/u/11053411?v=4",
            "events_url": "https://api.github.com/users/PrismarineJS/events{/privacy}",
            "followers_url": "https://api.github.com/users/PrismarineJS/followers",
            "following_url": "https://api.github.com/users/PrismarineJS/following{/other_user}",
            "gists_url": "https://api.github.com/users/PrismarineJS/gists{/gist_id}",
            "gravatar_id": "",
            "html_url": "https://github.com/PrismarineJS",
            "id": 11053411,
            "login": "PrismarineJS",
            "node_id": "MDEyOk9yZ2FuaXphdGlvbjExMDUzNDEx",
            "organizations_url": "https://api.github.com/users/PrismarineJS/orgs",
            "received_events_url": "https://api.github.com/users/PrismarineJS/received_events",
            "repos_url": "https://api.github.com/users/PrismarineJS/repos",
            "site_admin": false,
            "starred_url": "https://api.github.com/users/PrismarineJS/starred{/owner}{/repo}",
            "subscriptions_url": "https://api.github.com/users/PrismarineJS/subscriptions",
            "type": "Organization",
            "url": "https://api.github.com/users/PrismarineJS"
        }
    },
    "body": "Skulls for the skull throne :skull: ",
    "changed_files": 1,
    "closed_at": "2021-08-07T00:18:40Z",
    "comment_data": [],
    "comment_regular_data": [],
    "comments": 0,
    "comments_url": "https://api.github.com/repos/PrismarineJS/node-minecraft-data/issues/106/comments",
    "commit_data": [
        {
            "author": {
                "avatar_url": "https://avatars.githubusercontent.com/u/1032552?v=4",
                "events_url": "https://api.github.com/users/nickelpro/events{/privacy}",
                "followers_url": "https://api.github.com/users/nickelpro/followers",
                "following_url": "https://api.github.com/users/nickelpro/following{/other_user}",
                "gists_url": "https://api.github.com/users/nickelpro/gists{/gist_id}",
                "gravatar_id": "",
                "html_url": "https://github.com/nickelpro",
                "id": 1032552,
                "login": "nickelpro",
                "node_id": "MDQ6VXNlcjEwMzI1NTI=",
                "organizations_url": "https://api.github.com/users/nickelpro/orgs",
                "received_events_url": "https://api.github.com/users/nickelpro/received_events",
                "repos_url": "https://api.github.com/users/nickelpro/repos",
                "site_admin": false,
                "starred_url": "https://api.github.com/users/nickelpro/starred{/owner}{/repo}",
                "subscriptions_url": "https://api.github.com/users/nickelpro/subscriptions",
                "type": "User",
                "url": "https://api.github.com/users/nickelpro"
            },
            "comments_url": "https://api.github.com/repos/PrismarineJS/node-minecraft-data/commits/841b61184737e996f504175f8c0eb2b6df46710f/comments",
            "commit": {
                "author": {
                    "date": "2021-08-07T00:09:57Z",
                    "email": "vito@gamberini.email",
                    "name": "Vito Gamberini"
                },
                "comment_count": 0,
                "committer": {
                    "date": "2021-08-07T00:11:18Z",
                    "email": "vito@gamberini.email",
                    "name": "Vito Gamberini"
                },
                "message": "Test version lookup for all post-netty proto versions",
                "tree": {
                    "sha": "ef01c3f2a97c181c0c929adcfc466a9ed9dc7cb5",
                    "url": "https://api.github.com/repos/PrismarineJS/node-minecraft-data/git/trees/ef01c3f2a97c181c0c929adcfc466a9ed9dc7cb5"
                },
                "url": "https://api.github.com/repos/PrismarineJS/node-minecraft-data/git/commits/841b61184737e996f504175f8c0eb2b6df46710f",
                "verification": {
                    "payload": "tree ef01c3f2a97c181c0c929adcfc466a9ed9dc7cb5\nparent 94c83461727dbf64e7454d681cbddb1552b457b1\nauthor Vito Gamberini <vito@gamberini.email> 1628294997 -0400\ncommitter Vito Gamberini <vito@gamberini.email> 1628295078 -0400\n\nTest version lookup for all post-netty proto versions\n",
                    "reason": "valid",
                    "signature": "-----BEGIN PGP SIGNATURE-----\n\niQIzBAABCAAdFiEE4IBGI4LySzDSIkJwiyRRJA02e98FAmENz6YACgkQiyRRJA02\ne9+Vbg/+JFNCLBtGMlPwTakx3D9YhuVjBStH2hVaq6ZIfRU8qXqjuK3j8Gb5bY19\nirVXldwg5EkdhzfmvvwBtGPR/skAJKHJLS3IrH/0yNJT5w9axZtkDlhNamz6jSk6\nH/0TD7LxRkcOFSRnm/SR4+esyOMyuJvAPuPILfju2AgeCurB1Bdlg6o2R7vFcBPd\ngHsSxq3yKcx3kNGLsi7/qG1Zbb5p1tXoXK0aeyJXsItus7QwFlrRZTSFvPFIe9aV\nX/K6676CZQ5nIGgRZ4vmbf9hQnIFXlHt36JTgIHSNjRX/ccHvVlvdTd9qfE1V290\nAdJTNnh4N7sj+J53FeBwVQXK6+PfcgKr5cvQqQgNf6VEi8rRpR8WWomhuNqI6ZpD\nL2Oyl1Y7xhFvQkVz4E+W2kJhWJCFMDspZYRl5UVClSf0fADRO6SWIYqIOKXu5w7E\nJsOp7gp15d5Vl6iMy/7DOfezNHAfldnhYySGsJQj/E5ZFbGzSc43hK3gB/FQunhd\nJaG0n1iaQBZ+Y+Xt72XOtNMpS/BvgF0TibkAw0jdYc1oW7Csu8hqX3pQH3lJBUq+\ntQFyvMA1ojYDa/ZTrpn/g7gciVExiih5c6OBq/94PC1r37/kQ2hpOmaGfcI6bknZ\nTL65k3uMG51jw8H0X2m77NwnIYTWH6bTzw9m6+TR7DJW912JXk4=\n=ZFUU\n-----END PGP SIGNATURE-----",
                    "verified": true
                }
            },
            "committer": {
                "avatar_url": "https://avatars.githubusercontent.com/u/1032552?v=4",
                "events_url": "https://api.github.com/users/nickelpro/events{/privacy}",
                "followers_url": "https://api.github.com/users/nickelpro/followers",
                "following_url": "https://api.github.com/users/nickelpro/following{/other_user}",
                "gists_url": "https://api.github.com/users/nickelpro/gists{/gist_id}",
                "gravatar_id": "",
                "html_url": "https://github.com/nickelpro",
                "id": 1032552,
                "login": "nickelpro",
                "node_id": "MDQ6VXNlcjEwMzI1NTI=",
                "organizations_url": "https://api.github.com/users/nickelpro/orgs",
                "received_events_url": "https://api.github.com/users/nickelpro/received_events",
                "repos_url": "https://api.github.com/users/nickelpro/repos",
                "site_admin": false,
                "starred_url": "https://api.github.com/users/nickelpro/starred{/owner}{/repo}",
                "subscriptions_url": "https://api.github.com/users/nickelpro/subscriptions",
                "type": "User",
                "url": "https://api.github.com/users/nickelpro"
            },
            "html_url": "https://github.com/PrismarineJS/node-minecraft-data/commit/841b61184737e996f504175f8c0eb2b6df46710f",
            "node_id": "MDY6Q29tbWl0MzkyODIyNzY4Ojg0MWI2MTE4NDczN2U5OTZmNTA0MTc1ZjhjMGViMmI2ZGY0NjcxMGY=",
            "parents": [
                {
                    "html_url": "https://github.com/PrismarineJS/node-minecraft-data/commit/94c83461727dbf64e7454d681cbddb1552b457b1",
                    "sha": "94c83461727dbf64e7454d681cbddb1552b457b1",
                    "url": "https://api.github.com/repos/PrismarineJS/node-minecraft-data/commits/94c83461727dbf64e7454d681cbddb1552b457b1"
                }
            ],
            "sha": "841b61184737e996f504175f8c0eb2b6df46710f",
            "url": "https://api.github.com/repos/PrismarineJS/node-minecraft-data/commits/841b61184737e996f504175f8c0eb2b6df46710f"
        }
    ],
    "commits": 1,
    "commits_url": "https://api.github.com/repos/PrismarineJS/node-minecraft-data/pulls/106/commits",
    "created_at": "2021-08-07T00:12:47Z",
    "deletions": 0,
    "diff_url": "https://github.com/PrismarineJS/node-minecraft-data/pull/106.diff",
    "draft": false,
    "head": {
        "label": "nickelpro:master",
        "ref": "master",
        "repo": {
            "allow_forking": true,
            "archive_url": "https://api.github.com/repos/nickelpro/node-minecraft-data/{archive_format}{/ref}",
            "archived": false,
            "assignees_url": "https://api.github.com/repos/nickelpro/node-minecraft-data/assignees{/user}",
            "blobs_url": "https://api.github.com/repos/nickelpro/node-minecraft-data/git/blobs{/sha}",
            "branches_url": "https://api.github.com/repos/nickelpro/node-minecraft-data/branches{/branch}",
            "clone_url": "https://github.com/nickelpro/node-minecraft-data.git",
            "collaborators_url": "https://api.github.com/repos/nickelpro/node-minecraft-data/collaborators{/collaborator}",
            "comments_url": "https://api.github.com/repos/nickelpro/node-minecraft-data/comments{/number}",
            "commits_url": "https://api.github.com/repos/nickelpro/node-minecraft-data/commits{/sha}",
            "compare_url": "https://api.github.com/repos/nickelpro/node-minecraft-data/compare/{base}...{head}",
            "contents_url": "https://api.github.com/repos/nickelpro/node-minecraft-data/contents/{+path}",
            "contributors_url": "https://api.github.com/repos/nickelpro/node-minecraft-data/contributors",
            "created_at": "2021-08-04T20:57:14Z",
            "default_branch": "master",
            "deployments_url": "https://api.github.com/repos/nickelpro/node-minecraft-data/deployments",
            "description": "Provide easy access to minecraft-data in node.js",
            "disabled": false,
            "downloads_url": "https://api.github.com/repos/nickelpro/node-minecraft-data/downloads",
            "events_url": "https://api.github.com/repos/nickelpro/node-minecraft-data/events",
            "fork": true,
            "forks": 0,
            "forks_count": 0,
            "forks_url": "https://api.github.com/repos/nickelpro/node-minecraft-data/forks",
            "full_name": "nickelpro/node-minecraft-data",
            "git_commits_url": "https://api.github.com/repos/nickelpro/node-minecraft-data/git/commits{/sha}",
            "git_refs_url": "https://api.github.com/repos/nickelpro/node-minecraft-data/git/refs{/sha}",
            "git_tags_url": "https://api.github.com/repos/nickelpro/node-minecraft-data/git/tags{/sha}",
            "git_url": "git://github.com/nickelpro/node-minecraft-data.git",
            "has_discussions": false,
            "has_downloads": true,
            "has_issues": false,
            "has_pages": false,
            "has_projects": true,
            "has_wiki": true,
            "homepage": "https://minecraft-data.prismarine.js.org/",
            "hooks_url": "https://api.github.com/repos/nickelpro/node-minecraft-data/hooks",
            "html_url": "https://github.com/nickelpro/node-minecraft-data",
            "id": 392822768,
            "is_template": false,
            "issue_comment_url": "https://api.github.com/repos/nickelpro/node-minecraft-data/issues/comments{/number}",
            "issue_events_url": "https://api.github.com/repos/nickelpro/node-minecraft-data/issues/events{/number}",
            "issues_url": "https://api.github.com/repos/nickelpro/node-minecraft-data/issues{/number}",
            "keys_url": "https://api.github.com/repos/nickelpro/node-minecraft-data/keys{/key_id}",
            "labels_url": "https://api.github.com/repos/nickelpro/node-minecraft-data/labels{/name}",
            "language": "JavaScript",
            "languages_url": "https://api.github.com/repos/nickelpro/node-minecraft-data/languages",
            "license": null,
            "merges_url": "https://api.github.com/repos/nickelpro/node-minecraft-data/merges",
            "milestones_url": "https://api.github.com/repos/nickelpro/node-minecraft-data/milestones{/number}",
            "mirror_url": null,
            "name": "node-minecraft-data",
            "node_id": "MDEwOlJlcG9zaXRvcnkzOTI4MjI3Njg=",
            "notifications_url": "https://api.github.com/repos/nickelpro/node-minecraft-data/notifications{?since,all,participating}",
            "open_issues": 0,
            "open_issues_count": 0,
            "owner": {
                "avatar_url": "https://avatars.githubusercontent.com/u/1032552?v=4",
                "events_url": "https://api.github.com/users/nickelpro/events{/privacy}",
                "followers_url": "https://api.github.com/users/nickelpro/followers",
                "following_url": "https://api.github.com/users/nickelpro/following{/other_user}",
                "gists_url": "https://api.github.com/users/nickelpro/gists{/gist_id}",
                "gravatar_id": "",
                "html_url": "https://github.com/nickelpro",
                "id": 1032552,
                "login": "nickelpro",
                "node_id": "MDQ6VXNlcjEwMzI1NTI=",
                "organizations_url": "https://api.github.com/users/nickelpro/orgs",
                "received_events_url": "https://api.github.com/users/nickelpro/received_events",
                "repos_url": "https://api.github.com/users/nickelpro/repos",
                "site_admin": false,
                "starred_url": "https://api.github.com/users/nickelpro/starred{/owner}{/repo}",
                "subscriptions_url": "https://api.github.com/users/nickelpro/subscriptions",
                "type": "User",
                "url": "https://api.github.com/users/nickelpro"
            },
            "private": false,
            "pulls_url": "https://api.github.com/repos/nickelpro/node-minecraft-data/pulls{/number}",
            "pushed_at": "2022-01-02T03:52:52Z",
            "releases_url": "https://api.github.com/repos/nickelpro/node-minecraft-data/releases{/id}",
            "size": 325,
            "ssh_url": "git@github.com:nickelpro/node-minecraft-data.git",
            "stargazers_count": 0,
            "stargazers_url": "https://api.github.com/repos/nickelpro/node-minecraft-data/stargazers",
            "statuses_url": "https://api.github.com/repos/nickelpro/node-minecraft-data/statuses/{sha}",
            "subscribers_url": "https://api.github.com/repos/nickelpro/node-minecraft-data/subscribers",
            "subscription_url": "https://api.github.com/repos/nickelpro/node-minecraft-data/subscription",
            "svn_url": "https://github.com/nickelpro/node-minecraft-data",
            "tags_url": "https://api.github.com/repos/nickelpro/node-minecraft-data/tags",
            "teams_url": "https://api.github.com/repos/nickelpro/node-minecraft-data/teams",
            "topics": [],
            "trees_url": "https://api.github.com/repos/nickelpro/node-minecraft-data/git/trees{/sha}",
            "updated_at": "2022-01-02T03:52:56Z",
            "url": "https://api.github.com/repos/nickelpro/node-minecraft-data",
            "visibility": "public",
            "watchers": 0,
            "watchers_count": 0,
            "web_commit_signoff_required": false
        },
        "sha": "841b61184737e996f504175f8c0eb2b6df46710f",
        "user": {
            "avatar_url": "https://avatars.githubusercontent.com/u/1032552?v=4",
            "events_url": "https://api.github.com/users/nickelpro/events{/privacy}",
            "followers_url": "https://api.github.com/users/nickelpro/followers",
            "following_url": "https://api.github.com/users/nickelpro/following{/other_user}",
            "gists_url": "https://api.github.com/users/nickelpro/gists{/gist_id}",
            "gravatar_id": "",
            "html_url": "https://github.com/nickelpro",
            "id": 1032552,
            "login": "nickelpro",
            "node_id": "MDQ6VXNlcjEwMzI1NTI=",
            "organizations_url": "https://api.github.com/users/nickelpro/orgs",
            "received_events_url": "https://api.github.com/users/nickelpro/received_events",
            "repos_url": "https://api.github.com/users/nickelpro/repos",
            "site_admin": false,
            "starred_url": "https://api.github.com/users/nickelpro/starred{/owner}{/repo}",
            "subscriptions_url": "https://api.github.com/users/nickelpro/subscriptions",
            "type": "User",
            "url": "https://api.github.com/users/nickelpro"
        }
    },
    "html_url": "https://github.com/PrismarineJS/node-minecraft-data/pull/106",
    "id": 705803498,
    "issue_url": "https://api.github.com/repos/PrismarineJS/node-minecraft-data/issues/106",
    "labels": [],
    "locked": false,
    "maintainer_can_modify": false,
    "merge_commit_sha": "0b219451cb3a000b3471e4a56f3203dd80534f7e",
    "mergeable": null,
    "mergeable_state": "unknown",
    "merged": true,
    "merged_at": "2021-08-07T00:18:40Z",
    "merged_by": {
        "avatar_url": "https://avatars.githubusercontent.com/u/2346494?v=4",
        "events_url": "https://api.github.com/users/rom1504/events{/privacy}",
        "followers_url": "https://api.github.com/users/rom1504/followers",
        "following_url": "https://api.github.com/users/rom1504/following{/other_user}",
        "gists_url": "https://api.github.com/users/rom1504/gists{/gist_id}",
        "gravatar_id": "",
        "html_url": "https://github.com/rom1504",
        "id": 2346494,
        "login": "rom1504",
        "node_id": "MDQ6VXNlcjIzNDY0OTQ=",
        "organizations_url": "https://api.github.com/users/rom1504/orgs",
        "received_events_url": "https://api.github.com/users/rom1504/received_events",
        "repos_url": "https://api.github.com/users/rom1504/repos",
        "site_admin": false,
        "starred_url": "https://api.github.com/users/rom1504/starred{/owner}{/repo}",
        "subscriptions_url": "https://api.github.com/users/rom1504/subscriptions",
        "type": "User",
        "url": "https://api.github.com/users/rom1504"
    },
    "milestone": null,
    "node_id": "MDExOlB1bGxSZXF1ZXN0NzA1ODAzNDk4",
    "number": 106,
    "patch_url": "https://github.com/PrismarineJS/node-minecraft-data/pull/106.patch",
    "rebaseable": null,
    "requested_reviewers": [],
    "requested_teams": [],
    "review_comment_url": "https://api.github.com/repos/PrismarineJS/node-minecraft-data/pulls/comments{/number}",
    "review_comments": 0,
    "review_comments_url": "https://api.github.com/repos/PrismarineJS/node-minecraft-data/pulls/106/comments",
    "state": "closed",
    "statuses_url": "https://api.github.com/repos/PrismarineJS/node-minecraft-data/statuses/841b61184737e996f504175f8c0eb2b6df46710f",
    "title": "Tests for the Test God",
    "updated_at": "2021-08-07T00:18:40Z",
    "url": "https://api.github.com/repos/PrismarineJS/node-minecraft-data/pulls/106",
    "user": {
        "avatar_url": "https://avatars.githubusercontent.com/u/1032552?v=4",
        "events_url": "https://api.github.com/users/nickelpro/events{/privacy}",
        "followers_url": "https://api.github.com/users/nickelpro/followers",
        "following_url": "https://api.github.com/users/nickelpro/following{/other_user}",
        "gists_url": "https://api.github.com/users/nickelpro/gists{/gist_id}",
        "gravatar_id": "",
        "html_url": "https://github.com/nickelpro",
        "id": 1032552,
        "login": "nickelpro",
        "node_id": "MDQ6VXNlcjEwMzI1NTI=",
        "organizations_url": "https://api.github.com/users/nickelpro/orgs",
        "received_events_url": "https://api.github.com/users/nickelpro/received_events",
        "repos_url": "https://api.github.com/users/nickelpro/repos",
        "site_admin": false,
        "starred_url": "https://api.github.com/users/nickelpro/starred{/owner}{/repo}",
        "subscriptions_url": "https://api.github.com/users/nickelpro/subscriptions",
        "type": "User",
        "url": "https://api.github.com/users/nickelpro"
    }
}