{
    "_links": {
        "comments": {
            "href": "https://api.github.com/repos/PrismarineJS/node-minecraft-data/issues/275/comments"
        },
        "commits": {
            "href": "https://api.github.com/repos/PrismarineJS/node-minecraft-data/pulls/275/commits"
        },
        "html": {
            "href": "https://github.com/PrismarineJS/node-minecraft-data/pull/275"
        },
        "issue": {
            "href": "https://api.github.com/repos/PrismarineJS/node-minecraft-data/issues/275"
        },
        "review_comment": {
            "href": "https://api.github.com/repos/PrismarineJS/node-minecraft-data/pulls/comments{/number}"
        },
        "review_comments": {
            "href": "https://api.github.com/repos/PrismarineJS/node-minecraft-data/pulls/275/comments"
        },
        "self": {
            "href": "https://api.github.com/repos/PrismarineJS/node-minecraft-data/pulls/275"
        },
        "statuses": {
            "href": "https://api.github.com/repos/PrismarineJS/node-minecraft-data/statuses/900371a3817887cd54c1021ac979e5eac4cf1944"
        }
    },
    "active_lock_reason": null,
    "additions": 6,
    "assignee": null,
    "assignees": [],
    "author_association": "MEMBER",
    "auto_merge": null,
    "base": {
        "label": "PrismarineJS:master",
        "ref": "master",
        "repo": {
            "allow_forking": true,
            "archive_url": "https://api.github.com/repos/PrismarineJS/node-minecraft-data/{archive_format}{/ref}",
            "archived": false,
            "assignees_url": "https://api.github.com/repos/PrismarineJS/node-minecraft-data/assignees{/user}",
            "blobs_url": "https://api.github.com/repos/PrismarineJS/node-minecraft-data/git/blobs{/sha}",
            "branches_url": "https://api.github.com/repos/PrismarineJS/node-minecraft-data/branches{/branch}",
            "clone_url": "https://github.com/PrismarineJS/node-minecraft-data.git",
            "collaborators_url": "https://api.github.com/repos/PrismarineJS/node-minecraft-data/collaborators{/collaborator}",
            "comments_url": "https://api.github.com/repos/PrismarineJS/node-minecraft-data/comments{/number}",
            "commits_url": "https://api.github.com/repos/PrismarineJS/node-minecraft-data/commits{/sha}",
            "compare_url": "https://api.github.com/repos/PrismarineJS/node-minecraft-data/compare/{base}...{head}",
            "contents_url": "https://api.github.com/repos/PrismarineJS/node-minecraft-data/contents/{+path}",
            "contributors_url": "https://api.github.com/repos/PrismarineJS/node-minecraft-data/contributors",
            "created_at": "2015-05-05T20:50:30Z",
            "default_branch": "master",
            "deployments_url": "https://api.github.com/repos/PrismarineJS/node-minecraft-data/deployments",
            "description": "Provide easy access to minecraft-data in node.js",
            "disabled": false,
            "downloads_url": "https://api.github.com/repos/PrismarineJS/node-minecraft-data/downloads",
            "events_url": "https://api.github.com/repos/PrismarineJS/node-minecraft-data/events",
            "fork": false,
            "forks": 40,
            "forks_count": 40,
            "forks_url": "https://api.github.com/repos/PrismarineJS/node-minecraft-data/forks",
            "full_name": "PrismarineJS/node-minecraft-data",
            "git_commits_url": "https://api.github.com/repos/PrismarineJS/node-minecraft-data/git/commits{/sha}",
            "git_refs_url": "https://api.github.com/repos/PrismarineJS/node-minecraft-data/git/refs{/sha}",
            "git_tags_url": "https://api.github.com/repos/PrismarineJS/node-minecraft-data/git/tags{/sha}",
            "git_url": "git://github.com/PrismarineJS/node-minecraft-data.git",
            "has_discussions": false,
            "has_downloads": true,
            "has_issues": true,
            "has_pages": false,
            "has_projects": true,
            "has_wiki": true,
            "homepage": "https://minecraft-data.prismarine.js.org/",
            "hooks_url": "https://api.github.com/repos/PrismarineJS/node-minecraft-data/hooks",
            "html_url": "https://github.com/PrismarineJS/node-minecraft-data",
            "id": 35123311,
            "is_template": false,
            "issue_comment_url": "https://api.github.com/repos/PrismarineJS/node-minecraft-data/issues/comments{/number}",
            "issue_events_url": "https://api.github.com/repos/PrismarineJS/node-minecraft-data/issues/events{/number}",
            "issues_url": "https://api.github.com/repos/PrismarineJS/node-minecraft-data/issues{/number}",
            "keys_url": "https://api.github.com/repos/PrismarineJS/node-minecraft-data/keys{/key_id}",
            "labels_url": "https://api.github.com/repos/PrismarineJS/node-minecraft-data/labels{/name}",
            "language": "JavaScript",
            "languages_url": "https://api.github.com/repos/PrismarineJS/node-minecraft-data/languages",
            "license": null,
            "merges_url": "https://api.github.com/repos/PrismarineJS/node-minecraft-data/merges",
            "milestones_url": "https://api.github.com/repos/PrismarineJS/node-minecraft-data/milestones{/number}",
            "mirror_url": null,
            "name": "node-minecraft-data",
            "node_id": "MDEwOlJlcG9zaXRvcnkzNTEyMzMxMQ==",
            "notifications_url": "https://api.github.com/repos/PrismarineJS/node-minecraft-data/notifications{?since,all,participating}",
            "open_issues": 8,
            "open_issues_count": 8,
            "owner": {
                "avatar_url": "https://avatars.githubusercontent.com/u/11053411?v=4",
                "events_url": "https://api.github.com/users/PrismarineJS/events{/privacy}",
                "followers_url": "https://api.github.com/users/PrismarineJS/followers",
                "following_url": "https://api.github.com/users/PrismarineJS/following{/other_user}",
                "gists_url": "https://api.github.com/users/PrismarineJS/gists{/gist_id}",
                "gravatar_id": "",
                "html_url": "https://github.com/PrismarineJS",
                "id": 11053411,
                "login": "PrismarineJS",
                "node_id": "MDEyOk9yZ2FuaXphdGlvbjExMDUzNDEx",
                "organizations_url": "https://api.github.com/users/PrismarineJS/orgs",
                "received_events_url": "https://api.github.com/users/PrismarineJS/received_events",
                "repos_url": "https://api.github.com/users/PrismarineJS/repos",
                "site_admin": false,
                "starred_url": "https://api.github.com/users/PrismarineJS/starred{/owner}{/repo}",
                "subscriptions_url": "https://api.github.com/users/PrismarineJS/subscriptions",
                "type": "Organization",
                "url": "https://api.github.com/users/PrismarineJS"
            },
            "private": false,
            "pulls_url": "https://api.github.com/repos/PrismarineJS/node-minecraft-data/pulls{/number}",
            "pushed_at": "2023-04-27T16:13:44Z",
            "releases_url": "https://api.github.com/repos/PrismarineJS/node-minecraft-data/releases{/id}",
            "size": 433,
            "ssh_url": "git@github.com:PrismarineJS/node-minecraft-data.git",
            "stargazers_count": 73,
            "stargazers_url": "https://api.github.com/repos/PrismarineJS/node-minecraft-data/stargazers",
            "statuses_url": "https://api.github.com/repos/PrismarineJS/node-minecraft-data/statuses/{sha}",
            "subscribers_url": "https://api.github.com/repos/PrismarineJS/node-minecraft-data/subscribers",
            "subscription_url": "https://api.github.com/repos/PrismarineJS/node-minecraft-data/subscription",
            "svn_url": "https://github.com/PrismarineJS/node-minecraft-data",
            "tags_url": "https://api.github.com/repos/PrismarineJS/node-minecraft-data/tags",
            "teams_url": "https://api.github.com/repos/PrismarineJS/node-minecraft-data/teams",
            "topics": [],
            "trees_url": "https://api.github.com/repos/PrismarineJS/node-minecraft-data/git/trees{/sha}",
            "updated_at": "2023-04-06T17:47:53Z",
            "url": "https://api.github.com/repos/PrismarineJS/node-minecraft-data",
            "visibility": "public",
            "watchers": 73,
            "watchers_count": 73,
            "web_commit_signoff_required": false
        },
        "sha": "dd18fd423c3e93ea51b88160bc7a789ecfd9b19b",
        "user": {
            "avatar_url": "https://avatars.githubusercontent.com/u/11053411?v=4",
            "events_url": "https://api.github.com/users/PrismarineJS/events{/privacy}",
            "followers_url": "https://api.github.com/users/PrismarineJS/followers",
            "following_url": "https://api.github.com/users/PrismarineJS/following{/other_user}",
            "gists_url": "https://api.github.com/users/PrismarineJS/gists{/gist_id}",
            "gravatar_id": "",
            "html_url": "https://github.com/PrismarineJS",
            "id": 11053411,
            "login": "PrismarineJS",
            "node_id": "MDEyOk9yZ2FuaXphdGlvbjExMDUzNDEx",
            "organizations_url": "https://api.github.com/users/PrismarineJS/orgs",
            "received_events_url": "https://api.github.com/users/PrismarineJS/received_events",
            "repos_url": "https://api.github.com/users/PrismarineJS/repos",
            "site_admin": false,
            "starred_url": "https://api.github.com/users/PrismarineJS/starred{/owner}{/repo}",
            "subscriptions_url": "https://api.github.com/users/PrismarineJS/subscriptions",
            "type": "Organization",
            "url": "https://api.github.com/users/PrismarineJS"
        }
    },
    "body": "A new version of `minecraft-data` (`3.33.0`) was released.",
    "changed_files": 3,
    "closed_at": "2023-04-27T16:12:48Z",
    "comment_data": [],
    "comment_regular_data": [],
    "comments": 0,
    "comments_url": "https://api.github.com/repos/PrismarineJS/node-minecraft-data/issues/275/comments",
    "commit_data": [
        {
            "author": {
                "avatar_url": "https://avatars.githubusercontent.com/u/15970751?v=4",
                "events_url": "https://api.github.com/users/rom1504bot/events{/privacy}",
                "followers_url": "https://api.github.com/users/rom1504bot/followers",
                "following_url": "https://api.github.com/users/rom1504bot/following{/other_user}",
                "gists_url": "https://api.github.com/users/rom1504bot/gists{/gist_id}",
                "gravatar_id": "",
                "html_url": "https://github.com/rom1504bot",
                "id": 15970751,
                "login": "rom1504bot",
                "node_id": "MDQ6VXNlcjE1OTcwNzUx",
                "organizations_url": "https://api.github.com/users/rom1504bot/orgs",
                "received_events_url": "https://api.github.com/users/rom1504bot/received_events",
                "repos_url": "https://api.github.com/users/rom1504bot/repos",
                "site_admin": false,
                "starred_url": "https://api.github.com/users/rom1504bot/starred{/owner}{/repo}",
                "subscriptions_url": "https://api.github.com/users/rom1504bot/subscriptions",
                "type": "User",
                "url": "https://api.github.com/users/rom1504bot"
            },
            "comments_url": "https://api.github.com/repos/PrismarineJS/node-minecraft-data/commits/40f9d45d2e57dbecda431944d1a5bd448abd697e/comments",
            "commit": {
                "author": {
                    "date": "2023-04-27T16:11:14Z",
                    "email": "rom1504bot@users.noreply.github.com",
                    "name": "rom1504bot"
                },
                "comment_count": 0,
                "committer": {
                    "date": "2023-04-27T16:11:14Z",
                    "email": "rom1504bot@users.noreply.github.com",
                    "name": "rom1504bot"
                },
                "message": "Update",
                "tree": {
                    "sha": "e62ceacdfc17700b0b91da37f3e6003783a4b2cf",
                    "url": "https://api.github.com/repos/PrismarineJS/node-minecraft-data/git/trees/e62ceacdfc17700b0b91da37f3e6003783a4b2cf"
                },
                "url": "https://api.github.com/repos/PrismarineJS/node-minecraft-data/git/commits/40f9d45d2e57dbecda431944d1a5bd448abd697e",
                "verification": {
                    "payload": null,
                    "reason": "unsigned",
                    "signature": null,
                    "verified": false
                }
            },
            "committer": {
                "avatar_url": "https://avatars.githubusercontent.com/u/15970751?v=4",
                "events_url": "https://api.github.com/users/rom1504bot/events{/privacy}",
                "followers_url": "https://api.github.com/users/rom1504bot/followers",
                "following_url": "https://api.github.com/users/rom1504bot/following{/other_user}",
                "gists_url": "https://api.github.com/users/rom1504bot/gists{/gist_id}",
                "gravatar_id": "",
                "html_url": "https://github.com/rom1504bot",
                "id": 15970751,
                "login": "rom1504bot",
                "node_id": "MDQ6VXNlcjE1OTcwNzUx",
                "organizations_url": "https://api.github.com/users/rom1504bot/orgs",
                "received_events_url": "https://api.github.com/users/rom1504bot/received_events",
                "repos_url": "https://api.github.com/users/rom1504bot/repos",
                "site_admin": false,
                "starred_url": "https://api.github.com/users/rom1504bot/starred{/owner}{/repo}",
                "subscriptions_url": "https://api.github.com/users/rom1504bot/subscriptions",
                "type": "User",
                "url": "https://api.github.com/users/rom1504bot"
            },
            "html_url": "https://github.com/PrismarineJS/node-minecraft-data/commit/40f9d45d2e57dbecda431944d1a5bd448abd697e",
            "node_id": "C_kwDOAhfwb9oAKDQwZjlkNDVkMmU1N2RiZWNkYTQzMTk0NGQxYTViZDQ0OGFiZDY5N2U",
            "parents": [
                {
                    "html_url": "https://github.com/PrismarineJS/node-minecraft-data/commit/dd18fd423c3e93ea51b88160bc7a789ecfd9b19b",
                    "sha": "dd18fd423c3e93ea51b88160bc7a789ecfd9b19b",
                    "url": "https://api.github.com/repos/PrismarineJS/node-minecraft-data/commits/dd18fd423c3e93ea51b88160bc7a789ecfd9b19b"
                }
            ],
            "sha": "40f9d45d2e57dbecda431944d1a5bd448abd697e",
            "url": "https://api.github.com/repos/PrismarineJS/node-minecraft-data/commits/40f9d45d2e57dbecda431944d1a5bd448abd697e"
        },
        {
            "author": {
                "avatar_url": "https://avatars.githubusercontent.com/u/15970751?v=4",
                "events_url": "https://api.github.com/users/rom1504bot/events{/privacy}",
                "followers_url": "https://api.github.com/users/rom1504bot/followers",
                "following_url": "https://api.github.com/users/rom1504bot/following{/other_user}",
                "gists_url": "https://api.github.com/users/rom1504bot/gists{/gist_id}",
                "gravatar_id": "",
                "html_url": "https://github.com/rom1504bot",
                "id": 15970751,
                "login": "rom1504bot",
                "node_id": "MDQ6VXNlcjE1OTcwNzUx",
                "organizations_url": "https://api.github.com/users/rom1504bot/orgs",
                "received_events_url": "https://api.github.com/users/rom1504bot/received_events",
                "repos_url": "https://api.github.com/users/rom1504bot/repos",
                "site_admin": false,
                "starred_url": "https://api.github.com/users/rom1504bot/starred{/owner}{/repo}",
                "subscriptions_url": "https://api.github.com/users/rom1504bot/subscriptions",
                "type": "User",
                "url": "https://api.github.com/users/rom1504bot"
            },
            "comments_url": "https://api.github.com/repos/PrismarineJS/node-minecraft-data/commits/900371a3817887cd54c1021ac979e5eac4cf1944/comments",
            "commit": {
                "author": {
                    "date": "2023-04-27T16:11:14Z",
                    "email": "rom1504bot@users.noreply.github.com",
                    "name": "rom1504bot"
                },
                "comment_count": 0,
                "committer": {
                    "date": "2023-04-27T16:11:14Z",
                    "email": "rom1504bot@users.noreply.github.com",
                    "name": "rom1504bot"
                },
                "message": "Release 3.33.0",
                "tree": {
                    "sha": "f281c54395499259cfab5fbf7d40a3af5e24a584",
                    "url": "https://api.github.com/repos/PrismarineJS/node-minecraft-data/git/trees/f281c54395499259cfab5fbf7d40a3af5e24a584"
                },
                "url": "https://api.github.com/repos/PrismarineJS/node-minecraft-data/git/commits/900371a3817887cd54c1021ac979e5eac4cf1944",
                "verification": {
                    "payload": null,
                    "reason": "unsigned",
                    "signature": null,
                    "verified": false
                }
            },
            "committer": {
                "avatar_url": "https://avatars.githubusercontent.com/u/15970751?v=4",
                "events_url": "https://api.github.com/users/rom1504bot/events{/privacy}",
                "followers_url": "https://api.github.com/users/rom1504bot/followers",
                "following_url": "https://api.github.com/users/rom1504bot/following{/other_user}",
                "gists_url": "https://api.github.com/users/rom1504bot/gists{/gist_id}",
                "gravatar_id": "",
                "html_url": "https://github.com/rom1504bot",
                "id": 15970751,
                "login": "rom1504bot",
                "node_id": "MDQ6VXNlcjE1OTcwNzUx",
                "organizations_url": "https://api.github.com/users/rom1504bot/orgs",
                "received_events_url": "https://api.github.com/users/rom1504bot/received_events",
                "repos_url": "https://api.github.com/users/rom1504bot/repos",
                "site_admin": false,
                "starred_url": "https://api.github.com/users/rom1504bot/starred{/owner}{/repo}",
                "subscriptions_url": "https://api.github.com/users/rom1504bot/subscriptions",
                "type": "User",
                "url": "https://api.github.com/users/rom1504bot"
            },
            "html_url": "https://github.com/PrismarineJS/node-minecraft-data/commit/900371a3817887cd54c1021ac979e5eac4cf1944",
            "node_id": "C_kwDOAhfwb9oAKDkwMDM3MWEzODE3ODg3Y2Q1NGMxMDIxYWM5NzllNWVhYzRjZjE5NDQ",
            "parents": [
                {
                    "html_url": "https://github.com/PrismarineJS/node-minecraft-data/commit/40f9d45d2e57dbecda431944d1a5bd448abd697e",
                    "sha": "40f9d45d2e57dbecda431944d1a5bd448abd697e",
                    "url": "https://api.github.com/repos/PrismarineJS/node-minecraft-data/commits/40f9d45d2e57dbecda431944d1a5bd448abd697e"
                }
            ],
            "sha": "900371a3817887cd54c1021ac979e5eac4cf1944",
            "url": "https://api.github.com/repos/PrismarineJS/node-minecraft-data/commits/900371a3817887cd54c1021ac979e5eac4cf1944"
        }
    ],
    "commits": 2,
    "commits_url": "https://api.github.com/repos/PrismarineJS/node-minecraft-data/pulls/275/commits",
    "created_at": "2023-04-27T16:11:16Z",
    "deletions": 2,
    "diff_url": "https://github.com/PrismarineJS/node-minecraft-data/pull/275.diff",
    "draft": false,
    "head": {
        "label": "PrismarineJS:release-3.33.0",
        "ref": "release-3.33.0",
        "repo": {
            "allow_forking": true,
            "archive_url": "https://api.github.com/repos/PrismarineJS/node-minecraft-data/{archive_format}{/ref}",
            "archived": false,
            "assignees_url": "https://api.github.com/repos/PrismarineJS/node-minecraft-data/assignees{/user}",
            "blobs_url": "https://api.github.com/repos/PrismarineJS/node-minecraft-data/git/blobs{/sha}",
            "branches_url": "https://api.github.com/repos/PrismarineJS/node-minecraft-data/branches{/branch}",
            "clone_url": "https://github.com/PrismarineJS/node-minecraft-data.git",
            "collaborators_url": "https://api.github.com/repos/PrismarineJS/node-minecraft-data/collaborators{/collaborator}",
            "comments_url": "https://api.github.com/repos/PrismarineJS/node-minecraft-data/comments{/number}",
            "commits_url": "https://api.github.com/repos/PrismarineJS/node-minecraft-data/commits{/sha}",
            "compare_url": "https://api.github.com/repos/PrismarineJS/node-minecraft-data/compare/{base}...{head}",
            "contents_url": "https://api.github.com/repos/PrismarineJS/node-minecraft-data/contents/{+path}",
            "contributors_url": "https://api.github.com/repos/PrismarineJS/node-minecraft-data/contributors",
            "created_at": "2015-05-05T20:50:30Z",
            "default_branch": "master",
            "deployments_url": "https://api.github.com/repos/PrismarineJS/node-minecraft-data/deployments",
            "description": "Provide easy access to minecraft-data in node.js",
            "disabled": false,
            "downloads_url": "https://api.github.com/repos/PrismarineJS/node-minecraft-data/downloads",
            "events_url": "https://api.github.com/repos/PrismarineJS/node-minecraft-data/events",
            "fork": false,
            "forks": 40,
            "forks_count": 40,
            "forks_url": "https://api.github.com/repos/PrismarineJS/node-minecraft-data/forks",
            "full_name": "PrismarineJS/node-minecraft-data",
            "git_commits_url": "https://api.github.com/repos/PrismarineJS/node-minecraft-data/git/commits{/sha}",
            "git_refs_url": "https://api.github.com/repos/PrismarineJS/node-minecraft-data/git/refs{/sha}",
            "git_tags_url": "https://api.github.com/repos/PrismarineJS/node-minecraft-data/git/tags{/sha}",
            "git_url": "git://github.com/PrismarineJS/node-minecraft-data.git",
            "has_discussions": false,
            "has_downloads": true,
            "has_issues": true,
            "has_pages": false,
            "has_projects": true,
            "has_wiki": true,
            "homepage": "https://minecraft-data.prismarine.js.org/",
            "hooks_url": "https://api.github.com/repos/PrismarineJS/node-minecraft-data/hooks",
            "html_url": "https://github.com/PrismarineJS/node-minecraft-data",
            "id": 35123311,
            "is_template": false,
            "issue_comment_url": "https://api.github.com/repos/PrismarineJS/node-minecraft-data/issues/comments{/number}",
            "issue_events_url": "https://api.github.com/repos/PrismarineJS/node-minecraft-data/issues/events{/number}",
            "issues_url": "https://api.github.com/repos/PrismarineJS/node-minecraft-data/issues{/number}",
            "keys_url": "https://api.github.com/repos/PrismarineJS/node-minecraft-data/keys{/key_id}",
            "labels_url": "https://api.github.com/repos/PrismarineJS/node-minecraft-data/labels{/name}",
            "language": "JavaScript",
            "languages_url": "https://api.github.com/repos/PrismarineJS/node-minecraft-data/languages",
            "license": null,
            "merges_url": "https://api.github.com/repos/PrismarineJS/node-minecraft-data/merges",
            "milestones_url": "https://api.github.com/repos/PrismarineJS/node-minecraft-data/milestones{/number}",
            "mirror_url": null,
            "name": "node-minecraft-data",
            "node_id": "MDEwOlJlcG9zaXRvcnkzNTEyMzMxMQ==",
            "notifications_url": "https://api.github.com/repos/PrismarineJS/node-minecraft-data/notifications{?since,all,participating}",
            "open_issues": 8,
            "open_issues_count": 8,
            "owner": {
                "avatar_url": "https://avatars.githubusercontent.com/u/11053411?v=4",
                "events_url": "https://api.github.com/users/PrismarineJS/events{/privacy}",
                "followers_url": "https://api.github.com/users/PrismarineJS/followers",
                "following_url": "https://api.github.com/users/PrismarineJS/following{/other_user}",
                "gists_url": "https://api.github.com/users/PrismarineJS/gists{/gist_id}",
                "gravatar_id": "",
                "html_url": "https://github.com/PrismarineJS",
                "id": 11053411,
                "login": "PrismarineJS",
                "node_id": "MDEyOk9yZ2FuaXphdGlvbjExMDUzNDEx",
                "organizations_url": "https://api.github.com/users/PrismarineJS/orgs",
                "received_events_url": "https://api.github.com/users/PrismarineJS/received_events",
                "repos_url": "https://api.github.com/users/PrismarineJS/repos",
                "site_admin": false,
                "starred_url": "https://api.github.com/users/PrismarineJS/starred{/owner}{/repo}",
                "subscriptions_url": "https://api.github.com/users/PrismarineJS/subscriptions",
                "type": "Organization",
                "url": "https://api.github.com/users/PrismarineJS"
            },
            "private": false,
            "pulls_url": "https://api.github.com/repos/PrismarineJS/node-minecraft-data/pulls{/number}",
            "pushed_at": "2023-04-27T16:13:44Z",
            "releases_url": "https://api.github.com/repos/PrismarineJS/node-minecraft-data/releases{/id}",
            "size": 433,
            "ssh_url": "git@github.com:PrismarineJS/node-minecraft-data.git",
            "stargazers_count": 73,
            "stargazers_url": "https://api.github.com/repos/PrismarineJS/node-minecraft-data/stargazers",
            "statuses_url": "https://api.github.com/repos/PrismarineJS/node-minecraft-data/statuses/{sha}",
            "subscribers_url": "https://api.github.com/repos/PrismarineJS/node-minecraft-data/subscribers",
            "subscription_url": "https://api.github.com/repos/PrismarineJS/node-minecraft-data/subscription",
            "svn_url": "https://github.com/PrismarineJS/node-minecraft-data",
            "tags_url": "https://api.github.com/repos/PrismarineJS/node-minecraft-data/tags",
            "teams_url": "https://api.github.com/repos/PrismarineJS/node-minecraft-data/teams",
            "topics": [],
            "trees_url": "https://api.github.com/repos/PrismarineJS/node-minecraft-data/git/trees{/sha}",
            "updated_at": "2023-04-06T17:47:53Z",
            "url": "https://api.github.com/repos/PrismarineJS/node-minecraft-data",
            "visibility": "public",
            "watchers": 73,
            "watchers_count": 73,
            "web_commit_signoff_required": false
        },
        "sha": "900371a3817887cd54c1021ac979e5eac4cf1944",
        "user": {
            "avatar_url": "https://avatars.githubusercontent.com/u/11053411?v=4",
            "events_url": "https://api.github.com/users/PrismarineJS/events{/privacy}",
            "followers_url": "https://api.github.com/users/PrismarineJS/followers",
            "following_url": "https://api.github.com/users/PrismarineJS/following{/other_user}",
            "gists_url": "https://api.github.com/users/PrismarineJS/gists{/gist_id}",
            "gravatar_id": "",
            "html_url": "https://github.com/PrismarineJS",
            "id": 11053411,
            "login": "PrismarineJS",
            "node_id": "MDEyOk9yZ2FuaXphdGlvbjExMDUzNDEx",
            "organizations_url": "https://api.github.com/users/PrismarineJS/orgs",
            "received_events_url": "https://api.github.com/users/PrismarineJS/received_events",
            "repos_url": "https://api.github.com/users/PrismarineJS/repos",
            "site_admin": false,
            "starred_url": "https://api.github.com/users/PrismarineJS/starred{/owner}{/repo}",
            "subscriptions_url": "https://api.github.com/users/PrismarineJS/subscriptions",
            "type": "Organization",
            "url": "https://api.github.com/users/PrismarineJS"
        }
    },
    "html_url": "https://github.com/PrismarineJS/node-minecraft-data/pull/275",
    "id": 1330655521,
    "issue_url": "https://api.github.com/repos/PrismarineJS/node-minecraft-data/issues/275",
    "labels": [],
    "locked": false,
    "maintainer_can_modify": false,
    "merge_commit_sha": "0c52d56a35b58b5f5596fb46df5a9c0ae269c9ad",
    "mergeable": null,
    "mergeable_state": "unknown",
    "merged": true,
    "merged_at": "2023-04-27T16:12:48Z",
    "merged_by": {
        "avatar_url": "https://avatars.githubusercontent.com/u/2346494?v=4",
        "events_url": "https://api.github.com/users/rom1504/events{/privacy}",
        "followers_url": "https://api.github.com/users/rom1504/followers",
        "following_url": "https://api.github.com/users/rom1504/following{/other_user}",
        "gists_url": "https://api.github.com/users/rom1504/gists{/gist_id}",
        "gravatar_id": "",
        "html_url": "https://github.com/rom1504",
        "id": 2346494,
        "login": "rom1504",
        "node_id": "MDQ6VXNlcjIzNDY0OTQ=",
        "organizations_url": "https://api.github.com/users/rom1504/orgs",
        "received_events_url": "https://api.github.com/users/rom1504/received_events",
        "repos_url": "https://api.github.com/users/rom1504/repos",
        "site_admin": false,
        "starred_url": "https://api.github.com/users/rom1504/starred{/owner}{/repo}",
        "subscriptions_url": "https://api.github.com/users/rom1504/subscriptions",
        "type": "User",
        "url": "https://api.github.com/users/rom1504"
    },
    "milestone": null,
    "node_id": "PR_kwDOAhfwb85PUDEh",
    "number": 275,
    "patch_url": "https://github.com/PrismarineJS/node-minecraft-data/pull/275.patch",
    "rebaseable": null,
    "requested_reviewers": [],
    "requested_teams": [],
    "review_comment_url": "https://api.github.com/repos/PrismarineJS/node-minecraft-data/pulls/comments{/number}",
    "review_comments": 0,
    "review_comments_url": "https://api.github.com/repos/PrismarineJS/node-minecraft-data/pulls/275/comments",
    "state": "closed",
    "statuses_url": "https://api.github.com/repos/PrismarineJS/node-minecraft-data/statuses/900371a3817887cd54c1021ac979e5eac4cf1944",
    "title": "Release 3.33.0",
    "updated_at": "2023-04-27T16:12:52Z",
    "url": "https://api.github.com/repos/PrismarineJS/node-minecraft-data/pulls/275",
    "user": {
        "avatar_url": "https://avatars.githubusercontent.com/u/15970751?v=4",
        "events_url": "https://api.github.com/users/rom1504bot/events{/privacy}",
        "followers_url": "https://api.github.com/users/rom1504bot/followers",
        "following_url": "https://api.github.com/users/rom1504bot/following{/other_user}",
        "gists_url": "https://api.github.com/users/rom1504bot/gists{/gist_id}",
        "gravatar_id": "",
        "html_url": "https://github.com/rom1504bot",
        "id": 15970751,
        "login": "rom1504bot",
        "node_id": "MDQ6VXNlcjE1OTcwNzUx",
        "organizations_url": "https://api.github.com/users/rom1504bot/orgs",
        "received_events_url": "https://api.github.com/users/rom1504bot/received_events",
        "repos_url": "https://api.github.com/users/rom1504bot/repos",
        "site_admin": false,
        "starred_url": "https://api.github.com/users/rom1504bot/starred{/owner}{/repo}",
        "subscriptions_url": "https://api.github.com/users/rom1504bot/subscriptions",
        "type": "User",
        "url": "https://api.github.com/users/rom1504bot"
    }
}