{
    "_links": {
        "comments": {
            "href": "https://api.github.com/repos/PrismarineJS/mineflayer-pathfinder/issues/169/comments"
        },
        "commits": {
            "href": "https://api.github.com/repos/PrismarineJS/mineflayer-pathfinder/pulls/169/commits"
        },
        "html": {
            "href": "https://github.com/PrismarineJS/mineflayer-pathfinder/pull/169"
        },
        "issue": {
            "href": "https://api.github.com/repos/PrismarineJS/mineflayer-pathfinder/issues/169"
        },
        "review_comment": {
            "href": "https://api.github.com/repos/PrismarineJS/mineflayer-pathfinder/pulls/comments{/number}"
        },
        "review_comments": {
            "href": "https://api.github.com/repos/PrismarineJS/mineflayer-pathfinder/pulls/169/comments"
        },
        "self": {
            "href": "https://api.github.com/repos/PrismarineJS/mineflayer-pathfinder/pulls/169"
        },
        "statuses": {
            "href": "https://api.github.com/repos/PrismarineJS/mineflayer-pathfinder/statuses/402b9c273f54399c648b5b8e840db9d70af6e8e2"
        }
    },
    "active_lock_reason": null,
    "additions": 1,
    "assignee": null,
    "assignees": [],
    "author_association": "NONE",
    "auto_merge": null,
    "base": {
        "label": "PrismarineJS:master",
        "ref": "master",
        "repo": {
            "allow_forking": true,
            "archive_url": "https://api.github.com/repos/PrismarineJS/mineflayer-pathfinder/{archive_format}{/ref}",
            "archived": false,
            "assignees_url": "https://api.github.com/repos/PrismarineJS/mineflayer-pathfinder/assignees{/user}",
            "blobs_url": "https://api.github.com/repos/PrismarineJS/mineflayer-pathfinder/git/blobs{/sha}",
            "branches_url": "https://api.github.com/repos/PrismarineJS/mineflayer-pathfinder/branches{/branch}",
            "clone_url": "https://github.com/PrismarineJS/mineflayer-pathfinder.git",
            "collaborators_url": "https://api.github.com/repos/PrismarineJS/mineflayer-pathfinder/collaborators{/collaborator}",
            "comments_url": "https://api.github.com/repos/PrismarineJS/mineflayer-pathfinder/comments{/number}",
            "commits_url": "https://api.github.com/repos/PrismarineJS/mineflayer-pathfinder/commits{/sha}",
            "compare_url": "https://api.github.com/repos/PrismarineJS/mineflayer-pathfinder/compare/{base}...{head}",
            "contents_url": "https://api.github.com/repos/PrismarineJS/mineflayer-pathfinder/contents/{+path}",
            "contributors_url": "https://api.github.com/repos/PrismarineJS/mineflayer-pathfinder/contributors",
            "created_at": "2020-04-21T02:34:23Z",
            "default_branch": "master",
            "deployments_url": "https://api.github.com/repos/PrismarineJS/mineflayer-pathfinder/deployments",
            "description": "Pathfinding plugin that gives bot the ability to go from A to B",
            "disabled": false,
            "downloads_url": "https://api.github.com/repos/PrismarineJS/mineflayer-pathfinder/downloads",
            "events_url": "https://api.github.com/repos/PrismarineJS/mineflayer-pathfinder/events",
            "fork": false,
            "forks": 52,
            "forks_count": 52,
            "forks_url": "https://api.github.com/repos/PrismarineJS/mineflayer-pathfinder/forks",
            "full_name": "PrismarineJS/mineflayer-pathfinder",
            "git_commits_url": "https://api.github.com/repos/PrismarineJS/mineflayer-pathfinder/git/commits{/sha}",
            "git_refs_url": "https://api.github.com/repos/PrismarineJS/mineflayer-pathfinder/git/refs{/sha}",
            "git_tags_url": "https://api.github.com/repos/PrismarineJS/mineflayer-pathfinder/git/tags{/sha}",
            "git_url": "git://github.com/PrismarineJS/mineflayer-pathfinder.git",
            "has_discussions": false,
            "has_downloads": true,
            "has_issues": true,
            "has_pages": false,
            "has_projects": true,
            "has_wiki": true,
            "homepage": "",
            "hooks_url": "https://api.github.com/repos/PrismarineJS/mineflayer-pathfinder/hooks",
            "html_url": "https://github.com/PrismarineJS/mineflayer-pathfinder",
            "id": 257460120,
            "is_template": false,
            "issue_comment_url": "https://api.github.com/repos/PrismarineJS/mineflayer-pathfinder/issues/comments{/number}",
            "issue_events_url": "https://api.github.com/repos/PrismarineJS/mineflayer-pathfinder/issues/events{/number}",
            "issues_url": "https://api.github.com/repos/PrismarineJS/mineflayer-pathfinder/issues{/number}",
            "keys_url": "https://api.github.com/repos/PrismarineJS/mineflayer-pathfinder/keys{/key_id}",
            "labels_url": "https://api.github.com/repos/PrismarineJS/mineflayer-pathfinder/labels{/name}",
            "language": "JavaScript",
            "languages_url": "https://api.github.com/repos/PrismarineJS/mineflayer-pathfinder/languages",
            "license": {
                "key": "mit",
                "name": "MIT License",
                "node_id": "MDc6TGljZW5zZTEz",
                "spdx_id": "MIT",
                "url": "https://api.github.com/licenses/mit"
            },
            "merges_url": "https://api.github.com/repos/PrismarineJS/mineflayer-pathfinder/merges",
            "milestones_url": "https://api.github.com/repos/PrismarineJS/mineflayer-pathfinder/milestones{/number}",
            "mirror_url": null,
            "name": "mineflayer-pathfinder",
            "node_id": "MDEwOlJlcG9zaXRvcnkyNTc0NjAxMjA=",
            "notifications_url": "https://api.github.com/repos/PrismarineJS/mineflayer-pathfinder/notifications{?since,all,participating}",
            "open_issues": 31,
            "open_issues_count": 31,
            "owner": {
                "avatar_url": "https://avatars.githubusercontent.com/u/11053411?v=4",
                "events_url": "https://api.github.com/users/PrismarineJS/events{/privacy}",
                "followers_url": "https://api.github.com/users/PrismarineJS/followers",
                "following_url": "https://api.github.com/users/PrismarineJS/following{/other_user}",
                "gists_url": "https://api.github.com/users/PrismarineJS/gists{/gist_id}",
                "gravatar_id": "",
                "html_url": "https://github.com/PrismarineJS",
                "id": 11053411,
                "login": "PrismarineJS",
                "node_id": "MDEyOk9yZ2FuaXphdGlvbjExMDUzNDEx",
                "organizations_url": "https://api.github.com/users/PrismarineJS/orgs",
                "received_events_url": "https://api.github.com/users/PrismarineJS/received_events",
                "repos_url": "https://api.github.com/users/PrismarineJS/repos",
                "site_admin": false,
                "starred_url": "https://api.github.com/users/PrismarineJS/starred{/owner}{/repo}",
                "subscriptions_url": "https://api.github.com/users/PrismarineJS/subscriptions",
                "type": "Organization",
                "url": "https://api.github.com/users/PrismarineJS"
            },
            "private": false,
            "pulls_url": "https://api.github.com/repos/PrismarineJS/mineflayer-pathfinder/pulls{/number}",
            "pushed_at": "2023-04-08T17:24:12Z",
            "releases_url": "https://api.github.com/repos/PrismarineJS/mineflayer-pathfinder/releases{/id}",
            "size": 321,
            "ssh_url": "git@github.com:PrismarineJS/mineflayer-pathfinder.git",
            "stargazers_count": 152,
            "stargazers_url": "https://api.github.com/repos/PrismarineJS/mineflayer-pathfinder/stargazers",
            "statuses_url": "https://api.github.com/repos/PrismarineJS/mineflayer-pathfinder/statuses/{sha}",
            "subscribers_url": "https://api.github.com/repos/PrismarineJS/mineflayer-pathfinder/subscribers",
            "subscription_url": "https://api.github.com/repos/PrismarineJS/mineflayer-pathfinder/subscription",
            "svn_url": "https://github.com/PrismarineJS/mineflayer-pathfinder",
            "tags_url": "https://api.github.com/repos/PrismarineJS/mineflayer-pathfinder/tags",
            "teams_url": "https://api.github.com/repos/PrismarineJS/mineflayer-pathfinder/teams",
            "topics": [
                "bot",
                "minecraft",
                "pathfinding"
            ],
            "trees_url": "https://api.github.com/repos/PrismarineJS/mineflayer-pathfinder/git/trees{/sha}",
            "updated_at": "2023-04-23T22:24:23Z",
            "url": "https://api.github.com/repos/PrismarineJS/mineflayer-pathfinder",
            "visibility": "public",
            "watchers": 152,
            "watchers_count": 152,
            "web_commit_signoff_required": false
        },
        "sha": "a5968619e5b046150eccad335ed63a8239b00166",
        "user": {
            "avatar_url": "https://avatars.githubusercontent.com/u/11053411?v=4",
            "events_url": "https://api.github.com/users/PrismarineJS/events{/privacy}",
            "followers_url": "https://api.github.com/users/PrismarineJS/followers",
            "following_url": "https://api.github.com/users/PrismarineJS/following{/other_user}",
            "gists_url": "https://api.github.com/users/PrismarineJS/gists{/gist_id}",
            "gravatar_id": "",
            "html_url": "https://github.com/PrismarineJS",
            "id": 11053411,
            "login": "PrismarineJS",
            "node_id": "MDEyOk9yZ2FuaXphdGlvbjExMDUzNDEx",
            "organizations_url": "https://api.github.com/users/PrismarineJS/orgs",
            "received_events_url": "https://api.github.com/users/PrismarineJS/received_events",
            "repos_url": "https://api.github.com/users/PrismarineJS/repos",
            "site_admin": false,
            "starred_url": "https://api.github.com/users/PrismarineJS/starred{/owner}{/repo}",
            "subscriptions_url": "https://api.github.com/users/PrismarineJS/subscriptions",
            "type": "Organization",
            "url": "https://api.github.com/users/PrismarineJS"
        }
    },
    "body": "I was wondering why hoes dont get picked to harvest leaves and noticed those arguments were set to false while you can easily fix it",
    "changed_files": 1,
    "closed_at": "2021-06-21T17:30:06Z",
    "comment_data": [],
    "comment_regular_data": [
        {
            "author_association": "MEMBER",
            "body": "lgtm, what do you think @Karang ?",
            "created_at": "2021-06-19T15:06:30Z",
            "html_url": "https://github.com/PrismarineJS/mineflayer-pathfinder/pull/169#issuecomment-864418269",
            "id": 864418269,
            "issue_url": "https://api.github.com/repos/PrismarineJS/mineflayer-pathfinder/issues/169",
            "node_id": "MDEyOklzc3VlQ29tbWVudDg2NDQxODI2OQ==",
            "performed_via_github_app": null,
            "reactions": {
                "+1": 0,
                "-1": 0,
                "confused": 0,
                "eyes": 0,
                "heart": 0,
                "hooray": 0,
                "laugh": 0,
                "rocket": 0,
                "total_count": 0,
                "url": "https://api.github.com/repos/PrismarineJS/mineflayer-pathfinder/issues/comments/864418269/reactions"
            },
            "updated_at": "2021-06-19T15:06:30Z",
            "url": "https://api.github.com/repos/PrismarineJS/mineflayer-pathfinder/issues/comments/864418269",
            "user": {
                "avatar_url": "https://avatars.githubusercontent.com/u/2346494?v=4",
                "events_url": "https://api.github.com/users/rom1504/events{/privacy}",
                "followers_url": "https://api.github.com/users/rom1504/followers",
                "following_url": "https://api.github.com/users/rom1504/following{/other_user}",
                "gists_url": "https://api.github.com/users/rom1504/gists{/gist_id}",
                "gravatar_id": "",
                "html_url": "https://github.com/rom1504",
                "id": 2346494,
                "login": "rom1504",
                "node_id": "MDQ6VXNlcjIzNDY0OTQ=",
                "organizations_url": "https://api.github.com/users/rom1504/orgs",
                "received_events_url": "https://api.github.com/users/rom1504/received_events",
                "repos_url": "https://api.github.com/users/rom1504/repos",
                "site_admin": false,
                "starred_url": "https://api.github.com/users/rom1504/starred{/owner}{/repo}",
                "subscriptions_url": "https://api.github.com/users/rom1504/subscriptions",
                "type": "User",
                "url": "https://api.github.com/users/rom1504"
            }
        },
        {
            "author_association": "MEMBER",
            "body": "Those arguments were set to false because their value doesn't matter for the comparison. All of those parameters affect the computation in the same way, and we are not interested in the absolute value, but in the relative value for the comparison.\r\nI don't see how this relate to hoe not being picked ? This issue is more likely to be a problem in mcData material hardness values for hoes.",
            "created_at": "2021-06-21T11:49:53Z",
            "html_url": "https://github.com/PrismarineJS/mineflayer-pathfinder/pull/169#issuecomment-864970150",
            "id": 864970150,
            "issue_url": "https://api.github.com/repos/PrismarineJS/mineflayer-pathfinder/issues/169",
            "node_id": "MDEyOklzc3VlQ29tbWVudDg2NDk3MDE1MA==",
            "performed_via_github_app": null,
            "reactions": {
                "+1": 0,
                "-1": 0,
                "confused": 0,
                "eyes": 0,
                "heart": 0,
                "hooray": 0,
                "laugh": 0,
                "rocket": 0,
                "total_count": 0,
                "url": "https://api.github.com/repos/PrismarineJS/mineflayer-pathfinder/issues/comments/864970150/reactions"
            },
            "updated_at": "2021-06-21T11:49:53Z",
            "url": "https://api.github.com/repos/PrismarineJS/mineflayer-pathfinder/issues/comments/864970150",
            "user": {
                "avatar_url": "https://avatars.githubusercontent.com/u/1977472?v=4",
                "events_url": "https://api.github.com/users/Karang/events{/privacy}",
                "followers_url": "https://api.github.com/users/Karang/followers",
                "following_url": "https://api.github.com/users/Karang/following{/other_user}",
                "gists_url": "https://api.github.com/users/Karang/gists{/gist_id}",
                "gravatar_id": "",
                "html_url": "https://github.com/Karang",
                "id": 1977472,
                "login": "Karang",
                "node_id": "MDQ6VXNlcjE5Nzc0NzI=",
                "organizations_url": "https://api.github.com/users/Karang/orgs",
                "received_events_url": "https://api.github.com/users/Karang/received_events",
                "repos_url": "https://api.github.com/users/Karang/repos",
                "site_admin": false,
                "starred_url": "https://api.github.com/users/Karang/starred{/owner}{/repo}",
                "subscriptions_url": "https://api.github.com/users/Karang/subscriptions",
                "type": "User",
                "url": "https://api.github.com/users/Karang"
            }
        },
        {
            "author_association": "NONE",
            "body": "> Those arguments were set to false because their value doesn't matter for the comparison. All of those parameters affect the computation in the same way, and we are not interested in the absolute value, but in the relative value for the comparison.\r\n> I don't see how this relate to hoe not being picked ? This issue is more likely to be a problem in mcData material hardness values for hoes.\r\n\r\nI know those \"fixes\" are not related to hoes not being picked, i just saw it and wondered why it was set to false :) them i just \"fixed\" it because \"why not?\"\r\n\r\nBut if \"their value doesn't matter for the comparison\", them, ok ¯\\\\_(ツ)_/¯",
            "created_at": "2021-06-21T12:16:23Z",
            "html_url": "https://github.com/PrismarineJS/mineflayer-pathfinder/pull/169#issuecomment-864986119",
            "id": 864986119,
            "issue_url": "https://api.github.com/repos/PrismarineJS/mineflayer-pathfinder/issues/169",
            "node_id": "MDEyOklzc3VlQ29tbWVudDg2NDk4NjExOQ==",
            "performed_via_github_app": null,
            "reactions": {
                "+1": 0,
                "-1": 0,
                "confused": 0,
                "eyes": 0,
                "heart": 0,
                "hooray": 0,
                "laugh": 0,
                "rocket": 0,
                "total_count": 0,
                "url": "https://api.github.com/repos/PrismarineJS/mineflayer-pathfinder/issues/comments/864986119/reactions"
            },
            "updated_at": "2021-06-21T12:16:48Z",
            "url": "https://api.github.com/repos/PrismarineJS/mineflayer-pathfinder/issues/comments/864986119",
            "user": {
                "avatar_url": "https://avatars.githubusercontent.com/u/34813889?v=4",
                "events_url": "https://api.github.com/users/adrianfuchs/events{/privacy}",
                "followers_url": "https://api.github.com/users/adrianfuchs/followers",
                "following_url": "https://api.github.com/users/adrianfuchs/following{/other_user}",
                "gists_url": "https://api.github.com/users/adrianfuchs/gists{/gist_id}",
                "gravatar_id": "",
                "html_url": "https://github.com/adrianfuchs",
                "id": 34813889,
                "login": "adrianfuchs",
                "node_id": "MDQ6VXNlcjM0ODEzODg5",
                "organizations_url": "https://api.github.com/users/adrianfuchs/orgs",
                "received_events_url": "https://api.github.com/users/adrianfuchs/received_events",
                "repos_url": "https://api.github.com/users/adrianfuchs/repos",
                "site_admin": false,
                "starred_url": "https://api.github.com/users/adrianfuchs/starred{/owner}{/repo}",
                "subscriptions_url": "https://api.github.com/users/adrianfuchs/subscriptions",
                "type": "User",
                "url": "https://api.github.com/users/adrianfuchs"
            }
        }
    ],
    "comments": 3,
    "comments_url": "https://api.github.com/repos/PrismarineJS/mineflayer-pathfinder/issues/169/comments",
    "commit_data": [
        {
            "author": {
                "avatar_url": "https://avatars.githubusercontent.com/u/34813889?v=4",
                "events_url": "https://api.github.com/users/adrianfuchs/events{/privacy}",
                "followers_url": "https://api.github.com/users/adrianfuchs/followers",
                "following_url": "https://api.github.com/users/adrianfuchs/following{/other_user}",
                "gists_url": "https://api.github.com/users/adrianfuchs/gists{/gist_id}",
                "gravatar_id": "",
                "html_url": "https://github.com/adrianfuchs",
                "id": 34813889,
                "login": "adrianfuchs",
                "node_id": "MDQ6VXNlcjM0ODEzODg5",
                "organizations_url": "https://api.github.com/users/adrianfuchs/orgs",
                "received_events_url": "https://api.github.com/users/adrianfuchs/received_events",
                "repos_url": "https://api.github.com/users/adrianfuchs/repos",
                "site_admin": false,
                "starred_url": "https://api.github.com/users/adrianfuchs/starred{/owner}{/repo}",
                "subscriptions_url": "https://api.github.com/users/adrianfuchs/subscriptions",
                "type": "User",
                "url": "https://api.github.com/users/adrianfuchs"
            },
            "comments_url": "https://api.github.com/repos/PrismarineJS/mineflayer-pathfinder/commits/402b9c273f54399c648b5b8e840db9d70af6e8e2/comments",
            "commit": {
                "author": {
                    "date": "2021-06-17T13:40:06Z",
                    "email": "34813889+adrianfuchs@users.noreply.github.com",
                    "name": "Fuchs"
                },
                "comment_count": 0,
                "committer": {
                    "date": "2021-06-17T13:40:06Z",
                    "email": "noreply@github.com",
                    "name": "GitHub"
                },
                "message": "Update index.js\n\nI was wondering why hoes dont get picked to harvest leaves and noticed those arguments were set to false while you can easily fix it",
                "tree": {
                    "sha": "5707e54088ed53f193191e80029e0658fd1b0876",
                    "url": "https://api.github.com/repos/PrismarineJS/mineflayer-pathfinder/git/trees/5707e54088ed53f193191e80029e0658fd1b0876"
                },
                "url": "https://api.github.com/repos/PrismarineJS/mineflayer-pathfinder/git/commits/402b9c273f54399c648b5b8e840db9d70af6e8e2",
                "verification": {
                    "payload": "tree 5707e54088ed53f193191e80029e0658fd1b0876\nparent a5968619e5b046150eccad335ed63a8239b00166\nauthor Fuchs <34813889+adrianfuchs@users.noreply.github.com> 1623937206 -0300\ncommitter GitHub <noreply@github.com> 1623937206 -0300\n\nUpdate index.js\n\nI was wondering why hoes dont get picked to harvest leaves and noticed those arguments were set to false while you can easily fix it",
                    "reason": "valid",
                    "signature": "-----BEGIN PGP SIGNATURE-----\n\nwsBcBAABCAAQBQJgy1C2CRBK7hj4Ov3rIwAA7joIAEftPaW5E3tSwJIi4LJBxAba\n8OOLQJsNDzZZKTDQMUkaj8g3vjmSV6EcFklc/vmaNaC3VmCDrbc575Mpiyr080ym\nCS6gm00tLD06y5j2IjdttZH9fp/+RcrFWcxMFSKx44G4/MRx3TYIBJJ5GAQ7gT5G\nKqTuxNMPRYRCcY7QRCu5LkEiuUcZZimFxHvjS/+ro660EUsbbz3G1KqoIS1uh9Dy\nN2Q70+k6M69G6qbQKXDKvFUJao3gwG6ivVY/+Gsd1M9u+5FvR6RKymFEjylSRHPH\n+0y3JMej92mucUL9fjfD0QnhyoRCSW9c6ftSmohWFjZCy+NrDqJWCBlKmnSPYus=\n=1ZWf\n-----END PGP SIGNATURE-----\n",
                    "verified": true
                }
            },
            "committer": {
                "avatar_url": "https://avatars.githubusercontent.com/u/19864447?v=4",
                "events_url": "https://api.github.com/users/web-flow/events{/privacy}",
                "followers_url": "https://api.github.com/users/web-flow/followers",
                "following_url": "https://api.github.com/users/web-flow/following{/other_user}",
                "gists_url": "https://api.github.com/users/web-flow/gists{/gist_id}",
                "gravatar_id": "",
                "html_url": "https://github.com/web-flow",
                "id": 19864447,
                "login": "web-flow",
                "node_id": "MDQ6VXNlcjE5ODY0NDQ3",
                "organizations_url": "https://api.github.com/users/web-flow/orgs",
                "received_events_url": "https://api.github.com/users/web-flow/received_events",
                "repos_url": "https://api.github.com/users/web-flow/repos",
                "site_admin": false,
                "starred_url": "https://api.github.com/users/web-flow/starred{/owner}{/repo}",
                "subscriptions_url": "https://api.github.com/users/web-flow/subscriptions",
                "type": "User",
                "url": "https://api.github.com/users/web-flow"
            },
            "html_url": "https://github.com/PrismarineJS/mineflayer-pathfinder/commit/402b9c273f54399c648b5b8e840db9d70af6e8e2",
            "node_id": "MDY6Q29tbWl0Mzc3ODQwMjgwOjQwMmI5YzI3M2Y1NDM5OWM2NDhiNWI4ZTg0MGRiOWQ3MGFmNmU4ZTI=",
            "parents": [
                {
                    "html_url": "https://github.com/PrismarineJS/mineflayer-pathfinder/commit/a5968619e5b046150eccad335ed63a8239b00166",
                    "sha": "a5968619e5b046150eccad335ed63a8239b00166",
                    "url": "https://api.github.com/repos/PrismarineJS/mineflayer-pathfinder/commits/a5968619e5b046150eccad335ed63a8239b00166"
                }
            ],
            "sha": "402b9c273f54399c648b5b8e840db9d70af6e8e2",
            "url": "https://api.github.com/repos/PrismarineJS/mineflayer-pathfinder/commits/402b9c273f54399c648b5b8e840db9d70af6e8e2"
        }
    ],
    "commits": 1,
    "commits_url": "https://api.github.com/repos/PrismarineJS/mineflayer-pathfinder/pulls/169/commits",
    "created_at": "2021-06-17T13:59:59Z",
    "deletions": 1,
    "diff_url": "https://github.com/PrismarineJS/mineflayer-pathfinder/pull/169.diff",
    "draft": false,
    "head": {
        "label": "adrianfuchs:patch-1",
        "ref": "patch-1",
        "repo": {
            "allow_forking": true,
            "archive_url": "https://api.github.com/repos/adrianfuchs/mineflayer-pathfinder/{archive_format}{/ref}",
            "archived": false,
            "assignees_url": "https://api.github.com/repos/adrianfuchs/mineflayer-pathfinder/assignees{/user}",
            "blobs_url": "https://api.github.com/repos/adrianfuchs/mineflayer-pathfinder/git/blobs{/sha}",
            "branches_url": "https://api.github.com/repos/adrianfuchs/mineflayer-pathfinder/branches{/branch}",
            "clone_url": "https://github.com/adrianfuchs/mineflayer-pathfinder.git",
            "collaborators_url": "https://api.github.com/repos/adrianfuchs/mineflayer-pathfinder/collaborators{/collaborator}",
            "comments_url": "https://api.github.com/repos/adrianfuchs/mineflayer-pathfinder/comments{/number}",
            "commits_url": "https://api.github.com/repos/adrianfuchs/mineflayer-pathfinder/commits{/sha}",
            "compare_url": "https://api.github.com/repos/adrianfuchs/mineflayer-pathfinder/compare/{base}...{head}",
            "contents_url": "https://api.github.com/repos/adrianfuchs/mineflayer-pathfinder/contents/{+path}",
            "contributors_url": "https://api.github.com/repos/adrianfuchs/mineflayer-pathfinder/contributors",
            "created_at": "2021-06-17T13:28:51Z",
            "default_branch": "master",
            "deployments_url": "https://api.github.com/repos/adrianfuchs/mineflayer-pathfinder/deployments",
            "description": "Pathfinding plugin that gives bot the ability to go from A to B",
            "disabled": false,
            "downloads_url": "https://api.github.com/repos/adrianfuchs/mineflayer-pathfinder/downloads",
            "events_url": "https://api.github.com/repos/adrianfuchs/mineflayer-pathfinder/events",
            "fork": true,
            "forks": 0,
            "forks_count": 0,
            "forks_url": "https://api.github.com/repos/adrianfuchs/mineflayer-pathfinder/forks",
            "full_name": "adrianfuchs/mineflayer-pathfinder",
            "git_commits_url": "https://api.github.com/repos/adrianfuchs/mineflayer-pathfinder/git/commits{/sha}",
            "git_refs_url": "https://api.github.com/repos/adrianfuchs/mineflayer-pathfinder/git/refs{/sha}",
            "git_tags_url": "https://api.github.com/repos/adrianfuchs/mineflayer-pathfinder/git/tags{/sha}",
            "git_url": "git://github.com/adrianfuchs/mineflayer-pathfinder.git",
            "has_discussions": false,
            "has_downloads": true,
            "has_issues": false,
            "has_pages": false,
            "has_projects": true,
            "has_wiki": true,
            "homepage": "",
            "hooks_url": "https://api.github.com/repos/adrianfuchs/mineflayer-pathfinder/hooks",
            "html_url": "https://github.com/adrianfuchs/mineflayer-pathfinder",
            "id": 377840280,
            "is_template": false,
            "issue_comment_url": "https://api.github.com/repos/adrianfuchs/mineflayer-pathfinder/issues/comments{/number}",
            "issue_events_url": "https://api.github.com/repos/adrianfuchs/mineflayer-pathfinder/issues/events{/number}",
            "issues_url": "https://api.github.com/repos/adrianfuchs/mineflayer-pathfinder/issues{/number}",
            "keys_url": "https://api.github.com/repos/adrianfuchs/mineflayer-pathfinder/keys{/key_id}",
            "labels_url": "https://api.github.com/repos/adrianfuchs/mineflayer-pathfinder/labels{/name}",
            "language": null,
            "languages_url": "https://api.github.com/repos/adrianfuchs/mineflayer-pathfinder/languages",
            "license": {
                "key": "mit",
                "name": "MIT License",
                "node_id": "MDc6TGljZW5zZTEz",
                "spdx_id": "MIT",
                "url": "https://api.github.com/licenses/mit"
            },
            "merges_url": "https://api.github.com/repos/adrianfuchs/mineflayer-pathfinder/merges",
            "milestones_url": "https://api.github.com/repos/adrianfuchs/mineflayer-pathfinder/milestones{/number}",
            "mirror_url": null,
            "name": "mineflayer-pathfinder",
            "node_id": "MDEwOlJlcG9zaXRvcnkzNzc4NDAyODA=",
            "notifications_url": "https://api.github.com/repos/adrianfuchs/mineflayer-pathfinder/notifications{?since,all,participating}",
            "open_issues": 0,
            "open_issues_count": 0,
            "owner": {
                "avatar_url": "https://avatars.githubusercontent.com/u/34813889?v=4",
                "events_url": "https://api.github.com/users/adrianfuchs/events{/privacy}",
                "followers_url": "https://api.github.com/users/adrianfuchs/followers",
                "following_url": "https://api.github.com/users/adrianfuchs/following{/other_user}",
                "gists_url": "https://api.github.com/users/adrianfuchs/gists{/gist_id}",
                "gravatar_id": "",
                "html_url": "https://github.com/adrianfuchs",
                "id": 34813889,
                "login": "adrianfuchs",
                "node_id": "MDQ6VXNlcjM0ODEzODg5",
                "organizations_url": "https://api.github.com/users/adrianfuchs/orgs",
                "received_events_url": "https://api.github.com/users/adrianfuchs/received_events",
                "repos_url": "https://api.github.com/users/adrianfuchs/repos",
                "site_admin": false,
                "starred_url": "https://api.github.com/users/adrianfuchs/starred{/owner}{/repo}",
                "subscriptions_url": "https://api.github.com/users/adrianfuchs/subscriptions",
                "type": "User",
                "url": "https://api.github.com/users/adrianfuchs"
            },
            "private": false,
            "pulls_url": "https://api.github.com/repos/adrianfuchs/mineflayer-pathfinder/pulls{/number}",
            "pushed_at": "2021-06-17T13:40:06Z",
            "releases_url": "https://api.github.com/repos/adrianfuchs/mineflayer-pathfinder/releases{/id}",
            "size": 204,
            "ssh_url": "git@github.com:adrianfuchs/mineflayer-pathfinder.git",
            "stargazers_count": 0,
            "stargazers_url": "https://api.github.com/repos/adrianfuchs/mineflayer-pathfinder/stargazers",
            "statuses_url": "https://api.github.com/repos/adrianfuchs/mineflayer-pathfinder/statuses/{sha}",
            "subscribers_url": "https://api.github.com/repos/adrianfuchs/mineflayer-pathfinder/subscribers",
            "subscription_url": "https://api.github.com/repos/adrianfuchs/mineflayer-pathfinder/subscription",
            "svn_url": "https://github.com/adrianfuchs/mineflayer-pathfinder",
            "tags_url": "https://api.github.com/repos/adrianfuchs/mineflayer-pathfinder/tags",
            "teams_url": "https://api.github.com/repos/adrianfuchs/mineflayer-pathfinder/teams",
            "topics": [],
            "trees_url": "https://api.github.com/repos/adrianfuchs/mineflayer-pathfinder/git/trees{/sha}",
            "updated_at": "2021-08-29T18:09:39Z",
            "url": "https://api.github.com/repos/adrianfuchs/mineflayer-pathfinder",
            "visibility": "public",
            "watchers": 0,
            "watchers_count": 0,
            "web_commit_signoff_required": false
        },
        "sha": "402b9c273f54399c648b5b8e840db9d70af6e8e2",
        "user": {
            "avatar_url": "https://avatars.githubusercontent.com/u/34813889?v=4",
            "events_url": "https://api.github.com/users/adrianfuchs/events{/privacy}",
            "followers_url": "https://api.github.com/users/adrianfuchs/followers",
            "following_url": "https://api.github.com/users/adrianfuchs/following{/other_user}",
            "gists_url": "https://api.github.com/users/adrianfuchs/gists{/gist_id}",
            "gravatar_id": "",
            "html_url": "https://github.com/adrianfuchs",
            "id": 34813889,
            "login": "adrianfuchs",
            "node_id": "MDQ6VXNlcjM0ODEzODg5",
            "organizations_url": "https://api.github.com/users/adrianfuchs/orgs",
            "received_events_url": "https://api.github.com/users/adrianfuchs/received_events",
            "repos_url": "https://api.github.com/users/adrianfuchs/repos",
            "site_admin": false,
            "starred_url": "https://api.github.com/users/adrianfuchs/starred{/owner}{/repo}",
            "subscriptions_url": "https://api.github.com/users/adrianfuchs/subscriptions",
            "type": "User",
            "url": "https://api.github.com/users/adrianfuchs"
        }
    },
    "html_url": "https://github.com/PrismarineJS/mineflayer-pathfinder/pull/169",
    "id": 672664251,
    "issue_url": "https://api.github.com/repos/PrismarineJS/mineflayer-pathfinder/issues/169",
    "labels": [],
    "locked": false,
    "maintainer_can_modify": false,
    "merge_commit_sha": "bcdc566af8c2baee17fc28d2e404907f8e4736b8",
    "mergeable": null,
    "mergeable_state": "unknown",
    "merged": false,
    "merged_at": null,
    "merged_by": null,
    "milestone": null,
    "node_id": "MDExOlB1bGxSZXF1ZXN0NjcyNjY0MjUx",
    "number": 169,
    "patch_url": "https://github.com/PrismarineJS/mineflayer-pathfinder/pull/169.patch",
    "rebaseable": null,
    "requested_reviewers": [
        {
            "avatar_url": "https://avatars.githubusercontent.com/u/1977472?v=4",
            "events_url": "https://api.github.com/users/Karang/events{/privacy}",
            "followers_url": "https://api.github.com/users/Karang/followers",
            "following_url": "https://api.github.com/users/Karang/following{/other_user}",
            "gists_url": "https://api.github.com/users/Karang/gists{/gist_id}",
            "gravatar_id": "",
            "html_url": "https://github.com/Karang",
            "id": 1977472,
            "login": "Karang",
            "node_id": "MDQ6VXNlcjE5Nzc0NzI=",
            "organizations_url": "https://api.github.com/users/Karang/orgs",
            "received_events_url": "https://api.github.com/users/Karang/received_events",
            "repos_url": "https://api.github.com/users/Karang/repos",
            "site_admin": false,
            "starred_url": "https://api.github.com/users/Karang/starred{/owner}{/repo}",
            "subscriptions_url": "https://api.github.com/users/Karang/subscriptions",
            "type": "User",
            "url": "https://api.github.com/users/Karang"
        }
    ],
    "requested_teams": [],
    "review_comment_url": "https://api.github.com/repos/PrismarineJS/mineflayer-pathfinder/pulls/comments{/number}",
    "review_comments": 0,
    "review_comments_url": "https://api.github.com/repos/PrismarineJS/mineflayer-pathfinder/pulls/169/comments",
    "state": "closed",
    "statuses_url": "https://api.github.com/repos/PrismarineJS/mineflayer-pathfinder/statuses/402b9c273f54399c648b5b8e840db9d70af6e8e2",
    "title": "Update index.js",
    "updated_at": "2021-06-21T17:30:06Z",
    "url": "https://api.github.com/repos/PrismarineJS/mineflayer-pathfinder/pulls/169",
    "user": {
        "avatar_url": "https://avatars.githubusercontent.com/u/34813889?v=4",
        "events_url": "https://api.github.com/users/adrianfuchs/events{/privacy}",
        "followers_url": "https://api.github.com/users/adrianfuchs/followers",
        "following_url": "https://api.github.com/users/adrianfuchs/following{/other_user}",
        "gists_url": "https://api.github.com/users/adrianfuchs/gists{/gist_id}",
        "gravatar_id": "",
        "html_url": "https://github.com/adrianfuchs",
        "id": 34813889,
        "login": "adrianfuchs",
        "node_id": "MDQ6VXNlcjM0ODEzODg5",
        "organizations_url": "https://api.github.com/users/adrianfuchs/orgs",
        "received_events_url": "https://api.github.com/users/adrianfuchs/received_events",
        "repos_url": "https://api.github.com/users/adrianfuchs/repos",
        "site_admin": false,
        "starred_url": "https://api.github.com/users/adrianfuchs/starred{/owner}{/repo}",
        "subscriptions_url": "https://api.github.com/users/adrianfuchs/subscriptions",
        "type": "User",
        "url": "https://api.github.com/users/adrianfuchs"
    }
}