{
    "_links": {
        "comments": {
            "href": "https://api.github.com/repos/PrismarineJS/mineflayer-pathfinder/issues/63/comments"
        },
        "commits": {
            "href": "https://api.github.com/repos/PrismarineJS/mineflayer-pathfinder/pulls/63/commits"
        },
        "html": {
            "href": "https://github.com/PrismarineJS/mineflayer-pathfinder/pull/63"
        },
        "issue": {
            "href": "https://api.github.com/repos/PrismarineJS/mineflayer-pathfinder/issues/63"
        },
        "review_comment": {
            "href": "https://api.github.com/repos/PrismarineJS/mineflayer-pathfinder/pulls/comments{/number}"
        },
        "review_comments": {
            "href": "https://api.github.com/repos/PrismarineJS/mineflayer-pathfinder/pulls/63/comments"
        },
        "self": {
            "href": "https://api.github.com/repos/PrismarineJS/mineflayer-pathfinder/pulls/63"
        },
        "statuses": {
            "href": "https://api.github.com/repos/PrismarineJS/mineflayer-pathfinder/statuses/54683f51bf2790dc28c0175a8acf80d7c2aa87b2"
        }
    },
    "active_lock_reason": null,
    "additions": 1,
    "assignee": null,
    "assignees": [],
    "author_association": "MEMBER",
    "auto_merge": null,
    "base": {
        "label": "PrismarineJS:master",
        "ref": "master",
        "repo": {
            "allow_forking": true,
            "archive_url": "https://api.github.com/repos/PrismarineJS/mineflayer-pathfinder/{archive_format}{/ref}",
            "archived": false,
            "assignees_url": "https://api.github.com/repos/PrismarineJS/mineflayer-pathfinder/assignees{/user}",
            "blobs_url": "https://api.github.com/repos/PrismarineJS/mineflayer-pathfinder/git/blobs{/sha}",
            "branches_url": "https://api.github.com/repos/PrismarineJS/mineflayer-pathfinder/branches{/branch}",
            "clone_url": "https://github.com/PrismarineJS/mineflayer-pathfinder.git",
            "collaborators_url": "https://api.github.com/repos/PrismarineJS/mineflayer-pathfinder/collaborators{/collaborator}",
            "comments_url": "https://api.github.com/repos/PrismarineJS/mineflayer-pathfinder/comments{/number}",
            "commits_url": "https://api.github.com/repos/PrismarineJS/mineflayer-pathfinder/commits{/sha}",
            "compare_url": "https://api.github.com/repos/PrismarineJS/mineflayer-pathfinder/compare/{base}...{head}",
            "contents_url": "https://api.github.com/repos/PrismarineJS/mineflayer-pathfinder/contents/{+path}",
            "contributors_url": "https://api.github.com/repos/PrismarineJS/mineflayer-pathfinder/contributors",
            "created_at": "2020-04-21T02:34:23Z",
            "default_branch": "master",
            "deployments_url": "https://api.github.com/repos/PrismarineJS/mineflayer-pathfinder/deployments",
            "description": "Pathfinding plugin that gives bot the ability to go from A to B",
            "disabled": false,
            "downloads_url": "https://api.github.com/repos/PrismarineJS/mineflayer-pathfinder/downloads",
            "events_url": "https://api.github.com/repos/PrismarineJS/mineflayer-pathfinder/events",
            "fork": false,
            "forks": 52,
            "forks_count": 52,
            "forks_url": "https://api.github.com/repos/PrismarineJS/mineflayer-pathfinder/forks",
            "full_name": "PrismarineJS/mineflayer-pathfinder",
            "git_commits_url": "https://api.github.com/repos/PrismarineJS/mineflayer-pathfinder/git/commits{/sha}",
            "git_refs_url": "https://api.github.com/repos/PrismarineJS/mineflayer-pathfinder/git/refs{/sha}",
            "git_tags_url": "https://api.github.com/repos/PrismarineJS/mineflayer-pathfinder/git/tags{/sha}",
            "git_url": "git://github.com/PrismarineJS/mineflayer-pathfinder.git",
            "has_discussions": false,
            "has_downloads": true,
            "has_issues": true,
            "has_pages": false,
            "has_projects": true,
            "has_wiki": true,
            "homepage": "",
            "hooks_url": "https://api.github.com/repos/PrismarineJS/mineflayer-pathfinder/hooks",
            "html_url": "https://github.com/PrismarineJS/mineflayer-pathfinder",
            "id": 257460120,
            "is_template": false,
            "issue_comment_url": "https://api.github.com/repos/PrismarineJS/mineflayer-pathfinder/issues/comments{/number}",
            "issue_events_url": "https://api.github.com/repos/PrismarineJS/mineflayer-pathfinder/issues/events{/number}",
            "issues_url": "https://api.github.com/repos/PrismarineJS/mineflayer-pathfinder/issues{/number}",
            "keys_url": "https://api.github.com/repos/PrismarineJS/mineflayer-pathfinder/keys{/key_id}",
            "labels_url": "https://api.github.com/repos/PrismarineJS/mineflayer-pathfinder/labels{/name}",
            "language": "JavaScript",
            "languages_url": "https://api.github.com/repos/PrismarineJS/mineflayer-pathfinder/languages",
            "license": {
                "key": "mit",
                "name": "MIT License",
                "node_id": "MDc6TGljZW5zZTEz",
                "spdx_id": "MIT",
                "url": "https://api.github.com/licenses/mit"
            },
            "merges_url": "https://api.github.com/repos/PrismarineJS/mineflayer-pathfinder/merges",
            "milestones_url": "https://api.github.com/repos/PrismarineJS/mineflayer-pathfinder/milestones{/number}",
            "mirror_url": null,
            "name": "mineflayer-pathfinder",
            "node_id": "MDEwOlJlcG9zaXRvcnkyNTc0NjAxMjA=",
            "notifications_url": "https://api.github.com/repos/PrismarineJS/mineflayer-pathfinder/notifications{?since,all,participating}",
            "open_issues": 31,
            "open_issues_count": 31,
            "owner": {
                "avatar_url": "https://avatars.githubusercontent.com/u/11053411?v=4",
                "events_url": "https://api.github.com/users/PrismarineJS/events{/privacy}",
                "followers_url": "https://api.github.com/users/PrismarineJS/followers",
                "following_url": "https://api.github.com/users/PrismarineJS/following{/other_user}",
                "gists_url": "https://api.github.com/users/PrismarineJS/gists{/gist_id}",
                "gravatar_id": "",
                "html_url": "https://github.com/PrismarineJS",
                "id": 11053411,
                "login": "PrismarineJS",
                "node_id": "MDEyOk9yZ2FuaXphdGlvbjExMDUzNDEx",
                "organizations_url": "https://api.github.com/users/PrismarineJS/orgs",
                "received_events_url": "https://api.github.com/users/PrismarineJS/received_events",
                "repos_url": "https://api.github.com/users/PrismarineJS/repos",
                "site_admin": false,
                "starred_url": "https://api.github.com/users/PrismarineJS/starred{/owner}{/repo}",
                "subscriptions_url": "https://api.github.com/users/PrismarineJS/subscriptions",
                "type": "Organization",
                "url": "https://api.github.com/users/PrismarineJS"
            },
            "private": false,
            "pulls_url": "https://api.github.com/repos/PrismarineJS/mineflayer-pathfinder/pulls{/number}",
            "pushed_at": "2023-04-08T17:24:12Z",
            "releases_url": "https://api.github.com/repos/PrismarineJS/mineflayer-pathfinder/releases{/id}",
            "size": 321,
            "ssh_url": "git@github.com:PrismarineJS/mineflayer-pathfinder.git",
            "stargazers_count": 152,
            "stargazers_url": "https://api.github.com/repos/PrismarineJS/mineflayer-pathfinder/stargazers",
            "statuses_url": "https://api.github.com/repos/PrismarineJS/mineflayer-pathfinder/statuses/{sha}",
            "subscribers_url": "https://api.github.com/repos/PrismarineJS/mineflayer-pathfinder/subscribers",
            "subscription_url": "https://api.github.com/repos/PrismarineJS/mineflayer-pathfinder/subscription",
            "svn_url": "https://github.com/PrismarineJS/mineflayer-pathfinder",
            "tags_url": "https://api.github.com/repos/PrismarineJS/mineflayer-pathfinder/tags",
            "teams_url": "https://api.github.com/repos/PrismarineJS/mineflayer-pathfinder/teams",
            "topics": [
                "bot",
                "minecraft",
                "pathfinding"
            ],
            "trees_url": "https://api.github.com/repos/PrismarineJS/mineflayer-pathfinder/git/trees{/sha}",
            "updated_at": "2023-04-23T22:24:23Z",
            "url": "https://api.github.com/repos/PrismarineJS/mineflayer-pathfinder",
            "visibility": "public",
            "watchers": 152,
            "watchers_count": 152,
            "web_commit_signoff_required": false
        },
        "sha": "a7372b585c8d3ec4e8ff44ea2d521eccfd7bce28",
        "user": {
            "avatar_url": "https://avatars.githubusercontent.com/u/11053411?v=4",
            "events_url": "https://api.github.com/users/PrismarineJS/events{/privacy}",
            "followers_url": "https://api.github.com/users/PrismarineJS/followers",
            "following_url": "https://api.github.com/users/PrismarineJS/following{/other_user}",
            "gists_url": "https://api.github.com/users/PrismarineJS/gists{/gist_id}",
            "gravatar_id": "",
            "html_url": "https://github.com/PrismarineJS",
            "id": 11053411,
            "login": "PrismarineJS",
            "node_id": "MDEyOk9yZ2FuaXphdGlvbjExMDUzNDEx",
            "organizations_url": "https://api.github.com/users/PrismarineJS/orgs",
            "received_events_url": "https://api.github.com/users/PrismarineJS/received_events",
            "repos_url": "https://api.github.com/users/PrismarineJS/repos",
            "site_admin": false,
            "starred_url": "https://api.github.com/users/PrismarineJS/starred{/owner}{/repo}",
            "subscriptions_url": "https://api.github.com/users/PrismarineJS/subscriptions",
            "type": "Organization",
            "url": "https://api.github.com/users/PrismarineJS"
        }
    },
    "body": "",
    "changed_files": 1,
    "closed_at": "2020-11-04T14:05:51Z",
    "comment_data": [],
    "comment_regular_data": [
        {
            "author_association": "MEMBER",
            "body": "For next time:\r\n1. Would be nice to report changes relevant for users in a history.md\r\n2. There are new features in this release so it should be a minor release (1.1.0) and not a patch release",
            "created_at": "2020-11-04T14:26:57Z",
            "html_url": "https://github.com/PrismarineJS/mineflayer-pathfinder/pull/63#issuecomment-721762913",
            "id": 721762913,
            "issue_url": "https://api.github.com/repos/PrismarineJS/mineflayer-pathfinder/issues/63",
            "node_id": "MDEyOklzc3VlQ29tbWVudDcyMTc2MjkxMw==",
            "performed_via_github_app": null,
            "reactions": {
                "+1": 0,
                "-1": 0,
                "confused": 0,
                "eyes": 0,
                "heart": 0,
                "hooray": 0,
                "laugh": 0,
                "rocket": 0,
                "total_count": 0,
                "url": "https://api.github.com/repos/PrismarineJS/mineflayer-pathfinder/issues/comments/721762913/reactions"
            },
            "updated_at": "2020-11-04T14:26:57Z",
            "url": "https://api.github.com/repos/PrismarineJS/mineflayer-pathfinder/issues/comments/721762913",
            "user": {
                "avatar_url": "https://avatars.githubusercontent.com/u/2346494?v=4",
                "events_url": "https://api.github.com/users/rom1504/events{/privacy}",
                "followers_url": "https://api.github.com/users/rom1504/followers",
                "following_url": "https://api.github.com/users/rom1504/following{/other_user}",
                "gists_url": "https://api.github.com/users/rom1504/gists{/gist_id}",
                "gravatar_id": "",
                "html_url": "https://github.com/rom1504",
                "id": 2346494,
                "login": "rom1504",
                "node_id": "MDQ6VXNlcjIzNDY0OTQ=",
                "organizations_url": "https://api.github.com/users/rom1504/orgs",
                "received_events_url": "https://api.github.com/users/rom1504/received_events",
                "repos_url": "https://api.github.com/users/rom1504/repos",
                "site_admin": false,
                "starred_url": "https://api.github.com/users/rom1504/starred{/owner}{/repo}",
                "subscriptions_url": "https://api.github.com/users/rom1504/subscriptions",
                "type": "User",
                "url": "https://api.github.com/users/rom1504"
            }
        },
        {
            "author_association": "MEMBER",
            "body": "@rom1504 Ah, sorry. I'll update History in another PR",
            "created_at": "2020-11-04T14:28:03Z",
            "html_url": "https://github.com/PrismarineJS/mineflayer-pathfinder/pull/63#issuecomment-721763565",
            "id": 721763565,
            "issue_url": "https://api.github.com/repos/PrismarineJS/mineflayer-pathfinder/issues/63",
            "node_id": "MDEyOklzc3VlQ29tbWVudDcyMTc2MzU2NQ==",
            "performed_via_github_app": null,
            "reactions": {
                "+1": 0,
                "-1": 0,
                "confused": 0,
                "eyes": 0,
                "heart": 0,
                "hooray": 0,
                "laugh": 0,
                "rocket": 0,
                "total_count": 0,
                "url": "https://api.github.com/repos/PrismarineJS/mineflayer-pathfinder/issues/comments/721763565/reactions"
            },
            "updated_at": "2020-11-04T14:28:03Z",
            "url": "https://api.github.com/repos/PrismarineJS/mineflayer-pathfinder/issues/comments/721763565",
            "user": {
                "avatar_url": "https://avatars.githubusercontent.com/u/3118172?v=4",
                "events_url": "https://api.github.com/users/TheDudeFromCI/events{/privacy}",
                "followers_url": "https://api.github.com/users/TheDudeFromCI/followers",
                "following_url": "https://api.github.com/users/TheDudeFromCI/following{/other_user}",
                "gists_url": "https://api.github.com/users/TheDudeFromCI/gists{/gist_id}",
                "gravatar_id": "",
                "html_url": "https://github.com/TheDudeFromCI",
                "id": 3118172,
                "login": "TheDudeFromCI",
                "node_id": "MDQ6VXNlcjMxMTgxNzI=",
                "organizations_url": "https://api.github.com/users/TheDudeFromCI/orgs",
                "received_events_url": "https://api.github.com/users/TheDudeFromCI/received_events",
                "repos_url": "https://api.github.com/users/TheDudeFromCI/repos",
                "site_admin": false,
                "starred_url": "https://api.github.com/users/TheDudeFromCI/starred{/owner}{/repo}",
                "subscriptions_url": "https://api.github.com/users/TheDudeFromCI/subscriptions",
                "type": "User",
                "url": "https://api.github.com/users/TheDudeFromCI"
            }
        }
    ],
    "comments": 2,
    "comments_url": "https://api.github.com/repos/PrismarineJS/mineflayer-pathfinder/issues/63/comments",
    "commit_data": [
        {
            "author": {
                "avatar_url": "https://avatars.githubusercontent.com/u/3118172?v=4",
                "events_url": "https://api.github.com/users/TheDudeFromCI/events{/privacy}",
                "followers_url": "https://api.github.com/users/TheDudeFromCI/followers",
                "following_url": "https://api.github.com/users/TheDudeFromCI/following{/other_user}",
                "gists_url": "https://api.github.com/users/TheDudeFromCI/gists{/gist_id}",
                "gravatar_id": "",
                "html_url": "https://github.com/TheDudeFromCI",
                "id": 3118172,
                "login": "TheDudeFromCI",
                "node_id": "MDQ6VXNlcjMxMTgxNzI=",
                "organizations_url": "https://api.github.com/users/TheDudeFromCI/orgs",
                "received_events_url": "https://api.github.com/users/TheDudeFromCI/received_events",
                "repos_url": "https://api.github.com/users/TheDudeFromCI/repos",
                "site_admin": false,
                "starred_url": "https://api.github.com/users/TheDudeFromCI/starred{/owner}{/repo}",
                "subscriptions_url": "https://api.github.com/users/TheDudeFromCI/subscriptions",
                "type": "User",
                "url": "https://api.github.com/users/TheDudeFromCI"
            },
            "comments_url": "https://api.github.com/repos/PrismarineJS/mineflayer-pathfinder/commits/54683f51bf2790dc28c0175a8acf80d7c2aa87b2/comments",
            "commit": {
                "author": {
                    "date": "2020-11-04T13:59:33Z",
                    "email": "thedudefromci@gmail.com",
                    "name": "TheDudeFromCI"
                },
                "comment_count": 0,
                "committer": {
                    "date": "2020-11-04T13:59:33Z",
                    "email": "noreply@github.com",
                    "name": "GitHub"
                },
                "message": "Release 1.0.12",
                "tree": {
                    "sha": "9f3c9485e156fb533a49d32b23da797f959e1722",
                    "url": "https://api.github.com/repos/PrismarineJS/mineflayer-pathfinder/git/trees/9f3c9485e156fb533a49d32b23da797f959e1722"
                },
                "url": "https://api.github.com/repos/PrismarineJS/mineflayer-pathfinder/git/commits/54683f51bf2790dc28c0175a8acf80d7c2aa87b2",
                "verification": {
                    "payload": "tree 9f3c9485e156fb533a49d32b23da797f959e1722\nparent a7372b585c8d3ec4e8ff44ea2d521eccfd7bce28\nauthor TheDudeFromCI <thedudefromci@gmail.com> 1604498373 -0700\ncommitter GitHub <noreply@github.com> 1604498373 -0700\n\nRelease 1.0.12",
                    "reason": "valid",
                    "signature": "-----BEGIN PGP SIGNATURE-----\n\nwsBcBAABCAAQBQJforPFCRBK7hj4Ov3rIwAAdHIIAFIyBC85Jp3WyeCqPaOF2arE\n+CgjcKkLM4Rg2LXlTErKxUbG6Zg112zCKHOYoP0VTx6f4XxF9WSKsjUTrs5TmR+S\n4F36V8TM0D9x1edsUQnE4AjHmfDbn+e8IY5yGHX284VJhKFodxT3VSq+p0EbAEp4\nB3AHxbJCgmrl8QF0cWYygTTWpvg3/ZufjkrbYjAcGZsCGcRyMs9IE3iM1YPi4m/Q\nxQlgJGr9owNg5g7+bRTaaRI2zf9PK/5gBasmuQGAZds99pVrXcIylfRTaYUMTZRB\nTPb/V7UkK6CBo6u2dDHpP7myv/DXyFJEG0rK7GzhVYOxq+Wg6Ng9xnL9w7xoEHQ=\n=urWS\n-----END PGP SIGNATURE-----\n",
                    "verified": true
                }
            },
            "committer": {
                "avatar_url": "https://avatars.githubusercontent.com/u/19864447?v=4",
                "events_url": "https://api.github.com/users/web-flow/events{/privacy}",
                "followers_url": "https://api.github.com/users/web-flow/followers",
                "following_url": "https://api.github.com/users/web-flow/following{/other_user}",
                "gists_url": "https://api.github.com/users/web-flow/gists{/gist_id}",
                "gravatar_id": "",
                "html_url": "https://github.com/web-flow",
                "id": 19864447,
                "login": "web-flow",
                "node_id": "MDQ6VXNlcjE5ODY0NDQ3",
                "organizations_url": "https://api.github.com/users/web-flow/orgs",
                "received_events_url": "https://api.github.com/users/web-flow/received_events",
                "repos_url": "https://api.github.com/users/web-flow/repos",
                "site_admin": false,
                "starred_url": "https://api.github.com/users/web-flow/starred{/owner}{/repo}",
                "subscriptions_url": "https://api.github.com/users/web-flow/subscriptions",
                "type": "User",
                "url": "https://api.github.com/users/web-flow"
            },
            "html_url": "https://github.com/PrismarineJS/mineflayer-pathfinder/commit/54683f51bf2790dc28c0175a8acf80d7c2aa87b2",
            "node_id": "MDY6Q29tbWl0MjcxOTU5NjY0OjU0NjgzZjUxYmYyNzkwZGMyOGMwMTc1YThhY2Y4MGQ3YzJhYTg3YjI=",
            "parents": [
                {
                    "html_url": "https://github.com/PrismarineJS/mineflayer-pathfinder/commit/a7372b585c8d3ec4e8ff44ea2d521eccfd7bce28",
                    "sha": "a7372b585c8d3ec4e8ff44ea2d521eccfd7bce28",
                    "url": "https://api.github.com/repos/PrismarineJS/mineflayer-pathfinder/commits/a7372b585c8d3ec4e8ff44ea2d521eccfd7bce28"
                }
            ],
            "sha": "54683f51bf2790dc28c0175a8acf80d7c2aa87b2",
            "url": "https://api.github.com/repos/PrismarineJS/mineflayer-pathfinder/commits/54683f51bf2790dc28c0175a8acf80d7c2aa87b2"
        }
    ],
    "commits": 1,
    "commits_url": "https://api.github.com/repos/PrismarineJS/mineflayer-pathfinder/pulls/63/commits",
    "created_at": "2020-11-04T13:59:54Z",
    "deletions": 1,
    "diff_url": "https://github.com/PrismarineJS/mineflayer-pathfinder/pull/63.diff",
    "draft": false,
    "head": {
        "label": "TheDudeFromCI:patch-8",
        "ref": "patch-8",
        "repo": {
            "allow_forking": true,
            "archive_url": "https://api.github.com/repos/TheDudeFromCI/mineflayer-pathfinder/{archive_format}{/ref}",
            "archived": false,
            "assignees_url": "https://api.github.com/repos/TheDudeFromCI/mineflayer-pathfinder/assignees{/user}",
            "blobs_url": "https://api.github.com/repos/TheDudeFromCI/mineflayer-pathfinder/git/blobs{/sha}",
            "branches_url": "https://api.github.com/repos/TheDudeFromCI/mineflayer-pathfinder/branches{/branch}",
            "clone_url": "https://github.com/TheDudeFromCI/mineflayer-pathfinder.git",
            "collaborators_url": "https://api.github.com/repos/TheDudeFromCI/mineflayer-pathfinder/collaborators{/collaborator}",
            "comments_url": "https://api.github.com/repos/TheDudeFromCI/mineflayer-pathfinder/comments{/number}",
            "commits_url": "https://api.github.com/repos/TheDudeFromCI/mineflayer-pathfinder/commits{/sha}",
            "compare_url": "https://api.github.com/repos/TheDudeFromCI/mineflayer-pathfinder/compare/{base}...{head}",
            "contents_url": "https://api.github.com/repos/TheDudeFromCI/mineflayer-pathfinder/contents/{+path}",
            "contributors_url": "https://api.github.com/repos/TheDudeFromCI/mineflayer-pathfinder/contributors",
            "created_at": "2020-06-13T07:11:54Z",
            "default_branch": "master",
            "deployments_url": "https://api.github.com/repos/TheDudeFromCI/mineflayer-pathfinder/deployments",
            "description": null,
            "disabled": false,
            "downloads_url": "https://api.github.com/repos/TheDudeFromCI/mineflayer-pathfinder/downloads",
            "events_url": "https://api.github.com/repos/TheDudeFromCI/mineflayer-pathfinder/events",
            "fork": true,
            "forks": 0,
            "forks_count": 0,
            "forks_url": "https://api.github.com/repos/TheDudeFromCI/mineflayer-pathfinder/forks",
            "full_name": "TheDudeFromCI/mineflayer-pathfinder",
            "git_commits_url": "https://api.github.com/repos/TheDudeFromCI/mineflayer-pathfinder/git/commits{/sha}",
            "git_refs_url": "https://api.github.com/repos/TheDudeFromCI/mineflayer-pathfinder/git/refs{/sha}",
            "git_tags_url": "https://api.github.com/repos/TheDudeFromCI/mineflayer-pathfinder/git/tags{/sha}",
            "git_url": "git://github.com/TheDudeFromCI/mineflayer-pathfinder.git",
            "has_discussions": false,
            "has_downloads": true,
            "has_issues": false,
            "has_pages": false,
            "has_projects": true,
            "has_wiki": true,
            "homepage": null,
            "hooks_url": "https://api.github.com/repos/TheDudeFromCI/mineflayer-pathfinder/hooks",
            "html_url": "https://github.com/TheDudeFromCI/mineflayer-pathfinder",
            "id": 271959664,
            "is_template": false,
            "issue_comment_url": "https://api.github.com/repos/TheDudeFromCI/mineflayer-pathfinder/issues/comments{/number}",
            "issue_events_url": "https://api.github.com/repos/TheDudeFromCI/mineflayer-pathfinder/issues/events{/number}",
            "issues_url": "https://api.github.com/repos/TheDudeFromCI/mineflayer-pathfinder/issues{/number}",
            "keys_url": "https://api.github.com/repos/TheDudeFromCI/mineflayer-pathfinder/keys{/key_id}",
            "labels_url": "https://api.github.com/repos/TheDudeFromCI/mineflayer-pathfinder/labels{/name}",
            "language": "JavaScript",
            "languages_url": "https://api.github.com/repos/TheDudeFromCI/mineflayer-pathfinder/languages",
            "license": {
                "key": "mit",
                "name": "MIT License",
                "node_id": "MDc6TGljZW5zZTEz",
                "spdx_id": "MIT",
                "url": "https://api.github.com/licenses/mit"
            },
            "merges_url": "https://api.github.com/repos/TheDudeFromCI/mineflayer-pathfinder/merges",
            "milestones_url": "https://api.github.com/repos/TheDudeFromCI/mineflayer-pathfinder/milestones{/number}",
            "mirror_url": null,
            "name": "mineflayer-pathfinder",
            "node_id": "MDEwOlJlcG9zaXRvcnkyNzE5NTk2NjQ=",
            "notifications_url": "https://api.github.com/repos/TheDudeFromCI/mineflayer-pathfinder/notifications{?since,all,participating}",
            "open_issues": 0,
            "open_issues_count": 0,
            "owner": {
                "avatar_url": "https://avatars.githubusercontent.com/u/3118172?v=4",
                "events_url": "https://api.github.com/users/TheDudeFromCI/events{/privacy}",
                "followers_url": "https://api.github.com/users/TheDudeFromCI/followers",
                "following_url": "https://api.github.com/users/TheDudeFromCI/following{/other_user}",
                "gists_url": "https://api.github.com/users/TheDudeFromCI/gists{/gist_id}",
                "gravatar_id": "",
                "html_url": "https://github.com/TheDudeFromCI",
                "id": 3118172,
                "login": "TheDudeFromCI",
                "node_id": "MDQ6VXNlcjMxMTgxNzI=",
                "organizations_url": "https://api.github.com/users/TheDudeFromCI/orgs",
                "received_events_url": "https://api.github.com/users/TheDudeFromCI/received_events",
                "repos_url": "https://api.github.com/users/TheDudeFromCI/repos",
                "site_admin": false,
                "starred_url": "https://api.github.com/users/TheDudeFromCI/starred{/owner}{/repo}",
                "subscriptions_url": "https://api.github.com/users/TheDudeFromCI/subscriptions",
                "type": "User",
                "url": "https://api.github.com/users/TheDudeFromCI"
            },
            "private": false,
            "pulls_url": "https://api.github.com/repos/TheDudeFromCI/mineflayer-pathfinder/pulls{/number}",
            "pushed_at": "2020-11-22T10:04:52Z",
            "releases_url": "https://api.github.com/repos/TheDudeFromCI/mineflayer-pathfinder/releases{/id}",
            "size": 133,
            "ssh_url": "git@github.com:TheDudeFromCI/mineflayer-pathfinder.git",
            "stargazers_count": 1,
            "stargazers_url": "https://api.github.com/repos/TheDudeFromCI/mineflayer-pathfinder/stargazers",
            "statuses_url": "https://api.github.com/repos/TheDudeFromCI/mineflayer-pathfinder/statuses/{sha}",
            "subscribers_url": "https://api.github.com/repos/TheDudeFromCI/mineflayer-pathfinder/subscribers",
            "subscription_url": "https://api.github.com/repos/TheDudeFromCI/mineflayer-pathfinder/subscription",
            "svn_url": "https://github.com/TheDudeFromCI/mineflayer-pathfinder",
            "tags_url": "https://api.github.com/repos/TheDudeFromCI/mineflayer-pathfinder/tags",
            "teams_url": "https://api.github.com/repos/TheDudeFromCI/mineflayer-pathfinder/teams",
            "topics": [],
            "trees_url": "https://api.github.com/repos/TheDudeFromCI/mineflayer-pathfinder/git/trees{/sha}",
            "updated_at": "2021-07-25T04:25:16Z",
            "url": "https://api.github.com/repos/TheDudeFromCI/mineflayer-pathfinder",
            "visibility": "public",
            "watchers": 1,
            "watchers_count": 1,
            "web_commit_signoff_required": false
        },
        "sha": "54683f51bf2790dc28c0175a8acf80d7c2aa87b2",
        "user": {
            "avatar_url": "https://avatars.githubusercontent.com/u/3118172?v=4",
            "events_url": "https://api.github.com/users/TheDudeFromCI/events{/privacy}",
            "followers_url": "https://api.github.com/users/TheDudeFromCI/followers",
            "following_url": "https://api.github.com/users/TheDudeFromCI/following{/other_user}",
            "gists_url": "https://api.github.com/users/TheDudeFromCI/gists{/gist_id}",
            "gravatar_id": "",
            "html_url": "https://github.com/TheDudeFromCI",
            "id": 3118172,
            "login": "TheDudeFromCI",
            "node_id": "MDQ6VXNlcjMxMTgxNzI=",
            "organizations_url": "https://api.github.com/users/TheDudeFromCI/orgs",
            "received_events_url": "https://api.github.com/users/TheDudeFromCI/received_events",
            "repos_url": "https://api.github.com/users/TheDudeFromCI/repos",
            "site_admin": false,
            "starred_url": "https://api.github.com/users/TheDudeFromCI/starred{/owner}{/repo}",
            "subscriptions_url": "https://api.github.com/users/TheDudeFromCI/subscriptions",
            "type": "User",
            "url": "https://api.github.com/users/TheDudeFromCI"
        }
    },
    "html_url": "https://github.com/PrismarineJS/mineflayer-pathfinder/pull/63",
    "id": 515404115,
    "issue_url": "https://api.github.com/repos/PrismarineJS/mineflayer-pathfinder/issues/63",
    "labels": [],
    "locked": false,
    "maintainer_can_modify": false,
    "merge_commit_sha": "b5e8a2cb02cde7ce235eb77b561589e97125b7bf",
    "mergeable": null,
    "mergeable_state": "unknown",
    "merged": true,
    "merged_at": "2020-11-04T14:05:51Z",
    "merged_by": {
        "avatar_url": "https://avatars.githubusercontent.com/u/1977472?v=4",
        "events_url": "https://api.github.com/users/Karang/events{/privacy}",
        "followers_url": "https://api.github.com/users/Karang/followers",
        "following_url": "https://api.github.com/users/Karang/following{/other_user}",
        "gists_url": "https://api.github.com/users/Karang/gists{/gist_id}",
        "gravatar_id": "",
        "html_url": "https://github.com/Karang",
        "id": 1977472,
        "login": "Karang",
        "node_id": "MDQ6VXNlcjE5Nzc0NzI=",
        "organizations_url": "https://api.github.com/users/Karang/orgs",
        "received_events_url": "https://api.github.com/users/Karang/received_events",
        "repos_url": "https://api.github.com/users/Karang/repos",
        "site_admin": false,
        "starred_url": "https://api.github.com/users/Karang/starred{/owner}{/repo}",
        "subscriptions_url": "https://api.github.com/users/Karang/subscriptions",
        "type": "User",
        "url": "https://api.github.com/users/Karang"
    },
    "milestone": null,
    "node_id": "MDExOlB1bGxSZXF1ZXN0NTE1NDA0MTE1",
    "number": 63,
    "patch_url": "https://github.com/PrismarineJS/mineflayer-pathfinder/pull/63.patch",
    "rebaseable": null,
    "requested_reviewers": [],
    "requested_teams": [],
    "review_comment_url": "https://api.github.com/repos/PrismarineJS/mineflayer-pathfinder/pulls/comments{/number}",
    "review_comments": 0,
    "review_comments_url": "https://api.github.com/repos/PrismarineJS/mineflayer-pathfinder/pulls/63/comments",
    "state": "closed",
    "statuses_url": "https://api.github.com/repos/PrismarineJS/mineflayer-pathfinder/statuses/54683f51bf2790dc28c0175a8acf80d7c2aa87b2",
    "title": "Release 1.0.12",
    "updated_at": "2020-11-04T14:28:03Z",
    "url": "https://api.github.com/repos/PrismarineJS/mineflayer-pathfinder/pulls/63",
    "user": {
        "avatar_url": "https://avatars.githubusercontent.com/u/3118172?v=4",
        "events_url": "https://api.github.com/users/TheDudeFromCI/events{/privacy}",
        "followers_url": "https://api.github.com/users/TheDudeFromCI/followers",
        "following_url": "https://api.github.com/users/TheDudeFromCI/following{/other_user}",
        "gists_url": "https://api.github.com/users/TheDudeFromCI/gists{/gist_id}",
        "gravatar_id": "",
        "html_url": "https://github.com/TheDudeFromCI",
        "id": 3118172,
        "login": "TheDudeFromCI",
        "node_id": "MDQ6VXNlcjMxMTgxNzI=",
        "organizations_url": "https://api.github.com/users/TheDudeFromCI/orgs",
        "received_events_url": "https://api.github.com/users/TheDudeFromCI/received_events",
        "repos_url": "https://api.github.com/users/TheDudeFromCI/repos",
        "site_admin": false,
        "starred_url": "https://api.github.com/users/TheDudeFromCI/starred{/owner}{/repo}",
        "subscriptions_url": "https://api.github.com/users/TheDudeFromCI/subscriptions",
        "type": "User",
        "url": "https://api.github.com/users/TheDudeFromCI"
    }
}