{
    "_links": {
        "comments": {
            "href": "https://api.github.com/repos/PrismarineJS/mineflayer-pathfinder/issues/85/comments"
        },
        "commits": {
            "href": "https://api.github.com/repos/PrismarineJS/mineflayer-pathfinder/pulls/85/commits"
        },
        "html": {
            "href": "https://github.com/PrismarineJS/mineflayer-pathfinder/pull/85"
        },
        "issue": {
            "href": "https://api.github.com/repos/PrismarineJS/mineflayer-pathfinder/issues/85"
        },
        "review_comment": {
            "href": "https://api.github.com/repos/PrismarineJS/mineflayer-pathfinder/pulls/comments{/number}"
        },
        "review_comments": {
            "href": "https://api.github.com/repos/PrismarineJS/mineflayer-pathfinder/pulls/85/comments"
        },
        "self": {
            "href": "https://api.github.com/repos/PrismarineJS/mineflayer-pathfinder/pulls/85"
        },
        "statuses": {
            "href": "https://api.github.com/repos/PrismarineJS/mineflayer-pathfinder/statuses/0f7e5df8ebc35dbc98a47fefde2ab53a622792d4"
        }
    },
    "active_lock_reason": null,
    "additions": 303,
    "assignee": null,
    "assignees": [],
    "author_association": "MEMBER",
    "auto_merge": null,
    "base": {
        "label": "PrismarineJS:master",
        "ref": "master",
        "repo": {
            "allow_forking": true,
            "archive_url": "https://api.github.com/repos/PrismarineJS/mineflayer-pathfinder/{archive_format}{/ref}",
            "archived": false,
            "assignees_url": "https://api.github.com/repos/PrismarineJS/mineflayer-pathfinder/assignees{/user}",
            "blobs_url": "https://api.github.com/repos/PrismarineJS/mineflayer-pathfinder/git/blobs{/sha}",
            "branches_url": "https://api.github.com/repos/PrismarineJS/mineflayer-pathfinder/branches{/branch}",
            "clone_url": "https://github.com/PrismarineJS/mineflayer-pathfinder.git",
            "collaborators_url": "https://api.github.com/repos/PrismarineJS/mineflayer-pathfinder/collaborators{/collaborator}",
            "comments_url": "https://api.github.com/repos/PrismarineJS/mineflayer-pathfinder/comments{/number}",
            "commits_url": "https://api.github.com/repos/PrismarineJS/mineflayer-pathfinder/commits{/sha}",
            "compare_url": "https://api.github.com/repos/PrismarineJS/mineflayer-pathfinder/compare/{base}...{head}",
            "contents_url": "https://api.github.com/repos/PrismarineJS/mineflayer-pathfinder/contents/{+path}",
            "contributors_url": "https://api.github.com/repos/PrismarineJS/mineflayer-pathfinder/contributors",
            "created_at": "2020-04-21T02:34:23Z",
            "default_branch": "master",
            "deployments_url": "https://api.github.com/repos/PrismarineJS/mineflayer-pathfinder/deployments",
            "description": "Pathfinding plugin that gives bot the ability to go from A to B",
            "disabled": false,
            "downloads_url": "https://api.github.com/repos/PrismarineJS/mineflayer-pathfinder/downloads",
            "events_url": "https://api.github.com/repos/PrismarineJS/mineflayer-pathfinder/events",
            "fork": false,
            "forks": 52,
            "forks_count": 52,
            "forks_url": "https://api.github.com/repos/PrismarineJS/mineflayer-pathfinder/forks",
            "full_name": "PrismarineJS/mineflayer-pathfinder",
            "git_commits_url": "https://api.github.com/repos/PrismarineJS/mineflayer-pathfinder/git/commits{/sha}",
            "git_refs_url": "https://api.github.com/repos/PrismarineJS/mineflayer-pathfinder/git/refs{/sha}",
            "git_tags_url": "https://api.github.com/repos/PrismarineJS/mineflayer-pathfinder/git/tags{/sha}",
            "git_url": "git://github.com/PrismarineJS/mineflayer-pathfinder.git",
            "has_discussions": false,
            "has_downloads": true,
            "has_issues": true,
            "has_pages": false,
            "has_projects": true,
            "has_wiki": true,
            "homepage": "",
            "hooks_url": "https://api.github.com/repos/PrismarineJS/mineflayer-pathfinder/hooks",
            "html_url": "https://github.com/PrismarineJS/mineflayer-pathfinder",
            "id": 257460120,
            "is_template": false,
            "issue_comment_url": "https://api.github.com/repos/PrismarineJS/mineflayer-pathfinder/issues/comments{/number}",
            "issue_events_url": "https://api.github.com/repos/PrismarineJS/mineflayer-pathfinder/issues/events{/number}",
            "issues_url": "https://api.github.com/repos/PrismarineJS/mineflayer-pathfinder/issues{/number}",
            "keys_url": "https://api.github.com/repos/PrismarineJS/mineflayer-pathfinder/keys{/key_id}",
            "labels_url": "https://api.github.com/repos/PrismarineJS/mineflayer-pathfinder/labels{/name}",
            "language": "JavaScript",
            "languages_url": "https://api.github.com/repos/PrismarineJS/mineflayer-pathfinder/languages",
            "license": {
                "key": "mit",
                "name": "MIT License",
                "node_id": "MDc6TGljZW5zZTEz",
                "spdx_id": "MIT",
                "url": "https://api.github.com/licenses/mit"
            },
            "merges_url": "https://api.github.com/repos/PrismarineJS/mineflayer-pathfinder/merges",
            "milestones_url": "https://api.github.com/repos/PrismarineJS/mineflayer-pathfinder/milestones{/number}",
            "mirror_url": null,
            "name": "mineflayer-pathfinder",
            "node_id": "MDEwOlJlcG9zaXRvcnkyNTc0NjAxMjA=",
            "notifications_url": "https://api.github.com/repos/PrismarineJS/mineflayer-pathfinder/notifications{?since,all,participating}",
            "open_issues": 31,
            "open_issues_count": 31,
            "owner": {
                "avatar_url": "https://avatars.githubusercontent.com/u/11053411?v=4",
                "events_url": "https://api.github.com/users/PrismarineJS/events{/privacy}",
                "followers_url": "https://api.github.com/users/PrismarineJS/followers",
                "following_url": "https://api.github.com/users/PrismarineJS/following{/other_user}",
                "gists_url": "https://api.github.com/users/PrismarineJS/gists{/gist_id}",
                "gravatar_id": "",
                "html_url": "https://github.com/PrismarineJS",
                "id": 11053411,
                "login": "PrismarineJS",
                "node_id": "MDEyOk9yZ2FuaXphdGlvbjExMDUzNDEx",
                "organizations_url": "https://api.github.com/users/PrismarineJS/orgs",
                "received_events_url": "https://api.github.com/users/PrismarineJS/received_events",
                "repos_url": "https://api.github.com/users/PrismarineJS/repos",
                "site_admin": false,
                "starred_url": "https://api.github.com/users/PrismarineJS/starred{/owner}{/repo}",
                "subscriptions_url": "https://api.github.com/users/PrismarineJS/subscriptions",
                "type": "Organization",
                "url": "https://api.github.com/users/PrismarineJS"
            },
            "private": false,
            "pulls_url": "https://api.github.com/repos/PrismarineJS/mineflayer-pathfinder/pulls{/number}",
            "pushed_at": "2023-04-08T17:24:12Z",
            "releases_url": "https://api.github.com/repos/PrismarineJS/mineflayer-pathfinder/releases{/id}",
            "size": 321,
            "ssh_url": "git@github.com:PrismarineJS/mineflayer-pathfinder.git",
            "stargazers_count": 152,
            "stargazers_url": "https://api.github.com/repos/PrismarineJS/mineflayer-pathfinder/stargazers",
            "statuses_url": "https://api.github.com/repos/PrismarineJS/mineflayer-pathfinder/statuses/{sha}",
            "subscribers_url": "https://api.github.com/repos/PrismarineJS/mineflayer-pathfinder/subscribers",
            "subscription_url": "https://api.github.com/repos/PrismarineJS/mineflayer-pathfinder/subscription",
            "svn_url": "https://github.com/PrismarineJS/mineflayer-pathfinder",
            "tags_url": "https://api.github.com/repos/PrismarineJS/mineflayer-pathfinder/tags",
            "teams_url": "https://api.github.com/repos/PrismarineJS/mineflayer-pathfinder/teams",
            "topics": [
                "bot",
                "minecraft",
                "pathfinding"
            ],
            "trees_url": "https://api.github.com/repos/PrismarineJS/mineflayer-pathfinder/git/trees{/sha}",
            "updated_at": "2023-04-23T22:24:23Z",
            "url": "https://api.github.com/repos/PrismarineJS/mineflayer-pathfinder",
            "visibility": "public",
            "watchers": 152,
            "watchers_count": 152,
            "web_commit_signoff_required": false
        },
        "sha": "c1dd9079215eefac59778998a1bd23b0169c78a7",
        "user": {
            "avatar_url": "https://avatars.githubusercontent.com/u/11053411?v=4",
            "events_url": "https://api.github.com/users/PrismarineJS/events{/privacy}",
            "followers_url": "https://api.github.com/users/PrismarineJS/followers",
            "following_url": "https://api.github.com/users/PrismarineJS/following{/other_user}",
            "gists_url": "https://api.github.com/users/PrismarineJS/gists{/gist_id}",
            "gravatar_id": "",
            "html_url": "https://github.com/PrismarineJS",
            "id": 11053411,
            "login": "PrismarineJS",
            "node_id": "MDEyOk9yZ2FuaXphdGlvbjExMDUzNDEx",
            "organizations_url": "https://api.github.com/users/PrismarineJS/orgs",
            "received_events_url": "https://api.github.com/users/PrismarineJS/received_events",
            "repos_url": "https://api.github.com/users/PrismarineJS/repos",
            "site_admin": false,
            "starred_url": "https://api.github.com/users/PrismarineJS/starred{/owner}{/repo}",
            "subscriptions_url": "https://api.github.com/users/PrismarineJS/subscriptions",
            "type": "Organization",
            "url": "https://api.github.com/users/PrismarineJS"
        }
    },
    "body": "Inspired by https://github.com/mat-1/mineflayer-baritone with some simplifications.\r\n\r\nCloses #80, #70, #14, #44",
    "changed_files": 7,
    "closed_at": "2020-12-14T18:20:31Z",
    "comment_data": [],
    "comment_regular_data": [
        {
            "author_association": "MEMBER",
            "body": "Would be really great to have some automated benchmark measuring how fast to go from A to B. That way it would be easy to see the consequence of this kind of PR",
            "created_at": "2020-12-11T21:54:59Z",
            "html_url": "https://github.com/PrismarineJS/mineflayer-pathfinder/pull/85#issuecomment-743447141",
            "id": 743447141,
            "issue_url": "https://api.github.com/repos/PrismarineJS/mineflayer-pathfinder/issues/85",
            "node_id": "MDEyOklzc3VlQ29tbWVudDc0MzQ0NzE0MQ==",
            "performed_via_github_app": null,
            "reactions": {
                "+1": 0,
                "-1": 0,
                "confused": 0,
                "eyes": 0,
                "heart": 0,
                "hooray": 0,
                "laugh": 0,
                "rocket": 0,
                "total_count": 0,
                "url": "https://api.github.com/repos/PrismarineJS/mineflayer-pathfinder/issues/comments/743447141/reactions"
            },
            "updated_at": "2020-12-11T21:54:59Z",
            "url": "https://api.github.com/repos/PrismarineJS/mineflayer-pathfinder/issues/comments/743447141",
            "user": {
                "avatar_url": "https://avatars.githubusercontent.com/u/2346494?v=4",
                "events_url": "https://api.github.com/users/rom1504/events{/privacy}",
                "followers_url": "https://api.github.com/users/rom1504/followers",
                "following_url": "https://api.github.com/users/rom1504/following{/other_user}",
                "gists_url": "https://api.github.com/users/rom1504/gists{/gist_id}",
                "gravatar_id": "",
                "html_url": "https://github.com/rom1504",
                "id": 2346494,
                "login": "rom1504",
                "node_id": "MDQ6VXNlcjIzNDY0OTQ=",
                "organizations_url": "https://api.github.com/users/rom1504/orgs",
                "received_events_url": "https://api.github.com/users/rom1504/received_events",
                "repos_url": "https://api.github.com/users/rom1504/repos",
                "site_admin": false,
                "starred_url": "https://api.github.com/users/rom1504/starred{/owner}{/repo}",
                "subscriptions_url": "https://api.github.com/users/rom1504/subscriptions",
                "type": "User",
                "url": "https://api.github.com/users/rom1504"
            }
        },
        {
            "author_association": "MEMBER",
            "body": "Yeah testing it manually is not really practical. There are 3 aspects that needs to be tested for this kind of changes:\r\n* computation time (or number of visited nodes for fixed timeout)\r\n* path quality (did we found a path to destination?)\r\n* path execution (can the bot follow the path without falling ?)\r\n\r\nAnd of course, it is better if the path includes weird blocks (water, half blocks, snow layers, fences, etc...)",
            "created_at": "2020-12-11T22:04:31Z",
            "html_url": "https://github.com/PrismarineJS/mineflayer-pathfinder/pull/85#issuecomment-743450943",
            "id": 743450943,
            "issue_url": "https://api.github.com/repos/PrismarineJS/mineflayer-pathfinder/issues/85",
            "node_id": "MDEyOklzc3VlQ29tbWVudDc0MzQ1MDk0Mw==",
            "performed_via_github_app": null,
            "reactions": {
                "+1": 0,
                "-1": 0,
                "confused": 0,
                "eyes": 0,
                "heart": 0,
                "hooray": 0,
                "laugh": 0,
                "rocket": 0,
                "total_count": 0,
                "url": "https://api.github.com/repos/PrismarineJS/mineflayer-pathfinder/issues/comments/743450943/reactions"
            },
            "updated_at": "2020-12-11T22:04:40Z",
            "url": "https://api.github.com/repos/PrismarineJS/mineflayer-pathfinder/issues/comments/743450943",
            "user": {
                "avatar_url": "https://avatars.githubusercontent.com/u/1977472?v=4",
                "events_url": "https://api.github.com/users/Karang/events{/privacy}",
                "followers_url": "https://api.github.com/users/Karang/followers",
                "following_url": "https://api.github.com/users/Karang/following{/other_user}",
                "gists_url": "https://api.github.com/users/Karang/gists{/gist_id}",
                "gravatar_id": "",
                "html_url": "https://github.com/Karang",
                "id": 1977472,
                "login": "Karang",
                "node_id": "MDQ6VXNlcjE5Nzc0NzI=",
                "organizations_url": "https://api.github.com/users/Karang/orgs",
                "received_events_url": "https://api.github.com/users/Karang/received_events",
                "repos_url": "https://api.github.com/users/Karang/repos",
                "site_admin": false,
                "starred_url": "https://api.github.com/users/Karang/starred{/owner}{/repo}",
                "subscriptions_url": "https://api.github.com/users/Karang/subscriptions",
                "type": "User",
                "url": "https://api.github.com/users/Karang"
            }
        },
        {
            "author_association": "MEMBER",
            "body": "I think it would work to have tests like in mineflayer with node-minecraft-wrap, to use a flat world and then do a bunch of set block to try various scenario.\r\nThen make the bot do the pathfinding and measure these things",
            "created_at": "2020-12-11T22:08:06Z",
            "html_url": "https://github.com/PrismarineJS/mineflayer-pathfinder/pull/85#issuecomment-743452249",
            "id": 743452249,
            "issue_url": "https://api.github.com/repos/PrismarineJS/mineflayer-pathfinder/issues/85",
            "node_id": "MDEyOklzc3VlQ29tbWVudDc0MzQ1MjI0OQ==",
            "performed_via_github_app": null,
            "reactions": {
                "+1": 0,
                "-1": 0,
                "confused": 0,
                "eyes": 0,
                "heart": 0,
                "hooray": 0,
                "laugh": 0,
                "rocket": 0,
                "total_count": 0,
                "url": "https://api.github.com/repos/PrismarineJS/mineflayer-pathfinder/issues/comments/743452249/reactions"
            },
            "updated_at": "2020-12-11T22:08:06Z",
            "url": "https://api.github.com/repos/PrismarineJS/mineflayer-pathfinder/issues/comments/743452249",
            "user": {
                "avatar_url": "https://avatars.githubusercontent.com/u/2346494?v=4",
                "events_url": "https://api.github.com/users/rom1504/events{/privacy}",
                "followers_url": "https://api.github.com/users/rom1504/followers",
                "following_url": "https://api.github.com/users/rom1504/following{/other_user}",
                "gists_url": "https://api.github.com/users/rom1504/gists{/gist_id}",
                "gravatar_id": "",
                "html_url": "https://github.com/rom1504",
                "id": 2346494,
                "login": "rom1504",
                "node_id": "MDQ6VXNlcjIzNDY0OTQ=",
                "organizations_url": "https://api.github.com/users/rom1504/orgs",
                "received_events_url": "https://api.github.com/users/rom1504/received_events",
                "repos_url": "https://api.github.com/users/rom1504/repos",
                "site_admin": false,
                "starred_url": "https://api.github.com/users/rom1504/starred{/owner}{/repo}",
                "subscriptions_url": "https://api.github.com/users/rom1504/subscriptions",
                "type": "User",
                "url": "https://api.github.com/users/rom1504"
            }
        },
        {
            "author_association": "MEMBER",
            "body": "Yeah that's the basic idea, but a bunch of setBlocks will not be practical, we'll need a way to paste schematics or load a preconfigured test world. This could also allow more members to contribute to tests by just providing a schematic with the configuration that fails.\r\n\r\nRelated issue: https://github.com/PrismarineJS/mineflayer-pathfinder/issues/27",
            "created_at": "2020-12-11T22:10:57Z",
            "html_url": "https://github.com/PrismarineJS/mineflayer-pathfinder/pull/85#issuecomment-743453591",
            "id": 743453591,
            "issue_url": "https://api.github.com/repos/PrismarineJS/mineflayer-pathfinder/issues/85",
            "node_id": "MDEyOklzc3VlQ29tbWVudDc0MzQ1MzU5MQ==",
            "performed_via_github_app": null,
            "reactions": {
                "+1": 0,
                "-1": 0,
                "confused": 0,
                "eyes": 0,
                "heart": 0,
                "hooray": 0,
                "laugh": 0,
                "rocket": 0,
                "total_count": 0,
                "url": "https://api.github.com/repos/PrismarineJS/mineflayer-pathfinder/issues/comments/743453591/reactions"
            },
            "updated_at": "2020-12-11T22:11:53Z",
            "url": "https://api.github.com/repos/PrismarineJS/mineflayer-pathfinder/issues/comments/743453591",
            "user": {
                "avatar_url": "https://avatars.githubusercontent.com/u/1977472?v=4",
                "events_url": "https://api.github.com/users/Karang/events{/privacy}",
                "followers_url": "https://api.github.com/users/Karang/followers",
                "following_url": "https://api.github.com/users/Karang/following{/other_user}",
                "gists_url": "https://api.github.com/users/Karang/gists{/gist_id}",
                "gravatar_id": "",
                "html_url": "https://github.com/Karang",
                "id": 1977472,
                "login": "Karang",
                "node_id": "MDQ6VXNlcjE5Nzc0NzI=",
                "organizations_url": "https://api.github.com/users/Karang/orgs",
                "received_events_url": "https://api.github.com/users/Karang/received_events",
                "repos_url": "https://api.github.com/users/Karang/repos",
                "site_admin": false,
                "starred_url": "https://api.github.com/users/Karang/starred{/owner}{/repo}",
                "subscriptions_url": "https://api.github.com/users/Karang/subscriptions",
                "type": "User",
                "url": "https://api.github.com/users/Karang"
            }
        },
        {
            "author_association": "MEMBER",
            "body": "Yeah that sounds pretty good. We could do this as part of a package as\nsuggested by @TheDudeFromCI there\nhttps://github.com/PrismarineJS/mineflayer/issues/1422\n\nOn Fri, Dec 11, 2020, 23:11 Karang <notifications@github.com> wrote:\n\n> Yeah that's the basic idea, but a bunch of setBlocks will not be\n> practical, we'll need a way to paste schematics or load a preconfigured\n> test world. This could also allow more members to contribute to tests by\n> just providing a schematic with the configuration that fails.\n>\n> —\n> You are receiving this because you commented.\n> Reply to this email directly, view it on GitHub\n> <https://github.com/PrismarineJS/mineflayer-pathfinder/pull/85#issuecomment-743453591>,\n> or unsubscribe\n> <https://github.com/notifications/unsubscribe-auth/AAR437X6GCXHCJE7I4FZA6TSUKKH7ANCNFSM4UXIEFBA>\n> .\n>\n",
            "created_at": "2020-12-11T22:48:59Z",
            "html_url": "https://github.com/PrismarineJS/mineflayer-pathfinder/pull/85#issuecomment-743466972",
            "id": 743466972,
            "issue_url": "https://api.github.com/repos/PrismarineJS/mineflayer-pathfinder/issues/85",
            "node_id": "MDEyOklzc3VlQ29tbWVudDc0MzQ2Njk3Mg==",
            "performed_via_github_app": null,
            "reactions": {
                "+1": 0,
                "-1": 0,
                "confused": 0,
                "eyes": 0,
                "heart": 0,
                "hooray": 0,
                "laugh": 0,
                "rocket": 0,
                "total_count": 0,
                "url": "https://api.github.com/repos/PrismarineJS/mineflayer-pathfinder/issues/comments/743466972/reactions"
            },
            "updated_at": "2020-12-11T22:48:59Z",
            "url": "https://api.github.com/repos/PrismarineJS/mineflayer-pathfinder/issues/comments/743466972",
            "user": {
                "avatar_url": "https://avatars.githubusercontent.com/u/2346494?v=4",
                "events_url": "https://api.github.com/users/rom1504/events{/privacy}",
                "followers_url": "https://api.github.com/users/rom1504/followers",
                "following_url": "https://api.github.com/users/rom1504/following{/other_user}",
                "gists_url": "https://api.github.com/users/rom1504/gists{/gist_id}",
                "gravatar_id": "",
                "html_url": "https://github.com/rom1504",
                "id": 2346494,
                "login": "rom1504",
                "node_id": "MDQ6VXNlcjIzNDY0OTQ=",
                "organizations_url": "https://api.github.com/users/rom1504/orgs",
                "received_events_url": "https://api.github.com/users/rom1504/received_events",
                "repos_url": "https://api.github.com/users/rom1504/repos",
                "site_admin": false,
                "starred_url": "https://api.github.com/users/rom1504/starred{/owner}{/repo}",
                "subscriptions_url": "https://api.github.com/users/rom1504/subscriptions",
                "type": "User",
                "url": "https://api.github.com/users/rom1504"
            }
        },
        {
            "author_association": "MEMBER",
            "body": "> lgtm\r\n> if you tested it manually and it works, let's merge ?\r\n\r\nI'm still testing edge cases, I want to be sure it works properly. I'll merge it when its ready.",
            "created_at": "2020-12-12T16:01:54Z",
            "html_url": "https://github.com/PrismarineJS/mineflayer-pathfinder/pull/85#issuecomment-743776755",
            "id": 743776755,
            "issue_url": "https://api.github.com/repos/PrismarineJS/mineflayer-pathfinder/issues/85",
            "node_id": "MDEyOklzc3VlQ29tbWVudDc0Mzc3Njc1NQ==",
            "performed_via_github_app": null,
            "reactions": {
                "+1": 1,
                "-1": 0,
                "confused": 0,
                "eyes": 0,
                "heart": 0,
                "hooray": 0,
                "laugh": 0,
                "rocket": 0,
                "total_count": 1,
                "url": "https://api.github.com/repos/PrismarineJS/mineflayer-pathfinder/issues/comments/743776755/reactions"
            },
            "updated_at": "2020-12-12T16:01:54Z",
            "url": "https://api.github.com/repos/PrismarineJS/mineflayer-pathfinder/issues/comments/743776755",
            "user": {
                "avatar_url": "https://avatars.githubusercontent.com/u/1977472?v=4",
                "events_url": "https://api.github.com/users/Karang/events{/privacy}",
                "followers_url": "https://api.github.com/users/Karang/followers",
                "following_url": "https://api.github.com/users/Karang/following{/other_user}",
                "gists_url": "https://api.github.com/users/Karang/gists{/gist_id}",
                "gravatar_id": "",
                "html_url": "https://github.com/Karang",
                "id": 1977472,
                "login": "Karang",
                "node_id": "MDQ6VXNlcjE5Nzc0NzI=",
                "organizations_url": "https://api.github.com/users/Karang/orgs",
                "received_events_url": "https://api.github.com/users/Karang/received_events",
                "repos_url": "https://api.github.com/users/Karang/repos",
                "site_admin": false,
                "starred_url": "https://api.github.com/users/Karang/starred{/owner}{/repo}",
                "subscriptions_url": "https://api.github.com/users/Karang/subscriptions",
                "type": "User",
                "url": "https://api.github.com/users/Karang"
            }
        }
    ],
    "comments": 6,
    "comments_url": "https://api.github.com/repos/PrismarineJS/mineflayer-pathfinder/issues/85/comments",
    "commit_data": [
        {
            "author": {
                "avatar_url": "https://avatars.githubusercontent.com/u/1977472?v=4",
                "events_url": "https://api.github.com/users/Karang/events{/privacy}",
                "followers_url": "https://api.github.com/users/Karang/followers",
                "following_url": "https://api.github.com/users/Karang/following{/other_user}",
                "gists_url": "https://api.github.com/users/Karang/gists{/gist_id}",
                "gravatar_id": "",
                "html_url": "https://github.com/Karang",
                "id": 1977472,
                "login": "Karang",
                "node_id": "MDQ6VXNlcjE5Nzc0NzI=",
                "organizations_url": "https://api.github.com/users/Karang/orgs",
                "received_events_url": "https://api.github.com/users/Karang/received_events",
                "repos_url": "https://api.github.com/users/Karang/repos",
                "site_admin": false,
                "starred_url": "https://api.github.com/users/Karang/starred{/owner}{/repo}",
                "subscriptions_url": "https://api.github.com/users/Karang/subscriptions",
                "type": "User",
                "url": "https://api.github.com/users/Karang"
            },
            "comments_url": "https://api.github.com/repos/PrismarineJS/mineflayer-pathfinder/commits/c0b21d5c349eeba5629e83934ec088f5923e03f8/comments",
            "commit": {
                "author": {
                    "date": "2020-12-11T21:06:03Z",
                    "email": "arthur.hennequin@free.fr",
                    "name": "Karang"
                },
                "comment_count": 0,
                "committer": {
                    "date": "2020-12-11T21:06:03Z",
                    "email": "arthur.hennequin@free.fr",
                    "name": "Karang"
                },
                "message": "Replace control logic by physic simulation, sprint and advanced parkour",
                "tree": {
                    "sha": "88333e25af2c8631aa2ad2c97a6721b743537745",
                    "url": "https://api.github.com/repos/PrismarineJS/mineflayer-pathfinder/git/trees/88333e25af2c8631aa2ad2c97a6721b743537745"
                },
                "url": "https://api.github.com/repos/PrismarineJS/mineflayer-pathfinder/git/commits/c0b21d5c349eeba5629e83934ec088f5923e03f8",
                "verification": {
                    "payload": null,
                    "reason": "unsigned",
                    "signature": null,
                    "verified": false
                }
            },
            "committer": {
                "avatar_url": "https://avatars.githubusercontent.com/u/1977472?v=4",
                "events_url": "https://api.github.com/users/Karang/events{/privacy}",
                "followers_url": "https://api.github.com/users/Karang/followers",
                "following_url": "https://api.github.com/users/Karang/following{/other_user}",
                "gists_url": "https://api.github.com/users/Karang/gists{/gist_id}",
                "gravatar_id": "",
                "html_url": "https://github.com/Karang",
                "id": 1977472,
                "login": "Karang",
                "node_id": "MDQ6VXNlcjE5Nzc0NzI=",
                "organizations_url": "https://api.github.com/users/Karang/orgs",
                "received_events_url": "https://api.github.com/users/Karang/received_events",
                "repos_url": "https://api.github.com/users/Karang/repos",
                "site_admin": false,
                "starred_url": "https://api.github.com/users/Karang/starred{/owner}{/repo}",
                "subscriptions_url": "https://api.github.com/users/Karang/subscriptions",
                "type": "User",
                "url": "https://api.github.com/users/Karang"
            },
            "html_url": "https://github.com/PrismarineJS/mineflayer-pathfinder/commit/c0b21d5c349eeba5629e83934ec088f5923e03f8",
            "node_id": "MDY6Q29tbWl0MjU3NDYwMTIwOmMwYjIxZDVjMzQ5ZWViYTU2MjllODM5MzRlYzA4OGY1OTIzZTAzZjg=",
            "parents": [
                {
                    "html_url": "https://github.com/PrismarineJS/mineflayer-pathfinder/commit/c1dd9079215eefac59778998a1bd23b0169c78a7",
                    "sha": "c1dd9079215eefac59778998a1bd23b0169c78a7",
                    "url": "https://api.github.com/repos/PrismarineJS/mineflayer-pathfinder/commits/c1dd9079215eefac59778998a1bd23b0169c78a7"
                }
            ],
            "sha": "c0b21d5c349eeba5629e83934ec088f5923e03f8",
            "url": "https://api.github.com/repos/PrismarineJS/mineflayer-pathfinder/commits/c0b21d5c349eeba5629e83934ec088f5923e03f8"
        },
        {
            "author": {
                "avatar_url": "https://avatars.githubusercontent.com/u/1977472?v=4",
                "events_url": "https://api.github.com/users/Karang/events{/privacy}",
                "followers_url": "https://api.github.com/users/Karang/followers",
                "following_url": "https://api.github.com/users/Karang/following{/other_user}",
                "gists_url": "https://api.github.com/users/Karang/gists{/gist_id}",
                "gravatar_id": "",
                "html_url": "https://github.com/Karang",
                "id": 1977472,
                "login": "Karang",
                "node_id": "MDQ6VXNlcjE5Nzc0NzI=",
                "organizations_url": "https://api.github.com/users/Karang/orgs",
                "received_events_url": "https://api.github.com/users/Karang/received_events",
                "repos_url": "https://api.github.com/users/Karang/repos",
                "site_admin": false,
                "starred_url": "https://api.github.com/users/Karang/starred{/owner}{/repo}",
                "subscriptions_url": "https://api.github.com/users/Karang/subscriptions",
                "type": "User",
                "url": "https://api.github.com/users/Karang"
            },
            "comments_url": "https://api.github.com/repos/PrismarineJS/mineflayer-pathfinder/commits/7354ce898c20edab410a512fb30e5417d429ce5f/comments",
            "commit": {
                "author": {
                    "date": "2020-12-11T21:26:46Z",
                    "email": "arthur.hennequin@free.fr",
                    "name": "Karang"
                },
                "comment_count": 0,
                "committer": {
                    "date": "2020-12-11T21:26:46Z",
                    "email": "arthur.hennequin@free.fr",
                    "name": "Karang"
                },
                "message": "Dont clear states on chunk load",
                "tree": {
                    "sha": "3fd4dde4dd0e5c26f67d504b8d1ae73306e28300",
                    "url": "https://api.github.com/repos/PrismarineJS/mineflayer-pathfinder/git/trees/3fd4dde4dd0e5c26f67d504b8d1ae73306e28300"
                },
                "url": "https://api.github.com/repos/PrismarineJS/mineflayer-pathfinder/git/commits/7354ce898c20edab410a512fb30e5417d429ce5f",
                "verification": {
                    "payload": null,
                    "reason": "unsigned",
                    "signature": null,
                    "verified": false
                }
            },
            "committer": {
                "avatar_url": "https://avatars.githubusercontent.com/u/1977472?v=4",
                "events_url": "https://api.github.com/users/Karang/events{/privacy}",
                "followers_url": "https://api.github.com/users/Karang/followers",
                "following_url": "https://api.github.com/users/Karang/following{/other_user}",
                "gists_url": "https://api.github.com/users/Karang/gists{/gist_id}",
                "gravatar_id": "",
                "html_url": "https://github.com/Karang",
                "id": 1977472,
                "login": "Karang",
                "node_id": "MDQ6VXNlcjE5Nzc0NzI=",
                "organizations_url": "https://api.github.com/users/Karang/orgs",
                "received_events_url": "https://api.github.com/users/Karang/received_events",
                "repos_url": "https://api.github.com/users/Karang/repos",
                "site_admin": false,
                "starred_url": "https://api.github.com/users/Karang/starred{/owner}{/repo}",
                "subscriptions_url": "https://api.github.com/users/Karang/subscriptions",
                "type": "User",
                "url": "https://api.github.com/users/Karang"
            },
            "html_url": "https://github.com/PrismarineJS/mineflayer-pathfinder/commit/7354ce898c20edab410a512fb30e5417d429ce5f",
            "node_id": "MDY6Q29tbWl0MjU3NDYwMTIwOjczNTRjZTg5OGMyMGVkYWI0MTBhNTEyZmIzMGU1NDE3ZDQyOWNlNWY=",
            "parents": [
                {
                    "html_url": "https://github.com/PrismarineJS/mineflayer-pathfinder/commit/c0b21d5c349eeba5629e83934ec088f5923e03f8",
                    "sha": "c0b21d5c349eeba5629e83934ec088f5923e03f8",
                    "url": "https://api.github.com/repos/PrismarineJS/mineflayer-pathfinder/commits/c0b21d5c349eeba5629e83934ec088f5923e03f8"
                }
            ],
            "sha": "7354ce898c20edab410a512fb30e5417d429ce5f",
            "url": "https://api.github.com/repos/PrismarineJS/mineflayer-pathfinder/commits/7354ce898c20edab410a512fb30e5417d429ce5f"
        },
        {
            "author": {
                "avatar_url": "https://avatars.githubusercontent.com/u/1977472?v=4",
                "events_url": "https://api.github.com/users/Karang/events{/privacy}",
                "followers_url": "https://api.github.com/users/Karang/followers",
                "following_url": "https://api.github.com/users/Karang/following{/other_user}",
                "gists_url": "https://api.github.com/users/Karang/gists{/gist_id}",
                "gravatar_id": "",
                "html_url": "https://github.com/Karang",
                "id": 1977472,
                "login": "Karang",
                "node_id": "MDQ6VXNlcjE5Nzc0NzI=",
                "organizations_url": "https://api.github.com/users/Karang/orgs",
                "received_events_url": "https://api.github.com/users/Karang/received_events",
                "repos_url": "https://api.github.com/users/Karang/repos",
                "site_admin": false,
                "starred_url": "https://api.github.com/users/Karang/starred{/owner}{/repo}",
                "subscriptions_url": "https://api.github.com/users/Karang/subscriptions",
                "type": "User",
                "url": "https://api.github.com/users/Karang"
            },
            "comments_url": "https://api.github.com/repos/PrismarineJS/mineflayer-pathfinder/commits/d65654eda4656f69a9606a7d40e418de5ef6e7f9/comments",
            "commit": {
                "author": {
                    "date": "2020-12-12T17:24:39Z",
                    "email": "arthur.hennequin@free.fr",
                    "name": "Karang"
                },
                "comment_count": 0,
                "committer": {
                    "date": "2020-12-12T17:24:39Z",
                    "email": "arthur.hennequin@free.fr",
                    "name": "Karang"
                },
                "message": "Improve water paths",
                "tree": {
                    "sha": "a272b9a6d125ef6060bc82ec1903110c3405bbeb",
                    "url": "https://api.github.com/repos/PrismarineJS/mineflayer-pathfinder/git/trees/a272b9a6d125ef6060bc82ec1903110c3405bbeb"
                },
                "url": "https://api.github.com/repos/PrismarineJS/mineflayer-pathfinder/git/commits/d65654eda4656f69a9606a7d40e418de5ef6e7f9",
                "verification": {
                    "payload": null,
                    "reason": "unsigned",
                    "signature": null,
                    "verified": false
                }
            },
            "committer": {
                "avatar_url": "https://avatars.githubusercontent.com/u/1977472?v=4",
                "events_url": "https://api.github.com/users/Karang/events{/privacy}",
                "followers_url": "https://api.github.com/users/Karang/followers",
                "following_url": "https://api.github.com/users/Karang/following{/other_user}",
                "gists_url": "https://api.github.com/users/Karang/gists{/gist_id}",
                "gravatar_id": "",
                "html_url": "https://github.com/Karang",
                "id": 1977472,
                "login": "Karang",
                "node_id": "MDQ6VXNlcjE5Nzc0NzI=",
                "organizations_url": "https://api.github.com/users/Karang/orgs",
                "received_events_url": "https://api.github.com/users/Karang/received_events",
                "repos_url": "https://api.github.com/users/Karang/repos",
                "site_admin": false,
                "starred_url": "https://api.github.com/users/Karang/starred{/owner}{/repo}",
                "subscriptions_url": "https://api.github.com/users/Karang/subscriptions",
                "type": "User",
                "url": "https://api.github.com/users/Karang"
            },
            "html_url": "https://github.com/PrismarineJS/mineflayer-pathfinder/commit/d65654eda4656f69a9606a7d40e418de5ef6e7f9",
            "node_id": "MDY6Q29tbWl0MjU3NDYwMTIwOmQ2NTY1NGVkYTQ2NTZmNjlhOTYwNmE3ZDQwZTQxOGRlNWVmNmU3Zjk=",
            "parents": [
                {
                    "html_url": "https://github.com/PrismarineJS/mineflayer-pathfinder/commit/7354ce898c20edab410a512fb30e5417d429ce5f",
                    "sha": "7354ce898c20edab410a512fb30e5417d429ce5f",
                    "url": "https://api.github.com/repos/PrismarineJS/mineflayer-pathfinder/commits/7354ce898c20edab410a512fb30e5417d429ce5f"
                }
            ],
            "sha": "d65654eda4656f69a9606a7d40e418de5ef6e7f9",
            "url": "https://api.github.com/repos/PrismarineJS/mineflayer-pathfinder/commits/d65654eda4656f69a9606a7d40e418de5ef6e7f9"
        },
        {
            "author": {
                "avatar_url": "https://avatars.githubusercontent.com/u/1977472?v=4",
                "events_url": "https://api.github.com/users/Karang/events{/privacy}",
                "followers_url": "https://api.github.com/users/Karang/followers",
                "following_url": "https://api.github.com/users/Karang/following{/other_user}",
                "gists_url": "https://api.github.com/users/Karang/gists{/gist_id}",
                "gravatar_id": "",
                "html_url": "https://github.com/Karang",
                "id": 1977472,
                "login": "Karang",
                "node_id": "MDQ6VXNlcjE5Nzc0NzI=",
                "organizations_url": "https://api.github.com/users/Karang/orgs",
                "received_events_url": "https://api.github.com/users/Karang/received_events",
                "repos_url": "https://api.github.com/users/Karang/repos",
                "site_admin": false,
                "starred_url": "https://api.github.com/users/Karang/starred{/owner}{/repo}",
                "subscriptions_url": "https://api.github.com/users/Karang/subscriptions",
                "type": "User",
                "url": "https://api.github.com/users/Karang"
            },
            "comments_url": "https://api.github.com/repos/PrismarineJS/mineflayer-pathfinder/commits/710a284bff96a4ac547f98912d541a30386e4e7c/comments",
            "commit": {
                "author": {
                    "date": "2020-12-12T20:06:12Z",
                    "email": "arthur.hennequin@free.fr",
                    "name": "Karang"
                },
                "comment_count": 0,
                "committer": {
                    "date": "2020-12-12T20:06:12Z",
                    "email": "arthur.hennequin@free.fr",
                    "name": "Karang"
                },
                "message": "Add multi-ticks thinking",
                "tree": {
                    "sha": "bd4790b047106439a11f8cff6d360e0b91153609",
                    "url": "https://api.github.com/repos/PrismarineJS/mineflayer-pathfinder/git/trees/bd4790b047106439a11f8cff6d360e0b91153609"
                },
                "url": "https://api.github.com/repos/PrismarineJS/mineflayer-pathfinder/git/commits/710a284bff96a4ac547f98912d541a30386e4e7c",
                "verification": {
                    "payload": null,
                    "reason": "unsigned",
                    "signature": null,
                    "verified": false
                }
            },
            "committer": {
                "avatar_url": "https://avatars.githubusercontent.com/u/1977472?v=4",
                "events_url": "https://api.github.com/users/Karang/events{/privacy}",
                "followers_url": "https://api.github.com/users/Karang/followers",
                "following_url": "https://api.github.com/users/Karang/following{/other_user}",
                "gists_url": "https://api.github.com/users/Karang/gists{/gist_id}",
                "gravatar_id": "",
                "html_url": "https://github.com/Karang",
                "id": 1977472,
                "login": "Karang",
                "node_id": "MDQ6VXNlcjE5Nzc0NzI=",
                "organizations_url": "https://api.github.com/users/Karang/orgs",
                "received_events_url": "https://api.github.com/users/Karang/received_events",
                "repos_url": "https://api.github.com/users/Karang/repos",
                "site_admin": false,
                "starred_url": "https://api.github.com/users/Karang/starred{/owner}{/repo}",
                "subscriptions_url": "https://api.github.com/users/Karang/subscriptions",
                "type": "User",
                "url": "https://api.github.com/users/Karang"
            },
            "html_url": "https://github.com/PrismarineJS/mineflayer-pathfinder/commit/710a284bff96a4ac547f98912d541a30386e4e7c",
            "node_id": "MDY6Q29tbWl0MjU3NDYwMTIwOjcxMGEyODRiZmY5NmE0YWM1NDdmOTg5MTJkNTQxYTMwMzg2ZTRlN2M=",
            "parents": [
                {
                    "html_url": "https://github.com/PrismarineJS/mineflayer-pathfinder/commit/d65654eda4656f69a9606a7d40e418de5ef6e7f9",
                    "sha": "d65654eda4656f69a9606a7d40e418de5ef6e7f9",
                    "url": "https://api.github.com/repos/PrismarineJS/mineflayer-pathfinder/commits/d65654eda4656f69a9606a7d40e418de5ef6e7f9"
                }
            ],
            "sha": "710a284bff96a4ac547f98912d541a30386e4e7c",
            "url": "https://api.github.com/repos/PrismarineJS/mineflayer-pathfinder/commits/710a284bff96a4ac547f98912d541a30386e4e7c"
        },
        {
            "author": {
                "avatar_url": "https://avatars.githubusercontent.com/u/1977472?v=4",
                "events_url": "https://api.github.com/users/Karang/events{/privacy}",
                "followers_url": "https://api.github.com/users/Karang/followers",
                "following_url": "https://api.github.com/users/Karang/following{/other_user}",
                "gists_url": "https://api.github.com/users/Karang/gists{/gist_id}",
                "gravatar_id": "",
                "html_url": "https://github.com/Karang",
                "id": 1977472,
                "login": "Karang",
                "node_id": "MDQ6VXNlcjE5Nzc0NzI=",
                "organizations_url": "https://api.github.com/users/Karang/orgs",
                "received_events_url": "https://api.github.com/users/Karang/received_events",
                "repos_url": "https://api.github.com/users/Karang/repos",
                "site_admin": false,
                "starred_url": "https://api.github.com/users/Karang/starred{/owner}{/repo}",
                "subscriptions_url": "https://api.github.com/users/Karang/subscriptions",
                "type": "User",
                "url": "https://api.github.com/users/Karang"
            },
            "comments_url": "https://api.github.com/repos/PrismarineJS/mineflayer-pathfinder/commits/a89d71f9407814ad9b575a0e47a890af6043b9f0/comments",
            "commit": {
                "author": {
                    "date": "2020-12-12T20:10:23Z",
                    "email": "arthur.hennequin@free.fr",
                    "name": "Karang"
                },
                "comment_count": 0,
                "committer": {
                    "date": "2020-12-12T20:10:23Z",
                    "email": "arthur.hennequin@free.fr",
                    "name": "Karang"
                },
                "message": "Cost for placing blocks customizable",
                "tree": {
                    "sha": "f0080f38df66033eb21fa093d1514a8fda64ef59",
                    "url": "https://api.github.com/repos/PrismarineJS/mineflayer-pathfinder/git/trees/f0080f38df66033eb21fa093d1514a8fda64ef59"
                },
                "url": "https://api.github.com/repos/PrismarineJS/mineflayer-pathfinder/git/commits/a89d71f9407814ad9b575a0e47a890af6043b9f0",
                "verification": {
                    "payload": null,
                    "reason": "unsigned",
                    "signature": null,
                    "verified": false
                }
            },
            "committer": {
                "avatar_url": "https://avatars.githubusercontent.com/u/1977472?v=4",
                "events_url": "https://api.github.com/users/Karang/events{/privacy}",
                "followers_url": "https://api.github.com/users/Karang/followers",
                "following_url": "https://api.github.com/users/Karang/following{/other_user}",
                "gists_url": "https://api.github.com/users/Karang/gists{/gist_id}",
                "gravatar_id": "",
                "html_url": "https://github.com/Karang",
                "id": 1977472,
                "login": "Karang",
                "node_id": "MDQ6VXNlcjE5Nzc0NzI=",
                "organizations_url": "https://api.github.com/users/Karang/orgs",
                "received_events_url": "https://api.github.com/users/Karang/received_events",
                "repos_url": "https://api.github.com/users/Karang/repos",
                "site_admin": false,
                "starred_url": "https://api.github.com/users/Karang/starred{/owner}{/repo}",
                "subscriptions_url": "https://api.github.com/users/Karang/subscriptions",
                "type": "User",
                "url": "https://api.github.com/users/Karang"
            },
            "html_url": "https://github.com/PrismarineJS/mineflayer-pathfinder/commit/a89d71f9407814ad9b575a0e47a890af6043b9f0",
            "node_id": "MDY6Q29tbWl0MjU3NDYwMTIwOmE4OWQ3MWY5NDA3ODE0YWQ5YjU3NWEwZTQ3YTg5MGFmNjA0M2I5ZjA=",
            "parents": [
                {
                    "html_url": "https://github.com/PrismarineJS/mineflayer-pathfinder/commit/710a284bff96a4ac547f98912d541a30386e4e7c",
                    "sha": "710a284bff96a4ac547f98912d541a30386e4e7c",
                    "url": "https://api.github.com/repos/PrismarineJS/mineflayer-pathfinder/commits/710a284bff96a4ac547f98912d541a30386e4e7c"
                }
            ],
            "sha": "a89d71f9407814ad9b575a0e47a890af6043b9f0",
            "url": "https://api.github.com/repos/PrismarineJS/mineflayer-pathfinder/commits/a89d71f9407814ad9b575a0e47a890af6043b9f0"
        },
        {
            "author": {
                "avatar_url": "https://avatars.githubusercontent.com/u/1977472?v=4",
                "events_url": "https://api.github.com/users/Karang/events{/privacy}",
                "followers_url": "https://api.github.com/users/Karang/followers",
                "following_url": "https://api.github.com/users/Karang/following{/other_user}",
                "gists_url": "https://api.github.com/users/Karang/gists{/gist_id}",
                "gravatar_id": "",
                "html_url": "https://github.com/Karang",
                "id": 1977472,
                "login": "Karang",
                "node_id": "MDQ6VXNlcjE5Nzc0NzI=",
                "organizations_url": "https://api.github.com/users/Karang/orgs",
                "received_events_url": "https://api.github.com/users/Karang/received_events",
                "repos_url": "https://api.github.com/users/Karang/repos",
                "site_admin": false,
                "starred_url": "https://api.github.com/users/Karang/starred{/owner}{/repo}",
                "subscriptions_url": "https://api.github.com/users/Karang/subscriptions",
                "type": "User",
                "url": "https://api.github.com/users/Karang"
            },
            "comments_url": "https://api.github.com/repos/PrismarineJS/mineflayer-pathfinder/commits/0f7e5df8ebc35dbc98a47fefde2ab53a622792d4/comments",
            "commit": {
                "author": {
                    "date": "2020-12-14T18:16:10Z",
                    "email": "arthur.hennequin@free.fr",
                    "name": "Karang"
                },
                "comment_count": 0,
                "committer": {
                    "date": "2020-12-14T18:16:10Z",
                    "email": "arthur.hennequin@free.fr",
                    "name": "Karang"
                },
                "message": "Add shortcut option",
                "tree": {
                    "sha": "81a4798bee274c6f5130eb78d074d94c0f2859bc",
                    "url": "https://api.github.com/repos/PrismarineJS/mineflayer-pathfinder/git/trees/81a4798bee274c6f5130eb78d074d94c0f2859bc"
                },
                "url": "https://api.github.com/repos/PrismarineJS/mineflayer-pathfinder/git/commits/0f7e5df8ebc35dbc98a47fefde2ab53a622792d4",
                "verification": {
                    "payload": null,
                    "reason": "unsigned",
                    "signature": null,
                    "verified": false
                }
            },
            "committer": {
                "avatar_url": "https://avatars.githubusercontent.com/u/1977472?v=4",
                "events_url": "https://api.github.com/users/Karang/events{/privacy}",
                "followers_url": "https://api.github.com/users/Karang/followers",
                "following_url": "https://api.github.com/users/Karang/following{/other_user}",
                "gists_url": "https://api.github.com/users/Karang/gists{/gist_id}",
                "gravatar_id": "",
                "html_url": "https://github.com/Karang",
                "id": 1977472,
                "login": "Karang",
                "node_id": "MDQ6VXNlcjE5Nzc0NzI=",
                "organizations_url": "https://api.github.com/users/Karang/orgs",
                "received_events_url": "https://api.github.com/users/Karang/received_events",
                "repos_url": "https://api.github.com/users/Karang/repos",
                "site_admin": false,
                "starred_url": "https://api.github.com/users/Karang/starred{/owner}{/repo}",
                "subscriptions_url": "https://api.github.com/users/Karang/subscriptions",
                "type": "User",
                "url": "https://api.github.com/users/Karang"
            },
            "html_url": "https://github.com/PrismarineJS/mineflayer-pathfinder/commit/0f7e5df8ebc35dbc98a47fefde2ab53a622792d4",
            "node_id": "MDY6Q29tbWl0MjU3NDYwMTIwOjBmN2U1ZGY4ZWJjMzVkYmM5OGE0N2ZlZmRlMmFiNTNhNjIyNzkyZDQ=",
            "parents": [
                {
                    "html_url": "https://github.com/PrismarineJS/mineflayer-pathfinder/commit/a89d71f9407814ad9b575a0e47a890af6043b9f0",
                    "sha": "a89d71f9407814ad9b575a0e47a890af6043b9f0",
                    "url": "https://api.github.com/repos/PrismarineJS/mineflayer-pathfinder/commits/a89d71f9407814ad9b575a0e47a890af6043b9f0"
                }
            ],
            "sha": "0f7e5df8ebc35dbc98a47fefde2ab53a622792d4",
            "url": "https://api.github.com/repos/PrismarineJS/mineflayer-pathfinder/commits/0f7e5df8ebc35dbc98a47fefde2ab53a622792d4"
        }
    ],
    "commits": 6,
    "commits_url": "https://api.github.com/repos/PrismarineJS/mineflayer-pathfinder/pulls/85/commits",
    "created_at": "2020-12-11T21:14:28Z",
    "deletions": 144,
    "diff_url": "https://github.com/PrismarineJS/mineflayer-pathfinder/pull/85.diff",
    "draft": false,
    "head": {
        "label": "PrismarineJS:experimental",
        "ref": "experimental",
        "repo": {
            "allow_forking": true,
            "archive_url": "https://api.github.com/repos/PrismarineJS/mineflayer-pathfinder/{archive_format}{/ref}",
            "archived": false,
            "assignees_url": "https://api.github.com/repos/PrismarineJS/mineflayer-pathfinder/assignees{/user}",
            "blobs_url": "https://api.github.com/repos/PrismarineJS/mineflayer-pathfinder/git/blobs{/sha}",
            "branches_url": "https://api.github.com/repos/PrismarineJS/mineflayer-pathfinder/branches{/branch}",
            "clone_url": "https://github.com/PrismarineJS/mineflayer-pathfinder.git",
            "collaborators_url": "https://api.github.com/repos/PrismarineJS/mineflayer-pathfinder/collaborators{/collaborator}",
            "comments_url": "https://api.github.com/repos/PrismarineJS/mineflayer-pathfinder/comments{/number}",
            "commits_url": "https://api.github.com/repos/PrismarineJS/mineflayer-pathfinder/commits{/sha}",
            "compare_url": "https://api.github.com/repos/PrismarineJS/mineflayer-pathfinder/compare/{base}...{head}",
            "contents_url": "https://api.github.com/repos/PrismarineJS/mineflayer-pathfinder/contents/{+path}",
            "contributors_url": "https://api.github.com/repos/PrismarineJS/mineflayer-pathfinder/contributors",
            "created_at": "2020-04-21T02:34:23Z",
            "default_branch": "master",
            "deployments_url": "https://api.github.com/repos/PrismarineJS/mineflayer-pathfinder/deployments",
            "description": "Pathfinding plugin that gives bot the ability to go from A to B",
            "disabled": false,
            "downloads_url": "https://api.github.com/repos/PrismarineJS/mineflayer-pathfinder/downloads",
            "events_url": "https://api.github.com/repos/PrismarineJS/mineflayer-pathfinder/events",
            "fork": false,
            "forks": 52,
            "forks_count": 52,
            "forks_url": "https://api.github.com/repos/PrismarineJS/mineflayer-pathfinder/forks",
            "full_name": "PrismarineJS/mineflayer-pathfinder",
            "git_commits_url": "https://api.github.com/repos/PrismarineJS/mineflayer-pathfinder/git/commits{/sha}",
            "git_refs_url": "https://api.github.com/repos/PrismarineJS/mineflayer-pathfinder/git/refs{/sha}",
            "git_tags_url": "https://api.github.com/repos/PrismarineJS/mineflayer-pathfinder/git/tags{/sha}",
            "git_url": "git://github.com/PrismarineJS/mineflayer-pathfinder.git",
            "has_discussions": false,
            "has_downloads": true,
            "has_issues": true,
            "has_pages": false,
            "has_projects": true,
            "has_wiki": true,
            "homepage": "",
            "hooks_url": "https://api.github.com/repos/PrismarineJS/mineflayer-pathfinder/hooks",
            "html_url": "https://github.com/PrismarineJS/mineflayer-pathfinder",
            "id": 257460120,
            "is_template": false,
            "issue_comment_url": "https://api.github.com/repos/PrismarineJS/mineflayer-pathfinder/issues/comments{/number}",
            "issue_events_url": "https://api.github.com/repos/PrismarineJS/mineflayer-pathfinder/issues/events{/number}",
            "issues_url": "https://api.github.com/repos/PrismarineJS/mineflayer-pathfinder/issues{/number}",
            "keys_url": "https://api.github.com/repos/PrismarineJS/mineflayer-pathfinder/keys{/key_id}",
            "labels_url": "https://api.github.com/repos/PrismarineJS/mineflayer-pathfinder/labels{/name}",
            "language": "JavaScript",
            "languages_url": "https://api.github.com/repos/PrismarineJS/mineflayer-pathfinder/languages",
            "license": {
                "key": "mit",
                "name": "MIT License",
                "node_id": "MDc6TGljZW5zZTEz",
                "spdx_id": "MIT",
                "url": "https://api.github.com/licenses/mit"
            },
            "merges_url": "https://api.github.com/repos/PrismarineJS/mineflayer-pathfinder/merges",
            "milestones_url": "https://api.github.com/repos/PrismarineJS/mineflayer-pathfinder/milestones{/number}",
            "mirror_url": null,
            "name": "mineflayer-pathfinder",
            "node_id": "MDEwOlJlcG9zaXRvcnkyNTc0NjAxMjA=",
            "notifications_url": "https://api.github.com/repos/PrismarineJS/mineflayer-pathfinder/notifications{?since,all,participating}",
            "open_issues": 31,
            "open_issues_count": 31,
            "owner": {
                "avatar_url": "https://avatars.githubusercontent.com/u/11053411?v=4",
                "events_url": "https://api.github.com/users/PrismarineJS/events{/privacy}",
                "followers_url": "https://api.github.com/users/PrismarineJS/followers",
                "following_url": "https://api.github.com/users/PrismarineJS/following{/other_user}",
                "gists_url": "https://api.github.com/users/PrismarineJS/gists{/gist_id}",
                "gravatar_id": "",
                "html_url": "https://github.com/PrismarineJS",
                "id": 11053411,
                "login": "PrismarineJS",
                "node_id": "MDEyOk9yZ2FuaXphdGlvbjExMDUzNDEx",
                "organizations_url": "https://api.github.com/users/PrismarineJS/orgs",
                "received_events_url": "https://api.github.com/users/PrismarineJS/received_events",
                "repos_url": "https://api.github.com/users/PrismarineJS/repos",
                "site_admin": false,
                "starred_url": "https://api.github.com/users/PrismarineJS/starred{/owner}{/repo}",
                "subscriptions_url": "https://api.github.com/users/PrismarineJS/subscriptions",
                "type": "Organization",
                "url": "https://api.github.com/users/PrismarineJS"
            },
            "private": false,
            "pulls_url": "https://api.github.com/repos/PrismarineJS/mineflayer-pathfinder/pulls{/number}",
            "pushed_at": "2023-04-08T17:24:12Z",
            "releases_url": "https://api.github.com/repos/PrismarineJS/mineflayer-pathfinder/releases{/id}",
            "size": 321,
            "ssh_url": "git@github.com:PrismarineJS/mineflayer-pathfinder.git",
            "stargazers_count": 152,
            "stargazers_url": "https://api.github.com/repos/PrismarineJS/mineflayer-pathfinder/stargazers",
            "statuses_url": "https://api.github.com/repos/PrismarineJS/mineflayer-pathfinder/statuses/{sha}",
            "subscribers_url": "https://api.github.com/repos/PrismarineJS/mineflayer-pathfinder/subscribers",
            "subscription_url": "https://api.github.com/repos/PrismarineJS/mineflayer-pathfinder/subscription",
            "svn_url": "https://github.com/PrismarineJS/mineflayer-pathfinder",
            "tags_url": "https://api.github.com/repos/PrismarineJS/mineflayer-pathfinder/tags",
            "teams_url": "https://api.github.com/repos/PrismarineJS/mineflayer-pathfinder/teams",
            "topics": [
                "bot",
                "minecraft",
                "pathfinding"
            ],
            "trees_url": "https://api.github.com/repos/PrismarineJS/mineflayer-pathfinder/git/trees{/sha}",
            "updated_at": "2023-04-23T22:24:23Z",
            "url": "https://api.github.com/repos/PrismarineJS/mineflayer-pathfinder",
            "visibility": "public",
            "watchers": 152,
            "watchers_count": 152,
            "web_commit_signoff_required": false
        },
        "sha": "0f7e5df8ebc35dbc98a47fefde2ab53a622792d4",
        "user": {
            "avatar_url": "https://avatars.githubusercontent.com/u/11053411?v=4",
            "events_url": "https://api.github.com/users/PrismarineJS/events{/privacy}",
            "followers_url": "https://api.github.com/users/PrismarineJS/followers",
            "following_url": "https://api.github.com/users/PrismarineJS/following{/other_user}",
            "gists_url": "https://api.github.com/users/PrismarineJS/gists{/gist_id}",
            "gravatar_id": "",
            "html_url": "https://github.com/PrismarineJS",
            "id": 11053411,
            "login": "PrismarineJS",
            "node_id": "MDEyOk9yZ2FuaXphdGlvbjExMDUzNDEx",
            "organizations_url": "https://api.github.com/users/PrismarineJS/orgs",
            "received_events_url": "https://api.github.com/users/PrismarineJS/received_events",
            "repos_url": "https://api.github.com/users/PrismarineJS/repos",
            "site_admin": false,
            "starred_url": "https://api.github.com/users/PrismarineJS/starred{/owner}{/repo}",
            "subscriptions_url": "https://api.github.com/users/PrismarineJS/subscriptions",
            "type": "Organization",
            "url": "https://api.github.com/users/PrismarineJS"
        }
    },
    "html_url": "https://github.com/PrismarineJS/mineflayer-pathfinder/pull/85",
    "id": 537413798,
    "issue_url": "https://api.github.com/repos/PrismarineJS/mineflayer-pathfinder/issues/85",
    "labels": [],
    "locked": false,
    "maintainer_can_modify": false,
    "merge_commit_sha": "6f41a7ff1a2c9fb46d05c6ab34220cd85ac9d466",
    "mergeable": null,
    "mergeable_state": "unknown",
    "merged": true,
    "merged_at": "2020-12-14T18:20:31Z",
    "merged_by": {
        "avatar_url": "https://avatars.githubusercontent.com/u/1977472?v=4",
        "events_url": "https://api.github.com/users/Karang/events{/privacy}",
        "followers_url": "https://api.github.com/users/Karang/followers",
        "following_url": "https://api.github.com/users/Karang/following{/other_user}",
        "gists_url": "https://api.github.com/users/Karang/gists{/gist_id}",
        "gravatar_id": "",
        "html_url": "https://github.com/Karang",
        "id": 1977472,
        "login": "Karang",
        "node_id": "MDQ6VXNlcjE5Nzc0NzI=",
        "organizations_url": "https://api.github.com/users/Karang/orgs",
        "received_events_url": "https://api.github.com/users/Karang/received_events",
        "repos_url": "https://api.github.com/users/Karang/repos",
        "site_admin": false,
        "starred_url": "https://api.github.com/users/Karang/starred{/owner}{/repo}",
        "subscriptions_url": "https://api.github.com/users/Karang/subscriptions",
        "type": "User",
        "url": "https://api.github.com/users/Karang"
    },
    "milestone": null,
    "node_id": "MDExOlB1bGxSZXF1ZXN0NTM3NDEzNzk4",
    "number": 85,
    "patch_url": "https://github.com/PrismarineJS/mineflayer-pathfinder/pull/85.patch",
    "rebaseable": null,
    "requested_reviewers": [],
    "requested_teams": [],
    "review_comment_url": "https://api.github.com/repos/PrismarineJS/mineflayer-pathfinder/pulls/comments{/number}",
    "review_comments": 0,
    "review_comments_url": "https://api.github.com/repos/PrismarineJS/mineflayer-pathfinder/pulls/85/comments",
    "state": "closed",
    "statuses_url": "https://api.github.com/repos/PrismarineJS/mineflayer-pathfinder/statuses/0f7e5df8ebc35dbc98a47fefde2ab53a622792d4",
    "title": "Replace control logic by physic simulation, sprint and advanced parkour",
    "updated_at": "2020-12-14T18:20:32Z",
    "url": "https://api.github.com/repos/PrismarineJS/mineflayer-pathfinder/pulls/85",
    "user": {
        "avatar_url": "https://avatars.githubusercontent.com/u/1977472?v=4",
        "events_url": "https://api.github.com/users/Karang/events{/privacy}",
        "followers_url": "https://api.github.com/users/Karang/followers",
        "following_url": "https://api.github.com/users/Karang/following{/other_user}",
        "gists_url": "https://api.github.com/users/Karang/gists{/gist_id}",
        "gravatar_id": "",
        "html_url": "https://github.com/Karang",
        "id": 1977472,
        "login": "Karang",
        "node_id": "MDQ6VXNlcjE5Nzc0NzI=",
        "organizations_url": "https://api.github.com/users/Karang/orgs",
        "received_events_url": "https://api.github.com/users/Karang/received_events",
        "repos_url": "https://api.github.com/users/Karang/repos",
        "site_admin": false,
        "starred_url": "https://api.github.com/users/Karang/starred{/owner}{/repo}",
        "subscriptions_url": "https://api.github.com/users/Karang/subscriptions",
        "type": "User",
        "url": "https://api.github.com/users/Karang"
    }
}