{
    "active_lock_reason": null,
    "assignee": null,
    "assignees": [],
    "author_association": "MEMBER",
    "body": "1. create a path where the bot must jump repeatedly to get there\n2. watch him accidentally fall\n",
    "closed_at": null,
    "comment_data": [
        {
            "author_association": "CONTRIBUTOR",
            "body": "How much does he have to jump? A series of 2-gaps?\n",
            "created_at": "2013-02-03T02:52:35Z",
            "html_url": "https://github.com/PrismarineJS/mineflayer-navigate/issues/14#issuecomment-13041440",
            "id": 13041440,
            "issue_url": "https://api.github.com/repos/PrismarineJS/mineflayer-navigate/issues/14",
            "node_id": "MDEyOklzc3VlQ29tbWVudDEzMDQxNDQw",
            "performed_via_github_app": null,
            "reactions": {
                "+1": 0,
                "-1": 0,
                "confused": 0,
                "eyes": 0,
                "heart": 0,
                "hooray": 0,
                "laugh": 0,
                "rocket": 0,
                "total_count": 0,
                "url": "https://api.github.com/repos/PrismarineJS/mineflayer-navigate/issues/comments/13041440/reactions"
            },
            "updated_at": "2013-02-03T02:52:35Z",
            "url": "https://api.github.com/repos/PrismarineJS/mineflayer-navigate/issues/comments/13041440",
            "user": {
                "avatar_url": "https://avatars.githubusercontent.com/u/159568?v=4",
                "events_url": "https://api.github.com/users/vogonistic/events{/privacy}",
                "followers_url": "https://api.github.com/users/vogonistic/followers",
                "following_url": "https://api.github.com/users/vogonistic/following{/other_user}",
                "gists_url": "https://api.github.com/users/vogonistic/gists{/gist_id}",
                "gravatar_id": "",
                "html_url": "https://github.com/vogonistic",
                "id": 159568,
                "login": "vogonistic",
                "node_id": "MDQ6VXNlcjE1OTU2OA==",
                "organizations_url": "https://api.github.com/users/vogonistic/orgs",
                "received_events_url": "https://api.github.com/users/vogonistic/received_events",
                "repos_url": "https://api.github.com/users/vogonistic/repos",
                "site_admin": false,
                "starred_url": "https://api.github.com/users/vogonistic/starred{/owner}{/repo}",
                "subscriptions_url": "https://api.github.com/users/vogonistic/subscriptions",
                "type": "User",
                "url": "https://api.github.com/users/vogonistic"
            }
        },
        {
            "author_association": "MEMBER",
            "body": "It's inconsistent. If you do at least 10 in a row of 1-gaps it should be enough to duplicate the issue.\n",
            "created_at": "2013-02-03T02:55:33Z",
            "html_url": "https://github.com/PrismarineJS/mineflayer-navigate/issues/14#issuecomment-13041468",
            "id": 13041468,
            "issue_url": "https://api.github.com/repos/PrismarineJS/mineflayer-navigate/issues/14",
            "node_id": "MDEyOklzc3VlQ29tbWVudDEzMDQxNDY4",
            "performed_via_github_app": null,
            "reactions": {
                "+1": 0,
                "-1": 0,
                "confused": 0,
                "eyes": 0,
                "heart": 0,
                "hooray": 0,
                "laugh": 0,
                "rocket": 0,
                "total_count": 0,
                "url": "https://api.github.com/repos/PrismarineJS/mineflayer-navigate/issues/comments/13041468/reactions"
            },
            "updated_at": "2013-02-03T02:55:33Z",
            "url": "https://api.github.com/repos/PrismarineJS/mineflayer-navigate/issues/comments/13041468",
            "user": {
                "avatar_url": "https://avatars.githubusercontent.com/u/106511?v=4",
                "events_url": "https://api.github.com/users/andrewrk/events{/privacy}",
                "followers_url": "https://api.github.com/users/andrewrk/followers",
                "following_url": "https://api.github.com/users/andrewrk/following{/other_user}",
                "gists_url": "https://api.github.com/users/andrewrk/gists{/gist_id}",
                "gravatar_id": "",
                "html_url": "https://github.com/andrewrk",
                "id": 106511,
                "login": "andrewrk",
                "node_id": "MDQ6VXNlcjEwNjUxMQ==",
                "organizations_url": "https://api.github.com/users/andrewrk/orgs",
                "received_events_url": "https://api.github.com/users/andrewrk/received_events",
                "repos_url": "https://api.github.com/users/andrewrk/repos",
                "site_admin": false,
                "starred_url": "https://api.github.com/users/andrewrk/starred{/owner}{/repo}",
                "subscriptions_url": "https://api.github.com/users/andrewrk/subscriptions",
                "type": "User",
                "url": "https://api.github.com/users/andrewrk"
            }
        },
        {
            "author_association": "CONTRIBUTOR",
            "body": "I'll test it tonight. \n",
            "created_at": "2013-02-03T02:56:30Z",
            "html_url": "https://github.com/PrismarineJS/mineflayer-navigate/issues/14#issuecomment-13041476",
            "id": 13041476,
            "issue_url": "https://api.github.com/repos/PrismarineJS/mineflayer-navigate/issues/14",
            "node_id": "MDEyOklzc3VlQ29tbWVudDEzMDQxNDc2",
            "performed_via_github_app": null,
            "reactions": {
                "+1": 0,
                "-1": 0,
                "confused": 0,
                "eyes": 0,
                "heart": 0,
                "hooray": 0,
                "laugh": 0,
                "rocket": 0,
                "total_count": 0,
                "url": "https://api.github.com/repos/PrismarineJS/mineflayer-navigate/issues/comments/13041476/reactions"
            },
            "updated_at": "2013-02-03T02:56:30Z",
            "url": "https://api.github.com/repos/PrismarineJS/mineflayer-navigate/issues/comments/13041476",
            "user": {
                "avatar_url": "https://avatars.githubusercontent.com/u/159568?v=4",
                "events_url": "https://api.github.com/users/vogonistic/events{/privacy}",
                "followers_url": "https://api.github.com/users/vogonistic/followers",
                "following_url": "https://api.github.com/users/vogonistic/following{/other_user}",
                "gists_url": "https://api.github.com/users/vogonistic/gists{/gist_id}",
                "gravatar_id": "",
                "html_url": "https://github.com/vogonistic",
                "id": 159568,
                "login": "vogonistic",
                "node_id": "MDQ6VXNlcjE1OTU2OA==",
                "organizations_url": "https://api.github.com/users/vogonistic/orgs",
                "received_events_url": "https://api.github.com/users/vogonistic/received_events",
                "repos_url": "https://api.github.com/users/vogonistic/repos",
                "site_admin": false,
                "starred_url": "https://api.github.com/users/vogonistic/starred{/owner}{/repo}",
                "subscriptions_url": "https://api.github.com/users/vogonistic/subscriptions",
                "type": "User",
                "url": "https://api.github.com/users/vogonistic"
            }
        },
        {
            "author_association": "MEMBER",
            "body": "FWIW, this is not introduced by your PR - this issue existed before.\n",
            "created_at": "2013-02-03T03:33:59Z",
            "html_url": "https://github.com/PrismarineJS/mineflayer-navigate/issues/14#issuecomment-13041792",
            "id": 13041792,
            "issue_url": "https://api.github.com/repos/PrismarineJS/mineflayer-navigate/issues/14",
            "node_id": "MDEyOklzc3VlQ29tbWVudDEzMDQxNzky",
            "performed_via_github_app": null,
            "reactions": {
                "+1": 0,
                "-1": 0,
                "confused": 0,
                "eyes": 0,
                "heart": 0,
                "hooray": 0,
                "laugh": 0,
                "rocket": 0,
                "total_count": 0,
                "url": "https://api.github.com/repos/PrismarineJS/mineflayer-navigate/issues/comments/13041792/reactions"
            },
            "updated_at": "2013-02-03T03:33:59Z",
            "url": "https://api.github.com/repos/PrismarineJS/mineflayer-navigate/issues/comments/13041792",
            "user": {
                "avatar_url": "https://avatars.githubusercontent.com/u/106511?v=4",
                "events_url": "https://api.github.com/users/andrewrk/events{/privacy}",
                "followers_url": "https://api.github.com/users/andrewrk/followers",
                "following_url": "https://api.github.com/users/andrewrk/following{/other_user}",
                "gists_url": "https://api.github.com/users/andrewrk/gists{/gist_id}",
                "gravatar_id": "",
                "html_url": "https://github.com/andrewrk",
                "id": 106511,
                "login": "andrewrk",
                "node_id": "MDQ6VXNlcjEwNjUxMQ==",
                "organizations_url": "https://api.github.com/users/andrewrk/orgs",
                "received_events_url": "https://api.github.com/users/andrewrk/received_events",
                "repos_url": "https://api.github.com/users/andrewrk/repos",
                "site_admin": false,
                "starred_url": "https://api.github.com/users/andrewrk/starred{/owner}{/repo}",
                "subscriptions_url": "https://api.github.com/users/andrewrk/subscriptions",
                "type": "User",
                "url": "https://api.github.com/users/andrewrk"
            }
        },
        {
            "author_association": "CONTRIBUTOR",
            "body": "I haven't been able to reproduce this issue. Right now I have a course with 10 2-block gaps in a row and it does just fine..\n",
            "created_at": "2013-02-03T05:49:03Z",
            "html_url": "https://github.com/PrismarineJS/mineflayer-navigate/issues/14#issuecomment-13042846",
            "id": 13042846,
            "issue_url": "https://api.github.com/repos/PrismarineJS/mineflayer-navigate/issues/14",
            "node_id": "MDEyOklzc3VlQ29tbWVudDEzMDQyODQ2",
            "performed_via_github_app": null,
            "reactions": {
                "+1": 0,
                "-1": 0,
                "confused": 0,
                "eyes": 0,
                "heart": 0,
                "hooray": 0,
                "laugh": 0,
                "rocket": 0,
                "total_count": 0,
                "url": "https://api.github.com/repos/PrismarineJS/mineflayer-navigate/issues/comments/13042846/reactions"
            },
            "updated_at": "2013-02-03T05:49:03Z",
            "url": "https://api.github.com/repos/PrismarineJS/mineflayer-navigate/issues/comments/13042846",
            "user": {
                "avatar_url": "https://avatars.githubusercontent.com/u/159568?v=4",
                "events_url": "https://api.github.com/users/vogonistic/events{/privacy}",
                "followers_url": "https://api.github.com/users/vogonistic/followers",
                "following_url": "https://api.github.com/users/vogonistic/following{/other_user}",
                "gists_url": "https://api.github.com/users/vogonistic/gists{/gist_id}",
                "gravatar_id": "",
                "html_url": "https://github.com/vogonistic",
                "id": 159568,
                "login": "vogonistic",
                "node_id": "MDQ6VXNlcjE1OTU2OA==",
                "organizations_url": "https://api.github.com/users/vogonistic/orgs",
                "received_events_url": "https://api.github.com/users/vogonistic/received_events",
                "repos_url": "https://api.github.com/users/vogonistic/repos",
                "site_admin": false,
                "starred_url": "https://api.github.com/users/vogonistic/starred{/owner}{/repo}",
                "subscriptions_url": "https://api.github.com/users/vogonistic/subscriptions",
                "type": "User",
                "url": "https://api.github.com/users/vogonistic"
            }
        },
        {
            "author_association": "MEMBER",
            "body": "Interesting. I wonder if it has something to do with processor speed and using an event loop for the physics engine.\n\nI also noticed that if I `setControlState('jump', true)` and just watch the bot jump over and over, it'll hurt itself somehow and eventually die. Does this happen for you?\n",
            "created_at": "2013-02-03T06:01:34Z",
            "html_url": "https://github.com/PrismarineJS/mineflayer-navigate/issues/14#issuecomment-13042940",
            "id": 13042940,
            "issue_url": "https://api.github.com/repos/PrismarineJS/mineflayer-navigate/issues/14",
            "node_id": "MDEyOklzc3VlQ29tbWVudDEzMDQyOTQw",
            "performed_via_github_app": null,
            "reactions": {
                "+1": 0,
                "-1": 0,
                "confused": 0,
                "eyes": 0,
                "heart": 0,
                "hooray": 0,
                "laugh": 0,
                "rocket": 0,
                "total_count": 0,
                "url": "https://api.github.com/repos/PrismarineJS/mineflayer-navigate/issues/comments/13042940/reactions"
            },
            "updated_at": "2013-02-03T06:01:34Z",
            "url": "https://api.github.com/repos/PrismarineJS/mineflayer-navigate/issues/comments/13042940",
            "user": {
                "avatar_url": "https://avatars.githubusercontent.com/u/106511?v=4",
                "events_url": "https://api.github.com/users/andrewrk/events{/privacy}",
                "followers_url": "https://api.github.com/users/andrewrk/followers",
                "following_url": "https://api.github.com/users/andrewrk/following{/other_user}",
                "gists_url": "https://api.github.com/users/andrewrk/gists{/gist_id}",
                "gravatar_id": "",
                "html_url": "https://github.com/andrewrk",
                "id": 106511,
                "login": "andrewrk",
                "node_id": "MDQ6VXNlcjEwNjUxMQ==",
                "organizations_url": "https://api.github.com/users/andrewrk/orgs",
                "received_events_url": "https://api.github.com/users/andrewrk/received_events",
                "repos_url": "https://api.github.com/users/andrewrk/repos",
                "site_admin": false,
                "starred_url": "https://api.github.com/users/andrewrk/starred{/owner}{/repo}",
                "subscriptions_url": "https://api.github.com/users/andrewrk/subscriptions",
                "type": "User",
                "url": "https://api.github.com/users/andrewrk"
            }
        },
        {
            "author_association": "CONTRIBUTOR",
            "body": "I'm running it on a MacBook Pro Retina (2.7 Ghz) and don't see any noticeable cpu utilization. Maybe the event loop isn't running fast enough?\n\nYeah, I filed a bug on that a few minutes ago. I'm guessing that it doesn't settle on the ground properly in between jumps.\n",
            "created_at": "2013-02-03T06:04:46Z",
            "html_url": "https://github.com/PrismarineJS/mineflayer-navigate/issues/14#issuecomment-13042968",
            "id": 13042968,
            "issue_url": "https://api.github.com/repos/PrismarineJS/mineflayer-navigate/issues/14",
            "node_id": "MDEyOklzc3VlQ29tbWVudDEzMDQyOTY4",
            "performed_via_github_app": null,
            "reactions": {
                "+1": 0,
                "-1": 0,
                "confused": 0,
                "eyes": 0,
                "heart": 0,
                "hooray": 0,
                "laugh": 0,
                "rocket": 0,
                "total_count": 0,
                "url": "https://api.github.com/repos/PrismarineJS/mineflayer-navigate/issues/comments/13042968/reactions"
            },
            "updated_at": "2013-02-03T06:04:46Z",
            "url": "https://api.github.com/repos/PrismarineJS/mineflayer-navigate/issues/comments/13042968",
            "user": {
                "avatar_url": "https://avatars.githubusercontent.com/u/159568?v=4",
                "events_url": "https://api.github.com/users/vogonistic/events{/privacy}",
                "followers_url": "https://api.github.com/users/vogonistic/followers",
                "following_url": "https://api.github.com/users/vogonistic/following{/other_user}",
                "gists_url": "https://api.github.com/users/vogonistic/gists{/gist_id}",
                "gravatar_id": "",
                "html_url": "https://github.com/vogonistic",
                "id": 159568,
                "login": "vogonistic",
                "node_id": "MDQ6VXNlcjE1OTU2OA==",
                "organizations_url": "https://api.github.com/users/vogonistic/orgs",
                "received_events_url": "https://api.github.com/users/vogonistic/received_events",
                "repos_url": "https://api.github.com/users/vogonistic/repos",
                "site_admin": false,
                "starred_url": "https://api.github.com/users/vogonistic/starred{/owner}{/repo}",
                "subscriptions_url": "https://api.github.com/users/vogonistic/subscriptions",
                "type": "User",
                "url": "https://api.github.com/users/vogonistic"
            }
        },
        {
            "author_association": "NONE",
            "body": "To recreate this bug just make a 1 block distance between each block.\r\nSo block, air, block, air, block.....\r\nThe bot will jump too late, an easy fix is to change\r\n> const WAIT_TIME_BEFORE_NEW_JUMP = 0.3\r\n\r\nin physics.js to a value lower than 0.1",
            "created_at": "2017-08-01T07:36:33Z",
            "html_url": "https://github.com/PrismarineJS/mineflayer-navigate/issues/14#issuecomment-319292781",
            "id": 319292781,
            "issue_url": "https://api.github.com/repos/PrismarineJS/mineflayer-navigate/issues/14",
            "node_id": "MDEyOklzc3VlQ29tbWVudDMxOTI5Mjc4MQ==",
            "performed_via_github_app": null,
            "reactions": {
                "+1": 0,
                "-1": 0,
                "confused": 0,
                "eyes": 0,
                "heart": 0,
                "hooray": 0,
                "laugh": 0,
                "rocket": 0,
                "total_count": 0,
                "url": "https://api.github.com/repos/PrismarineJS/mineflayer-navigate/issues/comments/319292781/reactions"
            },
            "updated_at": "2017-08-01T10:20:34Z",
            "url": "https://api.github.com/repos/PrismarineJS/mineflayer-navigate/issues/comments/319292781",
            "user": {
                "avatar_url": "https://avatars.githubusercontent.com/u/24797963?v=4",
                "events_url": "https://api.github.com/users/duralakun/events{/privacy}",
                "followers_url": "https://api.github.com/users/duralakun/followers",
                "following_url": "https://api.github.com/users/duralakun/following{/other_user}",
                "gists_url": "https://api.github.com/users/duralakun/gists{/gist_id}",
                "gravatar_id": "",
                "html_url": "https://github.com/duralakun",
                "id": 24797963,
                "login": "duralakun",
                "node_id": "MDQ6VXNlcjI0Nzk3OTYz",
                "organizations_url": "https://api.github.com/users/duralakun/orgs",
                "received_events_url": "https://api.github.com/users/duralakun/received_events",
                "repos_url": "https://api.github.com/users/duralakun/repos",
                "site_admin": false,
                "starred_url": "https://api.github.com/users/duralakun/starred{/owner}{/repo}",
                "subscriptions_url": "https://api.github.com/users/duralakun/subscriptions",
                "type": "User",
                "url": "https://api.github.com/users/duralakun"
            }
        }
    ],
    "comments": 8,
    "comments_url": "https://api.github.com/repos/PrismarineJS/mineflayer-navigate/issues/14/comments",
    "created_at": "2013-02-03T02:50:57Z",
    "event_data": [],
    "events_url": "https://api.github.com/repos/PrismarineJS/mineflayer-navigate/issues/14/events",
    "html_url": "https://github.com/PrismarineJS/mineflayer-navigate/issues/14",
    "id": 10580216,
    "labels": [
        {
            "color": "fc2929",
            "default": true,
            "description": null,
            "id": 24701706,
            "name": "bug",
            "node_id": "MDU6TGFiZWwyNDcwMTcwNg==",
            "url": "https://api.github.com/repos/PrismarineJS/mineflayer-navigate/labels/bug"
        }
    ],
    "labels_url": "https://api.github.com/repos/PrismarineJS/mineflayer-navigate/issues/14/labels{/name}",
    "locked": false,
    "milestone": null,
    "node_id": "MDU6SXNzdWUxMDU4MDIxNg==",
    "number": 14,
    "performed_via_github_app": null,
    "reactions": {
        "+1": 0,
        "-1": 0,
        "confused": 0,
        "eyes": 0,
        "heart": 0,
        "hooray": 0,
        "laugh": 0,
        "rocket": 0,
        "total_count": 0,
        "url": "https://api.github.com/repos/PrismarineJS/mineflayer-navigate/issues/14/reactions"
    },
    "repository_url": "https://api.github.com/repos/PrismarineJS/mineflayer-navigate",
    "state": "open",
    "state_reason": null,
    "timeline_url": "https://api.github.com/repos/PrismarineJS/mineflayer-navigate/issues/14/timeline",
    "title": "walk is error prone when bot has to jump repeatedly",
    "updated_at": "2017-08-01T10:20:34Z",
    "url": "https://api.github.com/repos/PrismarineJS/mineflayer-navigate/issues/14",
    "user": {
        "avatar_url": "https://avatars.githubusercontent.com/u/106511?v=4",
        "events_url": "https://api.github.com/users/andrewrk/events{/privacy}",
        "followers_url": "https://api.github.com/users/andrewrk/followers",
        "following_url": "https://api.github.com/users/andrewrk/following{/other_user}",
        "gists_url": "https://api.github.com/users/andrewrk/gists{/gist_id}",
        "gravatar_id": "",
        "html_url": "https://github.com/andrewrk",
        "id": 106511,
        "login": "andrewrk",
        "node_id": "MDQ6VXNlcjEwNjUxMQ==",
        "organizations_url": "https://api.github.com/users/andrewrk/orgs",
        "received_events_url": "https://api.github.com/users/andrewrk/received_events",
        "repos_url": "https://api.github.com/users/andrewrk/repos",
        "site_admin": false,
        "starred_url": "https://api.github.com/users/andrewrk/starred{/owner}{/repo}",
        "subscriptions_url": "https://api.github.com/users/andrewrk/subscriptions",
        "type": "User",
        "url": "https://api.github.com/users/andrewrk"
    }
}