{
    "_links": {
        "comments": {
            "href": "https://api.github.com/repos/PrismarineJS/minecraft-data/issues/116/comments"
        },
        "commits": {
            "href": "https://api.github.com/repos/PrismarineJS/minecraft-data/pulls/116/commits"
        },
        "html": {
            "href": "https://github.com/PrismarineJS/minecraft-data/pull/116"
        },
        "issue": {
            "href": "https://api.github.com/repos/PrismarineJS/minecraft-data/issues/116"
        },
        "review_comment": {
            "href": "https://api.github.com/repos/PrismarineJS/minecraft-data/pulls/comments{/number}"
        },
        "review_comments": {
            "href": "https://api.github.com/repos/PrismarineJS/minecraft-data/pulls/116/comments"
        },
        "self": {
            "href": "https://api.github.com/repos/PrismarineJS/minecraft-data/pulls/116"
        },
        "statuses": {
            "href": "https://api.github.com/repos/PrismarineJS/minecraft-data/statuses/fd436d63fd0a1b731ab2d1ccc1c424b14b1c8844"
        }
    },
    "active_lock_reason": null,
    "additions": 6149,
    "assignee": null,
    "assignees": [],
    "author_association": "MEMBER",
    "auto_merge": null,
    "base": {
        "label": "PrismarineJS:master",
        "ref": "master",
        "repo": {
            "allow_forking": true,
            "archive_url": "https://api.github.com/repos/PrismarineJS/minecraft-data/{archive_format}{/ref}",
            "archived": false,
            "assignees_url": "https://api.github.com/repos/PrismarineJS/minecraft-data/assignees{/user}",
            "blobs_url": "https://api.github.com/repos/PrismarineJS/minecraft-data/git/blobs{/sha}",
            "branches_url": "https://api.github.com/repos/PrismarineJS/minecraft-data/branches{/branch}",
            "clone_url": "https://github.com/PrismarineJS/minecraft-data.git",
            "collaborators_url": "https://api.github.com/repos/PrismarineJS/minecraft-data/collaborators{/collaborator}",
            "comments_url": "https://api.github.com/repos/PrismarineJS/minecraft-data/comments{/number}",
            "commits_url": "https://api.github.com/repos/PrismarineJS/minecraft-data/commits{/sha}",
            "compare_url": "https://api.github.com/repos/PrismarineJS/minecraft-data/compare/{base}...{head}",
            "contents_url": "https://api.github.com/repos/PrismarineJS/minecraft-data/contents/{+path}",
            "contributors_url": "https://api.github.com/repos/PrismarineJS/minecraft-data/contributors",
            "created_at": "2015-03-23T15:38:19Z",
            "default_branch": "master",
            "deployments_url": "https://api.github.com/repos/PrismarineJS/minecraft-data/deployments",
            "description": "Language independent module providing minecraft data for minecraft clients, servers and libraries.",
            "disabled": false,
            "downloads_url": "https://api.github.com/repos/PrismarineJS/minecraft-data/downloads",
            "events_url": "https://api.github.com/repos/PrismarineJS/minecraft-data/events",
            "fork": false,
            "forks": 184,
            "forks_count": 184,
            "forks_url": "https://api.github.com/repos/PrismarineJS/minecraft-data/forks",
            "full_name": "PrismarineJS/minecraft-data",
            "git_commits_url": "https://api.github.com/repos/PrismarineJS/minecraft-data/git/commits{/sha}",
            "git_refs_url": "https://api.github.com/repos/PrismarineJS/minecraft-data/git/refs{/sha}",
            "git_tags_url": "https://api.github.com/repos/PrismarineJS/minecraft-data/git/tags{/sha}",
            "git_url": "git://github.com/PrismarineJS/minecraft-data.git",
            "has_discussions": false,
            "has_downloads": true,
            "has_issues": true,
            "has_pages": true,
            "has_projects": true,
            "has_wiki": true,
            "homepage": "https://prismarinejs.github.io/minecraft-data",
            "hooks_url": "https://api.github.com/repos/PrismarineJS/minecraft-data/hooks",
            "html_url": "https://github.com/PrismarineJS/minecraft-data",
            "id": 32741498,
            "is_template": false,
            "issue_comment_url": "https://api.github.com/repos/PrismarineJS/minecraft-data/issues/comments{/number}",
            "issue_events_url": "https://api.github.com/repos/PrismarineJS/minecraft-data/issues/events{/number}",
            "issues_url": "https://api.github.com/repos/PrismarineJS/minecraft-data/issues{/number}",
            "keys_url": "https://api.github.com/repos/PrismarineJS/minecraft-data/keys{/key_id}",
            "labels_url": "https://api.github.com/repos/PrismarineJS/minecraft-data/labels{/name}",
            "language": "JavaScript",
            "languages_url": "https://api.github.com/repos/PrismarineJS/minecraft-data/languages",
            "license": null,
            "merges_url": "https://api.github.com/repos/PrismarineJS/minecraft-data/merges",
            "milestones_url": "https://api.github.com/repos/PrismarineJS/minecraft-data/milestones{/number}",
            "mirror_url": null,
            "name": "minecraft-data",
            "node_id": "MDEwOlJlcG9zaXRvcnkzMjc0MTQ5OA==",
            "notifications_url": "https://api.github.com/repos/PrismarineJS/minecraft-data/notifications{?since,all,participating}",
            "open_issues": 113,
            "open_issues_count": 113,
            "owner": {
                "avatar_url": "https://avatars.githubusercontent.com/u/11053411?v=4",
                "events_url": "https://api.github.com/users/PrismarineJS/events{/privacy}",
                "followers_url": "https://api.github.com/users/PrismarineJS/followers",
                "following_url": "https://api.github.com/users/PrismarineJS/following{/other_user}",
                "gists_url": "https://api.github.com/users/PrismarineJS/gists{/gist_id}",
                "gravatar_id": "",
                "html_url": "https://github.com/PrismarineJS",
                "id": 11053411,
                "login": "PrismarineJS",
                "node_id": "MDEyOk9yZ2FuaXphdGlvbjExMDUzNDEx",
                "organizations_url": "https://api.github.com/users/PrismarineJS/orgs",
                "received_events_url": "https://api.github.com/users/PrismarineJS/received_events",
                "repos_url": "https://api.github.com/users/PrismarineJS/repos",
                "site_admin": false,
                "starred_url": "https://api.github.com/users/PrismarineJS/starred{/owner}{/repo}",
                "subscriptions_url": "https://api.github.com/users/PrismarineJS/subscriptions",
                "type": "Organization",
                "url": "https://api.github.com/users/PrismarineJS"
            },
            "private": false,
            "pulls_url": "https://api.github.com/repos/PrismarineJS/minecraft-data/pulls{/number}",
            "pushed_at": "2023-04-08T18:30:50Z",
            "releases_url": "https://api.github.com/repos/PrismarineJS/minecraft-data/releases{/id}",
            "size": 134084,
            "ssh_url": "git@github.com:PrismarineJS/minecraft-data.git",
            "stargazers_count": 473,
            "stargazers_url": "https://api.github.com/repos/PrismarineJS/minecraft-data/stargazers",
            "statuses_url": "https://api.github.com/repos/PrismarineJS/minecraft-data/statuses/{sha}",
            "subscribers_url": "https://api.github.com/repos/PrismarineJS/minecraft-data/subscribers",
            "subscription_url": "https://api.github.com/repos/PrismarineJS/minecraft-data/subscription",
            "svn_url": "https://github.com/PrismarineJS/minecraft-data",
            "tags_url": "https://api.github.com/repos/PrismarineJS/minecraft-data/tags",
            "teams_url": "https://api.github.com/repos/PrismarineJS/minecraft-data/teams",
            "topics": [
                "data",
                "minecraft"
            ],
            "trees_url": "https://api.github.com/repos/PrismarineJS/minecraft-data/git/trees{/sha}",
            "updated_at": "2023-04-24T04:11:18Z",
            "url": "https://api.github.com/repos/PrismarineJS/minecraft-data",
            "visibility": "public",
            "watchers": 473,
            "watchers_count": 473,
            "web_commit_signoff_required": false
        },
        "sha": "6344cf32b991c24589b897823feae7953e0e3a59",
        "user": {
            "avatar_url": "https://avatars.githubusercontent.com/u/11053411?v=4",
            "events_url": "https://api.github.com/users/PrismarineJS/events{/privacy}",
            "followers_url": "https://api.github.com/users/PrismarineJS/followers",
            "following_url": "https://api.github.com/users/PrismarineJS/following{/other_user}",
            "gists_url": "https://api.github.com/users/PrismarineJS/gists{/gist_id}",
            "gravatar_id": "",
            "html_url": "https://github.com/PrismarineJS",
            "id": 11053411,
            "login": "PrismarineJS",
            "node_id": "MDEyOk9yZ2FuaXphdGlvbjExMDUzNDEx",
            "organizations_url": "https://api.github.com/users/PrismarineJS/orgs",
            "received_events_url": "https://api.github.com/users/PrismarineJS/received_events",
            "repos_url": "https://api.github.com/users/PrismarineJS/repos",
            "site_admin": false,
            "starred_url": "https://api.github.com/users/PrismarineJS/starred{/owner}{/repo}",
            "subscriptions_url": "https://api.github.com/users/PrismarineJS/subscriptions",
            "type": "Organization",
            "url": "https://api.github.com/users/PrismarineJS"
        }
    },
    "body": "",
    "changed_files": 8,
    "closed_at": "2016-02-18T14:43:47Z",
    "comment_data": [],
    "comment_regular_data": [
        {
            "author_association": "MEMBER",
            "body": "ah damn mineflayer never had 1.7 data https://github.com/PrismarineJS/mineflayer/commits/master?page=10\n",
            "created_at": "2016-02-18T11:47:45Z",
            "html_url": "https://github.com/PrismarineJS/minecraft-data/pull/116#issuecomment-185679640",
            "id": 185679640,
            "issue_url": "https://api.github.com/repos/PrismarineJS/minecraft-data/issues/116",
            "node_id": "MDEyOklzc3VlQ29tbWVudDE4NTY3OTY0MA==",
            "performed_via_github_app": null,
            "reactions": {
                "+1": 0,
                "-1": 0,
                "confused": 0,
                "eyes": 0,
                "heart": 0,
                "hooray": 0,
                "laugh": 0,
                "rocket": 0,
                "total_count": 0,
                "url": "https://api.github.com/repos/PrismarineJS/minecraft-data/issues/comments/185679640/reactions"
            },
            "updated_at": "2016-02-18T11:47:45Z",
            "url": "https://api.github.com/repos/PrismarineJS/minecraft-data/issues/comments/185679640",
            "user": {
                "avatar_url": "https://avatars.githubusercontent.com/u/2346494?v=4",
                "events_url": "https://api.github.com/users/rom1504/events{/privacy}",
                "followers_url": "https://api.github.com/users/rom1504/followers",
                "following_url": "https://api.github.com/users/rom1504/following{/other_user}",
                "gists_url": "https://api.github.com/users/rom1504/gists{/gist_id}",
                "gravatar_id": "",
                "html_url": "https://github.com/rom1504",
                "id": 2346494,
                "login": "rom1504",
                "node_id": "MDQ6VXNlcjIzNDY0OTQ=",
                "organizations_url": "https://api.github.com/users/rom1504/orgs",
                "received_events_url": "https://api.github.com/users/rom1504/received_events",
                "repos_url": "https://api.github.com/users/rom1504/repos",
                "site_admin": false,
                "starred_url": "https://api.github.com/users/rom1504/starred{/owner}{/repo}",
                "subscriptions_url": "https://api.github.com/users/rom1504/subscriptions",
                "type": "User",
                "url": "https://api.github.com/users/rom1504"
            }
        },
        {
            "author_association": "MEMBER",
            "body": "for reference, first node.js commit of mineflayer was at 1.4.6 https://github.com/PrismarineJS/mineflayer/tree/217d1fd3084134a6b4eafd1aae1a0632a6a3839b\n",
            "created_at": "2016-02-18T11:50:29Z",
            "html_url": "https://github.com/PrismarineJS/minecraft-data/pull/116#issuecomment-185680130",
            "id": 185680130,
            "issue_url": "https://api.github.com/repos/PrismarineJS/minecraft-data/issues/116",
            "node_id": "MDEyOklzc3VlQ29tbWVudDE4NTY4MDEzMA==",
            "performed_via_github_app": null,
            "reactions": {
                "+1": 0,
                "-1": 0,
                "confused": 0,
                "eyes": 0,
                "heart": 0,
                "hooray": 0,
                "laugh": 0,
                "rocket": 0,
                "total_count": 0,
                "url": "https://api.github.com/repos/PrismarineJS/minecraft-data/issues/comments/185680130/reactions"
            },
            "updated_at": "2016-02-18T11:50:29Z",
            "url": "https://api.github.com/repos/PrismarineJS/minecraft-data/issues/comments/185680130",
            "user": {
                "avatar_url": "https://avatars.githubusercontent.com/u/2346494?v=4",
                "events_url": "https://api.github.com/users/rom1504/events{/privacy}",
                "followers_url": "https://api.github.com/users/rom1504/followers",
                "following_url": "https://api.github.com/users/rom1504/following{/other_user}",
                "gists_url": "https://api.github.com/users/rom1504/gists{/gist_id}",
                "gravatar_id": "",
                "html_url": "https://github.com/rom1504",
                "id": 2346494,
                "login": "rom1504",
                "node_id": "MDQ6VXNlcjIzNDY0OTQ=",
                "organizations_url": "https://api.github.com/users/rom1504/orgs",
                "received_events_url": "https://api.github.com/users/rom1504/received_events",
                "repos_url": "https://api.github.com/users/rom1504/repos",
                "site_admin": false,
                "starred_url": "https://api.github.com/users/rom1504/starred{/owner}{/repo}",
                "subscriptions_url": "https://api.github.com/users/rom1504/subscriptions",
                "type": "User",
                "url": "https://api.github.com/users/rom1504"
            }
        },
        {
            "author_association": "MEMBER",
            "body": "Only thing left is recipes, which I'd like to extract.\nProblem is my script is based on dpl queries and they don't properly handle a revision time, so I have to rewrite it to read directly the pages, see https://github.com/PrismarineJS/minecraft-wiki-extractor/issues/2#issuecomment-151684303\n\nI'll either do that, or I guess we won't have 1.7 recipes for now.\n",
            "created_at": "2016-02-18T12:11:36Z",
            "html_url": "https://github.com/PrismarineJS/minecraft-data/pull/116#issuecomment-185690569",
            "id": 185690569,
            "issue_url": "https://api.github.com/repos/PrismarineJS/minecraft-data/issues/116",
            "node_id": "MDEyOklzc3VlQ29tbWVudDE4NTY5MDU2OQ==",
            "performed_via_github_app": null,
            "reactions": {
                "+1": 0,
                "-1": 0,
                "confused": 0,
                "eyes": 0,
                "heart": 0,
                "hooray": 0,
                "laugh": 0,
                "rocket": 0,
                "total_count": 0,
                "url": "https://api.github.com/repos/PrismarineJS/minecraft-data/issues/comments/185690569/reactions"
            },
            "updated_at": "2016-02-18T12:11:36Z",
            "url": "https://api.github.com/repos/PrismarineJS/minecraft-data/issues/comments/185690569",
            "user": {
                "avatar_url": "https://avatars.githubusercontent.com/u/2346494?v=4",
                "events_url": "https://api.github.com/users/rom1504/events{/privacy}",
                "followers_url": "https://api.github.com/users/rom1504/followers",
                "following_url": "https://api.github.com/users/rom1504/following{/other_user}",
                "gists_url": "https://api.github.com/users/rom1504/gists{/gist_id}",
                "gravatar_id": "",
                "html_url": "https://github.com/rom1504",
                "id": 2346494,
                "login": "rom1504",
                "node_id": "MDQ6VXNlcjIzNDY0OTQ=",
                "organizations_url": "https://api.github.com/users/rom1504/orgs",
                "received_events_url": "https://api.github.com/users/rom1504/received_events",
                "repos_url": "https://api.github.com/users/rom1504/repos",
                "site_admin": false,
                "starred_url": "https://api.github.com/users/rom1504/starred{/owner}{/repo}",
                "subscriptions_url": "https://api.github.com/users/rom1504/subscriptions",
                "type": "User",
                "url": "https://api.github.com/users/rom1504"
            }
        },
        {
            "author_association": "MEMBER",
            "body": "Well let's merge this, I'll add recipes later.\n",
            "created_at": "2016-02-18T14:43:45Z",
            "html_url": "https://github.com/PrismarineJS/minecraft-data/pull/116#issuecomment-185750575",
            "id": 185750575,
            "issue_url": "https://api.github.com/repos/PrismarineJS/minecraft-data/issues/116",
            "node_id": "MDEyOklzc3VlQ29tbWVudDE4NTc1MDU3NQ==",
            "performed_via_github_app": null,
            "reactions": {
                "+1": 0,
                "-1": 0,
                "confused": 0,
                "eyes": 0,
                "heart": 0,
                "hooray": 0,
                "laugh": 0,
                "rocket": 0,
                "total_count": 0,
                "url": "https://api.github.com/repos/PrismarineJS/minecraft-data/issues/comments/185750575/reactions"
            },
            "updated_at": "2016-02-18T14:43:45Z",
            "url": "https://api.github.com/repos/PrismarineJS/minecraft-data/issues/comments/185750575",
            "user": {
                "avatar_url": "https://avatars.githubusercontent.com/u/2346494?v=4",
                "events_url": "https://api.github.com/users/rom1504/events{/privacy}",
                "followers_url": "https://api.github.com/users/rom1504/followers",
                "following_url": "https://api.github.com/users/rom1504/following{/other_user}",
                "gists_url": "https://api.github.com/users/rom1504/gists{/gist_id}",
                "gravatar_id": "",
                "html_url": "https://github.com/rom1504",
                "id": 2346494,
                "login": "rom1504",
                "node_id": "MDQ6VXNlcjIzNDY0OTQ=",
                "organizations_url": "https://api.github.com/users/rom1504/orgs",
                "received_events_url": "https://api.github.com/users/rom1504/received_events",
                "repos_url": "https://api.github.com/users/rom1504/repos",
                "site_admin": false,
                "starred_url": "https://api.github.com/users/rom1504/starred{/owner}{/repo}",
                "subscriptions_url": "https://api.github.com/users/rom1504/subscriptions",
                "type": "User",
                "url": "https://api.github.com/users/rom1504"
            }
        }
    ],
    "comments": 4,
    "comments_url": "https://api.github.com/repos/PrismarineJS/minecraft-data/issues/116/comments",
    "commit_data": [
        {
            "author": {
                "avatar_url": "https://avatars.githubusercontent.com/u/2346494?v=4",
                "events_url": "https://api.github.com/users/rom1504/events{/privacy}",
                "followers_url": "https://api.github.com/users/rom1504/followers",
                "following_url": "https://api.github.com/users/rom1504/following{/other_user}",
                "gists_url": "https://api.github.com/users/rom1504/gists{/gist_id}",
                "gravatar_id": "",
                "html_url": "https://github.com/rom1504",
                "id": 2346494,
                "login": "rom1504",
                "node_id": "MDQ6VXNlcjIzNDY0OTQ=",
                "organizations_url": "https://api.github.com/users/rom1504/orgs",
                "received_events_url": "https://api.github.com/users/rom1504/received_events",
                "repos_url": "https://api.github.com/users/rom1504/repos",
                "site_admin": false,
                "starred_url": "https://api.github.com/users/rom1504/starred{/owner}{/repo}",
                "subscriptions_url": "https://api.github.com/users/rom1504/subscriptions",
                "type": "User",
                "url": "https://api.github.com/users/rom1504"
            },
            "comments_url": "https://api.github.com/repos/PrismarineJS/minecraft-data/commits/5ab53a39d87bf4debf1afc91d0fb0fd6d995416b/comments",
            "commit": {
                "author": {
                    "date": "2016-02-18T10:22:02Z",
                    "email": "romain.rom1@gmail.com",
                    "name": "Romain Beaumont"
                },
                "comment_count": 0,
                "committer": {
                    "date": "2016-02-18T10:22:02Z",
                    "email": "romain.rom1@gmail.com",
                    "name": "Romain Beaumont"
                },
                "message": "1.7 blocks and items (from the wiki extractor, at date 2014-08-01T00:00:00Z)",
                "tree": {
                    "sha": "c479287e2e44212bf7499100274e54c2682c1c21",
                    "url": "https://api.github.com/repos/PrismarineJS/minecraft-data/git/trees/c479287e2e44212bf7499100274e54c2682c1c21"
                },
                "url": "https://api.github.com/repos/PrismarineJS/minecraft-data/git/commits/5ab53a39d87bf4debf1afc91d0fb0fd6d995416b",
                "verification": {
                    "payload": null,
                    "reason": "unsigned",
                    "signature": null,
                    "verified": false
                }
            },
            "committer": {
                "avatar_url": "https://avatars.githubusercontent.com/u/2346494?v=4",
                "events_url": "https://api.github.com/users/rom1504/events{/privacy}",
                "followers_url": "https://api.github.com/users/rom1504/followers",
                "following_url": "https://api.github.com/users/rom1504/following{/other_user}",
                "gists_url": "https://api.github.com/users/rom1504/gists{/gist_id}",
                "gravatar_id": "",
                "html_url": "https://github.com/rom1504",
                "id": 2346494,
                "login": "rom1504",
                "node_id": "MDQ6VXNlcjIzNDY0OTQ=",
                "organizations_url": "https://api.github.com/users/rom1504/orgs",
                "received_events_url": "https://api.github.com/users/rom1504/received_events",
                "repos_url": "https://api.github.com/users/rom1504/repos",
                "site_admin": false,
                "starred_url": "https://api.github.com/users/rom1504/starred{/owner}{/repo}",
                "subscriptions_url": "https://api.github.com/users/rom1504/subscriptions",
                "type": "User",
                "url": "https://api.github.com/users/rom1504"
            },
            "html_url": "https://github.com/PrismarineJS/minecraft-data/commit/5ab53a39d87bf4debf1afc91d0fb0fd6d995416b",
            "node_id": "MDY6Q29tbWl0NDEyNzkxNjQ6NWFiNTNhMzlkODdiZjRkZWJmMWFmYzkxZDBmYjBmZDZkOTk1NDE2Yg==",
            "parents": [
                {
                    "html_url": "https://github.com/PrismarineJS/minecraft-data/commit/6344cf32b991c24589b897823feae7953e0e3a59",
                    "sha": "6344cf32b991c24589b897823feae7953e0e3a59",
                    "url": "https://api.github.com/repos/PrismarineJS/minecraft-data/commits/6344cf32b991c24589b897823feae7953e0e3a59"
                }
            ],
            "sha": "5ab53a39d87bf4debf1afc91d0fb0fd6d995416b",
            "url": "https://api.github.com/repos/PrismarineJS/minecraft-data/commits/5ab53a39d87bf4debf1afc91d0fb0fd6d995416b"
        },
        {
            "author": {
                "avatar_url": "https://avatars.githubusercontent.com/u/2346494?v=4",
                "events_url": "https://api.github.com/users/rom1504/events{/privacy}",
                "followers_url": "https://api.github.com/users/rom1504/followers",
                "following_url": "https://api.github.com/users/rom1504/following{/other_user}",
                "gists_url": "https://api.github.com/users/rom1504/gists{/gist_id}",
                "gravatar_id": "",
                "html_url": "https://github.com/rom1504",
                "id": 2346494,
                "login": "rom1504",
                "node_id": "MDQ6VXNlcjIzNDY0OTQ=",
                "organizations_url": "https://api.github.com/users/rom1504/orgs",
                "received_events_url": "https://api.github.com/users/rom1504/received_events",
                "repos_url": "https://api.github.com/users/rom1504/repos",
                "site_admin": false,
                "starred_url": "https://api.github.com/users/rom1504/starred{/owner}{/repo}",
                "subscriptions_url": "https://api.github.com/users/rom1504/subscriptions",
                "type": "User",
                "url": "https://api.github.com/users/rom1504"
            },
            "comments_url": "https://api.github.com/repos/PrismarineJS/minecraft-data/commits/d139699c7b08829286b236359e3892f0bdf59949/comments",
            "commit": {
                "author": {
                    "date": "2016-02-18T11:17:44Z",
                    "email": "romain.rom1@gmail.com",
                    "name": "Romain Beaumont"
                },
                "comment_count": 0,
                "committer": {
                    "date": "2016-02-18T11:17:44Z",
                    "email": "romain.rom1@gmail.com",
                    "name": "Romain Beaumont"
                },
                "message": "fix flower pot",
                "tree": {
                    "sha": "1ae000978e3b7fe0be5b3918fba3f57dd359480a",
                    "url": "https://api.github.com/repos/PrismarineJS/minecraft-data/git/trees/1ae000978e3b7fe0be5b3918fba3f57dd359480a"
                },
                "url": "https://api.github.com/repos/PrismarineJS/minecraft-data/git/commits/d139699c7b08829286b236359e3892f0bdf59949",
                "verification": {
                    "payload": null,
                    "reason": "unsigned",
                    "signature": null,
                    "verified": false
                }
            },
            "committer": {
                "avatar_url": "https://avatars.githubusercontent.com/u/2346494?v=4",
                "events_url": "https://api.github.com/users/rom1504/events{/privacy}",
                "followers_url": "https://api.github.com/users/rom1504/followers",
                "following_url": "https://api.github.com/users/rom1504/following{/other_user}",
                "gists_url": "https://api.github.com/users/rom1504/gists{/gist_id}",
                "gravatar_id": "",
                "html_url": "https://github.com/rom1504",
                "id": 2346494,
                "login": "rom1504",
                "node_id": "MDQ6VXNlcjIzNDY0OTQ=",
                "organizations_url": "https://api.github.com/users/rom1504/orgs",
                "received_events_url": "https://api.github.com/users/rom1504/received_events",
                "repos_url": "https://api.github.com/users/rom1504/repos",
                "site_admin": false,
                "starred_url": "https://api.github.com/users/rom1504/starred{/owner}{/repo}",
                "subscriptions_url": "https://api.github.com/users/rom1504/subscriptions",
                "type": "User",
                "url": "https://api.github.com/users/rom1504"
            },
            "html_url": "https://github.com/PrismarineJS/minecraft-data/commit/d139699c7b08829286b236359e3892f0bdf59949",
            "node_id": "MDY6Q29tbWl0NDEyNzkxNjQ6ZDEzOTY5OWM3YjA4ODI5Mjg2YjIzNjM1OWUzODkyZjBiZGY1OTk0OQ==",
            "parents": [
                {
                    "html_url": "https://github.com/PrismarineJS/minecraft-data/commit/5ab53a39d87bf4debf1afc91d0fb0fd6d995416b",
                    "sha": "5ab53a39d87bf4debf1afc91d0fb0fd6d995416b",
                    "url": "https://api.github.com/repos/PrismarineJS/minecraft-data/commits/5ab53a39d87bf4debf1afc91d0fb0fd6d995416b"
                }
            ],
            "sha": "d139699c7b08829286b236359e3892f0bdf59949",
            "url": "https://api.github.com/repos/PrismarineJS/minecraft-data/commits/d139699c7b08829286b236359e3892f0bdf59949"
        },
        {
            "author": {
                "avatar_url": "https://avatars.githubusercontent.com/u/2346494?v=4",
                "events_url": "https://api.github.com/users/rom1504/events{/privacy}",
                "followers_url": "https://api.github.com/users/rom1504/followers",
                "following_url": "https://api.github.com/users/rom1504/following{/other_user}",
                "gists_url": "https://api.github.com/users/rom1504/gists{/gist_id}",
                "gravatar_id": "",
                "html_url": "https://github.com/rom1504",
                "id": 2346494,
                "login": "rom1504",
                "node_id": "MDQ6VXNlcjIzNDY0OTQ=",
                "organizations_url": "https://api.github.com/users/rom1504/orgs",
                "received_events_url": "https://api.github.com/users/rom1504/received_events",
                "repos_url": "https://api.github.com/users/rom1504/repos",
                "site_admin": false,
                "starred_url": "https://api.github.com/users/rom1504/starred{/owner}{/repo}",
                "subscriptions_url": "https://api.github.com/users/rom1504/subscriptions",
                "type": "User",
                "url": "https://api.github.com/users/rom1504"
            },
            "comments_url": "https://api.github.com/repos/PrismarineJS/minecraft-data/commits/66df5c65bd7cb1f62982413e820542a3033ba12a/comments",
            "commit": {
                "author": {
                    "date": "2016-02-18T11:43:28Z",
                    "email": "romain.rom1@gmail.com",
                    "name": "Romain Beaumont"
                },
                "comment_count": 0,
                "committer": {
                    "date": "2016-02-18T11:43:28Z",
                    "email": "romain.rom1@gmail.com",
                    "name": "Romain Beaumont"
                },
                "message": "add 1.7 entities (from node-minecraft-extractor)",
                "tree": {
                    "sha": "770ff3a800e371c7241f95609b2ee990f6a2a29c",
                    "url": "https://api.github.com/repos/PrismarineJS/minecraft-data/git/trees/770ff3a800e371c7241f95609b2ee990f6a2a29c"
                },
                "url": "https://api.github.com/repos/PrismarineJS/minecraft-data/git/commits/66df5c65bd7cb1f62982413e820542a3033ba12a",
                "verification": {
                    "payload": null,
                    "reason": "unsigned",
                    "signature": null,
                    "verified": false
                }
            },
            "committer": {
                "avatar_url": "https://avatars.githubusercontent.com/u/2346494?v=4",
                "events_url": "https://api.github.com/users/rom1504/events{/privacy}",
                "followers_url": "https://api.github.com/users/rom1504/followers",
                "following_url": "https://api.github.com/users/rom1504/following{/other_user}",
                "gists_url": "https://api.github.com/users/rom1504/gists{/gist_id}",
                "gravatar_id": "",
                "html_url": "https://github.com/rom1504",
                "id": 2346494,
                "login": "rom1504",
                "node_id": "MDQ6VXNlcjIzNDY0OTQ=",
                "organizations_url": "https://api.github.com/users/rom1504/orgs",
                "received_events_url": "https://api.github.com/users/rom1504/received_events",
                "repos_url": "https://api.github.com/users/rom1504/repos",
                "site_admin": false,
                "starred_url": "https://api.github.com/users/rom1504/starred{/owner}{/repo}",
                "subscriptions_url": "https://api.github.com/users/rom1504/subscriptions",
                "type": "User",
                "url": "https://api.github.com/users/rom1504"
            },
            "html_url": "https://github.com/PrismarineJS/minecraft-data/commit/66df5c65bd7cb1f62982413e820542a3033ba12a",
            "node_id": "MDY6Q29tbWl0NDEyNzkxNjQ6NjZkZjVjNjViZDdjYjFmNjI5ODI0MTNlODIwNTQyYTMwMzNiYTEyYQ==",
            "parents": [
                {
                    "html_url": "https://github.com/PrismarineJS/minecraft-data/commit/d139699c7b08829286b236359e3892f0bdf59949",
                    "sha": "d139699c7b08829286b236359e3892f0bdf59949",
                    "url": "https://api.github.com/repos/PrismarineJS/minecraft-data/commits/d139699c7b08829286b236359e3892f0bdf59949"
                }
            ],
            "sha": "66df5c65bd7cb1f62982413e820542a3033ba12a",
            "url": "https://api.github.com/repos/PrismarineJS/minecraft-data/commits/66df5c65bd7cb1f62982413e820542a3033ba12a"
        },
        {
            "author": {
                "avatar_url": "https://avatars.githubusercontent.com/u/2346494?v=4",
                "events_url": "https://api.github.com/users/rom1504/events{/privacy}",
                "followers_url": "https://api.github.com/users/rom1504/followers",
                "following_url": "https://api.github.com/users/rom1504/following{/other_user}",
                "gists_url": "https://api.github.com/users/rom1504/gists{/gist_id}",
                "gravatar_id": "",
                "html_url": "https://github.com/rom1504",
                "id": 2346494,
                "login": "rom1504",
                "node_id": "MDQ6VXNlcjIzNDY0OTQ=",
                "organizations_url": "https://api.github.com/users/rom1504/orgs",
                "received_events_url": "https://api.github.com/users/rom1504/received_events",
                "repos_url": "https://api.github.com/users/rom1504/repos",
                "site_admin": false,
                "starred_url": "https://api.github.com/users/rom1504/starred{/owner}{/repo}",
                "subscriptions_url": "https://api.github.com/users/rom1504/subscriptions",
                "type": "User",
                "url": "https://api.github.com/users/rom1504"
            },
            "comments_url": "https://api.github.com/repos/PrismarineJS/minecraft-data/commits/5af1674bd7fd99b5895d8a3489383fb13175bfee/comments",
            "commit": {
                "author": {
                    "date": "2016-02-18T11:55:53Z",
                    "email": "romain.rom1@gmail.com",
                    "name": "Romain Beaumont"
                },
                "comment_count": 0,
                "committer": {
                    "date": "2016-02-18T11:55:53Z",
                    "email": "romain.rom1@gmail.com",
                    "name": "Romain Beaumont"
                },
                "message": "copy instruments and materials from 1.8 to 1.7, as they didn't change",
                "tree": {
                    "sha": "636889f5d3b264de78da1fc481a508bdb1890c71",
                    "url": "https://api.github.com/repos/PrismarineJS/minecraft-data/git/trees/636889f5d3b264de78da1fc481a508bdb1890c71"
                },
                "url": "https://api.github.com/repos/PrismarineJS/minecraft-data/git/commits/5af1674bd7fd99b5895d8a3489383fb13175bfee",
                "verification": {
                    "payload": null,
                    "reason": "unsigned",
                    "signature": null,
                    "verified": false
                }
            },
            "committer": {
                "avatar_url": "https://avatars.githubusercontent.com/u/2346494?v=4",
                "events_url": "https://api.github.com/users/rom1504/events{/privacy}",
                "followers_url": "https://api.github.com/users/rom1504/followers",
                "following_url": "https://api.github.com/users/rom1504/following{/other_user}",
                "gists_url": "https://api.github.com/users/rom1504/gists{/gist_id}",
                "gravatar_id": "",
                "html_url": "https://github.com/rom1504",
                "id": 2346494,
                "login": "rom1504",
                "node_id": "MDQ6VXNlcjIzNDY0OTQ=",
                "organizations_url": "https://api.github.com/users/rom1504/orgs",
                "received_events_url": "https://api.github.com/users/rom1504/received_events",
                "repos_url": "https://api.github.com/users/rom1504/repos",
                "site_admin": false,
                "starred_url": "https://api.github.com/users/rom1504/starred{/owner}{/repo}",
                "subscriptions_url": "https://api.github.com/users/rom1504/subscriptions",
                "type": "User",
                "url": "https://api.github.com/users/rom1504"
            },
            "html_url": "https://github.com/PrismarineJS/minecraft-data/commit/5af1674bd7fd99b5895d8a3489383fb13175bfee",
            "node_id": "MDY6Q29tbWl0NDEyNzkxNjQ6NWFmMTY3NGJkN2ZkOTliNTg5NWQ4YTM0ODkzODNmYjEzMTc1YmZlZQ==",
            "parents": [
                {
                    "html_url": "https://github.com/PrismarineJS/minecraft-data/commit/66df5c65bd7cb1f62982413e820542a3033ba12a",
                    "sha": "66df5c65bd7cb1f62982413e820542a3033ba12a",
                    "url": "https://api.github.com/repos/PrismarineJS/minecraft-data/commits/66df5c65bd7cb1f62982413e820542a3033ba12a"
                }
            ],
            "sha": "5af1674bd7fd99b5895d8a3489383fb13175bfee",
            "url": "https://api.github.com/repos/PrismarineJS/minecraft-data/commits/5af1674bd7fd99b5895d8a3489383fb13175bfee"
        },
        {
            "author": {
                "avatar_url": "https://avatars.githubusercontent.com/u/2346494?v=4",
                "events_url": "https://api.github.com/users/rom1504/events{/privacy}",
                "followers_url": "https://api.github.com/users/rom1504/followers",
                "following_url": "https://api.github.com/users/rom1504/following{/other_user}",
                "gists_url": "https://api.github.com/users/rom1504/gists{/gist_id}",
                "gravatar_id": "",
                "html_url": "https://github.com/rom1504",
                "id": 2346494,
                "login": "rom1504",
                "node_id": "MDQ6VXNlcjIzNDY0OTQ=",
                "organizations_url": "https://api.github.com/users/rom1504/orgs",
                "received_events_url": "https://api.github.com/users/rom1504/received_events",
                "repos_url": "https://api.github.com/users/rom1504/repos",
                "site_admin": false,
                "starred_url": "https://api.github.com/users/rom1504/starred{/owner}{/repo}",
                "subscriptions_url": "https://api.github.com/users/rom1504/subscriptions",
                "type": "User",
                "url": "https://api.github.com/users/rom1504"
            },
            "comments_url": "https://api.github.com/repos/PrismarineJS/minecraft-data/commits/9e0075f1385447e1ba3d9a6b4b8d9d681e03a3e8/comments",
            "commit": {
                "author": {
                    "date": "2016-02-18T12:03:22Z",
                    "email": "romain.rom1@gmail.com",
                    "name": "Romain Beaumont"
                },
                "comment_count": 0,
                "committer": {
                    "date": "2016-02-18T12:03:22Z",
                    "email": "romain.rom1@gmail.com",
                    "name": "Romain Beaumont"
                },
                "message": "copying biomes data from 1.8 to 1.7 as it looks to be the same (see http://minecraft.gamepedia.com/index.php?title=Biome&oldid=681284#Biome_IDs )",
                "tree": {
                    "sha": "64e2f7a160c1630fa1b3d82b4953cfb0a5bda944",
                    "url": "https://api.github.com/repos/PrismarineJS/minecraft-data/git/trees/64e2f7a160c1630fa1b3d82b4953cfb0a5bda944"
                },
                "url": "https://api.github.com/repos/PrismarineJS/minecraft-data/git/commits/9e0075f1385447e1ba3d9a6b4b8d9d681e03a3e8",
                "verification": {
                    "payload": null,
                    "reason": "unsigned",
                    "signature": null,
                    "verified": false
                }
            },
            "committer": {
                "avatar_url": "https://avatars.githubusercontent.com/u/2346494?v=4",
                "events_url": "https://api.github.com/users/rom1504/events{/privacy}",
                "followers_url": "https://api.github.com/users/rom1504/followers",
                "following_url": "https://api.github.com/users/rom1504/following{/other_user}",
                "gists_url": "https://api.github.com/users/rom1504/gists{/gist_id}",
                "gravatar_id": "",
                "html_url": "https://github.com/rom1504",
                "id": 2346494,
                "login": "rom1504",
                "node_id": "MDQ6VXNlcjIzNDY0OTQ=",
                "organizations_url": "https://api.github.com/users/rom1504/orgs",
                "received_events_url": "https://api.github.com/users/rom1504/received_events",
                "repos_url": "https://api.github.com/users/rom1504/repos",
                "site_admin": false,
                "starred_url": "https://api.github.com/users/rom1504/starred{/owner}{/repo}",
                "subscriptions_url": "https://api.github.com/users/rom1504/subscriptions",
                "type": "User",
                "url": "https://api.github.com/users/rom1504"
            },
            "html_url": "https://github.com/PrismarineJS/minecraft-data/commit/9e0075f1385447e1ba3d9a6b4b8d9d681e03a3e8",
            "node_id": "MDY6Q29tbWl0NDEyNzkxNjQ6OWUwMDc1ZjEzODU0NDdlMWJhM2Q5YTZiNGI4ZDlkNjgxZTAzYTNlOA==",
            "parents": [
                {
                    "html_url": "https://github.com/PrismarineJS/minecraft-data/commit/5af1674bd7fd99b5895d8a3489383fb13175bfee",
                    "sha": "5af1674bd7fd99b5895d8a3489383fb13175bfee",
                    "url": "https://api.github.com/repos/PrismarineJS/minecraft-data/commits/5af1674bd7fd99b5895d8a3489383fb13175bfee"
                }
            ],
            "sha": "9e0075f1385447e1ba3d9a6b4b8d9d681e03a3e8",
            "url": "https://api.github.com/repos/PrismarineJS/minecraft-data/commits/9e0075f1385447e1ba3d9a6b4b8d9d681e03a3e8"
        },
        {
            "author": {
                "avatar_url": "https://avatars.githubusercontent.com/u/2346494?v=4",
                "events_url": "https://api.github.com/users/rom1504/events{/privacy}",
                "followers_url": "https://api.github.com/users/rom1504/followers",
                "following_url": "https://api.github.com/users/rom1504/following{/other_user}",
                "gists_url": "https://api.github.com/users/rom1504/gists{/gist_id}",
                "gravatar_id": "",
                "html_url": "https://github.com/rom1504",
                "id": 2346494,
                "login": "rom1504",
                "node_id": "MDQ6VXNlcjIzNDY0OTQ=",
                "organizations_url": "https://api.github.com/users/rom1504/orgs",
                "received_events_url": "https://api.github.com/users/rom1504/received_events",
                "repos_url": "https://api.github.com/users/rom1504/repos",
                "site_admin": false,
                "starred_url": "https://api.github.com/users/rom1504/starred{/owner}{/repo}",
                "subscriptions_url": "https://api.github.com/users/rom1504/subscriptions",
                "type": "User",
                "url": "https://api.github.com/users/rom1504"
            },
            "comments_url": "https://api.github.com/repos/PrismarineJS/minecraft-data/commits/9c523deca8fd15e2b38dfbc3554074c0c9dcddf2/comments",
            "commit": {
                "author": {
                    "date": "2016-02-18T12:06:00Z",
                    "email": "romain.rom1@gmail.com",
                    "name": "Romain Beaumont"
                },
                "comment_count": 0,
                "committer": {
                    "date": "2016-02-18T12:06:00Z",
                    "email": "romain.rom1@gmail.com",
                    "name": "Romain Beaumont"
                },
                "message": "as far as I can see, windows seem to be the same in 1.7 ( http://wiki.vg/index.php?title=Inventory&oldid=5436 ), copying from 1.8",
                "tree": {
                    "sha": "ad3d85b79de63af2cc3b2390a17000aa818a14a3",
                    "url": "https://api.github.com/repos/PrismarineJS/minecraft-data/git/trees/ad3d85b79de63af2cc3b2390a17000aa818a14a3"
                },
                "url": "https://api.github.com/repos/PrismarineJS/minecraft-data/git/commits/9c523deca8fd15e2b38dfbc3554074c0c9dcddf2",
                "verification": {
                    "payload": null,
                    "reason": "unsigned",
                    "signature": null,
                    "verified": false
                }
            },
            "committer": {
                "avatar_url": "https://avatars.githubusercontent.com/u/2346494?v=4",
                "events_url": "https://api.github.com/users/rom1504/events{/privacy}",
                "followers_url": "https://api.github.com/users/rom1504/followers",
                "following_url": "https://api.github.com/users/rom1504/following{/other_user}",
                "gists_url": "https://api.github.com/users/rom1504/gists{/gist_id}",
                "gravatar_id": "",
                "html_url": "https://github.com/rom1504",
                "id": 2346494,
                "login": "rom1504",
                "node_id": "MDQ6VXNlcjIzNDY0OTQ=",
                "organizations_url": "https://api.github.com/users/rom1504/orgs",
                "received_events_url": "https://api.github.com/users/rom1504/received_events",
                "repos_url": "https://api.github.com/users/rom1504/repos",
                "site_admin": false,
                "starred_url": "https://api.github.com/users/rom1504/starred{/owner}{/repo}",
                "subscriptions_url": "https://api.github.com/users/rom1504/subscriptions",
                "type": "User",
                "url": "https://api.github.com/users/rom1504"
            },
            "html_url": "https://github.com/PrismarineJS/minecraft-data/commit/9c523deca8fd15e2b38dfbc3554074c0c9dcddf2",
            "node_id": "MDY6Q29tbWl0NDEyNzkxNjQ6OWM1MjNkZWNhOGZkMTVlMmIzOGRmYmMzNTU0MDc0YzBjOWRjZGRmMg==",
            "parents": [
                {
                    "html_url": "https://github.com/PrismarineJS/minecraft-data/commit/9e0075f1385447e1ba3d9a6b4b8d9d681e03a3e8",
                    "sha": "9e0075f1385447e1ba3d9a6b4b8d9d681e03a3e8",
                    "url": "https://api.github.com/repos/PrismarineJS/minecraft-data/commits/9e0075f1385447e1ba3d9a6b4b8d9d681e03a3e8"
                }
            ],
            "sha": "9c523deca8fd15e2b38dfbc3554074c0c9dcddf2",
            "url": "https://api.github.com/repos/PrismarineJS/minecraft-data/commits/9c523deca8fd15e2b38dfbc3554074c0c9dcddf2"
        },
        {
            "author": {
                "avatar_url": "https://avatars.githubusercontent.com/u/2346494?v=4",
                "events_url": "https://api.github.com/users/rom1504/events{/privacy}",
                "followers_url": "https://api.github.com/users/rom1504/followers",
                "following_url": "https://api.github.com/users/rom1504/following{/other_user}",
                "gists_url": "https://api.github.com/users/rom1504/gists{/gist_id}",
                "gravatar_id": "",
                "html_url": "https://github.com/rom1504",
                "id": 2346494,
                "login": "rom1504",
                "node_id": "MDQ6VXNlcjIzNDY0OTQ=",
                "organizations_url": "https://api.github.com/users/rom1504/orgs",
                "received_events_url": "https://api.github.com/users/rom1504/received_events",
                "repos_url": "https://api.github.com/users/rom1504/repos",
                "site_admin": false,
                "starred_url": "https://api.github.com/users/rom1504/starred{/owner}{/repo}",
                "subscriptions_url": "https://api.github.com/users/rom1504/subscriptions",
                "type": "User",
                "url": "https://api.github.com/users/rom1504"
            },
            "comments_url": "https://api.github.com/repos/PrismarineJS/minecraft-data/commits/fd436d63fd0a1b731ab2d1ccc1c424b14b1c8844/comments",
            "commit": {
                "author": {
                    "date": "2016-02-18T12:09:02Z",
                    "email": "romain.rom1@gmail.com",
                    "name": "Romain Beaumont"
                },
                "comment_count": 0,
                "committer": {
                    "date": "2016-02-18T12:09:02Z",
                    "email": "romain.rom1@gmail.com",
                    "name": "Romain Beaumont"
                },
                "message": "effects are the same in 1.7, see http://minecraft.gamepedia.com/index.php?title=Status_effect&oldid=678764 , copying from 1.8",
                "tree": {
                    "sha": "d083bbb56d9bdc4f7f85f335d219ee4a60526c58",
                    "url": "https://api.github.com/repos/PrismarineJS/minecraft-data/git/trees/d083bbb56d9bdc4f7f85f335d219ee4a60526c58"
                },
                "url": "https://api.github.com/repos/PrismarineJS/minecraft-data/git/commits/fd436d63fd0a1b731ab2d1ccc1c424b14b1c8844",
                "verification": {
                    "payload": null,
                    "reason": "unsigned",
                    "signature": null,
                    "verified": false
                }
            },
            "committer": {
                "avatar_url": "https://avatars.githubusercontent.com/u/2346494?v=4",
                "events_url": "https://api.github.com/users/rom1504/events{/privacy}",
                "followers_url": "https://api.github.com/users/rom1504/followers",
                "following_url": "https://api.github.com/users/rom1504/following{/other_user}",
                "gists_url": "https://api.github.com/users/rom1504/gists{/gist_id}",
                "gravatar_id": "",
                "html_url": "https://github.com/rom1504",
                "id": 2346494,
                "login": "rom1504",
                "node_id": "MDQ6VXNlcjIzNDY0OTQ=",
                "organizations_url": "https://api.github.com/users/rom1504/orgs",
                "received_events_url": "https://api.github.com/users/rom1504/received_events",
                "repos_url": "https://api.github.com/users/rom1504/repos",
                "site_admin": false,
                "starred_url": "https://api.github.com/users/rom1504/starred{/owner}{/repo}",
                "subscriptions_url": "https://api.github.com/users/rom1504/subscriptions",
                "type": "User",
                "url": "https://api.github.com/users/rom1504"
            },
            "html_url": "https://github.com/PrismarineJS/minecraft-data/commit/fd436d63fd0a1b731ab2d1ccc1c424b14b1c8844",
            "node_id": "MDY6Q29tbWl0NDEyNzkxNjQ6ZmQ0MzZkNjNmZDBhMWI3MzFhYjJkMWNjYzFjNDI0YjE0YjFjODg0NA==",
            "parents": [
                {
                    "html_url": "https://github.com/PrismarineJS/minecraft-data/commit/9c523deca8fd15e2b38dfbc3554074c0c9dcddf2",
                    "sha": "9c523deca8fd15e2b38dfbc3554074c0c9dcddf2",
                    "url": "https://api.github.com/repos/PrismarineJS/minecraft-data/commits/9c523deca8fd15e2b38dfbc3554074c0c9dcddf2"
                }
            ],
            "sha": "fd436d63fd0a1b731ab2d1ccc1c424b14b1c8844",
            "url": "https://api.github.com/repos/PrismarineJS/minecraft-data/commits/fd436d63fd0a1b731ab2d1ccc1c424b14b1c8844"
        }
    ],
    "commits": 7,
    "commits_url": "https://api.github.com/repos/PrismarineJS/minecraft-data/pulls/116/commits",
    "created_at": "2016-02-18T10:22:43Z",
    "deletions": 0,
    "diff_url": "https://github.com/PrismarineJS/minecraft-data/pull/116.diff",
    "draft": false,
    "head": {
        "label": "rom1504:1.7_data",
        "ref": "1.7_data",
        "repo": {
            "allow_forking": true,
            "archive_url": "https://api.github.com/repos/rom1504/minecraft-data/{archive_format}{/ref}",
            "archived": false,
            "assignees_url": "https://api.github.com/repos/rom1504/minecraft-data/assignees{/user}",
            "blobs_url": "https://api.github.com/repos/rom1504/minecraft-data/git/blobs{/sha}",
            "branches_url": "https://api.github.com/repos/rom1504/minecraft-data/branches{/branch}",
            "clone_url": "https://github.com/rom1504/minecraft-data.git",
            "collaborators_url": "https://api.github.com/repos/rom1504/minecraft-data/collaborators{/collaborator}",
            "comments_url": "https://api.github.com/repos/rom1504/minecraft-data/comments{/number}",
            "commits_url": "https://api.github.com/repos/rom1504/minecraft-data/commits{/sha}",
            "compare_url": "https://api.github.com/repos/rom1504/minecraft-data/compare/{base}...{head}",
            "contents_url": "https://api.github.com/repos/rom1504/minecraft-data/contents/{+path}",
            "contributors_url": "https://api.github.com/repos/rom1504/minecraft-data/contributors",
            "created_at": "2015-08-24T03:12:04Z",
            "default_branch": "master",
            "deployments_url": "https://api.github.com/repos/rom1504/minecraft-data/deployments",
            "description": "Language independent module providing minecraft data for minecraft clients, servers and libraries.",
            "disabled": false,
            "downloads_url": "https://api.github.com/repos/rom1504/minecraft-data/downloads",
            "events_url": "https://api.github.com/repos/rom1504/minecraft-data/events",
            "fork": true,
            "forks": 0,
            "forks_count": 0,
            "forks_url": "https://api.github.com/repos/rom1504/minecraft-data/forks",
            "full_name": "rom1504/minecraft-data",
            "git_commits_url": "https://api.github.com/repos/rom1504/minecraft-data/git/commits{/sha}",
            "git_refs_url": "https://api.github.com/repos/rom1504/minecraft-data/git/refs{/sha}",
            "git_tags_url": "https://api.github.com/repos/rom1504/minecraft-data/git/tags{/sha}",
            "git_url": "git://github.com/rom1504/minecraft-data.git",
            "has_discussions": false,
            "has_downloads": true,
            "has_issues": false,
            "has_pages": true,
            "has_projects": true,
            "has_wiki": true,
            "homepage": "http://prismarinejs.github.io/minecraft-data/",
            "hooks_url": "https://api.github.com/repos/rom1504/minecraft-data/hooks",
            "html_url": "https://github.com/rom1504/minecraft-data",
            "id": 41279164,
            "is_template": false,
            "issue_comment_url": "https://api.github.com/repos/rom1504/minecraft-data/issues/comments{/number}",
            "issue_events_url": "https://api.github.com/repos/rom1504/minecraft-data/issues/events{/number}",
            "issues_url": "https://api.github.com/repos/rom1504/minecraft-data/issues{/number}",
            "keys_url": "https://api.github.com/repos/rom1504/minecraft-data/keys{/key_id}",
            "labels_url": "https://api.github.com/repos/rom1504/minecraft-data/labels{/name}",
            "language": "JavaScript",
            "languages_url": "https://api.github.com/repos/rom1504/minecraft-data/languages",
            "license": null,
            "merges_url": "https://api.github.com/repos/rom1504/minecraft-data/merges",
            "milestones_url": "https://api.github.com/repos/rom1504/minecraft-data/milestones{/number}",
            "mirror_url": null,
            "name": "minecraft-data",
            "node_id": "MDEwOlJlcG9zaXRvcnk0MTI3OTE2NA==",
            "notifications_url": "https://api.github.com/repos/rom1504/minecraft-data/notifications{?since,all,participating}",
            "open_issues": 0,
            "open_issues_count": 0,
            "owner": {
                "avatar_url": "https://avatars.githubusercontent.com/u/2346494?v=4",
                "events_url": "https://api.github.com/users/rom1504/events{/privacy}",
                "followers_url": "https://api.github.com/users/rom1504/followers",
                "following_url": "https://api.github.com/users/rom1504/following{/other_user}",
                "gists_url": "https://api.github.com/users/rom1504/gists{/gist_id}",
                "gravatar_id": "",
                "html_url": "https://github.com/rom1504",
                "id": 2346494,
                "login": "rom1504",
                "node_id": "MDQ6VXNlcjIzNDY0OTQ=",
                "organizations_url": "https://api.github.com/users/rom1504/orgs",
                "received_events_url": "https://api.github.com/users/rom1504/received_events",
                "repos_url": "https://api.github.com/users/rom1504/repos",
                "site_admin": false,
                "starred_url": "https://api.github.com/users/rom1504/starred{/owner}{/repo}",
                "subscriptions_url": "https://api.github.com/users/rom1504/subscriptions",
                "type": "User",
                "url": "https://api.github.com/users/rom1504"
            },
            "private": false,
            "pulls_url": "https://api.github.com/repos/rom1504/minecraft-data/pulls{/number}",
            "pushed_at": "2021-02-17T22:29:20Z",
            "releases_url": "https://api.github.com/repos/rom1504/minecraft-data/releases{/id}",
            "size": 2335,
            "ssh_url": "git@github.com:rom1504/minecraft-data.git",
            "stargazers_count": 0,
            "stargazers_url": "https://api.github.com/repos/rom1504/minecraft-data/stargazers",
            "statuses_url": "https://api.github.com/repos/rom1504/minecraft-data/statuses/{sha}",
            "subscribers_url": "https://api.github.com/repos/rom1504/minecraft-data/subscribers",
            "subscription_url": "https://api.github.com/repos/rom1504/minecraft-data/subscription",
            "svn_url": "https://github.com/rom1504/minecraft-data",
            "tags_url": "https://api.github.com/repos/rom1504/minecraft-data/tags",
            "teams_url": "https://api.github.com/repos/rom1504/minecraft-data/teams",
            "topics": [],
            "trees_url": "https://api.github.com/repos/rom1504/minecraft-data/git/trees{/sha}",
            "updated_at": "2021-02-17T22:28:58Z",
            "url": "https://api.github.com/repos/rom1504/minecraft-data",
            "visibility": "public",
            "watchers": 0,
            "watchers_count": 0,
            "web_commit_signoff_required": false
        },
        "sha": "fd436d63fd0a1b731ab2d1ccc1c424b14b1c8844",
        "user": {
            "avatar_url": "https://avatars.githubusercontent.com/u/2346494?v=4",
            "events_url": "https://api.github.com/users/rom1504/events{/privacy}",
            "followers_url": "https://api.github.com/users/rom1504/followers",
            "following_url": "https://api.github.com/users/rom1504/following{/other_user}",
            "gists_url": "https://api.github.com/users/rom1504/gists{/gist_id}",
            "gravatar_id": "",
            "html_url": "https://github.com/rom1504",
            "id": 2346494,
            "login": "rom1504",
            "node_id": "MDQ6VXNlcjIzNDY0OTQ=",
            "organizations_url": "https://api.github.com/users/rom1504/orgs",
            "received_events_url": "https://api.github.com/users/rom1504/received_events",
            "repos_url": "https://api.github.com/users/rom1504/repos",
            "site_admin": false,
            "starred_url": "https://api.github.com/users/rom1504/starred{/owner}{/repo}",
            "subscriptions_url": "https://api.github.com/users/rom1504/subscriptions",
            "type": "User",
            "url": "https://api.github.com/users/rom1504"
        }
    },
    "html_url": "https://github.com/PrismarineJS/minecraft-data/pull/116",
    "id": 59777682,
    "issue_url": "https://api.github.com/repos/PrismarineJS/minecraft-data/issues/116",
    "labels": [],
    "locked": false,
    "maintainer_can_modify": false,
    "merge_commit_sha": "455b84977a2ae0a2b5ae1e4c1b3ca07151af1b1f",
    "mergeable": null,
    "mergeable_state": "unknown",
    "merged": true,
    "merged_at": "2016-02-18T14:43:47Z",
    "merged_by": {
        "avatar_url": "https://avatars.githubusercontent.com/u/2346494?v=4",
        "events_url": "https://api.github.com/users/rom1504/events{/privacy}",
        "followers_url": "https://api.github.com/users/rom1504/followers",
        "following_url": "https://api.github.com/users/rom1504/following{/other_user}",
        "gists_url": "https://api.github.com/users/rom1504/gists{/gist_id}",
        "gravatar_id": "",
        "html_url": "https://github.com/rom1504",
        "id": 2346494,
        "login": "rom1504",
        "node_id": "MDQ6VXNlcjIzNDY0OTQ=",
        "organizations_url": "https://api.github.com/users/rom1504/orgs",
        "received_events_url": "https://api.github.com/users/rom1504/received_events",
        "repos_url": "https://api.github.com/users/rom1504/repos",
        "site_admin": false,
        "starred_url": "https://api.github.com/users/rom1504/starred{/owner}{/repo}",
        "subscriptions_url": "https://api.github.com/users/rom1504/subscriptions",
        "type": "User",
        "url": "https://api.github.com/users/rom1504"
    },
    "milestone": null,
    "node_id": "MDExOlB1bGxSZXF1ZXN0NTk3Nzc2ODI=",
    "number": 116,
    "patch_url": "https://github.com/PrismarineJS/minecraft-data/pull/116.patch",
    "rebaseable": null,
    "requested_reviewers": [],
    "requested_teams": [],
    "review_comment_url": "https://api.github.com/repos/PrismarineJS/minecraft-data/pulls/comments{/number}",
    "review_comments": 0,
    "review_comments_url": "https://api.github.com/repos/PrismarineJS/minecraft-data/pulls/116/comments",
    "state": "closed",
    "statuses_url": "https://api.github.com/repos/PrismarineJS/minecraft-data/statuses/fd436d63fd0a1b731ab2d1ccc1c424b14b1c8844",
    "title": "1.7 data",
    "updated_at": "2016-02-18T14:43:49Z",
    "url": "https://api.github.com/repos/PrismarineJS/minecraft-data/pulls/116",
    "user": {
        "avatar_url": "https://avatars.githubusercontent.com/u/2346494?v=4",
        "events_url": "https://api.github.com/users/rom1504/events{/privacy}",
        "followers_url": "https://api.github.com/users/rom1504/followers",
        "following_url": "https://api.github.com/users/rom1504/following{/other_user}",
        "gists_url": "https://api.github.com/users/rom1504/gists{/gist_id}",
        "gravatar_id": "",
        "html_url": "https://github.com/rom1504",
        "id": 2346494,
        "login": "rom1504",
        "node_id": "MDQ6VXNlcjIzNDY0OTQ=",
        "organizations_url": "https://api.github.com/users/rom1504/orgs",
        "received_events_url": "https://api.github.com/users/rom1504/received_events",
        "repos_url": "https://api.github.com/users/rom1504/repos",
        "site_admin": false,
        "starred_url": "https://api.github.com/users/rom1504/starred{/owner}{/repo}",
        "subscriptions_url": "https://api.github.com/users/rom1504/subscriptions",
        "type": "User",
        "url": "https://api.github.com/users/rom1504"
    }
}