{
    "_links": {
        "comments": {
            "href": "https://api.github.com/repos/PrismarineJS/minecraft-data/issues/196/comments"
        },
        "commits": {
            "href": "https://api.github.com/repos/PrismarineJS/minecraft-data/pulls/196/commits"
        },
        "html": {
            "href": "https://github.com/PrismarineJS/minecraft-data/pull/196"
        },
        "issue": {
            "href": "https://api.github.com/repos/PrismarineJS/minecraft-data/issues/196"
        },
        "review_comment": {
            "href": "https://api.github.com/repos/PrismarineJS/minecraft-data/pulls/comments{/number}"
        },
        "review_comments": {
            "href": "https://api.github.com/repos/PrismarineJS/minecraft-data/pulls/196/comments"
        },
        "self": {
            "href": "https://api.github.com/repos/PrismarineJS/minecraft-data/pulls/196"
        },
        "statuses": {
            "href": "https://api.github.com/repos/PrismarineJS/minecraft-data/statuses/6a7e0f0706ec49d7a9142d6635ab3dbacbed2e6a"
        }
    },
    "active_lock_reason": null,
    "additions": 4382,
    "assignee": null,
    "assignees": [],
    "author_association": "MEMBER",
    "auto_merge": null,
    "base": {
        "label": "PrismarineJS:master",
        "ref": "master",
        "repo": {
            "allow_forking": true,
            "archive_url": "https://api.github.com/repos/PrismarineJS/minecraft-data/{archive_format}{/ref}",
            "archived": false,
            "assignees_url": "https://api.github.com/repos/PrismarineJS/minecraft-data/assignees{/user}",
            "blobs_url": "https://api.github.com/repos/PrismarineJS/minecraft-data/git/blobs{/sha}",
            "branches_url": "https://api.github.com/repos/PrismarineJS/minecraft-data/branches{/branch}",
            "clone_url": "https://github.com/PrismarineJS/minecraft-data.git",
            "collaborators_url": "https://api.github.com/repos/PrismarineJS/minecraft-data/collaborators{/collaborator}",
            "comments_url": "https://api.github.com/repos/PrismarineJS/minecraft-data/comments{/number}",
            "commits_url": "https://api.github.com/repos/PrismarineJS/minecraft-data/commits{/sha}",
            "compare_url": "https://api.github.com/repos/PrismarineJS/minecraft-data/compare/{base}...{head}",
            "contents_url": "https://api.github.com/repos/PrismarineJS/minecraft-data/contents/{+path}",
            "contributors_url": "https://api.github.com/repos/PrismarineJS/minecraft-data/contributors",
            "created_at": "2015-03-23T15:38:19Z",
            "default_branch": "master",
            "deployments_url": "https://api.github.com/repos/PrismarineJS/minecraft-data/deployments",
            "description": "Language independent module providing minecraft data for minecraft clients, servers and libraries.",
            "disabled": false,
            "downloads_url": "https://api.github.com/repos/PrismarineJS/minecraft-data/downloads",
            "events_url": "https://api.github.com/repos/PrismarineJS/minecraft-data/events",
            "fork": false,
            "forks": 184,
            "forks_count": 184,
            "forks_url": "https://api.github.com/repos/PrismarineJS/minecraft-data/forks",
            "full_name": "PrismarineJS/minecraft-data",
            "git_commits_url": "https://api.github.com/repos/PrismarineJS/minecraft-data/git/commits{/sha}",
            "git_refs_url": "https://api.github.com/repos/PrismarineJS/minecraft-data/git/refs{/sha}",
            "git_tags_url": "https://api.github.com/repos/PrismarineJS/minecraft-data/git/tags{/sha}",
            "git_url": "git://github.com/PrismarineJS/minecraft-data.git",
            "has_discussions": false,
            "has_downloads": true,
            "has_issues": true,
            "has_pages": true,
            "has_projects": true,
            "has_wiki": true,
            "homepage": "https://prismarinejs.github.io/minecraft-data",
            "hooks_url": "https://api.github.com/repos/PrismarineJS/minecraft-data/hooks",
            "html_url": "https://github.com/PrismarineJS/minecraft-data",
            "id": 32741498,
            "is_template": false,
            "issue_comment_url": "https://api.github.com/repos/PrismarineJS/minecraft-data/issues/comments{/number}",
            "issue_events_url": "https://api.github.com/repos/PrismarineJS/minecraft-data/issues/events{/number}",
            "issues_url": "https://api.github.com/repos/PrismarineJS/minecraft-data/issues{/number}",
            "keys_url": "https://api.github.com/repos/PrismarineJS/minecraft-data/keys{/key_id}",
            "labels_url": "https://api.github.com/repos/PrismarineJS/minecraft-data/labels{/name}",
            "language": "JavaScript",
            "languages_url": "https://api.github.com/repos/PrismarineJS/minecraft-data/languages",
            "license": null,
            "merges_url": "https://api.github.com/repos/PrismarineJS/minecraft-data/merges",
            "milestones_url": "https://api.github.com/repos/PrismarineJS/minecraft-data/milestones{/number}",
            "mirror_url": null,
            "name": "minecraft-data",
            "node_id": "MDEwOlJlcG9zaXRvcnkzMjc0MTQ5OA==",
            "notifications_url": "https://api.github.com/repos/PrismarineJS/minecraft-data/notifications{?since,all,participating}",
            "open_issues": 113,
            "open_issues_count": 113,
            "owner": {
                "avatar_url": "https://avatars.githubusercontent.com/u/11053411?v=4",
                "events_url": "https://api.github.com/users/PrismarineJS/events{/privacy}",
                "followers_url": "https://api.github.com/users/PrismarineJS/followers",
                "following_url": "https://api.github.com/users/PrismarineJS/following{/other_user}",
                "gists_url": "https://api.github.com/users/PrismarineJS/gists{/gist_id}",
                "gravatar_id": "",
                "html_url": "https://github.com/PrismarineJS",
                "id": 11053411,
                "login": "PrismarineJS",
                "node_id": "MDEyOk9yZ2FuaXphdGlvbjExMDUzNDEx",
                "organizations_url": "https://api.github.com/users/PrismarineJS/orgs",
                "received_events_url": "https://api.github.com/users/PrismarineJS/received_events",
                "repos_url": "https://api.github.com/users/PrismarineJS/repos",
                "site_admin": false,
                "starred_url": "https://api.github.com/users/PrismarineJS/starred{/owner}{/repo}",
                "subscriptions_url": "https://api.github.com/users/PrismarineJS/subscriptions",
                "type": "Organization",
                "url": "https://api.github.com/users/PrismarineJS"
            },
            "private": false,
            "pulls_url": "https://api.github.com/repos/PrismarineJS/minecraft-data/pulls{/number}",
            "pushed_at": "2023-04-08T18:30:50Z",
            "releases_url": "https://api.github.com/repos/PrismarineJS/minecraft-data/releases{/id}",
            "size": 134084,
            "ssh_url": "git@github.com:PrismarineJS/minecraft-data.git",
            "stargazers_count": 473,
            "stargazers_url": "https://api.github.com/repos/PrismarineJS/minecraft-data/stargazers",
            "statuses_url": "https://api.github.com/repos/PrismarineJS/minecraft-data/statuses/{sha}",
            "subscribers_url": "https://api.github.com/repos/PrismarineJS/minecraft-data/subscribers",
            "subscription_url": "https://api.github.com/repos/PrismarineJS/minecraft-data/subscription",
            "svn_url": "https://github.com/PrismarineJS/minecraft-data",
            "tags_url": "https://api.github.com/repos/PrismarineJS/minecraft-data/tags",
            "teams_url": "https://api.github.com/repos/PrismarineJS/minecraft-data/teams",
            "topics": [
                "data",
                "minecraft"
            ],
            "trees_url": "https://api.github.com/repos/PrismarineJS/minecraft-data/git/trees{/sha}",
            "updated_at": "2023-04-24T04:11:18Z",
            "url": "https://api.github.com/repos/PrismarineJS/minecraft-data",
            "visibility": "public",
            "watchers": 473,
            "watchers_count": 473,
            "web_commit_signoff_required": false
        },
        "sha": "75e0f64e0f590dea91e6f5e564225c1b011832a1",
        "user": {
            "avatar_url": "https://avatars.githubusercontent.com/u/11053411?v=4",
            "events_url": "https://api.github.com/users/PrismarineJS/events{/privacy}",
            "followers_url": "https://api.github.com/users/PrismarineJS/followers",
            "following_url": "https://api.github.com/users/PrismarineJS/following{/other_user}",
            "gists_url": "https://api.github.com/users/PrismarineJS/gists{/gist_id}",
            "gravatar_id": "",
            "html_url": "https://github.com/PrismarineJS",
            "id": 11053411,
            "login": "PrismarineJS",
            "node_id": "MDEyOk9yZ2FuaXphdGlvbjExMDUzNDEx",
            "organizations_url": "https://api.github.com/users/PrismarineJS/orgs",
            "received_events_url": "https://api.github.com/users/PrismarineJS/received_events",
            "repos_url": "https://api.github.com/users/PrismarineJS/repos",
            "site_admin": false,
            "starred_url": "https://api.github.com/users/PrismarineJS/starred{/owner}{/repo}",
            "subscriptions_url": "https://api.github.com/users/PrismarineJS/subscriptions",
            "type": "Organization",
            "url": "https://api.github.com/users/PrismarineJS"
        }
    },
    "body": "",
    "changed_files": 7,
    "closed_at": "2018-01-01T17:06:48Z",
    "comment_data": [],
    "comment_regular_data": [],
    "comments": 0,
    "comments_url": "https://api.github.com/repos/PrismarineJS/minecraft-data/issues/196/comments",
    "commit_data": [
        {
            "author": {
                "avatar_url": "https://avatars.githubusercontent.com/u/2346494?v=4",
                "events_url": "https://api.github.com/users/rom1504/events{/privacy}",
                "followers_url": "https://api.github.com/users/rom1504/followers",
                "following_url": "https://api.github.com/users/rom1504/following{/other_user}",
                "gists_url": "https://api.github.com/users/rom1504/gists{/gist_id}",
                "gravatar_id": "",
                "html_url": "https://github.com/rom1504",
                "id": 2346494,
                "login": "rom1504",
                "node_id": "MDQ6VXNlcjIzNDY0OTQ=",
                "organizations_url": "https://api.github.com/users/rom1504/orgs",
                "received_events_url": "https://api.github.com/users/rom1504/received_events",
                "repos_url": "https://api.github.com/users/rom1504/repos",
                "site_admin": false,
                "starred_url": "https://api.github.com/users/rom1504/starred{/owner}{/repo}",
                "subscriptions_url": "https://api.github.com/users/rom1504/subscriptions",
                "type": "User",
                "url": "https://api.github.com/users/rom1504"
            },
            "comments_url": "https://api.github.com/repos/PrismarineJS/minecraft-data/commits/04877a1b850362c7ee2fbe22cff105bf2783172d/comments",
            "commit": {
                "author": {
                    "date": "2018-01-01T13:09:34Z",
                    "email": "romain.rom1@gmail.com",
                    "name": "Romain Beaumont"
                },
                "comment_count": 0,
                "committer": {
                    "date": "2018-01-01T13:09:55Z",
                    "email": "romain.rom1@gmail.com",
                    "name": "Romain Beaumont"
                },
                "message": "initial commit for 17w50a (a 1.13 snapshot)",
                "tree": {
                    "sha": "106bf8c8f3eaa948600f082fb0736c5951a74401",
                    "url": "https://api.github.com/repos/PrismarineJS/minecraft-data/git/trees/106bf8c8f3eaa948600f082fb0736c5951a74401"
                },
                "url": "https://api.github.com/repos/PrismarineJS/minecraft-data/git/commits/04877a1b850362c7ee2fbe22cff105bf2783172d",
                "verification": {
                    "payload": "tree 106bf8c8f3eaa948600f082fb0736c5951a74401\nparent 75e0f64e0f590dea91e6f5e564225c1b011832a1\nauthor Romain Beaumont <romain.rom1@gmail.com> 1514812174 +0100\ncommitter Romain Beaumont <romain.rom1@gmail.com> 1514812195 +0100\n\ninitial commit for 17w50a (a 1.13 snapshot)\n",
                    "reason": "valid",
                    "signature": "-----BEGIN PGP SIGNATURE-----\nVersion: GnuPG v1\n\niQEcBAABAgAGBQJaSjMlAAoJENtg44izvPKGpFkIALtBMRGil3MCsSmbphPJxxW8\nXQbJXSs9p5Ri6QZzTzP/dKWRT04/HnY06mqmT8SkFaOBfhO25kluaGG+QMEJs2/0\n3c226ye46t+mNw59bbZC+XM7jG8iWxR9E6/wWlgt0AlN+36FlUwh/42dBY9PYVdy\nT/nt5WPkate2bj0BB3R2za5xKxDvFOG/tOjesv0nhKh6OpxnMepmEAS6/3HigX5S\niK3WxwRg3rrqSwdaE8xrCw0nEIeQmcoE1/EHr5NiiI+gUoD61WKMtFif3L/It2ZB\n9misLKonBj/tjM8ttcRQG3UYU8udZT26pAM1E7Eqs81F2GMac6CwFYOCOvVNVI8=\n=Xl24\n-----END PGP SIGNATURE-----",
                    "verified": true
                }
            },
            "committer": {
                "avatar_url": "https://avatars.githubusercontent.com/u/2346494?v=4",
                "events_url": "https://api.github.com/users/rom1504/events{/privacy}",
                "followers_url": "https://api.github.com/users/rom1504/followers",
                "following_url": "https://api.github.com/users/rom1504/following{/other_user}",
                "gists_url": "https://api.github.com/users/rom1504/gists{/gist_id}",
                "gravatar_id": "",
                "html_url": "https://github.com/rom1504",
                "id": 2346494,
                "login": "rom1504",
                "node_id": "MDQ6VXNlcjIzNDY0OTQ=",
                "organizations_url": "https://api.github.com/users/rom1504/orgs",
                "received_events_url": "https://api.github.com/users/rom1504/received_events",
                "repos_url": "https://api.github.com/users/rom1504/repos",
                "site_admin": false,
                "starred_url": "https://api.github.com/users/rom1504/starred{/owner}{/repo}",
                "subscriptions_url": "https://api.github.com/users/rom1504/subscriptions",
                "type": "User",
                "url": "https://api.github.com/users/rom1504"
            },
            "html_url": "https://github.com/PrismarineJS/minecraft-data/commit/04877a1b850362c7ee2fbe22cff105bf2783172d",
            "node_id": "MDY6Q29tbWl0MzI3NDE0OTg6MDQ4NzdhMWI4NTAzNjJjN2VlMmZiZTIyY2ZmMTA1YmYyNzgzMTcyZA==",
            "parents": [
                {
                    "html_url": "https://github.com/PrismarineJS/minecraft-data/commit/75e0f64e0f590dea91e6f5e564225c1b011832a1",
                    "sha": "75e0f64e0f590dea91e6f5e564225c1b011832a1",
                    "url": "https://api.github.com/repos/PrismarineJS/minecraft-data/commits/75e0f64e0f590dea91e6f5e564225c1b011832a1"
                }
            ],
            "sha": "04877a1b850362c7ee2fbe22cff105bf2783172d",
            "url": "https://api.github.com/repos/PrismarineJS/minecraft-data/commits/04877a1b850362c7ee2fbe22cff105bf2783172d"
        },
        {
            "author": {
                "avatar_url": "https://avatars.githubusercontent.com/u/2346494?v=4",
                "events_url": "https://api.github.com/users/rom1504/events{/privacy}",
                "followers_url": "https://api.github.com/users/rom1504/followers",
                "following_url": "https://api.github.com/users/rom1504/following{/other_user}",
                "gists_url": "https://api.github.com/users/rom1504/gists{/gist_id}",
                "gravatar_id": "",
                "html_url": "https://github.com/rom1504",
                "id": 2346494,
                "login": "rom1504",
                "node_id": "MDQ6VXNlcjIzNDY0OTQ=",
                "organizations_url": "https://api.github.com/users/rom1504/orgs",
                "received_events_url": "https://api.github.com/users/rom1504/received_events",
                "repos_url": "https://api.github.com/users/rom1504/repos",
                "site_admin": false,
                "starred_url": "https://api.github.com/users/rom1504/starred{/owner}{/repo}",
                "subscriptions_url": "https://api.github.com/users/rom1504/subscriptions",
                "type": "User",
                "url": "https://api.github.com/users/rom1504"
            },
            "comments_url": "https://api.github.com/repos/PrismarineJS/minecraft-data/commits/a54483b6e3b2032a0b1fb7ac78fe152a9cd8a11c/comments",
            "commit": {
                "author": {
                    "date": "2018-01-01T13:16:21Z",
                    "email": "romain.rom1@gmail.com",
                    "name": "Romain Beaumont"
                },
                "comment_count": 0,
                "committer": {
                    "date": "2018-01-01T13:16:21Z",
                    "email": "romain.rom1@gmail.com",
                    "name": "Romain Beaumont"
                },
                "message": "craft recipe request changes (as of http://wiki.vg/index.php?title=Pre-release_protocol&oldid=13538 )",
                "tree": {
                    "sha": "8814b1ed87cf1d28b25778fc77b297210feea7e3",
                    "url": "https://api.github.com/repos/PrismarineJS/minecraft-data/git/trees/8814b1ed87cf1d28b25778fc77b297210feea7e3"
                },
                "url": "https://api.github.com/repos/PrismarineJS/minecraft-data/git/commits/a54483b6e3b2032a0b1fb7ac78fe152a9cd8a11c",
                "verification": {
                    "payload": "tree 8814b1ed87cf1d28b25778fc77b297210feea7e3\nparent 04877a1b850362c7ee2fbe22cff105bf2783172d\nauthor Romain Beaumont <romain.rom1@gmail.com> 1514812581 +0100\ncommitter Romain Beaumont <romain.rom1@gmail.com> 1514812581 +0100\n\ncraft recipe request changes (as of http://wiki.vg/index.php?title=Pre-release_protocol&oldid=13538 )\n",
                    "reason": "valid",
                    "signature": "-----BEGIN PGP SIGNATURE-----\nVersion: GnuPG v1\n\niQEcBAABAgAGBQJaSjSlAAoJENtg44izvPKGqBoH/1QOrqKbhboW8JnnhK+Hqtyx\nN0lv3IXWxOCiW6tl0ae6h6xUeUuKDXKNIWjAPURTHGf1mXg8jsABjoo0rlNmS30A\n/Wp1++nvIjU1QhAXsbQKDyKWn2XVTgc7WoccXm2Z8WvBh/K6Qiuogu3ZCQ2FXmCx\nI5ru3sgCTeGuWkySIVC5tbyHw3noDC3bteduTwzwuBPo2sRejollFDpjNQTFYqGP\naAz6RJYeZAmaI4A7mlEAS1BKZL4t3yrFYMbZnBdCFvDQoXqtcBfjSmjAAFNLqYTY\nhNgFzj6nvTKUmSpCjzK4metlyXTF0TJrvggAuQGgHukyRB65pZA0HWaCZjX6gYk=\n=MvuD\n-----END PGP SIGNATURE-----",
                    "verified": true
                }
            },
            "committer": {
                "avatar_url": "https://avatars.githubusercontent.com/u/2346494?v=4",
                "events_url": "https://api.github.com/users/rom1504/events{/privacy}",
                "followers_url": "https://api.github.com/users/rom1504/followers",
                "following_url": "https://api.github.com/users/rom1504/following{/other_user}",
                "gists_url": "https://api.github.com/users/rom1504/gists{/gist_id}",
                "gravatar_id": "",
                "html_url": "https://github.com/rom1504",
                "id": 2346494,
                "login": "rom1504",
                "node_id": "MDQ6VXNlcjIzNDY0OTQ=",
                "organizations_url": "https://api.github.com/users/rom1504/orgs",
                "received_events_url": "https://api.github.com/users/rom1504/received_events",
                "repos_url": "https://api.github.com/users/rom1504/repos",
                "site_admin": false,
                "starred_url": "https://api.github.com/users/rom1504/starred{/owner}{/repo}",
                "subscriptions_url": "https://api.github.com/users/rom1504/subscriptions",
                "type": "User",
                "url": "https://api.github.com/users/rom1504"
            },
            "html_url": "https://github.com/PrismarineJS/minecraft-data/commit/a54483b6e3b2032a0b1fb7ac78fe152a9cd8a11c",
            "node_id": "MDY6Q29tbWl0MzI3NDE0OTg6YTU0NDgzYjZlM2IyMDMyYTBiMWZiN2FjNzhmZTE1MmE5Y2Q4YTExYw==",
            "parents": [
                {
                    "html_url": "https://github.com/PrismarineJS/minecraft-data/commit/04877a1b850362c7ee2fbe22cff105bf2783172d",
                    "sha": "04877a1b850362c7ee2fbe22cff105bf2783172d",
                    "url": "https://api.github.com/repos/PrismarineJS/minecraft-data/commits/04877a1b850362c7ee2fbe22cff105bf2783172d"
                }
            ],
            "sha": "a54483b6e3b2032a0b1fb7ac78fe152a9cd8a11c",
            "url": "https://api.github.com/repos/PrismarineJS/minecraft-data/commits/a54483b6e3b2032a0b1fb7ac78fe152a9cd8a11c"
        },
        {
            "author": {
                "avatar_url": "https://avatars.githubusercontent.com/u/2346494?v=4",
                "events_url": "https://api.github.com/users/rom1504/events{/privacy}",
                "followers_url": "https://api.github.com/users/rom1504/followers",
                "following_url": "https://api.github.com/users/rom1504/following{/other_user}",
                "gists_url": "https://api.github.com/users/rom1504/gists{/gist_id}",
                "gravatar_id": "",
                "html_url": "https://github.com/rom1504",
                "id": 2346494,
                "login": "rom1504",
                "node_id": "MDQ6VXNlcjIzNDY0OTQ=",
                "organizations_url": "https://api.github.com/users/rom1504/orgs",
                "received_events_url": "https://api.github.com/users/rom1504/received_events",
                "repos_url": "https://api.github.com/users/rom1504/repos",
                "site_admin": false,
                "starred_url": "https://api.github.com/users/rom1504/starred{/owner}{/repo}",
                "subscriptions_url": "https://api.github.com/users/rom1504/subscriptions",
                "type": "User",
                "url": "https://api.github.com/users/rom1504"
            },
            "comments_url": "https://api.github.com/repos/PrismarineJS/minecraft-data/commits/0c360af7c0c85184dea3af07ec8c6efe40a8f792/comments",
            "commit": {
                "author": {
                    "date": "2018-01-01T13:18:29Z",
                    "email": "romain.rom1@gmail.com",
                    "name": "Romain Beaumont"
                },
                "comment_count": 0,
                "committer": {
                    "date": "2018-01-01T13:18:29Z",
                    "email": "romain.rom1@gmail.com",
                    "name": "Romain Beaumont"
                },
                "message": "Tab-Complete (serverbound) changes (as of http://wiki.vg/index.php?title=Pre-release_protocol&oldid=13538 )",
                "tree": {
                    "sha": "1e21fa0b31290c910682dacfb99b1a2e92aeed33",
                    "url": "https://api.github.com/repos/PrismarineJS/minecraft-data/git/trees/1e21fa0b31290c910682dacfb99b1a2e92aeed33"
                },
                "url": "https://api.github.com/repos/PrismarineJS/minecraft-data/git/commits/0c360af7c0c85184dea3af07ec8c6efe40a8f792",
                "verification": {
                    "payload": "tree 1e21fa0b31290c910682dacfb99b1a2e92aeed33\nparent a54483b6e3b2032a0b1fb7ac78fe152a9cd8a11c\nauthor Romain Beaumont <romain.rom1@gmail.com> 1514812709 +0100\ncommitter Romain Beaumont <romain.rom1@gmail.com> 1514812709 +0100\n\nTab-Complete (serverbound) changes (as of http://wiki.vg/index.php?title=Pre-release_protocol&oldid=13538 )\n",
                    "reason": "valid",
                    "signature": "-----BEGIN PGP SIGNATURE-----\nVersion: GnuPG v1\n\niQEcBAABAgAGBQJaSjUlAAoJENtg44izvPKGFWsH+wUdJl7+km8Qqbag0uUxgnRC\nCiqU3Qqy1VVDlCytYAhVDIGrHse+Yv1ga729g30sMkmEINIHi5RfrphACO/IV2pW\nSWryFPIrNcvScvE0daLaa/hjcc56dfq13WRO1n/WTky/F4XHl4WrR6/0lw5pACiy\n9/tYxVn/9OxUFC8T8QPQ3OqTrFHla9JYiGVEqiGg1umSK/gZzDCm11m/TkSxyhOY\nL8KxlBQfA5SDepCbqX6fOhextTpLLetOjqyrzyGaIg59zN67VTERZb86YKTr5nSm\nlMCq0S+5rYFj7bnNUsYMg11RCmYhXMygXx9CumICa34LenG3okQyM11YveOw3fA=\n=BceN\n-----END PGP SIGNATURE-----",
                    "verified": true
                }
            },
            "committer": {
                "avatar_url": "https://avatars.githubusercontent.com/u/2346494?v=4",
                "events_url": "https://api.github.com/users/rom1504/events{/privacy}",
                "followers_url": "https://api.github.com/users/rom1504/followers",
                "following_url": "https://api.github.com/users/rom1504/following{/other_user}",
                "gists_url": "https://api.github.com/users/rom1504/gists{/gist_id}",
                "gravatar_id": "",
                "html_url": "https://github.com/rom1504",
                "id": 2346494,
                "login": "rom1504",
                "node_id": "MDQ6VXNlcjIzNDY0OTQ=",
                "organizations_url": "https://api.github.com/users/rom1504/orgs",
                "received_events_url": "https://api.github.com/users/rom1504/received_events",
                "repos_url": "https://api.github.com/users/rom1504/repos",
                "site_admin": false,
                "starred_url": "https://api.github.com/users/rom1504/starred{/owner}{/repo}",
                "subscriptions_url": "https://api.github.com/users/rom1504/subscriptions",
                "type": "User",
                "url": "https://api.github.com/users/rom1504"
            },
            "html_url": "https://github.com/PrismarineJS/minecraft-data/commit/0c360af7c0c85184dea3af07ec8c6efe40a8f792",
            "node_id": "MDY6Q29tbWl0MzI3NDE0OTg6MGMzNjBhZjdjMGM4NTE4NGRlYTNhZjA3ZWM4YzZlZmU0MGE4Zjc5Mg==",
            "parents": [
                {
                    "html_url": "https://github.com/PrismarineJS/minecraft-data/commit/a54483b6e3b2032a0b1fb7ac78fe152a9cd8a11c",
                    "sha": "a54483b6e3b2032a0b1fb7ac78fe152a9cd8a11c",
                    "url": "https://api.github.com/repos/PrismarineJS/minecraft-data/commits/a54483b6e3b2032a0b1fb7ac78fe152a9cd8a11c"
                }
            ],
            "sha": "0c360af7c0c85184dea3af07ec8c6efe40a8f792",
            "url": "https://api.github.com/repos/PrismarineJS/minecraft-data/commits/0c360af7c0c85184dea3af07ec8c6efe40a8f792"
        },
        {
            "author": {
                "avatar_url": "https://avatars.githubusercontent.com/u/2346494?v=4",
                "events_url": "https://api.github.com/users/rom1504/events{/privacy}",
                "followers_url": "https://api.github.com/users/rom1504/followers",
                "following_url": "https://api.github.com/users/rom1504/following{/other_user}",
                "gists_url": "https://api.github.com/users/rom1504/gists{/gist_id}",
                "gravatar_id": "",
                "html_url": "https://github.com/rom1504",
                "id": 2346494,
                "login": "rom1504",
                "node_id": "MDQ6VXNlcjIzNDY0OTQ=",
                "organizations_url": "https://api.github.com/users/rom1504/orgs",
                "received_events_url": "https://api.github.com/users/rom1504/received_events",
                "repos_url": "https://api.github.com/users/rom1504/repos",
                "site_admin": false,
                "starred_url": "https://api.github.com/users/rom1504/starred{/owner}{/repo}",
                "subscriptions_url": "https://api.github.com/users/rom1504/subscriptions",
                "type": "User",
                "url": "https://api.github.com/users/rom1504"
            },
            "comments_url": "https://api.github.com/repos/PrismarineJS/minecraft-data/commits/7222c4d88cc43e38a6d84fad371e711b3bab828f/comments",
            "commit": {
                "author": {
                    "date": "2018-01-01T13:24:07Z",
                    "email": "romain.rom1@gmail.com",
                    "name": "Romain Beaumont"
                },
                "comment_count": 0,
                "committer": {
                    "date": "2018-01-01T13:24:07Z",
                    "email": "romain.rom1@gmail.com",
                    "name": "Romain Beaumont"
                },
                "message": "Unlock Recipes changes (as of http://wiki.vg/index.php?title=Pre-release_protocol&oldid=13538 )",
                "tree": {
                    "sha": "c4fb00a0c4d760f13623112a462e24c5e1e8b0cf",
                    "url": "https://api.github.com/repos/PrismarineJS/minecraft-data/git/trees/c4fb00a0c4d760f13623112a462e24c5e1e8b0cf"
                },
                "url": "https://api.github.com/repos/PrismarineJS/minecraft-data/git/commits/7222c4d88cc43e38a6d84fad371e711b3bab828f",
                "verification": {
                    "payload": "tree c4fb00a0c4d760f13623112a462e24c5e1e8b0cf\nparent 0c360af7c0c85184dea3af07ec8c6efe40a8f792\nauthor Romain Beaumont <romain.rom1@gmail.com> 1514813047 +0100\ncommitter Romain Beaumont <romain.rom1@gmail.com> 1514813047 +0100\n\nUnlock Recipes changes (as of http://wiki.vg/index.php?title=Pre-release_protocol&oldid=13538 )\n",
                    "reason": "valid",
                    "signature": "-----BEGIN PGP SIGNATURE-----\nVersion: GnuPG v1\n\niQEcBAABAgAGBQJaSjZ3AAoJENtg44izvPKGCG4IAIOgIfTvqO+FWt+H/kZki8Ve\nw6Rx5z4ZNsCanC2UbLckgE3oQQRz9KtJtNIUgvzWzAoXZfk3FGLAT4AX+6Nqqm3q\nWXF0XIRrue9gp1BeBneuwuZZ7MiMQQpq9LBrZWtOUMsN0+ixGmz88JuP6wtTOU9N\nLrrX2T8GcVYEz7IWbM3dzG35xVc/IvlbkwlxwxN5K4sYguL1rF8xss35nGgXvOGM\nbY5UTWbMw0JX4skwtsneSlFVGgXUfNK3SGyM2OfOpXrw6pv/qzA5YKrVk1B6a54o\nUNdB5/bHDqULW062BjfXvM0gClGoVhcFPBMb7dh7zMRRTleL065XaQm1N5mD8PA=\n=YJNJ\n-----END PGP SIGNATURE-----",
                    "verified": true
                }
            },
            "committer": {
                "avatar_url": "https://avatars.githubusercontent.com/u/2346494?v=4",
                "events_url": "https://api.github.com/users/rom1504/events{/privacy}",
                "followers_url": "https://api.github.com/users/rom1504/followers",
                "following_url": "https://api.github.com/users/rom1504/following{/other_user}",
                "gists_url": "https://api.github.com/users/rom1504/gists{/gist_id}",
                "gravatar_id": "",
                "html_url": "https://github.com/rom1504",
                "id": 2346494,
                "login": "rom1504",
                "node_id": "MDQ6VXNlcjIzNDY0OTQ=",
                "organizations_url": "https://api.github.com/users/rom1504/orgs",
                "received_events_url": "https://api.github.com/users/rom1504/received_events",
                "repos_url": "https://api.github.com/users/rom1504/repos",
                "site_admin": false,
                "starred_url": "https://api.github.com/users/rom1504/starred{/owner}{/repo}",
                "subscriptions_url": "https://api.github.com/users/rom1504/subscriptions",
                "type": "User",
                "url": "https://api.github.com/users/rom1504"
            },
            "html_url": "https://github.com/PrismarineJS/minecraft-data/commit/7222c4d88cc43e38a6d84fad371e711b3bab828f",
            "node_id": "MDY6Q29tbWl0MzI3NDE0OTg6NzIyMmM0ZDg4Y2M0M2UzOGE2ZDg0ZmFkMzcxZTcxMWIzYmFiODI4Zg==",
            "parents": [
                {
                    "html_url": "https://github.com/PrismarineJS/minecraft-data/commit/0c360af7c0c85184dea3af07ec8c6efe40a8f792",
                    "sha": "0c360af7c0c85184dea3af07ec8c6efe40a8f792",
                    "url": "https://api.github.com/repos/PrismarineJS/minecraft-data/commits/0c360af7c0c85184dea3af07ec8c6efe40a8f792"
                }
            ],
            "sha": "7222c4d88cc43e38a6d84fad371e711b3bab828f",
            "url": "https://api.github.com/repos/PrismarineJS/minecraft-data/commits/7222c4d88cc43e38a6d84fad371e711b3bab828f"
        },
        {
            "author": {
                "avatar_url": "https://avatars.githubusercontent.com/u/2346494?v=4",
                "events_url": "https://api.github.com/users/rom1504/events{/privacy}",
                "followers_url": "https://api.github.com/users/rom1504/followers",
                "following_url": "https://api.github.com/users/rom1504/following{/other_user}",
                "gists_url": "https://api.github.com/users/rom1504/gists{/gist_id}",
                "gravatar_id": "",
                "html_url": "https://github.com/rom1504",
                "id": 2346494,
                "login": "rom1504",
                "node_id": "MDQ6VXNlcjIzNDY0OTQ=",
                "organizations_url": "https://api.github.com/users/rom1504/orgs",
                "received_events_url": "https://api.github.com/users/rom1504/received_events",
                "repos_url": "https://api.github.com/users/rom1504/repos",
                "site_admin": false,
                "starred_url": "https://api.github.com/users/rom1504/starred{/owner}{/repo}",
                "subscriptions_url": "https://api.github.com/users/rom1504/subscriptions",
                "type": "User",
                "url": "https://api.github.com/users/rom1504"
            },
            "comments_url": "https://api.github.com/repos/PrismarineJS/minecraft-data/commits/0e31991f2751fa14ac08dd5be29812e34b4983da/comments",
            "commit": {
                "author": {
                    "date": "2018-01-01T13:24:42Z",
                    "email": "romain.rom1@gmail.com",
                    "name": "Romain Beaumont"
                },
                "comment_count": 0,
                "committer": {
                    "date": "2018-01-01T13:24:42Z",
                    "email": "romain.rom1@gmail.com",
                    "name": "Romain Beaumont"
                },
                "message": "Craft Recipe Response changes (as of http://wiki.vg/index.php?title=Pre-release_protocol&oldid=13538 )",
                "tree": {
                    "sha": "ffb0fb36280dbb36e50c12b1521db84c7728d680",
                    "url": "https://api.github.com/repos/PrismarineJS/minecraft-data/git/trees/ffb0fb36280dbb36e50c12b1521db84c7728d680"
                },
                "url": "https://api.github.com/repos/PrismarineJS/minecraft-data/git/commits/0e31991f2751fa14ac08dd5be29812e34b4983da",
                "verification": {
                    "payload": "tree ffb0fb36280dbb36e50c12b1521db84c7728d680\nparent 7222c4d88cc43e38a6d84fad371e711b3bab828f\nauthor Romain Beaumont <romain.rom1@gmail.com> 1514813082 +0100\ncommitter Romain Beaumont <romain.rom1@gmail.com> 1514813082 +0100\n\nCraft Recipe Response changes (as of http://wiki.vg/index.php?title=Pre-release_protocol&oldid=13538 )\n",
                    "reason": "valid",
                    "signature": "-----BEGIN PGP SIGNATURE-----\nVersion: GnuPG v1\n\niQEcBAABAgAGBQJaSjaaAAoJENtg44izvPKGHycIAKAEtMUKp6DhtvA5VCMyxG2m\n5UkjhqPxcjONTIs6AaFYsLUaxvwu4T0wWPVW8dD8Z/SUqas2pzcHq3YV/2BgsZXC\nC9fy3alk4Q3SU9R5PocAILnIlWraUDY4u7BVD4LBxvzuzS3S1ItSs9V0qP8CviAz\nliWVOYjAsGt2KS2ZxPKY0nAYwSaipFE2TCm5MyA61gcs3Hg+KLgHPWhVE6AM+f8p\nI2060c1CRyZuUg9y7quUPig2xuYHFZcjCodkPNMBaVXmlevPc3sCse+hw9nctMpR\niWtOwFWPJWpJ1NERVAJ9ynjkNLkhGXUFN76jiGhLFFw2TGqsabi3e/DkH/Ozf7E=\n=qSpO\n-----END PGP SIGNATURE-----",
                    "verified": true
                }
            },
            "committer": {
                "avatar_url": "https://avatars.githubusercontent.com/u/2346494?v=4",
                "events_url": "https://api.github.com/users/rom1504/events{/privacy}",
                "followers_url": "https://api.github.com/users/rom1504/followers",
                "following_url": "https://api.github.com/users/rom1504/following{/other_user}",
                "gists_url": "https://api.github.com/users/rom1504/gists{/gist_id}",
                "gravatar_id": "",
                "html_url": "https://github.com/rom1504",
                "id": 2346494,
                "login": "rom1504",
                "node_id": "MDQ6VXNlcjIzNDY0OTQ=",
                "organizations_url": "https://api.github.com/users/rom1504/orgs",
                "received_events_url": "https://api.github.com/users/rom1504/received_events",
                "repos_url": "https://api.github.com/users/rom1504/repos",
                "site_admin": false,
                "starred_url": "https://api.github.com/users/rom1504/starred{/owner}{/repo}",
                "subscriptions_url": "https://api.github.com/users/rom1504/subscriptions",
                "type": "User",
                "url": "https://api.github.com/users/rom1504"
            },
            "html_url": "https://github.com/PrismarineJS/minecraft-data/commit/0e31991f2751fa14ac08dd5be29812e34b4983da",
            "node_id": "MDY6Q29tbWl0MzI3NDE0OTg6MGUzMTk5MWYyNzUxZmExNGFjMDhkZDViZTI5ODEyZTM0YjQ5ODNkYQ==",
            "parents": [
                {
                    "html_url": "https://github.com/PrismarineJS/minecraft-data/commit/7222c4d88cc43e38a6d84fad371e711b3bab828f",
                    "sha": "7222c4d88cc43e38a6d84fad371e711b3bab828f",
                    "url": "https://api.github.com/repos/PrismarineJS/minecraft-data/commits/7222c4d88cc43e38a6d84fad371e711b3bab828f"
                }
            ],
            "sha": "0e31991f2751fa14ac08dd5be29812e34b4983da",
            "url": "https://api.github.com/repos/PrismarineJS/minecraft-data/commits/0e31991f2751fa14ac08dd5be29812e34b4983da"
        },
        {
            "author": {
                "avatar_url": "https://avatars.githubusercontent.com/u/2346494?v=4",
                "events_url": "https://api.github.com/users/rom1504/events{/privacy}",
                "followers_url": "https://api.github.com/users/rom1504/followers",
                "following_url": "https://api.github.com/users/rom1504/following{/other_user}",
                "gists_url": "https://api.github.com/users/rom1504/gists{/gist_id}",
                "gravatar_id": "",
                "html_url": "https://github.com/rom1504",
                "id": 2346494,
                "login": "rom1504",
                "node_id": "MDQ6VXNlcjIzNDY0OTQ=",
                "organizations_url": "https://api.github.com/users/rom1504/orgs",
                "received_events_url": "https://api.github.com/users/rom1504/received_events",
                "repos_url": "https://api.github.com/users/rom1504/repos",
                "site_admin": false,
                "starred_url": "https://api.github.com/users/rom1504/starred{/owner}{/repo}",
                "subscriptions_url": "https://api.github.com/users/rom1504/subscriptions",
                "type": "User",
                "url": "https://api.github.com/users/rom1504"
            },
            "comments_url": "https://api.github.com/repos/PrismarineJS/minecraft-data/commits/aeb3a5bd97164e73feea662283f364bb96e103e0/comments",
            "commit": {
                "author": {
                    "date": "2018-01-01T13:36:18Z",
                    "email": "romain.rom1@gmail.com",
                    "name": "Romain Beaumont"
                },
                "comment_count": 0,
                "committer": {
                    "date": "2018-01-01T13:36:18Z",
                    "email": "romain.rom1@gmail.com",
                    "name": "Romain Beaumont"
                },
                "message": "Particle changes (as of http://wiki.vg/index.php?title=Pre-release_protocol&oldid=13538 )",
                "tree": {
                    "sha": "62262031f013f50b69179c33c94dfd6910777c9d",
                    "url": "https://api.github.com/repos/PrismarineJS/minecraft-data/git/trees/62262031f013f50b69179c33c94dfd6910777c9d"
                },
                "url": "https://api.github.com/repos/PrismarineJS/minecraft-data/git/commits/aeb3a5bd97164e73feea662283f364bb96e103e0",
                "verification": {
                    "payload": "tree 62262031f013f50b69179c33c94dfd6910777c9d\nparent 0e31991f2751fa14ac08dd5be29812e34b4983da\nauthor Romain Beaumont <romain.rom1@gmail.com> 1514813778 +0100\ncommitter Romain Beaumont <romain.rom1@gmail.com> 1514813778 +0100\n\nParticle changes (as of http://wiki.vg/index.php?title=Pre-release_protocol&oldid=13538 )\n",
                    "reason": "valid",
                    "signature": "-----BEGIN PGP SIGNATURE-----\nVersion: GnuPG v1\n\niQEcBAABAgAGBQJaSjlSAAoJENtg44izvPKGQkQH/Ao13MYKcEjkWMnpHL9GFxYY\nJvotFn9QVXLqXzmv+uZjZhala/dvPt/zuA4Svj5fZrUx7FsixU2QxYQBkvp1j31B\njY+DP8HZj6aVrB3ba0WNvCdaEFZRDKugvxHtPiPMiO36anqdyG+PI/rURz0Lt+1n\nTdpNdHQ5inadi9BH7GjlAlHBAoajAbnRrASPMN+FanYWzePJ379viDZDtruWS+4t\nAJSXZGjeS5gCy7kYQzCgJHdc/cXji4lYJ6rcRhxiJBIULhjXWYiOERYo7VdzaGEO\ngE7khFnM2eILxRNdPLNn/ISEw+KLEUNLokXnYoltR5mQCgIDO7NGs7GTiBqTVDA=\n=B7St\n-----END PGP SIGNATURE-----",
                    "verified": true
                }
            },
            "committer": {
                "avatar_url": "https://avatars.githubusercontent.com/u/2346494?v=4",
                "events_url": "https://api.github.com/users/rom1504/events{/privacy}",
                "followers_url": "https://api.github.com/users/rom1504/followers",
                "following_url": "https://api.github.com/users/rom1504/following{/other_user}",
                "gists_url": "https://api.github.com/users/rom1504/gists{/gist_id}",
                "gravatar_id": "",
                "html_url": "https://github.com/rom1504",
                "id": 2346494,
                "login": "rom1504",
                "node_id": "MDQ6VXNlcjIzNDY0OTQ=",
                "organizations_url": "https://api.github.com/users/rom1504/orgs",
                "received_events_url": "https://api.github.com/users/rom1504/received_events",
                "repos_url": "https://api.github.com/users/rom1504/repos",
                "site_admin": false,
                "starred_url": "https://api.github.com/users/rom1504/starred{/owner}{/repo}",
                "subscriptions_url": "https://api.github.com/users/rom1504/subscriptions",
                "type": "User",
                "url": "https://api.github.com/users/rom1504"
            },
            "html_url": "https://github.com/PrismarineJS/minecraft-data/commit/aeb3a5bd97164e73feea662283f364bb96e103e0",
            "node_id": "MDY6Q29tbWl0MzI3NDE0OTg6YWViM2E1YmQ5NzE2NGU3M2ZlZWE2NjIyODNmMzY0YmI5NmUxMDNlMA==",
            "parents": [
                {
                    "html_url": "https://github.com/PrismarineJS/minecraft-data/commit/0e31991f2751fa14ac08dd5be29812e34b4983da",
                    "sha": "0e31991f2751fa14ac08dd5be29812e34b4983da",
                    "url": "https://api.github.com/repos/PrismarineJS/minecraft-data/commits/0e31991f2751fa14ac08dd5be29812e34b4983da"
                }
            ],
            "sha": "aeb3a5bd97164e73feea662283f364bb96e103e0",
            "url": "https://api.github.com/repos/PrismarineJS/minecraft-data/commits/aeb3a5bd97164e73feea662283f364bb96e103e0"
        },
        {
            "author": {
                "avatar_url": "https://avatars.githubusercontent.com/u/2346494?v=4",
                "events_url": "https://api.github.com/users/rom1504/events{/privacy}",
                "followers_url": "https://api.github.com/users/rom1504/followers",
                "following_url": "https://api.github.com/users/rom1504/following{/other_user}",
                "gists_url": "https://api.github.com/users/rom1504/gists{/gist_id}",
                "gravatar_id": "",
                "html_url": "https://github.com/rom1504",
                "id": 2346494,
                "login": "rom1504",
                "node_id": "MDQ6VXNlcjIzNDY0OTQ=",
                "organizations_url": "https://api.github.com/users/rom1504/orgs",
                "received_events_url": "https://api.github.com/users/rom1504/received_events",
                "repos_url": "https://api.github.com/users/rom1504/repos",
                "site_admin": false,
                "starred_url": "https://api.github.com/users/rom1504/starred{/owner}{/repo}",
                "subscriptions_url": "https://api.github.com/users/rom1504/subscriptions",
                "type": "User",
                "url": "https://api.github.com/users/rom1504"
            },
            "comments_url": "https://api.github.com/repos/PrismarineJS/minecraft-data/commits/27d8c5aedf7b0d0e4524dd22657c98b6e8c64db4/comments",
            "commit": {
                "author": {
                    "date": "2018-01-01T13:39:04Z",
                    "email": "romain.rom1@gmail.com",
                    "name": "Romain Beaumont"
                },
                "comment_count": 0,
                "committer": {
                    "date": "2018-01-01T13:39:04Z",
                    "email": "romain.rom1@gmail.com",
                    "name": "Romain Beaumont"
                },
                "message": "Tab-Complete (clientbound) changes (as of http://wiki.vg/index.php?title=Pre-release_protocol&oldid=13538 )",
                "tree": {
                    "sha": "6552c523a1bac85f21ed414fa90d1bb2d316f908",
                    "url": "https://api.github.com/repos/PrismarineJS/minecraft-data/git/trees/6552c523a1bac85f21ed414fa90d1bb2d316f908"
                },
                "url": "https://api.github.com/repos/PrismarineJS/minecraft-data/git/commits/27d8c5aedf7b0d0e4524dd22657c98b6e8c64db4",
                "verification": {
                    "payload": "tree 6552c523a1bac85f21ed414fa90d1bb2d316f908\nparent aeb3a5bd97164e73feea662283f364bb96e103e0\nauthor Romain Beaumont <romain.rom1@gmail.com> 1514813944 +0100\ncommitter Romain Beaumont <romain.rom1@gmail.com> 1514813944 +0100\n\nTab-Complete (clientbound) changes (as of http://wiki.vg/index.php?title=Pre-release_protocol&oldid=13538 )\n",
                    "reason": "valid",
                    "signature": "-----BEGIN PGP SIGNATURE-----\nVersion: GnuPG v1\n\niQEcBAABAgAGBQJaSjn4AAoJENtg44izvPKGjyoH/18Zlizs6TukdlRovPMAk2VV\n0VGXwNgH6UuXPu46fz8DxmxgUsgYUuBDpbVIcI5+/jokceQeplwTU3ZwI7Zs0HTz\n8oFNlrdboO9wE00Y0AjHBDf643mq0j+QfIGe4nEhYTKMVxU3G7zLdoUVkiGy7JVN\nxkRhY0FUb9qg/mjw3J4GWe3ti29Q+iEljDfECnwEkFkfVv/yWj6U1RJC7a2iPUEu\nsXROrcVSjTWktfPSd/MUryrC8ArzkBcba/3qzlntA53PxSmMkailUuZ1KYgy2ofd\n9ojaRCUWBsHR3TQEy0nU7giNy77Wn4gZuaMWF0f0jokxeNVd7i4kLAFZLRMixN0=\n=YUcu\n-----END PGP SIGNATURE-----",
                    "verified": true
                }
            },
            "committer": {
                "avatar_url": "https://avatars.githubusercontent.com/u/2346494?v=4",
                "events_url": "https://api.github.com/users/rom1504/events{/privacy}",
                "followers_url": "https://api.github.com/users/rom1504/followers",
                "following_url": "https://api.github.com/users/rom1504/following{/other_user}",
                "gists_url": "https://api.github.com/users/rom1504/gists{/gist_id}",
                "gravatar_id": "",
                "html_url": "https://github.com/rom1504",
                "id": 2346494,
                "login": "rom1504",
                "node_id": "MDQ6VXNlcjIzNDY0OTQ=",
                "organizations_url": "https://api.github.com/users/rom1504/orgs",
                "received_events_url": "https://api.github.com/users/rom1504/received_events",
                "repos_url": "https://api.github.com/users/rom1504/repos",
                "site_admin": false,
                "starred_url": "https://api.github.com/users/rom1504/starred{/owner}{/repo}",
                "subscriptions_url": "https://api.github.com/users/rom1504/subscriptions",
                "type": "User",
                "url": "https://api.github.com/users/rom1504"
            },
            "html_url": "https://github.com/PrismarineJS/minecraft-data/commit/27d8c5aedf7b0d0e4524dd22657c98b6e8c64db4",
            "node_id": "MDY6Q29tbWl0MzI3NDE0OTg6MjdkOGM1YWVkZjdiMGQwZTQ1MjRkZDIyNjU3Yzk4YjZlOGM2NGRiNA==",
            "parents": [
                {
                    "html_url": "https://github.com/PrismarineJS/minecraft-data/commit/aeb3a5bd97164e73feea662283f364bb96e103e0",
                    "sha": "aeb3a5bd97164e73feea662283f364bb96e103e0",
                    "url": "https://api.github.com/repos/PrismarineJS/minecraft-data/commits/aeb3a5bd97164e73feea662283f364bb96e103e0"
                }
            ],
            "sha": "27d8c5aedf7b0d0e4524dd22657c98b6e8c64db4",
            "url": "https://api.github.com/repos/PrismarineJS/minecraft-data/commits/27d8c5aedf7b0d0e4524dd22657c98b6e8c64db4"
        },
        {
            "author": {
                "avatar_url": "https://avatars.githubusercontent.com/u/2346494?v=4",
                "events_url": "https://api.github.com/users/rom1504/events{/privacy}",
                "followers_url": "https://api.github.com/users/rom1504/followers",
                "following_url": "https://api.github.com/users/rom1504/following{/other_user}",
                "gists_url": "https://api.github.com/users/rom1504/gists{/gist_id}",
                "gravatar_id": "",
                "html_url": "https://github.com/rom1504",
                "id": 2346494,
                "login": "rom1504",
                "node_id": "MDQ6VXNlcjIzNDY0OTQ=",
                "organizations_url": "https://api.github.com/users/rom1504/orgs",
                "received_events_url": "https://api.github.com/users/rom1504/received_events",
                "repos_url": "https://api.github.com/users/rom1504/repos",
                "site_admin": false,
                "starred_url": "https://api.github.com/users/rom1504/starred{/owner}{/repo}",
                "subscriptions_url": "https://api.github.com/users/rom1504/subscriptions",
                "type": "User",
                "url": "https://api.github.com/users/rom1504"
            },
            "comments_url": "https://api.github.com/repos/PrismarineJS/minecraft-data/commits/1c6ec2ac0064eaf658b4b7c75efbf6775accfa4f/comments",
            "commit": {
                "author": {
                    "date": "2018-01-01T13:41:05Z",
                    "email": "romain.rom1@gmail.com",
                    "name": "Romain Beaumont"
                },
                "comment_count": 0,
                "committer": {
                    "date": "2018-01-01T13:41:05Z",
                    "email": "romain.rom1@gmail.com",
                    "name": "Romain Beaumont"
                },
                "message": "statistics changes (as of http://wiki.vg/index.php?title=Pre-release_protocol&oldid=13538 )",
                "tree": {
                    "sha": "c2304ae47e7d9eb2fb75a5e78405ab52fab0871e",
                    "url": "https://api.github.com/repos/PrismarineJS/minecraft-data/git/trees/c2304ae47e7d9eb2fb75a5e78405ab52fab0871e"
                },
                "url": "https://api.github.com/repos/PrismarineJS/minecraft-data/git/commits/1c6ec2ac0064eaf658b4b7c75efbf6775accfa4f",
                "verification": {
                    "payload": "tree c2304ae47e7d9eb2fb75a5e78405ab52fab0871e\nparent 27d8c5aedf7b0d0e4524dd22657c98b6e8c64db4\nauthor Romain Beaumont <romain.rom1@gmail.com> 1514814065 +0100\ncommitter Romain Beaumont <romain.rom1@gmail.com> 1514814065 +0100\n\nstatistics changes (as of http://wiki.vg/index.php?title=Pre-release_protocol&oldid=13538 )\n",
                    "reason": "valid",
                    "signature": "-----BEGIN PGP SIGNATURE-----\nVersion: GnuPG v1\n\niQEcBAABAgAGBQJaSjpxAAoJENtg44izvPKGaNIH/RSMg5TM0wm82P5dh9oQrBYI\nwlPfyps0mM08bpZ/zWQehUmC+mHCbCiHguwS9a55/Zuk3JJN2cd3Rh26TukVmw07\nCjC1QU87VgnnLoNaMNJt7Y4eXaLS71ghoNXowbeJHd7jBVgEOBL1Y23agyMLyUWp\ns6IIo4XOwvghSeCuYcZ8KyvfXigCFbNSRMD1MI/oR8BUQc990c/5P7F2AAkjehcN\n7LwOgzkZq0rB1i+LTW8aVact4Dge4jqqN6n+EgVAhnvvcBcvrxQaU9au1IQQl/dZ\n2gEo7/Bu06HGS9i/jjyaQFbzyO67eQVt0jW2WRslfmmCHf+7WkNDnftx+ouuOPY=\n=2Rch\n-----END PGP SIGNATURE-----",
                    "verified": true
                }
            },
            "committer": {
                "avatar_url": "https://avatars.githubusercontent.com/u/2346494?v=4",
                "events_url": "https://api.github.com/users/rom1504/events{/privacy}",
                "followers_url": "https://api.github.com/users/rom1504/followers",
                "following_url": "https://api.github.com/users/rom1504/following{/other_user}",
                "gists_url": "https://api.github.com/users/rom1504/gists{/gist_id}",
                "gravatar_id": "",
                "html_url": "https://github.com/rom1504",
                "id": 2346494,
                "login": "rom1504",
                "node_id": "MDQ6VXNlcjIzNDY0OTQ=",
                "organizations_url": "https://api.github.com/users/rom1504/orgs",
                "received_events_url": "https://api.github.com/users/rom1504/received_events",
                "repos_url": "https://api.github.com/users/rom1504/repos",
                "site_admin": false,
                "starred_url": "https://api.github.com/users/rom1504/starred{/owner}{/repo}",
                "subscriptions_url": "https://api.github.com/users/rom1504/subscriptions",
                "type": "User",
                "url": "https://api.github.com/users/rom1504"
            },
            "html_url": "https://github.com/PrismarineJS/minecraft-data/commit/1c6ec2ac0064eaf658b4b7c75efbf6775accfa4f",
            "node_id": "MDY6Q29tbWl0MzI3NDE0OTg6MWM2ZWMyYWMwMDY0ZWFmNjU4YjRiN2M3NWVmYmY2Nzc1YWNjZmE0Zg==",
            "parents": [
                {
                    "html_url": "https://github.com/PrismarineJS/minecraft-data/commit/27d8c5aedf7b0d0e4524dd22657c98b6e8c64db4",
                    "sha": "27d8c5aedf7b0d0e4524dd22657c98b6e8c64db4",
                    "url": "https://api.github.com/repos/PrismarineJS/minecraft-data/commits/27d8c5aedf7b0d0e4524dd22657c98b6e8c64db4"
                }
            ],
            "sha": "1c6ec2ac0064eaf658b4b7c75efbf6775accfa4f",
            "url": "https://api.github.com/repos/PrismarineJS/minecraft-data/commits/1c6ec2ac0064eaf658b4b7c75efbf6775accfa4f"
        },
        {
            "author": {
                "avatar_url": "https://avatars.githubusercontent.com/u/2346494?v=4",
                "events_url": "https://api.github.com/users/rom1504/events{/privacy}",
                "followers_url": "https://api.github.com/users/rom1504/followers",
                "following_url": "https://api.github.com/users/rom1504/following{/other_user}",
                "gists_url": "https://api.github.com/users/rom1504/gists{/gist_id}",
                "gravatar_id": "",
                "html_url": "https://github.com/rom1504",
                "id": 2346494,
                "login": "rom1504",
                "node_id": "MDQ6VXNlcjIzNDY0OTQ=",
                "organizations_url": "https://api.github.com/users/rom1504/orgs",
                "received_events_url": "https://api.github.com/users/rom1504/received_events",
                "repos_url": "https://api.github.com/users/rom1504/repos",
                "site_admin": false,
                "starred_url": "https://api.github.com/users/rom1504/starred{/owner}{/repo}",
                "subscriptions_url": "https://api.github.com/users/rom1504/subscriptions",
                "type": "User",
                "url": "https://api.github.com/users/rom1504"
            },
            "comments_url": "https://api.github.com/repos/PrismarineJS/minecraft-data/commits/9dd174b58d2fed2f016bb1a767b72df5b7be5653/comments",
            "commit": {
                "author": {
                    "date": "2018-01-01T14:05:03Z",
                    "email": "romain.rom1@gmail.com",
                    "name": "Romain Beaumont"
                },
                "comment_count": 0,
                "committer": {
                    "date": "2018-01-01T14:05:03Z",
                    "email": "romain.rom1@gmail.com",
                    "name": "Romain Beaumont"
                },
                "message": "update packets ids (as of http://wiki.vg/index.php?title=Pre-release_protocol&oldid=13538 )",
                "tree": {
                    "sha": "9cb86d5b37f34d8cee286ea4f85ea8963efb8b6d",
                    "url": "https://api.github.com/repos/PrismarineJS/minecraft-data/git/trees/9cb86d5b37f34d8cee286ea4f85ea8963efb8b6d"
                },
                "url": "https://api.github.com/repos/PrismarineJS/minecraft-data/git/commits/9dd174b58d2fed2f016bb1a767b72df5b7be5653",
                "verification": {
                    "payload": "tree 9cb86d5b37f34d8cee286ea4f85ea8963efb8b6d\nparent 1c6ec2ac0064eaf658b4b7c75efbf6775accfa4f\nauthor Romain Beaumont <romain.rom1@gmail.com> 1514815503 +0100\ncommitter Romain Beaumont <romain.rom1@gmail.com> 1514815503 +0100\n\nupdate packets ids (as of http://wiki.vg/index.php?title=Pre-release_protocol&oldid=13538 )\n",
                    "reason": "valid",
                    "signature": "-----BEGIN PGP SIGNATURE-----\nVersion: GnuPG v1\n\niQEcBAABAgAGBQJaSkAPAAoJENtg44izvPKGNh8H/RjamKFj1F7XZ8CSPLHQIaN1\nJpntEgWtVNz1c+yVAVGQfMk/VY/3uqw+69PA7ml42Ob7ZZM4O2HqkJvNwUPgW+BG\nWIrCWMFD+V4CC07GLzy6VCUgSHBO+0fFgCflrxBucgP4KvYdd5DYJ3PCSDTpVtUI\nn/QOBARpc6Mr46EPhW3D3q8sSo5eMej6jPXQAW45BA6911qbmi4w/uV6xB/ZxwOC\nLPtzG6dclnBAzYG7jbH1uCyk9JkqTLlWW0gmDc+1XWyKjRusLi7DyTgEYIDgu3uy\nkIVDlVqcwopkKYsEP18u0dq1Wp89Alla7PIo4zPZ9dCYvSOpg+P3vwx8KekJG40=\n=pBIu\n-----END PGP SIGNATURE-----",
                    "verified": true
                }
            },
            "committer": {
                "avatar_url": "https://avatars.githubusercontent.com/u/2346494?v=4",
                "events_url": "https://api.github.com/users/rom1504/events{/privacy}",
                "followers_url": "https://api.github.com/users/rom1504/followers",
                "following_url": "https://api.github.com/users/rom1504/following{/other_user}",
                "gists_url": "https://api.github.com/users/rom1504/gists{/gist_id}",
                "gravatar_id": "",
                "html_url": "https://github.com/rom1504",
                "id": 2346494,
                "login": "rom1504",
                "node_id": "MDQ6VXNlcjIzNDY0OTQ=",
                "organizations_url": "https://api.github.com/users/rom1504/orgs",
                "received_events_url": "https://api.github.com/users/rom1504/received_events",
                "repos_url": "https://api.github.com/users/rom1504/repos",
                "site_admin": false,
                "starred_url": "https://api.github.com/users/rom1504/starred{/owner}{/repo}",
                "subscriptions_url": "https://api.github.com/users/rom1504/subscriptions",
                "type": "User",
                "url": "https://api.github.com/users/rom1504"
            },
            "html_url": "https://github.com/PrismarineJS/minecraft-data/commit/9dd174b58d2fed2f016bb1a767b72df5b7be5653",
            "node_id": "MDY6Q29tbWl0MzI3NDE0OTg6OWRkMTc0YjU4ZDJmZWQyZjAxNmJiMWE3NjdiNzJkZjViN2JlNTY1Mw==",
            "parents": [
                {
                    "html_url": "https://github.com/PrismarineJS/minecraft-data/commit/1c6ec2ac0064eaf658b4b7c75efbf6775accfa4f",
                    "sha": "1c6ec2ac0064eaf658b4b7c75efbf6775accfa4f",
                    "url": "https://api.github.com/repos/PrismarineJS/minecraft-data/commits/1c6ec2ac0064eaf658b4b7c75efbf6775accfa4f"
                }
            ],
            "sha": "9dd174b58d2fed2f016bb1a767b72df5b7be5653",
            "url": "https://api.github.com/repos/PrismarineJS/minecraft-data/commits/9dd174b58d2fed2f016bb1a767b72df5b7be5653"
        },
        {
            "author": {
                "avatar_url": "https://avatars.githubusercontent.com/u/2346494?v=4",
                "events_url": "https://api.github.com/users/rom1504/events{/privacy}",
                "followers_url": "https://api.github.com/users/rom1504/followers",
                "following_url": "https://api.github.com/users/rom1504/following{/other_user}",
                "gists_url": "https://api.github.com/users/rom1504/gists{/gist_id}",
                "gravatar_id": "",
                "html_url": "https://github.com/rom1504",
                "id": 2346494,
                "login": "rom1504",
                "node_id": "MDQ6VXNlcjIzNDY0OTQ=",
                "organizations_url": "https://api.github.com/users/rom1504/orgs",
                "received_events_url": "https://api.github.com/users/rom1504/received_events",
                "repos_url": "https://api.github.com/users/rom1504/repos",
                "site_admin": false,
                "starred_url": "https://api.github.com/users/rom1504/starred{/owner}{/repo}",
                "subscriptions_url": "https://api.github.com/users/rom1504/subscriptions",
                "type": "User",
                "url": "https://api.github.com/users/rom1504"
            },
            "comments_url": "https://api.github.com/repos/PrismarineJS/minecraft-data/commits/0a5e2d6f18aaf4fb7a7cd24447f924d560555410/comments",
            "commit": {
                "author": {
                    "date": "2018-01-01T14:12:14Z",
                    "email": "romain.rom1@gmail.com",
                    "name": "Romain Beaumont"
                },
                "comment_count": 0,
                "committer": {
                    "date": "2018-01-01T14:12:14Z",
                    "email": "romain.rom1@gmail.com",
                    "name": "Romain Beaumont"
                },
                "message": "add packet stop sound (as of http://wiki.vg/index.php?title=Pre-release_protocol&oldid=13538 )",
                "tree": {
                    "sha": "87db2ebf7b146b2611bde2819f7d88342ae07243",
                    "url": "https://api.github.com/repos/PrismarineJS/minecraft-data/git/trees/87db2ebf7b146b2611bde2819f7d88342ae07243"
                },
                "url": "https://api.github.com/repos/PrismarineJS/minecraft-data/git/commits/0a5e2d6f18aaf4fb7a7cd24447f924d560555410",
                "verification": {
                    "payload": "tree 87db2ebf7b146b2611bde2819f7d88342ae07243\nparent 9dd174b58d2fed2f016bb1a767b72df5b7be5653\nauthor Romain Beaumont <romain.rom1@gmail.com> 1514815934 +0100\ncommitter Romain Beaumont <romain.rom1@gmail.com> 1514815934 +0100\n\nadd packet stop sound (as of http://wiki.vg/index.php?title=Pre-release_protocol&oldid=13538 )\n",
                    "reason": "valid",
                    "signature": "-----BEGIN PGP SIGNATURE-----\nVersion: GnuPG v1\n\niQEcBAABAgAGBQJaSkG+AAoJENtg44izvPKGLsEH/jhgiWZDMtHR2YU0q44Um1P8\nMRIKwnUZVfLGBc7B0DGd0VGuS3eges9cuCMsw9u65y0HJJDrPjKYbr/qPgOZO0s+\nPLE11S1lphpmf/pdPY9wozKUMd0LQCrsIWZiLmayNARI1Mt8g3BxvmneOzSdHTLS\nxn/wGzQiKc5gZZSb9Zrd+PFRMlJdT7/2ujuplyp3BadsWXa+YbdMkEAmymbhRToG\nQVlLW3hYNZAkMXFP2h1MXoFcSIjGM21m+olf+4WMRXP+doxz8LdT/bVW5GkFlbS8\nUe9z9F5s69bzGXIw/j3lruKliZ+z5EZQx5muVZz+JNcf9bfDxmxsem1dv7aAKvI=\n=LlAE\n-----END PGP SIGNATURE-----",
                    "verified": true
                }
            },
            "committer": {
                "avatar_url": "https://avatars.githubusercontent.com/u/2346494?v=4",
                "events_url": "https://api.github.com/users/rom1504/events{/privacy}",
                "followers_url": "https://api.github.com/users/rom1504/followers",
                "following_url": "https://api.github.com/users/rom1504/following{/other_user}",
                "gists_url": "https://api.github.com/users/rom1504/gists{/gist_id}",
                "gravatar_id": "",
                "html_url": "https://github.com/rom1504",
                "id": 2346494,
                "login": "rom1504",
                "node_id": "MDQ6VXNlcjIzNDY0OTQ=",
                "organizations_url": "https://api.github.com/users/rom1504/orgs",
                "received_events_url": "https://api.github.com/users/rom1504/received_events",
                "repos_url": "https://api.github.com/users/rom1504/repos",
                "site_admin": false,
                "starred_url": "https://api.github.com/users/rom1504/starred{/owner}{/repo}",
                "subscriptions_url": "https://api.github.com/users/rom1504/subscriptions",
                "type": "User",
                "url": "https://api.github.com/users/rom1504"
            },
            "html_url": "https://github.com/PrismarineJS/minecraft-data/commit/0a5e2d6f18aaf4fb7a7cd24447f924d560555410",
            "node_id": "MDY6Q29tbWl0MzI3NDE0OTg6MGE1ZTJkNmYxOGFhZjRmYjdhN2NkMjQ0NDdmOTI0ZDU2MDU1NTQxMA==",
            "parents": [
                {
                    "html_url": "https://github.com/PrismarineJS/minecraft-data/commit/9dd174b58d2fed2f016bb1a767b72df5b7be5653",
                    "sha": "9dd174b58d2fed2f016bb1a767b72df5b7be5653",
                    "url": "https://api.github.com/repos/PrismarineJS/minecraft-data/commits/9dd174b58d2fed2f016bb1a767b72df5b7be5653"
                }
            ],
            "sha": "0a5e2d6f18aaf4fb7a7cd24447f924d560555410",
            "url": "https://api.github.com/repos/PrismarineJS/minecraft-data/commits/0a5e2d6f18aaf4fb7a7cd24447f924d560555410"
        },
        {
            "author": {
                "avatar_url": "https://avatars.githubusercontent.com/u/2346494?v=4",
                "events_url": "https://api.github.com/users/rom1504/events{/privacy}",
                "followers_url": "https://api.github.com/users/rom1504/followers",
                "following_url": "https://api.github.com/users/rom1504/following{/other_user}",
                "gists_url": "https://api.github.com/users/rom1504/gists{/gist_id}",
                "gravatar_id": "",
                "html_url": "https://github.com/rom1504",
                "id": 2346494,
                "login": "rom1504",
                "node_id": "MDQ6VXNlcjIzNDY0OTQ=",
                "organizations_url": "https://api.github.com/users/rom1504/orgs",
                "received_events_url": "https://api.github.com/users/rom1504/received_events",
                "repos_url": "https://api.github.com/users/rom1504/repos",
                "site_admin": false,
                "starred_url": "https://api.github.com/users/rom1504/starred{/owner}{/repo}",
                "subscriptions_url": "https://api.github.com/users/rom1504/subscriptions",
                "type": "User",
                "url": "https://api.github.com/users/rom1504"
            },
            "comments_url": "https://api.github.com/repos/PrismarineJS/minecraft-data/commits/3a27d10f8c164c547324cab3e957496fb252a50d/comments",
            "commit": {
                "author": {
                    "date": "2018-01-01T14:18:21Z",
                    "email": "romain.rom1@gmail.com",
                    "name": "Romain Beaumont"
                },
                "comment_count": 0,
                "committer": {
                    "date": "2018-01-01T14:18:21Z",
                    "email": "romain.rom1@gmail.com",
                    "name": "Romain Beaumont"
                },
                "message": "add packet tags (as of http://wiki.vg/index.php?title=Pre-release_protocol&oldid=13538 )",
                "tree": {
                    "sha": "a916c76cdd22fef77b63ef182768cbb0e9f87153",
                    "url": "https://api.github.com/repos/PrismarineJS/minecraft-data/git/trees/a916c76cdd22fef77b63ef182768cbb0e9f87153"
                },
                "url": "https://api.github.com/repos/PrismarineJS/minecraft-data/git/commits/3a27d10f8c164c547324cab3e957496fb252a50d",
                "verification": {
                    "payload": "tree a916c76cdd22fef77b63ef182768cbb0e9f87153\nparent 0a5e2d6f18aaf4fb7a7cd24447f924d560555410\nauthor Romain Beaumont <romain.rom1@gmail.com> 1514816301 +0100\ncommitter Romain Beaumont <romain.rom1@gmail.com> 1514816301 +0100\n\nadd packet tags (as of http://wiki.vg/index.php?title=Pre-release_protocol&oldid=13538 )\n",
                    "reason": "valid",
                    "signature": "-----BEGIN PGP SIGNATURE-----\nVersion: GnuPG v1\n\niQEcBAABAgAGBQJaSkMtAAoJENtg44izvPKGtBsH/2aOto6pE4KOu9FKbyOgTDuo\nHXJpqPKjkaymQjl7VTHeqi5CGIpOSrK9uXVHM2R4H70Htk3LeZg72VwkiY8pqrAH\nHSOFI3fHDXuFebrABwQRzM9dfBMK5V+xJvolqLDA2ZhnRFU9hkhg654NAZxzw8m0\nQL0dBEg3OBlIZVUHw1HeEBLGLFwTz0WMEb8d54QZJCOrxiO6ni57jV4NoJlD2SjZ\nFjhFH4VGMEZuw4RONDwTCSSg0QBJi+/zNnXaBcJeIlAq2RAgfDDv/huUqyePgPC3\n80foVIZ1bchB7eOrTjOAsyeH/EIKGcA9Cflg77jwxIa+0LBdOh1E+xx8QOIW6fo=\n=Ru4N\n-----END PGP SIGNATURE-----",
                    "verified": true
                }
            },
            "committer": {
                "avatar_url": "https://avatars.githubusercontent.com/u/2346494?v=4",
                "events_url": "https://api.github.com/users/rom1504/events{/privacy}",
                "followers_url": "https://api.github.com/users/rom1504/followers",
                "following_url": "https://api.github.com/users/rom1504/following{/other_user}",
                "gists_url": "https://api.github.com/users/rom1504/gists{/gist_id}",
                "gravatar_id": "",
                "html_url": "https://github.com/rom1504",
                "id": 2346494,
                "login": "rom1504",
                "node_id": "MDQ6VXNlcjIzNDY0OTQ=",
                "organizations_url": "https://api.github.com/users/rom1504/orgs",
                "received_events_url": "https://api.github.com/users/rom1504/received_events",
                "repos_url": "https://api.github.com/users/rom1504/repos",
                "site_admin": false,
                "starred_url": "https://api.github.com/users/rom1504/starred{/owner}{/repo}",
                "subscriptions_url": "https://api.github.com/users/rom1504/subscriptions",
                "type": "User",
                "url": "https://api.github.com/users/rom1504"
            },
            "html_url": "https://github.com/PrismarineJS/minecraft-data/commit/3a27d10f8c164c547324cab3e957496fb252a50d",
            "node_id": "MDY6Q29tbWl0MzI3NDE0OTg6M2EyN2QxMGY4YzE2NGM1NDczMjRjYWIzZTk1NzQ5NmZiMjUyYTUwZA==",
            "parents": [
                {
                    "html_url": "https://github.com/PrismarineJS/minecraft-data/commit/0a5e2d6f18aaf4fb7a7cd24447f924d560555410",
                    "sha": "0a5e2d6f18aaf4fb7a7cd24447f924d560555410",
                    "url": "https://api.github.com/repos/PrismarineJS/minecraft-data/commits/0a5e2d6f18aaf4fb7a7cd24447f924d560555410"
                }
            ],
            "sha": "3a27d10f8c164c547324cab3e957496fb252a50d",
            "url": "https://api.github.com/repos/PrismarineJS/minecraft-data/commits/3a27d10f8c164c547324cab3e957496fb252a50d"
        },
        {
            "author": {
                "avatar_url": "https://avatars.githubusercontent.com/u/2346494?v=4",
                "events_url": "https://api.github.com/users/rom1504/events{/privacy}",
                "followers_url": "https://api.github.com/users/rom1504/followers",
                "following_url": "https://api.github.com/users/rom1504/following{/other_user}",
                "gists_url": "https://api.github.com/users/rom1504/gists{/gist_id}",
                "gravatar_id": "",
                "html_url": "https://github.com/rom1504",
                "id": 2346494,
                "login": "rom1504",
                "node_id": "MDQ6VXNlcjIzNDY0OTQ=",
                "organizations_url": "https://api.github.com/users/rom1504/orgs",
                "received_events_url": "https://api.github.com/users/rom1504/received_events",
                "repos_url": "https://api.github.com/users/rom1504/repos",
                "site_admin": false,
                "starred_url": "https://api.github.com/users/rom1504/starred{/owner}{/repo}",
                "subscriptions_url": "https://api.github.com/users/rom1504/subscriptions",
                "type": "User",
                "url": "https://api.github.com/users/rom1504"
            },
            "comments_url": "https://api.github.com/repos/PrismarineJS/minecraft-data/commits/60a7a5386ce221696c772bb4f512d572457fe912/comments",
            "commit": {
                "author": {
                    "date": "2018-01-01T14:42:37Z",
                    "email": "romain.rom1@gmail.com",
                    "name": "Romain Beaumont"
                },
                "comment_count": 0,
                "committer": {
                    "date": "2018-01-01T14:42:37Z",
                    "email": "romain.rom1@gmail.com",
                    "name": "Romain Beaumont"
                },
                "message": "add packet declare recipes (as of http://wiki.vg/index.php?title=Pre-release_protocol&oldid=13538 )",
                "tree": {
                    "sha": "b50d20efd92906a316935de52a4867eaf077bf24",
                    "url": "https://api.github.com/repos/PrismarineJS/minecraft-data/git/trees/b50d20efd92906a316935de52a4867eaf077bf24"
                },
                "url": "https://api.github.com/repos/PrismarineJS/minecraft-data/git/commits/60a7a5386ce221696c772bb4f512d572457fe912",
                "verification": {
                    "payload": "tree b50d20efd92906a316935de52a4867eaf077bf24\nparent 3a27d10f8c164c547324cab3e957496fb252a50d\nauthor Romain Beaumont <romain.rom1@gmail.com> 1514817757 +0100\ncommitter Romain Beaumont <romain.rom1@gmail.com> 1514817757 +0100\n\nadd packet declare recipes (as of http://wiki.vg/index.php?title=Pre-release_protocol&oldid=13538 )\n",
                    "reason": "valid",
                    "signature": "-----BEGIN PGP SIGNATURE-----\nVersion: GnuPG v1\n\niQEcBAABAgAGBQJaSkjdAAoJENtg44izvPKGtY8H/jU916SGukWqDx3HJWdQNSHv\nUsxNrj214laEfV/eee3vbZx+6GqYNzgS0UQUrBuOAXo8sxJuLq060AM0d3v039Mf\nSSFSuhaVBAGUutR/HFsj9X7CkAhIHBR95PgSyTKBrvsPp8xkRiwJa5wK1BdOiwS3\nakrm/kmGf767ShC9ash7GVSbQWd3HF8wJMqPSVnw7TjZhNQJJWg4eaeSrS/VBcy7\ny/og49FYS1nqUa9rC5VPqRlTe/2/aQ1inS4CUYuXV7LiXWnQjZjkgRLRs5x6uj2N\npwq0BP4NdBi1K0v7NcYn/qbs/ZSSD8xn+ZZ4epj7X7uwoeUXOwXHqalCe8Ndfa8=\n=EJNO\n-----END PGP SIGNATURE-----",
                    "verified": true
                }
            },
            "committer": {
                "avatar_url": "https://avatars.githubusercontent.com/u/2346494?v=4",
                "events_url": "https://api.github.com/users/rom1504/events{/privacy}",
                "followers_url": "https://api.github.com/users/rom1504/followers",
                "following_url": "https://api.github.com/users/rom1504/following{/other_user}",
                "gists_url": "https://api.github.com/users/rom1504/gists{/gist_id}",
                "gravatar_id": "",
                "html_url": "https://github.com/rom1504",
                "id": 2346494,
                "login": "rom1504",
                "node_id": "MDQ6VXNlcjIzNDY0OTQ=",
                "organizations_url": "https://api.github.com/users/rom1504/orgs",
                "received_events_url": "https://api.github.com/users/rom1504/received_events",
                "repos_url": "https://api.github.com/users/rom1504/repos",
                "site_admin": false,
                "starred_url": "https://api.github.com/users/rom1504/starred{/owner}{/repo}",
                "subscriptions_url": "https://api.github.com/users/rom1504/subscriptions",
                "type": "User",
                "url": "https://api.github.com/users/rom1504"
            },
            "html_url": "https://github.com/PrismarineJS/minecraft-data/commit/60a7a5386ce221696c772bb4f512d572457fe912",
            "node_id": "MDY6Q29tbWl0MzI3NDE0OTg6NjBhN2E1Mzg2Y2UyMjE2OTZjNzcyYmI0ZjUxMmQ1NzI0NTdmZTkxMg==",
            "parents": [
                {
                    "html_url": "https://github.com/PrismarineJS/minecraft-data/commit/3a27d10f8c164c547324cab3e957496fb252a50d",
                    "sha": "3a27d10f8c164c547324cab3e957496fb252a50d",
                    "url": "https://api.github.com/repos/PrismarineJS/minecraft-data/commits/3a27d10f8c164c547324cab3e957496fb252a50d"
                }
            ],
            "sha": "60a7a5386ce221696c772bb4f512d572457fe912",
            "url": "https://api.github.com/repos/PrismarineJS/minecraft-data/commits/60a7a5386ce221696c772bb4f512d572457fe912"
        },
        {
            "author": {
                "avatar_url": "https://avatars.githubusercontent.com/u/2346494?v=4",
                "events_url": "https://api.github.com/users/rom1504/events{/privacy}",
                "followers_url": "https://api.github.com/users/rom1504/followers",
                "following_url": "https://api.github.com/users/rom1504/following{/other_user}",
                "gists_url": "https://api.github.com/users/rom1504/gists{/gist_id}",
                "gravatar_id": "",
                "html_url": "https://github.com/rom1504",
                "id": 2346494,
                "login": "rom1504",
                "node_id": "MDQ6VXNlcjIzNDY0OTQ=",
                "organizations_url": "https://api.github.com/users/rom1504/orgs",
                "received_events_url": "https://api.github.com/users/rom1504/received_events",
                "repos_url": "https://api.github.com/users/rom1504/repos",
                "site_admin": false,
                "starred_url": "https://api.github.com/users/rom1504/starred{/owner}{/repo}",
                "subscriptions_url": "https://api.github.com/users/rom1504/subscriptions",
                "type": "User",
                "url": "https://api.github.com/users/rom1504"
            },
            "comments_url": "https://api.github.com/repos/PrismarineJS/minecraft-data/commits/7a48803c17d398fc6cb17db83ad9d78d8ea8a3d2/comments",
            "commit": {
                "author": {
                    "date": "2018-01-01T17:03:51Z",
                    "email": "romain.rom1@gmail.com",
                    "name": "Romain Beaumont"
                },
                "comment_count": 0,
                "committer": {
                    "date": "2018-01-01T17:03:51Z",
                    "email": "romain.rom1@gmail.com",
                    "name": "Romain Beaumont"
                },
                "message": "add packet declare commands (as of http://wiki.vg/index.php?title=Pre-release_protocol&oldid=13538 )",
                "tree": {
                    "sha": "8905f5b590d7fd4e01ca5ae2df6aec2359ae76e7",
                    "url": "https://api.github.com/repos/PrismarineJS/minecraft-data/git/trees/8905f5b590d7fd4e01ca5ae2df6aec2359ae76e7"
                },
                "url": "https://api.github.com/repos/PrismarineJS/minecraft-data/git/commits/7a48803c17d398fc6cb17db83ad9d78d8ea8a3d2",
                "verification": {
                    "payload": "tree 8905f5b590d7fd4e01ca5ae2df6aec2359ae76e7\nparent 60a7a5386ce221696c772bb4f512d572457fe912\nauthor Romain Beaumont <romain.rom1@gmail.com> 1514826231 +0100\ncommitter Romain Beaumont <romain.rom1@gmail.com> 1514826231 +0100\n\nadd packet declare commands (as of http://wiki.vg/index.php?title=Pre-release_protocol&oldid=13538 )\n",
                    "reason": "valid",
                    "signature": "-----BEGIN PGP SIGNATURE-----\nVersion: GnuPG v1\n\niQEcBAABAgAGBQJaSmn3AAoJENtg44izvPKGoUIH/RxD5/s0ePPhgcx9iZW4I/jS\nkqd5tIGpSHTcjZ3fZbwhP9+ByGe+T2oXfDfrDO2PGgDdyl0skSkLU8nqB+BAV+MM\n0+UEKbOiELmhAIsdIdj/96kxa4/yJtDEca+k+7RjMWB/Jd7gOo6jYDzgBN4diN/s\n5shMG8iIuzkj0nnm7H/CtlO7Zku9l7iPw+h74lZokBGfqt02tV58UeaRe1kA2aRu\ngQRhbmDyegVCgFd3Y+195HAOv49QU/myc3xc1P+pmr93bbNNURekr58IUnOG1F0M\nLM58lPCUgqf/x3RT2bz/1l9Gv8TRSmDg8zLTwtiXhvTJWklp3A+F/umCxBcUN/s=\n=lrEf\n-----END PGP SIGNATURE-----",
                    "verified": true
                }
            },
            "committer": {
                "avatar_url": "https://avatars.githubusercontent.com/u/2346494?v=4",
                "events_url": "https://api.github.com/users/rom1504/events{/privacy}",
                "followers_url": "https://api.github.com/users/rom1504/followers",
                "following_url": "https://api.github.com/users/rom1504/following{/other_user}",
                "gists_url": "https://api.github.com/users/rom1504/gists{/gist_id}",
                "gravatar_id": "",
                "html_url": "https://github.com/rom1504",
                "id": 2346494,
                "login": "rom1504",
                "node_id": "MDQ6VXNlcjIzNDY0OTQ=",
                "organizations_url": "https://api.github.com/users/rom1504/orgs",
                "received_events_url": "https://api.github.com/users/rom1504/received_events",
                "repos_url": "https://api.github.com/users/rom1504/repos",
                "site_admin": false,
                "starred_url": "https://api.github.com/users/rom1504/starred{/owner}{/repo}",
                "subscriptions_url": "https://api.github.com/users/rom1504/subscriptions",
                "type": "User",
                "url": "https://api.github.com/users/rom1504"
            },
            "html_url": "https://github.com/PrismarineJS/minecraft-data/commit/7a48803c17d398fc6cb17db83ad9d78d8ea8a3d2",
            "node_id": "MDY6Q29tbWl0MzI3NDE0OTg6N2E0ODgwM2MxN2QzOThmYzZjYjE3ZGI4M2FkOWQ3OGQ4ZWE4YTNkMg==",
            "parents": [
                {
                    "html_url": "https://github.com/PrismarineJS/minecraft-data/commit/60a7a5386ce221696c772bb4f512d572457fe912",
                    "sha": "60a7a5386ce221696c772bb4f512d572457fe912",
                    "url": "https://api.github.com/repos/PrismarineJS/minecraft-data/commits/60a7a5386ce221696c772bb4f512d572457fe912"
                }
            ],
            "sha": "7a48803c17d398fc6cb17db83ad9d78d8ea8a3d2",
            "url": "https://api.github.com/repos/PrismarineJS/minecraft-data/commits/7a48803c17d398fc6cb17db83ad9d78d8ea8a3d2"
        },
        {
            "author": {
                "avatar_url": "https://avatars.githubusercontent.com/u/2346494?v=4",
                "events_url": "https://api.github.com/users/rom1504/events{/privacy}",
                "followers_url": "https://api.github.com/users/rom1504/followers",
                "following_url": "https://api.github.com/users/rom1504/following{/other_user}",
                "gists_url": "https://api.github.com/users/rom1504/gists{/gist_id}",
                "gravatar_id": "",
                "html_url": "https://github.com/rom1504",
                "id": 2346494,
                "login": "rom1504",
                "node_id": "MDQ6VXNlcjIzNDY0OTQ=",
                "organizations_url": "https://api.github.com/users/rom1504/orgs",
                "received_events_url": "https://api.github.com/users/rom1504/received_events",
                "repos_url": "https://api.github.com/users/rom1504/repos",
                "site_admin": false,
                "starred_url": "https://api.github.com/users/rom1504/starred{/owner}{/repo}",
                "subscriptions_url": "https://api.github.com/users/rom1504/subscriptions",
                "type": "User",
                "url": "https://api.github.com/users/rom1504"
            },
            "comments_url": "https://api.github.com/repos/PrismarineJS/minecraft-data/commits/6a7e0f0706ec49d7a9142d6635ab3dbacbed2e6a/comments",
            "commit": {
                "author": {
                    "date": "2018-01-01T17:05:50Z",
                    "email": "romain.rom1@gmail.com",
                    "name": "Romain Beaumont"
                },
                "comment_count": 0,
                "committer": {
                    "date": "2018-01-01T17:05:50Z",
                    "email": "romain.rom1@gmail.com",
                    "name": "Romain Beaumont"
                },
                "message": "update readme",
                "tree": {
                    "sha": "dadf4e7ff80cc3eff47a6394e68f4ac672911952",
                    "url": "https://api.github.com/repos/PrismarineJS/minecraft-data/git/trees/dadf4e7ff80cc3eff47a6394e68f4ac672911952"
                },
                "url": "https://api.github.com/repos/PrismarineJS/minecraft-data/git/commits/6a7e0f0706ec49d7a9142d6635ab3dbacbed2e6a",
                "verification": {
                    "payload": "tree dadf4e7ff80cc3eff47a6394e68f4ac672911952\nparent 7a48803c17d398fc6cb17db83ad9d78d8ea8a3d2\nauthor Romain Beaumont <romain.rom1@gmail.com> 1514826350 +0100\ncommitter Romain Beaumont <romain.rom1@gmail.com> 1514826350 +0100\n\nupdate readme\n",
                    "reason": "valid",
                    "signature": "-----BEGIN PGP SIGNATURE-----\nVersion: GnuPG v1\n\niQEcBAABAgAGBQJaSmpuAAoJENtg44izvPKGVloH/3Ebo2KqAH578goGlu9PFgwB\nMZGV1wcCU+v8sy/La83049Va9QLwR8rnxGzGpbAErVyzbYWC6S5+bBiNdu3IOknl\nN6+lSYNhSyxI2V95/uDpxdT+V8awB4GcsVlgek3+PyYU6Cm0JzO1rogUkV+RW6yQ\n83Guiju+AdmCM/8KuB3pi0paSuDQgPdofw4p06pIIti6RQGlsPS7z12g0l8s6l1w\nCxqMx8tLUvKDSHBgU+F9gQ9zzfLqrK+CY2RQQdQZ3dbFcVKsZDgBstIvkxr13Veq\n1iRxPNVMIyGZr3CuRyNpLIz8fU8fR3K+aGoA62VA3nLv1aXRnKQoTeNt0nYb6SQ=\n=jVXb\n-----END PGP SIGNATURE-----",
                    "verified": true
                }
            },
            "committer": {
                "avatar_url": "https://avatars.githubusercontent.com/u/2346494?v=4",
                "events_url": "https://api.github.com/users/rom1504/events{/privacy}",
                "followers_url": "https://api.github.com/users/rom1504/followers",
                "following_url": "https://api.github.com/users/rom1504/following{/other_user}",
                "gists_url": "https://api.github.com/users/rom1504/gists{/gist_id}",
                "gravatar_id": "",
                "html_url": "https://github.com/rom1504",
                "id": 2346494,
                "login": "rom1504",
                "node_id": "MDQ6VXNlcjIzNDY0OTQ=",
                "organizations_url": "https://api.github.com/users/rom1504/orgs",
                "received_events_url": "https://api.github.com/users/rom1504/received_events",
                "repos_url": "https://api.github.com/users/rom1504/repos",
                "site_admin": false,
                "starred_url": "https://api.github.com/users/rom1504/starred{/owner}{/repo}",
                "subscriptions_url": "https://api.github.com/users/rom1504/subscriptions",
                "type": "User",
                "url": "https://api.github.com/users/rom1504"
            },
            "html_url": "https://github.com/PrismarineJS/minecraft-data/commit/6a7e0f0706ec49d7a9142d6635ab3dbacbed2e6a",
            "node_id": "MDY6Q29tbWl0MzI3NDE0OTg6NmE3ZTBmMDcwNmVjNDlkN2E5MTQyZDY2MzVhYjNkYmFjYmVkMmU2YQ==",
            "parents": [
                {
                    "html_url": "https://github.com/PrismarineJS/minecraft-data/commit/7a48803c17d398fc6cb17db83ad9d78d8ea8a3d2",
                    "sha": "7a48803c17d398fc6cb17db83ad9d78d8ea8a3d2",
                    "url": "https://api.github.com/repos/PrismarineJS/minecraft-data/commits/7a48803c17d398fc6cb17db83ad9d78d8ea8a3d2"
                }
            ],
            "sha": "6a7e0f0706ec49d7a9142d6635ab3dbacbed2e6a",
            "url": "https://api.github.com/repos/PrismarineJS/minecraft-data/commits/6a7e0f0706ec49d7a9142d6635ab3dbacbed2e6a"
        }
    ],
    "commits": 14,
    "commits_url": "https://api.github.com/repos/PrismarineJS/minecraft-data/pulls/196/commits",
    "created_at": "2018-01-01T17:05:12Z",
    "deletions": 3,
    "diff_url": "https://github.com/PrismarineJS/minecraft-data/pull/196.diff",
    "draft": false,
    "head": {
        "label": "PrismarineJS:1.13",
        "ref": "1.13",
        "repo": {
            "allow_forking": true,
            "archive_url": "https://api.github.com/repos/PrismarineJS/minecraft-data/{archive_format}{/ref}",
            "archived": false,
            "assignees_url": "https://api.github.com/repos/PrismarineJS/minecraft-data/assignees{/user}",
            "blobs_url": "https://api.github.com/repos/PrismarineJS/minecraft-data/git/blobs{/sha}",
            "branches_url": "https://api.github.com/repos/PrismarineJS/minecraft-data/branches{/branch}",
            "clone_url": "https://github.com/PrismarineJS/minecraft-data.git",
            "collaborators_url": "https://api.github.com/repos/PrismarineJS/minecraft-data/collaborators{/collaborator}",
            "comments_url": "https://api.github.com/repos/PrismarineJS/minecraft-data/comments{/number}",
            "commits_url": "https://api.github.com/repos/PrismarineJS/minecraft-data/commits{/sha}",
            "compare_url": "https://api.github.com/repos/PrismarineJS/minecraft-data/compare/{base}...{head}",
            "contents_url": "https://api.github.com/repos/PrismarineJS/minecraft-data/contents/{+path}",
            "contributors_url": "https://api.github.com/repos/PrismarineJS/minecraft-data/contributors",
            "created_at": "2015-03-23T15:38:19Z",
            "default_branch": "master",
            "deployments_url": "https://api.github.com/repos/PrismarineJS/minecraft-data/deployments",
            "description": "Language independent module providing minecraft data for minecraft clients, servers and libraries.",
            "disabled": false,
            "downloads_url": "https://api.github.com/repos/PrismarineJS/minecraft-data/downloads",
            "events_url": "https://api.github.com/repos/PrismarineJS/minecraft-data/events",
            "fork": false,
            "forks": 184,
            "forks_count": 184,
            "forks_url": "https://api.github.com/repos/PrismarineJS/minecraft-data/forks",
            "full_name": "PrismarineJS/minecraft-data",
            "git_commits_url": "https://api.github.com/repos/PrismarineJS/minecraft-data/git/commits{/sha}",
            "git_refs_url": "https://api.github.com/repos/PrismarineJS/minecraft-data/git/refs{/sha}",
            "git_tags_url": "https://api.github.com/repos/PrismarineJS/minecraft-data/git/tags{/sha}",
            "git_url": "git://github.com/PrismarineJS/minecraft-data.git",
            "has_discussions": false,
            "has_downloads": true,
            "has_issues": true,
            "has_pages": true,
            "has_projects": true,
            "has_wiki": true,
            "homepage": "https://prismarinejs.github.io/minecraft-data",
            "hooks_url": "https://api.github.com/repos/PrismarineJS/minecraft-data/hooks",
            "html_url": "https://github.com/PrismarineJS/minecraft-data",
            "id": 32741498,
            "is_template": false,
            "issue_comment_url": "https://api.github.com/repos/PrismarineJS/minecraft-data/issues/comments{/number}",
            "issue_events_url": "https://api.github.com/repos/PrismarineJS/minecraft-data/issues/events{/number}",
            "issues_url": "https://api.github.com/repos/PrismarineJS/minecraft-data/issues{/number}",
            "keys_url": "https://api.github.com/repos/PrismarineJS/minecraft-data/keys{/key_id}",
            "labels_url": "https://api.github.com/repos/PrismarineJS/minecraft-data/labels{/name}",
            "language": "JavaScript",
            "languages_url": "https://api.github.com/repos/PrismarineJS/minecraft-data/languages",
            "license": null,
            "merges_url": "https://api.github.com/repos/PrismarineJS/minecraft-data/merges",
            "milestones_url": "https://api.github.com/repos/PrismarineJS/minecraft-data/milestones{/number}",
            "mirror_url": null,
            "name": "minecraft-data",
            "node_id": "MDEwOlJlcG9zaXRvcnkzMjc0MTQ5OA==",
            "notifications_url": "https://api.github.com/repos/PrismarineJS/minecraft-data/notifications{?since,all,participating}",
            "open_issues": 113,
            "open_issues_count": 113,
            "owner": {
                "avatar_url": "https://avatars.githubusercontent.com/u/11053411?v=4",
                "events_url": "https://api.github.com/users/PrismarineJS/events{/privacy}",
                "followers_url": "https://api.github.com/users/PrismarineJS/followers",
                "following_url": "https://api.github.com/users/PrismarineJS/following{/other_user}",
                "gists_url": "https://api.github.com/users/PrismarineJS/gists{/gist_id}",
                "gravatar_id": "",
                "html_url": "https://github.com/PrismarineJS",
                "id": 11053411,
                "login": "PrismarineJS",
                "node_id": "MDEyOk9yZ2FuaXphdGlvbjExMDUzNDEx",
                "organizations_url": "https://api.github.com/users/PrismarineJS/orgs",
                "received_events_url": "https://api.github.com/users/PrismarineJS/received_events",
                "repos_url": "https://api.github.com/users/PrismarineJS/repos",
                "site_admin": false,
                "starred_url": "https://api.github.com/users/PrismarineJS/starred{/owner}{/repo}",
                "subscriptions_url": "https://api.github.com/users/PrismarineJS/subscriptions",
                "type": "Organization",
                "url": "https://api.github.com/users/PrismarineJS"
            },
            "private": false,
            "pulls_url": "https://api.github.com/repos/PrismarineJS/minecraft-data/pulls{/number}",
            "pushed_at": "2023-04-08T18:30:50Z",
            "releases_url": "https://api.github.com/repos/PrismarineJS/minecraft-data/releases{/id}",
            "size": 134084,
            "ssh_url": "git@github.com:PrismarineJS/minecraft-data.git",
            "stargazers_count": 473,
            "stargazers_url": "https://api.github.com/repos/PrismarineJS/minecraft-data/stargazers",
            "statuses_url": "https://api.github.com/repos/PrismarineJS/minecraft-data/statuses/{sha}",
            "subscribers_url": "https://api.github.com/repos/PrismarineJS/minecraft-data/subscribers",
            "subscription_url": "https://api.github.com/repos/PrismarineJS/minecraft-data/subscription",
            "svn_url": "https://github.com/PrismarineJS/minecraft-data",
            "tags_url": "https://api.github.com/repos/PrismarineJS/minecraft-data/tags",
            "teams_url": "https://api.github.com/repos/PrismarineJS/minecraft-data/teams",
            "topics": [
                "data",
                "minecraft"
            ],
            "trees_url": "https://api.github.com/repos/PrismarineJS/minecraft-data/git/trees{/sha}",
            "updated_at": "2023-04-24T04:11:18Z",
            "url": "https://api.github.com/repos/PrismarineJS/minecraft-data",
            "visibility": "public",
            "watchers": 473,
            "watchers_count": 473,
            "web_commit_signoff_required": false
        },
        "sha": "6a7e0f0706ec49d7a9142d6635ab3dbacbed2e6a",
        "user": {
            "avatar_url": "https://avatars.githubusercontent.com/u/11053411?v=4",
            "events_url": "https://api.github.com/users/PrismarineJS/events{/privacy}",
            "followers_url": "https://api.github.com/users/PrismarineJS/followers",
            "following_url": "https://api.github.com/users/PrismarineJS/following{/other_user}",
            "gists_url": "https://api.github.com/users/PrismarineJS/gists{/gist_id}",
            "gravatar_id": "",
            "html_url": "https://github.com/PrismarineJS",
            "id": 11053411,
            "login": "PrismarineJS",
            "node_id": "MDEyOk9yZ2FuaXphdGlvbjExMDUzNDEx",
            "organizations_url": "https://api.github.com/users/PrismarineJS/orgs",
            "received_events_url": "https://api.github.com/users/PrismarineJS/received_events",
            "repos_url": "https://api.github.com/users/PrismarineJS/repos",
            "site_admin": false,
            "starred_url": "https://api.github.com/users/PrismarineJS/starred{/owner}{/repo}",
            "subscriptions_url": "https://api.github.com/users/PrismarineJS/subscriptions",
            "type": "Organization",
            "url": "https://api.github.com/users/PrismarineJS"
        }
    },
    "html_url": "https://github.com/PrismarineJS/minecraft-data/pull/196",
    "id": 160654180,
    "issue_url": "https://api.github.com/repos/PrismarineJS/minecraft-data/issues/196",
    "labels": [],
    "locked": false,
    "maintainer_can_modify": false,
    "merge_commit_sha": "2e63a5a6ff3c0ba74beaec0dd8c3da0411b99762",
    "mergeable": null,
    "mergeable_state": "unknown",
    "merged": true,
    "merged_at": "2018-01-01T17:06:48Z",
    "merged_by": {
        "avatar_url": "https://avatars.githubusercontent.com/u/2346494?v=4",
        "events_url": "https://api.github.com/users/rom1504/events{/privacy}",
        "followers_url": "https://api.github.com/users/rom1504/followers",
        "following_url": "https://api.github.com/users/rom1504/following{/other_user}",
        "gists_url": "https://api.github.com/users/rom1504/gists{/gist_id}",
        "gravatar_id": "",
        "html_url": "https://github.com/rom1504",
        "id": 2346494,
        "login": "rom1504",
        "node_id": "MDQ6VXNlcjIzNDY0OTQ=",
        "organizations_url": "https://api.github.com/users/rom1504/orgs",
        "received_events_url": "https://api.github.com/users/rom1504/received_events",
        "repos_url": "https://api.github.com/users/rom1504/repos",
        "site_admin": false,
        "starred_url": "https://api.github.com/users/rom1504/starred{/owner}{/repo}",
        "subscriptions_url": "https://api.github.com/users/rom1504/subscriptions",
        "type": "User",
        "url": "https://api.github.com/users/rom1504"
    },
    "milestone": null,
    "node_id": "MDExOlB1bGxSZXF1ZXN0MTYwNjU0MTgw",
    "number": 196,
    "patch_url": "https://github.com/PrismarineJS/minecraft-data/pull/196.patch",
    "rebaseable": null,
    "requested_reviewers": [],
    "requested_teams": [],
    "review_comment_url": "https://api.github.com/repos/PrismarineJS/minecraft-data/pulls/comments{/number}",
    "review_comments": 0,
    "review_comments_url": "https://api.github.com/repos/PrismarineJS/minecraft-data/pulls/196/comments",
    "state": "closed",
    "statuses_url": "https://api.github.com/repos/PrismarineJS/minecraft-data/statuses/6a7e0f0706ec49d7a9142d6635ab3dbacbed2e6a",
    "title": "17w50a : first supported 1.13 snapshot",
    "updated_at": "2018-01-01T17:06:50Z",
    "url": "https://api.github.com/repos/PrismarineJS/minecraft-data/pulls/196",
    "user": {
        "avatar_url": "https://avatars.githubusercontent.com/u/2346494?v=4",
        "events_url": "https://api.github.com/users/rom1504/events{/privacy}",
        "followers_url": "https://api.github.com/users/rom1504/followers",
        "following_url": "https://api.github.com/users/rom1504/following{/other_user}",
        "gists_url": "https://api.github.com/users/rom1504/gists{/gist_id}",
        "gravatar_id": "",
        "html_url": "https://github.com/rom1504",
        "id": 2346494,
        "login": "rom1504",
        "node_id": "MDQ6VXNlcjIzNDY0OTQ=",
        "organizations_url": "https://api.github.com/users/rom1504/orgs",
        "received_events_url": "https://api.github.com/users/rom1504/received_events",
        "repos_url": "https://api.github.com/users/rom1504/repos",
        "site_admin": false,
        "starred_url": "https://api.github.com/users/rom1504/starred{/owner}{/repo}",
        "subscriptions_url": "https://api.github.com/users/rom1504/subscriptions",
        "type": "User",
        "url": "https://api.github.com/users/rom1504"
    }
}