{
    "_links": {
        "comments": {
            "href": "https://api.github.com/repos/PrismarineJS/minecraft-data/issues/241/comments"
        },
        "commits": {
            "href": "https://api.github.com/repos/PrismarineJS/minecraft-data/pulls/241/commits"
        },
        "html": {
            "href": "https://github.com/PrismarineJS/minecraft-data/pull/241"
        },
        "issue": {
            "href": "https://api.github.com/repos/PrismarineJS/minecraft-data/issues/241"
        },
        "review_comment": {
            "href": "https://api.github.com/repos/PrismarineJS/minecraft-data/pulls/comments{/number}"
        },
        "review_comments": {
            "href": "https://api.github.com/repos/PrismarineJS/minecraft-data/pulls/241/comments"
        },
        "self": {
            "href": "https://api.github.com/repos/PrismarineJS/minecraft-data/pulls/241"
        },
        "statuses": {
            "href": "https://api.github.com/repos/PrismarineJS/minecraft-data/statuses/a9cb389c15779b086e0f816af1c2cc8b50b479e9"
        }
    },
    "active_lock_reason": null,
    "additions": 6,
    "assignee": null,
    "assignees": [],
    "author_association": "MEMBER",
    "auto_merge": null,
    "base": {
        "label": "PrismarineJS:master",
        "ref": "master",
        "repo": {
            "allow_forking": true,
            "archive_url": "https://api.github.com/repos/PrismarineJS/minecraft-data/{archive_format}{/ref}",
            "archived": false,
            "assignees_url": "https://api.github.com/repos/PrismarineJS/minecraft-data/assignees{/user}",
            "blobs_url": "https://api.github.com/repos/PrismarineJS/minecraft-data/git/blobs{/sha}",
            "branches_url": "https://api.github.com/repos/PrismarineJS/minecraft-data/branches{/branch}",
            "clone_url": "https://github.com/PrismarineJS/minecraft-data.git",
            "collaborators_url": "https://api.github.com/repos/PrismarineJS/minecraft-data/collaborators{/collaborator}",
            "comments_url": "https://api.github.com/repos/PrismarineJS/minecraft-data/comments{/number}",
            "commits_url": "https://api.github.com/repos/PrismarineJS/minecraft-data/commits{/sha}",
            "compare_url": "https://api.github.com/repos/PrismarineJS/minecraft-data/compare/{base}...{head}",
            "contents_url": "https://api.github.com/repos/PrismarineJS/minecraft-data/contents/{+path}",
            "contributors_url": "https://api.github.com/repos/PrismarineJS/minecraft-data/contributors",
            "created_at": "2015-03-23T15:38:19Z",
            "default_branch": "master",
            "deployments_url": "https://api.github.com/repos/PrismarineJS/minecraft-data/deployments",
            "description": "Language independent module providing minecraft data for minecraft clients, servers and libraries.",
            "disabled": false,
            "downloads_url": "https://api.github.com/repos/PrismarineJS/minecraft-data/downloads",
            "events_url": "https://api.github.com/repos/PrismarineJS/minecraft-data/events",
            "fork": false,
            "forks": 184,
            "forks_count": 184,
            "forks_url": "https://api.github.com/repos/PrismarineJS/minecraft-data/forks",
            "full_name": "PrismarineJS/minecraft-data",
            "git_commits_url": "https://api.github.com/repos/PrismarineJS/minecraft-data/git/commits{/sha}",
            "git_refs_url": "https://api.github.com/repos/PrismarineJS/minecraft-data/git/refs{/sha}",
            "git_tags_url": "https://api.github.com/repos/PrismarineJS/minecraft-data/git/tags{/sha}",
            "git_url": "git://github.com/PrismarineJS/minecraft-data.git",
            "has_discussions": false,
            "has_downloads": true,
            "has_issues": true,
            "has_pages": true,
            "has_projects": true,
            "has_wiki": true,
            "homepage": "https://prismarinejs.github.io/minecraft-data",
            "hooks_url": "https://api.github.com/repos/PrismarineJS/minecraft-data/hooks",
            "html_url": "https://github.com/PrismarineJS/minecraft-data",
            "id": 32741498,
            "is_template": false,
            "issue_comment_url": "https://api.github.com/repos/PrismarineJS/minecraft-data/issues/comments{/number}",
            "issue_events_url": "https://api.github.com/repos/PrismarineJS/minecraft-data/issues/events{/number}",
            "issues_url": "https://api.github.com/repos/PrismarineJS/minecraft-data/issues{/number}",
            "keys_url": "https://api.github.com/repos/PrismarineJS/minecraft-data/keys{/key_id}",
            "labels_url": "https://api.github.com/repos/PrismarineJS/minecraft-data/labels{/name}",
            "language": "JavaScript",
            "languages_url": "https://api.github.com/repos/PrismarineJS/minecraft-data/languages",
            "license": null,
            "merges_url": "https://api.github.com/repos/PrismarineJS/minecraft-data/merges",
            "milestones_url": "https://api.github.com/repos/PrismarineJS/minecraft-data/milestones{/number}",
            "mirror_url": null,
            "name": "minecraft-data",
            "node_id": "MDEwOlJlcG9zaXRvcnkzMjc0MTQ5OA==",
            "notifications_url": "https://api.github.com/repos/PrismarineJS/minecraft-data/notifications{?since,all,participating}",
            "open_issues": 113,
            "open_issues_count": 113,
            "owner": {
                "avatar_url": "https://avatars.githubusercontent.com/u/11053411?v=4",
                "events_url": "https://api.github.com/users/PrismarineJS/events{/privacy}",
                "followers_url": "https://api.github.com/users/PrismarineJS/followers",
                "following_url": "https://api.github.com/users/PrismarineJS/following{/other_user}",
                "gists_url": "https://api.github.com/users/PrismarineJS/gists{/gist_id}",
                "gravatar_id": "",
                "html_url": "https://github.com/PrismarineJS",
                "id": 11053411,
                "login": "PrismarineJS",
                "node_id": "MDEyOk9yZ2FuaXphdGlvbjExMDUzNDEx",
                "organizations_url": "https://api.github.com/users/PrismarineJS/orgs",
                "received_events_url": "https://api.github.com/users/PrismarineJS/received_events",
                "repos_url": "https://api.github.com/users/PrismarineJS/repos",
                "site_admin": false,
                "starred_url": "https://api.github.com/users/PrismarineJS/starred{/owner}{/repo}",
                "subscriptions_url": "https://api.github.com/users/PrismarineJS/subscriptions",
                "type": "Organization",
                "url": "https://api.github.com/users/PrismarineJS"
            },
            "private": false,
            "pulls_url": "https://api.github.com/repos/PrismarineJS/minecraft-data/pulls{/number}",
            "pushed_at": "2023-04-08T18:30:50Z",
            "releases_url": "https://api.github.com/repos/PrismarineJS/minecraft-data/releases{/id}",
            "size": 134084,
            "ssh_url": "git@github.com:PrismarineJS/minecraft-data.git",
            "stargazers_count": 473,
            "stargazers_url": "https://api.github.com/repos/PrismarineJS/minecraft-data/stargazers",
            "statuses_url": "https://api.github.com/repos/PrismarineJS/minecraft-data/statuses/{sha}",
            "subscribers_url": "https://api.github.com/repos/PrismarineJS/minecraft-data/subscribers",
            "subscription_url": "https://api.github.com/repos/PrismarineJS/minecraft-data/subscription",
            "svn_url": "https://github.com/PrismarineJS/minecraft-data",
            "tags_url": "https://api.github.com/repos/PrismarineJS/minecraft-data/tags",
            "teams_url": "https://api.github.com/repos/PrismarineJS/minecraft-data/teams",
            "topics": [
                "data",
                "minecraft"
            ],
            "trees_url": "https://api.github.com/repos/PrismarineJS/minecraft-data/git/trees{/sha}",
            "updated_at": "2023-04-24T04:11:18Z",
            "url": "https://api.github.com/repos/PrismarineJS/minecraft-data",
            "visibility": "public",
            "watchers": 473,
            "watchers_count": 473,
            "web_commit_signoff_required": false
        },
        "sha": "2beb986d07687e3f3aa2d77f7423c02a5269b6fa",
        "user": {
            "avatar_url": "https://avatars.githubusercontent.com/u/11053411?v=4",
            "events_url": "https://api.github.com/users/PrismarineJS/events{/privacy}",
            "followers_url": "https://api.github.com/users/PrismarineJS/followers",
            "following_url": "https://api.github.com/users/PrismarineJS/following{/other_user}",
            "gists_url": "https://api.github.com/users/PrismarineJS/gists{/gist_id}",
            "gravatar_id": "",
            "html_url": "https://github.com/PrismarineJS",
            "id": 11053411,
            "login": "PrismarineJS",
            "node_id": "MDEyOk9yZ2FuaXphdGlvbjExMDUzNDEx",
            "organizations_url": "https://api.github.com/users/PrismarineJS/orgs",
            "received_events_url": "https://api.github.com/users/PrismarineJS/received_events",
            "repos_url": "https://api.github.com/users/PrismarineJS/repos",
            "site_admin": false,
            "starred_url": "https://api.github.com/users/PrismarineJS/starred{/owner}{/repo}",
            "subscriptions_url": "https://api.github.com/users/PrismarineJS/subscriptions",
            "type": "Organization",
            "url": "https://api.github.com/users/PrismarineJS"
        }
    },
    "body": "Source: https://pokechu22.github.io/Burger/diff_1.14.2_1.14.3-pre1.html#versions",
    "changed_files": 1,
    "closed_at": "2019-06-04T06:35:30Z",
    "comment_data": [],
    "comment_regular_data": [],
    "comments": 0,
    "comments_url": "https://api.github.com/repos/PrismarineJS/minecraft-data/issues/241/comments",
    "commit_data": [
        {
            "author": {
                "avatar_url": "https://avatars.githubusercontent.com/u/11009697?v=4",
                "events_url": "https://api.github.com/users/timmyRS/events{/privacy}",
                "followers_url": "https://api.github.com/users/timmyRS/followers",
                "following_url": "https://api.github.com/users/timmyRS/following{/other_user}",
                "gists_url": "https://api.github.com/users/timmyRS/gists{/gist_id}",
                "gravatar_id": "",
                "html_url": "https://github.com/timmyRS",
                "id": 11009697,
                "login": "timmyRS",
                "node_id": "MDQ6VXNlcjExMDA5Njk3",
                "organizations_url": "https://api.github.com/users/timmyRS/orgs",
                "received_events_url": "https://api.github.com/users/timmyRS/received_events",
                "repos_url": "https://api.github.com/users/timmyRS/repos",
                "site_admin": false,
                "starred_url": "https://api.github.com/users/timmyRS/starred{/owner}{/repo}",
                "subscriptions_url": "https://api.github.com/users/timmyRS/subscriptions",
                "type": "User",
                "url": "https://api.github.com/users/timmyRS"
            },
            "comments_url": "https://api.github.com/repos/PrismarineJS/minecraft-data/commits/a9cb389c15779b086e0f816af1c2cc8b50b479e9/comments",
            "commit": {
                "author": {
                    "date": "2019-06-04T05:52:12Z",
                    "email": "11009697+timmyrs@users.noreply.github.com",
                    "name": "Tim timmyRS Speckhals"
                },
                "comment_count": 0,
                "committer": {
                    "date": "2019-06-04T05:52:12Z",
                    "email": "11009697+timmyrs@users.noreply.github.com",
                    "name": "Tim timmyRS Speckhals"
                },
                "message": "Add 1.14.3-pre1 to pc/common/protocolVersions.json",
                "tree": {
                    "sha": "c53b515adb07fe1707a071eea8a4223de678c977",
                    "url": "https://api.github.com/repos/PrismarineJS/minecraft-data/git/trees/c53b515adb07fe1707a071eea8a4223de678c977"
                },
                "url": "https://api.github.com/repos/PrismarineJS/minecraft-data/git/commits/a9cb389c15779b086e0f816af1c2cc8b50b479e9",
                "verification": {
                    "payload": null,
                    "reason": "unsigned",
                    "signature": null,
                    "verified": false
                }
            },
            "committer": {
                "avatar_url": "https://avatars.githubusercontent.com/u/11009697?v=4",
                "events_url": "https://api.github.com/users/timmyRS/events{/privacy}",
                "followers_url": "https://api.github.com/users/timmyRS/followers",
                "following_url": "https://api.github.com/users/timmyRS/following{/other_user}",
                "gists_url": "https://api.github.com/users/timmyRS/gists{/gist_id}",
                "gravatar_id": "",
                "html_url": "https://github.com/timmyRS",
                "id": 11009697,
                "login": "timmyRS",
                "node_id": "MDQ6VXNlcjExMDA5Njk3",
                "organizations_url": "https://api.github.com/users/timmyRS/orgs",
                "received_events_url": "https://api.github.com/users/timmyRS/received_events",
                "repos_url": "https://api.github.com/users/timmyRS/repos",
                "site_admin": false,
                "starred_url": "https://api.github.com/users/timmyRS/starred{/owner}{/repo}",
                "subscriptions_url": "https://api.github.com/users/timmyRS/subscriptions",
                "type": "User",
                "url": "https://api.github.com/users/timmyRS"
            },
            "html_url": "https://github.com/PrismarineJS/minecraft-data/commit/a9cb389c15779b086e0f816af1c2cc8b50b479e9",
            "node_id": "MDY6Q29tbWl0MzI3NDE0OTg6YTljYjM4OWMxNTc3OWIwODZlMGY4MTZhZjFjMmNjOGI1MGI0NzllOQ==",
            "parents": [
                {
                    "html_url": "https://github.com/PrismarineJS/minecraft-data/commit/2beb986d07687e3f3aa2d77f7423c02a5269b6fa",
                    "sha": "2beb986d07687e3f3aa2d77f7423c02a5269b6fa",
                    "url": "https://api.github.com/repos/PrismarineJS/minecraft-data/commits/2beb986d07687e3f3aa2d77f7423c02a5269b6fa"
                }
            ],
            "sha": "a9cb389c15779b086e0f816af1c2cc8b50b479e9",
            "url": "https://api.github.com/repos/PrismarineJS/minecraft-data/commits/a9cb389c15779b086e0f816af1c2cc8b50b479e9"
        }
    ],
    "commits": 1,
    "commits_url": "https://api.github.com/repos/PrismarineJS/minecraft-data/pulls/241/commits",
    "created_at": "2019-06-04T05:52:48Z",
    "deletions": 0,
    "diff_url": "https://github.com/PrismarineJS/minecraft-data/pull/241.diff",
    "draft": false,
    "head": {
        "label": "timmyRS:new-pvs",
        "ref": "new-pvs",
        "repo": null,
        "sha": "a9cb389c15779b086e0f816af1c2cc8b50b479e9",
        "user": {
            "avatar_url": "https://avatars.githubusercontent.com/u/11009697?v=4",
            "events_url": "https://api.github.com/users/timmyRS/events{/privacy}",
            "followers_url": "https://api.github.com/users/timmyRS/followers",
            "following_url": "https://api.github.com/users/timmyRS/following{/other_user}",
            "gists_url": "https://api.github.com/users/timmyRS/gists{/gist_id}",
            "gravatar_id": "",
            "html_url": "https://github.com/timmyRS",
            "id": 11009697,
            "login": "timmyRS",
            "node_id": "MDQ6VXNlcjExMDA5Njk3",
            "organizations_url": "https://api.github.com/users/timmyRS/orgs",
            "received_events_url": "https://api.github.com/users/timmyRS/received_events",
            "repos_url": "https://api.github.com/users/timmyRS/repos",
            "site_admin": false,
            "starred_url": "https://api.github.com/users/timmyRS/starred{/owner}{/repo}",
            "subscriptions_url": "https://api.github.com/users/timmyRS/subscriptions",
            "type": "User",
            "url": "https://api.github.com/users/timmyRS"
        }
    },
    "html_url": "https://github.com/PrismarineJS/minecraft-data/pull/241",
    "id": 284824568,
    "issue_url": "https://api.github.com/repos/PrismarineJS/minecraft-data/issues/241",
    "labels": [],
    "locked": false,
    "maintainer_can_modify": false,
    "merge_commit_sha": "91baf3a17b0f786805fdef55ee3f7693a81234ff",
    "mergeable": null,
    "mergeable_state": "unknown",
    "merged": true,
    "merged_at": "2019-06-04T06:35:30Z",
    "merged_by": {
        "avatar_url": "https://avatars.githubusercontent.com/u/2346494?v=4",
        "events_url": "https://api.github.com/users/rom1504/events{/privacy}",
        "followers_url": "https://api.github.com/users/rom1504/followers",
        "following_url": "https://api.github.com/users/rom1504/following{/other_user}",
        "gists_url": "https://api.github.com/users/rom1504/gists{/gist_id}",
        "gravatar_id": "",
        "html_url": "https://github.com/rom1504",
        "id": 2346494,
        "login": "rom1504",
        "node_id": "MDQ6VXNlcjIzNDY0OTQ=",
        "organizations_url": "https://api.github.com/users/rom1504/orgs",
        "received_events_url": "https://api.github.com/users/rom1504/received_events",
        "repos_url": "https://api.github.com/users/rom1504/repos",
        "site_admin": false,
        "starred_url": "https://api.github.com/users/rom1504/starred{/owner}{/repo}",
        "subscriptions_url": "https://api.github.com/users/rom1504/subscriptions",
        "type": "User",
        "url": "https://api.github.com/users/rom1504"
    },
    "milestone": null,
    "node_id": "MDExOlB1bGxSZXF1ZXN0Mjg0ODI0NTY4",
    "number": 241,
    "patch_url": "https://github.com/PrismarineJS/minecraft-data/pull/241.patch",
    "rebaseable": null,
    "requested_reviewers": [],
    "requested_teams": [],
    "review_comment_url": "https://api.github.com/repos/PrismarineJS/minecraft-data/pulls/comments{/number}",
    "review_comments": 0,
    "review_comments_url": "https://api.github.com/repos/PrismarineJS/minecraft-data/pulls/241/comments",
    "state": "closed",
    "statuses_url": "https://api.github.com/repos/PrismarineJS/minecraft-data/statuses/a9cb389c15779b086e0f816af1c2cc8b50b479e9",
    "title": "Add 1.14.3-pre1 to pc/common/protocolVersions.json",
    "updated_at": "2019-06-04T06:50:21Z",
    "url": "https://api.github.com/repos/PrismarineJS/minecraft-data/pulls/241",
    "user": {
        "avatar_url": "https://avatars.githubusercontent.com/u/11009697?v=4",
        "events_url": "https://api.github.com/users/timmyRS/events{/privacy}",
        "followers_url": "https://api.github.com/users/timmyRS/followers",
        "following_url": "https://api.github.com/users/timmyRS/following{/other_user}",
        "gists_url": "https://api.github.com/users/timmyRS/gists{/gist_id}",
        "gravatar_id": "",
        "html_url": "https://github.com/timmyRS",
        "id": 11009697,
        "login": "timmyRS",
        "node_id": "MDQ6VXNlcjExMDA5Njk3",
        "organizations_url": "https://api.github.com/users/timmyRS/orgs",
        "received_events_url": "https://api.github.com/users/timmyRS/received_events",
        "repos_url": "https://api.github.com/users/timmyRS/repos",
        "site_admin": false,
        "starred_url": "https://api.github.com/users/timmyRS/starred{/owner}{/repo}",
        "subscriptions_url": "https://api.github.com/users/timmyRS/subscriptions",
        "type": "User",
        "url": "https://api.github.com/users/timmyRS"
    }
}