{
    "_links": {
        "comments": {
            "href": "https://api.github.com/repos/PrismarineJS/minecraft-data/issues/374/comments"
        },
        "commits": {
            "href": "https://api.github.com/repos/PrismarineJS/minecraft-data/pulls/374/commits"
        },
        "html": {
            "href": "https://github.com/PrismarineJS/minecraft-data/pull/374"
        },
        "issue": {
            "href": "https://api.github.com/repos/PrismarineJS/minecraft-data/issues/374"
        },
        "review_comment": {
            "href": "https://api.github.com/repos/PrismarineJS/minecraft-data/pulls/comments{/number}"
        },
        "review_comments": {
            "href": "https://api.github.com/repos/PrismarineJS/minecraft-data/pulls/374/comments"
        },
        "self": {
            "href": "https://api.github.com/repos/PrismarineJS/minecraft-data/pulls/374"
        },
        "statuses": {
            "href": "https://api.github.com/repos/PrismarineJS/minecraft-data/statuses/5c904792fafa239c1c8f987f480315c35bb87cae"
        }
    },
    "active_lock_reason": null,
    "additions": 1,
    "assignee": null,
    "assignees": [],
    "author_association": "MEMBER",
    "auto_merge": null,
    "base": {
        "label": "PrismarineJS:master",
        "ref": "master",
        "repo": {
            "allow_forking": true,
            "archive_url": "https://api.github.com/repos/PrismarineJS/minecraft-data/{archive_format}{/ref}",
            "archived": false,
            "assignees_url": "https://api.github.com/repos/PrismarineJS/minecraft-data/assignees{/user}",
            "blobs_url": "https://api.github.com/repos/PrismarineJS/minecraft-data/git/blobs{/sha}",
            "branches_url": "https://api.github.com/repos/PrismarineJS/minecraft-data/branches{/branch}",
            "clone_url": "https://github.com/PrismarineJS/minecraft-data.git",
            "collaborators_url": "https://api.github.com/repos/PrismarineJS/minecraft-data/collaborators{/collaborator}",
            "comments_url": "https://api.github.com/repos/PrismarineJS/minecraft-data/comments{/number}",
            "commits_url": "https://api.github.com/repos/PrismarineJS/minecraft-data/commits{/sha}",
            "compare_url": "https://api.github.com/repos/PrismarineJS/minecraft-data/compare/{base}...{head}",
            "contents_url": "https://api.github.com/repos/PrismarineJS/minecraft-data/contents/{+path}",
            "contributors_url": "https://api.github.com/repos/PrismarineJS/minecraft-data/contributors",
            "created_at": "2015-03-23T15:38:19Z",
            "default_branch": "master",
            "deployments_url": "https://api.github.com/repos/PrismarineJS/minecraft-data/deployments",
            "description": "Language independent module providing minecraft data for minecraft clients, servers and libraries.",
            "disabled": false,
            "downloads_url": "https://api.github.com/repos/PrismarineJS/minecraft-data/downloads",
            "events_url": "https://api.github.com/repos/PrismarineJS/minecraft-data/events",
            "fork": false,
            "forks": 184,
            "forks_count": 184,
            "forks_url": "https://api.github.com/repos/PrismarineJS/minecraft-data/forks",
            "full_name": "PrismarineJS/minecraft-data",
            "git_commits_url": "https://api.github.com/repos/PrismarineJS/minecraft-data/git/commits{/sha}",
            "git_refs_url": "https://api.github.com/repos/PrismarineJS/minecraft-data/git/refs{/sha}",
            "git_tags_url": "https://api.github.com/repos/PrismarineJS/minecraft-data/git/tags{/sha}",
            "git_url": "git://github.com/PrismarineJS/minecraft-data.git",
            "has_discussions": false,
            "has_downloads": true,
            "has_issues": true,
            "has_pages": true,
            "has_projects": true,
            "has_wiki": true,
            "homepage": "https://prismarinejs.github.io/minecraft-data",
            "hooks_url": "https://api.github.com/repos/PrismarineJS/minecraft-data/hooks",
            "html_url": "https://github.com/PrismarineJS/minecraft-data",
            "id": 32741498,
            "is_template": false,
            "issue_comment_url": "https://api.github.com/repos/PrismarineJS/minecraft-data/issues/comments{/number}",
            "issue_events_url": "https://api.github.com/repos/PrismarineJS/minecraft-data/issues/events{/number}",
            "issues_url": "https://api.github.com/repos/PrismarineJS/minecraft-data/issues{/number}",
            "keys_url": "https://api.github.com/repos/PrismarineJS/minecraft-data/keys{/key_id}",
            "labels_url": "https://api.github.com/repos/PrismarineJS/minecraft-data/labels{/name}",
            "language": "JavaScript",
            "languages_url": "https://api.github.com/repos/PrismarineJS/minecraft-data/languages",
            "license": null,
            "merges_url": "https://api.github.com/repos/PrismarineJS/minecraft-data/merges",
            "milestones_url": "https://api.github.com/repos/PrismarineJS/minecraft-data/milestones{/number}",
            "mirror_url": null,
            "name": "minecraft-data",
            "node_id": "MDEwOlJlcG9zaXRvcnkzMjc0MTQ5OA==",
            "notifications_url": "https://api.github.com/repos/PrismarineJS/minecraft-data/notifications{?since,all,participating}",
            "open_issues": 113,
            "open_issues_count": 113,
            "owner": {
                "avatar_url": "https://avatars.githubusercontent.com/u/11053411?v=4",
                "events_url": "https://api.github.com/users/PrismarineJS/events{/privacy}",
                "followers_url": "https://api.github.com/users/PrismarineJS/followers",
                "following_url": "https://api.github.com/users/PrismarineJS/following{/other_user}",
                "gists_url": "https://api.github.com/users/PrismarineJS/gists{/gist_id}",
                "gravatar_id": "",
                "html_url": "https://github.com/PrismarineJS",
                "id": 11053411,
                "login": "PrismarineJS",
                "node_id": "MDEyOk9yZ2FuaXphdGlvbjExMDUzNDEx",
                "organizations_url": "https://api.github.com/users/PrismarineJS/orgs",
                "received_events_url": "https://api.github.com/users/PrismarineJS/received_events",
                "repos_url": "https://api.github.com/users/PrismarineJS/repos",
                "site_admin": false,
                "starred_url": "https://api.github.com/users/PrismarineJS/starred{/owner}{/repo}",
                "subscriptions_url": "https://api.github.com/users/PrismarineJS/subscriptions",
                "type": "Organization",
                "url": "https://api.github.com/users/PrismarineJS"
            },
            "private": false,
            "pulls_url": "https://api.github.com/repos/PrismarineJS/minecraft-data/pulls{/number}",
            "pushed_at": "2023-04-08T18:30:50Z",
            "releases_url": "https://api.github.com/repos/PrismarineJS/minecraft-data/releases{/id}",
            "size": 134084,
            "ssh_url": "git@github.com:PrismarineJS/minecraft-data.git",
            "stargazers_count": 473,
            "stargazers_url": "https://api.github.com/repos/PrismarineJS/minecraft-data/stargazers",
            "statuses_url": "https://api.github.com/repos/PrismarineJS/minecraft-data/statuses/{sha}",
            "subscribers_url": "https://api.github.com/repos/PrismarineJS/minecraft-data/subscribers",
            "subscription_url": "https://api.github.com/repos/PrismarineJS/minecraft-data/subscription",
            "svn_url": "https://github.com/PrismarineJS/minecraft-data",
            "tags_url": "https://api.github.com/repos/PrismarineJS/minecraft-data/tags",
            "teams_url": "https://api.github.com/repos/PrismarineJS/minecraft-data/teams",
            "topics": [
                "data",
                "minecraft"
            ],
            "trees_url": "https://api.github.com/repos/PrismarineJS/minecraft-data/git/trees{/sha}",
            "updated_at": "2023-04-24T04:11:18Z",
            "url": "https://api.github.com/repos/PrismarineJS/minecraft-data",
            "visibility": "public",
            "watchers": 473,
            "watchers_count": 473,
            "web_commit_signoff_required": false
        },
        "sha": "fdf518c4ff9dfddcb762f6195d18c94cb381a3ed",
        "user": {
            "avatar_url": "https://avatars.githubusercontent.com/u/11053411?v=4",
            "events_url": "https://api.github.com/users/PrismarineJS/events{/privacy}",
            "followers_url": "https://api.github.com/users/PrismarineJS/followers",
            "following_url": "https://api.github.com/users/PrismarineJS/following{/other_user}",
            "gists_url": "https://api.github.com/users/PrismarineJS/gists{/gist_id}",
            "gravatar_id": "",
            "html_url": "https://github.com/PrismarineJS",
            "id": 11053411,
            "login": "PrismarineJS",
            "node_id": "MDEyOk9yZ2FuaXphdGlvbjExMDUzNDEx",
            "organizations_url": "https://api.github.com/users/PrismarineJS/orgs",
            "received_events_url": "https://api.github.com/users/PrismarineJS/received_events",
            "repos_url": "https://api.github.com/users/PrismarineJS/repos",
            "site_admin": false,
            "starred_url": "https://api.github.com/users/PrismarineJS/starred{/owner}{/repo}",
            "subscriptions_url": "https://api.github.com/users/PrismarineJS/subscriptions",
            "type": "Organization",
            "url": "https://api.github.com/users/PrismarineJS"
        }
    },
    "body": "used to propogate ItemMultiplier and BookMultiplier into enchantments.json",
    "changed_files": 1,
    "closed_at": "2021-02-25T00:33:59Z",
    "comment_data": [],
    "comment_regular_data": [],
    "comments": 0,
    "comments_url": "https://api.github.com/repos/PrismarineJS/minecraft-data/issues/374/comments",
    "commit_data": [
        {
            "author": {
                "avatar_url": "https://avatars.githubusercontent.com/u/43508353?v=4",
                "events_url": "https://api.github.com/users/u9g/events{/privacy}",
                "followers_url": "https://api.github.com/users/u9g/followers",
                "following_url": "https://api.github.com/users/u9g/following{/other_user}",
                "gists_url": "https://api.github.com/users/u9g/gists{/gist_id}",
                "gravatar_id": "",
                "html_url": "https://github.com/u9g",
                "id": 43508353,
                "login": "u9g",
                "node_id": "MDQ6VXNlcjQzNTA4MzUz",
                "organizations_url": "https://api.github.com/users/u9g/orgs",
                "received_events_url": "https://api.github.com/users/u9g/received_events",
                "repos_url": "https://api.github.com/users/u9g/repos",
                "site_admin": false,
                "starred_url": "https://api.github.com/users/u9g/starred{/owner}{/repo}",
                "subscriptions_url": "https://api.github.com/users/u9g/subscriptions",
                "type": "User",
                "url": "https://api.github.com/users/u9g"
            },
            "comments_url": "https://api.github.com/repos/PrismarineJS/minecraft-data/commits/5c904792fafa239c1c8f987f480315c35bb87cae/comments",
            "commit": {
                "author": {
                    "date": "2021-02-24T23:49:21Z",
                    "email": "43508353+u9g@users.noreply.github.com",
                    "name": "u9g"
                },
                "comment_count": 0,
                "committer": {
                    "date": "2021-02-24T23:49:21Z",
                    "email": "noreply@github.com",
                    "name": "GitHub"
                },
                "message": "add enchant-multiplier-injector\n\nused to propogate ItemMultiplier and BookMultiplier into enchantments.json",
                "tree": {
                    "sha": "a70873d3bf4e5a4d3190b2d4a8c39a0b8787d8ad",
                    "url": "https://api.github.com/repos/PrismarineJS/minecraft-data/git/trees/a70873d3bf4e5a4d3190b2d4a8c39a0b8787d8ad"
                },
                "url": "https://api.github.com/repos/PrismarineJS/minecraft-data/git/commits/5c904792fafa239c1c8f987f480315c35bb87cae",
                "verification": {
                    "payload": "tree a70873d3bf4e5a4d3190b2d4a8c39a0b8787d8ad\nparent fdf518c4ff9dfddcb762f6195d18c94cb381a3ed\nauthor u9g <43508353+u9g@users.noreply.github.com> 1614210561 -0500\ncommitter GitHub <noreply@github.com> 1614210561 -0500\n\nadd enchant-multiplier-injector\n\nused to propogate ItemMultiplier and BookMultiplier into enchantments.json",
                    "reason": "valid",
                    "signature": "-----BEGIN PGP SIGNATURE-----\n\nwsBcBAABCAAQBQJgNuYBCRBK7hj4Ov3rIwAAdHIIADqKUXodhbLGcPIpS3L8k0Mn\nOQK+QcSP9hro45J8M3RkyKLcEH/WlMMfNEm6XYufTpB3420fSFcXERm9PV3SYbS6\nnkOu/U0A6lrZWSssk+2uHstH1MUL2RudQd5QHf0w3W0n8wXvX7FBgspplxlbHYQw\nWHQj3zX8ahG8YGCpw5/1HHPemSE6aF816K2zwptvgCxLhPim0VDzuPoDDtycnQuX\nJ2hR4RVGzOb6iPAsg3q2pu9I2oVpblsnfObgfJKmyEe6sCMfp76MCiSqphxiijj2\nhUHQooccMc5to6b1g5WM9nXtojfyWoF8kscrUd+tmmLhCR1Og0s7bJ4z6L82H50=\n=XN7J\n-----END PGP SIGNATURE-----\n",
                    "verified": true
                }
            },
            "committer": {
                "avatar_url": "https://avatars.githubusercontent.com/u/19864447?v=4",
                "events_url": "https://api.github.com/users/web-flow/events{/privacy}",
                "followers_url": "https://api.github.com/users/web-flow/followers",
                "following_url": "https://api.github.com/users/web-flow/following{/other_user}",
                "gists_url": "https://api.github.com/users/web-flow/gists{/gist_id}",
                "gravatar_id": "",
                "html_url": "https://github.com/web-flow",
                "id": 19864447,
                "login": "web-flow",
                "node_id": "MDQ6VXNlcjE5ODY0NDQ3",
                "organizations_url": "https://api.github.com/users/web-flow/orgs",
                "received_events_url": "https://api.github.com/users/web-flow/received_events",
                "repos_url": "https://api.github.com/users/web-flow/repos",
                "site_admin": false,
                "starred_url": "https://api.github.com/users/web-flow/starred{/owner}{/repo}",
                "subscriptions_url": "https://api.github.com/users/web-flow/subscriptions",
                "type": "User",
                "url": "https://api.github.com/users/web-flow"
            },
            "html_url": "https://github.com/PrismarineJS/minecraft-data/commit/5c904792fafa239c1c8f987f480315c35bb87cae",
            "node_id": "MDY6Q29tbWl0MzI3NDE0OTg6NWM5MDQ3OTJmYWZhMjM5YzFjOGY5ODdmNDgwMzE1YzM1YmI4N2NhZQ==",
            "parents": [
                {
                    "html_url": "https://github.com/PrismarineJS/minecraft-data/commit/fdf518c4ff9dfddcb762f6195d18c94cb381a3ed",
                    "sha": "fdf518c4ff9dfddcb762f6195d18c94cb381a3ed",
                    "url": "https://api.github.com/repos/PrismarineJS/minecraft-data/commits/fdf518c4ff9dfddcb762f6195d18c94cb381a3ed"
                }
            ],
            "sha": "5c904792fafa239c1c8f987f480315c35bb87cae",
            "url": "https://api.github.com/repos/PrismarineJS/minecraft-data/commits/5c904792fafa239c1c8f987f480315c35bb87cae"
        }
    ],
    "commits": 1,
    "commits_url": "https://api.github.com/repos/PrismarineJS/minecraft-data/pulls/374/commits",
    "created_at": "2021-02-24T23:52:30Z",
    "deletions": 0,
    "diff_url": "https://github.com/PrismarineJS/minecraft-data/pull/374.diff",
    "draft": false,
    "head": {
        "label": "u9g:patch-2",
        "ref": "patch-2",
        "repo": null,
        "sha": "5c904792fafa239c1c8f987f480315c35bb87cae",
        "user": {
            "avatar_url": "https://avatars.githubusercontent.com/u/43508353?v=4",
            "events_url": "https://api.github.com/users/u9g/events{/privacy}",
            "followers_url": "https://api.github.com/users/u9g/followers",
            "following_url": "https://api.github.com/users/u9g/following{/other_user}",
            "gists_url": "https://api.github.com/users/u9g/gists{/gist_id}",
            "gravatar_id": "",
            "html_url": "https://github.com/u9g",
            "id": 43508353,
            "login": "u9g",
            "node_id": "MDQ6VXNlcjQzNTA4MzUz",
            "organizations_url": "https://api.github.com/users/u9g/orgs",
            "received_events_url": "https://api.github.com/users/u9g/received_events",
            "repos_url": "https://api.github.com/users/u9g/repos",
            "site_admin": false,
            "starred_url": "https://api.github.com/users/u9g/starred{/owner}{/repo}",
            "subscriptions_url": "https://api.github.com/users/u9g/subscriptions",
            "type": "User",
            "url": "https://api.github.com/users/u9g"
        }
    },
    "html_url": "https://github.com/PrismarineJS/minecraft-data/pull/374",
    "id": 579686277,
    "issue_url": "https://api.github.com/repos/PrismarineJS/minecraft-data/issues/374",
    "labels": [],
    "locked": false,
    "maintainer_can_modify": false,
    "merge_commit_sha": "88f602cc1a64bdfa819a68e542a6a49d5e63af06",
    "mergeable": null,
    "mergeable_state": "unknown",
    "merged": false,
    "merged_at": null,
    "merged_by": null,
    "milestone": null,
    "node_id": "MDExOlB1bGxSZXF1ZXN0NTc5Njg2Mjc3",
    "number": 374,
    "patch_url": "https://github.com/PrismarineJS/minecraft-data/pull/374.patch",
    "rebaseable": null,
    "requested_reviewers": [],
    "requested_teams": [],
    "review_comment_url": "https://api.github.com/repos/PrismarineJS/minecraft-data/pulls/comments{/number}",
    "review_comments": 0,
    "review_comments_url": "https://api.github.com/repos/PrismarineJS/minecraft-data/pulls/374/comments",
    "state": "closed",
    "statuses_url": "https://api.github.com/repos/PrismarineJS/minecraft-data/statuses/5c904792fafa239c1c8f987f480315c35bb87cae",
    "title": "add enchant-multiplier-injector",
    "updated_at": "2021-02-25T01:39:40Z",
    "url": "https://api.github.com/repos/PrismarineJS/minecraft-data/pulls/374",
    "user": {
        "avatar_url": "https://avatars.githubusercontent.com/u/43508353?v=4",
        "events_url": "https://api.github.com/users/u9g/events{/privacy}",
        "followers_url": "https://api.github.com/users/u9g/followers",
        "following_url": "https://api.github.com/users/u9g/following{/other_user}",
        "gists_url": "https://api.github.com/users/u9g/gists{/gist_id}",
        "gravatar_id": "",
        "html_url": "https://github.com/u9g",
        "id": 43508353,
        "login": "u9g",
        "node_id": "MDQ6VXNlcjQzNTA4MzUz",
        "organizations_url": "https://api.github.com/users/u9g/orgs",
        "received_events_url": "https://api.github.com/users/u9g/received_events",
        "repos_url": "https://api.github.com/users/u9g/repos",
        "site_admin": false,
        "starred_url": "https://api.github.com/users/u9g/starred{/owner}{/repo}",
        "subscriptions_url": "https://api.github.com/users/u9g/subscriptions",
        "type": "User",
        "url": "https://api.github.com/users/u9g"
    }
}