{
    "_links": {
        "comments": {
            "href": "https://api.github.com/repos/PrismarineJS/minecraft-data/issues/41/comments"
        },
        "commits": {
            "href": "https://api.github.com/repos/PrismarineJS/minecraft-data/pulls/41/commits"
        },
        "html": {
            "href": "https://github.com/PrismarineJS/minecraft-data/pull/41"
        },
        "issue": {
            "href": "https://api.github.com/repos/PrismarineJS/minecraft-data/issues/41"
        },
        "review_comment": {
            "href": "https://api.github.com/repos/PrismarineJS/minecraft-data/pulls/comments{/number}"
        },
        "review_comments": {
            "href": "https://api.github.com/repos/PrismarineJS/minecraft-data/pulls/41/comments"
        },
        "self": {
            "href": "https://api.github.com/repos/PrismarineJS/minecraft-data/pulls/41"
        },
        "statuses": {
            "href": "https://api.github.com/repos/PrismarineJS/minecraft-data/statuses/3064db80fb4a09f64319fa9d51c7a2bf4778746b"
        }
    },
    "active_lock_reason": null,
    "additions": 117,
    "assignee": null,
    "assignees": [],
    "author_association": "MEMBER",
    "auto_merge": null,
    "base": {
        "label": "PrismarineJS:1.8",
        "ref": "1.8",
        "repo": {
            "allow_forking": true,
            "archive_url": "https://api.github.com/repos/PrismarineJS/minecraft-data/{archive_format}{/ref}",
            "archived": false,
            "assignees_url": "https://api.github.com/repos/PrismarineJS/minecraft-data/assignees{/user}",
            "blobs_url": "https://api.github.com/repos/PrismarineJS/minecraft-data/git/blobs{/sha}",
            "branches_url": "https://api.github.com/repos/PrismarineJS/minecraft-data/branches{/branch}",
            "clone_url": "https://github.com/PrismarineJS/minecraft-data.git",
            "collaborators_url": "https://api.github.com/repos/PrismarineJS/minecraft-data/collaborators{/collaborator}",
            "comments_url": "https://api.github.com/repos/PrismarineJS/minecraft-data/comments{/number}",
            "commits_url": "https://api.github.com/repos/PrismarineJS/minecraft-data/commits{/sha}",
            "compare_url": "https://api.github.com/repos/PrismarineJS/minecraft-data/compare/{base}...{head}",
            "contents_url": "https://api.github.com/repos/PrismarineJS/minecraft-data/contents/{+path}",
            "contributors_url": "https://api.github.com/repos/PrismarineJS/minecraft-data/contributors",
            "created_at": "2015-03-23T15:38:19Z",
            "default_branch": "master",
            "deployments_url": "https://api.github.com/repos/PrismarineJS/minecraft-data/deployments",
            "description": "Language independent module providing minecraft data for minecraft clients, servers and libraries.",
            "disabled": false,
            "downloads_url": "https://api.github.com/repos/PrismarineJS/minecraft-data/downloads",
            "events_url": "https://api.github.com/repos/PrismarineJS/minecraft-data/events",
            "fork": false,
            "forks": 184,
            "forks_count": 184,
            "forks_url": "https://api.github.com/repos/PrismarineJS/minecraft-data/forks",
            "full_name": "PrismarineJS/minecraft-data",
            "git_commits_url": "https://api.github.com/repos/PrismarineJS/minecraft-data/git/commits{/sha}",
            "git_refs_url": "https://api.github.com/repos/PrismarineJS/minecraft-data/git/refs{/sha}",
            "git_tags_url": "https://api.github.com/repos/PrismarineJS/minecraft-data/git/tags{/sha}",
            "git_url": "git://github.com/PrismarineJS/minecraft-data.git",
            "has_discussions": false,
            "has_downloads": true,
            "has_issues": true,
            "has_pages": true,
            "has_projects": true,
            "has_wiki": true,
            "homepage": "https://prismarinejs.github.io/minecraft-data",
            "hooks_url": "https://api.github.com/repos/PrismarineJS/minecraft-data/hooks",
            "html_url": "https://github.com/PrismarineJS/minecraft-data",
            "id": 32741498,
            "is_template": false,
            "issue_comment_url": "https://api.github.com/repos/PrismarineJS/minecraft-data/issues/comments{/number}",
            "issue_events_url": "https://api.github.com/repos/PrismarineJS/minecraft-data/issues/events{/number}",
            "issues_url": "https://api.github.com/repos/PrismarineJS/minecraft-data/issues{/number}",
            "keys_url": "https://api.github.com/repos/PrismarineJS/minecraft-data/keys{/key_id}",
            "labels_url": "https://api.github.com/repos/PrismarineJS/minecraft-data/labels{/name}",
            "language": "JavaScript",
            "languages_url": "https://api.github.com/repos/PrismarineJS/minecraft-data/languages",
            "license": null,
            "merges_url": "https://api.github.com/repos/PrismarineJS/minecraft-data/merges",
            "milestones_url": "https://api.github.com/repos/PrismarineJS/minecraft-data/milestones{/number}",
            "mirror_url": null,
            "name": "minecraft-data",
            "node_id": "MDEwOlJlcG9zaXRvcnkzMjc0MTQ5OA==",
            "notifications_url": "https://api.github.com/repos/PrismarineJS/minecraft-data/notifications{?since,all,participating}",
            "open_issues": 113,
            "open_issues_count": 113,
            "owner": {
                "avatar_url": "https://avatars.githubusercontent.com/u/11053411?v=4",
                "events_url": "https://api.github.com/users/PrismarineJS/events{/privacy}",
                "followers_url": "https://api.github.com/users/PrismarineJS/followers",
                "following_url": "https://api.github.com/users/PrismarineJS/following{/other_user}",
                "gists_url": "https://api.github.com/users/PrismarineJS/gists{/gist_id}",
                "gravatar_id": "",
                "html_url": "https://github.com/PrismarineJS",
                "id": 11053411,
                "login": "PrismarineJS",
                "node_id": "MDEyOk9yZ2FuaXphdGlvbjExMDUzNDEx",
                "organizations_url": "https://api.github.com/users/PrismarineJS/orgs",
                "received_events_url": "https://api.github.com/users/PrismarineJS/received_events",
                "repos_url": "https://api.github.com/users/PrismarineJS/repos",
                "site_admin": false,
                "starred_url": "https://api.github.com/users/PrismarineJS/starred{/owner}{/repo}",
                "subscriptions_url": "https://api.github.com/users/PrismarineJS/subscriptions",
                "type": "Organization",
                "url": "https://api.github.com/users/PrismarineJS"
            },
            "private": false,
            "pulls_url": "https://api.github.com/repos/PrismarineJS/minecraft-data/pulls{/number}",
            "pushed_at": "2023-04-08T18:30:50Z",
            "releases_url": "https://api.github.com/repos/PrismarineJS/minecraft-data/releases{/id}",
            "size": 134084,
            "ssh_url": "git@github.com:PrismarineJS/minecraft-data.git",
            "stargazers_count": 473,
            "stargazers_url": "https://api.github.com/repos/PrismarineJS/minecraft-data/stargazers",
            "statuses_url": "https://api.github.com/repos/PrismarineJS/minecraft-data/statuses/{sha}",
            "subscribers_url": "https://api.github.com/repos/PrismarineJS/minecraft-data/subscribers",
            "subscription_url": "https://api.github.com/repos/PrismarineJS/minecraft-data/subscription",
            "svn_url": "https://github.com/PrismarineJS/minecraft-data",
            "tags_url": "https://api.github.com/repos/PrismarineJS/minecraft-data/tags",
            "teams_url": "https://api.github.com/repos/PrismarineJS/minecraft-data/teams",
            "topics": [
                "data",
                "minecraft"
            ],
            "trees_url": "https://api.github.com/repos/PrismarineJS/minecraft-data/git/trees{/sha}",
            "updated_at": "2023-04-24T04:11:18Z",
            "url": "https://api.github.com/repos/PrismarineJS/minecraft-data",
            "visibility": "public",
            "watchers": 473,
            "watchers_count": 473,
            "web_commit_signoff_required": false
        },
        "sha": "f5e890c7eb080525f16323eeb263eb36fe593766",
        "user": {
            "avatar_url": "https://avatars.githubusercontent.com/u/11053411?v=4",
            "events_url": "https://api.github.com/users/PrismarineJS/events{/privacy}",
            "followers_url": "https://api.github.com/users/PrismarineJS/followers",
            "following_url": "https://api.github.com/users/PrismarineJS/following{/other_user}",
            "gists_url": "https://api.github.com/users/PrismarineJS/gists{/gist_id}",
            "gravatar_id": "",
            "html_url": "https://github.com/PrismarineJS",
            "id": 11053411,
            "login": "PrismarineJS",
            "node_id": "MDEyOk9yZ2FuaXphdGlvbjExMDUzNDEx",
            "organizations_url": "https://api.github.com/users/PrismarineJS/orgs",
            "received_events_url": "https://api.github.com/users/PrismarineJS/received_events",
            "repos_url": "https://api.github.com/users/PrismarineJS/repos",
            "site_admin": false,
            "starred_url": "https://api.github.com/users/PrismarineJS/starred{/owner}{/repo}",
            "subscriptions_url": "https://api.github.com/users/PrismarineJS/subscriptions",
            "type": "Organization",
            "url": "https://api.github.com/users/PrismarineJS"
        }
    },
    "body": "Adds a data file for the inventory windows.\n\nCloses #37.\n",
    "changed_files": 3,
    "closed_at": "2015-08-25T00:11:55Z",
    "comment_data": [],
    "comment_regular_data": [
        {
            "author_association": "MEMBER",
            "body": "Maybe add\n\n```\n\"openedWith\": [\n  {type:\"entity\", id:100}\n]\n```\n\nto specify how a window can be opened.\n\n`type` can be `block` or `entity` at the moment.\n\nPossible names for the list:\n- `openedWith`\n- `openedBy`\n- `openedOn`\n- `interactingObjects`\n",
            "created_at": "2015-08-23T22:01:16Z",
            "html_url": "https://github.com/PrismarineJS/minecraft-data/pull/41#issuecomment-133943662",
            "id": 133943662,
            "issue_url": "https://api.github.com/repos/PrismarineJS/minecraft-data/issues/41",
            "node_id": "MDEyOklzc3VlQ29tbWVudDEzMzk0MzY2Mg==",
            "performed_via_github_app": null,
            "reactions": {
                "+1": 0,
                "-1": 0,
                "confused": 0,
                "eyes": 0,
                "heart": 0,
                "hooray": 0,
                "laugh": 0,
                "rocket": 0,
                "total_count": 0,
                "url": "https://api.github.com/repos/PrismarineJS/minecraft-data/issues/comments/133943662/reactions"
            },
            "updated_at": "2015-08-23T22:05:22Z",
            "url": "https://api.github.com/repos/PrismarineJS/minecraft-data/issues/comments/133943662",
            "user": {
                "avatar_url": "https://avatars.githubusercontent.com/u/2612164?v=4",
                "events_url": "https://api.github.com/users/Gjum/events{/privacy}",
                "followers_url": "https://api.github.com/users/Gjum/followers",
                "following_url": "https://api.github.com/users/Gjum/following{/other_user}",
                "gists_url": "https://api.github.com/users/Gjum/gists{/gist_id}",
                "gravatar_id": "",
                "html_url": "https://github.com/Gjum",
                "id": 2612164,
                "login": "Gjum",
                "node_id": "MDQ6VXNlcjI2MTIxNjQ=",
                "organizations_url": "https://api.github.com/users/Gjum/orgs",
                "received_events_url": "https://api.github.com/users/Gjum/received_events",
                "repos_url": "https://api.github.com/users/Gjum/repos",
                "site_admin": false,
                "starred_url": "https://api.github.com/users/Gjum/starred{/owner}{/repo}",
                "subscriptions_url": "https://api.github.com/users/Gjum/subscriptions",
                "type": "User",
                "url": "https://api.github.com/users/Gjum"
            }
        },
        {
            "author_association": "MEMBER",
            "body": "Need to add a line in the README saying we add the data to that file manually.\n\nOr maybe we can generate it using http://wiki.vg/Inventory#Windows (and possibly http://minecraft.gamepedia.com/Inventory#External_inventories )\n",
            "created_at": "2015-08-23T22:15:15Z",
            "html_url": "https://github.com/PrismarineJS/minecraft-data/pull/41#issuecomment-133945669",
            "id": 133945669,
            "issue_url": "https://api.github.com/repos/PrismarineJS/minecraft-data/issues/41",
            "node_id": "MDEyOklzc3VlQ29tbWVudDEzMzk0NTY2OQ==",
            "performed_via_github_app": null,
            "reactions": {
                "+1": 0,
                "-1": 0,
                "confused": 0,
                "eyes": 0,
                "heart": 0,
                "hooray": 0,
                "laugh": 0,
                "rocket": 0,
                "total_count": 0,
                "url": "https://api.github.com/repos/PrismarineJS/minecraft-data/issues/comments/133945669/reactions"
            },
            "updated_at": "2015-08-23T22:15:15Z",
            "url": "https://api.github.com/repos/PrismarineJS/minecraft-data/issues/comments/133945669",
            "user": {
                "avatar_url": "https://avatars.githubusercontent.com/u/2346494?v=4",
                "events_url": "https://api.github.com/users/rom1504/events{/privacy}",
                "followers_url": "https://api.github.com/users/rom1504/followers",
                "following_url": "https://api.github.com/users/rom1504/following{/other_user}",
                "gists_url": "https://api.github.com/users/rom1504/gists{/gist_id}",
                "gravatar_id": "",
                "html_url": "https://github.com/rom1504",
                "id": 2346494,
                "login": "rom1504",
                "node_id": "MDQ6VXNlcjIzNDY0OTQ=",
                "organizations_url": "https://api.github.com/users/rom1504/orgs",
                "received_events_url": "https://api.github.com/users/rom1504/received_events",
                "repos_url": "https://api.github.com/users/rom1504/repos",
                "site_admin": false,
                "starred_url": "https://api.github.com/users/rom1504/starred{/owner}{/repo}",
                "subscriptions_url": "https://api.github.com/users/rom1504/subscriptions",
                "type": "User",
                "url": "https://api.github.com/users/rom1504"
            }
        }
    ],
    "comments": 2,
    "comments_url": "https://api.github.com/repos/PrismarineJS/minecraft-data/issues/41/comments",
    "commit_data": [
        {
            "author": {
                "avatar_url": "https://avatars.githubusercontent.com/u/2612164?v=4",
                "events_url": "https://api.github.com/users/Gjum/events{/privacy}",
                "followers_url": "https://api.github.com/users/Gjum/followers",
                "following_url": "https://api.github.com/users/Gjum/following{/other_user}",
                "gists_url": "https://api.github.com/users/Gjum/gists{/gist_id}",
                "gravatar_id": "",
                "html_url": "https://github.com/Gjum",
                "id": 2612164,
                "login": "Gjum",
                "node_id": "MDQ6VXNlcjI2MTIxNjQ=",
                "organizations_url": "https://api.github.com/users/Gjum/orgs",
                "received_events_url": "https://api.github.com/users/Gjum/received_events",
                "repos_url": "https://api.github.com/users/Gjum/repos",
                "site_admin": false,
                "starred_url": "https://api.github.com/users/Gjum/starred{/owner}{/repo}",
                "subscriptions_url": "https://api.github.com/users/Gjum/subscriptions",
                "type": "User",
                "url": "https://api.github.com/users/Gjum"
            },
            "comments_url": "https://api.github.com/repos/PrismarineJS/minecraft-data/commits/2122bee248226a8c2b24cab844005f981b69db9f/comments",
            "commit": {
                "author": {
                    "date": "2015-08-23T21:18:08Z",
                    "email": "code.gjum@gmail.com",
                    "name": "Gjum"
                },
                "comment_count": 0,
                "committer": {
                    "date": "2015-08-23T21:18:08Z",
                    "email": "code.gjum@gmail.com",
                    "name": "Gjum"
                },
                "message": "Add schema for windows.json",
                "tree": {
                    "sha": "94c326ecfed771da7c7dc36c8cc45d00809034ca",
                    "url": "https://api.github.com/repos/PrismarineJS/minecraft-data/git/trees/94c326ecfed771da7c7dc36c8cc45d00809034ca"
                },
                "url": "https://api.github.com/repos/PrismarineJS/minecraft-data/git/commits/2122bee248226a8c2b24cab844005f981b69db9f",
                "verification": {
                    "payload": null,
                    "reason": "unsigned",
                    "signature": null,
                    "verified": false
                }
            },
            "committer": {
                "avatar_url": "https://avatars.githubusercontent.com/u/2612164?v=4",
                "events_url": "https://api.github.com/users/Gjum/events{/privacy}",
                "followers_url": "https://api.github.com/users/Gjum/followers",
                "following_url": "https://api.github.com/users/Gjum/following{/other_user}",
                "gists_url": "https://api.github.com/users/Gjum/gists{/gist_id}",
                "gravatar_id": "",
                "html_url": "https://github.com/Gjum",
                "id": 2612164,
                "login": "Gjum",
                "node_id": "MDQ6VXNlcjI2MTIxNjQ=",
                "organizations_url": "https://api.github.com/users/Gjum/orgs",
                "received_events_url": "https://api.github.com/users/Gjum/received_events",
                "repos_url": "https://api.github.com/users/Gjum/repos",
                "site_admin": false,
                "starred_url": "https://api.github.com/users/Gjum/starred{/owner}{/repo}",
                "subscriptions_url": "https://api.github.com/users/Gjum/subscriptions",
                "type": "User",
                "url": "https://api.github.com/users/Gjum"
            },
            "html_url": "https://github.com/PrismarineJS/minecraft-data/commit/2122bee248226a8c2b24cab844005f981b69db9f",
            "node_id": "MDY6Q29tbWl0MzI4MTg5NDQ6MjEyMmJlZTI0ODIyNmE4YzJiMjRjYWI4NDQwMDVmOTgxYjY5ZGI5Zg==",
            "parents": [
                {
                    "html_url": "https://github.com/PrismarineJS/minecraft-data/commit/f5e890c7eb080525f16323eeb263eb36fe593766",
                    "sha": "f5e890c7eb080525f16323eeb263eb36fe593766",
                    "url": "https://api.github.com/repos/PrismarineJS/minecraft-data/commits/f5e890c7eb080525f16323eeb263eb36fe593766"
                }
            ],
            "sha": "2122bee248226a8c2b24cab844005f981b69db9f",
            "url": "https://api.github.com/repos/PrismarineJS/minecraft-data/commits/2122bee248226a8c2b24cab844005f981b69db9f"
        },
        {
            "author": {
                "avatar_url": "https://avatars.githubusercontent.com/u/2612164?v=4",
                "events_url": "https://api.github.com/users/Gjum/events{/privacy}",
                "followers_url": "https://api.github.com/users/Gjum/followers",
                "following_url": "https://api.github.com/users/Gjum/following{/other_user}",
                "gists_url": "https://api.github.com/users/Gjum/gists{/gist_id}",
                "gravatar_id": "",
                "html_url": "https://github.com/Gjum",
                "id": 2612164,
                "login": "Gjum",
                "node_id": "MDQ6VXNlcjI2MTIxNjQ=",
                "organizations_url": "https://api.github.com/users/Gjum/orgs",
                "received_events_url": "https://api.github.com/users/Gjum/received_events",
                "repos_url": "https://api.github.com/users/Gjum/repos",
                "site_admin": false,
                "starred_url": "https://api.github.com/users/Gjum/starred{/owner}{/repo}",
                "subscriptions_url": "https://api.github.com/users/Gjum/subscriptions",
                "type": "User",
                "url": "https://api.github.com/users/Gjum"
            },
            "comments_url": "https://api.github.com/repos/PrismarineJS/minecraft-data/commits/83f1836c2f4e076688ad2199c8be07f475bff9a6/comments",
            "commit": {
                "author": {
                    "date": "2015-08-23T21:18:20Z",
                    "email": "code.gjum@gmail.com",
                    "name": "Gjum"
                },
                "comment_count": 0,
                "committer": {
                    "date": "2015-08-23T21:18:20Z",
                    "email": "code.gjum@gmail.com",
                    "name": "Gjum"
                },
                "message": "add example windows.json",
                "tree": {
                    "sha": "94e621a4b10c5d4cc909d4aa2c9bac1ee9589982",
                    "url": "https://api.github.com/repos/PrismarineJS/minecraft-data/git/trees/94e621a4b10c5d4cc909d4aa2c9bac1ee9589982"
                },
                "url": "https://api.github.com/repos/PrismarineJS/minecraft-data/git/commits/83f1836c2f4e076688ad2199c8be07f475bff9a6",
                "verification": {
                    "payload": null,
                    "reason": "unsigned",
                    "signature": null,
                    "verified": false
                }
            },
            "committer": {
                "avatar_url": "https://avatars.githubusercontent.com/u/2612164?v=4",
                "events_url": "https://api.github.com/users/Gjum/events{/privacy}",
                "followers_url": "https://api.github.com/users/Gjum/followers",
                "following_url": "https://api.github.com/users/Gjum/following{/other_user}",
                "gists_url": "https://api.github.com/users/Gjum/gists{/gist_id}",
                "gravatar_id": "",
                "html_url": "https://github.com/Gjum",
                "id": 2612164,
                "login": "Gjum",
                "node_id": "MDQ6VXNlcjI2MTIxNjQ=",
                "organizations_url": "https://api.github.com/users/Gjum/orgs",
                "received_events_url": "https://api.github.com/users/Gjum/received_events",
                "repos_url": "https://api.github.com/users/Gjum/repos",
                "site_admin": false,
                "starred_url": "https://api.github.com/users/Gjum/starred{/owner}{/repo}",
                "subscriptions_url": "https://api.github.com/users/Gjum/subscriptions",
                "type": "User",
                "url": "https://api.github.com/users/Gjum"
            },
            "html_url": "https://github.com/PrismarineJS/minecraft-data/commit/83f1836c2f4e076688ad2199c8be07f475bff9a6",
            "node_id": "MDY6Q29tbWl0MzI4MTg5NDQ6ODNmMTgzNmMyZjRlMDc2Njg4YWQyMTk5YzhiZTA3ZjQ3NWJmZjlhNg==",
            "parents": [
                {
                    "html_url": "https://github.com/PrismarineJS/minecraft-data/commit/2122bee248226a8c2b24cab844005f981b69db9f",
                    "sha": "2122bee248226a8c2b24cab844005f981b69db9f",
                    "url": "https://api.github.com/repos/PrismarineJS/minecraft-data/commits/2122bee248226a8c2b24cab844005f981b69db9f"
                }
            ],
            "sha": "83f1836c2f4e076688ad2199c8be07f475bff9a6",
            "url": "https://api.github.com/repos/PrismarineJS/minecraft-data/commits/83f1836c2f4e076688ad2199c8be07f475bff9a6"
        },
        {
            "author": {
                "avatar_url": "https://avatars.githubusercontent.com/u/2612164?v=4",
                "events_url": "https://api.github.com/users/Gjum/events{/privacy}",
                "followers_url": "https://api.github.com/users/Gjum/followers",
                "following_url": "https://api.github.com/users/Gjum/following{/other_user}",
                "gists_url": "https://api.github.com/users/Gjum/gists{/gist_id}",
                "gravatar_id": "",
                "html_url": "https://github.com/Gjum",
                "id": 2612164,
                "login": "Gjum",
                "node_id": "MDQ6VXNlcjI2MTIxNjQ=",
                "organizations_url": "https://api.github.com/users/Gjum/orgs",
                "received_events_url": "https://api.github.com/users/Gjum/received_events",
                "repos_url": "https://api.github.com/users/Gjum/repos",
                "site_admin": false,
                "starred_url": "https://api.github.com/users/Gjum/starred{/owner}{/repo}",
                "subscriptions_url": "https://api.github.com/users/Gjum/subscriptions",
                "type": "User",
                "url": "https://api.github.com/users/Gjum"
            },
            "comments_url": "https://api.github.com/repos/PrismarineJS/minecraft-data/commits/d183be831ad2b4f71f834d35d45095f6ee89a750/comments",
            "commit": {
                "author": {
                    "date": "2015-08-23T21:18:29Z",
                    "email": "code.gjum@gmail.com",
                    "name": "Gjum"
                },
                "comment_count": 0,
                "committer": {
                    "date": "2015-08-23T21:18:29Z",
                    "email": "code.gjum@gmail.com",
                    "name": "Gjum"
                },
                "message": "Add windows.json to tests",
                "tree": {
                    "sha": "fde6f17d6b71ed0cdc0a5c34e4ef4dbaca5b805c",
                    "url": "https://api.github.com/repos/PrismarineJS/minecraft-data/git/trees/fde6f17d6b71ed0cdc0a5c34e4ef4dbaca5b805c"
                },
                "url": "https://api.github.com/repos/PrismarineJS/minecraft-data/git/commits/d183be831ad2b4f71f834d35d45095f6ee89a750",
                "verification": {
                    "payload": null,
                    "reason": "unsigned",
                    "signature": null,
                    "verified": false
                }
            },
            "committer": {
                "avatar_url": "https://avatars.githubusercontent.com/u/2612164?v=4",
                "events_url": "https://api.github.com/users/Gjum/events{/privacy}",
                "followers_url": "https://api.github.com/users/Gjum/followers",
                "following_url": "https://api.github.com/users/Gjum/following{/other_user}",
                "gists_url": "https://api.github.com/users/Gjum/gists{/gist_id}",
                "gravatar_id": "",
                "html_url": "https://github.com/Gjum",
                "id": 2612164,
                "login": "Gjum",
                "node_id": "MDQ6VXNlcjI2MTIxNjQ=",
                "organizations_url": "https://api.github.com/users/Gjum/orgs",
                "received_events_url": "https://api.github.com/users/Gjum/received_events",
                "repos_url": "https://api.github.com/users/Gjum/repos",
                "site_admin": false,
                "starred_url": "https://api.github.com/users/Gjum/starred{/owner}{/repo}",
                "subscriptions_url": "https://api.github.com/users/Gjum/subscriptions",
                "type": "User",
                "url": "https://api.github.com/users/Gjum"
            },
            "html_url": "https://github.com/PrismarineJS/minecraft-data/commit/d183be831ad2b4f71f834d35d45095f6ee89a750",
            "node_id": "MDY6Q29tbWl0MzI4MTg5NDQ6ZDE4M2JlODMxYWQyYjRmNzFmODM0ZDM1ZDQ1MDk1ZjZlZTg5YTc1MA==",
            "parents": [
                {
                    "html_url": "https://github.com/PrismarineJS/minecraft-data/commit/83f1836c2f4e076688ad2199c8be07f475bff9a6",
                    "sha": "83f1836c2f4e076688ad2199c8be07f475bff9a6",
                    "url": "https://api.github.com/repos/PrismarineJS/minecraft-data/commits/83f1836c2f4e076688ad2199c8be07f475bff9a6"
                }
            ],
            "sha": "d183be831ad2b4f71f834d35d45095f6ee89a750",
            "url": "https://api.github.com/repos/PrismarineJS/minecraft-data/commits/d183be831ad2b4f71f834d35d45095f6ee89a750"
        },
        {
            "author": {
                "avatar_url": "https://avatars.githubusercontent.com/u/2612164?v=4",
                "events_url": "https://api.github.com/users/Gjum/events{/privacy}",
                "followers_url": "https://api.github.com/users/Gjum/followers",
                "following_url": "https://api.github.com/users/Gjum/following{/other_user}",
                "gists_url": "https://api.github.com/users/Gjum/gists{/gist_id}",
                "gravatar_id": "",
                "html_url": "https://github.com/Gjum",
                "id": 2612164,
                "login": "Gjum",
                "node_id": "MDQ6VXNlcjI2MTIxNjQ=",
                "organizations_url": "https://api.github.com/users/Gjum/orgs",
                "received_events_url": "https://api.github.com/users/Gjum/received_events",
                "repos_url": "https://api.github.com/users/Gjum/repos",
                "site_admin": false,
                "starred_url": "https://api.github.com/users/Gjum/starred{/owner}{/repo}",
                "subscriptions_url": "https://api.github.com/users/Gjum/subscriptions",
                "type": "User",
                "url": "https://api.github.com/users/Gjum"
            },
            "comments_url": "https://api.github.com/repos/PrismarineJS/minecraft-data/commits/3064db80fb4a09f64319fa9d51c7a2bf4778746b/comments",
            "commit": {
                "author": {
                    "date": "2015-08-23T21:25:18Z",
                    "email": "code.gjum@gmail.com",
                    "name": "Gjum"
                },
                "comment_count": 0,
                "committer": {
                    "date": "2015-08-23T21:25:18Z",
                    "email": "code.gjum@gmail.com",
                    "name": "Gjum"
                },
                "message": "Add \"minItems\": 1 to all arrays\n\nprevents accidentally leaving behind unnecessary empty arrays",
                "tree": {
                    "sha": "f8a4ecd6550ca2f3bf461b2758786509c6b45b8b",
                    "url": "https://api.github.com/repos/PrismarineJS/minecraft-data/git/trees/f8a4ecd6550ca2f3bf461b2758786509c6b45b8b"
                },
                "url": "https://api.github.com/repos/PrismarineJS/minecraft-data/git/commits/3064db80fb4a09f64319fa9d51c7a2bf4778746b",
                "verification": {
                    "payload": null,
                    "reason": "unsigned",
                    "signature": null,
                    "verified": false
                }
            },
            "committer": {
                "avatar_url": "https://avatars.githubusercontent.com/u/2612164?v=4",
                "events_url": "https://api.github.com/users/Gjum/events{/privacy}",
                "followers_url": "https://api.github.com/users/Gjum/followers",
                "following_url": "https://api.github.com/users/Gjum/following{/other_user}",
                "gists_url": "https://api.github.com/users/Gjum/gists{/gist_id}",
                "gravatar_id": "",
                "html_url": "https://github.com/Gjum",
                "id": 2612164,
                "login": "Gjum",
                "node_id": "MDQ6VXNlcjI2MTIxNjQ=",
                "organizations_url": "https://api.github.com/users/Gjum/orgs",
                "received_events_url": "https://api.github.com/users/Gjum/received_events",
                "repos_url": "https://api.github.com/users/Gjum/repos",
                "site_admin": false,
                "starred_url": "https://api.github.com/users/Gjum/starred{/owner}{/repo}",
                "subscriptions_url": "https://api.github.com/users/Gjum/subscriptions",
                "type": "User",
                "url": "https://api.github.com/users/Gjum"
            },
            "html_url": "https://github.com/PrismarineJS/minecraft-data/commit/3064db80fb4a09f64319fa9d51c7a2bf4778746b",
            "node_id": "MDY6Q29tbWl0MzI4MTg5NDQ6MzA2NGRiODBmYjRhMDlmNjQzMTlmYTlkNTFjN2EyYmY0Nzc4NzQ2Yg==",
            "parents": [
                {
                    "html_url": "https://github.com/PrismarineJS/minecraft-data/commit/d183be831ad2b4f71f834d35d45095f6ee89a750",
                    "sha": "d183be831ad2b4f71f834d35d45095f6ee89a750",
                    "url": "https://api.github.com/repos/PrismarineJS/minecraft-data/commits/d183be831ad2b4f71f834d35d45095f6ee89a750"
                }
            ],
            "sha": "3064db80fb4a09f64319fa9d51c7a2bf4778746b",
            "url": "https://api.github.com/repos/PrismarineJS/minecraft-data/commits/3064db80fb4a09f64319fa9d51c7a2bf4778746b"
        }
    ],
    "commits": 4,
    "commits_url": "https://api.github.com/repos/PrismarineJS/minecraft-data/pulls/41/commits",
    "created_at": "2015-08-23T21:19:26Z",
    "deletions": 1,
    "diff_url": "https://github.com/PrismarineJS/minecraft-data/pull/41.diff",
    "draft": false,
    "head": {
        "label": "Gjum:windows",
        "ref": "windows",
        "repo": {
            "allow_forking": true,
            "archive_url": "https://api.github.com/repos/Gjum/minecraft-data/{archive_format}{/ref}",
            "archived": false,
            "assignees_url": "https://api.github.com/repos/Gjum/minecraft-data/assignees{/user}",
            "blobs_url": "https://api.github.com/repos/Gjum/minecraft-data/git/blobs{/sha}",
            "branches_url": "https://api.github.com/repos/Gjum/minecraft-data/branches{/branch}",
            "clone_url": "https://github.com/Gjum/minecraft-data.git",
            "collaborators_url": "https://api.github.com/repos/Gjum/minecraft-data/collaborators{/collaborator}",
            "comments_url": "https://api.github.com/repos/Gjum/minecraft-data/comments{/number}",
            "commits_url": "https://api.github.com/repos/Gjum/minecraft-data/commits{/sha}",
            "compare_url": "https://api.github.com/repos/Gjum/minecraft-data/compare/{base}...{head}",
            "contents_url": "https://api.github.com/repos/Gjum/minecraft-data/contents/{+path}",
            "contributors_url": "https://api.github.com/repos/Gjum/minecraft-data/contributors",
            "created_at": "2015-03-24T19:03:34Z",
            "default_branch": "master",
            "deployments_url": "https://api.github.com/repos/Gjum/minecraft-data/deployments",
            "description": "Provide minecraft data for minecraft clients, servers and libraries.",
            "disabled": false,
            "downloads_url": "https://api.github.com/repos/Gjum/minecraft-data/downloads",
            "events_url": "https://api.github.com/repos/Gjum/minecraft-data/events",
            "fork": true,
            "forks": 0,
            "forks_count": 0,
            "forks_url": "https://api.github.com/repos/Gjum/minecraft-data/forks",
            "full_name": "Gjum/minecraft-data",
            "git_commits_url": "https://api.github.com/repos/Gjum/minecraft-data/git/commits{/sha}",
            "git_refs_url": "https://api.github.com/repos/Gjum/minecraft-data/git/refs{/sha}",
            "git_tags_url": "https://api.github.com/repos/Gjum/minecraft-data/git/tags{/sha}",
            "git_url": "git://github.com/Gjum/minecraft-data.git",
            "has_discussions": false,
            "has_downloads": true,
            "has_issues": false,
            "has_pages": false,
            "has_projects": true,
            "has_wiki": true,
            "homepage": "",
            "hooks_url": "https://api.github.com/repos/Gjum/minecraft-data/hooks",
            "html_url": "https://github.com/Gjum/minecraft-data",
            "id": 32818944,
            "is_template": false,
            "issue_comment_url": "https://api.github.com/repos/Gjum/minecraft-data/issues/comments{/number}",
            "issue_events_url": "https://api.github.com/repos/Gjum/minecraft-data/issues/events{/number}",
            "issues_url": "https://api.github.com/repos/Gjum/minecraft-data/issues{/number}",
            "keys_url": "https://api.github.com/repos/Gjum/minecraft-data/keys{/key_id}",
            "labels_url": "https://api.github.com/repos/Gjum/minecraft-data/labels{/name}",
            "language": "JavaScript",
            "languages_url": "https://api.github.com/repos/Gjum/minecraft-data/languages",
            "license": null,
            "merges_url": "https://api.github.com/repos/Gjum/minecraft-data/merges",
            "milestones_url": "https://api.github.com/repos/Gjum/minecraft-data/milestones{/number}",
            "mirror_url": null,
            "name": "minecraft-data",
            "node_id": "MDEwOlJlcG9zaXRvcnkzMjgxODk0NA==",
            "notifications_url": "https://api.github.com/repos/Gjum/minecraft-data/notifications{?since,all,participating}",
            "open_issues": 0,
            "open_issues_count": 0,
            "owner": {
                "avatar_url": "https://avatars.githubusercontent.com/u/2612164?v=4",
                "events_url": "https://api.github.com/users/Gjum/events{/privacy}",
                "followers_url": "https://api.github.com/users/Gjum/followers",
                "following_url": "https://api.github.com/users/Gjum/following{/other_user}",
                "gists_url": "https://api.github.com/users/Gjum/gists{/gist_id}",
                "gravatar_id": "",
                "html_url": "https://github.com/Gjum",
                "id": 2612164,
                "login": "Gjum",
                "node_id": "MDQ6VXNlcjI2MTIxNjQ=",
                "organizations_url": "https://api.github.com/users/Gjum/orgs",
                "received_events_url": "https://api.github.com/users/Gjum/received_events",
                "repos_url": "https://api.github.com/users/Gjum/repos",
                "site_admin": false,
                "starred_url": "https://api.github.com/users/Gjum/starred{/owner}{/repo}",
                "subscriptions_url": "https://api.github.com/users/Gjum/subscriptions",
                "type": "User",
                "url": "https://api.github.com/users/Gjum"
            },
            "private": false,
            "pulls_url": "https://api.github.com/repos/Gjum/minecraft-data/pulls{/number}",
            "pushed_at": "2021-06-16T21:34:12Z",
            "releases_url": "https://api.github.com/repos/Gjum/minecraft-data/releases{/id}",
            "size": 1566,
            "ssh_url": "git@github.com:Gjum/minecraft-data.git",
            "stargazers_count": 0,
            "stargazers_url": "https://api.github.com/repos/Gjum/minecraft-data/stargazers",
            "statuses_url": "https://api.github.com/repos/Gjum/minecraft-data/statuses/{sha}",
            "subscribers_url": "https://api.github.com/repos/Gjum/minecraft-data/subscribers",
            "subscription_url": "https://api.github.com/repos/Gjum/minecraft-data/subscription",
            "svn_url": "https://github.com/Gjum/minecraft-data",
            "tags_url": "https://api.github.com/repos/Gjum/minecraft-data/tags",
            "teams_url": "https://api.github.com/repos/Gjum/minecraft-data/teams",
            "topics": [],
            "trees_url": "https://api.github.com/repos/Gjum/minecraft-data/git/trees{/sha}",
            "updated_at": "2020-04-21T21:37:25Z",
            "url": "https://api.github.com/repos/Gjum/minecraft-data",
            "visibility": "public",
            "watchers": 0,
            "watchers_count": 0,
            "web_commit_signoff_required": false
        },
        "sha": "3064db80fb4a09f64319fa9d51c7a2bf4778746b",
        "user": {
            "avatar_url": "https://avatars.githubusercontent.com/u/2612164?v=4",
            "events_url": "https://api.github.com/users/Gjum/events{/privacy}",
            "followers_url": "https://api.github.com/users/Gjum/followers",
            "following_url": "https://api.github.com/users/Gjum/following{/other_user}",
            "gists_url": "https://api.github.com/users/Gjum/gists{/gist_id}",
            "gravatar_id": "",
            "html_url": "https://github.com/Gjum",
            "id": 2612164,
            "login": "Gjum",
            "node_id": "MDQ6VXNlcjI2MTIxNjQ=",
            "organizations_url": "https://api.github.com/users/Gjum/orgs",
            "received_events_url": "https://api.github.com/users/Gjum/received_events",
            "repos_url": "https://api.github.com/users/Gjum/repos",
            "site_admin": false,
            "starred_url": "https://api.github.com/users/Gjum/starred{/owner}{/repo}",
            "subscriptions_url": "https://api.github.com/users/Gjum/subscriptions",
            "type": "User",
            "url": "https://api.github.com/users/Gjum"
        }
    },
    "html_url": "https://github.com/PrismarineJS/minecraft-data/pull/41",
    "id": 43128769,
    "issue_url": "https://api.github.com/repos/PrismarineJS/minecraft-data/issues/41",
    "labels": [],
    "locked": false,
    "maintainer_can_modify": false,
    "merge_commit_sha": "213aac4cd7a5db32b3f002040d76aa70516b371d",
    "mergeable": false,
    "mergeable_state": "dirty",
    "merged": true,
    "merged_at": "2015-08-25T00:11:55Z",
    "merged_by": {
        "avatar_url": "https://avatars.githubusercontent.com/u/2346494?v=4",
        "events_url": "https://api.github.com/users/rom1504/events{/privacy}",
        "followers_url": "https://api.github.com/users/rom1504/followers",
        "following_url": "https://api.github.com/users/rom1504/following{/other_user}",
        "gists_url": "https://api.github.com/users/rom1504/gists{/gist_id}",
        "gravatar_id": "",
        "html_url": "https://github.com/rom1504",
        "id": 2346494,
        "login": "rom1504",
        "node_id": "MDQ6VXNlcjIzNDY0OTQ=",
        "organizations_url": "https://api.github.com/users/rom1504/orgs",
        "received_events_url": "https://api.github.com/users/rom1504/received_events",
        "repos_url": "https://api.github.com/users/rom1504/repos",
        "site_admin": false,
        "starred_url": "https://api.github.com/users/rom1504/starred{/owner}{/repo}",
        "subscriptions_url": "https://api.github.com/users/rom1504/subscriptions",
        "type": "User",
        "url": "https://api.github.com/users/rom1504"
    },
    "milestone": null,
    "node_id": "MDExOlB1bGxSZXF1ZXN0NDMxMjg3Njk=",
    "number": 41,
    "patch_url": "https://github.com/PrismarineJS/minecraft-data/pull/41.patch",
    "rebaseable": false,
    "requested_reviewers": [],
    "requested_teams": [],
    "review_comment_url": "https://api.github.com/repos/PrismarineJS/minecraft-data/pulls/comments{/number}",
    "review_comments": 0,
    "review_comments_url": "https://api.github.com/repos/PrismarineJS/minecraft-data/pulls/41/comments",
    "state": "closed",
    "statuses_url": "https://api.github.com/repos/PrismarineJS/minecraft-data/statuses/3064db80fb4a09f64319fa9d51c7a2bf4778746b",
    "title": "Windows",
    "updated_at": "2015-08-25T00:11:55Z",
    "url": "https://api.github.com/repos/PrismarineJS/minecraft-data/pulls/41",
    "user": {
        "avatar_url": "https://avatars.githubusercontent.com/u/2612164?v=4",
        "events_url": "https://api.github.com/users/Gjum/events{/privacy}",
        "followers_url": "https://api.github.com/users/Gjum/followers",
        "following_url": "https://api.github.com/users/Gjum/following{/other_user}",
        "gists_url": "https://api.github.com/users/Gjum/gists{/gist_id}",
        "gravatar_id": "",
        "html_url": "https://github.com/Gjum",
        "id": 2612164,
        "login": "Gjum",
        "node_id": "MDQ6VXNlcjI2MTIxNjQ=",
        "organizations_url": "https://api.github.com/users/Gjum/orgs",
        "received_events_url": "https://api.github.com/users/Gjum/received_events",
        "repos_url": "https://api.github.com/users/Gjum/repos",
        "site_admin": false,
        "starred_url": "https://api.github.com/users/Gjum/starred{/owner}{/repo}",
        "subscriptions_url": "https://api.github.com/users/Gjum/subscriptions",
        "type": "User",
        "url": "https://api.github.com/users/Gjum"
    }
}