{
    "_links": {
        "comments": {
            "href": "https://api.github.com/repos/PrismarineJS/minecraft-data/issues/466/comments"
        },
        "commits": {
            "href": "https://api.github.com/repos/PrismarineJS/minecraft-data/pulls/466/commits"
        },
        "html": {
            "href": "https://github.com/PrismarineJS/minecraft-data/pull/466"
        },
        "issue": {
            "href": "https://api.github.com/repos/PrismarineJS/minecraft-data/issues/466"
        },
        "review_comment": {
            "href": "https://api.github.com/repos/PrismarineJS/minecraft-data/pulls/comments{/number}"
        },
        "review_comments": {
            "href": "https://api.github.com/repos/PrismarineJS/minecraft-data/pulls/466/comments"
        },
        "self": {
            "href": "https://api.github.com/repos/PrismarineJS/minecraft-data/pulls/466"
        },
        "statuses": {
            "href": "https://api.github.com/repos/PrismarineJS/minecraft-data/statuses/d4e7daa3295c0a70ba44b0d93f0f5deff3dba5c8"
        }
    },
    "active_lock_reason": null,
    "additions": 3,
    "assignee": null,
    "assignees": [],
    "author_association": "MEMBER",
    "auto_merge": null,
    "base": {
        "label": "PrismarineJS:master",
        "ref": "master",
        "repo": {
            "allow_forking": true,
            "archive_url": "https://api.github.com/repos/PrismarineJS/minecraft-data/{archive_format}{/ref}",
            "archived": false,
            "assignees_url": "https://api.github.com/repos/PrismarineJS/minecraft-data/assignees{/user}",
            "blobs_url": "https://api.github.com/repos/PrismarineJS/minecraft-data/git/blobs{/sha}",
            "branches_url": "https://api.github.com/repos/PrismarineJS/minecraft-data/branches{/branch}",
            "clone_url": "https://github.com/PrismarineJS/minecraft-data.git",
            "collaborators_url": "https://api.github.com/repos/PrismarineJS/minecraft-data/collaborators{/collaborator}",
            "comments_url": "https://api.github.com/repos/PrismarineJS/minecraft-data/comments{/number}",
            "commits_url": "https://api.github.com/repos/PrismarineJS/minecraft-data/commits{/sha}",
            "compare_url": "https://api.github.com/repos/PrismarineJS/minecraft-data/compare/{base}...{head}",
            "contents_url": "https://api.github.com/repos/PrismarineJS/minecraft-data/contents/{+path}",
            "contributors_url": "https://api.github.com/repos/PrismarineJS/minecraft-data/contributors",
            "created_at": "2015-03-23T15:38:19Z",
            "default_branch": "master",
            "deployments_url": "https://api.github.com/repos/PrismarineJS/minecraft-data/deployments",
            "description": "Language independent module providing minecraft data for minecraft clients, servers and libraries.",
            "disabled": false,
            "downloads_url": "https://api.github.com/repos/PrismarineJS/minecraft-data/downloads",
            "events_url": "https://api.github.com/repos/PrismarineJS/minecraft-data/events",
            "fork": false,
            "forks": 184,
            "forks_count": 184,
            "forks_url": "https://api.github.com/repos/PrismarineJS/minecraft-data/forks",
            "full_name": "PrismarineJS/minecraft-data",
            "git_commits_url": "https://api.github.com/repos/PrismarineJS/minecraft-data/git/commits{/sha}",
            "git_refs_url": "https://api.github.com/repos/PrismarineJS/minecraft-data/git/refs{/sha}",
            "git_tags_url": "https://api.github.com/repos/PrismarineJS/minecraft-data/git/tags{/sha}",
            "git_url": "git://github.com/PrismarineJS/minecraft-data.git",
            "has_discussions": false,
            "has_downloads": true,
            "has_issues": true,
            "has_pages": true,
            "has_projects": true,
            "has_wiki": true,
            "homepage": "https://prismarinejs.github.io/minecraft-data",
            "hooks_url": "https://api.github.com/repos/PrismarineJS/minecraft-data/hooks",
            "html_url": "https://github.com/PrismarineJS/minecraft-data",
            "id": 32741498,
            "is_template": false,
            "issue_comment_url": "https://api.github.com/repos/PrismarineJS/minecraft-data/issues/comments{/number}",
            "issue_events_url": "https://api.github.com/repos/PrismarineJS/minecraft-data/issues/events{/number}",
            "issues_url": "https://api.github.com/repos/PrismarineJS/minecraft-data/issues{/number}",
            "keys_url": "https://api.github.com/repos/PrismarineJS/minecraft-data/keys{/key_id}",
            "labels_url": "https://api.github.com/repos/PrismarineJS/minecraft-data/labels{/name}",
            "language": "JavaScript",
            "languages_url": "https://api.github.com/repos/PrismarineJS/minecraft-data/languages",
            "license": null,
            "merges_url": "https://api.github.com/repos/PrismarineJS/minecraft-data/merges",
            "milestones_url": "https://api.github.com/repos/PrismarineJS/minecraft-data/milestones{/number}",
            "mirror_url": null,
            "name": "minecraft-data",
            "node_id": "MDEwOlJlcG9zaXRvcnkzMjc0MTQ5OA==",
            "notifications_url": "https://api.github.com/repos/PrismarineJS/minecraft-data/notifications{?since,all,participating}",
            "open_issues": 113,
            "open_issues_count": 113,
            "owner": {
                "avatar_url": "https://avatars.githubusercontent.com/u/11053411?v=4",
                "events_url": "https://api.github.com/users/PrismarineJS/events{/privacy}",
                "followers_url": "https://api.github.com/users/PrismarineJS/followers",
                "following_url": "https://api.github.com/users/PrismarineJS/following{/other_user}",
                "gists_url": "https://api.github.com/users/PrismarineJS/gists{/gist_id}",
                "gravatar_id": "",
                "html_url": "https://github.com/PrismarineJS",
                "id": 11053411,
                "login": "PrismarineJS",
                "node_id": "MDEyOk9yZ2FuaXphdGlvbjExMDUzNDEx",
                "organizations_url": "https://api.github.com/users/PrismarineJS/orgs",
                "received_events_url": "https://api.github.com/users/PrismarineJS/received_events",
                "repos_url": "https://api.github.com/users/PrismarineJS/repos",
                "site_admin": false,
                "starred_url": "https://api.github.com/users/PrismarineJS/starred{/owner}{/repo}",
                "subscriptions_url": "https://api.github.com/users/PrismarineJS/subscriptions",
                "type": "Organization",
                "url": "https://api.github.com/users/PrismarineJS"
            },
            "private": false,
            "pulls_url": "https://api.github.com/repos/PrismarineJS/minecraft-data/pulls{/number}",
            "pushed_at": "2023-04-08T18:30:50Z",
            "releases_url": "https://api.github.com/repos/PrismarineJS/minecraft-data/releases{/id}",
            "size": 134084,
            "ssh_url": "git@github.com:PrismarineJS/minecraft-data.git",
            "stargazers_count": 473,
            "stargazers_url": "https://api.github.com/repos/PrismarineJS/minecraft-data/stargazers",
            "statuses_url": "https://api.github.com/repos/PrismarineJS/minecraft-data/statuses/{sha}",
            "subscribers_url": "https://api.github.com/repos/PrismarineJS/minecraft-data/subscribers",
            "subscription_url": "https://api.github.com/repos/PrismarineJS/minecraft-data/subscription",
            "svn_url": "https://github.com/PrismarineJS/minecraft-data",
            "tags_url": "https://api.github.com/repos/PrismarineJS/minecraft-data/tags",
            "teams_url": "https://api.github.com/repos/PrismarineJS/minecraft-data/teams",
            "topics": [
                "data",
                "minecraft"
            ],
            "trees_url": "https://api.github.com/repos/PrismarineJS/minecraft-data/git/trees{/sha}",
            "updated_at": "2023-04-24T04:11:18Z",
            "url": "https://api.github.com/repos/PrismarineJS/minecraft-data",
            "visibility": "public",
            "watchers": 473,
            "watchers_count": 473,
            "web_commit_signoff_required": false
        },
        "sha": "8f43a6327339389e2516230bb0cfb86d27b0e00f",
        "user": {
            "avatar_url": "https://avatars.githubusercontent.com/u/11053411?v=4",
            "events_url": "https://api.github.com/users/PrismarineJS/events{/privacy}",
            "followers_url": "https://api.github.com/users/PrismarineJS/followers",
            "following_url": "https://api.github.com/users/PrismarineJS/following{/other_user}",
            "gists_url": "https://api.github.com/users/PrismarineJS/gists{/gist_id}",
            "gravatar_id": "",
            "html_url": "https://github.com/PrismarineJS",
            "id": 11053411,
            "login": "PrismarineJS",
            "node_id": "MDEyOk9yZ2FuaXphdGlvbjExMDUzNDEx",
            "organizations_url": "https://api.github.com/users/PrismarineJS/orgs",
            "received_events_url": "https://api.github.com/users/PrismarineJS/received_events",
            "repos_url": "https://api.github.com/users/PrismarineJS/repos",
            "site_admin": false,
            "starred_url": "https://api.github.com/users/PrismarineJS/starred{/owner}{/repo}",
            "subscriptions_url": "https://api.github.com/users/PrismarineJS/subscriptions",
            "type": "Organization",
            "url": "https://api.github.com/users/PrismarineJS"
        }
    },
    "body": null,
    "changed_files": 1,
    "closed_at": "2021-09-25T13:54:08Z",
    "comment_data": [],
    "comment_regular_data": [
        {
            "author_association": "MEMBER",
            "body": "2.93.1 is not right for 2 reasons:\r\n1. this is a new feature so it should be 2.94.0\r\n2. there is already a 2.93.1 in nmd",
            "created_at": "2021-09-25T13:52:36Z",
            "html_url": "https://github.com/PrismarineJS/minecraft-data/pull/466#issuecomment-927124636",
            "id": 927124636,
            "issue_url": "https://api.github.com/repos/PrismarineJS/minecraft-data/issues/466",
            "node_id": "IC_kwDOAfOYes43Qsyc",
            "performed_via_github_app": null,
            "reactions": {
                "+1": 0,
                "-1": 0,
                "confused": 0,
                "eyes": 0,
                "heart": 0,
                "hooray": 0,
                "laugh": 0,
                "rocket": 0,
                "total_count": 0,
                "url": "https://api.github.com/repos/PrismarineJS/minecraft-data/issues/comments/927124636/reactions"
            },
            "updated_at": "2021-09-25T13:52:36Z",
            "url": "https://api.github.com/repos/PrismarineJS/minecraft-data/issues/comments/927124636",
            "user": {
                "avatar_url": "https://avatars.githubusercontent.com/u/2346494?v=4",
                "events_url": "https://api.github.com/users/rom1504/events{/privacy}",
                "followers_url": "https://api.github.com/users/rom1504/followers",
                "following_url": "https://api.github.com/users/rom1504/following{/other_user}",
                "gists_url": "https://api.github.com/users/rom1504/gists{/gist_id}",
                "gravatar_id": "",
                "html_url": "https://github.com/rom1504",
                "id": 2346494,
                "login": "rom1504",
                "node_id": "MDQ6VXNlcjIzNDY0OTQ=",
                "organizations_url": "https://api.github.com/users/rom1504/orgs",
                "received_events_url": "https://api.github.com/users/rom1504/received_events",
                "repos_url": "https://api.github.com/users/rom1504/repos",
                "site_admin": false,
                "starred_url": "https://api.github.com/users/rom1504/starred{/owner}{/repo}",
                "subscriptions_url": "https://api.github.com/users/rom1504/subscriptions",
                "type": "User",
                "url": "https://api.github.com/users/rom1504"
            }
        },
        {
            "author_association": "MEMBER",
            "body": "I pushed 2.94.0",
            "created_at": "2021-09-25T13:54:07Z",
            "html_url": "https://github.com/PrismarineJS/minecraft-data/pull/466#issuecomment-927124856",
            "id": 927124856,
            "issue_url": "https://api.github.com/repos/PrismarineJS/minecraft-data/issues/466",
            "node_id": "IC_kwDOAfOYes43Qs14",
            "performed_via_github_app": null,
            "reactions": {
                "+1": 0,
                "-1": 0,
                "confused": 0,
                "eyes": 0,
                "heart": 0,
                "hooray": 0,
                "laugh": 0,
                "rocket": 0,
                "total_count": 0,
                "url": "https://api.github.com/repos/PrismarineJS/minecraft-data/issues/comments/927124856/reactions"
            },
            "updated_at": "2021-09-25T13:54:07Z",
            "url": "https://api.github.com/repos/PrismarineJS/minecraft-data/issues/comments/927124856",
            "user": {
                "avatar_url": "https://avatars.githubusercontent.com/u/2346494?v=4",
                "events_url": "https://api.github.com/users/rom1504/events{/privacy}",
                "followers_url": "https://api.github.com/users/rom1504/followers",
                "following_url": "https://api.github.com/users/rom1504/following{/other_user}",
                "gists_url": "https://api.github.com/users/rom1504/gists{/gist_id}",
                "gravatar_id": "",
                "html_url": "https://github.com/rom1504",
                "id": 2346494,
                "login": "rom1504",
                "node_id": "MDQ6VXNlcjIzNDY0OTQ=",
                "organizations_url": "https://api.github.com/users/rom1504/orgs",
                "received_events_url": "https://api.github.com/users/rom1504/received_events",
                "repos_url": "https://api.github.com/users/rom1504/repos",
                "site_admin": false,
                "starred_url": "https://api.github.com/users/rom1504/starred{/owner}{/repo}",
                "subscriptions_url": "https://api.github.com/users/rom1504/subscriptions",
                "type": "User",
                "url": "https://api.github.com/users/rom1504"
            }
        }
    ],
    "comments": 2,
    "comments_url": "https://api.github.com/repos/PrismarineJS/minecraft-data/issues/466/comments",
    "commit_data": [
        {
            "author": {
                "avatar_url": "https://avatars.githubusercontent.com/u/13713600?v=4",
                "events_url": "https://api.github.com/users/extremeheat/events{/privacy}",
                "followers_url": "https://api.github.com/users/extremeheat/followers",
                "following_url": "https://api.github.com/users/extremeheat/following{/other_user}",
                "gists_url": "https://api.github.com/users/extremeheat/gists{/gist_id}",
                "gravatar_id": "",
                "html_url": "https://github.com/extremeheat",
                "id": 13713600,
                "login": "extremeheat",
                "node_id": "MDQ6VXNlcjEzNzEzNjAw",
                "organizations_url": "https://api.github.com/users/extremeheat/orgs",
                "received_events_url": "https://api.github.com/users/extremeheat/received_events",
                "repos_url": "https://api.github.com/users/extremeheat/repos",
                "site_admin": false,
                "starred_url": "https://api.github.com/users/extremeheat/starred{/owner}{/repo}",
                "subscriptions_url": "https://api.github.com/users/extremeheat/subscriptions",
                "type": "User",
                "url": "https://api.github.com/users/extremeheat"
            },
            "comments_url": "https://api.github.com/repos/PrismarineJS/minecraft-data/commits/d4e7daa3295c0a70ba44b0d93f0f5deff3dba5c8/comments",
            "commit": {
                "author": {
                    "date": "2021-09-24T23:18:49Z",
                    "email": "extreme@protonmail.ch",
                    "name": "extremeheat"
                },
                "comment_count": 0,
                "committer": {
                    "date": "2021-09-24T23:18:49Z",
                    "email": "noreply@github.com",
                    "name": "GitHub"
                },
                "message": "Release 2.93.1",
                "tree": {
                    "sha": "b7581e78885ebfffcadb95365c419df313a2888b",
                    "url": "https://api.github.com/repos/PrismarineJS/minecraft-data/git/trees/b7581e78885ebfffcadb95365c419df313a2888b"
                },
                "url": "https://api.github.com/repos/PrismarineJS/minecraft-data/git/commits/d4e7daa3295c0a70ba44b0d93f0f5deff3dba5c8",
                "verification": {
                    "payload": "tree b7581e78885ebfffcadb95365c419df313a2888b\nparent 8f43a6327339389e2516230bb0cfb86d27b0e00f\nauthor extremeheat <extreme@protonmail.ch> 1632525529 -0400\ncommitter GitHub <noreply@github.com> 1632525529 -0400\n\nRelease 2.93.1",
                    "reason": "valid",
                    "signature": "-----BEGIN PGP SIGNATURE-----\n\nwsBcBAABCAAQBQJhTlzZCRBK7hj4Ov3rIwAArkgIAKlYaKLKgbqBPjTBA8bIv9qY\nKokCXcbEDcJLE6R1uhNlXRwvdUUffNvxbUKtV3ON0C3R3rVFaRc7fBT/rDKminjg\nm5us7PKYbVAnnyfVAhR163Ddlx3ijXUa8hryodzAIDFqWn87UllSeVpZqU0E3Mwh\noJsd+GrkB6o2bjxSn/JPZwfNbb9QizJCUUkyYv9fbaLgr4sst18aDmI8P0ZRlBDj\nqvYj0z2vHC19mB+ToyWvKUS9tM8asUugA/WF0t9G3faSGIE2P7QJ8H3aTAt8Ov/r\nAx8lYSZTYggVKdvUrBOWP7sBfAocb7RzT6CVlVoh9gHP5o4XOkGWXX7gR8g66H0=\n=Y5gW\n-----END PGP SIGNATURE-----\n",
                    "verified": true
                }
            },
            "committer": {
                "avatar_url": "https://avatars.githubusercontent.com/u/19864447?v=4",
                "events_url": "https://api.github.com/users/web-flow/events{/privacy}",
                "followers_url": "https://api.github.com/users/web-flow/followers",
                "following_url": "https://api.github.com/users/web-flow/following{/other_user}",
                "gists_url": "https://api.github.com/users/web-flow/gists{/gist_id}",
                "gravatar_id": "",
                "html_url": "https://github.com/web-flow",
                "id": 19864447,
                "login": "web-flow",
                "node_id": "MDQ6VXNlcjE5ODY0NDQ3",
                "organizations_url": "https://api.github.com/users/web-flow/orgs",
                "received_events_url": "https://api.github.com/users/web-flow/received_events",
                "repos_url": "https://api.github.com/users/web-flow/repos",
                "site_admin": false,
                "starred_url": "https://api.github.com/users/web-flow/starred{/owner}{/repo}",
                "subscriptions_url": "https://api.github.com/users/web-flow/subscriptions",
                "type": "User",
                "url": "https://api.github.com/users/web-flow"
            },
            "html_url": "https://github.com/PrismarineJS/minecraft-data/commit/d4e7daa3295c0a70ba44b0d93f0f5deff3dba5c8",
            "node_id": "C_kwDOFfz0QtoAKGQ0ZTdkYWEzMjk1YzBhNzBiYTQ0YjBkOTNmMGY1ZGVmZjNkYmE1Yzg",
            "parents": [
                {
                    "html_url": "https://github.com/PrismarineJS/minecraft-data/commit/8f43a6327339389e2516230bb0cfb86d27b0e00f",
                    "sha": "8f43a6327339389e2516230bb0cfb86d27b0e00f",
                    "url": "https://api.github.com/repos/PrismarineJS/minecraft-data/commits/8f43a6327339389e2516230bb0cfb86d27b0e00f"
                }
            ],
            "sha": "d4e7daa3295c0a70ba44b0d93f0f5deff3dba5c8",
            "url": "https://api.github.com/repos/PrismarineJS/minecraft-data/commits/d4e7daa3295c0a70ba44b0d93f0f5deff3dba5c8"
        }
    ],
    "commits": 1,
    "commits_url": "https://api.github.com/repos/PrismarineJS/minecraft-data/pulls/466/commits",
    "created_at": "2021-09-24T23:19:21Z",
    "deletions": 0,
    "diff_url": "https://github.com/PrismarineJS/minecraft-data/pull/466.diff",
    "draft": false,
    "head": {
        "label": "extremeheat:patch-3",
        "ref": "patch-3",
        "repo": {
            "allow_forking": true,
            "archive_url": "https://api.github.com/repos/extremeheat/minecraft-data/{archive_format}{/ref}",
            "archived": false,
            "assignees_url": "https://api.github.com/repos/extremeheat/minecraft-data/assignees{/user}",
            "blobs_url": "https://api.github.com/repos/extremeheat/minecraft-data/git/blobs{/sha}",
            "branches_url": "https://api.github.com/repos/extremeheat/minecraft-data/branches{/branch}",
            "clone_url": "https://github.com/extremeheat/minecraft-data.git",
            "collaborators_url": "https://api.github.com/repos/extremeheat/minecraft-data/collaborators{/collaborator}",
            "comments_url": "https://api.github.com/repos/extremeheat/minecraft-data/comments{/number}",
            "commits_url": "https://api.github.com/repos/extremeheat/minecraft-data/commits{/sha}",
            "compare_url": "https://api.github.com/repos/extremeheat/minecraft-data/compare/{base}...{head}",
            "contents_url": "https://api.github.com/repos/extremeheat/minecraft-data/contents/{+path}",
            "contributors_url": "https://api.github.com/repos/extremeheat/minecraft-data/contributors",
            "created_at": "2021-05-19T14:32:54Z",
            "default_branch": "helper-bot",
            "deployments_url": "https://api.github.com/repos/extremeheat/minecraft-data/deployments",
            "description": "Language independent module providing minecraft data for minecraft clients, servers and libraries.",
            "disabled": false,
            "downloads_url": "https://api.github.com/repos/extremeheat/minecraft-data/downloads",
            "events_url": "https://api.github.com/repos/extremeheat/minecraft-data/events",
            "fork": true,
            "forks": 0,
            "forks_count": 0,
            "forks_url": "https://api.github.com/repos/extremeheat/minecraft-data/forks",
            "full_name": "extremeheat/minecraft-data",
            "git_commits_url": "https://api.github.com/repos/extremeheat/minecraft-data/git/commits{/sha}",
            "git_refs_url": "https://api.github.com/repos/extremeheat/minecraft-data/git/refs{/sha}",
            "git_tags_url": "https://api.github.com/repos/extremeheat/minecraft-data/git/tags{/sha}",
            "git_url": "git://github.com/extremeheat/minecraft-data.git",
            "has_discussions": false,
            "has_downloads": true,
            "has_issues": true,
            "has_pages": true,
            "has_projects": true,
            "has_wiki": true,
            "homepage": "https://minecraft-data.prismarine.js.org/",
            "hooks_url": "https://api.github.com/repos/extremeheat/minecraft-data/hooks",
            "html_url": "https://github.com/extremeheat/minecraft-data",
            "id": 368899138,
            "is_template": false,
            "issue_comment_url": "https://api.github.com/repos/extremeheat/minecraft-data/issues/comments{/number}",
            "issue_events_url": "https://api.github.com/repos/extremeheat/minecraft-data/issues/events{/number}",
            "issues_url": "https://api.github.com/repos/extremeheat/minecraft-data/issues{/number}",
            "keys_url": "https://api.github.com/repos/extremeheat/minecraft-data/keys{/key_id}",
            "labels_url": "https://api.github.com/repos/extremeheat/minecraft-data/labels{/name}",
            "language": "JavaScript",
            "languages_url": "https://api.github.com/repos/extremeheat/minecraft-data/languages",
            "license": null,
            "merges_url": "https://api.github.com/repos/extremeheat/minecraft-data/merges",
            "milestones_url": "https://api.github.com/repos/extremeheat/minecraft-data/milestones{/number}",
            "mirror_url": null,
            "name": "minecraft-data",
            "node_id": "MDEwOlJlcG9zaXRvcnkzNjg4OTkxMzg=",
            "notifications_url": "https://api.github.com/repos/extremeheat/minecraft-data/notifications{?since,all,participating}",
            "open_issues": 3,
            "open_issues_count": 3,
            "owner": {
                "avatar_url": "https://avatars.githubusercontent.com/u/13713600?v=4",
                "events_url": "https://api.github.com/users/extremeheat/events{/privacy}",
                "followers_url": "https://api.github.com/users/extremeheat/followers",
                "following_url": "https://api.github.com/users/extremeheat/following{/other_user}",
                "gists_url": "https://api.github.com/users/extremeheat/gists{/gist_id}",
                "gravatar_id": "",
                "html_url": "https://github.com/extremeheat",
                "id": 13713600,
                "login": "extremeheat",
                "node_id": "MDQ6VXNlcjEzNzEzNjAw",
                "organizations_url": "https://api.github.com/users/extremeheat/orgs",
                "received_events_url": "https://api.github.com/users/extremeheat/received_events",
                "repos_url": "https://api.github.com/users/extremeheat/repos",
                "site_admin": false,
                "starred_url": "https://api.github.com/users/extremeheat/starred{/owner}{/repo}",
                "subscriptions_url": "https://api.github.com/users/extremeheat/subscriptions",
                "type": "User",
                "url": "https://api.github.com/users/extremeheat"
            },
            "private": false,
            "pulls_url": "https://api.github.com/repos/extremeheat/minecraft-data/pulls{/number}",
            "pushed_at": "2023-04-05T16:42:29Z",
            "releases_url": "https://api.github.com/repos/extremeheat/minecraft-data/releases{/id}",
            "size": 134303,
            "ssh_url": "git@github.com:extremeheat/minecraft-data.git",
            "stargazers_count": 0,
            "stargazers_url": "https://api.github.com/repos/extremeheat/minecraft-data/stargazers",
            "statuses_url": "https://api.github.com/repos/extremeheat/minecraft-data/statuses/{sha}",
            "subscribers_url": "https://api.github.com/repos/extremeheat/minecraft-data/subscribers",
            "subscription_url": "https://api.github.com/repos/extremeheat/minecraft-data/subscription",
            "svn_url": "https://github.com/extremeheat/minecraft-data",
            "tags_url": "https://api.github.com/repos/extremeheat/minecraft-data/tags",
            "teams_url": "https://api.github.com/repos/extremeheat/minecraft-data/teams",
            "topics": [],
            "trees_url": "https://api.github.com/repos/extremeheat/minecraft-data/git/trees{/sha}",
            "updated_at": "2023-03-18T19:30:56Z",
            "url": "https://api.github.com/repos/extremeheat/minecraft-data",
            "visibility": "public",
            "watchers": 0,
            "watchers_count": 0,
            "web_commit_signoff_required": false
        },
        "sha": "d4e7daa3295c0a70ba44b0d93f0f5deff3dba5c8",
        "user": {
            "avatar_url": "https://avatars.githubusercontent.com/u/13713600?v=4",
            "events_url": "https://api.github.com/users/extremeheat/events{/privacy}",
            "followers_url": "https://api.github.com/users/extremeheat/followers",
            "following_url": "https://api.github.com/users/extremeheat/following{/other_user}",
            "gists_url": "https://api.github.com/users/extremeheat/gists{/gist_id}",
            "gravatar_id": "",
            "html_url": "https://github.com/extremeheat",
            "id": 13713600,
            "login": "extremeheat",
            "node_id": "MDQ6VXNlcjEzNzEzNjAw",
            "organizations_url": "https://api.github.com/users/extremeheat/orgs",
            "received_events_url": "https://api.github.com/users/extremeheat/received_events",
            "repos_url": "https://api.github.com/users/extremeheat/repos",
            "site_admin": false,
            "starred_url": "https://api.github.com/users/extremeheat/starred{/owner}{/repo}",
            "subscriptions_url": "https://api.github.com/users/extremeheat/subscriptions",
            "type": "User",
            "url": "https://api.github.com/users/extremeheat"
        }
    },
    "html_url": "https://github.com/PrismarineJS/minecraft-data/pull/466",
    "id": 742556931,
    "issue_url": "https://api.github.com/repos/PrismarineJS/minecraft-data/issues/466",
    "labels": [],
    "locked": false,
    "maintainer_can_modify": false,
    "merge_commit_sha": "0ca8ede07fd40595375c78c6d5d36b4b7a38cb95",
    "mergeable": false,
    "mergeable_state": "dirty",
    "merged": false,
    "merged_at": null,
    "merged_by": null,
    "milestone": null,
    "node_id": "PR_kwDOAfOYes4sQoUD",
    "number": 466,
    "patch_url": "https://github.com/PrismarineJS/minecraft-data/pull/466.patch",
    "rebaseable": false,
    "requested_reviewers": [],
    "requested_teams": [],
    "review_comment_url": "https://api.github.com/repos/PrismarineJS/minecraft-data/pulls/comments{/number}",
    "review_comments": 0,
    "review_comments_url": "https://api.github.com/repos/PrismarineJS/minecraft-data/pulls/466/comments",
    "state": "closed",
    "statuses_url": "https://api.github.com/repos/PrismarineJS/minecraft-data/statuses/d4e7daa3295c0a70ba44b0d93f0f5deff3dba5c8",
    "title": "Release 2.93.1",
    "updated_at": "2022-08-29T07:21:46Z",
    "url": "https://api.github.com/repos/PrismarineJS/minecraft-data/pulls/466",
    "user": {
        "avatar_url": "https://avatars.githubusercontent.com/u/13713600?v=4",
        "events_url": "https://api.github.com/users/extremeheat/events{/privacy}",
        "followers_url": "https://api.github.com/users/extremeheat/followers",
        "following_url": "https://api.github.com/users/extremeheat/following{/other_user}",
        "gists_url": "https://api.github.com/users/extremeheat/gists{/gist_id}",
        "gravatar_id": "",
        "html_url": "https://github.com/extremeheat",
        "id": 13713600,
        "login": "extremeheat",
        "node_id": "MDQ6VXNlcjEzNzEzNjAw",
        "organizations_url": "https://api.github.com/users/extremeheat/orgs",
        "received_events_url": "https://api.github.com/users/extremeheat/received_events",
        "repos_url": "https://api.github.com/users/extremeheat/repos",
        "site_admin": false,
        "starred_url": "https://api.github.com/users/extremeheat/starred{/owner}{/repo}",
        "subscriptions_url": "https://api.github.com/users/extremeheat/subscriptions",
        "type": "User",
        "url": "https://api.github.com/users/extremeheat"
    }
}