{
    "_links": {
        "comments": {
            "href": "https://api.github.com/repos/PrismarineJS/minecraft-data/issues/629/comments"
        },
        "commits": {
            "href": "https://api.github.com/repos/PrismarineJS/minecraft-data/pulls/629/commits"
        },
        "html": {
            "href": "https://github.com/PrismarineJS/minecraft-data/pull/629"
        },
        "issue": {
            "href": "https://api.github.com/repos/PrismarineJS/minecraft-data/issues/629"
        },
        "review_comment": {
            "href": "https://api.github.com/repos/PrismarineJS/minecraft-data/pulls/comments{/number}"
        },
        "review_comments": {
            "href": "https://api.github.com/repos/PrismarineJS/minecraft-data/pulls/629/comments"
        },
        "self": {
            "href": "https://api.github.com/repos/PrismarineJS/minecraft-data/pulls/629"
        },
        "statuses": {
            "href": "https://api.github.com/repos/PrismarineJS/minecraft-data/statuses/08703edf2157816cbfdda1c931dc0cbed208122d"
        }
    },
    "active_lock_reason": null,
    "additions": 30,
    "assignee": null,
    "assignees": [],
    "author_association": "NONE",
    "auto_merge": null,
    "base": {
        "label": "PrismarineJS:master",
        "ref": "master",
        "repo": {
            "allow_forking": true,
            "archive_url": "https://api.github.com/repos/PrismarineJS/minecraft-data/{archive_format}{/ref}",
            "archived": false,
            "assignees_url": "https://api.github.com/repos/PrismarineJS/minecraft-data/assignees{/user}",
            "blobs_url": "https://api.github.com/repos/PrismarineJS/minecraft-data/git/blobs{/sha}",
            "branches_url": "https://api.github.com/repos/PrismarineJS/minecraft-data/branches{/branch}",
            "clone_url": "https://github.com/PrismarineJS/minecraft-data.git",
            "collaborators_url": "https://api.github.com/repos/PrismarineJS/minecraft-data/collaborators{/collaborator}",
            "comments_url": "https://api.github.com/repos/PrismarineJS/minecraft-data/comments{/number}",
            "commits_url": "https://api.github.com/repos/PrismarineJS/minecraft-data/commits{/sha}",
            "compare_url": "https://api.github.com/repos/PrismarineJS/minecraft-data/compare/{base}...{head}",
            "contents_url": "https://api.github.com/repos/PrismarineJS/minecraft-data/contents/{+path}",
            "contributors_url": "https://api.github.com/repos/PrismarineJS/minecraft-data/contributors",
            "created_at": "2015-03-23T15:38:19Z",
            "default_branch": "master",
            "deployments_url": "https://api.github.com/repos/PrismarineJS/minecraft-data/deployments",
            "description": "Language independent module providing minecraft data for minecraft clients, servers and libraries.",
            "disabled": false,
            "downloads_url": "https://api.github.com/repos/PrismarineJS/minecraft-data/downloads",
            "events_url": "https://api.github.com/repos/PrismarineJS/minecraft-data/events",
            "fork": false,
            "forks": 184,
            "forks_count": 184,
            "forks_url": "https://api.github.com/repos/PrismarineJS/minecraft-data/forks",
            "full_name": "PrismarineJS/minecraft-data",
            "git_commits_url": "https://api.github.com/repos/PrismarineJS/minecraft-data/git/commits{/sha}",
            "git_refs_url": "https://api.github.com/repos/PrismarineJS/minecraft-data/git/refs{/sha}",
            "git_tags_url": "https://api.github.com/repos/PrismarineJS/minecraft-data/git/tags{/sha}",
            "git_url": "git://github.com/PrismarineJS/minecraft-data.git",
            "has_discussions": false,
            "has_downloads": true,
            "has_issues": true,
            "has_pages": true,
            "has_projects": true,
            "has_wiki": true,
            "homepage": "https://prismarinejs.github.io/minecraft-data",
            "hooks_url": "https://api.github.com/repos/PrismarineJS/minecraft-data/hooks",
            "html_url": "https://github.com/PrismarineJS/minecraft-data",
            "id": 32741498,
            "is_template": false,
            "issue_comment_url": "https://api.github.com/repos/PrismarineJS/minecraft-data/issues/comments{/number}",
            "issue_events_url": "https://api.github.com/repos/PrismarineJS/minecraft-data/issues/events{/number}",
            "issues_url": "https://api.github.com/repos/PrismarineJS/minecraft-data/issues{/number}",
            "keys_url": "https://api.github.com/repos/PrismarineJS/minecraft-data/keys{/key_id}",
            "labels_url": "https://api.github.com/repos/PrismarineJS/minecraft-data/labels{/name}",
            "language": "JavaScript",
            "languages_url": "https://api.github.com/repos/PrismarineJS/minecraft-data/languages",
            "license": null,
            "merges_url": "https://api.github.com/repos/PrismarineJS/minecraft-data/merges",
            "milestones_url": "https://api.github.com/repos/PrismarineJS/minecraft-data/milestones{/number}",
            "mirror_url": null,
            "name": "minecraft-data",
            "node_id": "MDEwOlJlcG9zaXRvcnkzMjc0MTQ5OA==",
            "notifications_url": "https://api.github.com/repos/PrismarineJS/minecraft-data/notifications{?since,all,participating}",
            "open_issues": 113,
            "open_issues_count": 113,
            "owner": {
                "avatar_url": "https://avatars.githubusercontent.com/u/11053411?v=4",
                "events_url": "https://api.github.com/users/PrismarineJS/events{/privacy}",
                "followers_url": "https://api.github.com/users/PrismarineJS/followers",
                "following_url": "https://api.github.com/users/PrismarineJS/following{/other_user}",
                "gists_url": "https://api.github.com/users/PrismarineJS/gists{/gist_id}",
                "gravatar_id": "",
                "html_url": "https://github.com/PrismarineJS",
                "id": 11053411,
                "login": "PrismarineJS",
                "node_id": "MDEyOk9yZ2FuaXphdGlvbjExMDUzNDEx",
                "organizations_url": "https://api.github.com/users/PrismarineJS/orgs",
                "received_events_url": "https://api.github.com/users/PrismarineJS/received_events",
                "repos_url": "https://api.github.com/users/PrismarineJS/repos",
                "site_admin": false,
                "starred_url": "https://api.github.com/users/PrismarineJS/starred{/owner}{/repo}",
                "subscriptions_url": "https://api.github.com/users/PrismarineJS/subscriptions",
                "type": "Organization",
                "url": "https://api.github.com/users/PrismarineJS"
            },
            "private": false,
            "pulls_url": "https://api.github.com/repos/PrismarineJS/minecraft-data/pulls{/number}",
            "pushed_at": "2023-04-08T18:30:50Z",
            "releases_url": "https://api.github.com/repos/PrismarineJS/minecraft-data/releases{/id}",
            "size": 134084,
            "ssh_url": "git@github.com:PrismarineJS/minecraft-data.git",
            "stargazers_count": 473,
            "stargazers_url": "https://api.github.com/repos/PrismarineJS/minecraft-data/stargazers",
            "statuses_url": "https://api.github.com/repos/PrismarineJS/minecraft-data/statuses/{sha}",
            "subscribers_url": "https://api.github.com/repos/PrismarineJS/minecraft-data/subscribers",
            "subscription_url": "https://api.github.com/repos/PrismarineJS/minecraft-data/subscription",
            "svn_url": "https://github.com/PrismarineJS/minecraft-data",
            "tags_url": "https://api.github.com/repos/PrismarineJS/minecraft-data/tags",
            "teams_url": "https://api.github.com/repos/PrismarineJS/minecraft-data/teams",
            "topics": [
                "data",
                "minecraft"
            ],
            "trees_url": "https://api.github.com/repos/PrismarineJS/minecraft-data/git/trees{/sha}",
            "updated_at": "2023-04-24T04:11:18Z",
            "url": "https://api.github.com/repos/PrismarineJS/minecraft-data",
            "visibility": "public",
            "watchers": 473,
            "watchers_count": 473,
            "web_commit_signoff_required": false
        },
        "sha": "8c0d051b585bc0f0ae92e99424a8130e1eeae639",
        "user": {
            "avatar_url": "https://avatars.githubusercontent.com/u/11053411?v=4",
            "events_url": "https://api.github.com/users/PrismarineJS/events{/privacy}",
            "followers_url": "https://api.github.com/users/PrismarineJS/followers",
            "following_url": "https://api.github.com/users/PrismarineJS/following{/other_user}",
            "gists_url": "https://api.github.com/users/PrismarineJS/gists{/gist_id}",
            "gravatar_id": "",
            "html_url": "https://github.com/PrismarineJS",
            "id": 11053411,
            "login": "PrismarineJS",
            "node_id": "MDEyOk9yZ2FuaXphdGlvbjExMDUzNDEx",
            "organizations_url": "https://api.github.com/users/PrismarineJS/orgs",
            "received_events_url": "https://api.github.com/users/PrismarineJS/received_events",
            "repos_url": "https://api.github.com/users/PrismarineJS/repos",
            "site_admin": false,
            "starred_url": "https://api.github.com/users/PrismarineJS/starred{/owner}{/repo}",
            "subscriptions_url": "https://api.github.com/users/PrismarineJS/subscriptions",
            "type": "Organization",
            "url": "https://api.github.com/users/PrismarineJS"
        }
    },
    "body": null,
    "changed_files": 3,
    "closed_at": "2023-01-14T19:46:49Z",
    "comment_data": [],
    "comment_regular_data": [
        {
            "author_association": "NONE",
            "body": "block and item data still needs to be updated, I've generated the report files for the version and viewed [burger](https://pokechu22.github.io/Burger/22w13oneblockatatime.json) but I'm not sure how to get all the information needed",
            "created_at": "2022-09-06T20:16:34Z",
            "html_url": "https://github.com/PrismarineJS/minecraft-data/pull/629#issuecomment-1238607493",
            "id": 1238607493,
            "issue_url": "https://api.github.com/repos/PrismarineJS/minecraft-data/issues/629",
            "node_id": "IC_kwDOAfOYes5J06aF",
            "performed_via_github_app": null,
            "reactions": {
                "+1": 0,
                "-1": 0,
                "confused": 0,
                "eyes": 0,
                "heart": 0,
                "hooray": 0,
                "laugh": 0,
                "rocket": 0,
                "total_count": 0,
                "url": "https://api.github.com/repos/PrismarineJS/minecraft-data/issues/comments/1238607493/reactions"
            },
            "updated_at": "2022-09-06T20:16:34Z",
            "url": "https://api.github.com/repos/PrismarineJS/minecraft-data/issues/comments/1238607493",
            "user": {
                "avatar_url": "https://avatars.githubusercontent.com/u/45611382?v=4",
                "events_url": "https://api.github.com/users/Bayugoon/events{/privacy}",
                "followers_url": "https://api.github.com/users/Bayugoon/followers",
                "following_url": "https://api.github.com/users/Bayugoon/following{/other_user}",
                "gists_url": "https://api.github.com/users/Bayugoon/gists{/gist_id}",
                "gravatar_id": "",
                "html_url": "https://github.com/Bayugoon",
                "id": 45611382,
                "login": "Bayugoon",
                "node_id": "MDQ6VXNlcjQ1NjExMzgy",
                "organizations_url": "https://api.github.com/users/Bayugoon/orgs",
                "received_events_url": "https://api.github.com/users/Bayugoon/received_events",
                "repos_url": "https://api.github.com/users/Bayugoon/repos",
                "site_admin": false,
                "starred_url": "https://api.github.com/users/Bayugoon/starred{/owner}{/repo}",
                "subscriptions_url": "https://api.github.com/users/Bayugoon/subscriptions",
                "type": "User",
                "url": "https://api.github.com/users/Bayugoon"
            }
        },
        {
            "author_association": "NONE",
            "body": "blocks need to be updated because there is 2210 added blockstates after Air (id: 1 - 2210) for the **generic_item_block** as well as the item form that block that is added after Air (id: 1), so technically it could be possible to just shift the block states of 1.18.2 blocks/items instead of regenerating the files assuming everything else is in the same order.",
            "created_at": "2022-09-06T20:39:10Z",
            "html_url": "https://github.com/PrismarineJS/minecraft-data/pull/629#issuecomment-1238626409",
            "id": 1238626409,
            "issue_url": "https://api.github.com/repos/PrismarineJS/minecraft-data/issues/629",
            "node_id": "IC_kwDOAfOYes5J0_Bp",
            "performed_via_github_app": null,
            "reactions": {
                "+1": 0,
                "-1": 0,
                "confused": 0,
                "eyes": 0,
                "heart": 0,
                "hooray": 0,
                "laugh": 0,
                "rocket": 0,
                "total_count": 0,
                "url": "https://api.github.com/repos/PrismarineJS/minecraft-data/issues/comments/1238626409/reactions"
            },
            "updated_at": "2022-09-06T20:39:10Z",
            "url": "https://api.github.com/repos/PrismarineJS/minecraft-data/issues/comments/1238626409",
            "user": {
                "avatar_url": "https://avatars.githubusercontent.com/u/45611382?v=4",
                "events_url": "https://api.github.com/users/Bayugoon/events{/privacy}",
                "followers_url": "https://api.github.com/users/Bayugoon/followers",
                "following_url": "https://api.github.com/users/Bayugoon/following{/other_user}",
                "gists_url": "https://api.github.com/users/Bayugoon/gists{/gist_id}",
                "gravatar_id": "",
                "html_url": "https://github.com/Bayugoon",
                "id": 45611382,
                "login": "Bayugoon",
                "node_id": "MDQ6VXNlcjQ1NjExMzgy",
                "organizations_url": "https://api.github.com/users/Bayugoon/orgs",
                "received_events_url": "https://api.github.com/users/Bayugoon/received_events",
                "repos_url": "https://api.github.com/users/Bayugoon/repos",
                "site_admin": false,
                "starred_url": "https://api.github.com/users/Bayugoon/starred{/owner}{/repo}",
                "subscriptions_url": "https://api.github.com/users/Bayugoon/subscriptions",
                "type": "User",
                "url": "https://api.github.com/users/Bayugoon"
            }
        },
        {
            "author_association": "NONE",
            "body": "the **item** block state is the protocol id of the item that the ``generic_item_block`` is rendering so the block state can easily be converted to the item resource location/data object",
            "created_at": "2022-09-06T20:46:50Z",
            "html_url": "https://github.com/PrismarineJS/minecraft-data/pull/629#issuecomment-1238632601",
            "id": 1238632601,
            "issue_url": "https://api.github.com/repos/PrismarineJS/minecraft-data/issues/629",
            "node_id": "IC_kwDOAfOYes5J1AiZ",
            "performed_via_github_app": null,
            "reactions": {
                "+1": 0,
                "-1": 0,
                "confused": 0,
                "eyes": 0,
                "heart": 0,
                "hooray": 0,
                "laugh": 0,
                "rocket": 0,
                "total_count": 0,
                "url": "https://api.github.com/repos/PrismarineJS/minecraft-data/issues/comments/1238632601/reactions"
            },
            "updated_at": "2022-09-06T20:46:50Z",
            "url": "https://api.github.com/repos/PrismarineJS/minecraft-data/issues/comments/1238632601",
            "user": {
                "avatar_url": "https://avatars.githubusercontent.com/u/45611382?v=4",
                "events_url": "https://api.github.com/users/Bayugoon/events{/privacy}",
                "followers_url": "https://api.github.com/users/Bayugoon/followers",
                "following_url": "https://api.github.com/users/Bayugoon/following{/other_user}",
                "gists_url": "https://api.github.com/users/Bayugoon/gists{/gist_id}",
                "gravatar_id": "",
                "html_url": "https://github.com/Bayugoon",
                "id": 45611382,
                "login": "Bayugoon",
                "node_id": "MDQ6VXNlcjQ1NjExMzgy",
                "organizations_url": "https://api.github.com/users/Bayugoon/orgs",
                "received_events_url": "https://api.github.com/users/Bayugoon/received_events",
                "repos_url": "https://api.github.com/users/Bayugoon/repos",
                "site_admin": false,
                "starred_url": "https://api.github.com/users/Bayugoon/starred{/owner}{/repo}",
                "subscriptions_url": "https://api.github.com/users/Bayugoon/subscriptions",
                "type": "User",
                "url": "https://api.github.com/users/Bayugoon"
            }
        },
        {
            "author_association": "MEMBER",
            "body": "can you please say why we should add this ? ",
            "created_at": "2022-09-30T17:13:17Z",
            "html_url": "https://github.com/PrismarineJS/minecraft-data/pull/629#issuecomment-1263819669",
            "id": 1263819669,
            "issue_url": "https://api.github.com/repos/PrismarineJS/minecraft-data/issues/629",
            "node_id": "IC_kwDOAfOYes5LVFuV",
            "performed_via_github_app": null,
            "reactions": {
                "+1": 0,
                "-1": 0,
                "confused": 0,
                "eyes": 0,
                "heart": 0,
                "hooray": 0,
                "laugh": 0,
                "rocket": 0,
                "total_count": 0,
                "url": "https://api.github.com/repos/PrismarineJS/minecraft-data/issues/comments/1263819669/reactions"
            },
            "updated_at": "2022-09-30T17:13:17Z",
            "url": "https://api.github.com/repos/PrismarineJS/minecraft-data/issues/comments/1263819669",
            "user": {
                "avatar_url": "https://avatars.githubusercontent.com/u/2346494?v=4",
                "events_url": "https://api.github.com/users/rom1504/events{/privacy}",
                "followers_url": "https://api.github.com/users/rom1504/followers",
                "following_url": "https://api.github.com/users/rom1504/following{/other_user}",
                "gists_url": "https://api.github.com/users/rom1504/gists{/gist_id}",
                "gravatar_id": "",
                "html_url": "https://github.com/rom1504",
                "id": 2346494,
                "login": "rom1504",
                "node_id": "MDQ6VXNlcjIzNDY0OTQ=",
                "organizations_url": "https://api.github.com/users/rom1504/orgs",
                "received_events_url": "https://api.github.com/users/rom1504/received_events",
                "repos_url": "https://api.github.com/users/rom1504/repos",
                "site_admin": false,
                "starred_url": "https://api.github.com/users/rom1504/starred{/owner}{/repo}",
                "subscriptions_url": "https://api.github.com/users/rom1504/subscriptions",
                "type": "User",
                "url": "https://api.github.com/users/rom1504"
            }
        },
        {
            "author_association": "NONE",
            "body": "> can you please say why we should add this ?\r\n\r\nbecause it's fun",
            "created_at": "2022-10-10T15:46:17Z",
            "html_url": "https://github.com/PrismarineJS/minecraft-data/pull/629#issuecomment-1273509135",
            "id": 1273509135,
            "issue_url": "https://api.github.com/repos/PrismarineJS/minecraft-data/issues/629",
            "node_id": "IC_kwDOAfOYes5L6DUP",
            "performed_via_github_app": null,
            "reactions": {
                "+1": 0,
                "-1": 0,
                "confused": 0,
                "eyes": 0,
                "heart": 0,
                "hooray": 0,
                "laugh": 0,
                "rocket": 0,
                "total_count": 0,
                "url": "https://api.github.com/repos/PrismarineJS/minecraft-data/issues/comments/1273509135/reactions"
            },
            "updated_at": "2022-10-10T15:46:17Z",
            "url": "https://api.github.com/repos/PrismarineJS/minecraft-data/issues/comments/1273509135",
            "user": {
                "avatar_url": "https://avatars.githubusercontent.com/u/92477814?v=4",
                "events_url": "https://api.github.com/users/andriycraft/events{/privacy}",
                "followers_url": "https://api.github.com/users/andriycraft/followers",
                "following_url": "https://api.github.com/users/andriycraft/following{/other_user}",
                "gists_url": "https://api.github.com/users/andriycraft/gists{/gist_id}",
                "gravatar_id": "",
                "html_url": "https://github.com/andriycraft",
                "id": 92477814,
                "login": "andriycraft",
                "node_id": "U_kgDOBYMZdg",
                "organizations_url": "https://api.github.com/users/andriycraft/orgs",
                "received_events_url": "https://api.github.com/users/andriycraft/received_events",
                "repos_url": "https://api.github.com/users/andriycraft/repos",
                "site_admin": false,
                "starred_url": "https://api.github.com/users/andriycraft/starred{/owner}{/repo}",
                "subscriptions_url": "https://api.github.com/users/andriycraft/subscriptions",
                "type": "User",
                "url": "https://api.github.com/users/andriycraft"
            }
        }
    ],
    "comments": 5,
    "comments_url": "https://api.github.com/repos/PrismarineJS/minecraft-data/issues/629/comments",
    "commit_data": [
        {
            "author": {
                "avatar_url": "https://avatars.githubusercontent.com/u/45611382?v=4",
                "events_url": "https://api.github.com/users/Bayugoon/events{/privacy}",
                "followers_url": "https://api.github.com/users/Bayugoon/followers",
                "following_url": "https://api.github.com/users/Bayugoon/following{/other_user}",
                "gists_url": "https://api.github.com/users/Bayugoon/gists{/gist_id}",
                "gravatar_id": "",
                "html_url": "https://github.com/Bayugoon",
                "id": 45611382,
                "login": "Bayugoon",
                "node_id": "MDQ6VXNlcjQ1NjExMzgy",
                "organizations_url": "https://api.github.com/users/Bayugoon/orgs",
                "received_events_url": "https://api.github.com/users/Bayugoon/received_events",
                "repos_url": "https://api.github.com/users/Bayugoon/repos",
                "site_admin": false,
                "starred_url": "https://api.github.com/users/Bayugoon/starred{/owner}{/repo}",
                "subscriptions_url": "https://api.github.com/users/Bayugoon/subscriptions",
                "type": "User",
                "url": "https://api.github.com/users/Bayugoon"
            },
            "comments_url": "https://api.github.com/repos/PrismarineJS/minecraft-data/commits/08703edf2157816cbfdda1c931dc0cbed208122d/comments",
            "commit": {
                "author": {
                    "date": "2022-09-06T20:13:58Z",
                    "email": "45611382+Bayugoon@users.noreply.github.com",
                    "name": "Bayugoon"
                },
                "comment_count": 0,
                "committer": {
                    "date": "2022-09-06T20:13:58Z",
                    "email": "noreply@github.com",
                    "name": "GitHub"
                },
                "message": "add version aprilfools version 22w13oneblockatatime to pc",
                "tree": {
                    "sha": "d58aff4c788847dc7aafe91fde21b4fb91180f75",
                    "url": "https://api.github.com/repos/PrismarineJS/minecraft-data/git/trees/d58aff4c788847dc7aafe91fde21b4fb91180f75"
                },
                "url": "https://api.github.com/repos/PrismarineJS/minecraft-data/git/commits/08703edf2157816cbfdda1c931dc0cbed208122d",
                "verification": {
                    "payload": "tree d58aff4c788847dc7aafe91fde21b4fb91180f75\nparent 290a4141ad0dad3c32fda3f6f935683b2bacd08d\nauthor Bayugoon <45611382+Bayugoon@users.noreply.github.com> 1662495238 -0300\ncommitter GitHub <noreply@github.com> 1662495238 -0300\n\nadd version aprilfools version 22w13oneblockatatime to pc",
                    "reason": "valid",
                    "signature": "-----BEGIN PGP SIGNATURE-----\n\nwsBcBAABCAAQBQJjF6oGCRBK7hj4Ov3rIwAAm9MIAIS+dSIr5ZHEfBwylLfwsOw4\nFumyR/CY1Em61aQfRSVecdhmROtY8ENNDNX0LimWZBWfp0lSSAh9c8JkBeLZxKan\npVT4Eydj9zRqoS7JmwdxjOUVLca7jA8fNPkH+QkRwVEKGHjRgddAFnhtRqBk/mI6\nAVS/CRn5wTuOBeEZA+mDQBOMH6Ky4vA83zg5c0auF1P0v87mCWH88zvV5NvOlTsY\nZ/+tHfakuSj1tBvRItCaYzrn8agRbSNGM59Z0VHW7Xu8JGV6ybZIvQPPvMGfmh7U\nFJVCv5zxVd77XgEXYwdfASed2XGy/XV63bNauIiU6I14RNg7t0SXWiPXAFHSC9Y=\n=AbVg\n-----END PGP SIGNATURE-----\n",
                    "verified": true
                }
            },
            "committer": {
                "avatar_url": "https://avatars.githubusercontent.com/u/19864447?v=4",
                "events_url": "https://api.github.com/users/web-flow/events{/privacy}",
                "followers_url": "https://api.github.com/users/web-flow/followers",
                "following_url": "https://api.github.com/users/web-flow/following{/other_user}",
                "gists_url": "https://api.github.com/users/web-flow/gists{/gist_id}",
                "gravatar_id": "",
                "html_url": "https://github.com/web-flow",
                "id": 19864447,
                "login": "web-flow",
                "node_id": "MDQ6VXNlcjE5ODY0NDQ3",
                "organizations_url": "https://api.github.com/users/web-flow/orgs",
                "received_events_url": "https://api.github.com/users/web-flow/received_events",
                "repos_url": "https://api.github.com/users/web-flow/repos",
                "site_admin": false,
                "starred_url": "https://api.github.com/users/web-flow/starred{/owner}{/repo}",
                "subscriptions_url": "https://api.github.com/users/web-flow/subscriptions",
                "type": "User",
                "url": "https://api.github.com/users/web-flow"
            },
            "html_url": "https://github.com/PrismarineJS/minecraft-data/commit/08703edf2157816cbfdda1c931dc0cbed208122d",
            "node_id": "C_kwDOH8xc9toAKDA4NzAzZWRmMjE1NzgxNmNiZmRkYTFjOTMxZGMwY2JlZDIwODEyMmQ",
            "parents": [
                {
                    "html_url": "https://github.com/PrismarineJS/minecraft-data/commit/290a4141ad0dad3c32fda3f6f935683b2bacd08d",
                    "sha": "290a4141ad0dad3c32fda3f6f935683b2bacd08d",
                    "url": "https://api.github.com/repos/PrismarineJS/minecraft-data/commits/290a4141ad0dad3c32fda3f6f935683b2bacd08d"
                }
            ],
            "sha": "08703edf2157816cbfdda1c931dc0cbed208122d",
            "url": "https://api.github.com/repos/PrismarineJS/minecraft-data/commits/08703edf2157816cbfdda1c931dc0cbed208122d"
        }
    ],
    "commits": 1,
    "commits_url": "https://api.github.com/repos/PrismarineJS/minecraft-data/pulls/629/commits",
    "created_at": "2022-09-06T20:14:26Z",
    "deletions": 0,
    "diff_url": "https://github.com/PrismarineJS/minecraft-data/pull/629.diff",
    "draft": false,
    "head": {
        "label": "Bayugoon:master",
        "ref": "master",
        "repo": {
            "allow_forking": true,
            "archive_url": "https://api.github.com/repos/Bayugoon/minecraft-data-22w13oneblockatatime-version/{archive_format}{/ref}",
            "archived": false,
            "assignees_url": "https://api.github.com/repos/Bayugoon/minecraft-data-22w13oneblockatatime-version/assignees{/user}",
            "blobs_url": "https://api.github.com/repos/Bayugoon/minecraft-data-22w13oneblockatatime-version/git/blobs{/sha}",
            "branches_url": "https://api.github.com/repos/Bayugoon/minecraft-data-22w13oneblockatatime-version/branches{/branch}",
            "clone_url": "https://github.com/Bayugoon/minecraft-data-22w13oneblockatatime-version.git",
            "collaborators_url": "https://api.github.com/repos/Bayugoon/minecraft-data-22w13oneblockatatime-version/collaborators{/collaborator}",
            "comments_url": "https://api.github.com/repos/Bayugoon/minecraft-data-22w13oneblockatatime-version/comments{/number}",
            "commits_url": "https://api.github.com/repos/Bayugoon/minecraft-data-22w13oneblockatatime-version/commits{/sha}",
            "compare_url": "https://api.github.com/repos/Bayugoon/minecraft-data-22w13oneblockatatime-version/compare/{base}...{head}",
            "contents_url": "https://api.github.com/repos/Bayugoon/minecraft-data-22w13oneblockatatime-version/contents/{+path}",
            "contributors_url": "https://api.github.com/repos/Bayugoon/minecraft-data-22w13oneblockatatime-version/contributors",
            "created_at": "2022-09-06T20:10:43Z",
            "default_branch": "master",
            "deployments_url": "https://api.github.com/repos/Bayugoon/minecraft-data-22w13oneblockatatime-version/deployments",
            "description": "Language independent module providing minecraft data for minecraft clients, servers and libraries.",
            "disabled": false,
            "downloads_url": "https://api.github.com/repos/Bayugoon/minecraft-data-22w13oneblockatatime-version/downloads",
            "events_url": "https://api.github.com/repos/Bayugoon/minecraft-data-22w13oneblockatatime-version/events",
            "fork": true,
            "forks": 0,
            "forks_count": 0,
            "forks_url": "https://api.github.com/repos/Bayugoon/minecraft-data-22w13oneblockatatime-version/forks",
            "full_name": "Bayugoon/minecraft-data-22w13oneblockatatime-version",
            "git_commits_url": "https://api.github.com/repos/Bayugoon/minecraft-data-22w13oneblockatatime-version/git/commits{/sha}",
            "git_refs_url": "https://api.github.com/repos/Bayugoon/minecraft-data-22w13oneblockatatime-version/git/refs{/sha}",
            "git_tags_url": "https://api.github.com/repos/Bayugoon/minecraft-data-22w13oneblockatatime-version/git/tags{/sha}",
            "git_url": "git://github.com/Bayugoon/minecraft-data-22w13oneblockatatime-version.git",
            "has_discussions": false,
            "has_downloads": true,
            "has_issues": false,
            "has_pages": false,
            "has_projects": true,
            "has_wiki": true,
            "homepage": "https://minecraft-data.prismarine.js.org/",
            "hooks_url": "https://api.github.com/repos/Bayugoon/minecraft-data-22w13oneblockatatime-version/hooks",
            "html_url": "https://github.com/Bayugoon/minecraft-data-22w13oneblockatatime-version",
            "id": 533486838,
            "is_template": false,
            "issue_comment_url": "https://api.github.com/repos/Bayugoon/minecraft-data-22w13oneblockatatime-version/issues/comments{/number}",
            "issue_events_url": "https://api.github.com/repos/Bayugoon/minecraft-data-22w13oneblockatatime-version/issues/events{/number}",
            "issues_url": "https://api.github.com/repos/Bayugoon/minecraft-data-22w13oneblockatatime-version/issues{/number}",
            "keys_url": "https://api.github.com/repos/Bayugoon/minecraft-data-22w13oneblockatatime-version/keys{/key_id}",
            "labels_url": "https://api.github.com/repos/Bayugoon/minecraft-data-22w13oneblockatatime-version/labels{/name}",
            "language": "JavaScript",
            "languages_url": "https://api.github.com/repos/Bayugoon/minecraft-data-22w13oneblockatatime-version/languages",
            "license": null,
            "merges_url": "https://api.github.com/repos/Bayugoon/minecraft-data-22w13oneblockatatime-version/merges",
            "milestones_url": "https://api.github.com/repos/Bayugoon/minecraft-data-22w13oneblockatatime-version/milestones{/number}",
            "mirror_url": null,
            "name": "minecraft-data-22w13oneblockatatime-version",
            "node_id": "R_kgDOH8xc9g",
            "notifications_url": "https://api.github.com/repos/Bayugoon/minecraft-data-22w13oneblockatatime-version/notifications{?since,all,participating}",
            "open_issues": 0,
            "open_issues_count": 0,
            "owner": {
                "avatar_url": "https://avatars.githubusercontent.com/u/45611382?v=4",
                "events_url": "https://api.github.com/users/Bayugoon/events{/privacy}",
                "followers_url": "https://api.github.com/users/Bayugoon/followers",
                "following_url": "https://api.github.com/users/Bayugoon/following{/other_user}",
                "gists_url": "https://api.github.com/users/Bayugoon/gists{/gist_id}",
                "gravatar_id": "",
                "html_url": "https://github.com/Bayugoon",
                "id": 45611382,
                "login": "Bayugoon",
                "node_id": "MDQ6VXNlcjQ1NjExMzgy",
                "organizations_url": "https://api.github.com/users/Bayugoon/orgs",
                "received_events_url": "https://api.github.com/users/Bayugoon/received_events",
                "repos_url": "https://api.github.com/users/Bayugoon/repos",
                "site_admin": false,
                "starred_url": "https://api.github.com/users/Bayugoon/starred{/owner}{/repo}",
                "subscriptions_url": "https://api.github.com/users/Bayugoon/subscriptions",
                "type": "User",
                "url": "https://api.github.com/users/Bayugoon"
            },
            "private": false,
            "pulls_url": "https://api.github.com/repos/Bayugoon/minecraft-data-22w13oneblockatatime-version/pulls{/number}",
            "pushed_at": "2022-09-06T20:13:58Z",
            "releases_url": "https://api.github.com/repos/Bayugoon/minecraft-data-22w13oneblockatatime-version/releases{/id}",
            "size": 5720,
            "ssh_url": "git@github.com:Bayugoon/minecraft-data-22w13oneblockatatime-version.git",
            "stargazers_count": 0,
            "stargazers_url": "https://api.github.com/repos/Bayugoon/minecraft-data-22w13oneblockatatime-version/stargazers",
            "statuses_url": "https://api.github.com/repos/Bayugoon/minecraft-data-22w13oneblockatatime-version/statuses/{sha}",
            "subscribers_url": "https://api.github.com/repos/Bayugoon/minecraft-data-22w13oneblockatatime-version/subscribers",
            "subscription_url": "https://api.github.com/repos/Bayugoon/minecraft-data-22w13oneblockatatime-version/subscription",
            "svn_url": "https://github.com/Bayugoon/minecraft-data-22w13oneblockatatime-version",
            "tags_url": "https://api.github.com/repos/Bayugoon/minecraft-data-22w13oneblockatatime-version/tags",
            "teams_url": "https://api.github.com/repos/Bayugoon/minecraft-data-22w13oneblockatatime-version/teams",
            "topics": [],
            "trees_url": "https://api.github.com/repos/Bayugoon/minecraft-data-22w13oneblockatatime-version/git/trees{/sha}",
            "updated_at": "2022-09-06T20:14:04Z",
            "url": "https://api.github.com/repos/Bayugoon/minecraft-data-22w13oneblockatatime-version",
            "visibility": "public",
            "watchers": 0,
            "watchers_count": 0,
            "web_commit_signoff_required": false
        },
        "sha": "08703edf2157816cbfdda1c931dc0cbed208122d",
        "user": {
            "avatar_url": "https://avatars.githubusercontent.com/u/45611382?v=4",
            "events_url": "https://api.github.com/users/Bayugoon/events{/privacy}",
            "followers_url": "https://api.github.com/users/Bayugoon/followers",
            "following_url": "https://api.github.com/users/Bayugoon/following{/other_user}",
            "gists_url": "https://api.github.com/users/Bayugoon/gists{/gist_id}",
            "gravatar_id": "",
            "html_url": "https://github.com/Bayugoon",
            "id": 45611382,
            "login": "Bayugoon",
            "node_id": "MDQ6VXNlcjQ1NjExMzgy",
            "organizations_url": "https://api.github.com/users/Bayugoon/orgs",
            "received_events_url": "https://api.github.com/users/Bayugoon/received_events",
            "repos_url": "https://api.github.com/users/Bayugoon/repos",
            "site_admin": false,
            "starred_url": "https://api.github.com/users/Bayugoon/starred{/owner}{/repo}",
            "subscriptions_url": "https://api.github.com/users/Bayugoon/subscriptions",
            "type": "User",
            "url": "https://api.github.com/users/Bayugoon"
        }
    },
    "html_url": "https://github.com/PrismarineJS/minecraft-data/pull/629",
    "id": 1047983525,
    "issue_url": "https://api.github.com/repos/PrismarineJS/minecraft-data/issues/629",
    "labels": [],
    "locked": false,
    "maintainer_can_modify": false,
    "merge_commit_sha": "44eb58c1e21f2e973f88079325e85c8a229e4eef",
    "mergeable": false,
    "mergeable_state": "dirty",
    "merged": false,
    "merged_at": null,
    "merged_by": null,
    "milestone": null,
    "node_id": "PR_kwDOAfOYes4-dvWl",
    "number": 629,
    "patch_url": "https://github.com/PrismarineJS/minecraft-data/pull/629.patch",
    "rebaseable": false,
    "requested_reviewers": [],
    "requested_teams": [],
    "review_comment_url": "https://api.github.com/repos/PrismarineJS/minecraft-data/pulls/comments{/number}",
    "review_comments": 0,
    "review_comments_url": "https://api.github.com/repos/PrismarineJS/minecraft-data/pulls/629/comments",
    "state": "closed",
    "statuses_url": "https://api.github.com/repos/PrismarineJS/minecraft-data/statuses/08703edf2157816cbfdda1c931dc0cbed208122d",
    "title": "add aprilfools version 22w13oneblockatatime to pc",
    "updated_at": "2023-01-14T19:46:49Z",
    "url": "https://api.github.com/repos/PrismarineJS/minecraft-data/pulls/629",
    "user": {
        "avatar_url": "https://avatars.githubusercontent.com/u/45611382?v=4",
        "events_url": "https://api.github.com/users/Bayugoon/events{/privacy}",
        "followers_url": "https://api.github.com/users/Bayugoon/followers",
        "following_url": "https://api.github.com/users/Bayugoon/following{/other_user}",
        "gists_url": "https://api.github.com/users/Bayugoon/gists{/gist_id}",
        "gravatar_id": "",
        "html_url": "https://github.com/Bayugoon",
        "id": 45611382,
        "login": "Bayugoon",
        "node_id": "MDQ6VXNlcjQ1NjExMzgy",
        "organizations_url": "https://api.github.com/users/Bayugoon/orgs",
        "received_events_url": "https://api.github.com/users/Bayugoon/received_events",
        "repos_url": "https://api.github.com/users/Bayugoon/repos",
        "site_admin": false,
        "starred_url": "https://api.github.com/users/Bayugoon/starred{/owner}{/repo}",
        "subscriptions_url": "https://api.github.com/users/Bayugoon/subscriptions",
        "type": "User",
        "url": "https://api.github.com/users/Bayugoon"
    }
}