{
    "_links": {
        "comments": {
            "href": "https://api.github.com/repos/PrismarineJS/minecraft-data/issues/742/comments"
        },
        "commits": {
            "href": "https://api.github.com/repos/PrismarineJS/minecraft-data/pulls/742/commits"
        },
        "html": {
            "href": "https://github.com/PrismarineJS/minecraft-data/pull/742"
        },
        "issue": {
            "href": "https://api.github.com/repos/PrismarineJS/minecraft-data/issues/742"
        },
        "review_comment": {
            "href": "https://api.github.com/repos/PrismarineJS/minecraft-data/pulls/comments{/number}"
        },
        "review_comments": {
            "href": "https://api.github.com/repos/PrismarineJS/minecraft-data/pulls/742/comments"
        },
        "self": {
            "href": "https://api.github.com/repos/PrismarineJS/minecraft-data/pulls/742"
        },
        "statuses": {
            "href": "https://api.github.com/repos/PrismarineJS/minecraft-data/statuses/20ee4d07f2e60daf2e05b45a1a6bac33711b5b2b"
        }
    },
    "active_lock_reason": null,
    "additions": 1522,
    "assignee": null,
    "assignees": [],
    "author_association": "CONTRIBUTOR",
    "auto_merge": null,
    "base": {
        "label": "PrismarineJS:master",
        "ref": "master",
        "repo": {
            "allow_forking": true,
            "archive_url": "https://api.github.com/repos/PrismarineJS/minecraft-data/{archive_format}{/ref}",
            "archived": false,
            "assignees_url": "https://api.github.com/repos/PrismarineJS/minecraft-data/assignees{/user}",
            "blobs_url": "https://api.github.com/repos/PrismarineJS/minecraft-data/git/blobs{/sha}",
            "branches_url": "https://api.github.com/repos/PrismarineJS/minecraft-data/branches{/branch}",
            "clone_url": "https://github.com/PrismarineJS/minecraft-data.git",
            "collaborators_url": "https://api.github.com/repos/PrismarineJS/minecraft-data/collaborators{/collaborator}",
            "comments_url": "https://api.github.com/repos/PrismarineJS/minecraft-data/comments{/number}",
            "commits_url": "https://api.github.com/repos/PrismarineJS/minecraft-data/commits{/sha}",
            "compare_url": "https://api.github.com/repos/PrismarineJS/minecraft-data/compare/{base}...{head}",
            "contents_url": "https://api.github.com/repos/PrismarineJS/minecraft-data/contents/{+path}",
            "contributors_url": "https://api.github.com/repos/PrismarineJS/minecraft-data/contributors",
            "created_at": "2015-03-23T15:38:19Z",
            "default_branch": "master",
            "deployments_url": "https://api.github.com/repos/PrismarineJS/minecraft-data/deployments",
            "description": "Language independent module providing minecraft data for minecraft clients, servers and libraries.",
            "disabled": false,
            "downloads_url": "https://api.github.com/repos/PrismarineJS/minecraft-data/downloads",
            "events_url": "https://api.github.com/repos/PrismarineJS/minecraft-data/events",
            "fork": false,
            "forks": 195,
            "forks_count": 195,
            "forks_url": "https://api.github.com/repos/PrismarineJS/minecraft-data/forks",
            "full_name": "PrismarineJS/minecraft-data",
            "git_commits_url": "https://api.github.com/repos/PrismarineJS/minecraft-data/git/commits{/sha}",
            "git_refs_url": "https://api.github.com/repos/PrismarineJS/minecraft-data/git/refs{/sha}",
            "git_tags_url": "https://api.github.com/repos/PrismarineJS/minecraft-data/git/tags{/sha}",
            "git_url": "git://github.com/PrismarineJS/minecraft-data.git",
            "has_discussions": false,
            "has_downloads": true,
            "has_issues": true,
            "has_pages": true,
            "has_projects": true,
            "has_wiki": true,
            "homepage": "https://prismarinejs.github.io/minecraft-data",
            "hooks_url": "https://api.github.com/repos/PrismarineJS/minecraft-data/hooks",
            "html_url": "https://github.com/PrismarineJS/minecraft-data",
            "id": 32741498,
            "is_template": false,
            "issue_comment_url": "https://api.github.com/repos/PrismarineJS/minecraft-data/issues/comments{/number}",
            "issue_events_url": "https://api.github.com/repos/PrismarineJS/minecraft-data/issues/events{/number}",
            "issues_url": "https://api.github.com/repos/PrismarineJS/minecraft-data/issues{/number}",
            "keys_url": "https://api.github.com/repos/PrismarineJS/minecraft-data/keys{/key_id}",
            "labels_url": "https://api.github.com/repos/PrismarineJS/minecraft-data/labels{/name}",
            "language": "JavaScript",
            "languages_url": "https://api.github.com/repos/PrismarineJS/minecraft-data/languages",
            "license": null,
            "merges_url": "https://api.github.com/repos/PrismarineJS/minecraft-data/merges",
            "milestones_url": "https://api.github.com/repos/PrismarineJS/minecraft-data/milestones{/number}",
            "mirror_url": null,
            "name": "minecraft-data",
            "node_id": "MDEwOlJlcG9zaXRvcnkzMjc0MTQ5OA==",
            "notifications_url": "https://api.github.com/repos/PrismarineJS/minecraft-data/notifications{?since,all,participating}",
            "open_issues": 118,
            "open_issues_count": 118,
            "owner": {
                "avatar_url": "https://avatars.githubusercontent.com/u/11053411?v=4",
                "events_url": "https://api.github.com/users/PrismarineJS/events{/privacy}",
                "followers_url": "https://api.github.com/users/PrismarineJS/followers",
                "following_url": "https://api.github.com/users/PrismarineJS/following{/other_user}",
                "gists_url": "https://api.github.com/users/PrismarineJS/gists{/gist_id}",
                "gravatar_id": "",
                "html_url": "https://github.com/PrismarineJS",
                "id": 11053411,
                "login": "PrismarineJS",
                "node_id": "MDEyOk9yZ2FuaXphdGlvbjExMDUzNDEx",
                "organizations_url": "https://api.github.com/users/PrismarineJS/orgs",
                "received_events_url": "https://api.github.com/users/PrismarineJS/received_events",
                "repos_url": "https://api.github.com/users/PrismarineJS/repos",
                "site_admin": false,
                "starred_url": "https://api.github.com/users/PrismarineJS/starred{/owner}{/repo}",
                "subscriptions_url": "https://api.github.com/users/PrismarineJS/subscriptions",
                "type": "Organization",
                "url": "https://api.github.com/users/PrismarineJS"
            },
            "private": false,
            "pulls_url": "https://api.github.com/repos/PrismarineJS/minecraft-data/pulls{/number}",
            "pushed_at": "2023-07-25T15:27:12Z",
            "releases_url": "https://api.github.com/repos/PrismarineJS/minecraft-data/releases{/id}",
            "size": 144656,
            "ssh_url": "git@github.com:PrismarineJS/minecraft-data.git",
            "stargazers_count": 518,
            "stargazers_url": "https://api.github.com/repos/PrismarineJS/minecraft-data/stargazers",
            "statuses_url": "https://api.github.com/repos/PrismarineJS/minecraft-data/statuses/{sha}",
            "subscribers_url": "https://api.github.com/repos/PrismarineJS/minecraft-data/subscribers",
            "subscription_url": "https://api.github.com/repos/PrismarineJS/minecraft-data/subscription",
            "svn_url": "https://github.com/PrismarineJS/minecraft-data",
            "tags_url": "https://api.github.com/repos/PrismarineJS/minecraft-data/tags",
            "teams_url": "https://api.github.com/repos/PrismarineJS/minecraft-data/teams",
            "topics": [
                "data",
                "minecraft"
            ],
            "trees_url": "https://api.github.com/repos/PrismarineJS/minecraft-data/git/trees{/sha}",
            "updated_at": "2023-07-25T10:56:46Z",
            "url": "https://api.github.com/repos/PrismarineJS/minecraft-data",
            "visibility": "public",
            "watchers": 518,
            "watchers_count": 518,
            "web_commit_signoff_required": false
        },
        "sha": "099a80ddad349bb15ff4c02407a233a555a8a83d",
        "user": {
            "avatar_url": "https://avatars.githubusercontent.com/u/11053411?v=4",
            "events_url": "https://api.github.com/users/PrismarineJS/events{/privacy}",
            "followers_url": "https://api.github.com/users/PrismarineJS/followers",
            "following_url": "https://api.github.com/users/PrismarineJS/following{/other_user}",
            "gists_url": "https://api.github.com/users/PrismarineJS/gists{/gist_id}",
            "gravatar_id": "",
            "html_url": "https://github.com/PrismarineJS",
            "id": 11053411,
            "login": "PrismarineJS",
            "node_id": "MDEyOk9yZ2FuaXphdGlvbjExMDUzNDEx",
            "organizations_url": "https://api.github.com/users/PrismarineJS/orgs",
            "received_events_url": "https://api.github.com/users/PrismarineJS/received_events",
            "repos_url": "https://api.github.com/users/PrismarineJS/repos",
            "site_admin": false,
            "starred_url": "https://api.github.com/users/PrismarineJS/starred{/owner}{/repo}",
            "subscriptions_url": "https://api.github.com/users/PrismarineJS/subscriptions",
            "type": "Organization",
            "url": "https://api.github.com/users/PrismarineJS"
        }
    },
    "body": "The bedrock `available_commands` packet's overloads field has a value called `enum_type`, which is documented to be set to possible values 0x10, 0x20, 0x100 and 0x400; however upon testing all supported versions on their vanilla BDS, two of these values seem to be incorrect. 0x20 should be 0x30 (48) and 0x400 should be 0x410 (1040). This PR is a fix for these values.\r\nThere also seemed to be something strange with the `overloads` field in `available_commands` - In 1.20.10, the objects in the array have the `chaining` bool, but then the parameters are in another field called `__4265`. I assume this was because it was setting an array as an anonymous field. I fixed this by naming the field `parameters` - but if this breaks anything I can revert it. Locally testing it with a vanilla BDS on a few versions including 1.20.10 looks good.",
    "changed_files": 46,
    "closed_at": "2023-07-24T20:11:21Z",
    "comment_data": [],
    "comment_regular_data": [
        {
            "author_association": "MEMBER",
            "body": "> then the parameters are in another field called __4265\n\nWhere do you see that?",
            "created_at": "2023-07-22T18:22:57Z",
            "html_url": "https://github.com/PrismarineJS/minecraft-data/pull/742#issuecomment-1646644572",
            "id": 1646644572,
            "issue_url": "https://api.github.com/repos/PrismarineJS/minecraft-data/issues/742",
            "node_id": "IC_kwDOAfOYes5iJc1c",
            "performed_via_github_app": null,
            "reactions": {
                "+1": 0,
                "-1": 0,
                "confused": 0,
                "eyes": 0,
                "heart": 0,
                "hooray": 0,
                "laugh": 0,
                "rocket": 0,
                "total_count": 0,
                "url": "https://api.github.com/repos/PrismarineJS/minecraft-data/issues/comments/1646644572/reactions"
            },
            "updated_at": "2023-07-22T18:22:57Z",
            "url": "https://api.github.com/repos/PrismarineJS/minecraft-data/issues/comments/1646644572",
            "user": {
                "avatar_url": "https://avatars.githubusercontent.com/u/13713600?v=4",
                "events_url": "https://api.github.com/users/extremeheat/events{/privacy}",
                "followers_url": "https://api.github.com/users/extremeheat/followers",
                "following_url": "https://api.github.com/users/extremeheat/following{/other_user}",
                "gists_url": "https://api.github.com/users/extremeheat/gists{/gist_id}",
                "gravatar_id": "",
                "html_url": "https://github.com/extremeheat",
                "id": 13713600,
                "login": "extremeheat",
                "node_id": "MDQ6VXNlcjEzNzEzNjAw",
                "organizations_url": "https://api.github.com/users/extremeheat/orgs",
                "received_events_url": "https://api.github.com/users/extremeheat/received_events",
                "repos_url": "https://api.github.com/users/extremeheat/repos",
                "site_admin": false,
                "starred_url": "https://api.github.com/users/extremeheat/starred{/owner}{/repo}",
                "subscriptions_url": "https://api.github.com/users/extremeheat/subscriptions",
                "type": "User",
                "url": "https://api.github.com/users/extremeheat"
            }
        },
        {
            "author_association": "CONTRIBUTOR",
            "body": "I started a vanilla BDS on version 1.20.10, connected a bedrock-protocol client, and just looked at `packet.command_data[i].overloads`",
            "created_at": "2023-07-22T18:30:36Z",
            "html_url": "https://github.com/PrismarineJS/minecraft-data/pull/742#issuecomment-1646646197",
            "id": 1646646197,
            "issue_url": "https://api.github.com/repos/PrismarineJS/minecraft-data/issues/742",
            "node_id": "IC_kwDOAfOYes5iJdO1",
            "performed_via_github_app": null,
            "reactions": {
                "+1": 0,
                "-1": 0,
                "confused": 0,
                "eyes": 0,
                "heart": 0,
                "hooray": 0,
                "laugh": 0,
                "rocket": 0,
                "total_count": 0,
                "url": "https://api.github.com/repos/PrismarineJS/minecraft-data/issues/comments/1646646197/reactions"
            },
            "updated_at": "2023-07-22T18:30:36Z",
            "url": "https://api.github.com/repos/PrismarineJS/minecraft-data/issues/comments/1646646197",
            "user": {
                "avatar_url": "https://avatars.githubusercontent.com/u/86970314?v=4",
                "events_url": "https://api.github.com/users/CreeperG16/events{/privacy}",
                "followers_url": "https://api.github.com/users/CreeperG16/followers",
                "following_url": "https://api.github.com/users/CreeperG16/following{/other_user}",
                "gists_url": "https://api.github.com/users/CreeperG16/gists{/gist_id}",
                "gravatar_id": "",
                "html_url": "https://github.com/CreeperG16",
                "id": 86970314,
                "login": "CreeperG16",
                "node_id": "MDQ6VXNlcjg2OTcwMzE0",
                "organizations_url": "https://api.github.com/users/CreeperG16/orgs",
                "received_events_url": "https://api.github.com/users/CreeperG16/received_events",
                "repos_url": "https://api.github.com/users/CreeperG16/repos",
                "site_admin": false,
                "starred_url": "https://api.github.com/users/CreeperG16/starred{/owner}{/repo}",
                "subscriptions_url": "https://api.github.com/users/CreeperG16/subscriptions",
                "type": "User",
                "url": "https://api.github.com/users/CreeperG16"
            }
        },
        {
            "author_association": "CONTRIBUTOR",
            "body": "I started a vanilla BDS on version 1.20.10, connected a bedrock-protocol client, and just looked at `packet.command_data[i].overloads`",
            "created_at": "2023-07-22T18:30:52Z",
            "html_url": "https://github.com/PrismarineJS/minecraft-data/pull/742#issuecomment-1646646275",
            "id": 1646646275,
            "issue_url": "https://api.github.com/repos/PrismarineJS/minecraft-data/issues/742",
            "node_id": "IC_kwDOAfOYes5iJdQD",
            "performed_via_github_app": null,
            "reactions": {
                "+1": 0,
                "-1": 0,
                "confused": 0,
                "eyes": 0,
                "heart": 0,
                "hooray": 0,
                "laugh": 0,
                "rocket": 0,
                "total_count": 0,
                "url": "https://api.github.com/repos/PrismarineJS/minecraft-data/issues/comments/1646646275/reactions"
            },
            "updated_at": "2023-07-22T18:30:52Z",
            "url": "https://api.github.com/repos/PrismarineJS/minecraft-data/issues/comments/1646646275",
            "user": {
                "avatar_url": "https://avatars.githubusercontent.com/u/86970314?v=4",
                "events_url": "https://api.github.com/users/CreeperG16/events{/privacy}",
                "followers_url": "https://api.github.com/users/CreeperG16/followers",
                "following_url": "https://api.github.com/users/CreeperG16/following{/other_user}",
                "gists_url": "https://api.github.com/users/CreeperG16/gists{/gist_id}",
                "gravatar_id": "",
                "html_url": "https://github.com/CreeperG16",
                "id": 86970314,
                "login": "CreeperG16",
                "node_id": "MDQ6VXNlcjg2OTcwMzE0",
                "organizations_url": "https://api.github.com/users/CreeperG16/orgs",
                "received_events_url": "https://api.github.com/users/CreeperG16/received_events",
                "repos_url": "https://api.github.com/users/CreeperG16/repos",
                "site_admin": false,
                "starred_url": "https://api.github.com/users/CreeperG16/starred{/owner}{/repo}",
                "subscriptions_url": "https://api.github.com/users/CreeperG16/subscriptions",
                "type": "User",
                "url": "https://api.github.com/users/CreeperG16"
            }
        },
        {
            "author_association": "MEMBER",
            "body": "Can you provide some deserialized output with that number field?",
            "created_at": "2023-07-22T18:37:33Z",
            "html_url": "https://github.com/PrismarineJS/minecraft-data/pull/742#issuecomment-1646647516",
            "id": 1646647516,
            "issue_url": "https://api.github.com/repos/PrismarineJS/minecraft-data/issues/742",
            "node_id": "IC_kwDOAfOYes5iJdjc",
            "performed_via_github_app": null,
            "reactions": {
                "+1": 0,
                "-1": 0,
                "confused": 0,
                "eyes": 0,
                "heart": 0,
                "hooray": 0,
                "laugh": 0,
                "rocket": 0,
                "total_count": 0,
                "url": "https://api.github.com/repos/PrismarineJS/minecraft-data/issues/comments/1646647516/reactions"
            },
            "updated_at": "2023-07-22T18:37:33Z",
            "url": "https://api.github.com/repos/PrismarineJS/minecraft-data/issues/comments/1646647516",
            "user": {
                "avatar_url": "https://avatars.githubusercontent.com/u/13713600?v=4",
                "events_url": "https://api.github.com/users/extremeheat/events{/privacy}",
                "followers_url": "https://api.github.com/users/extremeheat/followers",
                "following_url": "https://api.github.com/users/extremeheat/following{/other_user}",
                "gists_url": "https://api.github.com/users/extremeheat/gists{/gist_id}",
                "gravatar_id": "",
                "html_url": "https://github.com/extremeheat",
                "id": 13713600,
                "login": "extremeheat",
                "node_id": "MDQ6VXNlcjEzNzEzNjAw",
                "organizations_url": "https://api.github.com/users/extremeheat/orgs",
                "received_events_url": "https://api.github.com/users/extremeheat/received_events",
                "repos_url": "https://api.github.com/users/extremeheat/repos",
                "site_admin": false,
                "starred_url": "https://api.github.com/users/extremeheat/starred{/owner}{/repo}",
                "subscriptions_url": "https://api.github.com/users/extremeheat/subscriptions",
                "type": "User",
                "url": "https://api.github.com/users/extremeheat"
            }
        },
        {
            "author_association": "CONTRIBUTOR",
            "body": "Sorry for the delay\nConnecting a client to a vanilla 1.20.10 BDS, here is the first entry in `packet.command_data`:\n```js\n> console.log(until.inspect(packet.command_data[0], { depth: 4 }))\n{\n  name: 'allowlist',\n  description: 'commands.allowlist.description',\n  flags: 0,\n  permission_level: 4,\n  alias: 182,\n  chained_subcommand_offsets: [],\n  overloads: [\n    {\n      chaining: false,\n      __4265: [\n        {\n          parameter_name: 'action',\n          value_type: 181,\n          enum_type: 48,\n          optional: false,\n          options: [Object]\n        },\n        {\n           parameter_name: 'name',\n           value_type: 'string',\n           enum_type: 'valid',\n           optional: true,\n           options: [Object]\n        }\n      ]\n    }\n  ]\n}\n```\nIn versions before 1.20.10 (when the `chaining` bool field was added), the entry looks like this:\n```js\n{\n  name: 'allowlist',\n  description: 'commands.allowlist.description',\n  flags: 0,\n  permission_level: 4,\n  alias: 182,\n  chained_subcommand_offsets: [],\n  overloads: [\n    [\n      {\n        parameter_name: 'action',\n        value_type: 181,\n        enum_type: 48,\n        optional: false,\n        options: [Object]\n      },\n      {\n         parameter_name: 'name',\n         value_type: 'string',\n         enum_type: 'valid',\n         optional: true,\n         options: [Object]\n      }\n    ]\n  ]\n}\n```\n",
            "created_at": "2023-07-24T19:20:01Z",
            "html_url": "https://github.com/PrismarineJS/minecraft-data/pull/742#issuecomment-1648478719",
            "id": 1648478719,
            "issue_url": "https://api.github.com/repos/PrismarineJS/minecraft-data/issues/742",
            "node_id": "IC_kwDOAfOYes5iQcn_",
            "performed_via_github_app": null,
            "reactions": {
                "+1": 0,
                "-1": 0,
                "confused": 0,
                "eyes": 0,
                "heart": 0,
                "hooray": 0,
                "laugh": 0,
                "rocket": 0,
                "total_count": 0,
                "url": "https://api.github.com/repos/PrismarineJS/minecraft-data/issues/comments/1648478719/reactions"
            },
            "updated_at": "2023-07-24T19:20:01Z",
            "url": "https://api.github.com/repos/PrismarineJS/minecraft-data/issues/comments/1648478719",
            "user": {
                "avatar_url": "https://avatars.githubusercontent.com/u/86970314?v=4",
                "events_url": "https://api.github.com/users/CreeperG16/events{/privacy}",
                "followers_url": "https://api.github.com/users/CreeperG16/followers",
                "following_url": "https://api.github.com/users/CreeperG16/following{/other_user}",
                "gists_url": "https://api.github.com/users/CreeperG16/gists{/gist_id}",
                "gravatar_id": "",
                "html_url": "https://github.com/CreeperG16",
                "id": 86970314,
                "login": "CreeperG16",
                "node_id": "MDQ6VXNlcjg2OTcwMzE0",
                "organizations_url": "https://api.github.com/users/CreeperG16/orgs",
                "received_events_url": "https://api.github.com/users/CreeperG16/received_events",
                "repos_url": "https://api.github.com/users/CreeperG16/repos",
                "site_admin": false,
                "starred_url": "https://api.github.com/users/CreeperG16/starred{/owner}{/repo}",
                "subscriptions_url": "https://api.github.com/users/CreeperG16/subscriptions",
                "type": "User",
                "url": "https://api.github.com/users/CreeperG16"
            }
        },
        {
            "author_association": "MEMBER",
            "body": "Ah, I see. This problem was introduced with 1.20.10 PR #734, it's caused by a `overloads` no longer being possible to be an anonymous array with the introduction of a [new field `overload` field](https://github.com/PrismarineJS/minecraft-data/commit/fa521866fb2c50af30d072413b2a12a5a2a5eb45#diff-9c62d46fc27e8b994cb346d654d61abca063191abf9762890a12659b56048966L1735-R1759) preceding the nested array (basically we can't just flatten it anymore). So I think it makes sense to remove the anon there (and on all the other versions too to be consistent).",
            "created_at": "2023-07-24T19:50:53Z",
            "html_url": "https://github.com/PrismarineJS/minecraft-data/pull/742#issuecomment-1648514134",
            "id": 1648514134,
            "issue_url": "https://api.github.com/repos/PrismarineJS/minecraft-data/issues/742",
            "node_id": "IC_kwDOAfOYes5iQlRW",
            "performed_via_github_app": null,
            "reactions": {
                "+1": 0,
                "-1": 0,
                "confused": 0,
                "eyes": 0,
                "heart": 0,
                "hooray": 0,
                "laugh": 0,
                "rocket": 0,
                "total_count": 0,
                "url": "https://api.github.com/repos/PrismarineJS/minecraft-data/issues/comments/1648514134/reactions"
            },
            "updated_at": "2023-07-24T19:50:53Z",
            "url": "https://api.github.com/repos/PrismarineJS/minecraft-data/issues/comments/1648514134",
            "user": {
                "avatar_url": "https://avatars.githubusercontent.com/u/13713600?v=4",
                "events_url": "https://api.github.com/users/extremeheat/events{/privacy}",
                "followers_url": "https://api.github.com/users/extremeheat/followers",
                "following_url": "https://api.github.com/users/extremeheat/following{/other_user}",
                "gists_url": "https://api.github.com/users/extremeheat/gists{/gist_id}",
                "gravatar_id": "",
                "html_url": "https://github.com/extremeheat",
                "id": 13713600,
                "login": "extremeheat",
                "node_id": "MDQ6VXNlcjEzNzEzNjAw",
                "organizations_url": "https://api.github.com/users/extremeheat/orgs",
                "received_events_url": "https://api.github.com/users/extremeheat/received_events",
                "repos_url": "https://api.github.com/users/extremeheat/repos",
                "site_admin": false,
                "starred_url": "https://api.github.com/users/extremeheat/starred{/owner}{/repo}",
                "subscriptions_url": "https://api.github.com/users/extremeheat/subscriptions",
                "type": "User",
                "url": "https://api.github.com/users/extremeheat"
            }
        }
    ],
    "comments": 6,
    "comments_url": "https://api.github.com/repos/PrismarineJS/minecraft-data/issues/742/comments",
    "commit_data": [
        {
            "author": {
                "avatar_url": "https://avatars.githubusercontent.com/u/86970314?v=4",
                "events_url": "https://api.github.com/users/CreeperG16/events{/privacy}",
                "followers_url": "https://api.github.com/users/CreeperG16/followers",
                "following_url": "https://api.github.com/users/CreeperG16/following{/other_user}",
                "gists_url": "https://api.github.com/users/CreeperG16/gists{/gist_id}",
                "gravatar_id": "",
                "html_url": "https://github.com/CreeperG16",
                "id": 86970314,
                "login": "CreeperG16",
                "node_id": "MDQ6VXNlcjg2OTcwMzE0",
                "organizations_url": "https://api.github.com/users/CreeperG16/orgs",
                "received_events_url": "https://api.github.com/users/CreeperG16/received_events",
                "repos_url": "https://api.github.com/users/CreeperG16/repos",
                "site_admin": false,
                "starred_url": "https://api.github.com/users/CreeperG16/starred{/owner}{/repo}",
                "subscriptions_url": "https://api.github.com/users/CreeperG16/subscriptions",
                "type": "User",
                "url": "https://api.github.com/users/CreeperG16"
            },
            "comments_url": "https://api.github.com/repos/PrismarineJS/minecraft-data/commits/a5bae3bfb1482bff3de675069676a8673dc6c62c/comments",
            "commit": {
                "author": {
                    "date": "2023-07-22T14:23:38Z",
                    "email": "pappt1216@gmail.com",
                    "name": "CreeperG16"
                },
                "comment_count": 0,
                "committer": {
                    "date": "2023-07-22T14:23:38Z",
                    "email": "pappt1216@gmail.com",
                    "name": "CreeperG16"
                },
                "message": "Fix values for enum type in available commands packet",
                "tree": {
                    "sha": "cfab8f47a7e8aa289992dd6ddf29cadbca8d5412",
                    "url": "https://api.github.com/repos/PrismarineJS/minecraft-data/git/trees/cfab8f47a7e8aa289992dd6ddf29cadbca8d5412"
                },
                "url": "https://api.github.com/repos/PrismarineJS/minecraft-data/git/commits/a5bae3bfb1482bff3de675069676a8673dc6c62c",
                "verification": {
                    "payload": null,
                    "reason": "unsigned",
                    "signature": null,
                    "verified": false
                }
            },
            "committer": {
                "avatar_url": "https://avatars.githubusercontent.com/u/86970314?v=4",
                "events_url": "https://api.github.com/users/CreeperG16/events{/privacy}",
                "followers_url": "https://api.github.com/users/CreeperG16/followers",
                "following_url": "https://api.github.com/users/CreeperG16/following{/other_user}",
                "gists_url": "https://api.github.com/users/CreeperG16/gists{/gist_id}",
                "gravatar_id": "",
                "html_url": "https://github.com/CreeperG16",
                "id": 86970314,
                "login": "CreeperG16",
                "node_id": "MDQ6VXNlcjg2OTcwMzE0",
                "organizations_url": "https://api.github.com/users/CreeperG16/orgs",
                "received_events_url": "https://api.github.com/users/CreeperG16/received_events",
                "repos_url": "https://api.github.com/users/CreeperG16/repos",
                "site_admin": false,
                "starred_url": "https://api.github.com/users/CreeperG16/starred{/owner}{/repo}",
                "subscriptions_url": "https://api.github.com/users/CreeperG16/subscriptions",
                "type": "User",
                "url": "https://api.github.com/users/CreeperG16"
            },
            "html_url": "https://github.com/PrismarineJS/minecraft-data/commit/a5bae3bfb1482bff3de675069676a8673dc6c62c",
            "node_id": "C_kwDOI7hFg9oAKGE1YmFlM2JmYjE0ODJiZmYzZGU2NzUwNjk2NzZhODY3M2RjNmM2MmM",
            "parents": [
                {
                    "html_url": "https://github.com/PrismarineJS/minecraft-data/commit/099a80ddad349bb15ff4c02407a233a555a8a83d",
                    "sha": "099a80ddad349bb15ff4c02407a233a555a8a83d",
                    "url": "https://api.github.com/repos/PrismarineJS/minecraft-data/commits/099a80ddad349bb15ff4c02407a233a555a8a83d"
                }
            ],
            "sha": "a5bae3bfb1482bff3de675069676a8673dc6c62c",
            "url": "https://api.github.com/repos/PrismarineJS/minecraft-data/commits/a5bae3bfb1482bff3de675069676a8673dc6c62c"
        },
        {
            "author": {
                "avatar_url": "https://avatars.githubusercontent.com/u/86970314?v=4",
                "events_url": "https://api.github.com/users/CreeperG16/events{/privacy}",
                "followers_url": "https://api.github.com/users/CreeperG16/followers",
                "following_url": "https://api.github.com/users/CreeperG16/following{/other_user}",
                "gists_url": "https://api.github.com/users/CreeperG16/gists{/gist_id}",
                "gravatar_id": "",
                "html_url": "https://github.com/CreeperG16",
                "id": 86970314,
                "login": "CreeperG16",
                "node_id": "MDQ6VXNlcjg2OTcwMzE0",
                "organizations_url": "https://api.github.com/users/CreeperG16/orgs",
                "received_events_url": "https://api.github.com/users/CreeperG16/received_events",
                "repos_url": "https://api.github.com/users/CreeperG16/repos",
                "site_admin": false,
                "starred_url": "https://api.github.com/users/CreeperG16/starred{/owner}{/repo}",
                "subscriptions_url": "https://api.github.com/users/CreeperG16/subscriptions",
                "type": "User",
                "url": "https://api.github.com/users/CreeperG16"
            },
            "comments_url": "https://api.github.com/repos/PrismarineJS/minecraft-data/commits/20ee4d07f2e60daf2e05b45a1a6bac33711b5b2b/comments",
            "commit": {
                "author": {
                    "date": "2023-07-22T15:18:55Z",
                    "email": "pappt1216@gmail.com",
                    "name": "CreeperG16"
                },
                "comment_count": 0,
                "committer": {
                    "date": "2023-07-22T15:18:55Z",
                    "email": "pappt1216@gmail.com",
                    "name": "CreeperG16"
                },
                "message": "Name parameters field in command overloads",
                "tree": {
                    "sha": "f1ba4386ea3dbc8821e41380ef8add70902bb16d",
                    "url": "https://api.github.com/repos/PrismarineJS/minecraft-data/git/trees/f1ba4386ea3dbc8821e41380ef8add70902bb16d"
                },
                "url": "https://api.github.com/repos/PrismarineJS/minecraft-data/git/commits/20ee4d07f2e60daf2e05b45a1a6bac33711b5b2b",
                "verification": {
                    "payload": null,
                    "reason": "unsigned",
                    "signature": null,
                    "verified": false
                }
            },
            "committer": {
                "avatar_url": "https://avatars.githubusercontent.com/u/86970314?v=4",
                "events_url": "https://api.github.com/users/CreeperG16/events{/privacy}",
                "followers_url": "https://api.github.com/users/CreeperG16/followers",
                "following_url": "https://api.github.com/users/CreeperG16/following{/other_user}",
                "gists_url": "https://api.github.com/users/CreeperG16/gists{/gist_id}",
                "gravatar_id": "",
                "html_url": "https://github.com/CreeperG16",
                "id": 86970314,
                "login": "CreeperG16",
                "node_id": "MDQ6VXNlcjg2OTcwMzE0",
                "organizations_url": "https://api.github.com/users/CreeperG16/orgs",
                "received_events_url": "https://api.github.com/users/CreeperG16/received_events",
                "repos_url": "https://api.github.com/users/CreeperG16/repos",
                "site_admin": false,
                "starred_url": "https://api.github.com/users/CreeperG16/starred{/owner}{/repo}",
                "subscriptions_url": "https://api.github.com/users/CreeperG16/subscriptions",
                "type": "User",
                "url": "https://api.github.com/users/CreeperG16"
            },
            "html_url": "https://github.com/PrismarineJS/minecraft-data/commit/20ee4d07f2e60daf2e05b45a1a6bac33711b5b2b",
            "node_id": "C_kwDOI7hFg9oAKDIwZWU0ZDA3ZjJlNjBkYWYyZTA1YjQ1YTFhNmJhYzMzNzExYjViMmI",
            "parents": [
                {
                    "html_url": "https://github.com/PrismarineJS/minecraft-data/commit/a5bae3bfb1482bff3de675069676a8673dc6c62c",
                    "sha": "a5bae3bfb1482bff3de675069676a8673dc6c62c",
                    "url": "https://api.github.com/repos/PrismarineJS/minecraft-data/commits/a5bae3bfb1482bff3de675069676a8673dc6c62c"
                }
            ],
            "sha": "20ee4d07f2e60daf2e05b45a1a6bac33711b5b2b",
            "url": "https://api.github.com/repos/PrismarineJS/minecraft-data/commits/20ee4d07f2e60daf2e05b45a1a6bac33711b5b2b"
        }
    ],
    "commits": 2,
    "commits_url": "https://api.github.com/repos/PrismarineJS/minecraft-data/pulls/742/commits",
    "created_at": "2023-07-22T15:20:38Z",
    "deletions": 1346,
    "diff_url": "https://github.com/PrismarineJS/minecraft-data/pull/742.diff",
    "draft": false,
    "head": {
        "label": "CreeperG16:fix-available-commands",
        "ref": "fix-available-commands",
        "repo": {
            "allow_forking": true,
            "archive_url": "https://api.github.com/repos/CreeperG16/minecraft-data/{archive_format}{/ref}",
            "archived": false,
            "assignees_url": "https://api.github.com/repos/CreeperG16/minecraft-data/assignees{/user}",
            "blobs_url": "https://api.github.com/repos/CreeperG16/minecraft-data/git/blobs{/sha}",
            "branches_url": "https://api.github.com/repos/CreeperG16/minecraft-data/branches{/branch}",
            "clone_url": "https://github.com/CreeperG16/minecraft-data.git",
            "collaborators_url": "https://api.github.com/repos/CreeperG16/minecraft-data/collaborators{/collaborator}",
            "comments_url": "https://api.github.com/repos/CreeperG16/minecraft-data/comments{/number}",
            "commits_url": "https://api.github.com/repos/CreeperG16/minecraft-data/commits{/sha}",
            "compare_url": "https://api.github.com/repos/CreeperG16/minecraft-data/compare/{base}...{head}",
            "contents_url": "https://api.github.com/repos/CreeperG16/minecraft-data/contents/{+path}",
            "contributors_url": "https://api.github.com/repos/CreeperG16/minecraft-data/contributors",
            "created_at": "2023-02-08T20:16:49Z",
            "default_branch": "master",
            "deployments_url": "https://api.github.com/repos/CreeperG16/minecraft-data/deployments",
            "description": "Language independent module providing minecraft data for minecraft clients, servers and libraries.",
            "disabled": false,
            "downloads_url": "https://api.github.com/repos/CreeperG16/minecraft-data/downloads",
            "events_url": "https://api.github.com/repos/CreeperG16/minecraft-data/events",
            "fork": true,
            "forks": 0,
            "forks_count": 0,
            "forks_url": "https://api.github.com/repos/CreeperG16/minecraft-data/forks",
            "full_name": "CreeperG16/minecraft-data",
            "git_commits_url": "https://api.github.com/repos/CreeperG16/minecraft-data/git/commits{/sha}",
            "git_refs_url": "https://api.github.com/repos/CreeperG16/minecraft-data/git/refs{/sha}",
            "git_tags_url": "https://api.github.com/repos/CreeperG16/minecraft-data/git/tags{/sha}",
            "git_url": "git://github.com/CreeperG16/minecraft-data.git",
            "has_discussions": false,
            "has_downloads": true,
            "has_issues": false,
            "has_pages": false,
            "has_projects": true,
            "has_wiki": true,
            "homepage": "https://minecraft-data.prismarine.js.org/",
            "hooks_url": "https://api.github.com/repos/CreeperG16/minecraft-data/hooks",
            "html_url": "https://github.com/CreeperG16/minecraft-data",
            "id": 599278979,
            "is_template": false,
            "issue_comment_url": "https://api.github.com/repos/CreeperG16/minecraft-data/issues/comments{/number}",
            "issue_events_url": "https://api.github.com/repos/CreeperG16/minecraft-data/issues/events{/number}",
            "issues_url": "https://api.github.com/repos/CreeperG16/minecraft-data/issues{/number}",
            "keys_url": "https://api.github.com/repos/CreeperG16/minecraft-data/keys{/key_id}",
            "labels_url": "https://api.github.com/repos/CreeperG16/minecraft-data/labels{/name}",
            "language": "JavaScript",
            "languages_url": "https://api.github.com/repos/CreeperG16/minecraft-data/languages",
            "license": null,
            "merges_url": "https://api.github.com/repos/CreeperG16/minecraft-data/merges",
            "milestones_url": "https://api.github.com/repos/CreeperG16/minecraft-data/milestones{/number}",
            "mirror_url": null,
            "name": "minecraft-data",
            "node_id": "R_kgDOI7hFgw",
            "notifications_url": "https://api.github.com/repos/CreeperG16/minecraft-data/notifications{?since,all,participating}",
            "open_issues": 0,
            "open_issues_count": 0,
            "owner": {
                "avatar_url": "https://avatars.githubusercontent.com/u/86970314?v=4",
                "events_url": "https://api.github.com/users/CreeperG16/events{/privacy}",
                "followers_url": "https://api.github.com/users/CreeperG16/followers",
                "following_url": "https://api.github.com/users/CreeperG16/following{/other_user}",
                "gists_url": "https://api.github.com/users/CreeperG16/gists{/gist_id}",
                "gravatar_id": "",
                "html_url": "https://github.com/CreeperG16",
                "id": 86970314,
                "login": "CreeperG16",
                "node_id": "MDQ6VXNlcjg2OTcwMzE0",
                "organizations_url": "https://api.github.com/users/CreeperG16/orgs",
                "received_events_url": "https://api.github.com/users/CreeperG16/received_events",
                "repos_url": "https://api.github.com/users/CreeperG16/repos",
                "site_admin": false,
                "starred_url": "https://api.github.com/users/CreeperG16/starred{/owner}{/repo}",
                "subscriptions_url": "https://api.github.com/users/CreeperG16/subscriptions",
                "type": "User",
                "url": "https://api.github.com/users/CreeperG16"
            },
            "private": false,
            "pulls_url": "https://api.github.com/repos/CreeperG16/minecraft-data/pulls{/number}",
            "pushed_at": "2023-07-25T15:27:09Z",
            "releases_url": "https://api.github.com/repos/CreeperG16/minecraft-data/releases{/id}",
            "size": 7124,
            "ssh_url": "git@github.com:CreeperG16/minecraft-data.git",
            "stargazers_count": 0,
            "stargazers_url": "https://api.github.com/repos/CreeperG16/minecraft-data/stargazers",
            "statuses_url": "https://api.github.com/repos/CreeperG16/minecraft-data/statuses/{sha}",
            "subscribers_url": "https://api.github.com/repos/CreeperG16/minecraft-data/subscribers",
            "subscription_url": "https://api.github.com/repos/CreeperG16/minecraft-data/subscription",
            "svn_url": "https://github.com/CreeperG16/minecraft-data",
            "tags_url": "https://api.github.com/repos/CreeperG16/minecraft-data/tags",
            "teams_url": "https://api.github.com/repos/CreeperG16/minecraft-data/teams",
            "topics": [],
            "trees_url": "https://api.github.com/repos/CreeperG16/minecraft-data/git/trees{/sha}",
            "updated_at": "2023-02-09T00:18:51Z",
            "url": "https://api.github.com/repos/CreeperG16/minecraft-data",
            "visibility": "public",
            "watchers": 0,
            "watchers_count": 0,
            "web_commit_signoff_required": false
        },
        "sha": "20ee4d07f2e60daf2e05b45a1a6bac33711b5b2b",
        "user": {
            "avatar_url": "https://avatars.githubusercontent.com/u/86970314?v=4",
            "events_url": "https://api.github.com/users/CreeperG16/events{/privacy}",
            "followers_url": "https://api.github.com/users/CreeperG16/followers",
            "following_url": "https://api.github.com/users/CreeperG16/following{/other_user}",
            "gists_url": "https://api.github.com/users/CreeperG16/gists{/gist_id}",
            "gravatar_id": "",
            "html_url": "https://github.com/CreeperG16",
            "id": 86970314,
            "login": "CreeperG16",
            "node_id": "MDQ6VXNlcjg2OTcwMzE0",
            "organizations_url": "https://api.github.com/users/CreeperG16/orgs",
            "received_events_url": "https://api.github.com/users/CreeperG16/received_events",
            "repos_url": "https://api.github.com/users/CreeperG16/repos",
            "site_admin": false,
            "starred_url": "https://api.github.com/users/CreeperG16/starred{/owner}{/repo}",
            "subscriptions_url": "https://api.github.com/users/CreeperG16/subscriptions",
            "type": "User",
            "url": "https://api.github.com/users/CreeperG16"
        }
    },
    "html_url": "https://github.com/PrismarineJS/minecraft-data/pull/742",
    "id": 1445345757,
    "issue_url": "https://api.github.com/repos/PrismarineJS/minecraft-data/issues/742",
    "labels": [],
    "locked": false,
    "maintainer_can_modify": false,
    "merge_commit_sha": "b04d0940925247e7aa45434094eb7b4b119322f1",
    "mergeable": null,
    "mergeable_state": "unknown",
    "merged": true,
    "merged_at": "2023-07-24T20:11:21Z",
    "merged_by": {
        "avatar_url": "https://avatars.githubusercontent.com/u/2346494?v=4",
        "events_url": "https://api.github.com/users/rom1504/events{/privacy}",
        "followers_url": "https://api.github.com/users/rom1504/followers",
        "following_url": "https://api.github.com/users/rom1504/following{/other_user}",
        "gists_url": "https://api.github.com/users/rom1504/gists{/gist_id}",
        "gravatar_id": "",
        "html_url": "https://github.com/rom1504",
        "id": 2346494,
        "login": "rom1504",
        "node_id": "MDQ6VXNlcjIzNDY0OTQ=",
        "organizations_url": "https://api.github.com/users/rom1504/orgs",
        "received_events_url": "https://api.github.com/users/rom1504/received_events",
        "repos_url": "https://api.github.com/users/rom1504/repos",
        "site_admin": false,
        "starred_url": "https://api.github.com/users/rom1504/starred{/owner}{/repo}",
        "subscriptions_url": "https://api.github.com/users/rom1504/subscriptions",
        "type": "User",
        "url": "https://api.github.com/users/rom1504"
    },
    "milestone": null,
    "node_id": "PR_kwDOAfOYes5WJjnd",
    "number": 742,
    "patch_url": "https://github.com/PrismarineJS/minecraft-data/pull/742.patch",
    "rebaseable": null,
    "requested_reviewers": [],
    "requested_teams": [],
    "review_comment_url": "https://api.github.com/repos/PrismarineJS/minecraft-data/pulls/comments{/number}",
    "review_comments": 0,
    "review_comments_url": "https://api.github.com/repos/PrismarineJS/minecraft-data/pulls/742/comments",
    "state": "closed",
    "statuses_url": "https://api.github.com/repos/PrismarineJS/minecraft-data/statuses/20ee4d07f2e60daf2e05b45a1a6bac33711b5b2b",
    "title": "Fix values for enum type in available_commands packet",
    "updated_at": "2023-07-25T13:15:08Z",
    "url": "https://api.github.com/repos/PrismarineJS/minecraft-data/pulls/742",
    "user": {
        "avatar_url": "https://avatars.githubusercontent.com/u/86970314?v=4",
        "events_url": "https://api.github.com/users/CreeperG16/events{/privacy}",
        "followers_url": "https://api.github.com/users/CreeperG16/followers",
        "following_url": "https://api.github.com/users/CreeperG16/following{/other_user}",
        "gists_url": "https://api.github.com/users/CreeperG16/gists{/gist_id}",
        "gravatar_id": "",
        "html_url": "https://github.com/CreeperG16",
        "id": 86970314,
        "login": "CreeperG16",
        "node_id": "MDQ6VXNlcjg2OTcwMzE0",
        "organizations_url": "https://api.github.com/users/CreeperG16/orgs",
        "received_events_url": "https://api.github.com/users/CreeperG16/received_events",
        "repos_url": "https://api.github.com/users/CreeperG16/repos",
        "site_admin": false,
        "starred_url": "https://api.github.com/users/CreeperG16/starred{/owner}{/repo}",
        "subscriptions_url": "https://api.github.com/users/CreeperG16/subscriptions",
        "type": "User",
        "url": "https://api.github.com/users/CreeperG16"
    }
}