{
    "_links": {
        "comments": {
            "href": "https://api.github.com/repos/PrismarineJS/minecraft-data/issues/869/comments"
        },
        "commits": {
            "href": "https://api.github.com/repos/PrismarineJS/minecraft-data/pulls/869/commits"
        },
        "html": {
            "href": "https://github.com/PrismarineJS/minecraft-data/pull/869"
        },
        "issue": {
            "href": "https://api.github.com/repos/PrismarineJS/minecraft-data/issues/869"
        },
        "review_comment": {
            "href": "https://api.github.com/repos/PrismarineJS/minecraft-data/pulls/comments{/number}"
        },
        "review_comments": {
            "href": "https://api.github.com/repos/PrismarineJS/minecraft-data/pulls/869/comments"
        },
        "self": {
            "href": "https://api.github.com/repos/PrismarineJS/minecraft-data/pulls/869"
        },
        "statuses": {
            "href": "https://api.github.com/repos/PrismarineJS/minecraft-data/statuses/f016ea2c456a88e9617dde1f770af2832e94ce7e"
        }
    },
    "active_lock_reason": null,
    "additions": 16857,
    "assignee": null,
    "assignees": [],
    "author_association": "NONE",
    "auto_merge": null,
    "base": {
        "label": "PrismarineJS:master",
        "ref": "master",
        "repo": {
            "allow_forking": true,
            "archive_url": "https://api.github.com/repos/PrismarineJS/minecraft-data/{archive_format}{/ref}",
            "archived": false,
            "assignees_url": "https://api.github.com/repos/PrismarineJS/minecraft-data/assignees{/user}",
            "blobs_url": "https://api.github.com/repos/PrismarineJS/minecraft-data/git/blobs{/sha}",
            "branches_url": "https://api.github.com/repos/PrismarineJS/minecraft-data/branches{/branch}",
            "clone_url": "https://github.com/PrismarineJS/minecraft-data.git",
            "collaborators_url": "https://api.github.com/repos/PrismarineJS/minecraft-data/collaborators{/collaborator}",
            "comments_url": "https://api.github.com/repos/PrismarineJS/minecraft-data/comments{/number}",
            "commits_url": "https://api.github.com/repos/PrismarineJS/minecraft-data/commits{/sha}",
            "compare_url": "https://api.github.com/repos/PrismarineJS/minecraft-data/compare/{base}...{head}",
            "contents_url": "https://api.github.com/repos/PrismarineJS/minecraft-data/contents/{+path}",
            "contributors_url": "https://api.github.com/repos/PrismarineJS/minecraft-data/contributors",
            "created_at": "2015-03-23T15:38:19Z",
            "default_branch": "master",
            "deployments_url": "https://api.github.com/repos/PrismarineJS/minecraft-data/deployments",
            "description": "Language independent module providing minecraft data for minecraft clients, servers and libraries.",
            "disabled": false,
            "downloads_url": "https://api.github.com/repos/PrismarineJS/minecraft-data/downloads",
            "events_url": "https://api.github.com/repos/PrismarineJS/minecraft-data/events",
            "fork": false,
            "forks": 205,
            "forks_count": 205,
            "forks_url": "https://api.github.com/repos/PrismarineJS/minecraft-data/forks",
            "full_name": "PrismarineJS/minecraft-data",
            "git_commits_url": "https://api.github.com/repos/PrismarineJS/minecraft-data/git/commits{/sha}",
            "git_refs_url": "https://api.github.com/repos/PrismarineJS/minecraft-data/git/refs{/sha}",
            "git_tags_url": "https://api.github.com/repos/PrismarineJS/minecraft-data/git/tags{/sha}",
            "git_url": "git://github.com/PrismarineJS/minecraft-data.git",
            "has_discussions": false,
            "has_downloads": true,
            "has_issues": true,
            "has_pages": true,
            "has_projects": true,
            "has_wiki": true,
            "homepage": "https://prismarinejs.github.io/minecraft-data",
            "hooks_url": "https://api.github.com/repos/PrismarineJS/minecraft-data/hooks",
            "html_url": "https://github.com/PrismarineJS/minecraft-data",
            "id": 32741498,
            "is_template": false,
            "issue_comment_url": "https://api.github.com/repos/PrismarineJS/minecraft-data/issues/comments{/number}",
            "issue_events_url": "https://api.github.com/repos/PrismarineJS/minecraft-data/issues/events{/number}",
            "issues_url": "https://api.github.com/repos/PrismarineJS/minecraft-data/issues{/number}",
            "keys_url": "https://api.github.com/repos/PrismarineJS/minecraft-data/keys{/key_id}",
            "labels_url": "https://api.github.com/repos/PrismarineJS/minecraft-data/labels{/name}",
            "language": "JavaScript",
            "languages_url": "https://api.github.com/repos/PrismarineJS/minecraft-data/languages",
            "license": null,
            "merges_url": "https://api.github.com/repos/PrismarineJS/minecraft-data/merges",
            "milestones_url": "https://api.github.com/repos/PrismarineJS/minecraft-data/milestones{/number}",
            "mirror_url": null,
            "name": "minecraft-data",
            "node_id": "MDEwOlJlcG9zaXRvcnkzMjc0MTQ5OA==",
            "notifications_url": "https://api.github.com/repos/PrismarineJS/minecraft-data/notifications{?since,all,participating}",
            "open_issues": 128,
            "open_issues_count": 128,
            "owner": {
                "avatar_url": "https://avatars.githubusercontent.com/u/11053411?v=4",
                "events_url": "https://api.github.com/users/PrismarineJS/events{/privacy}",
                "followers_url": "https://api.github.com/users/PrismarineJS/followers",
                "following_url": "https://api.github.com/users/PrismarineJS/following{/other_user}",
                "gists_url": "https://api.github.com/users/PrismarineJS/gists{/gist_id}",
                "gravatar_id": "",
                "html_url": "https://github.com/PrismarineJS",
                "id": 11053411,
                "login": "PrismarineJS",
                "node_id": "MDEyOk9yZ2FuaXphdGlvbjExMDUzNDEx",
                "organizations_url": "https://api.github.com/users/PrismarineJS/orgs",
                "received_events_url": "https://api.github.com/users/PrismarineJS/received_events",
                "repos_url": "https://api.github.com/users/PrismarineJS/repos",
                "site_admin": false,
                "starred_url": "https://api.github.com/users/PrismarineJS/starred{/owner}{/repo}",
                "subscriptions_url": "https://api.github.com/users/PrismarineJS/subscriptions",
                "type": "Organization",
                "url": "https://api.github.com/users/PrismarineJS"
            },
            "private": false,
            "pulls_url": "https://api.github.com/repos/PrismarineJS/minecraft-data/pulls{/number}",
            "pushed_at": "2024-04-01T18:37:59Z",
            "releases_url": "https://api.github.com/repos/PrismarineJS/minecraft-data/releases{/id}",
            "size": 191021,
            "ssh_url": "git@github.com:PrismarineJS/minecraft-data.git",
            "stargazers_count": 593,
            "stargazers_url": "https://api.github.com/repos/PrismarineJS/minecraft-data/stargazers",
            "statuses_url": "https://api.github.com/repos/PrismarineJS/minecraft-data/statuses/{sha}",
            "subscribers_url": "https://api.github.com/repos/PrismarineJS/minecraft-data/subscribers",
            "subscription_url": "https://api.github.com/repos/PrismarineJS/minecraft-data/subscription",
            "svn_url": "https://github.com/PrismarineJS/minecraft-data",
            "tags_url": "https://api.github.com/repos/PrismarineJS/minecraft-data/tags",
            "teams_url": "https://api.github.com/repos/PrismarineJS/minecraft-data/teams",
            "topics": [
                "data",
                "minecraft"
            ],
            "trees_url": "https://api.github.com/repos/PrismarineJS/minecraft-data/git/trees{/sha}",
            "updated_at": "2024-03-31T06:01:56Z",
            "url": "https://api.github.com/repos/PrismarineJS/minecraft-data",
            "visibility": "public",
            "watchers": 593,
            "watchers_count": 593,
            "web_commit_signoff_required": false
        },
        "sha": "8ed40942bc29c6fccf7a0be074bccf8a6a88ff54",
        "user": {
            "avatar_url": "https://avatars.githubusercontent.com/u/11053411?v=4",
            "events_url": "https://api.github.com/users/PrismarineJS/events{/privacy}",
            "followers_url": "https://api.github.com/users/PrismarineJS/followers",
            "following_url": "https://api.github.com/users/PrismarineJS/following{/other_user}",
            "gists_url": "https://api.github.com/users/PrismarineJS/gists{/gist_id}",
            "gravatar_id": "",
            "html_url": "https://github.com/PrismarineJS",
            "id": 11053411,
            "login": "PrismarineJS",
            "node_id": "MDEyOk9yZ2FuaXphdGlvbjExMDUzNDEx",
            "organizations_url": "https://api.github.com/users/PrismarineJS/orgs",
            "received_events_url": "https://api.github.com/users/PrismarineJS/received_events",
            "repos_url": "https://api.github.com/users/PrismarineJS/repos",
            "site_admin": false,
            "starred_url": "https://api.github.com/users/PrismarineJS/starred{/owner}{/repo}",
            "subscriptions_url": "https://api.github.com/users/PrismarineJS/subscriptions",
            "type": "Organization",
            "url": "https://api.github.com/users/PrismarineJS"
        }
    },
    "body": "Blocks change in every version and not everyone knows and has a way of dumping them so ill pr em",
    "changed_files": 2,
    "closed_at": "2024-04-01T19:02:34Z",
    "comment_data": [],
    "comment_regular_data": [
        {
            "author_association": "MEMBER",
            "body": "Not a dupe of #864 ?",
            "created_at": "2024-04-01T18:43:20Z",
            "html_url": "https://github.com/PrismarineJS/minecraft-data/pull/869#issuecomment-2030338955",
            "id": 2030338955,
            "issue_url": "https://api.github.com/repos/PrismarineJS/minecraft-data/issues/869",
            "node_id": "IC_kwDOAfOYes55BIOL",
            "performed_via_github_app": null,
            "reactions": {
                "+1": 0,
                "-1": 0,
                "confused": 0,
                "eyes": 0,
                "heart": 0,
                "hooray": 0,
                "laugh": 0,
                "rocket": 0,
                "total_count": 0,
                "url": "https://api.github.com/repos/PrismarineJS/minecraft-data/issues/comments/2030338955/reactions"
            },
            "updated_at": "2024-04-01T18:43:20Z",
            "url": "https://api.github.com/repos/PrismarineJS/minecraft-data/issues/comments/2030338955",
            "user": {
                "avatar_url": "https://avatars.githubusercontent.com/u/13713600?v=4",
                "events_url": "https://api.github.com/users/extremeheat/events{/privacy}",
                "followers_url": "https://api.github.com/users/extremeheat/followers",
                "following_url": "https://api.github.com/users/extremeheat/following{/other_user}",
                "gists_url": "https://api.github.com/users/extremeheat/gists{/gist_id}",
                "gravatar_id": "",
                "html_url": "https://github.com/extremeheat",
                "id": 13713600,
                "login": "extremeheat",
                "node_id": "MDQ6VXNlcjEzNzEzNjAw",
                "organizations_url": "https://api.github.com/users/extremeheat/orgs",
                "received_events_url": "https://api.github.com/users/extremeheat/received_events",
                "repos_url": "https://api.github.com/users/extremeheat/repos",
                "site_admin": false,
                "starred_url": "https://api.github.com/users/extremeheat/starred{/owner}{/repo}",
                "subscriptions_url": "https://api.github.com/users/extremeheat/subscriptions",
                "type": "User",
                "url": "https://api.github.com/users/extremeheat"
            }
        },
        {
            "author_association": "NONE",
            "body": "It appears that it may be\r\n",
            "created_at": "2024-04-01T18:50:56Z",
            "html_url": "https://github.com/PrismarineJS/minecraft-data/pull/869#issuecomment-2030350872",
            "id": 2030350872,
            "issue_url": "https://api.github.com/repos/PrismarineJS/minecraft-data/issues/869",
            "node_id": "IC_kwDOAfOYes55BLIY",
            "performed_via_github_app": null,
            "reactions": {
                "+1": 0,
                "-1": 0,
                "confused": 0,
                "eyes": 0,
                "heart": 0,
                "hooray": 0,
                "laugh": 0,
                "rocket": 0,
                "total_count": 0,
                "url": "https://api.github.com/repos/PrismarineJS/minecraft-data/issues/comments/2030350872/reactions"
            },
            "updated_at": "2024-04-01T18:50:56Z",
            "url": "https://api.github.com/repos/PrismarineJS/minecraft-data/issues/comments/2030350872",
            "user": {
                "avatar_url": "https://avatars.githubusercontent.com/u/61703768?v=4",
                "events_url": "https://api.github.com/users/AnyBananaGAME/events{/privacy}",
                "followers_url": "https://api.github.com/users/AnyBananaGAME/followers",
                "following_url": "https://api.github.com/users/AnyBananaGAME/following{/other_user}",
                "gists_url": "https://api.github.com/users/AnyBananaGAME/gists{/gist_id}",
                "gravatar_id": "",
                "html_url": "https://github.com/AnyBananaGAME",
                "id": 61703768,
                "login": "AnyBananaGAME",
                "node_id": "MDQ6VXNlcjYxNzAzNzY4",
                "organizations_url": "https://api.github.com/users/AnyBananaGAME/orgs",
                "received_events_url": "https://api.github.com/users/AnyBananaGAME/received_events",
                "repos_url": "https://api.github.com/users/AnyBananaGAME/repos",
                "site_admin": false,
                "starred_url": "https://api.github.com/users/AnyBananaGAME/starred{/owner}{/repo}",
                "subscriptions_url": "https://api.github.com/users/AnyBananaGAME/subscriptions",
                "type": "User",
                "url": "https://api.github.com/users/AnyBananaGAME"
            }
        },
        {
            "author_association": "NONE",
            "body": "compared the state ids and they look same to me\r\nThe PR wasn't merged so did not notice, sorry.",
            "created_at": "2024-04-01T18:51:12Z",
            "html_url": "https://github.com/PrismarineJS/minecraft-data/pull/869#issuecomment-2030351604",
            "id": 2030351604,
            "issue_url": "https://api.github.com/repos/PrismarineJS/minecraft-data/issues/869",
            "node_id": "IC_kwDOAfOYes55BLT0",
            "performed_via_github_app": null,
            "reactions": {
                "+1": 0,
                "-1": 0,
                "confused": 0,
                "eyes": 0,
                "heart": 0,
                "hooray": 0,
                "laugh": 0,
                "rocket": 0,
                "total_count": 0,
                "url": "https://api.github.com/repos/PrismarineJS/minecraft-data/issues/comments/2030351604/reactions"
            },
            "updated_at": "2024-04-01T18:51:40Z",
            "url": "https://api.github.com/repos/PrismarineJS/minecraft-data/issues/comments/2030351604",
            "user": {
                "avatar_url": "https://avatars.githubusercontent.com/u/61703768?v=4",
                "events_url": "https://api.github.com/users/AnyBananaGAME/events{/privacy}",
                "followers_url": "https://api.github.com/users/AnyBananaGAME/followers",
                "following_url": "https://api.github.com/users/AnyBananaGAME/following{/other_user}",
                "gists_url": "https://api.github.com/users/AnyBananaGAME/gists{/gist_id}",
                "gravatar_id": "",
                "html_url": "https://github.com/AnyBananaGAME",
                "id": 61703768,
                "login": "AnyBananaGAME",
                "node_id": "MDQ6VXNlcjYxNzAzNzY4",
                "organizations_url": "https://api.github.com/users/AnyBananaGAME/orgs",
                "received_events_url": "https://api.github.com/users/AnyBananaGAME/received_events",
                "repos_url": "https://api.github.com/users/AnyBananaGAME/repos",
                "site_admin": false,
                "starred_url": "https://api.github.com/users/AnyBananaGAME/starred{/owner}{/repo}",
                "subscriptions_url": "https://api.github.com/users/AnyBananaGAME/subscriptions",
                "type": "User",
                "url": "https://api.github.com/users/AnyBananaGAME"
            }
        }
    ],
    "comments": 3,
    "comments_url": "https://api.github.com/repos/PrismarineJS/minecraft-data/issues/869/comments",
    "commit_data": [
        {
            "author": {
                "avatar_url": "https://avatars.githubusercontent.com/u/61703768?v=4",
                "events_url": "https://api.github.com/users/AnyBananaGAME/events{/privacy}",
                "followers_url": "https://api.github.com/users/AnyBananaGAME/followers",
                "following_url": "https://api.github.com/users/AnyBananaGAME/following{/other_user}",
                "gists_url": "https://api.github.com/users/AnyBananaGAME/gists{/gist_id}",
                "gravatar_id": "",
                "html_url": "https://github.com/AnyBananaGAME",
                "id": 61703768,
                "login": "AnyBananaGAME",
                "node_id": "MDQ6VXNlcjYxNzAzNzY4",
                "organizations_url": "https://api.github.com/users/AnyBananaGAME/orgs",
                "received_events_url": "https://api.github.com/users/AnyBananaGAME/received_events",
                "repos_url": "https://api.github.com/users/AnyBananaGAME/repos",
                "site_admin": false,
                "starred_url": "https://api.github.com/users/AnyBananaGAME/starred{/owner}{/repo}",
                "subscriptions_url": "https://api.github.com/users/AnyBananaGAME/subscriptions",
                "type": "User",
                "url": "https://api.github.com/users/AnyBananaGAME"
            },
            "comments_url": "https://api.github.com/repos/PrismarineJS/minecraft-data/commits/05753f6a576bf89039486928573af1048749da2a/comments",
            "commit": {
                "author": {
                    "date": "2024-04-01T18:34:13Z",
                    "email": "61703768+AnyBananaGAME@users.noreply.github.com",
                    "name": "AnyBananaGAME"
                },
                "comment_count": 0,
                "committer": {
                    "date": "2024-04-01T18:34:13Z",
                    "email": "noreply@github.com",
                    "name": "GitHub"
                },
                "message": "Create blocks.json",
                "tree": {
                    "sha": "983792c7b5b6fb450fd7cb0459d09a827784f5d7",
                    "url": "https://api.github.com/repos/PrismarineJS/minecraft-data/git/trees/983792c7b5b6fb450fd7cb0459d09a827784f5d7"
                },
                "url": "https://api.github.com/repos/PrismarineJS/minecraft-data/git/commits/05753f6a576bf89039486928573af1048749da2a",
                "verification": {
                    "payload": "tree 983792c7b5b6fb450fd7cb0459d09a827784f5d7\nparent 8ed40942bc29c6fccf7a0be074bccf8a6a88ff54\nauthor AnyBananaGAME <61703768+AnyBananaGAME@users.noreply.github.com> 1711996453 +0300\ncommitter GitHub <noreply@github.com> 1711996453 +0300\n\nCreate blocks.json",
                    "reason": "valid",
                    "signature": "-----BEGIN PGP SIGNATURE-----\n\nwsFcBAABCAAQBQJmCv4lCRC1aQ7uu5UhlAAALloQAKUYXtYaAOpqSnXSqfpEXFSZ\nbaHLRKOhNL63W2CS3MVO6Da+IyHCn193sfcC0/Qu8eYteR+vGrAA3Nh2TAvQMf86\ndLH+hf/lTt/YIQ/VAc/oCOLRv9WQqAvrtKe1/8tLMfoVYXu7UddcEX/7GnEwz/OE\nscUh+d8qVkbX1eWUFkWnacjspubfCRrRVvG6e8X+NkFnY2dZ5l3Sz0bmy4TTTHT0\nxtQWYu91VQRekkWqNR5jilDflFPSRU50XG0yF2Lfm27uciV+pCx9sgFTGGvcIAsX\nRw9J7Py1m9DJ2r0la7rjxsUy8wz6xlbJi4VMu7WnpqN8OlFlsmrRcVftcBNrQhGO\ne1d6knbPHkQVXXem7rrB7Xbb0/xeAMdb9RUL+c88obm+ErsWLmEaKC0R8EAtP0FX\nE9wkK2KG7+K8x6V3hO2KJ3XOZi8wD7dt0wETb4WPSqFejAELpl9D0uKRlr50jhp1\nJ3DzZ2JgHGkiykxISjKk3BJxtnWjlezo+Zdp3RcfsuGPrMFPTMS3R+KdqSbZQc8I\n2XD/N6N5qGzNGXVZL8vNqvOIdvq1JGXE2FQJ21JS2Z/EhbHpqanyBf35vRnvi5nj\nCjAI8MMrBPMmV1UpasDvsuA8ZhLrEP+1kd71JQM0Ie4OMd9THfU8GFoREFSeCEcA\nsDrx4T6wS/inr0qEPV3V\n=M0u1\n-----END PGP SIGNATURE-----\n",
                    "verified": true
                }
            },
            "committer": {
                "avatar_url": "https://avatars.githubusercontent.com/u/19864447?v=4",
                "events_url": "https://api.github.com/users/web-flow/events{/privacy}",
                "followers_url": "https://api.github.com/users/web-flow/followers",
                "following_url": "https://api.github.com/users/web-flow/following{/other_user}",
                "gists_url": "https://api.github.com/users/web-flow/gists{/gist_id}",
                "gravatar_id": "",
                "html_url": "https://github.com/web-flow",
                "id": 19864447,
                "login": "web-flow",
                "node_id": "MDQ6VXNlcjE5ODY0NDQ3",
                "organizations_url": "https://api.github.com/users/web-flow/orgs",
                "received_events_url": "https://api.github.com/users/web-flow/received_events",
                "repos_url": "https://api.github.com/users/web-flow/repos",
                "site_admin": false,
                "starred_url": "https://api.github.com/users/web-flow/starred{/owner}{/repo}",
                "subscriptions_url": "https://api.github.com/users/web-flow/subscriptions",
                "type": "User",
                "url": "https://api.github.com/users/web-flow"
            },
            "html_url": "https://github.com/PrismarineJS/minecraft-data/commit/05753f6a576bf89039486928573af1048749da2a",
            "node_id": "C_kwDOLoZ5-doAKDA1NzUzZjZhNTc2YmY4OTAzOTQ4NjkyODU3M2FmMTA0ODc0OWRhMmE",
            "parents": [
                {
                    "html_url": "https://github.com/PrismarineJS/minecraft-data/commit/8ed40942bc29c6fccf7a0be074bccf8a6a88ff54",
                    "sha": "8ed40942bc29c6fccf7a0be074bccf8a6a88ff54",
                    "url": "https://api.github.com/repos/PrismarineJS/minecraft-data/commits/8ed40942bc29c6fccf7a0be074bccf8a6a88ff54"
                }
            ],
            "sha": "05753f6a576bf89039486928573af1048749da2a",
            "url": "https://api.github.com/repos/PrismarineJS/minecraft-data/commits/05753f6a576bf89039486928573af1048749da2a"
        },
        {
            "author": {
                "avatar_url": "https://avatars.githubusercontent.com/u/61703768?v=4",
                "events_url": "https://api.github.com/users/AnyBananaGAME/events{/privacy}",
                "followers_url": "https://api.github.com/users/AnyBananaGAME/followers",
                "following_url": "https://api.github.com/users/AnyBananaGAME/following{/other_user}",
                "gists_url": "https://api.github.com/users/AnyBananaGAME/gists{/gist_id}",
                "gravatar_id": "",
                "html_url": "https://github.com/AnyBananaGAME",
                "id": 61703768,
                "login": "AnyBananaGAME",
                "node_id": "MDQ6VXNlcjYxNzAzNzY4",
                "organizations_url": "https://api.github.com/users/AnyBananaGAME/orgs",
                "received_events_url": "https://api.github.com/users/AnyBananaGAME/received_events",
                "repos_url": "https://api.github.com/users/AnyBananaGAME/repos",
                "site_admin": false,
                "starred_url": "https://api.github.com/users/AnyBananaGAME/starred{/owner}{/repo}",
                "subscriptions_url": "https://api.github.com/users/AnyBananaGAME/subscriptions",
                "type": "User",
                "url": "https://api.github.com/users/AnyBananaGAME"
            },
            "comments_url": "https://api.github.com/repos/PrismarineJS/minecraft-data/commits/f016ea2c456a88e9617dde1f770af2832e94ce7e/comments",
            "commit": {
                "author": {
                    "date": "2024-04-01T18:34:59Z",
                    "email": "61703768+AnyBananaGAME@users.noreply.github.com",
                    "name": "AnyBananaGAME"
                },
                "comment_count": 0,
                "committer": {
                    "date": "2024-04-01T18:34:59Z",
                    "email": "noreply@github.com",
                    "name": "GitHub"
                },
                "message": "Update dataPaths.json",
                "tree": {
                    "sha": "4403c3a974f3e7214abfb99f34c8c9dcd1481d98",
                    "url": "https://api.github.com/repos/PrismarineJS/minecraft-data/git/trees/4403c3a974f3e7214abfb99f34c8c9dcd1481d98"
                },
                "url": "https://api.github.com/repos/PrismarineJS/minecraft-data/git/commits/f016ea2c456a88e9617dde1f770af2832e94ce7e",
                "verification": {
                    "payload": "tree 4403c3a974f3e7214abfb99f34c8c9dcd1481d98\nparent 05753f6a576bf89039486928573af1048749da2a\nauthor AnyBananaGAME <61703768+AnyBananaGAME@users.noreply.github.com> 1711996499 +0300\ncommitter GitHub <noreply@github.com> 1711996499 +0300\n\nUpdate dataPaths.json",
                    "reason": "valid",
                    "signature": "-----BEGIN PGP SIGNATURE-----\n\nwsFcBAABCAAQBQJmCv5TCRC1aQ7uu5UhlAAAS0sQAB5lrLWamPs1Q6An0cNSIjFh\nK/QLu4EZDVQ+9YU89ZPqtJVlY7E2GmwHzx7zmfKKNHcGZWxjOKH2/v9pdYodKRLf\nE7LRa8i+rbuJ3qddyP+7L8+YAUG8iI828ZP/Z7NbvvNCSyQ/ZXSCy8siNI6gyR10\nAgjqtlKXx0B0YV9Y4P/4sMq/Og+4CIeqfyxI3VWFm2emFPxEI0t3sO1SiEuGmBv/\nv7DhhF9JMwe+W24XfGSrJMNQkL1Fgsp9VxQBiZhaoM84MzvteJykPEJw8VOU+0sp\nZ+gCSzUv0aPdqfmGaBPFvia76Y0vRp4ZxpYyF+8ndZPcQPi8hO7ZUrxPyDTMlTDN\nnSiWoo7HIFDoOOljXa4wlAf1BDpen4K/RmhlhgnNor1fv4iSpZ8vKxEXqe+MaEpu\nwjpwLFxcw35WgwnTnlRpzme/l+GZiUmnoVzVrbOXnaoX7pLwuREHTXaFmJfc8pXx\njAOLLpbl1aEx8iUESLwoyfFQ1gLYkZnriMbjp3bh71vgafxdxyzuZnyWkOzWCFad\n5us0zQq1WHEn/bpXVxWl1ZDbTAVZHFIovDgu1E0WmECWBZgx4/qAq5NGbM7UIws5\npKRMpGqhrPmL7vOjdNyXtByNiF07CPPnvcxrIp7wQBbUjjnUJdGdWKqX2JVCI/tw\na76fkr/wDBJc6kYPiD+3\n=kQ7f\n-----END PGP SIGNATURE-----\n",
                    "verified": true
                }
            },
            "committer": {
                "avatar_url": "https://avatars.githubusercontent.com/u/19864447?v=4",
                "events_url": "https://api.github.com/users/web-flow/events{/privacy}",
                "followers_url": "https://api.github.com/users/web-flow/followers",
                "following_url": "https://api.github.com/users/web-flow/following{/other_user}",
                "gists_url": "https://api.github.com/users/web-flow/gists{/gist_id}",
                "gravatar_id": "",
                "html_url": "https://github.com/web-flow",
                "id": 19864447,
                "login": "web-flow",
                "node_id": "MDQ6VXNlcjE5ODY0NDQ3",
                "organizations_url": "https://api.github.com/users/web-flow/orgs",
                "received_events_url": "https://api.github.com/users/web-flow/received_events",
                "repos_url": "https://api.github.com/users/web-flow/repos",
                "site_admin": false,
                "starred_url": "https://api.github.com/users/web-flow/starred{/owner}{/repo}",
                "subscriptions_url": "https://api.github.com/users/web-flow/subscriptions",
                "type": "User",
                "url": "https://api.github.com/users/web-flow"
            },
            "html_url": "https://github.com/PrismarineJS/minecraft-data/commit/f016ea2c456a88e9617dde1f770af2832e94ce7e",
            "node_id": "C_kwDOLoZ5-doAKGYwMTZlYTJjNDU2YTg4ZTk2MTdkZGUxZjc3MGFmMjgzMmU5NGNlN2U",
            "parents": [
                {
                    "html_url": "https://github.com/PrismarineJS/minecraft-data/commit/05753f6a576bf89039486928573af1048749da2a",
                    "sha": "05753f6a576bf89039486928573af1048749da2a",
                    "url": "https://api.github.com/repos/PrismarineJS/minecraft-data/commits/05753f6a576bf89039486928573af1048749da2a"
                }
            ],
            "sha": "f016ea2c456a88e9617dde1f770af2832e94ce7e",
            "url": "https://api.github.com/repos/PrismarineJS/minecraft-data/commits/f016ea2c456a88e9617dde1f770af2832e94ce7e"
        }
    ],
    "commits": 2,
    "commits_url": "https://api.github.com/repos/PrismarineJS/minecraft-data/pulls/869/commits",
    "created_at": "2024-04-01T18:37:58Z",
    "deletions": 1,
    "diff_url": "https://github.com/PrismarineJS/minecraft-data/pull/869.diff",
    "draft": false,
    "head": {
        "label": "AnyBananaGAME:master",
        "ref": "master",
        "repo": {
            "allow_forking": true,
            "archive_url": "https://api.github.com/repos/AnyBananaGAME/minecraft-data/{archive_format}{/ref}",
            "archived": false,
            "assignees_url": "https://api.github.com/repos/AnyBananaGAME/minecraft-data/assignees{/user}",
            "blobs_url": "https://api.github.com/repos/AnyBananaGAME/minecraft-data/git/blobs{/sha}",
            "branches_url": "https://api.github.com/repos/AnyBananaGAME/minecraft-data/branches{/branch}",
            "clone_url": "https://github.com/AnyBananaGAME/minecraft-data.git",
            "collaborators_url": "https://api.github.com/repos/AnyBananaGAME/minecraft-data/collaborators{/collaborator}",
            "comments_url": "https://api.github.com/repos/AnyBananaGAME/minecraft-data/comments{/number}",
            "commits_url": "https://api.github.com/repos/AnyBananaGAME/minecraft-data/commits{/sha}",
            "compare_url": "https://api.github.com/repos/AnyBananaGAME/minecraft-data/compare/{base}...{head}",
            "contents_url": "https://api.github.com/repos/AnyBananaGAME/minecraft-data/contents/{+path}",
            "contributors_url": "https://api.github.com/repos/AnyBananaGAME/minecraft-data/contributors",
            "created_at": "2024-04-01T18:33:28Z",
            "default_branch": "master",
            "deployments_url": "https://api.github.com/repos/AnyBananaGAME/minecraft-data/deployments",
            "description": "Language independent module providing minecraft data for minecraft clients, servers and libraries.",
            "disabled": false,
            "downloads_url": "https://api.github.com/repos/AnyBananaGAME/minecraft-data/downloads",
            "events_url": "https://api.github.com/repos/AnyBananaGAME/minecraft-data/events",
            "fork": true,
            "forks": 0,
            "forks_count": 0,
            "forks_url": "https://api.github.com/repos/AnyBananaGAME/minecraft-data/forks",
            "full_name": "AnyBananaGAME/minecraft-data",
            "git_commits_url": "https://api.github.com/repos/AnyBananaGAME/minecraft-data/git/commits{/sha}",
            "git_refs_url": "https://api.github.com/repos/AnyBananaGAME/minecraft-data/git/refs{/sha}",
            "git_tags_url": "https://api.github.com/repos/AnyBananaGAME/minecraft-data/git/tags{/sha}",
            "git_url": "git://github.com/AnyBananaGAME/minecraft-data.git",
            "has_discussions": false,
            "has_downloads": true,
            "has_issues": false,
            "has_pages": false,
            "has_projects": true,
            "has_wiki": true,
            "homepage": "https://prismarinejs.github.io/minecraft-data",
            "hooks_url": "https://api.github.com/repos/AnyBananaGAME/minecraft-data/hooks",
            "html_url": "https://github.com/AnyBananaGAME/minecraft-data",
            "id": 780564985,
            "is_template": false,
            "issue_comment_url": "https://api.github.com/repos/AnyBananaGAME/minecraft-data/issues/comments{/number}",
            "issue_events_url": "https://api.github.com/repos/AnyBananaGAME/minecraft-data/issues/events{/number}",
            "issues_url": "https://api.github.com/repos/AnyBananaGAME/minecraft-data/issues{/number}",
            "keys_url": "https://api.github.com/repos/AnyBananaGAME/minecraft-data/keys{/key_id}",
            "labels_url": "https://api.github.com/repos/AnyBananaGAME/minecraft-data/labels{/name}",
            "language": "JavaScript",
            "languages_url": "https://api.github.com/repos/AnyBananaGAME/minecraft-data/languages",
            "license": null,
            "merges_url": "https://api.github.com/repos/AnyBananaGAME/minecraft-data/merges",
            "milestones_url": "https://api.github.com/repos/AnyBananaGAME/minecraft-data/milestones{/number}",
            "mirror_url": null,
            "name": "minecraft-data",
            "node_id": "R_kgDOLoZ5-Q",
            "notifications_url": "https://api.github.com/repos/AnyBananaGAME/minecraft-data/notifications{?since,all,participating}",
            "open_issues": 0,
            "open_issues_count": 0,
            "owner": {
                "avatar_url": "https://avatars.githubusercontent.com/u/61703768?v=4",
                "events_url": "https://api.github.com/users/AnyBananaGAME/events{/privacy}",
                "followers_url": "https://api.github.com/users/AnyBananaGAME/followers",
                "following_url": "https://api.github.com/users/AnyBananaGAME/following{/other_user}",
                "gists_url": "https://api.github.com/users/AnyBananaGAME/gists{/gist_id}",
                "gravatar_id": "",
                "html_url": "https://github.com/AnyBananaGAME",
                "id": 61703768,
                "login": "AnyBananaGAME",
                "node_id": "MDQ6VXNlcjYxNzAzNzY4",
                "organizations_url": "https://api.github.com/users/AnyBananaGAME/orgs",
                "received_events_url": "https://api.github.com/users/AnyBananaGAME/received_events",
                "repos_url": "https://api.github.com/users/AnyBananaGAME/repos",
                "site_admin": false,
                "starred_url": "https://api.github.com/users/AnyBananaGAME/starred{/owner}{/repo}",
                "subscriptions_url": "https://api.github.com/users/AnyBananaGAME/subscriptions",
                "type": "User",
                "url": "https://api.github.com/users/AnyBananaGAME"
            },
            "private": false,
            "pulls_url": "https://api.github.com/repos/AnyBananaGAME/minecraft-data/pulls{/number}",
            "pushed_at": "2024-04-01T18:34:59Z",
            "releases_url": "https://api.github.com/repos/AnyBananaGAME/minecraft-data/releases{/id}",
            "size": 7957,
            "ssh_url": "git@github.com:AnyBananaGAME/minecraft-data.git",
            "stargazers_count": 0,
            "stargazers_url": "https://api.github.com/repos/AnyBananaGAME/minecraft-data/stargazers",
            "statuses_url": "https://api.github.com/repos/AnyBananaGAME/minecraft-data/statuses/{sha}",
            "subscribers_url": "https://api.github.com/repos/AnyBananaGAME/minecraft-data/subscribers",
            "subscription_url": "https://api.github.com/repos/AnyBananaGAME/minecraft-data/subscription",
            "svn_url": "https://github.com/AnyBananaGAME/minecraft-data",
            "tags_url": "https://api.github.com/repos/AnyBananaGAME/minecraft-data/tags",
            "teams_url": "https://api.github.com/repos/AnyBananaGAME/minecraft-data/teams",
            "topics": [],
            "trees_url": "https://api.github.com/repos/AnyBananaGAME/minecraft-data/git/trees{/sha}",
            "updated_at": "2024-04-01T18:34:20Z",
            "url": "https://api.github.com/repos/AnyBananaGAME/minecraft-data",
            "visibility": "public",
            "watchers": 0,
            "watchers_count": 0,
            "web_commit_signoff_required": false
        },
        "sha": "f016ea2c456a88e9617dde1f770af2832e94ce7e",
        "user": {
            "avatar_url": "https://avatars.githubusercontent.com/u/61703768?v=4",
            "events_url": "https://api.github.com/users/AnyBananaGAME/events{/privacy}",
            "followers_url": "https://api.github.com/users/AnyBananaGAME/followers",
            "following_url": "https://api.github.com/users/AnyBananaGAME/following{/other_user}",
            "gists_url": "https://api.github.com/users/AnyBananaGAME/gists{/gist_id}",
            "gravatar_id": "",
            "html_url": "https://github.com/AnyBananaGAME",
            "id": 61703768,
            "login": "AnyBananaGAME",
            "node_id": "MDQ6VXNlcjYxNzAzNzY4",
            "organizations_url": "https://api.github.com/users/AnyBananaGAME/orgs",
            "received_events_url": "https://api.github.com/users/AnyBananaGAME/received_events",
            "repos_url": "https://api.github.com/users/AnyBananaGAME/repos",
            "site_admin": false,
            "starred_url": "https://api.github.com/users/AnyBananaGAME/starred{/owner}{/repo}",
            "subscriptions_url": "https://api.github.com/users/AnyBananaGAME/subscriptions",
            "type": "User",
            "url": "https://api.github.com/users/AnyBananaGAME"
        }
    },
    "html_url": "https://github.com/PrismarineJS/minecraft-data/pull/869",
    "id": 1800998371,
    "issue_url": "https://api.github.com/repos/PrismarineJS/minecraft-data/issues/869",
    "labels": [],
    "locked": false,
    "maintainer_can_modify": false,
    "merge_commit_sha": "99c889379b6cb3020c0052dc58b423825a8b9b8b",
    "mergeable": true,
    "mergeable_state": "clean",
    "merged": false,
    "merged_at": null,
    "merged_by": null,
    "milestone": null,
    "node_id": "PR_kwDOAfOYes5rWQ3j",
    "number": 869,
    "patch_url": "https://github.com/PrismarineJS/minecraft-data/pull/869.patch",
    "rebaseable": false,
    "requested_reviewers": [],
    "requested_teams": [],
    "review_comment_url": "https://api.github.com/repos/PrismarineJS/minecraft-data/pulls/comments{/number}",
    "review_comments": 0,
    "review_comments_url": "https://api.github.com/repos/PrismarineJS/minecraft-data/pulls/869/comments",
    "state": "closed",
    "statuses_url": "https://api.github.com/repos/PrismarineJS/minecraft-data/statuses/f016ea2c456a88e9617dde1f770af2832e94ce7e",
    "title": "Add blocks.json to 1.20.71",
    "updated_at": "2024-04-01T19:02:34Z",
    "url": "https://api.github.com/repos/PrismarineJS/minecraft-data/pulls/869",
    "user": {
        "avatar_url": "https://avatars.githubusercontent.com/u/61703768?v=4",
        "events_url": "https://api.github.com/users/AnyBananaGAME/events{/privacy}",
        "followers_url": "https://api.github.com/users/AnyBananaGAME/followers",
        "following_url": "https://api.github.com/users/AnyBananaGAME/following{/other_user}",
        "gists_url": "https://api.github.com/users/AnyBananaGAME/gists{/gist_id}",
        "gravatar_id": "",
        "html_url": "https://github.com/AnyBananaGAME",
        "id": 61703768,
        "login": "AnyBananaGAME",
        "node_id": "MDQ6VXNlcjYxNzAzNzY4",
        "organizations_url": "https://api.github.com/users/AnyBananaGAME/orgs",
        "received_events_url": "https://api.github.com/users/AnyBananaGAME/received_events",
        "repos_url": "https://api.github.com/users/AnyBananaGAME/repos",
        "site_admin": false,
        "starred_url": "https://api.github.com/users/AnyBananaGAME/starred{/owner}{/repo}",
        "subscriptions_url": "https://api.github.com/users/AnyBananaGAME/subscriptions",
        "type": "User",
        "url": "https://api.github.com/users/AnyBananaGAME"
    }
}