{
    "_links": {
        "comments": {
            "href": "https://api.github.com/repos/PrismarineJS/minecraft-data/issues/922/comments"
        },
        "commits": {
            "href": "https://api.github.com/repos/PrismarineJS/minecraft-data/pulls/922/commits"
        },
        "html": {
            "href": "https://github.com/PrismarineJS/minecraft-data/pull/922"
        },
        "issue": {
            "href": "https://api.github.com/repos/PrismarineJS/minecraft-data/issues/922"
        },
        "review_comment": {
            "href": "https://api.github.com/repos/PrismarineJS/minecraft-data/pulls/comments{/number}"
        },
        "review_comments": {
            "href": "https://api.github.com/repos/PrismarineJS/minecraft-data/pulls/922/comments"
        },
        "self": {
            "href": "https://api.github.com/repos/PrismarineJS/minecraft-data/pulls/922"
        },
        "statuses": {
            "href": "https://api.github.com/repos/PrismarineJS/minecraft-data/statuses/1eb7d9c230f6551b90a17e785633b8ad79057723"
        }
    },
    "active_lock_reason": null,
    "additions": 3,
    "assignee": null,
    "assignees": [],
    "author_association": "MEMBER",
    "auto_merge": null,
    "base": {
        "label": "PrismarineJS:master",
        "ref": "master",
        "repo": {
            "allow_forking": true,
            "archive_url": "https://api.github.com/repos/PrismarineJS/minecraft-data/{archive_format}{/ref}",
            "archived": false,
            "assignees_url": "https://api.github.com/repos/PrismarineJS/minecraft-data/assignees{/user}",
            "blobs_url": "https://api.github.com/repos/PrismarineJS/minecraft-data/git/blobs{/sha}",
            "branches_url": "https://api.github.com/repos/PrismarineJS/minecraft-data/branches{/branch}",
            "clone_url": "https://github.com/PrismarineJS/minecraft-data.git",
            "collaborators_url": "https://api.github.com/repos/PrismarineJS/minecraft-data/collaborators{/collaborator}",
            "comments_url": "https://api.github.com/repos/PrismarineJS/minecraft-data/comments{/number}",
            "commits_url": "https://api.github.com/repos/PrismarineJS/minecraft-data/commits{/sha}",
            "compare_url": "https://api.github.com/repos/PrismarineJS/minecraft-data/compare/{base}...{head}",
            "contents_url": "https://api.github.com/repos/PrismarineJS/minecraft-data/contents/{+path}",
            "contributors_url": "https://api.github.com/repos/PrismarineJS/minecraft-data/contributors",
            "created_at": "2015-03-23T15:38:19Z",
            "default_branch": "master",
            "deployments_url": "https://api.github.com/repos/PrismarineJS/minecraft-data/deployments",
            "description": "Language independent module providing minecraft data for minecraft clients, servers and libraries.",
            "disabled": false,
            "downloads_url": "https://api.github.com/repos/PrismarineJS/minecraft-data/downloads",
            "events_url": "https://api.github.com/repos/PrismarineJS/minecraft-data/events",
            "fork": false,
            "forks": 221,
            "forks_count": 221,
            "forks_url": "https://api.github.com/repos/PrismarineJS/minecraft-data/forks",
            "full_name": "PrismarineJS/minecraft-data",
            "git_commits_url": "https://api.github.com/repos/PrismarineJS/minecraft-data/git/commits{/sha}",
            "git_refs_url": "https://api.github.com/repos/PrismarineJS/minecraft-data/git/refs{/sha}",
            "git_tags_url": "https://api.github.com/repos/PrismarineJS/minecraft-data/git/tags{/sha}",
            "git_url": "git://github.com/PrismarineJS/minecraft-data.git",
            "has_discussions": false,
            "has_downloads": true,
            "has_issues": true,
            "has_pages": true,
            "has_projects": true,
            "has_wiki": true,
            "homepage": "https://prismarinejs.github.io/minecraft-data",
            "hooks_url": "https://api.github.com/repos/PrismarineJS/minecraft-data/hooks",
            "html_url": "https://github.com/PrismarineJS/minecraft-data",
            "id": 32741498,
            "is_template": false,
            "issue_comment_url": "https://api.github.com/repos/PrismarineJS/minecraft-data/issues/comments{/number}",
            "issue_events_url": "https://api.github.com/repos/PrismarineJS/minecraft-data/issues/events{/number}",
            "issues_url": "https://api.github.com/repos/PrismarineJS/minecraft-data/issues{/number}",
            "keys_url": "https://api.github.com/repos/PrismarineJS/minecraft-data/keys{/key_id}",
            "labels_url": "https://api.github.com/repos/PrismarineJS/minecraft-data/labels{/name}",
            "language": "JavaScript",
            "languages_url": "https://api.github.com/repos/PrismarineJS/minecraft-data/languages",
            "license": null,
            "merges_url": "https://api.github.com/repos/PrismarineJS/minecraft-data/merges",
            "milestones_url": "https://api.github.com/repos/PrismarineJS/minecraft-data/milestones{/number}",
            "mirror_url": null,
            "name": "minecraft-data",
            "node_id": "MDEwOlJlcG9zaXRvcnkzMjc0MTQ5OA==",
            "notifications_url": "https://api.github.com/repos/PrismarineJS/minecraft-data/notifications{?since,all,participating}",
            "open_issues": 133,
            "open_issues_count": 133,
            "owner": {
                "avatar_url": "https://avatars.githubusercontent.com/u/11053411?v=4",
                "events_url": "https://api.github.com/users/PrismarineJS/events{/privacy}",
                "followers_url": "https://api.github.com/users/PrismarineJS/followers",
                "following_url": "https://api.github.com/users/PrismarineJS/following{/other_user}",
                "gists_url": "https://api.github.com/users/PrismarineJS/gists{/gist_id}",
                "gravatar_id": "",
                "html_url": "https://github.com/PrismarineJS",
                "id": 11053411,
                "login": "PrismarineJS",
                "node_id": "MDEyOk9yZ2FuaXphdGlvbjExMDUzNDEx",
                "organizations_url": "https://api.github.com/users/PrismarineJS/orgs",
                "received_events_url": "https://api.github.com/users/PrismarineJS/received_events",
                "repos_url": "https://api.github.com/users/PrismarineJS/repos",
                "site_admin": false,
                "starred_url": "https://api.github.com/users/PrismarineJS/starred{/owner}{/repo}",
                "subscriptions_url": "https://api.github.com/users/PrismarineJS/subscriptions",
                "type": "Organization",
                "url": "https://api.github.com/users/PrismarineJS"
            },
            "private": false,
            "pulls_url": "https://api.github.com/repos/PrismarineJS/minecraft-data/pulls{/number}",
            "pushed_at": "2024-10-12T22:48:15Z",
            "releases_url": "https://api.github.com/repos/PrismarineJS/minecraft-data/releases{/id}",
            "size": 194708,
            "ssh_url": "git@github.com:PrismarineJS/minecraft-data.git",
            "stargazers_count": 653,
            "stargazers_url": "https://api.github.com/repos/PrismarineJS/minecraft-data/stargazers",
            "statuses_url": "https://api.github.com/repos/PrismarineJS/minecraft-data/statuses/{sha}",
            "subscribers_url": "https://api.github.com/repos/PrismarineJS/minecraft-data/subscribers",
            "subscription_url": "https://api.github.com/repos/PrismarineJS/minecraft-data/subscription",
            "svn_url": "https://github.com/PrismarineJS/minecraft-data",
            "tags_url": "https://api.github.com/repos/PrismarineJS/minecraft-data/tags",
            "teams_url": "https://api.github.com/repos/PrismarineJS/minecraft-data/teams",
            "topics": [
                "data",
                "minecraft"
            ],
            "trees_url": "https://api.github.com/repos/PrismarineJS/minecraft-data/git/trees{/sha}",
            "updated_at": "2024-10-12T22:43:21Z",
            "url": "https://api.github.com/repos/PrismarineJS/minecraft-data",
            "visibility": "public",
            "watchers": 653,
            "watchers_count": 653,
            "web_commit_signoff_required": false
        },
        "sha": "636d3a7e027e75ab1deeb4cd214b73306a836473",
        "user": {
            "avatar_url": "https://avatars.githubusercontent.com/u/11053411?v=4",
            "events_url": "https://api.github.com/users/PrismarineJS/events{/privacy}",
            "followers_url": "https://api.github.com/users/PrismarineJS/followers",
            "following_url": "https://api.github.com/users/PrismarineJS/following{/other_user}",
            "gists_url": "https://api.github.com/users/PrismarineJS/gists{/gist_id}",
            "gravatar_id": "",
            "html_url": "https://github.com/PrismarineJS",
            "id": 11053411,
            "login": "PrismarineJS",
            "node_id": "MDEyOk9yZ2FuaXphdGlvbjExMDUzNDEx",
            "organizations_url": "https://api.github.com/users/PrismarineJS/orgs",
            "received_events_url": "https://api.github.com/users/PrismarineJS/received_events",
            "repos_url": "https://api.github.com/users/PrismarineJS/repos",
            "site_admin": false,
            "starred_url": "https://api.github.com/users/PrismarineJS/starred{/owner}{/repo}",
            "subscriptions_url": "https://api.github.com/users/PrismarineJS/subscriptions",
            "type": "Organization",
            "url": "https://api.github.com/users/PrismarineJS"
        }
    },
    "body": "Triggered on behalf of rom1504 in <a href=\"https://github.com/PrismarineJS/minecraft-data/pull/898#issuecomment-2408720876\">this comment</a>.\n\n<em>Note: Changes to the PR maybe needed to remove commits unrelated to library usage.</em>\n<hr/>🤖 I'm a bot. You can run <code>/makerelease [version]</code> again to change the version.",
    "changed_files": 1,
    "closed_at": "2024-10-12T22:43:18Z",
    "comment_data": [],
    "comment_regular_data": [],
    "comments": 0,
    "comments_url": "https://api.github.com/repos/PrismarineJS/minecraft-data/issues/922/comments",
    "commit_data": [
        {
            "author": {
                "avatar_url": "https://avatars.githubusercontent.com/in/15368?v=4",
                "events_url": "https://api.github.com/users/github-actions%5Bbot%5D/events{/privacy}",
                "followers_url": "https://api.github.com/users/github-actions%5Bbot%5D/followers",
                "following_url": "https://api.github.com/users/github-actions%5Bbot%5D/following{/other_user}",
                "gists_url": "https://api.github.com/users/github-actions%5Bbot%5D/gists{/gist_id}",
                "gravatar_id": "",
                "html_url": "https://github.com/apps/github-actions",
                "id": 41898282,
                "login": "github-actions[bot]",
                "node_id": "MDM6Qm90NDE4OTgyODI=",
                "organizations_url": "https://api.github.com/users/github-actions%5Bbot%5D/orgs",
                "received_events_url": "https://api.github.com/users/github-actions%5Bbot%5D/received_events",
                "repos_url": "https://api.github.com/users/github-actions%5Bbot%5D/repos",
                "site_admin": false,
                "starred_url": "https://api.github.com/users/github-actions%5Bbot%5D/starred{/owner}{/repo}",
                "subscriptions_url": "https://api.github.com/users/github-actions%5Bbot%5D/subscriptions",
                "type": "Bot",
                "url": "https://api.github.com/users/github-actions%5Bbot%5D"
            },
            "comments_url": "https://api.github.com/repos/PrismarineJS/minecraft-data/commits/1eb7d9c230f6551b90a17e785633b8ad79057723/comments",
            "commit": {
                "author": {
                    "date": "2024-10-12T22:42:07Z",
                    "email": "41898282+github-actions[bot]@users.noreply.github.com",
                    "name": "github-actions[bot]"
                },
                "comment_count": 0,
                "committer": {
                    "date": "2024-10-12T22:42:07Z",
                    "email": "41898282+github-actions[bot]@users.noreply.github.com",
                    "name": "github-actions[bot]"
                },
                "message": "Release 3.74.0",
                "tree": {
                    "sha": "ea628c7f96692e6c3f92f0c62a08be60165c0dc3",
                    "url": "https://api.github.com/repos/PrismarineJS/minecraft-data/git/trees/ea628c7f96692e6c3f92f0c62a08be60165c0dc3"
                },
                "url": "https://api.github.com/repos/PrismarineJS/minecraft-data/git/commits/1eb7d9c230f6551b90a17e785633b8ad79057723",
                "verification": {
                    "payload": null,
                    "reason": "unsigned",
                    "signature": null,
                    "verified": false
                }
            },
            "committer": {
                "avatar_url": "https://avatars.githubusercontent.com/in/15368?v=4",
                "events_url": "https://api.github.com/users/github-actions%5Bbot%5D/events{/privacy}",
                "followers_url": "https://api.github.com/users/github-actions%5Bbot%5D/followers",
                "following_url": "https://api.github.com/users/github-actions%5Bbot%5D/following{/other_user}",
                "gists_url": "https://api.github.com/users/github-actions%5Bbot%5D/gists{/gist_id}",
                "gravatar_id": "",
                "html_url": "https://github.com/apps/github-actions",
                "id": 41898282,
                "login": "github-actions[bot]",
                "node_id": "MDM6Qm90NDE4OTgyODI=",
                "organizations_url": "https://api.github.com/users/github-actions%5Bbot%5D/orgs",
                "received_events_url": "https://api.github.com/users/github-actions%5Bbot%5D/received_events",
                "repos_url": "https://api.github.com/users/github-actions%5Bbot%5D/repos",
                "site_admin": false,
                "starred_url": "https://api.github.com/users/github-actions%5Bbot%5D/starred{/owner}{/repo}",
                "subscriptions_url": "https://api.github.com/users/github-actions%5Bbot%5D/subscriptions",
                "type": "Bot",
                "url": "https://api.github.com/users/github-actions%5Bbot%5D"
            },
            "html_url": "https://github.com/PrismarineJS/minecraft-data/commit/1eb7d9c230f6551b90a17e785633b8ad79057723",
            "node_id": "C_kwDOAfOYetoAKDFlYjdkOWMyMzBmNjU1MWI5MGExN2U3ODU2MzNiOGFkNzkwNTc3MjM",
            "parents": [
                {
                    "html_url": "https://github.com/PrismarineJS/minecraft-data/commit/636d3a7e027e75ab1deeb4cd214b73306a836473",
                    "sha": "636d3a7e027e75ab1deeb4cd214b73306a836473",
                    "url": "https://api.github.com/repos/PrismarineJS/minecraft-data/commits/636d3a7e027e75ab1deeb4cd214b73306a836473"
                }
            ],
            "sha": "1eb7d9c230f6551b90a17e785633b8ad79057723",
            "url": "https://api.github.com/repos/PrismarineJS/minecraft-data/commits/1eb7d9c230f6551b90a17e785633b8ad79057723"
        }
    ],
    "commits": 1,
    "commits_url": "https://api.github.com/repos/PrismarineJS/minecraft-data/pulls/922/commits",
    "created_at": "2024-10-12T22:42:08Z",
    "deletions": 0,
    "diff_url": "https://github.com/PrismarineJS/minecraft-data/pull/922.diff",
    "draft": false,
    "head": {
        "label": "PrismarineJS:rel-actions-bot",
        "ref": "rel-actions-bot",
        "repo": {
            "allow_forking": true,
            "archive_url": "https://api.github.com/repos/PrismarineJS/minecraft-data/{archive_format}{/ref}",
            "archived": false,
            "assignees_url": "https://api.github.com/repos/PrismarineJS/minecraft-data/assignees{/user}",
            "blobs_url": "https://api.github.com/repos/PrismarineJS/minecraft-data/git/blobs{/sha}",
            "branches_url": "https://api.github.com/repos/PrismarineJS/minecraft-data/branches{/branch}",
            "clone_url": "https://github.com/PrismarineJS/minecraft-data.git",
            "collaborators_url": "https://api.github.com/repos/PrismarineJS/minecraft-data/collaborators{/collaborator}",
            "comments_url": "https://api.github.com/repos/PrismarineJS/minecraft-data/comments{/number}",
            "commits_url": "https://api.github.com/repos/PrismarineJS/minecraft-data/commits{/sha}",
            "compare_url": "https://api.github.com/repos/PrismarineJS/minecraft-data/compare/{base}...{head}",
            "contents_url": "https://api.github.com/repos/PrismarineJS/minecraft-data/contents/{+path}",
            "contributors_url": "https://api.github.com/repos/PrismarineJS/minecraft-data/contributors",
            "created_at": "2015-03-23T15:38:19Z",
            "default_branch": "master",
            "deployments_url": "https://api.github.com/repos/PrismarineJS/minecraft-data/deployments",
            "description": "Language independent module providing minecraft data for minecraft clients, servers and libraries.",
            "disabled": false,
            "downloads_url": "https://api.github.com/repos/PrismarineJS/minecraft-data/downloads",
            "events_url": "https://api.github.com/repos/PrismarineJS/minecraft-data/events",
            "fork": false,
            "forks": 221,
            "forks_count": 221,
            "forks_url": "https://api.github.com/repos/PrismarineJS/minecraft-data/forks",
            "full_name": "PrismarineJS/minecraft-data",
            "git_commits_url": "https://api.github.com/repos/PrismarineJS/minecraft-data/git/commits{/sha}",
            "git_refs_url": "https://api.github.com/repos/PrismarineJS/minecraft-data/git/refs{/sha}",
            "git_tags_url": "https://api.github.com/repos/PrismarineJS/minecraft-data/git/tags{/sha}",
            "git_url": "git://github.com/PrismarineJS/minecraft-data.git",
            "has_discussions": false,
            "has_downloads": true,
            "has_issues": true,
            "has_pages": true,
            "has_projects": true,
            "has_wiki": true,
            "homepage": "https://prismarinejs.github.io/minecraft-data",
            "hooks_url": "https://api.github.com/repos/PrismarineJS/minecraft-data/hooks",
            "html_url": "https://github.com/PrismarineJS/minecraft-data",
            "id": 32741498,
            "is_template": false,
            "issue_comment_url": "https://api.github.com/repos/PrismarineJS/minecraft-data/issues/comments{/number}",
            "issue_events_url": "https://api.github.com/repos/PrismarineJS/minecraft-data/issues/events{/number}",
            "issues_url": "https://api.github.com/repos/PrismarineJS/minecraft-data/issues{/number}",
            "keys_url": "https://api.github.com/repos/PrismarineJS/minecraft-data/keys{/key_id}",
            "labels_url": "https://api.github.com/repos/PrismarineJS/minecraft-data/labels{/name}",
            "language": "JavaScript",
            "languages_url": "https://api.github.com/repos/PrismarineJS/minecraft-data/languages",
            "license": null,
            "merges_url": "https://api.github.com/repos/PrismarineJS/minecraft-data/merges",
            "milestones_url": "https://api.github.com/repos/PrismarineJS/minecraft-data/milestones{/number}",
            "mirror_url": null,
            "name": "minecraft-data",
            "node_id": "MDEwOlJlcG9zaXRvcnkzMjc0MTQ5OA==",
            "notifications_url": "https://api.github.com/repos/PrismarineJS/minecraft-data/notifications{?since,all,participating}",
            "open_issues": 133,
            "open_issues_count": 133,
            "owner": {
                "avatar_url": "https://avatars.githubusercontent.com/u/11053411?v=4",
                "events_url": "https://api.github.com/users/PrismarineJS/events{/privacy}",
                "followers_url": "https://api.github.com/users/PrismarineJS/followers",
                "following_url": "https://api.github.com/users/PrismarineJS/following{/other_user}",
                "gists_url": "https://api.github.com/users/PrismarineJS/gists{/gist_id}",
                "gravatar_id": "",
                "html_url": "https://github.com/PrismarineJS",
                "id": 11053411,
                "login": "PrismarineJS",
                "node_id": "MDEyOk9yZ2FuaXphdGlvbjExMDUzNDEx",
                "organizations_url": "https://api.github.com/users/PrismarineJS/orgs",
                "received_events_url": "https://api.github.com/users/PrismarineJS/received_events",
                "repos_url": "https://api.github.com/users/PrismarineJS/repos",
                "site_admin": false,
                "starred_url": "https://api.github.com/users/PrismarineJS/starred{/owner}{/repo}",
                "subscriptions_url": "https://api.github.com/users/PrismarineJS/subscriptions",
                "type": "Organization",
                "url": "https://api.github.com/users/PrismarineJS"
            },
            "private": false,
            "pulls_url": "https://api.github.com/repos/PrismarineJS/minecraft-data/pulls{/number}",
            "pushed_at": "2024-10-12T22:48:15Z",
            "releases_url": "https://api.github.com/repos/PrismarineJS/minecraft-data/releases{/id}",
            "size": 194708,
            "ssh_url": "git@github.com:PrismarineJS/minecraft-data.git",
            "stargazers_count": 653,
            "stargazers_url": "https://api.github.com/repos/PrismarineJS/minecraft-data/stargazers",
            "statuses_url": "https://api.github.com/repos/PrismarineJS/minecraft-data/statuses/{sha}",
            "subscribers_url": "https://api.github.com/repos/PrismarineJS/minecraft-data/subscribers",
            "subscription_url": "https://api.github.com/repos/PrismarineJS/minecraft-data/subscription",
            "svn_url": "https://github.com/PrismarineJS/minecraft-data",
            "tags_url": "https://api.github.com/repos/PrismarineJS/minecraft-data/tags",
            "teams_url": "https://api.github.com/repos/PrismarineJS/minecraft-data/teams",
            "topics": [
                "data",
                "minecraft"
            ],
            "trees_url": "https://api.github.com/repos/PrismarineJS/minecraft-data/git/trees{/sha}",
            "updated_at": "2024-10-12T22:43:21Z",
            "url": "https://api.github.com/repos/PrismarineJS/minecraft-data",
            "visibility": "public",
            "watchers": 653,
            "watchers_count": 653,
            "web_commit_signoff_required": false
        },
        "sha": "1eb7d9c230f6551b90a17e785633b8ad79057723",
        "user": {
            "avatar_url": "https://avatars.githubusercontent.com/u/11053411?v=4",
            "events_url": "https://api.github.com/users/PrismarineJS/events{/privacy}",
            "followers_url": "https://api.github.com/users/PrismarineJS/followers",
            "following_url": "https://api.github.com/users/PrismarineJS/following{/other_user}",
            "gists_url": "https://api.github.com/users/PrismarineJS/gists{/gist_id}",
            "gravatar_id": "",
            "html_url": "https://github.com/PrismarineJS",
            "id": 11053411,
            "login": "PrismarineJS",
            "node_id": "MDEyOk9yZ2FuaXphdGlvbjExMDUzNDEx",
            "organizations_url": "https://api.github.com/users/PrismarineJS/orgs",
            "received_events_url": "https://api.github.com/users/PrismarineJS/received_events",
            "repos_url": "https://api.github.com/users/PrismarineJS/repos",
            "site_admin": false,
            "starred_url": "https://api.github.com/users/PrismarineJS/starred{/owner}{/repo}",
            "subscriptions_url": "https://api.github.com/users/PrismarineJS/subscriptions",
            "type": "Organization",
            "url": "https://api.github.com/users/PrismarineJS"
        }
    },
    "html_url": "https://github.com/PrismarineJS/minecraft-data/pull/922",
    "id": 2121166071,
    "issue_url": "https://api.github.com/repos/PrismarineJS/minecraft-data/issues/922",
    "labels": [],
    "locked": false,
    "maintainer_can_modify": false,
    "merge_commit_sha": "b0ee88b01c92ca266eb706e93ca06a09c1eed8b1",
    "mergeable": null,
    "mergeable_state": "unknown",
    "merged": true,
    "merged_at": "2024-10-12T22:43:18Z",
    "merged_by": {
        "avatar_url": "https://avatars.githubusercontent.com/u/2346494?v=4",
        "events_url": "https://api.github.com/users/rom1504/events{/privacy}",
        "followers_url": "https://api.github.com/users/rom1504/followers",
        "following_url": "https://api.github.com/users/rom1504/following{/other_user}",
        "gists_url": "https://api.github.com/users/rom1504/gists{/gist_id}",
        "gravatar_id": "",
        "html_url": "https://github.com/rom1504",
        "id": 2346494,
        "login": "rom1504",
        "node_id": "MDQ6VXNlcjIzNDY0OTQ=",
        "organizations_url": "https://api.github.com/users/rom1504/orgs",
        "received_events_url": "https://api.github.com/users/rom1504/received_events",
        "repos_url": "https://api.github.com/users/rom1504/repos",
        "site_admin": false,
        "starred_url": "https://api.github.com/users/rom1504/starred{/owner}{/repo}",
        "subscriptions_url": "https://api.github.com/users/rom1504/subscriptions",
        "type": "User",
        "url": "https://api.github.com/users/rom1504"
    },
    "milestone": null,
    "node_id": "PR_kwDOAfOYes5-bmz3",
    "number": 922,
    "patch_url": "https://github.com/PrismarineJS/minecraft-data/pull/922.patch",
    "rebaseable": null,
    "requested_reviewers": [],
    "requested_teams": [],
    "review_comment_url": "https://api.github.com/repos/PrismarineJS/minecraft-data/pulls/comments{/number}",
    "review_comments": 0,
    "review_comments_url": "https://api.github.com/repos/PrismarineJS/minecraft-data/pulls/922/comments",
    "state": "closed",
    "statuses_url": "https://api.github.com/repos/PrismarineJS/minecraft-data/statuses/1eb7d9c230f6551b90a17e785633b8ad79057723",
    "title": "Release 3.74.0",
    "updated_at": "2024-10-12T22:43:19Z",
    "url": "https://api.github.com/repos/PrismarineJS/minecraft-data/pulls/922",
    "user": {
        "avatar_url": "https://avatars.githubusercontent.com/u/15970751?v=4",
        "events_url": "https://api.github.com/users/rom1504bot/events{/privacy}",
        "followers_url": "https://api.github.com/users/rom1504bot/followers",
        "following_url": "https://api.github.com/users/rom1504bot/following{/other_user}",
        "gists_url": "https://api.github.com/users/rom1504bot/gists{/gist_id}",
        "gravatar_id": "",
        "html_url": "https://github.com/rom1504bot",
        "id": 15970751,
        "login": "rom1504bot",
        "node_id": "MDQ6VXNlcjE1OTcwNzUx",
        "organizations_url": "https://api.github.com/users/rom1504bot/orgs",
        "received_events_url": "https://api.github.com/users/rom1504bot/received_events",
        "repos_url": "https://api.github.com/users/rom1504bot/repos",
        "site_admin": false,
        "starred_url": "https://api.github.com/users/rom1504bot/starred{/owner}{/repo}",
        "subscriptions_url": "https://api.github.com/users/rom1504bot/subscriptions",
        "type": "User",
        "url": "https://api.github.com/users/rom1504bot"
    }
}