{
    "_links": {
        "comments": {
            "href": "https://api.github.com/repos/PrismarineJS/prismarine-viewer/issues/263/comments"
        },
        "commits": {
            "href": "https://api.github.com/repos/PrismarineJS/prismarine-viewer/pulls/263/commits"
        },
        "html": {
            "href": "https://github.com/PrismarineJS/prismarine-viewer/pull/263"
        },
        "issue": {
            "href": "https://api.github.com/repos/PrismarineJS/prismarine-viewer/issues/263"
        },
        "review_comment": {
            "href": "https://api.github.com/repos/PrismarineJS/prismarine-viewer/pulls/comments{/number}"
        },
        "review_comments": {
            "href": "https://api.github.com/repos/PrismarineJS/prismarine-viewer/pulls/263/comments"
        },
        "self": {
            "href": "https://api.github.com/repos/PrismarineJS/prismarine-viewer/pulls/263"
        },
        "statuses": {
            "href": "https://api.github.com/repos/PrismarineJS/prismarine-viewer/statuses/27fd00c20c378e0a8328fc2b8635a2cbf9c2409c"
        }
    },
    "active_lock_reason": null,
    "additions": 1,
    "assignee": null,
    "assignees": [],
    "author_association": "CONTRIBUTOR",
    "auto_merge": null,
    "base": {
        "label": "PrismarineJS:master",
        "ref": "master",
        "repo": {
            "allow_forking": true,
            "archive_url": "https://api.github.com/repos/PrismarineJS/prismarine-viewer/{archive_format}{/ref}",
            "archived": false,
            "assignees_url": "https://api.github.com/repos/PrismarineJS/prismarine-viewer/assignees{/user}",
            "blobs_url": "https://api.github.com/repos/PrismarineJS/prismarine-viewer/git/blobs{/sha}",
            "branches_url": "https://api.github.com/repos/PrismarineJS/prismarine-viewer/branches{/branch}",
            "clone_url": "https://github.com/PrismarineJS/prismarine-viewer.git",
            "collaborators_url": "https://api.github.com/repos/PrismarineJS/prismarine-viewer/collaborators{/collaborator}",
            "comments_url": "https://api.github.com/repos/PrismarineJS/prismarine-viewer/comments{/number}",
            "commits_url": "https://api.github.com/repos/PrismarineJS/prismarine-viewer/commits{/sha}",
            "compare_url": "https://api.github.com/repos/PrismarineJS/prismarine-viewer/compare/{base}...{head}",
            "contents_url": "https://api.github.com/repos/PrismarineJS/prismarine-viewer/contents/{+path}",
            "contributors_url": "https://api.github.com/repos/PrismarineJS/prismarine-viewer/contributors",
            "created_at": "2020-06-10T21:05:49Z",
            "default_branch": "master",
            "deployments_url": "https://api.github.com/repos/PrismarineJS/prismarine-viewer/deployments",
            "description": "Web based viewer for servers and bots",
            "disabled": false,
            "downloads_url": "https://api.github.com/repos/PrismarineJS/prismarine-viewer/downloads",
            "events_url": "https://api.github.com/repos/PrismarineJS/prismarine-viewer/events",
            "fork": false,
            "forks": 57,
            "forks_count": 57,
            "forks_url": "https://api.github.com/repos/PrismarineJS/prismarine-viewer/forks",
            "full_name": "PrismarineJS/prismarine-viewer",
            "git_commits_url": "https://api.github.com/repos/PrismarineJS/prismarine-viewer/git/commits{/sha}",
            "git_refs_url": "https://api.github.com/repos/PrismarineJS/prismarine-viewer/git/refs{/sha}",
            "git_tags_url": "https://api.github.com/repos/PrismarineJS/prismarine-viewer/git/tags{/sha}",
            "git_url": "git://github.com/PrismarineJS/prismarine-viewer.git",
            "has_discussions": false,
            "has_downloads": true,
            "has_issues": true,
            "has_pages": true,
            "has_projects": true,
            "has_wiki": true,
            "homepage": "https://prismarinejs.github.io/prismarine-viewer/",
            "hooks_url": "https://api.github.com/repos/PrismarineJS/prismarine-viewer/hooks",
            "html_url": "https://github.com/PrismarineJS/prismarine-viewer",
            "id": 271385423,
            "is_template": false,
            "issue_comment_url": "https://api.github.com/repos/PrismarineJS/prismarine-viewer/issues/comments{/number}",
            "issue_events_url": "https://api.github.com/repos/PrismarineJS/prismarine-viewer/issues/events{/number}",
            "issues_url": "https://api.github.com/repos/PrismarineJS/prismarine-viewer/issues{/number}",
            "keys_url": "https://api.github.com/repos/PrismarineJS/prismarine-viewer/keys{/key_id}",
            "labels_url": "https://api.github.com/repos/PrismarineJS/prismarine-viewer/labels{/name}",
            "language": "JavaScript",
            "languages_url": "https://api.github.com/repos/PrismarineJS/prismarine-viewer/languages",
            "license": {
                "key": "mit",
                "name": "MIT License",
                "node_id": "MDc6TGljZW5zZTEz",
                "spdx_id": "MIT",
                "url": "https://api.github.com/licenses/mit"
            },
            "merges_url": "https://api.github.com/repos/PrismarineJS/prismarine-viewer/merges",
            "milestones_url": "https://api.github.com/repos/PrismarineJS/prismarine-viewer/milestones{/number}",
            "mirror_url": null,
            "name": "prismarine-viewer",
            "node_id": "MDEwOlJlcG9zaXRvcnkyNzEzODU0MjM=",
            "notifications_url": "https://api.github.com/repos/PrismarineJS/prismarine-viewer/notifications{?since,all,participating}",
            "open_issues": 69,
            "open_issues_count": 69,
            "owner": {
                "avatar_url": "https://avatars.githubusercontent.com/u/11053411?v=4",
                "events_url": "https://api.github.com/users/PrismarineJS/events{/privacy}",
                "followers_url": "https://api.github.com/users/PrismarineJS/followers",
                "following_url": "https://api.github.com/users/PrismarineJS/following{/other_user}",
                "gists_url": "https://api.github.com/users/PrismarineJS/gists{/gist_id}",
                "gravatar_id": "",
                "html_url": "https://github.com/PrismarineJS",
                "id": 11053411,
                "login": "PrismarineJS",
                "node_id": "MDEyOk9yZ2FuaXphdGlvbjExMDUzNDEx",
                "organizations_url": "https://api.github.com/users/PrismarineJS/orgs",
                "received_events_url": "https://api.github.com/users/PrismarineJS/received_events",
                "repos_url": "https://api.github.com/users/PrismarineJS/repos",
                "site_admin": false,
                "starred_url": "https://api.github.com/users/PrismarineJS/starred{/owner}{/repo}",
                "subscriptions_url": "https://api.github.com/users/PrismarineJS/subscriptions",
                "type": "Organization",
                "url": "https://api.github.com/users/PrismarineJS"
            },
            "private": false,
            "pulls_url": "https://api.github.com/repos/PrismarineJS/prismarine-viewer/pulls{/number}",
            "pushed_at": "2023-04-25T00:59:53Z",
            "releases_url": "https://api.github.com/repos/PrismarineJS/prismarine-viewer/releases{/id}",
            "size": 309473,
            "ssh_url": "git@github.com:PrismarineJS/prismarine-viewer.git",
            "stargazers_count": 168,
            "stargazers_url": "https://api.github.com/repos/PrismarineJS/prismarine-viewer/stargazers",
            "statuses_url": "https://api.github.com/repos/PrismarineJS/prismarine-viewer/statuses/{sha}",
            "subscribers_url": "https://api.github.com/repos/PrismarineJS/prismarine-viewer/subscribers",
            "subscription_url": "https://api.github.com/repos/PrismarineJS/prismarine-viewer/subscription",
            "svn_url": "https://github.com/PrismarineJS/prismarine-viewer",
            "tags_url": "https://api.github.com/repos/PrismarineJS/prismarine-viewer/tags",
            "teams_url": "https://api.github.com/repos/PrismarineJS/prismarine-viewer/teams",
            "topics": [],
            "trees_url": "https://api.github.com/repos/PrismarineJS/prismarine-viewer/git/trees{/sha}",
            "updated_at": "2023-04-24T03:47:17Z",
            "url": "https://api.github.com/repos/PrismarineJS/prismarine-viewer",
            "visibility": "public",
            "watchers": 168,
            "watchers_count": 168,
            "web_commit_signoff_required": false
        },
        "sha": "959c71bb2547ff8ca5aa058c1dadf8948f589ff6",
        "user": {
            "avatar_url": "https://avatars.githubusercontent.com/u/11053411?v=4",
            "events_url": "https://api.github.com/users/PrismarineJS/events{/privacy}",
            "followers_url": "https://api.github.com/users/PrismarineJS/followers",
            "following_url": "https://api.github.com/users/PrismarineJS/following{/other_user}",
            "gists_url": "https://api.github.com/users/PrismarineJS/gists{/gist_id}",
            "gravatar_id": "",
            "html_url": "https://github.com/PrismarineJS",
            "id": 11053411,
            "login": "PrismarineJS",
            "node_id": "MDEyOk9yZ2FuaXphdGlvbjExMDUzNDEx",
            "organizations_url": "https://api.github.com/users/PrismarineJS/orgs",
            "received_events_url": "https://api.github.com/users/PrismarineJS/received_events",
            "repos_url": "https://api.github.com/users/PrismarineJS/repos",
            "site_admin": false,
            "starred_url": "https://api.github.com/users/PrismarineJS/starred{/owner}{/repo}",
            "subscriptions_url": "https://api.github.com/users/PrismarineJS/subscriptions",
            "type": "Organization",
            "url": "https://api.github.com/users/PrismarineJS"
        }
    },
    "body": "Bumps [puppeteer](https://github.com/puppeteer/puppeteer) from 11.0.0 to 14.0.0.\n<details>\n<summary>Release notes</summary>\n<p><em>Sourced from <a href=\"https://github.com/puppeteer/puppeteer/releases\">puppeteer's releases</a>.</em></p>\n<blockquote>\n<h2>14.0.0</h2>\n<h3>⚠ BREAKING CHANGES</h3>\n<ul>\n<li>strict mode fixes for HTTPRequest/Response classes (<a href=\"https://github-redirect.dependabot.com/puppeteer/puppeteer/issues/8297\">#8297</a>)</li>\n<li>Node 12 is no longer supported.</li>\n</ul>\n<h3>Features</h3>\n<ul>\n<li>add support for Apple Silicon chromium builds (<a href=\"https://github-redirect.dependabot.com/puppeteer/puppeteer/issues/7546\">#7546</a>) (<a href=\"https://github.com/puppeteer/puppeteer/commit/baa017db92b1fecf2e3584d5b3161371ae60f55b\">baa017d</a>), closes <a href=\"https://github-redirect.dependabot.com/puppeteer/puppeteer/issues/6622\">#6622</a></li>\n<li><strong>chromium:</strong> roll to Chromium 102.0.5002.0 (r991974) (<a href=\"https://github-redirect.dependabot.com/puppeteer/puppeteer/issues/8319\">#8319</a>) (<a href=\"https://github.com/puppeteer/puppeteer/commit/be4c930c60164f681a966d0f8cb745f6c263fe2b\">be4c930</a>)</li>\n<li>support ES modules (<a href=\"https://github-redirect.dependabot.com/puppeteer/puppeteer/issues/8306\">#8306</a>) (<a href=\"https://github.com/puppeteer/puppeteer/commit/6841bd68d85e3b3952c5e7ce454ac4d23f84262d\">6841bd6</a>)</li>\n</ul>\n<h3>Bug Fixes</h3>\n<ul>\n<li>\n<p>apparent typo SUPPORTER_PLATFORMS (<a href=\"https://github-redirect.dependabot.com/puppeteer/puppeteer/issues/8294\">#8294</a>) (<a href=\"https://github.com/puppeteer/puppeteer/commit/e09287f4e9a1ff3c637dd165d65f221394970e2c\">e09287f</a>)</p>\n</li>\n<li>\n<p>make sure inner OOPIFs can be attached to (<a href=\"https://github-redirect.dependabot.com/puppeteer/puppeteer/issues/8304\">#8304</a>) (<a href=\"https://github.com/puppeteer/puppeteer/commit/553959884f4edb4deab760fa8ca38fc1c85c05c5\">5539598</a>)</p>\n</li>\n<li>\n<p>strict mode fixes for HTTPRequest/Response classes (<a href=\"https://github-redirect.dependabot.com/puppeteer/puppeteer/issues/8297\">#8297</a>) (<a href=\"https://github.com/puppeteer/puppeteer/commit/2804ae8cdbc4c90bf942510bce656275a2d409e1\">2804ae8</a>), closes <a href=\"https://github-redirect.dependabot.com/puppeteer/puppeteer/issues/6769\">#6769</a></p>\n</li>\n<li>\n<p>tests failing in headful (<a href=\"https://github-redirect.dependabot.com/puppeteer/puppeteer/issues/8273\">#8273</a>) (<a href=\"https://github.com/puppeteer/puppeteer/commit/e841d7f9f3f407c02dbc48e107b545b91db104e6\">e841d7f</a>)</p>\n</li>\n<li>\n<p>drop Node 12 support (<a href=\"https://github-redirect.dependabot.com/puppeteer/puppeteer/issues/8299\">#8299</a>) (<a href=\"https://github.com/puppeteer/puppeteer/commit/274bd6b3b98c305ed014909d8053e4c54187971b\">274bd6b</a>)</p>\n</li>\n</ul>\n<h2>13.7.0</h2>\n<h3>Features</h3>\n<ul>\n<li>add <code>back</code> and <code>forward</code> mouse buttons (<a href=\"https://github-redirect.dependabot.com/puppeteer/puppeteer/issues/8284\">#8284</a>) (<a href=\"https://github.com/puppeteer/puppeteer/commit/7a51bff47f6436fc29d0df7eb74f12f69102ca5b\">7a51bff</a>)</li>\n<li>support chrome headless mode (<a href=\"https://github-redirect.dependabot.com/puppeteer/puppeteer/issues/8260\">#8260</a>) (<a href=\"https://github.com/puppeteer/puppeteer/commit/1308d9aa6a5920b20da02dca8db03c63e43c8b84\">1308d9a</a>)</li>\n</ul>\n<h3>Bug Fixes</h3>\n<ul>\n<li>doc typo (<a href=\"https://github-redirect.dependabot.com/puppeteer/puppeteer/issues/8263\">#8263</a>) (<a href=\"https://github.com/puppeteer/puppeteer/commit/952a2ae0bc4f059f8e8b4d1de809d0a486a74551\">952a2ae</a>)</li>\n<li>use different test names for browser specific tests in launcher.spec.ts (<a href=\"https://github-redirect.dependabot.com/puppeteer/puppeteer/issues/8250\">#8250</a>) (<a href=\"https://github.com/puppeteer/puppeteer/commit/c6cf1a9f27621c8a619cfbdc9d0821541768ac94\">c6cf1a9</a>)</li>\n</ul>\n<h2>13.6.0</h2>\n<h3>Features</h3>\n<ul>\n<li><strong>chromium:</strong> roll to Chromium 101.0.4950.0 (r982053) (<a href=\"https://github-redirect.dependabot.com/puppeteer/puppeteer/issues/8213\">#8213</a>) (<a href=\"https://github.com/puppeteer/puppeteer/commit/ec74bd811d9b7fbaf600068e86f13a63d7b0bc6f\">ec74bd8</a>)</li>\n<li>respond multiple headers with same key (<a href=\"https://github-redirect.dependabot.com/puppeteer/puppeteer/issues/8183\">#8183</a>) (<a href=\"https://github.com/puppeteer/puppeteer/commit/c1dcd857e3bc17769f02474a41bbedee01f471dc\">c1dcd85</a>)</li>\n</ul>\n<h3>Bug Fixes</h3>\n<ul>\n<li>also kill Firefox when temporary profile is used (<a href=\"https://github-redirect.dependabot.com/puppeteer/puppeteer/issues/8233\">#8233</a>) (<a href=\"https://github.com/puppeteer/puppeteer/commit/b6504d7186336a2fc0b41c3878c843b7409ba5fb\">b6504d7</a>)</li>\n<li>consider existing frames when waiting for a frame (<a href=\"https://github-redirect.dependabot.com/puppeteer/puppeteer/issues/8200\">#8200</a>) (<a href=\"https://github.com/puppeteer/puppeteer/commit/0955225b51421663288523a3dfb63103b51775b4\">0955225</a>)</li>\n<li>disable bfcache in the launcher (<a href=\"https://github-redirect.dependabot.com/puppeteer/puppeteer/issues/8196\">#8196</a>) (<a href=\"https://github.com/puppeteer/puppeteer/commit/9ac7318506ac858b3465e9b4ede8ad75fbbcee11\">9ac7318</a>), closes <a href=\"https://github-redirect.dependabot.com/puppeteer/puppeteer/issues/8182\">#8182</a></li>\n<li>enable page.spec event handler test for firefox (<a href=\"https://github-redirect.dependabot.com/puppeteer/puppeteer/issues/8214\">#8214</a>) (<a href=\"https://github.com/puppeteer/puppeteer/commit/2b45027d256f85f21a0c824183696b237e00ad33\">2b45027</a>)</li>\n<li>forget queuedEventGroup when emitting response in responseReceivedExtraInfo (<a href=\"https://github-redirect.dependabot.com/puppeteer/puppeteer/issues/8234\">#8234</a>) (<a href=\"https://github-redirect.dependabot.com/puppeteer/puppeteer/issues/8239\">#8239</a>) (<a href=\"https://github.com/puppeteer/puppeteer/commit/91a8e73b1196e4128b1e7c25e08080f2faaf3cf7\">91a8e73</a>)</li>\n</ul>\n<!-- raw HTML omitted -->\n</blockquote>\n<p>... (truncated)</p>\n</details>\n<details>\n<summary>Changelog</summary>\n<p><em>Sourced from <a href=\"https://github.com/puppeteer/puppeteer/blob/main/CHANGELOG.md\">puppeteer's changelog</a>.</em></p>\n<blockquote>\n<h2><a href=\"https://github.com/puppeteer/puppeteer/compare/v13.7.0...v14.0.0\">14.0.0</a> (2022-05-09)</h2>\n<h3>⚠ BREAKING CHANGES</h3>\n<ul>\n<li>strict mode fixes for HTTPRequest/Response classes (<a href=\"https://github-redirect.dependabot.com/puppeteer/puppeteer/issues/8297\">#8297</a>)</li>\n<li>Node 12 is no longer supported.</li>\n</ul>\n<h3>Features</h3>\n<ul>\n<li>add support for Apple Silicon chromium builds (<a href=\"https://github-redirect.dependabot.com/puppeteer/puppeteer/issues/7546\">#7546</a>) (<a href=\"https://github.com/puppeteer/puppeteer/commit/baa017db92b1fecf2e3584d5b3161371ae60f55b\">baa017d</a>), closes <a href=\"https://github-redirect.dependabot.com/puppeteer/puppeteer/issues/6622\">#6622</a></li>\n<li><strong>chromium:</strong> roll to Chromium 102.0.5002.0 (r991974) (<a href=\"https://github-redirect.dependabot.com/puppeteer/puppeteer/issues/8319\">#8319</a>) (<a href=\"https://github.com/puppeteer/puppeteer/commit/be4c930c60164f681a966d0f8cb745f6c263fe2b\">be4c930</a>)</li>\n<li>support ES modules (<a href=\"https://github-redirect.dependabot.com/puppeteer/puppeteer/issues/8306\">#8306</a>) (<a href=\"https://github.com/puppeteer/puppeteer/commit/6841bd68d85e3b3952c5e7ce454ac4d23f84262d\">6841bd6</a>)</li>\n</ul>\n<h3>Bug Fixes</h3>\n<ul>\n<li>\n<p>apparent typo SUPPORTER_PLATFORMS (<a href=\"https://github-redirect.dependabot.com/puppeteer/puppeteer/issues/8294\">#8294</a>) (<a href=\"https://github.com/puppeteer/puppeteer/commit/e09287f4e9a1ff3c637dd165d65f221394970e2c\">e09287f</a>)</p>\n</li>\n<li>\n<p>make sure inner OOPIFs can be attached to (<a href=\"https://github-redirect.dependabot.com/puppeteer/puppeteer/issues/8304\">#8304</a>) (<a href=\"https://github.com/puppeteer/puppeteer/commit/553959884f4edb4deab760fa8ca38fc1c85c05c5\">5539598</a>)</p>\n</li>\n<li>\n<p>strict mode fixes for HTTPRequest/Response classes (<a href=\"https://github-redirect.dependabot.com/puppeteer/puppeteer/issues/8297\">#8297</a>) (<a href=\"https://github.com/puppeteer/puppeteer/commit/2804ae8cdbc4c90bf942510bce656275a2d409e1\">2804ae8</a>), closes <a href=\"https://github-redirect.dependabot.com/puppeteer/puppeteer/issues/6769\">#6769</a></p>\n</li>\n<li>\n<p>tests failing in headful (<a href=\"https://github-redirect.dependabot.com/puppeteer/puppeteer/issues/8273\">#8273</a>) (<a href=\"https://github.com/puppeteer/puppeteer/commit/e841d7f9f3f407c02dbc48e107b545b91db104e6\">e841d7f</a>)</p>\n</li>\n<li>\n<p>drop Node 12 support (<a href=\"https://github-redirect.dependabot.com/puppeteer/puppeteer/issues/8299\">#8299</a>) (<a href=\"https://github.com/puppeteer/puppeteer/commit/274bd6b3b98c305ed014909d8053e4c54187971b\">274bd6b</a>)</p>\n</li>\n</ul>\n<h2><a href=\"https://github.com/puppeteer/puppeteer/compare/v13.6.0...v13.7.0\">13.7.0</a> (2022-04-28)</h2>\n<h3>Features</h3>\n<ul>\n<li>add <code>back</code> and <code>forward</code> mouse buttons (<a href=\"https://github-redirect.dependabot.com/puppeteer/puppeteer/issues/8284\">#8284</a>) (<a href=\"https://github.com/puppeteer/puppeteer/commit/7a51bff47f6436fc29d0df7eb74f12f69102ca5b\">7a51bff</a>)</li>\n<li>support chrome headless mode (<a href=\"https://github-redirect.dependabot.com/puppeteer/puppeteer/issues/8260\">#8260</a>) (<a href=\"https://github.com/puppeteer/puppeteer/commit/1308d9aa6a5920b20da02dca8db03c63e43c8b84\">1308d9a</a>)</li>\n</ul>\n<h3>Bug Fixes</h3>\n<ul>\n<li>doc typo (<a href=\"https://github-redirect.dependabot.com/puppeteer/puppeteer/issues/8263\">#8263</a>) (<a href=\"https://github.com/puppeteer/puppeteer/commit/952a2ae0bc4f059f8e8b4d1de809d0a486a74551\">952a2ae</a>)</li>\n<li>use different test names for browser specific tests in launcher.spec.ts (<a href=\"https://github-redirect.dependabot.com/puppeteer/puppeteer/issues/8250\">#8250</a>) (<a href=\"https://github.com/puppeteer/puppeteer/commit/c6cf1a9f27621c8a619cfbdc9d0821541768ac94\">c6cf1a9</a>)</li>\n</ul>\n<h2><a href=\"https://github.com/puppeteer/puppeteer/compare/v13.5.2...v13.6.0\">13.6.0</a> (2022-04-19)</h2>\n<h3>Features</h3>\n<ul>\n<li><strong>chromium:</strong> roll to Chromium 101.0.4950.0 (r982053) (<a href=\"https://github-redirect.dependabot.com/puppeteer/puppeteer/issues/8213\">#8213</a>) (<a href=\"https://github.com/puppeteer/puppeteer/commit/ec74bd811d9b7fbaf600068e86f13a63d7b0bc6f\">ec74bd8</a>)</li>\n<li>respond multiple headers with same key (<a href=\"https://github-redirect.dependabot.com/puppeteer/puppeteer/issues/8183\">#8183</a>) (<a href=\"https://github.com/puppeteer/puppeteer/commit/c1dcd857e3bc17769f02474a41bbedee01f471dc\">c1dcd85</a>)</li>\n</ul>\n<h3>Bug Fixes</h3>\n<!-- raw HTML omitted -->\n</blockquote>\n<p>... (truncated)</p>\n</details>\n<details>\n<summary>Commits</summary>\n<ul>\n<li><a href=\"https://github.com/puppeteer/puppeteer/commit/06f7390eabd8bfe7641e0157a91e5152e9c0c987\"><code>06f7390</code></a> chore(release): mark v14.0.0 (<a href=\"https://github-redirect.dependabot.com/puppeteer/puppeteer/issues/8326\">#8326</a>)</li>\n<li><a href=\"https://github.com/puppeteer/puppeteer/commit/6841bd68d85e3b3952c5e7ce454ac4d23f84262d\"><code>6841bd6</code></a> feat: support ES modules (<a href=\"https://github-redirect.dependabot.com/puppeteer/puppeteer/issues/8306\">#8306</a>)</li>\n<li><a href=\"https://github.com/puppeteer/puppeteer/commit/be4c930c60164f681a966d0f8cb745f6c263fe2b\"><code>be4c930</code></a> feat(chromium): roll to Chromium 102.0.5002.0 (r991974) (<a href=\"https://github-redirect.dependabot.com/puppeteer/puppeteer/issues/8319\">#8319</a>)</li>\n<li><a href=\"https://github.com/puppeteer/puppeteer/commit/b27f6590cd9405490db89cc85b293fecbfad7296\"><code>b27f659</code></a> chore: allow to skip the installation of Husky in the prepare step (<a href=\"https://github-redirect.dependabot.com/puppeteer/puppeteer/issues/8325\">#8325</a>)</li>\n<li><a href=\"https://github.com/puppeteer/puppeteer/commit/82f84c9618772cce1a987804c90e2f10c29dc854\"><code>82f84c9</code></a> chore: remove packed version of puppeteer (<a href=\"https://github-redirect.dependabot.com/puppeteer/puppeteer/issues/8320\">#8320</a>)</li>\n<li><a href=\"https://github.com/puppeteer/puppeteer/commit/1e5e45e21e1074385629d57b1d399e9f3acabf70\"><code>1e5e45e</code></a> chore(deps-dev): bump <code>@​microsoft/api-extractor</code> from 7.23.0 to 7.23.1 (<a href=\"https://github-redirect.dependabot.com/puppeteer/puppeteer/issues/8318\">#8318</a>)</li>\n<li><a href=\"https://github.com/puppeteer/puppeteer/commit/dfdc25fcdbc1597b8823e1b50f9dcdf47382530a\"><code>dfdc25f</code></a> chore(deps-dev): bump <code>@​typescript-eslint/eslint-plugin</code> (<a href=\"https://github-redirect.dependabot.com/puppeteer/puppeteer/issues/8317\">#8317</a>)</li>\n<li><a href=\"https://github.com/puppeteer/puppeteer/commit/e7bb013e2caa97e181b671813e9ca2bddcc235d4\"><code>e7bb013</code></a> chore(deps): bump ws from 8.5.0 to 8.6.0 (<a href=\"https://github-redirect.dependabot.com/puppeteer/puppeteer/issues/8313\">#8313</a>)</li>\n<li><a href=\"https://github.com/puppeteer/puppeteer/commit/b40c0383f3bd8ed9e7085dccd70145cdd25edfa9\"><code>b40c038</code></a> chore(deps-dev): bump <code>@​microsoft/api-documenter</code> from 7.17.11 to 7.17.12 (<a href=\"https://github-redirect.dependabot.com/puppeteer/puppeteer/issues/8316\">#8316</a>)</li>\n<li><a href=\"https://github.com/puppeteer/puppeteer/commit/b05ef09e3ad0c8cc8e904fc5971f4f6ba86c1aaf\"><code>b05ef09</code></a> chore: remove obsolete code (<a href=\"https://github-redirect.dependabot.com/puppeteer/puppeteer/issues/8307\">#8307</a>)</li>\n<li>Additional commits viewable in <a href=\"https://github.com/puppeteer/puppeteer/compare/v11.0.0...v14.0.0\">compare view</a></li>\n</ul>\n</details>\n<details>\n<summary>Maintainer changes</summary>\n<p>This version was pushed to npm by <a href=\"https://www.npmjs.com/~google-wombot\">google-wombot</a>, a new releaser for puppeteer since your current version.</p>\n</details>\n<br />\n\n\n[![Dependabot compatibility score](https://dependabot-badges.githubapp.com/badges/compatibility_score?dependency-name=puppeteer&package-manager=npm_and_yarn&previous-version=11.0.0&new-version=14.0.0)](https://docs.github.com/en/github/managing-security-vulnerabilities/about-dependabot-security-updates#about-compatibility-scores)\n\nDependabot will resolve any conflicts with this PR as long as you don't alter it yourself. You can also trigger a rebase manually by commenting `@dependabot rebase`.\n\n[//]: # (dependabot-automerge-start)\n[//]: # (dependabot-automerge-end)\n\n---\n\n<details>\n<summary>Dependabot commands and options</summary>\n<br />\n\nYou can trigger Dependabot actions by commenting on this PR:\n- `@dependabot rebase` will rebase this PR\n- `@dependabot recreate` will recreate this PR, overwriting any edits that have been made to it\n- `@dependabot merge` will merge this PR after your CI passes on it\n- `@dependabot squash and merge` will squash and merge this PR after your CI passes on it\n- `@dependabot cancel merge` will cancel a previously requested merge and block automerging\n- `@dependabot reopen` will reopen this PR if it is closed\n- `@dependabot close` will close this PR and stop Dependabot recreating it. You can achieve the same result by closing it manually\n- `@dependabot ignore this major version` will close this PR and stop Dependabot creating any more for this major version (unless you reopen the PR or upgrade to it yourself)\n- `@dependabot ignore this minor version` will close this PR and stop Dependabot creating any more for this minor version (unless you reopen the PR or upgrade to it yourself)\n- `@dependabot ignore this dependency` will close this PR and stop Dependabot creating any more for this dependency (unless you reopen the PR or upgrade to it yourself)\n\n\n</details>",
    "changed_files": 1,
    "closed_at": "2022-05-14T22:35:06Z",
    "comment_data": [],
    "comment_regular_data": [
        {
            "author_association": "CONTRIBUTOR",
            "body": "Superseded by #264.",
            "created_at": "2022-05-14T22:35:06Z",
            "html_url": "https://github.com/PrismarineJS/prismarine-viewer/pull/263#issuecomment-1126821609",
            "id": 1126821609,
            "issue_url": "https://api.github.com/repos/PrismarineJS/prismarine-viewer/issues/263",
            "node_id": "IC_kwDOEC0DT85DKe7p",
            "performed_via_github_app": null,
            "reactions": {
                "+1": 0,
                "-1": 0,
                "confused": 0,
                "eyes": 0,
                "heart": 0,
                "hooray": 0,
                "laugh": 0,
                "rocket": 0,
                "total_count": 0,
                "url": "https://api.github.com/repos/PrismarineJS/prismarine-viewer/issues/comments/1126821609/reactions"
            },
            "updated_at": "2022-05-14T22:35:06Z",
            "url": "https://api.github.com/repos/PrismarineJS/prismarine-viewer/issues/comments/1126821609",
            "user": {
                "avatar_url": "https://avatars.githubusercontent.com/in/29110?v=4",
                "events_url": "https://api.github.com/users/dependabot%5Bbot%5D/events{/privacy}",
                "followers_url": "https://api.github.com/users/dependabot%5Bbot%5D/followers",
                "following_url": "https://api.github.com/users/dependabot%5Bbot%5D/following{/other_user}",
                "gists_url": "https://api.github.com/users/dependabot%5Bbot%5D/gists{/gist_id}",
                "gravatar_id": "",
                "html_url": "https://github.com/apps/dependabot",
                "id": 49699333,
                "login": "dependabot[bot]",
                "node_id": "MDM6Qm90NDk2OTkzMzM=",
                "organizations_url": "https://api.github.com/users/dependabot%5Bbot%5D/orgs",
                "received_events_url": "https://api.github.com/users/dependabot%5Bbot%5D/received_events",
                "repos_url": "https://api.github.com/users/dependabot%5Bbot%5D/repos",
                "site_admin": false,
                "starred_url": "https://api.github.com/users/dependabot%5Bbot%5D/starred{/owner}{/repo}",
                "subscriptions_url": "https://api.github.com/users/dependabot%5Bbot%5D/subscriptions",
                "type": "Bot",
                "url": "https://api.github.com/users/dependabot%5Bbot%5D"
            }
        }
    ],
    "comments": 1,
    "comments_url": "https://api.github.com/repos/PrismarineJS/prismarine-viewer/issues/263/comments",
    "commit_data": [
        {
            "author": {
                "avatar_url": "https://avatars.githubusercontent.com/in/29110?v=4",
                "events_url": "https://api.github.com/users/dependabot%5Bbot%5D/events{/privacy}",
                "followers_url": "https://api.github.com/users/dependabot%5Bbot%5D/followers",
                "following_url": "https://api.github.com/users/dependabot%5Bbot%5D/following{/other_user}",
                "gists_url": "https://api.github.com/users/dependabot%5Bbot%5D/gists{/gist_id}",
                "gravatar_id": "",
                "html_url": "https://github.com/apps/dependabot",
                "id": 49699333,
                "login": "dependabot[bot]",
                "node_id": "MDM6Qm90NDk2OTkzMzM=",
                "organizations_url": "https://api.github.com/users/dependabot%5Bbot%5D/orgs",
                "received_events_url": "https://api.github.com/users/dependabot%5Bbot%5D/received_events",
                "repos_url": "https://api.github.com/users/dependabot%5Bbot%5D/repos",
                "site_admin": false,
                "starred_url": "https://api.github.com/users/dependabot%5Bbot%5D/starred{/owner}{/repo}",
                "subscriptions_url": "https://api.github.com/users/dependabot%5Bbot%5D/subscriptions",
                "type": "Bot",
                "url": "https://api.github.com/users/dependabot%5Bbot%5D"
            },
            "comments_url": "https://api.github.com/repos/PrismarineJS/prismarine-viewer/commits/27fd00c20c378e0a8328fc2b8635a2cbf9c2409c/comments",
            "commit": {
                "author": {
                    "date": "2022-05-10T00:22:40Z",
                    "email": "49699333+dependabot[bot]@users.noreply.github.com",
                    "name": "dependabot[bot]"
                },
                "comment_count": 0,
                "committer": {
                    "date": "2022-05-10T00:22:40Z",
                    "email": "noreply@github.com",
                    "name": "GitHub"
                },
                "message": "Bump puppeteer from 11.0.0 to 14.0.0\n\nBumps [puppeteer](https://github.com/puppeteer/puppeteer) from 11.0.0 to 14.0.0.\n- [Release notes](https://github.com/puppeteer/puppeteer/releases)\n- [Changelog](https://github.com/puppeteer/puppeteer/blob/main/CHANGELOG.md)\n- [Commits](https://github.com/puppeteer/puppeteer/compare/v11.0.0...v14.0.0)\n\n---\nupdated-dependencies:\n- dependency-name: puppeteer\n  dependency-type: direct:development\n  update-type: version-update:semver-major\n...\n\nSigned-off-by: dependabot[bot] <support@github.com>",
                "tree": {
                    "sha": "759a2b34377cc5be456aec47bf89cbf6675edf01",
                    "url": "https://api.github.com/repos/PrismarineJS/prismarine-viewer/git/trees/759a2b34377cc5be456aec47bf89cbf6675edf01"
                },
                "url": "https://api.github.com/repos/PrismarineJS/prismarine-viewer/git/commits/27fd00c20c378e0a8328fc2b8635a2cbf9c2409c",
                "verification": {
                    "payload": "tree 759a2b34377cc5be456aec47bf89cbf6675edf01\nparent 959c71bb2547ff8ca5aa058c1dadf8948f589ff6\nauthor dependabot[bot] <49699333+dependabot[bot]@users.noreply.github.com> 1652142160 +0000\ncommitter GitHub <noreply@github.com> 1652142160 +0000\n\nBump puppeteer from 11.0.0 to 14.0.0\n\nBumps [puppeteer](https://github.com/puppeteer/puppeteer) from 11.0.0 to 14.0.0.\n- [Release notes](https://github.com/puppeteer/puppeteer/releases)\n- [Changelog](https://github.com/puppeteer/puppeteer/blob/main/CHANGELOG.md)\n- [Commits](https://github.com/puppeteer/puppeteer/compare/v11.0.0...v14.0.0)\n\n---\nupdated-dependencies:\n- dependency-name: puppeteer\n  dependency-type: direct:development\n  update-type: version-update:semver-major\n...\n\nSigned-off-by: dependabot[bot] <support@github.com>",
                    "reason": "valid",
                    "signature": "-----BEGIN PGP SIGNATURE-----\n\nwsBcBAABCAAQBQJiebBQCRBK7hj4Ov3rIwAAf1AIAKoOQvZfS/Ps8shm1vJli48z\nbpVDCb5SkzGcAMLNWw81RyZCmymlATcW2npAZ/FDqGP04iNfo8H4mtBfvsmR3etA\nQ6Hc6YehyNJrU19Xj6T/AthsKXKtBWK9NznuQuvt49i8jBNaBFw4K2NraOmU23Di\nBnqaITIKAGCavccGmsPJXVBhobU+9SSLklJ1NyeJ3P8Kjt5fu6jEcH1uMJpnQU2A\nzogL4vVf2RHDVwcSkyv5P2QoykUUzQoMZJRroTQ08T5aYmpgjAyhiYGnwS4rVKd9\nu90Q4PbskEuqrHwiuhOU2rJ5byQ3pp8zG1ItPuwa2EwMZ0F8aHqH3u6zfYwsLq0=\n=bvzd\n-----END PGP SIGNATURE-----\n",
                    "verified": true
                }
            },
            "committer": {
                "avatar_url": "https://avatars.githubusercontent.com/u/19864447?v=4",
                "events_url": "https://api.github.com/users/web-flow/events{/privacy}",
                "followers_url": "https://api.github.com/users/web-flow/followers",
                "following_url": "https://api.github.com/users/web-flow/following{/other_user}",
                "gists_url": "https://api.github.com/users/web-flow/gists{/gist_id}",
                "gravatar_id": "",
                "html_url": "https://github.com/web-flow",
                "id": 19864447,
                "login": "web-flow",
                "node_id": "MDQ6VXNlcjE5ODY0NDQ3",
                "organizations_url": "https://api.github.com/users/web-flow/orgs",
                "received_events_url": "https://api.github.com/users/web-flow/received_events",
                "repos_url": "https://api.github.com/users/web-flow/repos",
                "site_admin": false,
                "starred_url": "https://api.github.com/users/web-flow/starred{/owner}{/repo}",
                "subscriptions_url": "https://api.github.com/users/web-flow/subscriptions",
                "type": "User",
                "url": "https://api.github.com/users/web-flow"
            },
            "html_url": "https://github.com/PrismarineJS/prismarine-viewer/commit/27fd00c20c378e0a8328fc2b8635a2cbf9c2409c",
            "node_id": "C_kwDOEC0DT9oAKDI3ZmQwMGMyMGMzNzhlMGE4MzI4ZmMyYjg2MzVhMmNiZjljMjQwOWM",
            "parents": [
                {
                    "html_url": "https://github.com/PrismarineJS/prismarine-viewer/commit/959c71bb2547ff8ca5aa058c1dadf8948f589ff6",
                    "sha": "959c71bb2547ff8ca5aa058c1dadf8948f589ff6",
                    "url": "https://api.github.com/repos/PrismarineJS/prismarine-viewer/commits/959c71bb2547ff8ca5aa058c1dadf8948f589ff6"
                }
            ],
            "sha": "27fd00c20c378e0a8328fc2b8635a2cbf9c2409c",
            "url": "https://api.github.com/repos/PrismarineJS/prismarine-viewer/commits/27fd00c20c378e0a8328fc2b8635a2cbf9c2409c"
        }
    ],
    "commits": 1,
    "commits_url": "https://api.github.com/repos/PrismarineJS/prismarine-viewer/pulls/263/commits",
    "created_at": "2022-05-10T00:22:41Z",
    "deletions": 1,
    "diff_url": "https://github.com/PrismarineJS/prismarine-viewer/pull/263.diff",
    "draft": false,
    "head": {
        "label": "PrismarineJS:dependabot/npm_and_yarn/puppeteer-14.0.0",
        "ref": "dependabot/npm_and_yarn/puppeteer-14.0.0",
        "repo": {
            "allow_forking": true,
            "archive_url": "https://api.github.com/repos/PrismarineJS/prismarine-viewer/{archive_format}{/ref}",
            "archived": false,
            "assignees_url": "https://api.github.com/repos/PrismarineJS/prismarine-viewer/assignees{/user}",
            "blobs_url": "https://api.github.com/repos/PrismarineJS/prismarine-viewer/git/blobs{/sha}",
            "branches_url": "https://api.github.com/repos/PrismarineJS/prismarine-viewer/branches{/branch}",
            "clone_url": "https://github.com/PrismarineJS/prismarine-viewer.git",
            "collaborators_url": "https://api.github.com/repos/PrismarineJS/prismarine-viewer/collaborators{/collaborator}",
            "comments_url": "https://api.github.com/repos/PrismarineJS/prismarine-viewer/comments{/number}",
            "commits_url": "https://api.github.com/repos/PrismarineJS/prismarine-viewer/commits{/sha}",
            "compare_url": "https://api.github.com/repos/PrismarineJS/prismarine-viewer/compare/{base}...{head}",
            "contents_url": "https://api.github.com/repos/PrismarineJS/prismarine-viewer/contents/{+path}",
            "contributors_url": "https://api.github.com/repos/PrismarineJS/prismarine-viewer/contributors",
            "created_at": "2020-06-10T21:05:49Z",
            "default_branch": "master",
            "deployments_url": "https://api.github.com/repos/PrismarineJS/prismarine-viewer/deployments",
            "description": "Web based viewer for servers and bots",
            "disabled": false,
            "downloads_url": "https://api.github.com/repos/PrismarineJS/prismarine-viewer/downloads",
            "events_url": "https://api.github.com/repos/PrismarineJS/prismarine-viewer/events",
            "fork": false,
            "forks": 57,
            "forks_count": 57,
            "forks_url": "https://api.github.com/repos/PrismarineJS/prismarine-viewer/forks",
            "full_name": "PrismarineJS/prismarine-viewer",
            "git_commits_url": "https://api.github.com/repos/PrismarineJS/prismarine-viewer/git/commits{/sha}",
            "git_refs_url": "https://api.github.com/repos/PrismarineJS/prismarine-viewer/git/refs{/sha}",
            "git_tags_url": "https://api.github.com/repos/PrismarineJS/prismarine-viewer/git/tags{/sha}",
            "git_url": "git://github.com/PrismarineJS/prismarine-viewer.git",
            "has_discussions": false,
            "has_downloads": true,
            "has_issues": true,
            "has_pages": true,
            "has_projects": true,
            "has_wiki": true,
            "homepage": "https://prismarinejs.github.io/prismarine-viewer/",
            "hooks_url": "https://api.github.com/repos/PrismarineJS/prismarine-viewer/hooks",
            "html_url": "https://github.com/PrismarineJS/prismarine-viewer",
            "id": 271385423,
            "is_template": false,
            "issue_comment_url": "https://api.github.com/repos/PrismarineJS/prismarine-viewer/issues/comments{/number}",
            "issue_events_url": "https://api.github.com/repos/PrismarineJS/prismarine-viewer/issues/events{/number}",
            "issues_url": "https://api.github.com/repos/PrismarineJS/prismarine-viewer/issues{/number}",
            "keys_url": "https://api.github.com/repos/PrismarineJS/prismarine-viewer/keys{/key_id}",
            "labels_url": "https://api.github.com/repos/PrismarineJS/prismarine-viewer/labels{/name}",
            "language": "JavaScript",
            "languages_url": "https://api.github.com/repos/PrismarineJS/prismarine-viewer/languages",
            "license": {
                "key": "mit",
                "name": "MIT License",
                "node_id": "MDc6TGljZW5zZTEz",
                "spdx_id": "MIT",
                "url": "https://api.github.com/licenses/mit"
            },
            "merges_url": "https://api.github.com/repos/PrismarineJS/prismarine-viewer/merges",
            "milestones_url": "https://api.github.com/repos/PrismarineJS/prismarine-viewer/milestones{/number}",
            "mirror_url": null,
            "name": "prismarine-viewer",
            "node_id": "MDEwOlJlcG9zaXRvcnkyNzEzODU0MjM=",
            "notifications_url": "https://api.github.com/repos/PrismarineJS/prismarine-viewer/notifications{?since,all,participating}",
            "open_issues": 69,
            "open_issues_count": 69,
            "owner": {
                "avatar_url": "https://avatars.githubusercontent.com/u/11053411?v=4",
                "events_url": "https://api.github.com/users/PrismarineJS/events{/privacy}",
                "followers_url": "https://api.github.com/users/PrismarineJS/followers",
                "following_url": "https://api.github.com/users/PrismarineJS/following{/other_user}",
                "gists_url": "https://api.github.com/users/PrismarineJS/gists{/gist_id}",
                "gravatar_id": "",
                "html_url": "https://github.com/PrismarineJS",
                "id": 11053411,
                "login": "PrismarineJS",
                "node_id": "MDEyOk9yZ2FuaXphdGlvbjExMDUzNDEx",
                "organizations_url": "https://api.github.com/users/PrismarineJS/orgs",
                "received_events_url": "https://api.github.com/users/PrismarineJS/received_events",
                "repos_url": "https://api.github.com/users/PrismarineJS/repos",
                "site_admin": false,
                "starred_url": "https://api.github.com/users/PrismarineJS/starred{/owner}{/repo}",
                "subscriptions_url": "https://api.github.com/users/PrismarineJS/subscriptions",
                "type": "Organization",
                "url": "https://api.github.com/users/PrismarineJS"
            },
            "private": false,
            "pulls_url": "https://api.github.com/repos/PrismarineJS/prismarine-viewer/pulls{/number}",
            "pushed_at": "2023-04-25T00:59:53Z",
            "releases_url": "https://api.github.com/repos/PrismarineJS/prismarine-viewer/releases{/id}",
            "size": 309473,
            "ssh_url": "git@github.com:PrismarineJS/prismarine-viewer.git",
            "stargazers_count": 168,
            "stargazers_url": "https://api.github.com/repos/PrismarineJS/prismarine-viewer/stargazers",
            "statuses_url": "https://api.github.com/repos/PrismarineJS/prismarine-viewer/statuses/{sha}",
            "subscribers_url": "https://api.github.com/repos/PrismarineJS/prismarine-viewer/subscribers",
            "subscription_url": "https://api.github.com/repos/PrismarineJS/prismarine-viewer/subscription",
            "svn_url": "https://github.com/PrismarineJS/prismarine-viewer",
            "tags_url": "https://api.github.com/repos/PrismarineJS/prismarine-viewer/tags",
            "teams_url": "https://api.github.com/repos/PrismarineJS/prismarine-viewer/teams",
            "topics": [],
            "trees_url": "https://api.github.com/repos/PrismarineJS/prismarine-viewer/git/trees{/sha}",
            "updated_at": "2023-04-24T03:47:17Z",
            "url": "https://api.github.com/repos/PrismarineJS/prismarine-viewer",
            "visibility": "public",
            "watchers": 168,
            "watchers_count": 168,
            "web_commit_signoff_required": false
        },
        "sha": "27fd00c20c378e0a8328fc2b8635a2cbf9c2409c",
        "user": {
            "avatar_url": "https://avatars.githubusercontent.com/u/11053411?v=4",
            "events_url": "https://api.github.com/users/PrismarineJS/events{/privacy}",
            "followers_url": "https://api.github.com/users/PrismarineJS/followers",
            "following_url": "https://api.github.com/users/PrismarineJS/following{/other_user}",
            "gists_url": "https://api.github.com/users/PrismarineJS/gists{/gist_id}",
            "gravatar_id": "",
            "html_url": "https://github.com/PrismarineJS",
            "id": 11053411,
            "login": "PrismarineJS",
            "node_id": "MDEyOk9yZ2FuaXphdGlvbjExMDUzNDEx",
            "organizations_url": "https://api.github.com/users/PrismarineJS/orgs",
            "received_events_url": "https://api.github.com/users/PrismarineJS/received_events",
            "repos_url": "https://api.github.com/users/PrismarineJS/repos",
            "site_admin": false,
            "starred_url": "https://api.github.com/users/PrismarineJS/starred{/owner}{/repo}",
            "subscriptions_url": "https://api.github.com/users/PrismarineJS/subscriptions",
            "type": "Organization",
            "url": "https://api.github.com/users/PrismarineJS"
        }
    },
    "html_url": "https://github.com/PrismarineJS/prismarine-viewer/pull/263",
    "id": 931811467,
    "issue_url": "https://api.github.com/repos/PrismarineJS/prismarine-viewer/issues/263",
    "labels": [
        {
            "color": "0366d6",
            "default": false,
            "description": "Pull requests that update a dependency file",
            "id": 2474655629,
            "name": "dependencies",
            "node_id": "MDU6TGFiZWwyNDc0NjU1NjI5",
            "url": "https://api.github.com/repos/PrismarineJS/prismarine-viewer/labels/dependencies"
        }
    ],
    "locked": false,
    "maintainer_can_modify": false,
    "merge_commit_sha": "7116b7ef4ed890e91f75ca1de08570205beed823",
    "mergeable": false,
    "mergeable_state": "dirty",
    "merged": false,
    "merged_at": null,
    "merged_by": null,
    "milestone": null,
    "node_id": "PR_kwDOEC0DT843ilCL",
    "number": 263,
    "patch_url": "https://github.com/PrismarineJS/prismarine-viewer/pull/263.patch",
    "rebaseable": false,
    "requested_reviewers": [],
    "requested_teams": [],
    "review_comment_url": "https://api.github.com/repos/PrismarineJS/prismarine-viewer/pulls/comments{/number}",
    "review_comments": 0,
    "review_comments_url": "https://api.github.com/repos/PrismarineJS/prismarine-viewer/pulls/263/comments",
    "state": "closed",
    "statuses_url": "https://api.github.com/repos/PrismarineJS/prismarine-viewer/statuses/27fd00c20c378e0a8328fc2b8635a2cbf9c2409c",
    "title": "Bump puppeteer from 11.0.0 to 14.0.0",
    "updated_at": "2022-05-14T22:35:07Z",
    "url": "https://api.github.com/repos/PrismarineJS/prismarine-viewer/pulls/263",
    "user": {
        "avatar_url": "https://avatars.githubusercontent.com/in/29110?v=4",
        "events_url": "https://api.github.com/users/dependabot%5Bbot%5D/events{/privacy}",
        "followers_url": "https://api.github.com/users/dependabot%5Bbot%5D/followers",
        "following_url": "https://api.github.com/users/dependabot%5Bbot%5D/following{/other_user}",
        "gists_url": "https://api.github.com/users/dependabot%5Bbot%5D/gists{/gist_id}",
        "gravatar_id": "",
        "html_url": "https://github.com/apps/dependabot",
        "id": 49699333,
        "login": "dependabot[bot]",
        "node_id": "MDM6Qm90NDk2OTkzMzM=",
        "organizations_url": "https://api.github.com/users/dependabot%5Bbot%5D/orgs",
        "received_events_url": "https://api.github.com/users/dependabot%5Bbot%5D/received_events",
        "repos_url": "https://api.github.com/users/dependabot%5Bbot%5D/repos",
        "site_admin": false,
        "starred_url": "https://api.github.com/users/dependabot%5Bbot%5D/starred{/owner}{/repo}",
        "subscriptions_url": "https://api.github.com/users/dependabot%5Bbot%5D/subscriptions",
        "type": "Bot",
        "url": "https://api.github.com/users/dependabot%5Bbot%5D"
    }
}