{
    "_links": {
        "comments": {
            "href": "https://api.github.com/repos/PrismarineJS/prismarine-viewer/issues/279/comments"
        },
        "commits": {
            "href": "https://api.github.com/repos/PrismarineJS/prismarine-viewer/pulls/279/commits"
        },
        "html": {
            "href": "https://github.com/PrismarineJS/prismarine-viewer/pull/279"
        },
        "issue": {
            "href": "https://api.github.com/repos/PrismarineJS/prismarine-viewer/issues/279"
        },
        "review_comment": {
            "href": "https://api.github.com/repos/PrismarineJS/prismarine-viewer/pulls/comments{/number}"
        },
        "review_comments": {
            "href": "https://api.github.com/repos/PrismarineJS/prismarine-viewer/pulls/279/comments"
        },
        "self": {
            "href": "https://api.github.com/repos/PrismarineJS/prismarine-viewer/pulls/279"
        },
        "statuses": {
            "href": "https://api.github.com/repos/PrismarineJS/prismarine-viewer/statuses/2c0fa88c41ce381f02a3e1d80dd88569cc9f2831"
        }
    },
    "active_lock_reason": null,
    "additions": 1,
    "assignee": null,
    "assignees": [],
    "author_association": "CONTRIBUTOR",
    "auto_merge": null,
    "base": {
        "label": "PrismarineJS:master",
        "ref": "master",
        "repo": {
            "allow_forking": true,
            "archive_url": "https://api.github.com/repos/PrismarineJS/prismarine-viewer/{archive_format}{/ref}",
            "archived": false,
            "assignees_url": "https://api.github.com/repos/PrismarineJS/prismarine-viewer/assignees{/user}",
            "blobs_url": "https://api.github.com/repos/PrismarineJS/prismarine-viewer/git/blobs{/sha}",
            "branches_url": "https://api.github.com/repos/PrismarineJS/prismarine-viewer/branches{/branch}",
            "clone_url": "https://github.com/PrismarineJS/prismarine-viewer.git",
            "collaborators_url": "https://api.github.com/repos/PrismarineJS/prismarine-viewer/collaborators{/collaborator}",
            "comments_url": "https://api.github.com/repos/PrismarineJS/prismarine-viewer/comments{/number}",
            "commits_url": "https://api.github.com/repos/PrismarineJS/prismarine-viewer/commits{/sha}",
            "compare_url": "https://api.github.com/repos/PrismarineJS/prismarine-viewer/compare/{base}...{head}",
            "contents_url": "https://api.github.com/repos/PrismarineJS/prismarine-viewer/contents/{+path}",
            "contributors_url": "https://api.github.com/repos/PrismarineJS/prismarine-viewer/contributors",
            "created_at": "2020-06-10T21:05:49Z",
            "default_branch": "master",
            "deployments_url": "https://api.github.com/repos/PrismarineJS/prismarine-viewer/deployments",
            "description": "Web based viewer for servers and bots",
            "disabled": false,
            "downloads_url": "https://api.github.com/repos/PrismarineJS/prismarine-viewer/downloads",
            "events_url": "https://api.github.com/repos/PrismarineJS/prismarine-viewer/events",
            "fork": false,
            "forks": 57,
            "forks_count": 57,
            "forks_url": "https://api.github.com/repos/PrismarineJS/prismarine-viewer/forks",
            "full_name": "PrismarineJS/prismarine-viewer",
            "git_commits_url": "https://api.github.com/repos/PrismarineJS/prismarine-viewer/git/commits{/sha}",
            "git_refs_url": "https://api.github.com/repos/PrismarineJS/prismarine-viewer/git/refs{/sha}",
            "git_tags_url": "https://api.github.com/repos/PrismarineJS/prismarine-viewer/git/tags{/sha}",
            "git_url": "git://github.com/PrismarineJS/prismarine-viewer.git",
            "has_discussions": false,
            "has_downloads": true,
            "has_issues": true,
            "has_pages": true,
            "has_projects": true,
            "has_wiki": true,
            "homepage": "https://prismarinejs.github.io/prismarine-viewer/",
            "hooks_url": "https://api.github.com/repos/PrismarineJS/prismarine-viewer/hooks",
            "html_url": "https://github.com/PrismarineJS/prismarine-viewer",
            "id": 271385423,
            "is_template": false,
            "issue_comment_url": "https://api.github.com/repos/PrismarineJS/prismarine-viewer/issues/comments{/number}",
            "issue_events_url": "https://api.github.com/repos/PrismarineJS/prismarine-viewer/issues/events{/number}",
            "issues_url": "https://api.github.com/repos/PrismarineJS/prismarine-viewer/issues{/number}",
            "keys_url": "https://api.github.com/repos/PrismarineJS/prismarine-viewer/keys{/key_id}",
            "labels_url": "https://api.github.com/repos/PrismarineJS/prismarine-viewer/labels{/name}",
            "language": "JavaScript",
            "languages_url": "https://api.github.com/repos/PrismarineJS/prismarine-viewer/languages",
            "license": {
                "key": "mit",
                "name": "MIT License",
                "node_id": "MDc6TGljZW5zZTEz",
                "spdx_id": "MIT",
                "url": "https://api.github.com/licenses/mit"
            },
            "merges_url": "https://api.github.com/repos/PrismarineJS/prismarine-viewer/merges",
            "milestones_url": "https://api.github.com/repos/PrismarineJS/prismarine-viewer/milestones{/number}",
            "mirror_url": null,
            "name": "prismarine-viewer",
            "node_id": "MDEwOlJlcG9zaXRvcnkyNzEzODU0MjM=",
            "notifications_url": "https://api.github.com/repos/PrismarineJS/prismarine-viewer/notifications{?since,all,participating}",
            "open_issues": 69,
            "open_issues_count": 69,
            "owner": {
                "avatar_url": "https://avatars.githubusercontent.com/u/11053411?v=4",
                "events_url": "https://api.github.com/users/PrismarineJS/events{/privacy}",
                "followers_url": "https://api.github.com/users/PrismarineJS/followers",
                "following_url": "https://api.github.com/users/PrismarineJS/following{/other_user}",
                "gists_url": "https://api.github.com/users/PrismarineJS/gists{/gist_id}",
                "gravatar_id": "",
                "html_url": "https://github.com/PrismarineJS",
                "id": 11053411,
                "login": "PrismarineJS",
                "node_id": "MDEyOk9yZ2FuaXphdGlvbjExMDUzNDEx",
                "organizations_url": "https://api.github.com/users/PrismarineJS/orgs",
                "received_events_url": "https://api.github.com/users/PrismarineJS/received_events",
                "repos_url": "https://api.github.com/users/PrismarineJS/repos",
                "site_admin": false,
                "starred_url": "https://api.github.com/users/PrismarineJS/starred{/owner}{/repo}",
                "subscriptions_url": "https://api.github.com/users/PrismarineJS/subscriptions",
                "type": "Organization",
                "url": "https://api.github.com/users/PrismarineJS"
            },
            "private": false,
            "pulls_url": "https://api.github.com/repos/PrismarineJS/prismarine-viewer/pulls{/number}",
            "pushed_at": "2023-04-25T00:59:53Z",
            "releases_url": "https://api.github.com/repos/PrismarineJS/prismarine-viewer/releases{/id}",
            "size": 309473,
            "ssh_url": "git@github.com:PrismarineJS/prismarine-viewer.git",
            "stargazers_count": 168,
            "stargazers_url": "https://api.github.com/repos/PrismarineJS/prismarine-viewer/stargazers",
            "statuses_url": "https://api.github.com/repos/PrismarineJS/prismarine-viewer/statuses/{sha}",
            "subscribers_url": "https://api.github.com/repos/PrismarineJS/prismarine-viewer/subscribers",
            "subscription_url": "https://api.github.com/repos/PrismarineJS/prismarine-viewer/subscription",
            "svn_url": "https://github.com/PrismarineJS/prismarine-viewer",
            "tags_url": "https://api.github.com/repos/PrismarineJS/prismarine-viewer/tags",
            "teams_url": "https://api.github.com/repos/PrismarineJS/prismarine-viewer/teams",
            "topics": [],
            "trees_url": "https://api.github.com/repos/PrismarineJS/prismarine-viewer/git/trees{/sha}",
            "updated_at": "2023-04-24T03:47:17Z",
            "url": "https://api.github.com/repos/PrismarineJS/prismarine-viewer",
            "visibility": "public",
            "watchers": 168,
            "watchers_count": 168,
            "web_commit_signoff_required": false
        },
        "sha": "9a389f962656aa84cfb71945be77142d051bcb1a",
        "user": {
            "avatar_url": "https://avatars.githubusercontent.com/u/11053411?v=4",
            "events_url": "https://api.github.com/users/PrismarineJS/events{/privacy}",
            "followers_url": "https://api.github.com/users/PrismarineJS/followers",
            "following_url": "https://api.github.com/users/PrismarineJS/following{/other_user}",
            "gists_url": "https://api.github.com/users/PrismarineJS/gists{/gist_id}",
            "gravatar_id": "",
            "html_url": "https://github.com/PrismarineJS",
            "id": 11053411,
            "login": "PrismarineJS",
            "node_id": "MDEyOk9yZ2FuaXphdGlvbjExMDUzNDEx",
            "organizations_url": "https://api.github.com/users/PrismarineJS/orgs",
            "received_events_url": "https://api.github.com/users/PrismarineJS/received_events",
            "repos_url": "https://api.github.com/users/PrismarineJS/repos",
            "site_admin": false,
            "starred_url": "https://api.github.com/users/PrismarineJS/starred{/owner}{/repo}",
            "subscriptions_url": "https://api.github.com/users/PrismarineJS/subscriptions",
            "type": "Organization",
            "url": "https://api.github.com/users/PrismarineJS"
        }
    },
    "body": "Bumps [puppeteer](https://github.com/puppeteer/puppeteer) from 11.0.0 to 15.3.0.\n<details>\n<summary>Release notes</summary>\n<p><em>Sourced from <a href=\"https://github.com/puppeteer/puppeteer/releases\">puppeteer's releases</a>.</em></p>\n<blockquote>\n<h2>v15.3.0</h2>\n<h2><a href=\"https://github.com/puppeteer/puppeteer/compare/v15.2.0...v15.3.0\">15.3.0</a> (2022-07-01)</h2>\n<h3>Features</h3>\n<ul>\n<li>add documentation (<a href=\"https://github-redirect.dependabot.com/puppeteer/puppeteer/issues/8593\">#8593</a>) (<a href=\"https://github.com/puppeteer/puppeteer/commit/066f440ba7bdc9aca9423d7205adf36f2858bd78\">066f440</a>)</li>\n</ul>\n<h3>Bug Fixes</h3>\n<ul>\n<li>remove unused imports (<a href=\"https://github-redirect.dependabot.com/puppeteer/puppeteer/issues/8613\">#8613</a>) (<a href=\"https://github.com/puppeteer/puppeteer/commit/0cf4832878731ffcfc84570315f326eb851d7629\">0cf4832</a>)</li>\n</ul>\n<h2>v15.2.0</h2>\n<h2><a href=\"https://github.com/puppeteer/puppeteer/compare/v15.1.1...v15.2.0\">15.2.0</a> (2022-06-29)</h2>\n<h3>Features</h3>\n<ul>\n<li>add fromSurface option to page.screenshot (<a href=\"https://github-redirect.dependabot.com/puppeteer/puppeteer/issues/8496\">#8496</a>) (<a href=\"https://github.com/puppeteer/puppeteer/commit/79e11985ba44b72b1ad6b8cd861fe316f1945e64\">79e1198</a>)</li>\n<li>export public types only (<a href=\"https://github-redirect.dependabot.com/puppeteer/puppeteer/issues/8584\">#8584</a>) (<a href=\"https://github.com/puppeteer/puppeteer/commit/7001322cd1cf9f77ee2c370d50a6707e7aaad72d\">7001322</a>)</li>\n</ul>\n<h3>Bug Fixes</h3>\n<ul>\n<li>clean up tmp profile dirs when browser is closed (<a href=\"https://github-redirect.dependabot.com/puppeteer/puppeteer/issues/8580\">#8580</a>) (<a href=\"https://github.com/puppeteer/puppeteer/commit/9787a1d8df7768017b36d42327faab402695c4bb\">9787a1d</a>)</li>\n</ul>\n<h2>v15.1.1</h2>\n<h2><a href=\"https://github.com/puppeteer/puppeteer/compare/v15.1.0...v15.1.1\">15.1.1</a> (2022-06-25)</h2>\n<h3>Bug Fixes</h3>\n<ul>\n<li>export <code>ElementHandle</code> (<a href=\"https://github.com/puppeteer/puppeteer/commit/e0198a79e06c8bb72dde554db0246a3db5fec4c2\">e0198a7</a>)</li>\n</ul>\n<h2>v15.1.0</h2>\n<h2><a href=\"https://github.com/puppeteer/puppeteer/compare/v15.0.2...v15.1.0\">15.1.0</a> (2022-06-24)</h2>\n<h3>Features</h3>\n<ul>\n<li><strong>chromium:</strong> roll to Chromium 104.0.5109.0 (r1011831) (<a href=\"https://github-redirect.dependabot.com/puppeteer/puppeteer/issues/8569\">#8569</a>) (<a href=\"https://github.com/puppeteer/puppeteer/commit/fb7d31e3698428560e1f654d33782d241192f48f\">fb7d31e</a>)</li>\n</ul>\n<h2>v15.0.2</h2>\n<h2><a href=\"https://github.com/puppeteer/puppeteer/compare/v15.0.1...v15.0.2\">15.0.2</a> (2022-06-24)</h2>\n<h3>Bug Fixes</h3>\n<ul>\n<li>CSS coverage should work with empty stylesheets (<a href=\"https://github-redirect.dependabot.com/puppeteer/puppeteer/issues/8570\">#8570</a>) (<a href=\"https://github.com/puppeteer/puppeteer/commit/383e8558477fae7708734ab2160ef50f385e2983\">383e855</a>), closes <a href=\"https://github-redirect.dependabot.com/puppeteer/puppeteer/issues/8535\">#8535</a></li>\n</ul>\n<!-- raw HTML omitted -->\n</blockquote>\n<p>... (truncated)</p>\n</details>\n<details>\n<summary>Changelog</summary>\n<p><em>Sourced from <a href=\"https://github.com/puppeteer/puppeteer/blob/main/CHANGELOG.md\">puppeteer's changelog</a>.</em></p>\n<blockquote>\n<h2><a href=\"https://github.com/puppeteer/puppeteer/compare/v15.2.0...v15.3.0\">15.3.0</a> (2022-07-01)</h2>\n<h3>Features</h3>\n<ul>\n<li>add documentation (<a href=\"https://github-redirect.dependabot.com/puppeteer/puppeteer/issues/8593\">#8593</a>) (<a href=\"https://github.com/puppeteer/puppeteer/commit/066f440ba7bdc9aca9423d7205adf36f2858bd78\">066f440</a>)</li>\n</ul>\n<h3>Bug Fixes</h3>\n<ul>\n<li>remove unused imports (<a href=\"https://github-redirect.dependabot.com/puppeteer/puppeteer/issues/8613\">#8613</a>) (<a href=\"https://github.com/puppeteer/puppeteer/commit/0cf4832878731ffcfc84570315f326eb851d7629\">0cf4832</a>)</li>\n</ul>\n<h2><a href=\"https://github.com/puppeteer/puppeteer/compare/v15.1.1...v15.2.0\">15.2.0</a> (2022-06-29)</h2>\n<h3>Features</h3>\n<ul>\n<li>add fromSurface option to page.screenshot (<a href=\"https://github-redirect.dependabot.com/puppeteer/puppeteer/issues/8496\">#8496</a>) (<a href=\"https://github.com/puppeteer/puppeteer/commit/79e11985ba44b72b1ad6b8cd861fe316f1945e64\">79e1198</a>)</li>\n<li>export public types only (<a href=\"https://github-redirect.dependabot.com/puppeteer/puppeteer/issues/8584\">#8584</a>) (<a href=\"https://github.com/puppeteer/puppeteer/commit/7001322cd1cf9f77ee2c370d50a6707e7aaad72d\">7001322</a>)</li>\n</ul>\n<h3>Bug Fixes</h3>\n<ul>\n<li>clean up tmp profile dirs when browser is closed (<a href=\"https://github-redirect.dependabot.com/puppeteer/puppeteer/issues/8580\">#8580</a>) (<a href=\"https://github.com/puppeteer/puppeteer/commit/9787a1d8df7768017b36d42327faab402695c4bb\">9787a1d</a>)</li>\n</ul>\n<h2><a href=\"https://github.com/puppeteer/puppeteer/compare/v15.1.0...v15.1.1\">15.1.1</a> (2022-06-25)</h2>\n<h3>Bug Fixes</h3>\n<ul>\n<li>export <code>ElementHandle</code> (<a href=\"https://github.com/puppeteer/puppeteer/commit/e0198a79e06c8bb72dde554db0246a3db5fec4c2\">e0198a7</a>)</li>\n</ul>\n<h2><a href=\"https://github.com/puppeteer/puppeteer/compare/v15.0.2...v15.1.0\">15.1.0</a> (2022-06-24)</h2>\n<h3>Features</h3>\n<ul>\n<li><strong>chromium:</strong> roll to Chromium 104.0.5109.0 (r1011831) (<a href=\"https://github-redirect.dependabot.com/puppeteer/puppeteer/issues/8569\">#8569</a>) (<a href=\"https://github.com/puppeteer/puppeteer/commit/fb7d31e3698428560e1f654d33782d241192f48f\">fb7d31e</a>)</li>\n</ul>\n<h2><a href=\"https://github.com/puppeteer/puppeteer/compare/v15.0.1...v15.0.2\">15.0.2</a> (2022-06-24)</h2>\n<h3>Bug Fixes</h3>\n<ul>\n<li>CSS coverage should work with empty stylesheets (<a href=\"https://github-redirect.dependabot.com/puppeteer/puppeteer/issues/8570\">#8570</a>) (<a href=\"https://github.com/puppeteer/puppeteer/commit/383e8558477fae7708734ab2160ef50f385e2983\">383e855</a>), closes <a href=\"https://github-redirect.dependabot.com/puppeteer/puppeteer/issues/8535\">#8535</a></li>\n</ul>\n<h2><a href=\"https://github.com/puppeteer/puppeteer/compare/v15.0.0...v15.0.1\">15.0.1</a> (2022-06-24)</h2>\n<h3>Bug Fixes</h3>\n<!-- raw HTML omitted -->\n</blockquote>\n<p>... (truncated)</p>\n</details>\n<details>\n<summary>Commits</summary>\n<ul>\n<li><a href=\"https://github.com/puppeteer/puppeteer/commit/01c76b7eb1f62c9467695c6825fe32da757848d3\"><code>01c76b7</code></a> chore(main): release 15.3.0 (<a href=\"https://github-redirect.dependabot.com/puppeteer/puppeteer/issues/8606\">#8606</a>)</li>\n<li><a href=\"https://github.com/puppeteer/puppeteer/commit/c1d57f3e5fd91b5eaa201ea683eff942d1ecf94b\"><code>c1d57f3</code></a> chore: fix bad revision (<a href=\"https://github-redirect.dependabot.com/puppeteer/puppeteer/issues/8617\">#8617</a>)</li>\n<li><a href=\"https://github.com/puppeteer/puppeteer/commit/32c9f3e6fb9629df7ffca9f7edf92b6ae764bbc1\"><code>32c9f3e</code></a> chore: update contributing.md (<a href=\"https://github-redirect.dependabot.com/puppeteer/puppeteer/issues/8616\">#8616</a>)</li>\n<li><a href=\"https://github.com/puppeteer/puppeteer/commit/9fa96600f2ce22f93f75f6a609da8957d069f795\"><code>9fa9660</code></a> chore: update CI (<a href=\"https://github-redirect.dependabot.com/puppeteer/puppeteer/issues/8614\">#8614</a>)</li>\n<li><a href=\"https://github.com/puppeteer/puppeteer/commit/0cf4832878731ffcfc84570315f326eb851d7629\"><code>0cf4832</code></a> fix: remove unused imports (<a href=\"https://github-redirect.dependabot.com/puppeteer/puppeteer/issues/8613\">#8613</a>)</li>\n<li><a href=\"https://github.com/puppeteer/puppeteer/commit/8cf10fb7b924f469ca6b8e4b3879af5c130a2674\"><code>8cf10fb</code></a> chore: Improve CI (<a href=\"https://github-redirect.dependabot.com/puppeteer/puppeteer/issues/8601\">#8601</a>)</li>\n<li><a href=\"https://github.com/puppeteer/puppeteer/commit/066f440ba7bdc9aca9423d7205adf36f2858bd78\"><code>066f440</code></a> feat: add documentation (<a href=\"https://github-redirect.dependabot.com/puppeteer/puppeteer/issues/8593\">#8593</a>)</li>\n<li><a href=\"https://github.com/puppeteer/puppeteer/commit/51ae338acd3e30b5cd12eb43464d34dd8b244997\"><code>51ae338</code></a> chore(main): release 15.2.0 (<a href=\"https://github-redirect.dependabot.com/puppeteer/puppeteer/issues/8585\">#8585</a>)</li>\n<li><a href=\"https://github.com/puppeteer/puppeteer/commit/d8e453b98cc2e435a71e0e320ae7f978dfb035ef\"><code>d8e453b</code></a> chore: skip PR and push to main in post-publish</li>\n<li><a href=\"https://github.com/puppeteer/puppeteer/commit/7a22f95fe768eb97dc459f554e996c0ef92b3f45\"><code>7a22f95</code></a> chore(deps): bump ossf/scorecard-action from 1.1.1 to 1.1.2 (<a href=\"https://github-redirect.dependabot.com/puppeteer/puppeteer/issues/8592\">#8592</a>)</li>\n<li>Additional commits viewable in <a href=\"https://github.com/puppeteer/puppeteer/compare/v11.0.0...v15.3.0\">compare view</a></li>\n</ul>\n</details>\n<details>\n<summary>Maintainer changes</summary>\n<p>This version was pushed to npm by <a href=\"https://www.npmjs.com/~google-wombot\">google-wombot</a>, a new releaser for puppeteer since your current version.</p>\n</details>\n<br />\n\n\n[![Dependabot compatibility score](https://dependabot-badges.githubapp.com/badges/compatibility_score?dependency-name=puppeteer&package-manager=npm_and_yarn&previous-version=11.0.0&new-version=15.3.0)](https://docs.github.com/en/github/managing-security-vulnerabilities/about-dependabot-security-updates#about-compatibility-scores)\n\nDependabot will resolve any conflicts with this PR as long as you don't alter it yourself. You can also trigger a rebase manually by commenting `@dependabot rebase`.\n\n[//]: # (dependabot-automerge-start)\n[//]: # (dependabot-automerge-end)\n\n---\n\n<details>\n<summary>Dependabot commands and options</summary>\n<br />\n\nYou can trigger Dependabot actions by commenting on this PR:\n- `@dependabot rebase` will rebase this PR\n- `@dependabot recreate` will recreate this PR, overwriting any edits that have been made to it\n- `@dependabot merge` will merge this PR after your CI passes on it\n- `@dependabot squash and merge` will squash and merge this PR after your CI passes on it\n- `@dependabot cancel merge` will cancel a previously requested merge and block automerging\n- `@dependabot reopen` will reopen this PR if it is closed\n- `@dependabot close` will close this PR and stop Dependabot recreating it. You can achieve the same result by closing it manually\n- `@dependabot ignore this major version` will close this PR and stop Dependabot creating any more for this major version (unless you reopen the PR or upgrade to it yourself)\n- `@dependabot ignore this minor version` will close this PR and stop Dependabot creating any more for this minor version (unless you reopen the PR or upgrade to it yourself)\n- `@dependabot ignore this dependency` will close this PR and stop Dependabot creating any more for this dependency (unless you reopen the PR or upgrade to it yourself)\n\n\n</details>",
    "changed_files": 1,
    "closed_at": "2022-07-07T00:17:16Z",
    "comment_data": [],
    "comment_regular_data": [
        {
            "author_association": "CONTRIBUTOR",
            "body": "Superseded by #282.",
            "created_at": "2022-07-07T00:17:16Z",
            "html_url": "https://github.com/PrismarineJS/prismarine-viewer/pull/279#issuecomment-1176879331",
            "id": 1176879331,
            "issue_url": "https://api.github.com/repos/PrismarineJS/prismarine-viewer/issues/279",
            "node_id": "IC_kwDOEC0DT85GJcDj",
            "performed_via_github_app": null,
            "reactions": {
                "+1": 0,
                "-1": 0,
                "confused": 0,
                "eyes": 0,
                "heart": 0,
                "hooray": 0,
                "laugh": 0,
                "rocket": 0,
                "total_count": 0,
                "url": "https://api.github.com/repos/PrismarineJS/prismarine-viewer/issues/comments/1176879331/reactions"
            },
            "updated_at": "2022-07-07T00:17:16Z",
            "url": "https://api.github.com/repos/PrismarineJS/prismarine-viewer/issues/comments/1176879331",
            "user": {
                "avatar_url": "https://avatars.githubusercontent.com/in/29110?v=4",
                "events_url": "https://api.github.com/users/dependabot%5Bbot%5D/events{/privacy}",
                "followers_url": "https://api.github.com/users/dependabot%5Bbot%5D/followers",
                "following_url": "https://api.github.com/users/dependabot%5Bbot%5D/following{/other_user}",
                "gists_url": "https://api.github.com/users/dependabot%5Bbot%5D/gists{/gist_id}",
                "gravatar_id": "",
                "html_url": "https://github.com/apps/dependabot",
                "id": 49699333,
                "login": "dependabot[bot]",
                "node_id": "MDM6Qm90NDk2OTkzMzM=",
                "organizations_url": "https://api.github.com/users/dependabot%5Bbot%5D/orgs",
                "received_events_url": "https://api.github.com/users/dependabot%5Bbot%5D/received_events",
                "repos_url": "https://api.github.com/users/dependabot%5Bbot%5D/repos",
                "site_admin": false,
                "starred_url": "https://api.github.com/users/dependabot%5Bbot%5D/starred{/owner}{/repo}",
                "subscriptions_url": "https://api.github.com/users/dependabot%5Bbot%5D/subscriptions",
                "type": "Bot",
                "url": "https://api.github.com/users/dependabot%5Bbot%5D"
            }
        }
    ],
    "comments": 1,
    "comments_url": "https://api.github.com/repos/PrismarineJS/prismarine-viewer/issues/279/comments",
    "commit_data": [
        {
            "author": {
                "avatar_url": "https://avatars.githubusercontent.com/in/29110?v=4",
                "events_url": "https://api.github.com/users/dependabot%5Bbot%5D/events{/privacy}",
                "followers_url": "https://api.github.com/users/dependabot%5Bbot%5D/followers",
                "following_url": "https://api.github.com/users/dependabot%5Bbot%5D/following{/other_user}",
                "gists_url": "https://api.github.com/users/dependabot%5Bbot%5D/gists{/gist_id}",
                "gravatar_id": "",
                "html_url": "https://github.com/apps/dependabot",
                "id": 49699333,
                "login": "dependabot[bot]",
                "node_id": "MDM6Qm90NDk2OTkzMzM=",
                "organizations_url": "https://api.github.com/users/dependabot%5Bbot%5D/orgs",
                "received_events_url": "https://api.github.com/users/dependabot%5Bbot%5D/received_events",
                "repos_url": "https://api.github.com/users/dependabot%5Bbot%5D/repos",
                "site_admin": false,
                "starred_url": "https://api.github.com/users/dependabot%5Bbot%5D/starred{/owner}{/repo}",
                "subscriptions_url": "https://api.github.com/users/dependabot%5Bbot%5D/subscriptions",
                "type": "Bot",
                "url": "https://api.github.com/users/dependabot%5Bbot%5D"
            },
            "comments_url": "https://api.github.com/repos/PrismarineJS/prismarine-viewer/commits/2c0fa88c41ce381f02a3e1d80dd88569cc9f2831/comments",
            "commit": {
                "author": {
                    "date": "2022-07-04T00:51:06Z",
                    "email": "49699333+dependabot[bot]@users.noreply.github.com",
                    "name": "dependabot[bot]"
                },
                "comment_count": 0,
                "committer": {
                    "date": "2022-07-04T00:51:06Z",
                    "email": "noreply@github.com",
                    "name": "GitHub"
                },
                "message": "Bump puppeteer from 11.0.0 to 15.3.0\n\nBumps [puppeteer](https://github.com/puppeteer/puppeteer) from 11.0.0 to 15.3.0.\n- [Release notes](https://github.com/puppeteer/puppeteer/releases)\n- [Changelog](https://github.com/puppeteer/puppeteer/blob/main/CHANGELOG.md)\n- [Commits](https://github.com/puppeteer/puppeteer/compare/v11.0.0...v15.3.0)\n\n---\nupdated-dependencies:\n- dependency-name: puppeteer\n  dependency-type: direct:development\n  update-type: version-update:semver-major\n...\n\nSigned-off-by: dependabot[bot] <support@github.com>",
                "tree": {
                    "sha": "4e72133b73a74731d8e8570fe7202807324b8318",
                    "url": "https://api.github.com/repos/PrismarineJS/prismarine-viewer/git/trees/4e72133b73a74731d8e8570fe7202807324b8318"
                },
                "url": "https://api.github.com/repos/PrismarineJS/prismarine-viewer/git/commits/2c0fa88c41ce381f02a3e1d80dd88569cc9f2831",
                "verification": {
                    "payload": "tree 4e72133b73a74731d8e8570fe7202807324b8318\nparent 9a389f962656aa84cfb71945be77142d051bcb1a\nauthor dependabot[bot] <49699333+dependabot[bot]@users.noreply.github.com> 1656895866 +0000\ncommitter GitHub <noreply@github.com> 1656895866 +0000\n\nBump puppeteer from 11.0.0 to 15.3.0\n\nBumps [puppeteer](https://github.com/puppeteer/puppeteer) from 11.0.0 to 15.3.0.\n- [Release notes](https://github.com/puppeteer/puppeteer/releases)\n- [Changelog](https://github.com/puppeteer/puppeteer/blob/main/CHANGELOG.md)\n- [Commits](https://github.com/puppeteer/puppeteer/compare/v11.0.0...v15.3.0)\n\n---\nupdated-dependencies:\n- dependency-name: puppeteer\n  dependency-type: direct:development\n  update-type: version-update:semver-major\n...\n\nSigned-off-by: dependabot[bot] <support@github.com>",
                    "reason": "valid",
                    "signature": "-----BEGIN PGP SIGNATURE-----\n\nwsBcBAABCAAQBQJiwjl6CRBK7hj4Ov3rIwAAiUkIAFDGQo7ErzM0R/SnxBmW8HTg\nMiahBN2zK31GDm3hAXJpAvTteQzyuBtG8cn4+EbLRjyUoRdFijqibh2vLsd+U8FC\ncI1SZmnQtYgs/qyIHpY+LrbldrWahQx0tXTz5XoHX+ZvjYCGfe+5mvcYR1cQOGMI\neH2m025BIwkwEBOdVqTzQPliqKHINoU7Ax2uPF7/EzVxuJ0OiMLKIPF82731XKMw\nMVBaDTZsFxkv4nVWlwMGdhKbecUgpR1wS9XfBNCfn9NWsYR4gN8s8/crUw1FkEIB\nYOnlPhb2PHHICOEtnAZDIVdOoPE/61jkMU3lxwyDYDEJYWvCy6V164Puo3fLft4=\n=CxVx\n-----END PGP SIGNATURE-----\n",
                    "verified": true
                }
            },
            "committer": {
                "avatar_url": "https://avatars.githubusercontent.com/u/19864447?v=4",
                "events_url": "https://api.github.com/users/web-flow/events{/privacy}",
                "followers_url": "https://api.github.com/users/web-flow/followers",
                "following_url": "https://api.github.com/users/web-flow/following{/other_user}",
                "gists_url": "https://api.github.com/users/web-flow/gists{/gist_id}",
                "gravatar_id": "",
                "html_url": "https://github.com/web-flow",
                "id": 19864447,
                "login": "web-flow",
                "node_id": "MDQ6VXNlcjE5ODY0NDQ3",
                "organizations_url": "https://api.github.com/users/web-flow/orgs",
                "received_events_url": "https://api.github.com/users/web-flow/received_events",
                "repos_url": "https://api.github.com/users/web-flow/repos",
                "site_admin": false,
                "starred_url": "https://api.github.com/users/web-flow/starred{/owner}{/repo}",
                "subscriptions_url": "https://api.github.com/users/web-flow/subscriptions",
                "type": "User",
                "url": "https://api.github.com/users/web-flow"
            },
            "html_url": "https://github.com/PrismarineJS/prismarine-viewer/commit/2c0fa88c41ce381f02a3e1d80dd88569cc9f2831",
            "node_id": "C_kwDOEC0DT9oAKDJjMGZhODhjNDFjZTM4MWYwMmEzZTFkODBkZDg4NTY5Y2M5ZjI4MzE",
            "parents": [
                {
                    "html_url": "https://github.com/PrismarineJS/prismarine-viewer/commit/9a389f962656aa84cfb71945be77142d051bcb1a",
                    "sha": "9a389f962656aa84cfb71945be77142d051bcb1a",
                    "url": "https://api.github.com/repos/PrismarineJS/prismarine-viewer/commits/9a389f962656aa84cfb71945be77142d051bcb1a"
                }
            ],
            "sha": "2c0fa88c41ce381f02a3e1d80dd88569cc9f2831",
            "url": "https://api.github.com/repos/PrismarineJS/prismarine-viewer/commits/2c0fa88c41ce381f02a3e1d80dd88569cc9f2831"
        }
    ],
    "commits": 1,
    "commits_url": "https://api.github.com/repos/PrismarineJS/prismarine-viewer/pulls/279/commits",
    "created_at": "2022-07-04T00:51:07Z",
    "deletions": 1,
    "diff_url": "https://github.com/PrismarineJS/prismarine-viewer/pull/279.diff",
    "draft": false,
    "head": {
        "label": "PrismarineJS:dependabot/npm_and_yarn/puppeteer-15.3.0",
        "ref": "dependabot/npm_and_yarn/puppeteer-15.3.0",
        "repo": {
            "allow_forking": true,
            "archive_url": "https://api.github.com/repos/PrismarineJS/prismarine-viewer/{archive_format}{/ref}",
            "archived": false,
            "assignees_url": "https://api.github.com/repos/PrismarineJS/prismarine-viewer/assignees{/user}",
            "blobs_url": "https://api.github.com/repos/PrismarineJS/prismarine-viewer/git/blobs{/sha}",
            "branches_url": "https://api.github.com/repos/PrismarineJS/prismarine-viewer/branches{/branch}",
            "clone_url": "https://github.com/PrismarineJS/prismarine-viewer.git",
            "collaborators_url": "https://api.github.com/repos/PrismarineJS/prismarine-viewer/collaborators{/collaborator}",
            "comments_url": "https://api.github.com/repos/PrismarineJS/prismarine-viewer/comments{/number}",
            "commits_url": "https://api.github.com/repos/PrismarineJS/prismarine-viewer/commits{/sha}",
            "compare_url": "https://api.github.com/repos/PrismarineJS/prismarine-viewer/compare/{base}...{head}",
            "contents_url": "https://api.github.com/repos/PrismarineJS/prismarine-viewer/contents/{+path}",
            "contributors_url": "https://api.github.com/repos/PrismarineJS/prismarine-viewer/contributors",
            "created_at": "2020-06-10T21:05:49Z",
            "default_branch": "master",
            "deployments_url": "https://api.github.com/repos/PrismarineJS/prismarine-viewer/deployments",
            "description": "Web based viewer for servers and bots",
            "disabled": false,
            "downloads_url": "https://api.github.com/repos/PrismarineJS/prismarine-viewer/downloads",
            "events_url": "https://api.github.com/repos/PrismarineJS/prismarine-viewer/events",
            "fork": false,
            "forks": 57,
            "forks_count": 57,
            "forks_url": "https://api.github.com/repos/PrismarineJS/prismarine-viewer/forks",
            "full_name": "PrismarineJS/prismarine-viewer",
            "git_commits_url": "https://api.github.com/repos/PrismarineJS/prismarine-viewer/git/commits{/sha}",
            "git_refs_url": "https://api.github.com/repos/PrismarineJS/prismarine-viewer/git/refs{/sha}",
            "git_tags_url": "https://api.github.com/repos/PrismarineJS/prismarine-viewer/git/tags{/sha}",
            "git_url": "git://github.com/PrismarineJS/prismarine-viewer.git",
            "has_discussions": false,
            "has_downloads": true,
            "has_issues": true,
            "has_pages": true,
            "has_projects": true,
            "has_wiki": true,
            "homepage": "https://prismarinejs.github.io/prismarine-viewer/",
            "hooks_url": "https://api.github.com/repos/PrismarineJS/prismarine-viewer/hooks",
            "html_url": "https://github.com/PrismarineJS/prismarine-viewer",
            "id": 271385423,
            "is_template": false,
            "issue_comment_url": "https://api.github.com/repos/PrismarineJS/prismarine-viewer/issues/comments{/number}",
            "issue_events_url": "https://api.github.com/repos/PrismarineJS/prismarine-viewer/issues/events{/number}",
            "issues_url": "https://api.github.com/repos/PrismarineJS/prismarine-viewer/issues{/number}",
            "keys_url": "https://api.github.com/repos/PrismarineJS/prismarine-viewer/keys{/key_id}",
            "labels_url": "https://api.github.com/repos/PrismarineJS/prismarine-viewer/labels{/name}",
            "language": "JavaScript",
            "languages_url": "https://api.github.com/repos/PrismarineJS/prismarine-viewer/languages",
            "license": {
                "key": "mit",
                "name": "MIT License",
                "node_id": "MDc6TGljZW5zZTEz",
                "spdx_id": "MIT",
                "url": "https://api.github.com/licenses/mit"
            },
            "merges_url": "https://api.github.com/repos/PrismarineJS/prismarine-viewer/merges",
            "milestones_url": "https://api.github.com/repos/PrismarineJS/prismarine-viewer/milestones{/number}",
            "mirror_url": null,
            "name": "prismarine-viewer",
            "node_id": "MDEwOlJlcG9zaXRvcnkyNzEzODU0MjM=",
            "notifications_url": "https://api.github.com/repos/PrismarineJS/prismarine-viewer/notifications{?since,all,participating}",
            "open_issues": 69,
            "open_issues_count": 69,
            "owner": {
                "avatar_url": "https://avatars.githubusercontent.com/u/11053411?v=4",
                "events_url": "https://api.github.com/users/PrismarineJS/events{/privacy}",
                "followers_url": "https://api.github.com/users/PrismarineJS/followers",
                "following_url": "https://api.github.com/users/PrismarineJS/following{/other_user}",
                "gists_url": "https://api.github.com/users/PrismarineJS/gists{/gist_id}",
                "gravatar_id": "",
                "html_url": "https://github.com/PrismarineJS",
                "id": 11053411,
                "login": "PrismarineJS",
                "node_id": "MDEyOk9yZ2FuaXphdGlvbjExMDUzNDEx",
                "organizations_url": "https://api.github.com/users/PrismarineJS/orgs",
                "received_events_url": "https://api.github.com/users/PrismarineJS/received_events",
                "repos_url": "https://api.github.com/users/PrismarineJS/repos",
                "site_admin": false,
                "starred_url": "https://api.github.com/users/PrismarineJS/starred{/owner}{/repo}",
                "subscriptions_url": "https://api.github.com/users/PrismarineJS/subscriptions",
                "type": "Organization",
                "url": "https://api.github.com/users/PrismarineJS"
            },
            "private": false,
            "pulls_url": "https://api.github.com/repos/PrismarineJS/prismarine-viewer/pulls{/number}",
            "pushed_at": "2023-04-25T00:59:53Z",
            "releases_url": "https://api.github.com/repos/PrismarineJS/prismarine-viewer/releases{/id}",
            "size": 309473,
            "ssh_url": "git@github.com:PrismarineJS/prismarine-viewer.git",
            "stargazers_count": 168,
            "stargazers_url": "https://api.github.com/repos/PrismarineJS/prismarine-viewer/stargazers",
            "statuses_url": "https://api.github.com/repos/PrismarineJS/prismarine-viewer/statuses/{sha}",
            "subscribers_url": "https://api.github.com/repos/PrismarineJS/prismarine-viewer/subscribers",
            "subscription_url": "https://api.github.com/repos/PrismarineJS/prismarine-viewer/subscription",
            "svn_url": "https://github.com/PrismarineJS/prismarine-viewer",
            "tags_url": "https://api.github.com/repos/PrismarineJS/prismarine-viewer/tags",
            "teams_url": "https://api.github.com/repos/PrismarineJS/prismarine-viewer/teams",
            "topics": [],
            "trees_url": "https://api.github.com/repos/PrismarineJS/prismarine-viewer/git/trees{/sha}",
            "updated_at": "2023-04-24T03:47:17Z",
            "url": "https://api.github.com/repos/PrismarineJS/prismarine-viewer",
            "visibility": "public",
            "watchers": 168,
            "watchers_count": 168,
            "web_commit_signoff_required": false
        },
        "sha": "2c0fa88c41ce381f02a3e1d80dd88569cc9f2831",
        "user": {
            "avatar_url": "https://avatars.githubusercontent.com/u/11053411?v=4",
            "events_url": "https://api.github.com/users/PrismarineJS/events{/privacy}",
            "followers_url": "https://api.github.com/users/PrismarineJS/followers",
            "following_url": "https://api.github.com/users/PrismarineJS/following{/other_user}",
            "gists_url": "https://api.github.com/users/PrismarineJS/gists{/gist_id}",
            "gravatar_id": "",
            "html_url": "https://github.com/PrismarineJS",
            "id": 11053411,
            "login": "PrismarineJS",
            "node_id": "MDEyOk9yZ2FuaXphdGlvbjExMDUzNDEx",
            "organizations_url": "https://api.github.com/users/PrismarineJS/orgs",
            "received_events_url": "https://api.github.com/users/PrismarineJS/received_events",
            "repos_url": "https://api.github.com/users/PrismarineJS/repos",
            "site_admin": false,
            "starred_url": "https://api.github.com/users/PrismarineJS/starred{/owner}{/repo}",
            "subscriptions_url": "https://api.github.com/users/PrismarineJS/subscriptions",
            "type": "Organization",
            "url": "https://api.github.com/users/PrismarineJS"
        }
    },
    "html_url": "https://github.com/PrismarineJS/prismarine-viewer/pull/279",
    "id": 985858232,
    "issue_url": "https://api.github.com/repos/PrismarineJS/prismarine-viewer/issues/279",
    "labels": [
        {
            "color": "0366d6",
            "default": false,
            "description": "Pull requests that update a dependency file",
            "id": 2474655629,
            "name": "dependencies",
            "node_id": "MDU6TGFiZWwyNDc0NjU1NjI5",
            "url": "https://api.github.com/repos/PrismarineJS/prismarine-viewer/labels/dependencies"
        }
    ],
    "locked": false,
    "maintainer_can_modify": false,
    "merge_commit_sha": "6214da652f0c43a8c8cbfe0750261d54066b0800",
    "mergeable": null,
    "mergeable_state": "unknown",
    "merged": false,
    "merged_at": null,
    "merged_by": null,
    "milestone": null,
    "node_id": "PR_kwDOEC0DT846wwC4",
    "number": 279,
    "patch_url": "https://github.com/PrismarineJS/prismarine-viewer/pull/279.patch",
    "rebaseable": null,
    "requested_reviewers": [],
    "requested_teams": [],
    "review_comment_url": "https://api.github.com/repos/PrismarineJS/prismarine-viewer/pulls/comments{/number}",
    "review_comments": 0,
    "review_comments_url": "https://api.github.com/repos/PrismarineJS/prismarine-viewer/pulls/279/comments",
    "state": "closed",
    "statuses_url": "https://api.github.com/repos/PrismarineJS/prismarine-viewer/statuses/2c0fa88c41ce381f02a3e1d80dd88569cc9f2831",
    "title": "Bump puppeteer from 11.0.0 to 15.3.0",
    "updated_at": "2022-07-07T00:17:18Z",
    "url": "https://api.github.com/repos/PrismarineJS/prismarine-viewer/pulls/279",
    "user": {
        "avatar_url": "https://avatars.githubusercontent.com/in/29110?v=4",
        "events_url": "https://api.github.com/users/dependabot%5Bbot%5D/events{/privacy}",
        "followers_url": "https://api.github.com/users/dependabot%5Bbot%5D/followers",
        "following_url": "https://api.github.com/users/dependabot%5Bbot%5D/following{/other_user}",
        "gists_url": "https://api.github.com/users/dependabot%5Bbot%5D/gists{/gist_id}",
        "gravatar_id": "",
        "html_url": "https://github.com/apps/dependabot",
        "id": 49699333,
        "login": "dependabot[bot]",
        "node_id": "MDM6Qm90NDk2OTkzMzM=",
        "organizations_url": "https://api.github.com/users/dependabot%5Bbot%5D/orgs",
        "received_events_url": "https://api.github.com/users/dependabot%5Bbot%5D/received_events",
        "repos_url": "https://api.github.com/users/dependabot%5Bbot%5D/repos",
        "site_admin": false,
        "starred_url": "https://api.github.com/users/dependabot%5Bbot%5D/starred{/owner}{/repo}",
        "subscriptions_url": "https://api.github.com/users/dependabot%5Bbot%5D/subscriptions",
        "type": "Bot",
        "url": "https://api.github.com/users/dependabot%5Bbot%5D"
    }
}