{
    "_links": {
        "comments": {
            "href": "https://api.github.com/repos/PrismarineJS/prismarine-viewer/issues/296/comments"
        },
        "commits": {
            "href": "https://api.github.com/repos/PrismarineJS/prismarine-viewer/pulls/296/commits"
        },
        "html": {
            "href": "https://github.com/PrismarineJS/prismarine-viewer/pull/296"
        },
        "issue": {
            "href": "https://api.github.com/repos/PrismarineJS/prismarine-viewer/issues/296"
        },
        "review_comment": {
            "href": "https://api.github.com/repos/PrismarineJS/prismarine-viewer/pulls/comments{/number}"
        },
        "review_comments": {
            "href": "https://api.github.com/repos/PrismarineJS/prismarine-viewer/pulls/296/comments"
        },
        "self": {
            "href": "https://api.github.com/repos/PrismarineJS/prismarine-viewer/pulls/296"
        },
        "statuses": {
            "href": "https://api.github.com/repos/PrismarineJS/prismarine-viewer/statuses/c311d99bdc08d1ee0480f6ea98a27c1647384ccd"
        }
    },
    "active_lock_reason": null,
    "additions": 1,
    "assignee": null,
    "assignees": [],
    "author_association": "CONTRIBUTOR",
    "auto_merge": null,
    "base": {
        "label": "PrismarineJS:master",
        "ref": "master",
        "repo": {
            "allow_forking": true,
            "archive_url": "https://api.github.com/repos/PrismarineJS/prismarine-viewer/{archive_format}{/ref}",
            "archived": false,
            "assignees_url": "https://api.github.com/repos/PrismarineJS/prismarine-viewer/assignees{/user}",
            "blobs_url": "https://api.github.com/repos/PrismarineJS/prismarine-viewer/git/blobs{/sha}",
            "branches_url": "https://api.github.com/repos/PrismarineJS/prismarine-viewer/branches{/branch}",
            "clone_url": "https://github.com/PrismarineJS/prismarine-viewer.git",
            "collaborators_url": "https://api.github.com/repos/PrismarineJS/prismarine-viewer/collaborators{/collaborator}",
            "comments_url": "https://api.github.com/repos/PrismarineJS/prismarine-viewer/comments{/number}",
            "commits_url": "https://api.github.com/repos/PrismarineJS/prismarine-viewer/commits{/sha}",
            "compare_url": "https://api.github.com/repos/PrismarineJS/prismarine-viewer/compare/{base}...{head}",
            "contents_url": "https://api.github.com/repos/PrismarineJS/prismarine-viewer/contents/{+path}",
            "contributors_url": "https://api.github.com/repos/PrismarineJS/prismarine-viewer/contributors",
            "created_at": "2020-06-10T21:05:49Z",
            "default_branch": "master",
            "deployments_url": "https://api.github.com/repos/PrismarineJS/prismarine-viewer/deployments",
            "description": "Web based viewer for servers and bots",
            "disabled": false,
            "downloads_url": "https://api.github.com/repos/PrismarineJS/prismarine-viewer/downloads",
            "events_url": "https://api.github.com/repos/PrismarineJS/prismarine-viewer/events",
            "fork": false,
            "forks": 57,
            "forks_count": 57,
            "forks_url": "https://api.github.com/repos/PrismarineJS/prismarine-viewer/forks",
            "full_name": "PrismarineJS/prismarine-viewer",
            "git_commits_url": "https://api.github.com/repos/PrismarineJS/prismarine-viewer/git/commits{/sha}",
            "git_refs_url": "https://api.github.com/repos/PrismarineJS/prismarine-viewer/git/refs{/sha}",
            "git_tags_url": "https://api.github.com/repos/PrismarineJS/prismarine-viewer/git/tags{/sha}",
            "git_url": "git://github.com/PrismarineJS/prismarine-viewer.git",
            "has_discussions": false,
            "has_downloads": true,
            "has_issues": true,
            "has_pages": true,
            "has_projects": true,
            "has_wiki": true,
            "homepage": "https://prismarinejs.github.io/prismarine-viewer/",
            "hooks_url": "https://api.github.com/repos/PrismarineJS/prismarine-viewer/hooks",
            "html_url": "https://github.com/PrismarineJS/prismarine-viewer",
            "id": 271385423,
            "is_template": false,
            "issue_comment_url": "https://api.github.com/repos/PrismarineJS/prismarine-viewer/issues/comments{/number}",
            "issue_events_url": "https://api.github.com/repos/PrismarineJS/prismarine-viewer/issues/events{/number}",
            "issues_url": "https://api.github.com/repos/PrismarineJS/prismarine-viewer/issues{/number}",
            "keys_url": "https://api.github.com/repos/PrismarineJS/prismarine-viewer/keys{/key_id}",
            "labels_url": "https://api.github.com/repos/PrismarineJS/prismarine-viewer/labels{/name}",
            "language": "JavaScript",
            "languages_url": "https://api.github.com/repos/PrismarineJS/prismarine-viewer/languages",
            "license": {
                "key": "mit",
                "name": "MIT License",
                "node_id": "MDc6TGljZW5zZTEz",
                "spdx_id": "MIT",
                "url": "https://api.github.com/licenses/mit"
            },
            "merges_url": "https://api.github.com/repos/PrismarineJS/prismarine-viewer/merges",
            "milestones_url": "https://api.github.com/repos/PrismarineJS/prismarine-viewer/milestones{/number}",
            "mirror_url": null,
            "name": "prismarine-viewer",
            "node_id": "MDEwOlJlcG9zaXRvcnkyNzEzODU0MjM=",
            "notifications_url": "https://api.github.com/repos/PrismarineJS/prismarine-viewer/notifications{?since,all,participating}",
            "open_issues": 69,
            "open_issues_count": 69,
            "owner": {
                "avatar_url": "https://avatars.githubusercontent.com/u/11053411?v=4",
                "events_url": "https://api.github.com/users/PrismarineJS/events{/privacy}",
                "followers_url": "https://api.github.com/users/PrismarineJS/followers",
                "following_url": "https://api.github.com/users/PrismarineJS/following{/other_user}",
                "gists_url": "https://api.github.com/users/PrismarineJS/gists{/gist_id}",
                "gravatar_id": "",
                "html_url": "https://github.com/PrismarineJS",
                "id": 11053411,
                "login": "PrismarineJS",
                "node_id": "MDEyOk9yZ2FuaXphdGlvbjExMDUzNDEx",
                "organizations_url": "https://api.github.com/users/PrismarineJS/orgs",
                "received_events_url": "https://api.github.com/users/PrismarineJS/received_events",
                "repos_url": "https://api.github.com/users/PrismarineJS/repos",
                "site_admin": false,
                "starred_url": "https://api.github.com/users/PrismarineJS/starred{/owner}{/repo}",
                "subscriptions_url": "https://api.github.com/users/PrismarineJS/subscriptions",
                "type": "Organization",
                "url": "https://api.github.com/users/PrismarineJS"
            },
            "private": false,
            "pulls_url": "https://api.github.com/repos/PrismarineJS/prismarine-viewer/pulls{/number}",
            "pushed_at": "2023-04-25T00:59:53Z",
            "releases_url": "https://api.github.com/repos/PrismarineJS/prismarine-viewer/releases{/id}",
            "size": 309473,
            "ssh_url": "git@github.com:PrismarineJS/prismarine-viewer.git",
            "stargazers_count": 168,
            "stargazers_url": "https://api.github.com/repos/PrismarineJS/prismarine-viewer/stargazers",
            "statuses_url": "https://api.github.com/repos/PrismarineJS/prismarine-viewer/statuses/{sha}",
            "subscribers_url": "https://api.github.com/repos/PrismarineJS/prismarine-viewer/subscribers",
            "subscription_url": "https://api.github.com/repos/PrismarineJS/prismarine-viewer/subscription",
            "svn_url": "https://github.com/PrismarineJS/prismarine-viewer",
            "tags_url": "https://api.github.com/repos/PrismarineJS/prismarine-viewer/tags",
            "teams_url": "https://api.github.com/repos/PrismarineJS/prismarine-viewer/teams",
            "topics": [],
            "trees_url": "https://api.github.com/repos/PrismarineJS/prismarine-viewer/git/trees{/sha}",
            "updated_at": "2023-04-24T03:47:17Z",
            "url": "https://api.github.com/repos/PrismarineJS/prismarine-viewer",
            "visibility": "public",
            "watchers": 168,
            "watchers_count": 168,
            "web_commit_signoff_required": false
        },
        "sha": "7546af1c1de220638accc764511f0b02e02ab3cc",
        "user": {
            "avatar_url": "https://avatars.githubusercontent.com/u/11053411?v=4",
            "events_url": "https://api.github.com/users/PrismarineJS/events{/privacy}",
            "followers_url": "https://api.github.com/users/PrismarineJS/followers",
            "following_url": "https://api.github.com/users/PrismarineJS/following{/other_user}",
            "gists_url": "https://api.github.com/users/PrismarineJS/gists{/gist_id}",
            "gravatar_id": "",
            "html_url": "https://github.com/PrismarineJS",
            "id": 11053411,
            "login": "PrismarineJS",
            "node_id": "MDEyOk9yZ2FuaXphdGlvbjExMDUzNDEx",
            "organizations_url": "https://api.github.com/users/PrismarineJS/orgs",
            "received_events_url": "https://api.github.com/users/PrismarineJS/received_events",
            "repos_url": "https://api.github.com/users/PrismarineJS/repos",
            "site_admin": false,
            "starred_url": "https://api.github.com/users/PrismarineJS/starred{/owner}{/repo}",
            "subscriptions_url": "https://api.github.com/users/PrismarineJS/subscriptions",
            "type": "Organization",
            "url": "https://api.github.com/users/PrismarineJS"
        }
    },
    "body": "Bumps [puppeteer](https://github.com/puppeteer/puppeteer) from 16.2.0 to 17.1.2.\n<details>\n<summary>Release notes</summary>\n<p><em>Sourced from <a href=\"https://github.com/puppeteer/puppeteer/releases\">puppeteer's releases</a>.</em></p>\n<blockquote>\n<h2>v17.1.2</h2>\n<h2><a href=\"https://github.com/puppeteer/puppeteer/compare/v17.1.1...v17.1.2\">17.1.2</a> (2022-09-07)</h2>\n<h3>Bug Fixes</h3>\n<ul>\n<li>add missing code coverage ranges that span only a single character (<a href=\"https://github-redirect.dependabot.com/puppeteer/puppeteer/issues/8911\">#8911</a>) (<a href=\"https://github.com/puppeteer/puppeteer/commit/0c577b9bf8855dc0ccb6098cd43a25c528f6d7f5\">0c577b9</a>)</li>\n<li>add Page.getDefaultTimeout getter (<a href=\"https://github-redirect.dependabot.com/puppeteer/puppeteer/issues/8903\">#8903</a>) (<a href=\"https://github.com/puppeteer/puppeteer/commit/32400954c50cbddc48468ad118c3f8a47653b9d3\">3240095</a>), closes <a href=\"https://github-redirect.dependabot.com/puppeteer/puppeteer/issues/8901\">#8901</a></li>\n<li>don't detect project root for puppeteer-core (<a href=\"https://github-redirect.dependabot.com/puppeteer/puppeteer/issues/8907\">#8907</a>) (<a href=\"https://github.com/puppeteer/puppeteer/commit/b4f5ea1167a60c870194c70d22f5372ada5b7c4c\">b4f5ea1</a>), closes <a href=\"https://github-redirect.dependabot.com/puppeteer/puppeteer/issues/8896\">#8896</a></li>\n<li>support scale for screenshot clips (<a href=\"https://github-redirect.dependabot.com/puppeteer/puppeteer/issues/8908\">#8908</a>) (<a href=\"https://github.com/puppeteer/puppeteer/commit/260e4282275ab1d05c86e5643e2a02c01f269a9c\">260e428</a>), closes <a href=\"https://github-redirect.dependabot.com/puppeteer/puppeteer/issues/5329\">#5329</a></li>\n<li>work around a race in waitForFileChooser (<a href=\"https://github-redirect.dependabot.com/puppeteer/puppeteer/issues/8905\">#8905</a>) (<a href=\"https://github.com/puppeteer/puppeteer/commit/053d960fb593e514e7914d7da9af436afc39a12f\">053d960</a>), closes <a href=\"https://github-redirect.dependabot.com/puppeteer/puppeteer/issues/6040\">#6040</a></li>\n</ul>\n<h2>v17.1.1</h2>\n<h2><a href=\"https://github.com/puppeteer/puppeteer/compare/v17.1.0...v17.1.1\">17.1.1</a> (2022-09-05)</h2>\n<h3>Bug Fixes</h3>\n<ul>\n<li>restore deferred promise debugging (<a href=\"https://github-redirect.dependabot.com/puppeteer/puppeteer/issues/8895\">#8895</a>) (<a href=\"https://github.com/puppeteer/puppeteer/commit/7b42250c7bb91ac873307acda493726ffc4c54a8\">7b42250</a>)</li>\n</ul>\n<h2>v17.1.0</h2>\n<h2><a href=\"https://github.com/puppeteer/puppeteer/compare/v17.0.0...v17.1.0\">17.1.0</a> (2022-09-02)</h2>\n<h3>Features</h3>\n<ul>\n<li><strong>chromium:</strong> roll to Chromium 106.0.5249.0 (r1036745) (<a href=\"https://github-redirect.dependabot.com/puppeteer/puppeteer/issues/8869\">#8869</a>) (<a href=\"https://github.com/puppeteer/puppeteer/commit/6e9a47a6faa06d241dec0bcf7bcdf49370517008\">6e9a47a</a>)</li>\n</ul>\n<h3>Bug Fixes</h3>\n<ul>\n<li>allow getting a frame from an elementhandle (<a href=\"https://github-redirect.dependabot.com/puppeteer/puppeteer/issues/8875\">#8875</a>) (<a href=\"https://github.com/puppeteer/puppeteer/commit/3732757450b4363041ccbacc3b236289a156abb0\">3732757</a>)</li>\n<li>typos in documentation (<a href=\"https://github-redirect.dependabot.com/puppeteer/puppeteer/issues/8858\">#8858</a>) (<a href=\"https://github.com/puppeteer/puppeteer/commit/8d95a9bc920b98820aa655ad4eb2d8fd9b2b893a\">8d95a9b</a>)</li>\n<li>use the timeout setting in waitForFileChooser (<a href=\"https://github-redirect.dependabot.com/puppeteer/puppeteer/issues/8856\">#8856</a>) (<a href=\"https://github.com/puppeteer/puppeteer/commit/f477b46f212da9206102da695697760eea539f05\">f477b46</a>)</li>\n</ul>\n<h2>v17.0.0</h2>\n<h2><a href=\"https://github.com/puppeteer/puppeteer/compare/v16.2.0...v17.0.0\">17.0.0</a> (2022-08-26)</h2>\n<h3>⚠ BREAKING CHANGES</h3>\n<ul>\n<li>remove <code>root</code> from <code>WaitForSelectorOptions</code> (<a href=\"https://github-redirect.dependabot.com/puppeteer/puppeteer/issues/8848\">#8848</a>)</li>\n<li>internalize execution context (<a href=\"https://github-redirect.dependabot.com/puppeteer/puppeteer/issues/8844\">#8844</a>)</li>\n</ul>\n<h3>Bug Fixes</h3>\n<ul>\n<li>allow multiple navigations to happen in LifecycleWatcher (<a href=\"https://github-redirect.dependabot.com/puppeteer/puppeteer/issues/8826\">#8826</a>) (<a href=\"https://github.com/puppeteer/puppeteer/commit/341b669a5e45ecbb9ffb0f28c45b520660f27ad2\">341b669</a>), closes <a href=\"https://github-redirect.dependabot.com/puppeteer/puppeteer/issues/8811\">#8811</a></li>\n<li>internalize execution context (<a href=\"https://github-redirect.dependabot.com/puppeteer/puppeteer/issues/8844\">#8844</a>) (<a href=\"https://github.com/puppeteer/puppeteer/commit/2f33237d0443de77d58dca4454b0c9a1d2b57d03\">2f33237</a>)</li>\n<li>remove <code>root</code> from <code>WaitForSelectorOptions</code> (<a href=\"https://github-redirect.dependabot.com/puppeteer/puppeteer/issues/8848\">#8848</a>) (<a href=\"https://github.com/puppeteer/puppeteer/commit/1155c8eac85b176c3334cc3d98adfe7d943dfbe6\">1155c8e</a>)</li>\n<li>remove deferred promise timeouts (<a href=\"https://github-redirect.dependabot.com/puppeteer/puppeteer/issues/8835\">#8835</a>) (<a href=\"https://github.com/puppeteer/puppeteer/commit/202ffce0aa4f34dba35fbb8e7d740af16efee35f\">202ffce</a>), closes <a href=\"https://github-redirect.dependabot.com/puppeteer/puppeteer/issues/8832\">#8832</a></li>\n</ul>\n</blockquote>\n</details>\n<details>\n<summary>Changelog</summary>\n<p><em>Sourced from <a href=\"https://github.com/puppeteer/puppeteer/blob/main/CHANGELOG.md\">puppeteer's changelog</a>.</em></p>\n<blockquote>\n<h2><a href=\"https://github.com/puppeteer/puppeteer/compare/v17.1.1...v17.1.2\">17.1.2</a> (2022-09-07)</h2>\n<h3>Bug Fixes</h3>\n<ul>\n<li>add missing code coverage ranges that span only a single character (<a href=\"https://github-redirect.dependabot.com/puppeteer/puppeteer/issues/8911\">#8911</a>) (<a href=\"https://github.com/puppeteer/puppeteer/commit/0c577b9bf8855dc0ccb6098cd43a25c528f6d7f5\">0c577b9</a>)</li>\n<li>add Page.getDefaultTimeout getter (<a href=\"https://github-redirect.dependabot.com/puppeteer/puppeteer/issues/8903\">#8903</a>) (<a href=\"https://github.com/puppeteer/puppeteer/commit/32400954c50cbddc48468ad118c3f8a47653b9d3\">3240095</a>), closes <a href=\"https://github-redirect.dependabot.com/puppeteer/puppeteer/issues/8901\">#8901</a></li>\n<li>don't detect project root for puppeteer-core (<a href=\"https://github-redirect.dependabot.com/puppeteer/puppeteer/issues/8907\">#8907</a>) (<a href=\"https://github.com/puppeteer/puppeteer/commit/b4f5ea1167a60c870194c70d22f5372ada5b7c4c\">b4f5ea1</a>), closes <a href=\"https://github-redirect.dependabot.com/puppeteer/puppeteer/issues/8896\">#8896</a></li>\n<li>support scale for screenshot clips (<a href=\"https://github-redirect.dependabot.com/puppeteer/puppeteer/issues/8908\">#8908</a>) (<a href=\"https://github.com/puppeteer/puppeteer/commit/260e4282275ab1d05c86e5643e2a02c01f269a9c\">260e428</a>), closes <a href=\"https://github-redirect.dependabot.com/puppeteer/puppeteer/issues/5329\">#5329</a></li>\n<li>work around a race in waitForFileChooser (<a href=\"https://github-redirect.dependabot.com/puppeteer/puppeteer/issues/8905\">#8905</a>) (<a href=\"https://github.com/puppeteer/puppeteer/commit/053d960fb593e514e7914d7da9af436afc39a12f\">053d960</a>), closes <a href=\"https://github-redirect.dependabot.com/puppeteer/puppeteer/issues/6040\">#6040</a></li>\n</ul>\n<h2><a href=\"https://github.com/puppeteer/puppeteer/compare/v17.1.0...v17.1.1\">17.1.1</a> (2022-09-05)</h2>\n<h3>Bug Fixes</h3>\n<ul>\n<li>restore deferred promise debugging (<a href=\"https://github-redirect.dependabot.com/puppeteer/puppeteer/issues/8895\">#8895</a>) (<a href=\"https://github.com/puppeteer/puppeteer/commit/7b42250c7bb91ac873307acda493726ffc4c54a8\">7b42250</a>)</li>\n</ul>\n<h2><a href=\"https://github.com/puppeteer/puppeteer/compare/v17.0.0...v17.1.0\">17.1.0</a> (2022-09-02)</h2>\n<h3>Features</h3>\n<ul>\n<li><strong>chromium:</strong> roll to Chromium 106.0.5249.0 (r1036745) (<a href=\"https://github-redirect.dependabot.com/puppeteer/puppeteer/issues/8869\">#8869</a>) (<a href=\"https://github.com/puppeteer/puppeteer/commit/6e9a47a6faa06d241dec0bcf7bcdf49370517008\">6e9a47a</a>)</li>\n</ul>\n<h3>Bug Fixes</h3>\n<ul>\n<li>allow getting a frame from an elementhandle (<a href=\"https://github-redirect.dependabot.com/puppeteer/puppeteer/issues/8875\">#8875</a>) (<a href=\"https://github.com/puppeteer/puppeteer/commit/3732757450b4363041ccbacc3b236289a156abb0\">3732757</a>)</li>\n<li>typos in documentation (<a href=\"https://github-redirect.dependabot.com/puppeteer/puppeteer/issues/8858\">#8858</a>) (<a href=\"https://github.com/puppeteer/puppeteer/commit/8d95a9bc920b98820aa655ad4eb2d8fd9b2b893a\">8d95a9b</a>)</li>\n<li>use the timeout setting in waitForFileChooser (<a href=\"https://github-redirect.dependabot.com/puppeteer/puppeteer/issues/8856\">#8856</a>) (<a href=\"https://github.com/puppeteer/puppeteer/commit/f477b46f212da9206102da695697760eea539f05\">f477b46</a>)</li>\n</ul>\n<h2><a href=\"https://github.com/puppeteer/puppeteer/compare/v16.2.0...v17.0.0\">17.0.0</a> (2022-08-26)</h2>\n<h3>⚠ BREAKING CHANGES</h3>\n<ul>\n<li>remove <code>root</code> from <code>WaitForSelectorOptions</code> (<a href=\"https://github-redirect.dependabot.com/puppeteer/puppeteer/issues/8848\">#8848</a>)</li>\n<li>internalize execution context (<a href=\"https://github-redirect.dependabot.com/puppeteer/puppeteer/issues/8844\">#8844</a>)</li>\n</ul>\n<h3>Bug Fixes</h3>\n<ul>\n<li>allow multiple navigations to happen in LifecycleWatcher (<a href=\"https://github-redirect.dependabot.com/puppeteer/puppeteer/issues/8826\">#8826</a>) (<a href=\"https://github.com/puppeteer/puppeteer/commit/341b669a5e45ecbb9ffb0f28c45b520660f27ad2\">341b669</a>), closes <a href=\"https://github-redirect.dependabot.com/puppeteer/puppeteer/issues/8811\">#8811</a></li>\n<li>internalize execution context (<a href=\"https://github-redirect.dependabot.com/puppeteer/puppeteer/issues/8844\">#8844</a>) (<a href=\"https://github.com/puppeteer/puppeteer/commit/2f33237d0443de77d58dca4454b0c9a1d2b57d03\">2f33237</a>)</li>\n<li>remove <code>root</code> from <code>WaitForSelectorOptions</code> (<a href=\"https://github-redirect.dependabot.com/puppeteer/puppeteer/issues/8848\">#8848</a>) (<a href=\"https://github.com/puppeteer/puppeteer/commit/1155c8eac85b176c3334cc3d98adfe7d943dfbe6\">1155c8e</a>)</li>\n<li>remove deferred promise timeouts (<a href=\"https://github-redirect.dependabot.com/puppeteer/puppeteer/issues/8835\">#8835</a>) (<a href=\"https://github.com/puppeteer/puppeteer/commit/202ffce0aa4f34dba35fbb8e7d740af16efee35f\">202ffce</a>), closes <a href=\"https://github-redirect.dependabot.com/puppeteer/puppeteer/issues/8832\">#8832</a></li>\n</ul>\n</blockquote>\n</details>\n<details>\n<summary>Commits</summary>\n<ul>\n<li><a href=\"https://github.com/puppeteer/puppeteer/commit/0d2d99efeca73fba255fb10b28b5d3f50c2e20e4\"><code>0d2d99e</code></a> chore(main): release 17.1.2 (<a href=\"https://github-redirect.dependabot.com/puppeteer/puppeteer/issues/8904\">#8904</a>)</li>\n<li><a href=\"https://github.com/puppeteer/puppeteer/commit/8b3caae8d1aaae683b7655fd762c9ae83be8c7c1\"><code>8b3caae</code></a> chore: enable cookie restoration test (<a href=\"https://github-redirect.dependabot.com/puppeteer/puppeteer/issues/8909\">#8909</a>)</li>\n<li><a href=\"https://github.com/puppeteer/puppeteer/commit/0c577b9bf8855dc0ccb6098cd43a25c528f6d7f5\"><code>0c577b9</code></a> fix: add missing code coverage ranges that span only a single character (<a href=\"https://github-redirect.dependabot.com/puppeteer/puppeteer/issues/8911\">#8911</a>)</li>\n<li><a href=\"https://github.com/puppeteer/puppeteer/commit/260e4282275ab1d05c86e5643e2a02c01f269a9c\"><code>260e428</code></a> fix: support scale for screenshot clips (<a href=\"https://github-redirect.dependabot.com/puppeteer/puppeteer/issues/8908\">#8908</a>)</li>\n<li><a href=\"https://github.com/puppeteer/puppeteer/commit/053d960fb593e514e7914d7da9af436afc39a12f\"><code>053d960</code></a> fix: work around a race in waitForFileChooser (<a href=\"https://github-redirect.dependabot.com/puppeteer/puppeteer/issues/8905\">#8905</a>)</li>\n<li><a href=\"https://github.com/puppeteer/puppeteer/commit/b4f5ea1167a60c870194c70d22f5372ada5b7c4c\"><code>b4f5ea1</code></a> fix: don't detect project root for puppeteer-core (<a href=\"https://github-redirect.dependabot.com/puppeteer/puppeteer/issues/8907\">#8907</a>)</li>\n<li><a href=\"https://github.com/puppeteer/puppeteer/commit/6e7c6368d3d560f24be0a736f33f202d8e2a80b5\"><code>6e7c636</code></a> docs: fix example formatting in evaluateOnNewDocument (<a href=\"https://github-redirect.dependabot.com/puppeteer/puppeteer/issues/8906\">#8906</a>)</li>\n<li><a href=\"https://github.com/puppeteer/puppeteer/commit/32400954c50cbddc48468ad118c3f8a47653b9d3\"><code>3240095</code></a> fix: add Page.getDefaultTimeout getter (<a href=\"https://github-redirect.dependabot.com/puppeteer/puppeteer/issues/8903\">#8903</a>)</li>\n<li><a href=\"https://github.com/puppeteer/puppeteer/commit/8e1c8b9be6be81b53e632d8143a6131d2ad0be5d\"><code>8e1c8b9</code></a> chore(main): release 17.1.1 (<a href=\"https://github-redirect.dependabot.com/puppeteer/puppeteer/issues/8900\">#8900</a>)</li>\n<li><a href=\"https://github.com/puppeteer/puppeteer/commit/2134d975dfb031b393d33d8388810cac375e95a3\"><code>2134d97</code></a> chore: re-build docs after versioning in pre-release (<a href=\"https://github-redirect.dependabot.com/puppeteer/puppeteer/issues/8899\">#8899</a>)</li>\n<li>Additional commits viewable in <a href=\"https://github.com/puppeteer/puppeteer/compare/v16.2.0...v17.1.2\">compare view</a></li>\n</ul>\n</details>\n<br />\n\n\n[![Dependabot compatibility score](https://dependabot-badges.githubapp.com/badges/compatibility_score?dependency-name=puppeteer&package-manager=npm_and_yarn&previous-version=16.2.0&new-version=17.1.2)](https://docs.github.com/en/github/managing-security-vulnerabilities/about-dependabot-security-updates#about-compatibility-scores)\n\nDependabot will resolve any conflicts with this PR as long as you don't alter it yourself. You can also trigger a rebase manually by commenting `@dependabot rebase`.\n\n[//]: # (dependabot-automerge-start)\n[//]: # (dependabot-automerge-end)\n\n---\n\n<details>\n<summary>Dependabot commands and options</summary>\n<br />\n\nYou can trigger Dependabot actions by commenting on this PR:\n- `@dependabot rebase` will rebase this PR\n- `@dependabot recreate` will recreate this PR, overwriting any edits that have been made to it\n- `@dependabot merge` will merge this PR after your CI passes on it\n- `@dependabot squash and merge` will squash and merge this PR after your CI passes on it\n- `@dependabot cancel merge` will cancel a previously requested merge and block automerging\n- `@dependabot reopen` will reopen this PR if it is closed\n- `@dependabot close` will close this PR and stop Dependabot recreating it. You can achieve the same result by closing it manually\n- `@dependabot ignore this major version` will close this PR and stop Dependabot creating any more for this major version (unless you reopen the PR or upgrade to it yourself)\n- `@dependabot ignore this minor version` will close this PR and stop Dependabot creating any more for this minor version (unless you reopen the PR or upgrade to it yourself)\n- `@dependabot ignore this dependency` will close this PR and stop Dependabot creating any more for this dependency (unless you reopen the PR or upgrade to it yourself)\n\n\n</details>",
    "changed_files": 1,
    "closed_at": "2022-09-09T00:21:40Z",
    "comment_data": [],
    "comment_regular_data": [
        {
            "author_association": "CONTRIBUTOR",
            "body": "Superseded by #297.",
            "created_at": "2022-09-09T00:21:40Z",
            "html_url": "https://github.com/PrismarineJS/prismarine-viewer/pull/296#issuecomment-1241360793",
            "id": 1241360793,
            "issue_url": "https://api.github.com/repos/PrismarineJS/prismarine-viewer/issues/296",
            "node_id": "IC_kwDOEC0DT85J_amZ",
            "performed_via_github_app": null,
            "reactions": {
                "+1": 0,
                "-1": 0,
                "confused": 0,
                "eyes": 0,
                "heart": 0,
                "hooray": 0,
                "laugh": 0,
                "rocket": 0,
                "total_count": 0,
                "url": "https://api.github.com/repos/PrismarineJS/prismarine-viewer/issues/comments/1241360793/reactions"
            },
            "updated_at": "2022-09-09T00:21:40Z",
            "url": "https://api.github.com/repos/PrismarineJS/prismarine-viewer/issues/comments/1241360793",
            "user": {
                "avatar_url": "https://avatars.githubusercontent.com/in/29110?v=4",
                "events_url": "https://api.github.com/users/dependabot%5Bbot%5D/events{/privacy}",
                "followers_url": "https://api.github.com/users/dependabot%5Bbot%5D/followers",
                "following_url": "https://api.github.com/users/dependabot%5Bbot%5D/following{/other_user}",
                "gists_url": "https://api.github.com/users/dependabot%5Bbot%5D/gists{/gist_id}",
                "gravatar_id": "",
                "html_url": "https://github.com/apps/dependabot",
                "id": 49699333,
                "login": "dependabot[bot]",
                "node_id": "MDM6Qm90NDk2OTkzMzM=",
                "organizations_url": "https://api.github.com/users/dependabot%5Bbot%5D/orgs",
                "received_events_url": "https://api.github.com/users/dependabot%5Bbot%5D/received_events",
                "repos_url": "https://api.github.com/users/dependabot%5Bbot%5D/repos",
                "site_admin": false,
                "starred_url": "https://api.github.com/users/dependabot%5Bbot%5D/starred{/owner}{/repo}",
                "subscriptions_url": "https://api.github.com/users/dependabot%5Bbot%5D/subscriptions",
                "type": "Bot",
                "url": "https://api.github.com/users/dependabot%5Bbot%5D"
            }
        }
    ],
    "comments": 1,
    "comments_url": "https://api.github.com/repos/PrismarineJS/prismarine-viewer/issues/296/comments",
    "commit_data": [
        {
            "author": {
                "avatar_url": "https://avatars.githubusercontent.com/in/29110?v=4",
                "events_url": "https://api.github.com/users/dependabot%5Bbot%5D/events{/privacy}",
                "followers_url": "https://api.github.com/users/dependabot%5Bbot%5D/followers",
                "following_url": "https://api.github.com/users/dependabot%5Bbot%5D/following{/other_user}",
                "gists_url": "https://api.github.com/users/dependabot%5Bbot%5D/gists{/gist_id}",
                "gravatar_id": "",
                "html_url": "https://github.com/apps/dependabot",
                "id": 49699333,
                "login": "dependabot[bot]",
                "node_id": "MDM6Qm90NDk2OTkzMzM=",
                "organizations_url": "https://api.github.com/users/dependabot%5Bbot%5D/orgs",
                "received_events_url": "https://api.github.com/users/dependabot%5Bbot%5D/received_events",
                "repos_url": "https://api.github.com/users/dependabot%5Bbot%5D/repos",
                "site_admin": false,
                "starred_url": "https://api.github.com/users/dependabot%5Bbot%5D/starred{/owner}{/repo}",
                "subscriptions_url": "https://api.github.com/users/dependabot%5Bbot%5D/subscriptions",
                "type": "Bot",
                "url": "https://api.github.com/users/dependabot%5Bbot%5D"
            },
            "comments_url": "https://api.github.com/repos/PrismarineJS/prismarine-viewer/commits/c311d99bdc08d1ee0480f6ea98a27c1647384ccd/comments",
            "commit": {
                "author": {
                    "date": "2022-09-08T00:20:35Z",
                    "email": "49699333+dependabot[bot]@users.noreply.github.com",
                    "name": "dependabot[bot]"
                },
                "comment_count": 0,
                "committer": {
                    "date": "2022-09-08T00:20:35Z",
                    "email": "noreply@github.com",
                    "name": "GitHub"
                },
                "message": "Bump puppeteer from 16.2.0 to 17.1.2\n\nBumps [puppeteer](https://github.com/puppeteer/puppeteer) from 16.2.0 to 17.1.2.\n- [Release notes](https://github.com/puppeteer/puppeteer/releases)\n- [Changelog](https://github.com/puppeteer/puppeteer/blob/main/CHANGELOG.md)\n- [Commits](https://github.com/puppeteer/puppeteer/compare/v16.2.0...v17.1.2)\n\n---\nupdated-dependencies:\n- dependency-name: puppeteer\n  dependency-type: direct:development\n  update-type: version-update:semver-major\n...\n\nSigned-off-by: dependabot[bot] <support@github.com>",
                "tree": {
                    "sha": "ed594d3d167006f88e8467209bdcb528cbddc540",
                    "url": "https://api.github.com/repos/PrismarineJS/prismarine-viewer/git/trees/ed594d3d167006f88e8467209bdcb528cbddc540"
                },
                "url": "https://api.github.com/repos/PrismarineJS/prismarine-viewer/git/commits/c311d99bdc08d1ee0480f6ea98a27c1647384ccd",
                "verification": {
                    "payload": "tree ed594d3d167006f88e8467209bdcb528cbddc540\nparent 7546af1c1de220638accc764511f0b02e02ab3cc\nauthor dependabot[bot] <49699333+dependabot[bot]@users.noreply.github.com> 1662596435 +0000\ncommitter GitHub <noreply@github.com> 1662596435 +0000\n\nBump puppeteer from 16.2.0 to 17.1.2\n\nBumps [puppeteer](https://github.com/puppeteer/puppeteer) from 16.2.0 to 17.1.2.\n- [Release notes](https://github.com/puppeteer/puppeteer/releases)\n- [Changelog](https://github.com/puppeteer/puppeteer/blob/main/CHANGELOG.md)\n- [Commits](https://github.com/puppeteer/puppeteer/compare/v16.2.0...v17.1.2)\n\n---\nupdated-dependencies:\n- dependency-name: puppeteer\n  dependency-type: direct:development\n  update-type: version-update:semver-major\n...\n\nSigned-off-by: dependabot[bot] <support@github.com>",
                    "reason": "valid",
                    "signature": "-----BEGIN PGP SIGNATURE-----\n\nwsBcBAABCAAQBQJjGTVTCRBK7hj4Ov3rIwAAA7YIACQHhuLmFj7EWEmsoFt/+N6W\n2VO+FSeB18X+93mL7O3f2fecTrvvEjR7Z4KsB7VdP1PrNfvwXP/vtQSW/LryB58t\nMRwhLiZwyZn2z0fI1QFvDKdnHaWE1KD7vAomBOyasUp5f0OH4V37vkBvILB9HDkR\np2VDqi/cw+itaKp3HBaBXEEsHi4GuhcDGgeqCbGwFqOXxXLxcddGTUuvRzwxfdhb\nxmYrKO3aKylE01QUceoJr5def2f6oF3LzOxWXIx0Evucf53HS4xp2uk9blLAZEPx\n2sIWmqtFJKsgV2fK6TXy1u2VVCz8cyN5bsheJK2xVb+5hROLNe8cbNC+91MVeT8=\n=CTZz\n-----END PGP SIGNATURE-----\n",
                    "verified": true
                }
            },
            "committer": {
                "avatar_url": "https://avatars.githubusercontent.com/u/19864447?v=4",
                "events_url": "https://api.github.com/users/web-flow/events{/privacy}",
                "followers_url": "https://api.github.com/users/web-flow/followers",
                "following_url": "https://api.github.com/users/web-flow/following{/other_user}",
                "gists_url": "https://api.github.com/users/web-flow/gists{/gist_id}",
                "gravatar_id": "",
                "html_url": "https://github.com/web-flow",
                "id": 19864447,
                "login": "web-flow",
                "node_id": "MDQ6VXNlcjE5ODY0NDQ3",
                "organizations_url": "https://api.github.com/users/web-flow/orgs",
                "received_events_url": "https://api.github.com/users/web-flow/received_events",
                "repos_url": "https://api.github.com/users/web-flow/repos",
                "site_admin": false,
                "starred_url": "https://api.github.com/users/web-flow/starred{/owner}{/repo}",
                "subscriptions_url": "https://api.github.com/users/web-flow/subscriptions",
                "type": "User",
                "url": "https://api.github.com/users/web-flow"
            },
            "html_url": "https://github.com/PrismarineJS/prismarine-viewer/commit/c311d99bdc08d1ee0480f6ea98a27c1647384ccd",
            "node_id": "C_kwDOEC0DT9oAKGMzMTFkOTliZGMwOGQxZWUwNDgwZjZlYTk4YTI3YzE2NDczODRjY2Q",
            "parents": [
                {
                    "html_url": "https://github.com/PrismarineJS/prismarine-viewer/commit/7546af1c1de220638accc764511f0b02e02ab3cc",
                    "sha": "7546af1c1de220638accc764511f0b02e02ab3cc",
                    "url": "https://api.github.com/repos/PrismarineJS/prismarine-viewer/commits/7546af1c1de220638accc764511f0b02e02ab3cc"
                }
            ],
            "sha": "c311d99bdc08d1ee0480f6ea98a27c1647384ccd",
            "url": "https://api.github.com/repos/PrismarineJS/prismarine-viewer/commits/c311d99bdc08d1ee0480f6ea98a27c1647384ccd"
        }
    ],
    "commits": 1,
    "commits_url": "https://api.github.com/repos/PrismarineJS/prismarine-viewer/pulls/296/commits",
    "created_at": "2022-09-08T00:20:35Z",
    "deletions": 1,
    "diff_url": "https://github.com/PrismarineJS/prismarine-viewer/pull/296.diff",
    "draft": false,
    "head": {
        "label": "PrismarineJS:dependabot/npm_and_yarn/puppeteer-17.1.2",
        "ref": "dependabot/npm_and_yarn/puppeteer-17.1.2",
        "repo": {
            "allow_forking": true,
            "archive_url": "https://api.github.com/repos/PrismarineJS/prismarine-viewer/{archive_format}{/ref}",
            "archived": false,
            "assignees_url": "https://api.github.com/repos/PrismarineJS/prismarine-viewer/assignees{/user}",
            "blobs_url": "https://api.github.com/repos/PrismarineJS/prismarine-viewer/git/blobs{/sha}",
            "branches_url": "https://api.github.com/repos/PrismarineJS/prismarine-viewer/branches{/branch}",
            "clone_url": "https://github.com/PrismarineJS/prismarine-viewer.git",
            "collaborators_url": "https://api.github.com/repos/PrismarineJS/prismarine-viewer/collaborators{/collaborator}",
            "comments_url": "https://api.github.com/repos/PrismarineJS/prismarine-viewer/comments{/number}",
            "commits_url": "https://api.github.com/repos/PrismarineJS/prismarine-viewer/commits{/sha}",
            "compare_url": "https://api.github.com/repos/PrismarineJS/prismarine-viewer/compare/{base}...{head}",
            "contents_url": "https://api.github.com/repos/PrismarineJS/prismarine-viewer/contents/{+path}",
            "contributors_url": "https://api.github.com/repos/PrismarineJS/prismarine-viewer/contributors",
            "created_at": "2020-06-10T21:05:49Z",
            "default_branch": "master",
            "deployments_url": "https://api.github.com/repos/PrismarineJS/prismarine-viewer/deployments",
            "description": "Web based viewer for servers and bots",
            "disabled": false,
            "downloads_url": "https://api.github.com/repos/PrismarineJS/prismarine-viewer/downloads",
            "events_url": "https://api.github.com/repos/PrismarineJS/prismarine-viewer/events",
            "fork": false,
            "forks": 57,
            "forks_count": 57,
            "forks_url": "https://api.github.com/repos/PrismarineJS/prismarine-viewer/forks",
            "full_name": "PrismarineJS/prismarine-viewer",
            "git_commits_url": "https://api.github.com/repos/PrismarineJS/prismarine-viewer/git/commits{/sha}",
            "git_refs_url": "https://api.github.com/repos/PrismarineJS/prismarine-viewer/git/refs{/sha}",
            "git_tags_url": "https://api.github.com/repos/PrismarineJS/prismarine-viewer/git/tags{/sha}",
            "git_url": "git://github.com/PrismarineJS/prismarine-viewer.git",
            "has_discussions": false,
            "has_downloads": true,
            "has_issues": true,
            "has_pages": true,
            "has_projects": true,
            "has_wiki": true,
            "homepage": "https://prismarinejs.github.io/prismarine-viewer/",
            "hooks_url": "https://api.github.com/repos/PrismarineJS/prismarine-viewer/hooks",
            "html_url": "https://github.com/PrismarineJS/prismarine-viewer",
            "id": 271385423,
            "is_template": false,
            "issue_comment_url": "https://api.github.com/repos/PrismarineJS/prismarine-viewer/issues/comments{/number}",
            "issue_events_url": "https://api.github.com/repos/PrismarineJS/prismarine-viewer/issues/events{/number}",
            "issues_url": "https://api.github.com/repos/PrismarineJS/prismarine-viewer/issues{/number}",
            "keys_url": "https://api.github.com/repos/PrismarineJS/prismarine-viewer/keys{/key_id}",
            "labels_url": "https://api.github.com/repos/PrismarineJS/prismarine-viewer/labels{/name}",
            "language": "JavaScript",
            "languages_url": "https://api.github.com/repos/PrismarineJS/prismarine-viewer/languages",
            "license": {
                "key": "mit",
                "name": "MIT License",
                "node_id": "MDc6TGljZW5zZTEz",
                "spdx_id": "MIT",
                "url": "https://api.github.com/licenses/mit"
            },
            "merges_url": "https://api.github.com/repos/PrismarineJS/prismarine-viewer/merges",
            "milestones_url": "https://api.github.com/repos/PrismarineJS/prismarine-viewer/milestones{/number}",
            "mirror_url": null,
            "name": "prismarine-viewer",
            "node_id": "MDEwOlJlcG9zaXRvcnkyNzEzODU0MjM=",
            "notifications_url": "https://api.github.com/repos/PrismarineJS/prismarine-viewer/notifications{?since,all,participating}",
            "open_issues": 69,
            "open_issues_count": 69,
            "owner": {
                "avatar_url": "https://avatars.githubusercontent.com/u/11053411?v=4",
                "events_url": "https://api.github.com/users/PrismarineJS/events{/privacy}",
                "followers_url": "https://api.github.com/users/PrismarineJS/followers",
                "following_url": "https://api.github.com/users/PrismarineJS/following{/other_user}",
                "gists_url": "https://api.github.com/users/PrismarineJS/gists{/gist_id}",
                "gravatar_id": "",
                "html_url": "https://github.com/PrismarineJS",
                "id": 11053411,
                "login": "PrismarineJS",
                "node_id": "MDEyOk9yZ2FuaXphdGlvbjExMDUzNDEx",
                "organizations_url": "https://api.github.com/users/PrismarineJS/orgs",
                "received_events_url": "https://api.github.com/users/PrismarineJS/received_events",
                "repos_url": "https://api.github.com/users/PrismarineJS/repos",
                "site_admin": false,
                "starred_url": "https://api.github.com/users/PrismarineJS/starred{/owner}{/repo}",
                "subscriptions_url": "https://api.github.com/users/PrismarineJS/subscriptions",
                "type": "Organization",
                "url": "https://api.github.com/users/PrismarineJS"
            },
            "private": false,
            "pulls_url": "https://api.github.com/repos/PrismarineJS/prismarine-viewer/pulls{/number}",
            "pushed_at": "2023-04-25T00:59:53Z",
            "releases_url": "https://api.github.com/repos/PrismarineJS/prismarine-viewer/releases{/id}",
            "size": 309473,
            "ssh_url": "git@github.com:PrismarineJS/prismarine-viewer.git",
            "stargazers_count": 168,
            "stargazers_url": "https://api.github.com/repos/PrismarineJS/prismarine-viewer/stargazers",
            "statuses_url": "https://api.github.com/repos/PrismarineJS/prismarine-viewer/statuses/{sha}",
            "subscribers_url": "https://api.github.com/repos/PrismarineJS/prismarine-viewer/subscribers",
            "subscription_url": "https://api.github.com/repos/PrismarineJS/prismarine-viewer/subscription",
            "svn_url": "https://github.com/PrismarineJS/prismarine-viewer",
            "tags_url": "https://api.github.com/repos/PrismarineJS/prismarine-viewer/tags",
            "teams_url": "https://api.github.com/repos/PrismarineJS/prismarine-viewer/teams",
            "topics": [],
            "trees_url": "https://api.github.com/repos/PrismarineJS/prismarine-viewer/git/trees{/sha}",
            "updated_at": "2023-04-24T03:47:17Z",
            "url": "https://api.github.com/repos/PrismarineJS/prismarine-viewer",
            "visibility": "public",
            "watchers": 168,
            "watchers_count": 168,
            "web_commit_signoff_required": false
        },
        "sha": "c311d99bdc08d1ee0480f6ea98a27c1647384ccd",
        "user": {
            "avatar_url": "https://avatars.githubusercontent.com/u/11053411?v=4",
            "events_url": "https://api.github.com/users/PrismarineJS/events{/privacy}",
            "followers_url": "https://api.github.com/users/PrismarineJS/followers",
            "following_url": "https://api.github.com/users/PrismarineJS/following{/other_user}",
            "gists_url": "https://api.github.com/users/PrismarineJS/gists{/gist_id}",
            "gravatar_id": "",
            "html_url": "https://github.com/PrismarineJS",
            "id": 11053411,
            "login": "PrismarineJS",
            "node_id": "MDEyOk9yZ2FuaXphdGlvbjExMDUzNDEx",
            "organizations_url": "https://api.github.com/users/PrismarineJS/orgs",
            "received_events_url": "https://api.github.com/users/PrismarineJS/received_events",
            "repos_url": "https://api.github.com/users/PrismarineJS/repos",
            "site_admin": false,
            "starred_url": "https://api.github.com/users/PrismarineJS/starred{/owner}{/repo}",
            "subscriptions_url": "https://api.github.com/users/PrismarineJS/subscriptions",
            "type": "Organization",
            "url": "https://api.github.com/users/PrismarineJS"
        }
    },
    "html_url": "https://github.com/PrismarineJS/prismarine-viewer/pull/296",
    "id": 1049343746,
    "issue_url": "https://api.github.com/repos/PrismarineJS/prismarine-viewer/issues/296",
    "labels": [
        {
            "color": "0366d6",
            "default": false,
            "description": "Pull requests that update a dependency file",
            "id": 2474655629,
            "name": "dependencies",
            "node_id": "MDU6TGFiZWwyNDc0NjU1NjI5",
            "url": "https://api.github.com/repos/PrismarineJS/prismarine-viewer/labels/dependencies"
        }
    ],
    "locked": false,
    "maintainer_can_modify": false,
    "merge_commit_sha": "ce81f34cf104dee96b7bf2085b420931335275f2",
    "mergeable": null,
    "mergeable_state": "unknown",
    "merged": false,
    "merged_at": null,
    "merged_by": null,
    "milestone": null,
    "node_id": "PR_kwDOEC0DT84-i7cC",
    "number": 296,
    "patch_url": "https://github.com/PrismarineJS/prismarine-viewer/pull/296.patch",
    "rebaseable": null,
    "requested_reviewers": [],
    "requested_teams": [],
    "review_comment_url": "https://api.github.com/repos/PrismarineJS/prismarine-viewer/pulls/comments{/number}",
    "review_comments": 0,
    "review_comments_url": "https://api.github.com/repos/PrismarineJS/prismarine-viewer/pulls/296/comments",
    "state": "closed",
    "statuses_url": "https://api.github.com/repos/PrismarineJS/prismarine-viewer/statuses/c311d99bdc08d1ee0480f6ea98a27c1647384ccd",
    "title": "Bump puppeteer from 16.2.0 to 17.1.2",
    "updated_at": "2022-09-09T00:21:42Z",
    "url": "https://api.github.com/repos/PrismarineJS/prismarine-viewer/pulls/296",
    "user": {
        "avatar_url": "https://avatars.githubusercontent.com/in/29110?v=4",
        "events_url": "https://api.github.com/users/dependabot%5Bbot%5D/events{/privacy}",
        "followers_url": "https://api.github.com/users/dependabot%5Bbot%5D/followers",
        "following_url": "https://api.github.com/users/dependabot%5Bbot%5D/following{/other_user}",
        "gists_url": "https://api.github.com/users/dependabot%5Bbot%5D/gists{/gist_id}",
        "gravatar_id": "",
        "html_url": "https://github.com/apps/dependabot",
        "id": 49699333,
        "login": "dependabot[bot]",
        "node_id": "MDM6Qm90NDk2OTkzMzM=",
        "organizations_url": "https://api.github.com/users/dependabot%5Bbot%5D/orgs",
        "received_events_url": "https://api.github.com/users/dependabot%5Bbot%5D/received_events",
        "repos_url": "https://api.github.com/users/dependabot%5Bbot%5D/repos",
        "site_admin": false,
        "starred_url": "https://api.github.com/users/dependabot%5Bbot%5D/starred{/owner}{/repo}",
        "subscriptions_url": "https://api.github.com/users/dependabot%5Bbot%5D/subscriptions",
        "type": "Bot",
        "url": "https://api.github.com/users/dependabot%5Bbot%5D"
    }
}