{
    "_links": {
        "comments": {
            "href": "https://api.github.com/repos/PrismarineJS/prismarine-viewer/issues/308/comments"
        },
        "commits": {
            "href": "https://api.github.com/repos/PrismarineJS/prismarine-viewer/pulls/308/commits"
        },
        "html": {
            "href": "https://github.com/PrismarineJS/prismarine-viewer/pull/308"
        },
        "issue": {
            "href": "https://api.github.com/repos/PrismarineJS/prismarine-viewer/issues/308"
        },
        "review_comment": {
            "href": "https://api.github.com/repos/PrismarineJS/prismarine-viewer/pulls/comments{/number}"
        },
        "review_comments": {
            "href": "https://api.github.com/repos/PrismarineJS/prismarine-viewer/pulls/308/comments"
        },
        "self": {
            "href": "https://api.github.com/repos/PrismarineJS/prismarine-viewer/pulls/308"
        },
        "statuses": {
            "href": "https://api.github.com/repos/PrismarineJS/prismarine-viewer/statuses/be49e5a6261ca0ad3926e52321eb25c7ab344577"
        }
    },
    "active_lock_reason": null,
    "additions": 1,
    "assignee": null,
    "assignees": [],
    "author_association": "CONTRIBUTOR",
    "auto_merge": null,
    "base": {
        "label": "PrismarineJS:master",
        "ref": "master",
        "repo": {
            "allow_forking": true,
            "archive_url": "https://api.github.com/repos/PrismarineJS/prismarine-viewer/{archive_format}{/ref}",
            "archived": false,
            "assignees_url": "https://api.github.com/repos/PrismarineJS/prismarine-viewer/assignees{/user}",
            "blobs_url": "https://api.github.com/repos/PrismarineJS/prismarine-viewer/git/blobs{/sha}",
            "branches_url": "https://api.github.com/repos/PrismarineJS/prismarine-viewer/branches{/branch}",
            "clone_url": "https://github.com/PrismarineJS/prismarine-viewer.git",
            "collaborators_url": "https://api.github.com/repos/PrismarineJS/prismarine-viewer/collaborators{/collaborator}",
            "comments_url": "https://api.github.com/repos/PrismarineJS/prismarine-viewer/comments{/number}",
            "commits_url": "https://api.github.com/repos/PrismarineJS/prismarine-viewer/commits{/sha}",
            "compare_url": "https://api.github.com/repos/PrismarineJS/prismarine-viewer/compare/{base}...{head}",
            "contents_url": "https://api.github.com/repos/PrismarineJS/prismarine-viewer/contents/{+path}",
            "contributors_url": "https://api.github.com/repos/PrismarineJS/prismarine-viewer/contributors",
            "created_at": "2020-06-10T21:05:49Z",
            "default_branch": "master",
            "deployments_url": "https://api.github.com/repos/PrismarineJS/prismarine-viewer/deployments",
            "description": "Web based viewer for servers and bots",
            "disabled": false,
            "downloads_url": "https://api.github.com/repos/PrismarineJS/prismarine-viewer/downloads",
            "events_url": "https://api.github.com/repos/PrismarineJS/prismarine-viewer/events",
            "fork": false,
            "forks": 57,
            "forks_count": 57,
            "forks_url": "https://api.github.com/repos/PrismarineJS/prismarine-viewer/forks",
            "full_name": "PrismarineJS/prismarine-viewer",
            "git_commits_url": "https://api.github.com/repos/PrismarineJS/prismarine-viewer/git/commits{/sha}",
            "git_refs_url": "https://api.github.com/repos/PrismarineJS/prismarine-viewer/git/refs{/sha}",
            "git_tags_url": "https://api.github.com/repos/PrismarineJS/prismarine-viewer/git/tags{/sha}",
            "git_url": "git://github.com/PrismarineJS/prismarine-viewer.git",
            "has_discussions": false,
            "has_downloads": true,
            "has_issues": true,
            "has_pages": true,
            "has_projects": true,
            "has_wiki": true,
            "homepage": "https://prismarinejs.github.io/prismarine-viewer/",
            "hooks_url": "https://api.github.com/repos/PrismarineJS/prismarine-viewer/hooks",
            "html_url": "https://github.com/PrismarineJS/prismarine-viewer",
            "id": 271385423,
            "is_template": false,
            "issue_comment_url": "https://api.github.com/repos/PrismarineJS/prismarine-viewer/issues/comments{/number}",
            "issue_events_url": "https://api.github.com/repos/PrismarineJS/prismarine-viewer/issues/events{/number}",
            "issues_url": "https://api.github.com/repos/PrismarineJS/prismarine-viewer/issues{/number}",
            "keys_url": "https://api.github.com/repos/PrismarineJS/prismarine-viewer/keys{/key_id}",
            "labels_url": "https://api.github.com/repos/PrismarineJS/prismarine-viewer/labels{/name}",
            "language": "JavaScript",
            "languages_url": "https://api.github.com/repos/PrismarineJS/prismarine-viewer/languages",
            "license": {
                "key": "mit",
                "name": "MIT License",
                "node_id": "MDc6TGljZW5zZTEz",
                "spdx_id": "MIT",
                "url": "https://api.github.com/licenses/mit"
            },
            "merges_url": "https://api.github.com/repos/PrismarineJS/prismarine-viewer/merges",
            "milestones_url": "https://api.github.com/repos/PrismarineJS/prismarine-viewer/milestones{/number}",
            "mirror_url": null,
            "name": "prismarine-viewer",
            "node_id": "MDEwOlJlcG9zaXRvcnkyNzEzODU0MjM=",
            "notifications_url": "https://api.github.com/repos/PrismarineJS/prismarine-viewer/notifications{?since,all,participating}",
            "open_issues": 69,
            "open_issues_count": 69,
            "owner": {
                "avatar_url": "https://avatars.githubusercontent.com/u/11053411?v=4",
                "events_url": "https://api.github.com/users/PrismarineJS/events{/privacy}",
                "followers_url": "https://api.github.com/users/PrismarineJS/followers",
                "following_url": "https://api.github.com/users/PrismarineJS/following{/other_user}",
                "gists_url": "https://api.github.com/users/PrismarineJS/gists{/gist_id}",
                "gravatar_id": "",
                "html_url": "https://github.com/PrismarineJS",
                "id": 11053411,
                "login": "PrismarineJS",
                "node_id": "MDEyOk9yZ2FuaXphdGlvbjExMDUzNDEx",
                "organizations_url": "https://api.github.com/users/PrismarineJS/orgs",
                "received_events_url": "https://api.github.com/users/PrismarineJS/received_events",
                "repos_url": "https://api.github.com/users/PrismarineJS/repos",
                "site_admin": false,
                "starred_url": "https://api.github.com/users/PrismarineJS/starred{/owner}{/repo}",
                "subscriptions_url": "https://api.github.com/users/PrismarineJS/subscriptions",
                "type": "Organization",
                "url": "https://api.github.com/users/PrismarineJS"
            },
            "private": false,
            "pulls_url": "https://api.github.com/repos/PrismarineJS/prismarine-viewer/pulls{/number}",
            "pushed_at": "2023-04-25T00:59:53Z",
            "releases_url": "https://api.github.com/repos/PrismarineJS/prismarine-viewer/releases{/id}",
            "size": 309473,
            "ssh_url": "git@github.com:PrismarineJS/prismarine-viewer.git",
            "stargazers_count": 168,
            "stargazers_url": "https://api.github.com/repos/PrismarineJS/prismarine-viewer/stargazers",
            "statuses_url": "https://api.github.com/repos/PrismarineJS/prismarine-viewer/statuses/{sha}",
            "subscribers_url": "https://api.github.com/repos/PrismarineJS/prismarine-viewer/subscribers",
            "subscription_url": "https://api.github.com/repos/PrismarineJS/prismarine-viewer/subscription",
            "svn_url": "https://github.com/PrismarineJS/prismarine-viewer",
            "tags_url": "https://api.github.com/repos/PrismarineJS/prismarine-viewer/tags",
            "teams_url": "https://api.github.com/repos/PrismarineJS/prismarine-viewer/teams",
            "topics": [],
            "trees_url": "https://api.github.com/repos/PrismarineJS/prismarine-viewer/git/trees{/sha}",
            "updated_at": "2023-04-24T03:47:17Z",
            "url": "https://api.github.com/repos/PrismarineJS/prismarine-viewer",
            "visibility": "public",
            "watchers": 168,
            "watchers_count": 168,
            "web_commit_signoff_required": false
        },
        "sha": "7546af1c1de220638accc764511f0b02e02ab3cc",
        "user": {
            "avatar_url": "https://avatars.githubusercontent.com/u/11053411?v=4",
            "events_url": "https://api.github.com/users/PrismarineJS/events{/privacy}",
            "followers_url": "https://api.github.com/users/PrismarineJS/followers",
            "following_url": "https://api.github.com/users/PrismarineJS/following{/other_user}",
            "gists_url": "https://api.github.com/users/PrismarineJS/gists{/gist_id}",
            "gravatar_id": "",
            "html_url": "https://github.com/PrismarineJS",
            "id": 11053411,
            "login": "PrismarineJS",
            "node_id": "MDEyOk9yZ2FuaXphdGlvbjExMDUzNDEx",
            "organizations_url": "https://api.github.com/users/PrismarineJS/orgs",
            "received_events_url": "https://api.github.com/users/PrismarineJS/received_events",
            "repos_url": "https://api.github.com/users/PrismarineJS/repos",
            "site_admin": false,
            "starred_url": "https://api.github.com/users/PrismarineJS/starred{/owner}{/repo}",
            "subscriptions_url": "https://api.github.com/users/PrismarineJS/subscriptions",
            "type": "Organization",
            "url": "https://api.github.com/users/PrismarineJS"
        }
    },
    "body": "Bumps [jest](https://github.com/facebook/jest/tree/HEAD/packages/jest) from 27.5.1 to 29.2.0.\n<details>\n<summary>Release notes</summary>\n<p><em>Sourced from <a href=\"https://github.com/facebook/jest/releases\">jest's releases</a>.</em></p>\n<blockquote>\n<h2>v29.2.0</h2>\n<h2>Features</h2>\n<ul>\n<li><code>[@jest/cli, jest-config]</code> A seed for the test run will be randomly generated, or set by a CLI option (<a href=\"https://github-redirect.dependabot.com/facebook/jest/pull/13400\">#13400</a>)</li>\n<li><code>[@jest/cli, jest-config]</code> <code>--show-seed</code> will display the seed value in the report, and can be set via a CLI flag or through the config file (<a href=\"https://github-redirect.dependabot.com/facebook/jest/pull/13400\">#13400</a>)</li>\n<li><code>[jest-config]</code> Add <code>readInitialConfig</code> utility function (<a href=\"https://github-redirect.dependabot.com/facebook/jest/pull/13356\">#13356</a>)</li>\n<li><code>[jest-core]</code> Allow <code>testResultsProcessor</code> to be async (<a href=\"https://github-redirect.dependabot.com/facebook/jest/pull/13343\">#13343</a>)</li>\n<li><code>[@jest/environment, jest-environment-node, jest-environment-jsdom, jest-runtime]</code> Add <code>getSeed()</code> to the <code>jest</code> object (<a href=\"https://github-redirect.dependabot.com/facebook/jest/pull/13400\">#13400</a>)</li>\n<li><code>[expect, @jest/expect-utils]</code> Allow <code>isA</code> utility to take a type argument (<a href=\"https://github-redirect.dependabot.com/facebook/jest/pull/13355\">#13355</a>)</li>\n<li><code>[expect]</code> Expose <code>AsyncExpectationResult</code> and <code>SyncExpectationResult</code> types (<a href=\"https://github-redirect.dependabot.com/facebook/jest/pull/13411\">#13411</a>)</li>\n</ul>\n<h2>Fixes</h2>\n<ul>\n<li><code>[babel-plugin-jest-hoist]</code> Ignore <code>TSTypeQuery</code> when checking for hoisted references (<a href=\"https://github-redirect.dependabot.com/facebook/jest/pull/13367\">#13367</a>)</li>\n<li><code>[jest-core]</code> Fix <code>detectOpenHandles</code> false positives for some special objects such as <code>TLSWRAP</code> (<a href=\"https://github-redirect.dependabot.com/facebook/jest/pull/13414\">#13414</a>)</li>\n<li><code>[jest-mock]</code> Fix mocking of getters and setters on classes (<a href=\"https://github-redirect.dependabot.com/facebook/jest/pull/13398\">#13398</a>)</li>\n<li><code>[jest-reporters]</code> Revert: Transform file paths into hyperlinks (<a href=\"https://github-redirect.dependabot.com/facebook/jest/pull/13399\">#13399</a>)</li>\n<li><code>[@jest/types]</code> Infer type of <code>each</code> table correctly when the table is a tuple or array (<a href=\"https://github-redirect.dependabot.com/facebook/jest/pull/13381\">#13381</a>)</li>\n<li><code>[@jest/types]</code> Rework typings to allow the <code>*ReturnedWith</code> matchers to be called with no argument (<a href=\"https://github-redirect.dependabot.com/facebook/jest/pull/13385\">#13385</a>)</li>\n</ul>\n<h2>Chore &amp; Maintenance</h2>\n<ul>\n<li><code>[*]</code> Update <code>@babel/*</code> deps, resulting in slightly different stack traces for <code>each</code> (<a href=\"https://github-redirect.dependabot.com/facebook/jest/pull/13422\">#13422</a>)</li>\n</ul>\n<h2>Performance</h2>\n<ul>\n<li><code>[jest-runner]</code> Do not instrument v8 coverage data if coverage should not be collected (<a href=\"https://github-redirect.dependabot.com/facebook/jest/pull/13282\">#13282</a>)</li>\n</ul>\n<h2>New Contributors</h2>\n<ul>\n<li><a href=\"https://github.com/johannessjoberg\"><code>@​johannessjoberg</code></a> made their first contribution in <a href=\"https://github-redirect.dependabot.com/facebook/jest/pull/13343\">facebook/jest#13343</a></li>\n<li><a href=\"https://github.com/mitchhentgesspotify\"><code>@​mitchhentgesspotify</code></a> made their first contribution in <a href=\"https://github-redirect.dependabot.com/facebook/jest/pull/13282\">facebook/jest#13282</a></li>\n<li><a href=\"https://github.com/Methuselah96\"><code>@​Methuselah96</code></a> made their first contribution in <a href=\"https://github-redirect.dependabot.com/facebook/jest/pull/13409\">facebook/jest#13409</a></li>\n<li><a href=\"https://github.com/jhwang98\"><code>@​jhwang98</code></a> made their first contribution in <a href=\"https://github-redirect.dependabot.com/facebook/jest/pull/13400\">facebook/jest#13400</a></li>\n<li><a href=\"https://github.com/professorjrod\"><code>@​professorjrod</code></a> made their first contribution in <a href=\"https://github-redirect.dependabot.com/facebook/jest/pull/13418\">facebook/jest#13418</a></li>\n<li><a href=\"https://github.com/jesusarell\"><code>@​jesusarell</code></a> made their first contribution in <a href=\"https://github-redirect.dependabot.com/facebook/jest/pull/13407\">facebook/jest#13407</a></li>\n</ul>\n<p><strong>Full Changelog</strong>: <a href=\"https://github.com/facebook/jest/compare/v29.1.2...v29.2.0\">https://github.com/facebook/jest/compare/v29.1.2...v29.2.0</a></p>\n<h2>v29.1.2</h2>\n<h2>Fixes</h2>\n<ul>\n<li><code>[expect, @jest/expect]</code> Revert buggy inference of argument types for <code>*CalledWith</code> and <code>*ReturnedWith</code> matchers introduced in 29.1.0 (<a href=\"https://github-redirect.dependabot.com/facebook/jest/pull/13339\">#13339</a>)</li>\n<li><code>[jest-worker]</code> Add missing dependency on <code>jest-util</code> (<a href=\"https://github-redirect.dependabot.com/facebook/jest/pull/13341\">#13341</a>)</li>\n</ul>\n<h2>New Contributors</h2>\n<ul>\n<li><a href=\"https://github.com/brunocabral88\"><code>@​brunocabral88</code></a> made their first contribution in <a href=\"https://github-redirect.dependabot.com/facebook/jest/pull/13329\">facebook/jest#13329</a></li>\n<li><a href=\"https://github.com/alexander-akait\"><code>@​alexander-akait</code></a> made their first contribution in <a href=\"https://github-redirect.dependabot.com/facebook/jest/pull/13341\">facebook/jest#13341</a></li>\n</ul>\n<p><strong>Full Changelog</strong>: <a href=\"https://github.com/facebook/jest/compare/v29.1.1...v29.1.2\">https://github.com/facebook/jest/compare/v29.1.1...v29.1.2</a></p>\n<!-- raw HTML omitted -->\n</blockquote>\n<p>... (truncated)</p>\n</details>\n<details>\n<summary>Changelog</summary>\n<p><em>Sourced from <a href=\"https://github.com/facebook/jest/blob/main/CHANGELOG.md\">jest's changelog</a>.</em></p>\n<blockquote>\n<h2>29.2.0</h2>\n<h3>Features</h3>\n<ul>\n<li><code>[@jest/cli, jest-config]</code> A seed for the test run will be randomly generated, or set by a CLI option (<a href=\"https://github-redirect.dependabot.com/facebook/jest/pull/13400\">#13400</a>)</li>\n<li><code>[@jest/cli, jest-config]</code> <code>--show-seed</code> will display the seed value in the report, and can be set via a CLI flag or through the config file (<a href=\"https://github-redirect.dependabot.com/facebook/jest/pull/13400\">#13400</a>)</li>\n<li><code>[jest-config]</code> Add <code>readInitialConfig</code> utility function (<a href=\"https://github-redirect.dependabot.com/facebook/jest/pull/13356\">#13356</a>)</li>\n<li><code>[jest-core]</code> Allow <code>testResultsProcessor</code> to be async (<a href=\"https://github-redirect.dependabot.com/facebook/jest/pull/13343\">#13343</a>)</li>\n<li><code>[@jest/environment, jest-environment-node, jest-environment-jsdom, jest-runtime]</code> Add <code>getSeed()</code> to the <code>jest</code> object (<a href=\"https://github-redirect.dependabot.com/facebook/jest/pull/13400\">#13400</a>)</li>\n<li><code>[expect, @jest/expect-utils]</code> Allow <code>isA</code> utility to take a type argument (<a href=\"https://github-redirect.dependabot.com/facebook/jest/pull/13355\">#13355</a>)</li>\n<li><code>[expect]</code> Expose <code>AsyncExpectationResult</code> and <code>SyncExpectationResult</code> types (<a href=\"https://github-redirect.dependabot.com/facebook/jest/pull/13411\">#13411</a>)</li>\n</ul>\n<h3>Fixes</h3>\n<ul>\n<li><code>[babel-plugin-jest-hoist]</code> Ignore <code>TSTypeQuery</code> when checking for hoisted references (<a href=\"https://github-redirect.dependabot.com/facebook/jest/pull/13367\">#13367</a>)</li>\n<li><code>[jest-core]</code> Fix <code>detectOpenHandles</code> false positives for some special objects such as <code>TLSWRAP</code> (<a href=\"https://github-redirect.dependabot.com/facebook/jest/pull/13414\">#13414</a>)</li>\n<li><code>[jest-mock]</code> Fix mocking of getters and setters on classes (<a href=\"https://github-redirect.dependabot.com/facebook/jest/pull/13398\">#13398</a>)</li>\n<li><code>[jest-reporters]</code> Revert: Transform file paths into hyperlinks (<a href=\"https://github-redirect.dependabot.com/facebook/jest/pull/13399\">#13399</a>)</li>\n<li><code>[@jest/types]</code> Infer type of <code>each</code> table correctly when the table is a tuple or array (<a href=\"https://github-redirect.dependabot.com/facebook/jest/pull/13381\">#13381</a>)</li>\n<li><code>[@jest/types]</code> Rework typings to allow the <code>*ReturnedWith</code> matchers to be called with no argument (<a href=\"https://github-redirect.dependabot.com/facebook/jest/pull/13385\">#13385</a>)</li>\n</ul>\n<h3>Chore &amp; Maintenance</h3>\n<ul>\n<li><code>[*]</code> Update <code>@babel/*</code> deps, resulting in slightly different stack traces for <code>each</code> (<a href=\"https://github-redirect.dependabot.com/facebook/jest/pull/13422\">#13422</a>)</li>\n</ul>\n<h3>Performance</h3>\n<ul>\n<li><code>[jest-runner]</code> Do not instrument v8 coverage data if coverage should not be collected (<a href=\"https://github-redirect.dependabot.com/facebook/jest/pull/13282\">#13282</a>)</li>\n</ul>\n<h2>29.1.2</h2>\n<h3>Fixes</h3>\n<ul>\n<li><code>[expect, @jest/expect]</code> Revert buggy inference of argument types for <code>*CalledWith</code> and <code>*ReturnedWith</code> matchers introduced in 29.1.0 (<a href=\"https://github-redirect.dependabot.com/facebook/jest/pull/13339\">#13339</a>)</li>\n<li><code>[jest-worker]</code> Add missing dependency on <code>jest-util</code> (<a href=\"https://github-redirect.dependabot.com/facebook/jest/pull/13341\">#13341</a>)</li>\n</ul>\n<h2>29.1.1</h2>\n<h3>Fixes</h3>\n<ul>\n<li><code>[jest-mock]</code> Revert <a href=\"https://github-redirect.dependabot.com/facebook/jest/pull/13145\">#13145</a> which broke mocking of transpiled ES modules</li>\n</ul>\n<h2>29.1.0</h2>\n<h3>Features</h3>\n<ul>\n<li><code>[expect, @jest/expect]</code> Support type inference for function parameters in <code>CalledWith</code> assertions (<a href=\"https://github-redirect.dependabot.com/facebook/jest/pull/13268\">#13268</a>)</li>\n<li><code>[expect, @jest/expect]</code> Infer type of <code>*ReturnedWith</code> matchers argument (<a href=\"https://github-redirect.dependabot.com/facebook/jest/pull/13278\">#13278</a>)</li>\n<li><code>[@jest/environment, jest-runtime]</code> Allow <code>jest.requireActual</code> and <code>jest.requireMock</code> to take a type argument (<a href=\"https://github-redirect.dependabot.com/facebook/jest/pull/13253\">#13253</a>)</li>\n<li><code>[@jest/environment]</code> Allow <code>jest.mock</code> and <code>jest.doMock</code> to take a type argument (<a href=\"https://github-redirect.dependabot.com/facebook/jest/pull/13254\">#13254</a>)</li>\n</ul>\n<!-- raw HTML omitted -->\n</blockquote>\n<p>... (truncated)</p>\n</details>\n<details>\n<summary>Commits</summary>\n<ul>\n<li><a href=\"https://github.com/facebook/jest/commit/ee5b37a4f4433afcfffb0356cea47739d8092287\"><code>ee5b37a</code></a> v29.2.0</li>\n<li><a href=\"https://github.com/facebook/jest/commit/22322c9acc3197e43337b5415755823f09f410fe\"><code>22322c9</code></a> refactor: use a single root tsconfig for type tests (<a href=\"https://github.com/facebook/jest/tree/HEAD/packages/jest/issues/13358\">#13358</a>)</li>\n<li><a href=\"https://github.com/facebook/jest/commit/3c31dd619e8c022cde53f40fa12ea2a67f4752ce\"><code>3c31dd6</code></a> v29.1.2</li>\n<li><a href=\"https://github.com/facebook/jest/commit/fd9cd900ad0904421a3d97661fdc3337194da1f9\"><code>fd9cd90</code></a> v29.1.1</li>\n<li><a href=\"https://github.com/facebook/jest/commit/51f10300daf90db003a1749ceaed1084c4f74811\"><code>51f1030</code></a> v29.1.0</li>\n<li><a href=\"https://github.com/facebook/jest/commit/77f865da39af5b3e1c114dc347e49257eb3dcfd1\"><code>77f865d</code></a> v29.0.3</li>\n<li><a href=\"https://github.com/facebook/jest/commit/616fcf56bb8481d29ba29cc34be32a92b1cf85e5\"><code>616fcf5</code></a> v29.0.2</li>\n<li><a href=\"https://github.com/facebook/jest/commit/132e815f95cad24b0ea28cd2f3aecaf8c87b047a\"><code>132e815</code></a> chore: update to TypeScript 4.8 (<a href=\"https://github.com/facebook/jest/tree/HEAD/packages/jest/issues/13177\">#13177</a>)</li>\n<li><a href=\"https://github.com/facebook/jest/commit/b959a3d3bdf324ed1c7358f76ab238a8b0b0cf93\"><code>b959a3d</code></a> v29.0.1</li>\n<li><a href=\"https://github.com/facebook/jest/commit/86de0cb9aceeca742985ec961c123728b6eab021\"><code>86de0cb</code></a> chore: update <code>jest-runner-tsd</code> (<a href=\"https://github.com/facebook/jest/tree/HEAD/packages/jest/issues/13179\">#13179</a>)</li>\n<li>Additional commits viewable in <a href=\"https://github.com/facebook/jest/commits/v29.2.0/packages/jest\">compare view</a></li>\n</ul>\n</details>\n<br />\n\n\n[![Dependabot compatibility score](https://dependabot-badges.githubapp.com/badges/compatibility_score?dependency-name=jest&package-manager=npm_and_yarn&previous-version=27.5.1&new-version=29.2.0)](https://docs.github.com/en/github/managing-security-vulnerabilities/about-dependabot-security-updates#about-compatibility-scores)\n\nDependabot will resolve any conflicts with this PR as long as you don't alter it yourself. You can also trigger a rebase manually by commenting `@dependabot rebase`.\n\n[//]: # (dependabot-automerge-start)\n[//]: # (dependabot-automerge-end)\n\n---\n\n<details>\n<summary>Dependabot commands and options</summary>\n<br />\n\nYou can trigger Dependabot actions by commenting on this PR:\n- `@dependabot rebase` will rebase this PR\n- `@dependabot recreate` will recreate this PR, overwriting any edits that have been made to it\n- `@dependabot merge` will merge this PR after your CI passes on it\n- `@dependabot squash and merge` will squash and merge this PR after your CI passes on it\n- `@dependabot cancel merge` will cancel a previously requested merge and block automerging\n- `@dependabot reopen` will reopen this PR if it is closed\n- `@dependabot close` will close this PR and stop Dependabot recreating it. You can achieve the same result by closing it manually\n- `@dependabot ignore this major version` will close this PR and stop Dependabot creating any more for this major version (unless you reopen the PR or upgrade to it yourself)\n- `@dependabot ignore this minor version` will close this PR and stop Dependabot creating any more for this minor version (unless you reopen the PR or upgrade to it yourself)\n- `@dependabot ignore this dependency` will close this PR and stop Dependabot creating any more for this dependency (unless you reopen the PR or upgrade to it yourself)\n\n\n</details>",
    "changed_files": 1,
    "closed_at": "2022-10-19T00:23:35Z",
    "comment_data": [],
    "comment_regular_data": [
        {
            "author_association": "CONTRIBUTOR",
            "body": "Superseded by #310.",
            "created_at": "2022-10-19T00:23:35Z",
            "html_url": "https://github.com/PrismarineJS/prismarine-viewer/pull/308#issuecomment-1283171351",
            "id": 1283171351,
            "issue_url": "https://api.github.com/repos/PrismarineJS/prismarine-viewer/issues/308",
            "node_id": "IC_kwDOEC0DT85Me6QX",
            "performed_via_github_app": null,
            "reactions": {
                "+1": 0,
                "-1": 0,
                "confused": 0,
                "eyes": 0,
                "heart": 0,
                "hooray": 0,
                "laugh": 0,
                "rocket": 0,
                "total_count": 0,
                "url": "https://api.github.com/repos/PrismarineJS/prismarine-viewer/issues/comments/1283171351/reactions"
            },
            "updated_at": "2022-10-19T00:23:35Z",
            "url": "https://api.github.com/repos/PrismarineJS/prismarine-viewer/issues/comments/1283171351",
            "user": {
                "avatar_url": "https://avatars.githubusercontent.com/in/29110?v=4",
                "events_url": "https://api.github.com/users/dependabot%5Bbot%5D/events{/privacy}",
                "followers_url": "https://api.github.com/users/dependabot%5Bbot%5D/followers",
                "following_url": "https://api.github.com/users/dependabot%5Bbot%5D/following{/other_user}",
                "gists_url": "https://api.github.com/users/dependabot%5Bbot%5D/gists{/gist_id}",
                "gravatar_id": "",
                "html_url": "https://github.com/apps/dependabot",
                "id": 49699333,
                "login": "dependabot[bot]",
                "node_id": "MDM6Qm90NDk2OTkzMzM=",
                "organizations_url": "https://api.github.com/users/dependabot%5Bbot%5D/orgs",
                "received_events_url": "https://api.github.com/users/dependabot%5Bbot%5D/received_events",
                "repos_url": "https://api.github.com/users/dependabot%5Bbot%5D/repos",
                "site_admin": false,
                "starred_url": "https://api.github.com/users/dependabot%5Bbot%5D/starred{/owner}{/repo}",
                "subscriptions_url": "https://api.github.com/users/dependabot%5Bbot%5D/subscriptions",
                "type": "Bot",
                "url": "https://api.github.com/users/dependabot%5Bbot%5D"
            }
        }
    ],
    "comments": 1,
    "comments_url": "https://api.github.com/repos/PrismarineJS/prismarine-viewer/issues/308/comments",
    "commit_data": [
        {
            "author": {
                "avatar_url": "https://avatars.githubusercontent.com/in/29110?v=4",
                "events_url": "https://api.github.com/users/dependabot%5Bbot%5D/events{/privacy}",
                "followers_url": "https://api.github.com/users/dependabot%5Bbot%5D/followers",
                "following_url": "https://api.github.com/users/dependabot%5Bbot%5D/following{/other_user}",
                "gists_url": "https://api.github.com/users/dependabot%5Bbot%5D/gists{/gist_id}",
                "gravatar_id": "",
                "html_url": "https://github.com/apps/dependabot",
                "id": 49699333,
                "login": "dependabot[bot]",
                "node_id": "MDM6Qm90NDk2OTkzMzM=",
                "organizations_url": "https://api.github.com/users/dependabot%5Bbot%5D/orgs",
                "received_events_url": "https://api.github.com/users/dependabot%5Bbot%5D/received_events",
                "repos_url": "https://api.github.com/users/dependabot%5Bbot%5D/repos",
                "site_admin": false,
                "starred_url": "https://api.github.com/users/dependabot%5Bbot%5D/starred{/owner}{/repo}",
                "subscriptions_url": "https://api.github.com/users/dependabot%5Bbot%5D/subscriptions",
                "type": "Bot",
                "url": "https://api.github.com/users/dependabot%5Bbot%5D"
            },
            "comments_url": "https://api.github.com/repos/PrismarineJS/prismarine-viewer/commits/be49e5a6261ca0ad3926e52321eb25c7ab344577/comments",
            "commit": {
                "author": {
                    "date": "2022-10-17T00:45:36Z",
                    "email": "49699333+dependabot[bot]@users.noreply.github.com",
                    "name": "dependabot[bot]"
                },
                "comment_count": 0,
                "committer": {
                    "date": "2022-10-17T00:45:36Z",
                    "email": "noreply@github.com",
                    "name": "GitHub"
                },
                "message": "Bump jest from 27.5.1 to 29.2.0\n\nBumps [jest](https://github.com/facebook/jest/tree/HEAD/packages/jest) from 27.5.1 to 29.2.0.\n- [Release notes](https://github.com/facebook/jest/releases)\n- [Changelog](https://github.com/facebook/jest/blob/main/CHANGELOG.md)\n- [Commits](https://github.com/facebook/jest/commits/v29.2.0/packages/jest)\n\n---\nupdated-dependencies:\n- dependency-name: jest\n  dependency-type: direct:development\n  update-type: version-update:semver-major\n...\n\nSigned-off-by: dependabot[bot] <support@github.com>",
                "tree": {
                    "sha": "afa4bae4d7ec1d04f0085277253673c105174468",
                    "url": "https://api.github.com/repos/PrismarineJS/prismarine-viewer/git/trees/afa4bae4d7ec1d04f0085277253673c105174468"
                },
                "url": "https://api.github.com/repos/PrismarineJS/prismarine-viewer/git/commits/be49e5a6261ca0ad3926e52321eb25c7ab344577",
                "verification": {
                    "payload": "tree afa4bae4d7ec1d04f0085277253673c105174468\nparent 7546af1c1de220638accc764511f0b02e02ab3cc\nauthor dependabot[bot] <49699333+dependabot[bot]@users.noreply.github.com> 1665967536 +0000\ncommitter GitHub <noreply@github.com> 1665967536 +0000\n\nBump jest from 27.5.1 to 29.2.0\n\nBumps [jest](https://github.com/facebook/jest/tree/HEAD/packages/jest) from 27.5.1 to 29.2.0.\n- [Release notes](https://github.com/facebook/jest/releases)\n- [Changelog](https://github.com/facebook/jest/blob/main/CHANGELOG.md)\n- [Commits](https://github.com/facebook/jest/commits/v29.2.0/packages/jest)\n\n---\nupdated-dependencies:\n- dependency-name: jest\n  dependency-type: direct:development\n  update-type: version-update:semver-major\n...\n\nSigned-off-by: dependabot[bot] <support@github.com>",
                    "reason": "valid",
                    "signature": "-----BEGIN PGP SIGNATURE-----\n\nwsBcBAABCAAQBQJjTKWwCRBK7hj4Ov3rIwAADWsIAHX4kMI+B7EfatHn4c4Zg5Da\nTVhkVtId0Kaf4yXYMVnIKkqOvB9eLGOF681DEqW8BK3JIgZp6UwZ6slE/2mybDGh\ndNoe0wfjqCkJovdxgvYZS+qG2MWC61gdzpDq9RqvDhytukiCdyjV7Aa/ZGk1XtRL\nKC4Qd+ur7ZYHmnTDlWZ0ylSzAsu5CpML3dO7v4kEc5SIQeGHOuQTUApc7Ormuspx\nuF5NvlOVMvn7PLLyAZBbTsBsbCgen6YTGJYxkl/qG9T6+Uxj1/In25zXc74uNu/0\nQV+WJATn+O4EDE1kb2XH/ykn88W1zh3KyhHLdS4shfv+kMU1x30HX3BCoshJIvU=\n=VMF7\n-----END PGP SIGNATURE-----\n",
                    "verified": true
                }
            },
            "committer": {
                "avatar_url": "https://avatars.githubusercontent.com/u/19864447?v=4",
                "events_url": "https://api.github.com/users/web-flow/events{/privacy}",
                "followers_url": "https://api.github.com/users/web-flow/followers",
                "following_url": "https://api.github.com/users/web-flow/following{/other_user}",
                "gists_url": "https://api.github.com/users/web-flow/gists{/gist_id}",
                "gravatar_id": "",
                "html_url": "https://github.com/web-flow",
                "id": 19864447,
                "login": "web-flow",
                "node_id": "MDQ6VXNlcjE5ODY0NDQ3",
                "organizations_url": "https://api.github.com/users/web-flow/orgs",
                "received_events_url": "https://api.github.com/users/web-flow/received_events",
                "repos_url": "https://api.github.com/users/web-flow/repos",
                "site_admin": false,
                "starred_url": "https://api.github.com/users/web-flow/starred{/owner}{/repo}",
                "subscriptions_url": "https://api.github.com/users/web-flow/subscriptions",
                "type": "User",
                "url": "https://api.github.com/users/web-flow"
            },
            "html_url": "https://github.com/PrismarineJS/prismarine-viewer/commit/be49e5a6261ca0ad3926e52321eb25c7ab344577",
            "node_id": "C_kwDOEC0DT9oAKGJlNDllNWE2MjYxY2EwYWQzOTI2ZTUyMzIxZWIyNWM3YWIzNDQ1Nzc",
            "parents": [
                {
                    "html_url": "https://github.com/PrismarineJS/prismarine-viewer/commit/7546af1c1de220638accc764511f0b02e02ab3cc",
                    "sha": "7546af1c1de220638accc764511f0b02e02ab3cc",
                    "url": "https://api.github.com/repos/PrismarineJS/prismarine-viewer/commits/7546af1c1de220638accc764511f0b02e02ab3cc"
                }
            ],
            "sha": "be49e5a6261ca0ad3926e52321eb25c7ab344577",
            "url": "https://api.github.com/repos/PrismarineJS/prismarine-viewer/commits/be49e5a6261ca0ad3926e52321eb25c7ab344577"
        }
    ],
    "commits": 1,
    "commits_url": "https://api.github.com/repos/PrismarineJS/prismarine-viewer/pulls/308/commits",
    "created_at": "2022-10-17T00:45:37Z",
    "deletions": 1,
    "diff_url": "https://github.com/PrismarineJS/prismarine-viewer/pull/308.diff",
    "draft": false,
    "head": {
        "label": "PrismarineJS:dependabot/npm_and_yarn/jest-29.2.0",
        "ref": "dependabot/npm_and_yarn/jest-29.2.0",
        "repo": {
            "allow_forking": true,
            "archive_url": "https://api.github.com/repos/PrismarineJS/prismarine-viewer/{archive_format}{/ref}",
            "archived": false,
            "assignees_url": "https://api.github.com/repos/PrismarineJS/prismarine-viewer/assignees{/user}",
            "blobs_url": "https://api.github.com/repos/PrismarineJS/prismarine-viewer/git/blobs{/sha}",
            "branches_url": "https://api.github.com/repos/PrismarineJS/prismarine-viewer/branches{/branch}",
            "clone_url": "https://github.com/PrismarineJS/prismarine-viewer.git",
            "collaborators_url": "https://api.github.com/repos/PrismarineJS/prismarine-viewer/collaborators{/collaborator}",
            "comments_url": "https://api.github.com/repos/PrismarineJS/prismarine-viewer/comments{/number}",
            "commits_url": "https://api.github.com/repos/PrismarineJS/prismarine-viewer/commits{/sha}",
            "compare_url": "https://api.github.com/repos/PrismarineJS/prismarine-viewer/compare/{base}...{head}",
            "contents_url": "https://api.github.com/repos/PrismarineJS/prismarine-viewer/contents/{+path}",
            "contributors_url": "https://api.github.com/repos/PrismarineJS/prismarine-viewer/contributors",
            "created_at": "2020-06-10T21:05:49Z",
            "default_branch": "master",
            "deployments_url": "https://api.github.com/repos/PrismarineJS/prismarine-viewer/deployments",
            "description": "Web based viewer for servers and bots",
            "disabled": false,
            "downloads_url": "https://api.github.com/repos/PrismarineJS/prismarine-viewer/downloads",
            "events_url": "https://api.github.com/repos/PrismarineJS/prismarine-viewer/events",
            "fork": false,
            "forks": 57,
            "forks_count": 57,
            "forks_url": "https://api.github.com/repos/PrismarineJS/prismarine-viewer/forks",
            "full_name": "PrismarineJS/prismarine-viewer",
            "git_commits_url": "https://api.github.com/repos/PrismarineJS/prismarine-viewer/git/commits{/sha}",
            "git_refs_url": "https://api.github.com/repos/PrismarineJS/prismarine-viewer/git/refs{/sha}",
            "git_tags_url": "https://api.github.com/repos/PrismarineJS/prismarine-viewer/git/tags{/sha}",
            "git_url": "git://github.com/PrismarineJS/prismarine-viewer.git",
            "has_discussions": false,
            "has_downloads": true,
            "has_issues": true,
            "has_pages": true,
            "has_projects": true,
            "has_wiki": true,
            "homepage": "https://prismarinejs.github.io/prismarine-viewer/",
            "hooks_url": "https://api.github.com/repos/PrismarineJS/prismarine-viewer/hooks",
            "html_url": "https://github.com/PrismarineJS/prismarine-viewer",
            "id": 271385423,
            "is_template": false,
            "issue_comment_url": "https://api.github.com/repos/PrismarineJS/prismarine-viewer/issues/comments{/number}",
            "issue_events_url": "https://api.github.com/repos/PrismarineJS/prismarine-viewer/issues/events{/number}",
            "issues_url": "https://api.github.com/repos/PrismarineJS/prismarine-viewer/issues{/number}",
            "keys_url": "https://api.github.com/repos/PrismarineJS/prismarine-viewer/keys{/key_id}",
            "labels_url": "https://api.github.com/repos/PrismarineJS/prismarine-viewer/labels{/name}",
            "language": "JavaScript",
            "languages_url": "https://api.github.com/repos/PrismarineJS/prismarine-viewer/languages",
            "license": {
                "key": "mit",
                "name": "MIT License",
                "node_id": "MDc6TGljZW5zZTEz",
                "spdx_id": "MIT",
                "url": "https://api.github.com/licenses/mit"
            },
            "merges_url": "https://api.github.com/repos/PrismarineJS/prismarine-viewer/merges",
            "milestones_url": "https://api.github.com/repos/PrismarineJS/prismarine-viewer/milestones{/number}",
            "mirror_url": null,
            "name": "prismarine-viewer",
            "node_id": "MDEwOlJlcG9zaXRvcnkyNzEzODU0MjM=",
            "notifications_url": "https://api.github.com/repos/PrismarineJS/prismarine-viewer/notifications{?since,all,participating}",
            "open_issues": 69,
            "open_issues_count": 69,
            "owner": {
                "avatar_url": "https://avatars.githubusercontent.com/u/11053411?v=4",
                "events_url": "https://api.github.com/users/PrismarineJS/events{/privacy}",
                "followers_url": "https://api.github.com/users/PrismarineJS/followers",
                "following_url": "https://api.github.com/users/PrismarineJS/following{/other_user}",
                "gists_url": "https://api.github.com/users/PrismarineJS/gists{/gist_id}",
                "gravatar_id": "",
                "html_url": "https://github.com/PrismarineJS",
                "id": 11053411,
                "login": "PrismarineJS",
                "node_id": "MDEyOk9yZ2FuaXphdGlvbjExMDUzNDEx",
                "organizations_url": "https://api.github.com/users/PrismarineJS/orgs",
                "received_events_url": "https://api.github.com/users/PrismarineJS/received_events",
                "repos_url": "https://api.github.com/users/PrismarineJS/repos",
                "site_admin": false,
                "starred_url": "https://api.github.com/users/PrismarineJS/starred{/owner}{/repo}",
                "subscriptions_url": "https://api.github.com/users/PrismarineJS/subscriptions",
                "type": "Organization",
                "url": "https://api.github.com/users/PrismarineJS"
            },
            "private": false,
            "pulls_url": "https://api.github.com/repos/PrismarineJS/prismarine-viewer/pulls{/number}",
            "pushed_at": "2023-04-25T00:59:53Z",
            "releases_url": "https://api.github.com/repos/PrismarineJS/prismarine-viewer/releases{/id}",
            "size": 309473,
            "ssh_url": "git@github.com:PrismarineJS/prismarine-viewer.git",
            "stargazers_count": 168,
            "stargazers_url": "https://api.github.com/repos/PrismarineJS/prismarine-viewer/stargazers",
            "statuses_url": "https://api.github.com/repos/PrismarineJS/prismarine-viewer/statuses/{sha}",
            "subscribers_url": "https://api.github.com/repos/PrismarineJS/prismarine-viewer/subscribers",
            "subscription_url": "https://api.github.com/repos/PrismarineJS/prismarine-viewer/subscription",
            "svn_url": "https://github.com/PrismarineJS/prismarine-viewer",
            "tags_url": "https://api.github.com/repos/PrismarineJS/prismarine-viewer/tags",
            "teams_url": "https://api.github.com/repos/PrismarineJS/prismarine-viewer/teams",
            "topics": [],
            "trees_url": "https://api.github.com/repos/PrismarineJS/prismarine-viewer/git/trees{/sha}",
            "updated_at": "2023-04-24T03:47:17Z",
            "url": "https://api.github.com/repos/PrismarineJS/prismarine-viewer",
            "visibility": "public",
            "watchers": 168,
            "watchers_count": 168,
            "web_commit_signoff_required": false
        },
        "sha": "be49e5a6261ca0ad3926e52321eb25c7ab344577",
        "user": {
            "avatar_url": "https://avatars.githubusercontent.com/u/11053411?v=4",
            "events_url": "https://api.github.com/users/PrismarineJS/events{/privacy}",
            "followers_url": "https://api.github.com/users/PrismarineJS/followers",
            "following_url": "https://api.github.com/users/PrismarineJS/following{/other_user}",
            "gists_url": "https://api.github.com/users/PrismarineJS/gists{/gist_id}",
            "gravatar_id": "",
            "html_url": "https://github.com/PrismarineJS",
            "id": 11053411,
            "login": "PrismarineJS",
            "node_id": "MDEyOk9yZ2FuaXphdGlvbjExMDUzNDEx",
            "organizations_url": "https://api.github.com/users/PrismarineJS/orgs",
            "received_events_url": "https://api.github.com/users/PrismarineJS/received_events",
            "repos_url": "https://api.github.com/users/PrismarineJS/repos",
            "site_admin": false,
            "starred_url": "https://api.github.com/users/PrismarineJS/starred{/owner}{/repo}",
            "subscriptions_url": "https://api.github.com/users/PrismarineJS/subscriptions",
            "type": "Organization",
            "url": "https://api.github.com/users/PrismarineJS"
        }
    },
    "html_url": "https://github.com/PrismarineJS/prismarine-viewer/pull/308",
    "id": 1088569611,
    "issue_url": "https://api.github.com/repos/PrismarineJS/prismarine-viewer/issues/308",
    "labels": [
        {
            "color": "0366d6",
            "default": false,
            "description": "Pull requests that update a dependency file",
            "id": 2474655629,
            "name": "dependencies",
            "node_id": "MDU6TGFiZWwyNDc0NjU1NjI5",
            "url": "https://api.github.com/repos/PrismarineJS/prismarine-viewer/labels/dependencies"
        }
    ],
    "locked": false,
    "maintainer_can_modify": false,
    "merge_commit_sha": "630cec27a24b51a65d050a80141c5538da12ff44",
    "mergeable": null,
    "mergeable_state": "unknown",
    "merged": false,
    "merged_at": null,
    "merged_by": null,
    "milestone": null,
    "node_id": "PR_kwDOEC0DT85A4kEL",
    "number": 308,
    "patch_url": "https://github.com/PrismarineJS/prismarine-viewer/pull/308.patch",
    "rebaseable": null,
    "requested_reviewers": [],
    "requested_teams": [],
    "review_comment_url": "https://api.github.com/repos/PrismarineJS/prismarine-viewer/pulls/comments{/number}",
    "review_comments": 0,
    "review_comments_url": "https://api.github.com/repos/PrismarineJS/prismarine-viewer/pulls/308/comments",
    "state": "closed",
    "statuses_url": "https://api.github.com/repos/PrismarineJS/prismarine-viewer/statuses/be49e5a6261ca0ad3926e52321eb25c7ab344577",
    "title": "Bump jest from 27.5.1 to 29.2.0",
    "updated_at": "2022-10-19T00:23:37Z",
    "url": "https://api.github.com/repos/PrismarineJS/prismarine-viewer/pulls/308",
    "user": {
        "avatar_url": "https://avatars.githubusercontent.com/in/29110?v=4",
        "events_url": "https://api.github.com/users/dependabot%5Bbot%5D/events{/privacy}",
        "followers_url": "https://api.github.com/users/dependabot%5Bbot%5D/followers",
        "following_url": "https://api.github.com/users/dependabot%5Bbot%5D/following{/other_user}",
        "gists_url": "https://api.github.com/users/dependabot%5Bbot%5D/gists{/gist_id}",
        "gravatar_id": "",
        "html_url": "https://github.com/apps/dependabot",
        "id": 49699333,
        "login": "dependabot[bot]",
        "node_id": "MDM6Qm90NDk2OTkzMzM=",
        "organizations_url": "https://api.github.com/users/dependabot%5Bbot%5D/orgs",
        "received_events_url": "https://api.github.com/users/dependabot%5Bbot%5D/received_events",
        "repos_url": "https://api.github.com/users/dependabot%5Bbot%5D/repos",
        "site_admin": false,
        "starred_url": "https://api.github.com/users/dependabot%5Bbot%5D/starred{/owner}{/repo}",
        "subscriptions_url": "https://api.github.com/users/dependabot%5Bbot%5D/subscriptions",
        "type": "Bot",
        "url": "https://api.github.com/users/dependabot%5Bbot%5D"
    }
}