{
    "_links": {
        "comments": {
            "href": "https://api.github.com/repos/PrismarineJS/prismarine-viewer/issues/445/comments"
        },
        "commits": {
            "href": "https://api.github.com/repos/PrismarineJS/prismarine-viewer/pulls/445/commits"
        },
        "html": {
            "href": "https://github.com/PrismarineJS/prismarine-viewer/pull/445"
        },
        "issue": {
            "href": "https://api.github.com/repos/PrismarineJS/prismarine-viewer/issues/445"
        },
        "review_comment": {
            "href": "https://api.github.com/repos/PrismarineJS/prismarine-viewer/pulls/comments{/number}"
        },
        "review_comments": {
            "href": "https://api.github.com/repos/PrismarineJS/prismarine-viewer/pulls/445/comments"
        },
        "self": {
            "href": "https://api.github.com/repos/PrismarineJS/prismarine-viewer/pulls/445"
        },
        "statuses": {
            "href": "https://api.github.com/repos/PrismarineJS/prismarine-viewer/statuses/a1aafe934d9ff305d7e2a6f63165df173bb0f3b0"
        }
    },
    "active_lock_reason": null,
    "additions": 1,
    "assignee": null,
    "assignees": [],
    "author_association": "CONTRIBUTOR",
    "auto_merge": null,
    "base": {
        "label": "PrismarineJS:master",
        "ref": "master",
        "repo": {
            "allow_forking": true,
            "archive_url": "https://api.github.com/repos/PrismarineJS/prismarine-viewer/{archive_format}{/ref}",
            "archived": false,
            "assignees_url": "https://api.github.com/repos/PrismarineJS/prismarine-viewer/assignees{/user}",
            "blobs_url": "https://api.github.com/repos/PrismarineJS/prismarine-viewer/git/blobs{/sha}",
            "branches_url": "https://api.github.com/repos/PrismarineJS/prismarine-viewer/branches{/branch}",
            "clone_url": "https://github.com/PrismarineJS/prismarine-viewer.git",
            "collaborators_url": "https://api.github.com/repos/PrismarineJS/prismarine-viewer/collaborators{/collaborator}",
            "comments_url": "https://api.github.com/repos/PrismarineJS/prismarine-viewer/comments{/number}",
            "commits_url": "https://api.github.com/repos/PrismarineJS/prismarine-viewer/commits{/sha}",
            "compare_url": "https://api.github.com/repos/PrismarineJS/prismarine-viewer/compare/{base}...{head}",
            "contents_url": "https://api.github.com/repos/PrismarineJS/prismarine-viewer/contents/{+path}",
            "contributors_url": "https://api.github.com/repos/PrismarineJS/prismarine-viewer/contributors",
            "created_at": "2020-06-10T21:05:49Z",
            "default_branch": "master",
            "deployments_url": "https://api.github.com/repos/PrismarineJS/prismarine-viewer/deployments",
            "description": "Web based viewer for servers and bots",
            "disabled": false,
            "downloads_url": "https://api.github.com/repos/PrismarineJS/prismarine-viewer/downloads",
            "events_url": "https://api.github.com/repos/PrismarineJS/prismarine-viewer/events",
            "fork": false,
            "forks": 77,
            "forks_count": 77,
            "forks_url": "https://api.github.com/repos/PrismarineJS/prismarine-viewer/forks",
            "full_name": "PrismarineJS/prismarine-viewer",
            "git_commits_url": "https://api.github.com/repos/PrismarineJS/prismarine-viewer/git/commits{/sha}",
            "git_refs_url": "https://api.github.com/repos/PrismarineJS/prismarine-viewer/git/refs{/sha}",
            "git_tags_url": "https://api.github.com/repos/PrismarineJS/prismarine-viewer/git/tags{/sha}",
            "git_url": "git://github.com/PrismarineJS/prismarine-viewer.git",
            "has_discussions": false,
            "has_downloads": true,
            "has_issues": true,
            "has_pages": true,
            "has_projects": true,
            "has_wiki": true,
            "homepage": "https://prismarinejs.github.io/prismarine-viewer/",
            "hooks_url": "https://api.github.com/repos/PrismarineJS/prismarine-viewer/hooks",
            "html_url": "https://github.com/PrismarineJS/prismarine-viewer",
            "id": 271385423,
            "is_template": false,
            "issue_comment_url": "https://api.github.com/repos/PrismarineJS/prismarine-viewer/issues/comments{/number}",
            "issue_events_url": "https://api.github.com/repos/PrismarineJS/prismarine-viewer/issues/events{/number}",
            "issues_url": "https://api.github.com/repos/PrismarineJS/prismarine-viewer/issues{/number}",
            "keys_url": "https://api.github.com/repos/PrismarineJS/prismarine-viewer/keys{/key_id}",
            "labels_url": "https://api.github.com/repos/PrismarineJS/prismarine-viewer/labels{/name}",
            "language": "JavaScript",
            "languages_url": "https://api.github.com/repos/PrismarineJS/prismarine-viewer/languages",
            "license": {
                "key": "mit",
                "name": "MIT License",
                "node_id": "MDc6TGljZW5zZTEz",
                "spdx_id": "MIT",
                "url": "https://api.github.com/licenses/mit"
            },
            "merges_url": "https://api.github.com/repos/PrismarineJS/prismarine-viewer/merges",
            "milestones_url": "https://api.github.com/repos/PrismarineJS/prismarine-viewer/milestones{/number}",
            "mirror_url": null,
            "name": "prismarine-viewer",
            "node_id": "MDEwOlJlcG9zaXRvcnkyNzEzODU0MjM=",
            "notifications_url": "https://api.github.com/repos/PrismarineJS/prismarine-viewer/notifications{?since,all,participating}",
            "open_issues": 69,
            "open_issues_count": 69,
            "owner": {
                "avatar_url": "https://avatars.githubusercontent.com/u/11053411?v=4",
                "events_url": "https://api.github.com/users/PrismarineJS/events{/privacy}",
                "followers_url": "https://api.github.com/users/PrismarineJS/followers",
                "following_url": "https://api.github.com/users/PrismarineJS/following{/other_user}",
                "gists_url": "https://api.github.com/users/PrismarineJS/gists{/gist_id}",
                "gravatar_id": "",
                "html_url": "https://github.com/PrismarineJS",
                "id": 11053411,
                "login": "PrismarineJS",
                "node_id": "MDEyOk9yZ2FuaXphdGlvbjExMDUzNDEx",
                "organizations_url": "https://api.github.com/users/PrismarineJS/orgs",
                "received_events_url": "https://api.github.com/users/PrismarineJS/received_events",
                "repos_url": "https://api.github.com/users/PrismarineJS/repos",
                "site_admin": false,
                "starred_url": "https://api.github.com/users/PrismarineJS/starred{/owner}{/repo}",
                "subscriptions_url": "https://api.github.com/users/PrismarineJS/subscriptions",
                "type": "Organization",
                "url": "https://api.github.com/users/PrismarineJS",
                "user_view_type": "public"
            },
            "private": false,
            "pulls_url": "https://api.github.com/repos/PrismarineJS/prismarine-viewer/pulls{/number}",
            "pushed_at": "2025-01-01T00:05:29Z",
            "releases_url": "https://api.github.com/repos/PrismarineJS/prismarine-viewer/releases{/id}",
            "size": 312167,
            "ssh_url": "git@github.com:PrismarineJS/prismarine-viewer.git",
            "stargazers_count": 280,
            "stargazers_url": "https://api.github.com/repos/PrismarineJS/prismarine-viewer/stargazers",
            "statuses_url": "https://api.github.com/repos/PrismarineJS/prismarine-viewer/statuses/{sha}",
            "subscribers_url": "https://api.github.com/repos/PrismarineJS/prismarine-viewer/subscribers",
            "subscription_url": "https://api.github.com/repos/PrismarineJS/prismarine-viewer/subscription",
            "svn_url": "https://github.com/PrismarineJS/prismarine-viewer",
            "tags_url": "https://api.github.com/repos/PrismarineJS/prismarine-viewer/tags",
            "teams_url": "https://api.github.com/repos/PrismarineJS/prismarine-viewer/teams",
            "topics": [],
            "trees_url": "https://api.github.com/repos/PrismarineJS/prismarine-viewer/git/trees{/sha}",
            "updated_at": "2024-12-27T09:35:50Z",
            "url": "https://api.github.com/repos/PrismarineJS/prismarine-viewer",
            "visibility": "public",
            "watchers": 280,
            "watchers_count": 280,
            "web_commit_signoff_required": false
        },
        "sha": "db8bfb0f9745d4b26ce73e07b9b92c586e727117",
        "user": {
            "avatar_url": "https://avatars.githubusercontent.com/u/11053411?v=4",
            "events_url": "https://api.github.com/users/PrismarineJS/events{/privacy}",
            "followers_url": "https://api.github.com/users/PrismarineJS/followers",
            "following_url": "https://api.github.com/users/PrismarineJS/following{/other_user}",
            "gists_url": "https://api.github.com/users/PrismarineJS/gists{/gist_id}",
            "gravatar_id": "",
            "html_url": "https://github.com/PrismarineJS",
            "id": 11053411,
            "login": "PrismarineJS",
            "node_id": "MDEyOk9yZ2FuaXphdGlvbjExMDUzNDEx",
            "organizations_url": "https://api.github.com/users/PrismarineJS/orgs",
            "received_events_url": "https://api.github.com/users/PrismarineJS/received_events",
            "repos_url": "https://api.github.com/users/PrismarineJS/repos",
            "site_admin": false,
            "starred_url": "https://api.github.com/users/PrismarineJS/starred{/owner}{/repo}",
            "subscriptions_url": "https://api.github.com/users/PrismarineJS/subscriptions",
            "type": "Organization",
            "url": "https://api.github.com/users/PrismarineJS",
            "user_view_type": "public"
        }
    },
    "body": "Bumps [canvas](https://github.com/Automattic/node-canvas) from 2.11.2 to 3.0.0.\n<details>\n<summary>Release notes</summary>\n<p><em>Sourced from <a href=\"https://github.com/Automattic/node-canvas/releases\">canvas's releases</a>.</em></p>\n<blockquote>\n<h2>v3.0.0</h2>\n<h1>3.0.0</h1>\n<p>This release notably changes to using N-API. 🎉</p>\n<h3>Breaking</h3>\n<ul>\n<li>Dropped support for Node.js 16.x and below.</li>\n</ul>\n<h3>Changed</h3>\n<ul>\n<li>Migrated to N-API (by way of node-addon-api) and removed libuv and v8 dependencies</li>\n<li>Change from node-pre-gyp to prebuild-install</li>\n<li>Defer the initialization of the <code>op</code> variable to the <code>default</code> switch case to avoid a compiler warning. (<a href=\"https://redirect.github.com/Automattic/node-canvas/issues/2229\">#2229</a>)</li>\n<li>Use a <code>default</code> switch case with a null statement if some enum values aren't suppsed to be handled, this avoids a compiler warning. (<a href=\"https://redirect.github.com/Automattic/node-canvas/issues/2229\">#2229</a>)</li>\n<li>Migrate from librsvg's deprecated <code>rsvg_handle_get_dimensions()</code> and <code>rsvg_handle_render_cairo()</code> functions to the new <code>rsvg_handle_get_intrinsic_size_in_pixels()</code> and <code>rsvg_handle_render_document()</code> respectively. (<a href=\"https://redirect.github.com/Automattic/node-canvas/issues/2229\">#2229</a>)</li>\n<li>Avoid calling virtual methods in constructors/destructors to avoid bypassing virtual dispatch. (<a href=\"https://redirect.github.com/Automattic/node-canvas/issues/2229\">#2229</a>)</li>\n<li>Remove unused private field <code>backend</code> in the <code>Backend</code> class. (<a href=\"https://redirect.github.com/Automattic/node-canvas/issues/2229\">#2229</a>)</li>\n<li>Add Node.js v20 to CI. (<a href=\"https://redirect.github.com/Automattic/node-canvas/issues/2237\">#2237</a>)</li>\n<li>Replaced <code>dtslint</code> with <code>tsd</code> (<a href=\"https://redirect.github.com/Automattic/node-canvas/issues/2313\">#2313</a>)</li>\n<li>Changed PNG consts to static properties of Canvas class</li>\n<li>Reverted improved font matching on Linux (<a href=\"https://redirect.github.com/Automattic/node-canvas/issues/1572\">#1572</a>) because it doesn't work if fonts are installed. If you experience degraded font selection, please file an issue and use v3.0.0-rc3 in the meantime.</li>\n</ul>\n<h3>Added</h3>\n<ul>\n<li>Added string tags to support class detection</li>\n<li>Throw Cairo errors in canvas.toBuffer()</li>\n</ul>\n<h3>Fixed</h3>\n<ul>\n<li>Fix a case of use-after-free. (<a href=\"https://redirect.github.com/Automattic/node-canvas/issues/2229\">#2229</a>)</li>\n<li>Fix usage of garbage value by filling the allocated memory entirely with zeros if it's not modified. (<a href=\"https://redirect.github.com/Automattic/node-canvas/issues/2229\">#2229</a>)</li>\n<li>Fix a potential memory leak. (<a href=\"https://redirect.github.com/Automattic/node-canvas/issues/2229\">#2229</a>)</li>\n<li>Fix the wrong type of setTransform</li>\n<li>Fix the improper parsing of rgb functions issue. (<a href=\"https://redirect.github.com/Automattic/node-canvas/issues/2300\">#2300</a>)</li>\n<li>Fix issue related to improper parsing of leading and trailing whitespaces in CSS color. (<a href=\"https://redirect.github.com/Automattic/node-canvas/issues/2301\">#2301</a>)</li>\n<li>RGB functions should support real numbers now instead of just integers. (<a href=\"https://redirect.github.com/Automattic/node-canvas/issues/2339\">#2339</a>)</li>\n<li>Allow alternate or properly escaped quotes <em>within</em> font-family names</li>\n<li>Fix TextMetrics type to include alphabeticBaseline, emHeightAscent, and emHeightDescent properties</li>\n<li>Fix class properties should have defaults as standard js classes (<a href=\"https://redirect.github.com/Automattic/node-canvas/issues/2390\">#2390</a>)</li>\n<li>Fixed Exif orientation in JPEG files being ignored (<a href=\"https://redirect.github.com/Automattic/node-canvas/issues/1670\">#1670</a>)</li>\n<li>Align DOMMatrix/DOMPoint to spec by adding missing methods</li>\n</ul>\n<h2>v3.0.0-rc3</h2>\n<p>This release notably changes to using N-API. 🎉</p>\n<h3>Breaking</h3>\n<ul>\n<li>Dropped support for Node.js 16.x and below.</li>\n</ul>\n<h3>Changed</h3>\n<ul>\n<li>Migrated to N-API (by way of node-addon-api) and removed libuv and v8 dependencies</li>\n<li>Change from node-pre-gyp to prebuild-install</li>\n<li>Defer the initialization of the <code>op</code> variable to the <code>default</code> switch case to avoid a compiler warning. (<a href=\"https://redirect.github.com/Automattic/node-canvas/issues/2229\">#2229</a>)</li>\n<li>Use a <code>default</code> switch case with a null statement if some enum values aren't suppsed to be handled, this avoids a compiler warning. (<a href=\"https://redirect.github.com/Automattic/node-canvas/issues/2229\">#2229</a>)</li>\n<li>Migrate from librsvg's deprecated <code>rsvg_handle_get_dimensions()</code> and <code>rsvg_handle_render_cairo()</code> functions to the new <code>rsvg_handle_get_intrinsic_size_in_pixels()</code> and <code>rsvg_handle_render_document()</code> respectively. (<a href=\"https://redirect.github.com/Automattic/node-canvas/issues/2229\">#2229</a>)</li>\n<li>Avoid calling virtual methods in constructors/destructors to avoid bypassing virtual dispatch. (<a href=\"https://redirect.github.com/Automattic/node-canvas/issues/2229\">#2229</a>)</li>\n</ul>\n<!-- raw HTML omitted -->\n</blockquote>\n<p>... (truncated)</p>\n</details>\n<details>\n<summary>Changelog</summary>\n<p><em>Sourced from <a href=\"https://github.com/Automattic/node-canvas/blob/master/CHANGELOG.md\">canvas's changelog</a>.</em></p>\n<blockquote>\n<h1>3.0.0</h1>\n<p>This release notably changes to using N-API. 🎉</p>\n<h3>Breaking</h3>\n<ul>\n<li>Dropped support for Node.js 16.x and below.</li>\n</ul>\n<h3>Changed</h3>\n<ul>\n<li>Migrated to N-API (by way of node-addon-api) and removed libuv and v8 dependencies</li>\n<li>Change from node-pre-gyp to prebuild-install</li>\n<li>Defer the initialization of the <code>op</code> variable to the <code>default</code> switch case to avoid a compiler warning. (<a href=\"https://redirect.github.com/Automattic/node-canvas/issues/2229\">#2229</a>)</li>\n<li>Use a <code>default</code> switch case with a null statement if some enum values aren't suppsed to be handled, this avoids a compiler warning. (<a href=\"https://redirect.github.com/Automattic/node-canvas/issues/2229\">#2229</a>)</li>\n<li>Migrate from librsvg's deprecated <code>rsvg_handle_get_dimensions()</code> and <code>rsvg_handle_render_cairo()</code> functions to the new <code>rsvg_handle_get_intrinsic_size_in_pixels()</code> and <code>rsvg_handle_render_document()</code> respectively. (<a href=\"https://redirect.github.com/Automattic/node-canvas/issues/2229\">#2229</a>)</li>\n<li>Avoid calling virtual methods in constructors/destructors to avoid bypassing virtual dispatch. (<a href=\"https://redirect.github.com/Automattic/node-canvas/issues/2229\">#2229</a>)</li>\n<li>Remove unused private field <code>backend</code> in the <code>Backend</code> class. (<a href=\"https://redirect.github.com/Automattic/node-canvas/issues/2229\">#2229</a>)</li>\n<li>Add Node.js v20 to CI. (<a href=\"https://redirect.github.com/Automattic/node-canvas/issues/2237\">#2237</a>)</li>\n<li>Replaced <code>dtslint</code> with <code>tsd</code> (<a href=\"https://redirect.github.com/Automattic/node-canvas/issues/2313\">#2313</a>)</li>\n<li>Changed PNG consts to static properties of Canvas class</li>\n<li>Reverted improved font matching on Linux (<a href=\"https://redirect.github.com/Automattic/node-canvas/issues/1572\">#1572</a>) because it doesn't work if fonts are installed. If you experience degraded font selection, please file an issue and use v3.0.0-rc3 in the meantime.</li>\n</ul>\n<h3>Added</h3>\n<ul>\n<li>Added string tags to support class detection</li>\n<li>Throw Cairo errors in canvas.toBuffer()</li>\n</ul>\n<h3>Fixed</h3>\n<ul>\n<li>Fix a case of use-after-free. (<a href=\"https://redirect.github.com/Automattic/node-canvas/issues/2229\">#2229</a>)</li>\n<li>Fix usage of garbage value by filling the allocated memory entirely with zeros if it's not modified. (<a href=\"https://redirect.github.com/Automattic/node-canvas/issues/2229\">#2229</a>)</li>\n<li>Fix a potential memory leak. (<a href=\"https://redirect.github.com/Automattic/node-canvas/issues/2229\">#2229</a>)</li>\n<li>Fix the wrong type of setTransform</li>\n<li>Fix the improper parsing of rgb functions issue. (<a href=\"https://redirect.github.com/Automattic/node-canvas/issues/2300\">#2300</a>)</li>\n<li>Fix issue related to improper parsing of leading and trailing whitespaces in CSS color. (<a href=\"https://redirect.github.com/Automattic/node-canvas/issues/2301\">#2301</a>)</li>\n<li>RGB functions should support real numbers now instead of just integers. (<a href=\"https://redirect.github.com/Automattic/node-canvas/issues/2339\">#2339</a>)</li>\n<li>Allow alternate or properly escaped quotes <em>within</em> font-family names</li>\n<li>Fix TextMetrics type to include alphabeticBaseline, emHeightAscent, and emHeightDescent properties</li>\n<li>Fix class properties should have defaults as standard js classes (<a href=\"https://redirect.github.com/Automattic/node-canvas/issues/2390\">#2390</a>)</li>\n<li>Fixed Exif orientation in JPEG files being ignored (<a href=\"https://redirect.github.com/Automattic/node-canvas/issues/1670\">#1670</a>)</li>\n<li>Align DOMMatrix/DOMPoint to spec by adding missing methods</li>\n</ul>\n</blockquote>\n</details>\n<details>\n<summary>Commits</summary>\n<ul>\n<li><a href=\"https://github.com/Automattic/node-canvas/commit/834651230003e8ea63d5945f4bd1ef4371ec3c63\"><code>8346512</code></a> v3.0.0</li>\n<li><a href=\"https://github.com/Automattic/node-canvas/commit/a8c035f6280e3de0682ff3fb3d43ce617db6e0fb\"><code>a8c035f</code></a> Revert &quot;select fonts via postscript name on Linux&quot;</li>\n<li><a href=\"https://github.com/Automattic/node-canvas/commit/f5894dbe8e2da7cb7d0eb763a7ca55bb0e0274fc\"><code>f5894db</code></a> fix(DOMMatrix/DOMPoint): spec compatibility</li>\n<li><a href=\"https://github.com/Automattic/node-canvas/commit/b6b2dc760bfe983ebf0ac8e19d09b90ab03c3ed2\"><code>b6b2dc7</code></a> modernize node version matrix</li>\n<li><a href=\"https://github.com/Automattic/node-canvas/commit/d0278832f70e0b0a06e1e3441596d402b75a7fe8\"><code>d027883</code></a> update README wrt macOS/aarch64</li>\n<li><a href=\"https://github.com/Automattic/node-canvas/commit/19a33287c4c571264f1d062e92d311bafb1685aa\"><code>19a3328</code></a> v3.0.0-rc3</li>\n<li><a href=\"https://github.com/Automattic/node-canvas/commit/22820e1dacc420524af462bde14f0bf88be8c7c4\"><code>22820e1</code></a> fix macos ci config (macos-12 was deleted)</li>\n<li><a href=\"https://github.com/Automattic/node-canvas/commit/d1ea3f82003773fd06a27644faf1b7b86113e505\"><code>d1ea3f8</code></a> fix windows ci config (url went dead)</li>\n<li><a href=\"https://github.com/Automattic/node-canvas/commit/8983c4ac2a4cf59c4091c3492db9d251e28ea93a\"><code>8983c4a</code></a> fix windows build (<a href=\"https://redirect.github.com/Automattic/node-canvas/issues/2458\">#2458</a>)</li>\n<li><a href=\"https://github.com/Automattic/node-canvas/commit/77f0b99d10dd11a911607aa8abca9e4022adb8c6\"><code>77f0b99</code></a> Handle Exif orientations for JPEG images (fixes <a href=\"https://redirect.github.com/Automattic/node-canvas/issues/1670\">#1670</a>) (<a href=\"https://redirect.github.com/Automattic/node-canvas/issues/2296\">#2296</a>)</li>\n<li>Additional commits viewable in <a href=\"https://github.com/Automattic/node-canvas/compare/v2.11.2...v3.0.0\">compare view</a></li>\n</ul>\n</details>\n<br />\n\n\n[![Dependabot compatibility score](https://dependabot-badges.githubapp.com/badges/compatibility_score?dependency-name=canvas&package-manager=npm_and_yarn&previous-version=2.11.2&new-version=3.0.0)](https://docs.github.com/en/github/managing-security-vulnerabilities/about-dependabot-security-updates#about-compatibility-scores)\n\nDependabot will resolve any conflicts with this PR as long as you don't alter it yourself. You can also trigger a rebase manually by commenting `@dependabot rebase`.\n\n[//]: # (dependabot-automerge-start)\n[//]: # (dependabot-automerge-end)\n\n---\n\n<details>\n<summary>Dependabot commands and options</summary>\n<br />\n\nYou can trigger Dependabot actions by commenting on this PR:\n- `@dependabot rebase` will rebase this PR\n- `@dependabot recreate` will recreate this PR, overwriting any edits that have been made to it\n- `@dependabot merge` will merge this PR after your CI passes on it\n- `@dependabot squash and merge` will squash and merge this PR after your CI passes on it\n- `@dependabot cancel merge` will cancel a previously requested merge and block automerging\n- `@dependabot reopen` will reopen this PR if it is closed\n- `@dependabot close` will close this PR and stop Dependabot recreating it. You can achieve the same result by closing it manually\n- `@dependabot show <dependency name> ignore conditions` will show all of the ignore conditions of the specified dependency\n- `@dependabot ignore this major version` will close this PR and stop Dependabot creating any more for this major version (unless you reopen the PR or upgrade to it yourself)\n- `@dependabot ignore this minor version` will close this PR and stop Dependabot creating any more for this minor version (unless you reopen the PR or upgrade to it yourself)\n- `@dependabot ignore this dependency` will close this PR and stop Dependabot creating any more for this dependency (unless you reopen the PR or upgrade to it yourself)\n\n\n</details>",
    "changed_files": 1,
    "closed_at": "2025-01-01T00:05:29Z",
    "comment_data": [],
    "comment_regular_data": [
        {
            "author_association": "NONE",
            "body": "<!-- overview-comment -->\n**New and removed dependencies detected.** Learn more about [Socket for GitHub ↗︎](https://socket.dev?utm_medium=gh)\n\n\n| Package | New capabilities | Transitives | Size | Publisher |\n|:--- |:--- |:--- |:--- |:--- |\n| [npm/canvas@3.0.0](https://socket.dev/npm/package/canvas/overview/3.0.0) | <a href=\"https://socket.dev/npm/package/canvas/alerts/3.0.0?alert_name=filesystemAccess\">filesystem</a> Transitive: <a href=\"https://socket.dev/npm/package/canvas/alerts/3.0.0?tab=dependencies&alert_name=envVars\">environment</a>, <a href=\"https://socket.dev/npm/package/canvas/alerts/3.0.0?tab=dependencies&alert_name=networkAccess\">network</a>, <a href=\"https://socket.dev/npm/package/canvas/alerts/3.0.0?tab=dependencies&alert_name=shellAccess\">shell</a> | <a href=\"https://socket.dev/npm/package/canvas/dependencies/3.0.0\">`+38`</a> | 1.47 MB | <a href=\"https://socket.dev/npm/user/calebhearon\">calebhearon</a> |\n\n\n**🚮 Removed packages:** [npm/canvas@2.11.2](https://socket.dev/npm/package/canvas/overview/2.11.2)\n\n\n\n[**View full report↗︎**](https://socket.dev/dashboard/org/PrismarineJS/diff/97e8d790-1740-48b0-af1c-1350f34b0a95/b6e8340c-fbfb-41e4-b683-8844c2c766f5)",
            "created_at": "2024-12-25T00:12:18Z",
            "html_url": "https://github.com/PrismarineJS/prismarine-viewer/pull/445#issuecomment-2561501051",
            "id": 2561501051,
            "issue_url": "https://api.github.com/repos/PrismarineJS/prismarine-viewer/issues/445",
            "node_id": "IC_kwDOEC0DT86YrWd7",
            "performed_via_github_app": {
                "client_id": "Iv1.0dc8bfb0ebf2ec17",
                "created_at": "2021-12-04T00:33:05Z",
                "description": "### Socket protects your app from malicious dependencies lurking in your open source supply chain.\r\n\r\nOpen source code makes up 90% of most codebases. It is critical to manage it effectively to reduce your security risk.\r\n\r\n## Detect and block open source supply chain attacks\r\n\r\nSecurity teams depend on Socket to prevent malicious open source dependencies from infiltrating their apps.\r\n\r\nSocket dramatically improves your open source security posture by _detecting and blocking the attacks you don't expect_ – malware, install scripts, hidden code, typo-squatting, and more – which aren't caught by traditional vulnerability scanners.\r\n\r\n- **Block malware** – Block emerging malware threats\r\n\r\n- **Block typo-squatting** – Block malicious packages that differ in name by only a few characters, and recommend the correct package\r\n\r\n- **Detect hidden code** – Detect obfuscated, minified, or hidden code\r\n\r\n- **Detect privileged API usage** – Report when a dependency update introduces new risky API usage – filesystem, network, child_process, eval()\r\n\r\n- **Detect suspicious updates** – Sudden inclusion of privileged APIs in patch or minor releases\r\n\r\nSocket currently [supports 60 detections](https://socket.dev/npm/issue) in 5 categories: supply chain risk, quality, maintenance, known vulnerabilities, and license problems.\r\n\r\n## Take charge of your dependency health\r\n\r\nSocket improves security outcomes and reduces work for security teams by **surfacing actionable security information directly inline in GitHub** so developers are empowered to make better decisions.\r\n\r\n- **Five minute deployment** – The easiest security product you'll ever deploy in your organization. Just install a GitHub app and you're done.\r\n\r\n- **Provide security feedback directly on PRs** – Empower developers to solve security issues before they're deployed into production.\r\n\r\n- **Automated security** – Spend security team resources auditing the highest-impact dependencies, instead of all or nothing.\r\n\r\n## Socket detects what vulnerability scanners can’t\r\n\r\nIt's no longer sufficient to scan for known vulnerabilities (CVEs) and stop there. And yet, that's what the leading \"supply chain security\" products do, leaving you vulnerable.\r\n\r\nIt can take weeks or months for a CVE to be discovered, reported, and detected by tools. But in today's culture of fast development, a malicious dependency can be updated, merged, and running in production in days or even sometimes hours.\r\n\r\nDefenders need a new approach to address emerging threats from malicious dependencies:\r\n\r\n- **Maintainer intentionally added malware** – Rogue maintainer sabotaged his own open source package with 100M downloads/month, affecting companies such as Amazon AWS\r\n\r\n- **Package hijacked and poisoned w/ cryptominers and password-stealing malware** – Deliberate malware introduced into multiple packages with 30M downloads/month each\r\n\r\n- **Package hijacked to add backdoor targeting a specific organization** – Obfuscated malware added to a dependency which targeted a single company, went undetected for over a week, and made it into their production build\r\n\r\n- **NPM package manager allowed anyone to publish new versions of any package** – Attackers could publish new versions of any NPM package without authorization _for multiple years_\r\n\r\nUsing third-party dependencies without proper vetting leaves you open to hacking, breaches, and assorted security misfortune.",
                "events": [
                    "check_run",
                    "check_suite",
                    "issue_comment",
                    "member",
                    "organization",
                    "public",
                    "pull_request",
                    "push",
                    "repository"
                ],
                "external_url": "https://socket.dev",
                "html_url": "https://github.com/apps/socket-security",
                "id": 156372,
                "name": "Socket Security",
                "node_id": "A_kwHOBCHXrM4AAmLU",
                "owner": {
                    "avatar_url": "https://avatars.githubusercontent.com/u/69326764?v=4",
                    "events_url": "https://api.github.com/users/SocketDev/events{/privacy}",
                    "followers_url": "https://api.github.com/users/SocketDev/followers",
                    "following_url": "https://api.github.com/users/SocketDev/following{/other_user}",
                    "gists_url": "https://api.github.com/users/SocketDev/gists{/gist_id}",
                    "gravatar_id": "",
                    "html_url": "https://github.com/SocketDev",
                    "id": 69326764,
                    "login": "SocketDev",
                    "node_id": "MDEyOk9yZ2FuaXphdGlvbjY5MzI2NzY0",
                    "organizations_url": "https://api.github.com/users/SocketDev/orgs",
                    "received_events_url": "https://api.github.com/users/SocketDev/received_events",
                    "repos_url": "https://api.github.com/users/SocketDev/repos",
                    "site_admin": false,
                    "starred_url": "https://api.github.com/users/SocketDev/starred{/owner}{/repo}",
                    "subscriptions_url": "https://api.github.com/users/SocketDev/subscriptions",
                    "type": "Organization",
                    "url": "https://api.github.com/users/SocketDev",
                    "user_view_type": "public"
                },
                "permissions": {
                    "checks": "write",
                    "contents": "read",
                    "emails": "read",
                    "issues": "read",
                    "members": "read",
                    "metadata": "read",
                    "pull_requests": "write"
                },
                "slug": "socket-security",
                "updated_at": "2023-03-08T20:20:07Z"
            },
            "reactions": {
                "+1": 0,
                "-1": 0,
                "confused": 0,
                "eyes": 0,
                "heart": 0,
                "hooray": 0,
                "laugh": 0,
                "rocket": 0,
                "total_count": 0,
                "url": "https://api.github.com/repos/PrismarineJS/prismarine-viewer/issues/comments/2561501051/reactions"
            },
            "updated_at": "2024-12-25T00:12:18Z",
            "url": "https://api.github.com/repos/PrismarineJS/prismarine-viewer/issues/comments/2561501051",
            "user": {
                "avatar_url": "https://avatars.githubusercontent.com/in/156372?v=4",
                "events_url": "https://api.github.com/users/socket-security%5Bbot%5D/events{/privacy}",
                "followers_url": "https://api.github.com/users/socket-security%5Bbot%5D/followers",
                "following_url": "https://api.github.com/users/socket-security%5Bbot%5D/following{/other_user}",
                "gists_url": "https://api.github.com/users/socket-security%5Bbot%5D/gists{/gist_id}",
                "gravatar_id": "",
                "html_url": "https://github.com/apps/socket-security",
                "id": 95510084,
                "login": "socket-security[bot]",
                "node_id": "BOT_kgDOBbFeRA",
                "organizations_url": "https://api.github.com/users/socket-security%5Bbot%5D/orgs",
                "received_events_url": "https://api.github.com/users/socket-security%5Bbot%5D/received_events",
                "repos_url": "https://api.github.com/users/socket-security%5Bbot%5D/repos",
                "site_admin": false,
                "starred_url": "https://api.github.com/users/socket-security%5Bbot%5D/starred{/owner}{/repo}",
                "subscriptions_url": "https://api.github.com/users/socket-security%5Bbot%5D/subscriptions",
                "type": "Bot",
                "url": "https://api.github.com/users/socket-security%5Bbot%5D",
                "user_view_type": "public"
            }
        },
        {
            "author_association": "CONTRIBUTOR",
            "body": "Superseded by #446.",
            "created_at": "2025-01-01T00:05:28Z",
            "html_url": "https://github.com/PrismarineJS/prismarine-viewer/pull/445#issuecomment-2566761260",
            "id": 2566761260,
            "issue_url": "https://api.github.com/repos/PrismarineJS/prismarine-viewer/issues/445",
            "node_id": "IC_kwDOEC0DT86Y_ass",
            "performed_via_github_app": {
                "client_id": "Iv1.4f9a6346434f815e",
                "created_at": "2019-04-16T22:34:25Z",
                "description": "",
                "events": [
                    "check_suite",
                    "issues",
                    "issue_comment",
                    "label",
                    "pull_request",
                    "pull_request_review",
                    "pull_request_review_comment",
                    "repository"
                ],
                "external_url": "https://dependabot-api.githubapp.com",
                "html_url": "https://github.com/apps/dependabot",
                "id": 29110,
                "name": "Dependabot",
                "node_id": "MDM6QXBwMjkxMTA=",
                "owner": {
                    "avatar_url": "https://avatars.githubusercontent.com/u/9919?v=4",
                    "events_url": "https://api.github.com/users/github/events{/privacy}",
                    "followers_url": "https://api.github.com/users/github/followers",
                    "following_url": "https://api.github.com/users/github/following{/other_user}",
                    "gists_url": "https://api.github.com/users/github/gists{/gist_id}",
                    "gravatar_id": "",
                    "html_url": "https://github.com/github",
                    "id": 9919,
                    "login": "github",
                    "node_id": "MDEyOk9yZ2FuaXphdGlvbjk5MTk=",
                    "organizations_url": "https://api.github.com/users/github/orgs",
                    "received_events_url": "https://api.github.com/users/github/received_events",
                    "repos_url": "https://api.github.com/users/github/repos",
                    "site_admin": false,
                    "starred_url": "https://api.github.com/users/github/starred{/owner}{/repo}",
                    "subscriptions_url": "https://api.github.com/users/github/subscriptions",
                    "type": "Organization",
                    "url": "https://api.github.com/users/github",
                    "user_view_type": "public"
                },
                "permissions": {
                    "actions": "read",
                    "checks": "write",
                    "contents": "write",
                    "issues": "write",
                    "members": "read",
                    "metadata": "read",
                    "pull_requests": "write",
                    "statuses": "read",
                    "vulnerability_alerts": "read",
                    "workflows": "write"
                },
                "slug": "dependabot",
                "updated_at": "2024-03-20T21:06:35Z"
            },
            "reactions": {
                "+1": 0,
                "-1": 0,
                "confused": 0,
                "eyes": 0,
                "heart": 0,
                "hooray": 0,
                "laugh": 0,
                "rocket": 0,
                "total_count": 0,
                "url": "https://api.github.com/repos/PrismarineJS/prismarine-viewer/issues/comments/2566761260/reactions"
            },
            "updated_at": "2025-01-01T00:05:28Z",
            "url": "https://api.github.com/repos/PrismarineJS/prismarine-viewer/issues/comments/2566761260",
            "user": {
                "avatar_url": "https://avatars.githubusercontent.com/in/29110?v=4",
                "events_url": "https://api.github.com/users/dependabot%5Bbot%5D/events{/privacy}",
                "followers_url": "https://api.github.com/users/dependabot%5Bbot%5D/followers",
                "following_url": "https://api.github.com/users/dependabot%5Bbot%5D/following{/other_user}",
                "gists_url": "https://api.github.com/users/dependabot%5Bbot%5D/gists{/gist_id}",
                "gravatar_id": "",
                "html_url": "https://github.com/apps/dependabot",
                "id": 49699333,
                "login": "dependabot[bot]",
                "node_id": "MDM6Qm90NDk2OTkzMzM=",
                "organizations_url": "https://api.github.com/users/dependabot%5Bbot%5D/orgs",
                "received_events_url": "https://api.github.com/users/dependabot%5Bbot%5D/received_events",
                "repos_url": "https://api.github.com/users/dependabot%5Bbot%5D/repos",
                "site_admin": false,
                "starred_url": "https://api.github.com/users/dependabot%5Bbot%5D/starred{/owner}{/repo}",
                "subscriptions_url": "https://api.github.com/users/dependabot%5Bbot%5D/subscriptions",
                "type": "Bot",
                "url": "https://api.github.com/users/dependabot%5Bbot%5D",
                "user_view_type": "public"
            }
        }
    ],
    "comments": 2,
    "comments_url": "https://api.github.com/repos/PrismarineJS/prismarine-viewer/issues/445/comments",
    "commit_data": [
        {
            "author": {
                "avatar_url": "https://avatars.githubusercontent.com/in/29110?v=4",
                "events_url": "https://api.github.com/users/dependabot%5Bbot%5D/events{/privacy}",
                "followers_url": "https://api.github.com/users/dependabot%5Bbot%5D/followers",
                "following_url": "https://api.github.com/users/dependabot%5Bbot%5D/following{/other_user}",
                "gists_url": "https://api.github.com/users/dependabot%5Bbot%5D/gists{/gist_id}",
                "gravatar_id": "",
                "html_url": "https://github.com/apps/dependabot",
                "id": 49699333,
                "login": "dependabot[bot]",
                "node_id": "MDM6Qm90NDk2OTkzMzM=",
                "organizations_url": "https://api.github.com/users/dependabot%5Bbot%5D/orgs",
                "received_events_url": "https://api.github.com/users/dependabot%5Bbot%5D/received_events",
                "repos_url": "https://api.github.com/users/dependabot%5Bbot%5D/repos",
                "site_admin": false,
                "starred_url": "https://api.github.com/users/dependabot%5Bbot%5D/starred{/owner}{/repo}",
                "subscriptions_url": "https://api.github.com/users/dependabot%5Bbot%5D/subscriptions",
                "type": "Bot",
                "url": "https://api.github.com/users/dependabot%5Bbot%5D",
                "user_view_type": "public"
            },
            "comments_url": "https://api.github.com/repos/PrismarineJS/prismarine-viewer/commits/a1aafe934d9ff305d7e2a6f63165df173bb0f3b0/comments",
            "commit": {
                "author": {
                    "date": "2024-12-25T00:11:46Z",
                    "email": "49699333+dependabot[bot]@users.noreply.github.com",
                    "name": "dependabot[bot]"
                },
                "comment_count": 0,
                "committer": {
                    "date": "2024-12-25T00:11:46Z",
                    "email": "noreply@github.com",
                    "name": "GitHub"
                },
                "message": "Bump canvas from 2.11.2 to 3.0.0\n\nBumps [canvas](https://github.com/Automattic/node-canvas) from 2.11.2 to 3.0.0.\n- [Release notes](https://github.com/Automattic/node-canvas/releases)\n- [Changelog](https://github.com/Automattic/node-canvas/blob/master/CHANGELOG.md)\n- [Commits](https://github.com/Automattic/node-canvas/compare/v2.11.2...v3.0.0)\n\n---\nupdated-dependencies:\n- dependency-name: canvas\n  dependency-type: direct:development\n  update-type: version-update:semver-major\n...\n\nSigned-off-by: dependabot[bot] <support@github.com>",
                "tree": {
                    "sha": "1f2c1c01ed6ea2688f436072107414eee74a8849",
                    "url": "https://api.github.com/repos/PrismarineJS/prismarine-viewer/git/trees/1f2c1c01ed6ea2688f436072107414eee74a8849"
                },
                "url": "https://api.github.com/repos/PrismarineJS/prismarine-viewer/git/commits/a1aafe934d9ff305d7e2a6f63165df173bb0f3b0",
                "verification": {
                    "payload": "tree 1f2c1c01ed6ea2688f436072107414eee74a8849\nparent db8bfb0f9745d4b26ce73e07b9b92c586e727117\nauthor dependabot[bot] <49699333+dependabot[bot]@users.noreply.github.com> 1735085506 +0000\ncommitter GitHub <noreply@github.com> 1735085506 +0000\n\nBump canvas from 2.11.2 to 3.0.0\n\nBumps [canvas](https://github.com/Automattic/node-canvas) from 2.11.2 to 3.0.0.\n- [Release notes](https://github.com/Automattic/node-canvas/releases)\n- [Changelog](https://github.com/Automattic/node-canvas/blob/master/CHANGELOG.md)\n- [Commits](https://github.com/Automattic/node-canvas/compare/v2.11.2...v3.0.0)\n\n---\nupdated-dependencies:\n- dependency-name: canvas\n  dependency-type: direct:development\n  update-type: version-update:semver-major\n...\n\nSigned-off-by: dependabot[bot] <support@github.com>",
                    "reason": "valid",
                    "signature": "-----BEGIN PGP SIGNATURE-----\n\nwsFcBAABCAAQBQJna03CCRC1aQ7uu5UhlAAAn6gQAKWGo8BsoCzhtiiSvpXHDvfo\nxM9ZWtRcM4j4BoFNyHED4PC7WUomtAvS8ZP8BWbdNSy4LsxnjpubccDGnuaXABQL\nhGkEMVhfDObcaxyQEH7hY/EsFme3W/xUn+AlS6uX3kbS57h6a6FUAI5JWCL2Az7J\nu7q0HBtnbxoozSIkvgNek4JEZ1ODrYtHKtAOM0U6WEuzrmriZupdObbAI9ix3k3Q\nRZ1B5WkJjd3X+4Hrke/dQimGojVCi+wjC9yQrBQry9Pv9qVZVbFcM3HqnpupgD/5\nnX28b/696LvfEura0j04w8jBCgP5gkDJepGFaLZAfJiM/3XQOsRWcjaSBUN0is9S\nZ7F+0z9oUc4z+96mnKjS3xqRFOBZQoN8BRTtPkyOm8VZdCDjAEiJvt/ki+sSzGs8\nAW+dUEQmaVaFFLd2sMtLjkqjnvlKDwPA+pPOSnvDVl5c3LVH5komJ1ZdJKcQAyL4\nl5E2+TCcjq/wNk2gOQGH3RzFVTqx1Sz8KoQPf/kum2BHpe9WRBXrvt9Sj2/4mhDi\nwbsWAxx+7nvUJcz7QSJq5XXBxGnd0Bk6ZNMnUhH++Hfqkcx4OihjSIs2PC28iupS\nGwnetpcuZvNp7LWkzcnHhm6heuSP9BPi4UwM3nwmQPRXOLGwmx/cmo7NFiiKOZjM\n+e9Hwzx6xltIMr/WFyok\n=DspX\n-----END PGP SIGNATURE-----\n",
                    "verified": true,
                    "verified_at": "2024-12-25T00:11:46Z"
                }
            },
            "committer": {
                "avatar_url": "https://avatars.githubusercontent.com/u/19864447?v=4",
                "events_url": "https://api.github.com/users/web-flow/events{/privacy}",
                "followers_url": "https://api.github.com/users/web-flow/followers",
                "following_url": "https://api.github.com/users/web-flow/following{/other_user}",
                "gists_url": "https://api.github.com/users/web-flow/gists{/gist_id}",
                "gravatar_id": "",
                "html_url": "https://github.com/web-flow",
                "id": 19864447,
                "login": "web-flow",
                "node_id": "MDQ6VXNlcjE5ODY0NDQ3",
                "organizations_url": "https://api.github.com/users/web-flow/orgs",
                "received_events_url": "https://api.github.com/users/web-flow/received_events",
                "repos_url": "https://api.github.com/users/web-flow/repos",
                "site_admin": false,
                "starred_url": "https://api.github.com/users/web-flow/starred{/owner}{/repo}",
                "subscriptions_url": "https://api.github.com/users/web-flow/subscriptions",
                "type": "User",
                "url": "https://api.github.com/users/web-flow",
                "user_view_type": "public"
            },
            "html_url": "https://github.com/PrismarineJS/prismarine-viewer/commit/a1aafe934d9ff305d7e2a6f63165df173bb0f3b0",
            "node_id": "C_kwDOEC0DT9oAKGExYWFmZTkzNGQ5ZmYzMDVkN2UyYTZmNjMxNjVkZjE3M2JiMGYzYjA",
            "parents": [
                {
                    "html_url": "https://github.com/PrismarineJS/prismarine-viewer/commit/db8bfb0f9745d4b26ce73e07b9b92c586e727117",
                    "sha": "db8bfb0f9745d4b26ce73e07b9b92c586e727117",
                    "url": "https://api.github.com/repos/PrismarineJS/prismarine-viewer/commits/db8bfb0f9745d4b26ce73e07b9b92c586e727117"
                }
            ],
            "sha": "a1aafe934d9ff305d7e2a6f63165df173bb0f3b0",
            "url": "https://api.github.com/repos/PrismarineJS/prismarine-viewer/commits/a1aafe934d9ff305d7e2a6f63165df173bb0f3b0"
        }
    ],
    "commits": 1,
    "commits_url": "https://api.github.com/repos/PrismarineJS/prismarine-viewer/pulls/445/commits",
    "created_at": "2024-12-25T00:11:46Z",
    "deletions": 1,
    "diff_url": "https://github.com/PrismarineJS/prismarine-viewer/pull/445.diff",
    "draft": false,
    "head": {
        "label": "PrismarineJS:dependabot/npm_and_yarn/canvas-3.0.0",
        "ref": "dependabot/npm_and_yarn/canvas-3.0.0",
        "repo": {
            "allow_forking": true,
            "archive_url": "https://api.github.com/repos/PrismarineJS/prismarine-viewer/{archive_format}{/ref}",
            "archived": false,
            "assignees_url": "https://api.github.com/repos/PrismarineJS/prismarine-viewer/assignees{/user}",
            "blobs_url": "https://api.github.com/repos/PrismarineJS/prismarine-viewer/git/blobs{/sha}",
            "branches_url": "https://api.github.com/repos/PrismarineJS/prismarine-viewer/branches{/branch}",
            "clone_url": "https://github.com/PrismarineJS/prismarine-viewer.git",
            "collaborators_url": "https://api.github.com/repos/PrismarineJS/prismarine-viewer/collaborators{/collaborator}",
            "comments_url": "https://api.github.com/repos/PrismarineJS/prismarine-viewer/comments{/number}",
            "commits_url": "https://api.github.com/repos/PrismarineJS/prismarine-viewer/commits{/sha}",
            "compare_url": "https://api.github.com/repos/PrismarineJS/prismarine-viewer/compare/{base}...{head}",
            "contents_url": "https://api.github.com/repos/PrismarineJS/prismarine-viewer/contents/{+path}",
            "contributors_url": "https://api.github.com/repos/PrismarineJS/prismarine-viewer/contributors",
            "created_at": "2020-06-10T21:05:49Z",
            "default_branch": "master",
            "deployments_url": "https://api.github.com/repos/PrismarineJS/prismarine-viewer/deployments",
            "description": "Web based viewer for servers and bots",
            "disabled": false,
            "downloads_url": "https://api.github.com/repos/PrismarineJS/prismarine-viewer/downloads",
            "events_url": "https://api.github.com/repos/PrismarineJS/prismarine-viewer/events",
            "fork": false,
            "forks": 77,
            "forks_count": 77,
            "forks_url": "https://api.github.com/repos/PrismarineJS/prismarine-viewer/forks",
            "full_name": "PrismarineJS/prismarine-viewer",
            "git_commits_url": "https://api.github.com/repos/PrismarineJS/prismarine-viewer/git/commits{/sha}",
            "git_refs_url": "https://api.github.com/repos/PrismarineJS/prismarine-viewer/git/refs{/sha}",
            "git_tags_url": "https://api.github.com/repos/PrismarineJS/prismarine-viewer/git/tags{/sha}",
            "git_url": "git://github.com/PrismarineJS/prismarine-viewer.git",
            "has_discussions": false,
            "has_downloads": true,
            "has_issues": true,
            "has_pages": true,
            "has_projects": true,
            "has_wiki": true,
            "homepage": "https://prismarinejs.github.io/prismarine-viewer/",
            "hooks_url": "https://api.github.com/repos/PrismarineJS/prismarine-viewer/hooks",
            "html_url": "https://github.com/PrismarineJS/prismarine-viewer",
            "id": 271385423,
            "is_template": false,
            "issue_comment_url": "https://api.github.com/repos/PrismarineJS/prismarine-viewer/issues/comments{/number}",
            "issue_events_url": "https://api.github.com/repos/PrismarineJS/prismarine-viewer/issues/events{/number}",
            "issues_url": "https://api.github.com/repos/PrismarineJS/prismarine-viewer/issues{/number}",
            "keys_url": "https://api.github.com/repos/PrismarineJS/prismarine-viewer/keys{/key_id}",
            "labels_url": "https://api.github.com/repos/PrismarineJS/prismarine-viewer/labels{/name}",
            "language": "JavaScript",
            "languages_url": "https://api.github.com/repos/PrismarineJS/prismarine-viewer/languages",
            "license": {
                "key": "mit",
                "name": "MIT License",
                "node_id": "MDc6TGljZW5zZTEz",
                "spdx_id": "MIT",
                "url": "https://api.github.com/licenses/mit"
            },
            "merges_url": "https://api.github.com/repos/PrismarineJS/prismarine-viewer/merges",
            "milestones_url": "https://api.github.com/repos/PrismarineJS/prismarine-viewer/milestones{/number}",
            "mirror_url": null,
            "name": "prismarine-viewer",
            "node_id": "MDEwOlJlcG9zaXRvcnkyNzEzODU0MjM=",
            "notifications_url": "https://api.github.com/repos/PrismarineJS/prismarine-viewer/notifications{?since,all,participating}",
            "open_issues": 69,
            "open_issues_count": 69,
            "owner": {
                "avatar_url": "https://avatars.githubusercontent.com/u/11053411?v=4",
                "events_url": "https://api.github.com/users/PrismarineJS/events{/privacy}",
                "followers_url": "https://api.github.com/users/PrismarineJS/followers",
                "following_url": "https://api.github.com/users/PrismarineJS/following{/other_user}",
                "gists_url": "https://api.github.com/users/PrismarineJS/gists{/gist_id}",
                "gravatar_id": "",
                "html_url": "https://github.com/PrismarineJS",
                "id": 11053411,
                "login": "PrismarineJS",
                "node_id": "MDEyOk9yZ2FuaXphdGlvbjExMDUzNDEx",
                "organizations_url": "https://api.github.com/users/PrismarineJS/orgs",
                "received_events_url": "https://api.github.com/users/PrismarineJS/received_events",
                "repos_url": "https://api.github.com/users/PrismarineJS/repos",
                "site_admin": false,
                "starred_url": "https://api.github.com/users/PrismarineJS/starred{/owner}{/repo}",
                "subscriptions_url": "https://api.github.com/users/PrismarineJS/subscriptions",
                "type": "Organization",
                "url": "https://api.github.com/users/PrismarineJS",
                "user_view_type": "public"
            },
            "private": false,
            "pulls_url": "https://api.github.com/repos/PrismarineJS/prismarine-viewer/pulls{/number}",
            "pushed_at": "2025-01-01T00:05:29Z",
            "releases_url": "https://api.github.com/repos/PrismarineJS/prismarine-viewer/releases{/id}",
            "size": 312167,
            "ssh_url": "git@github.com:PrismarineJS/prismarine-viewer.git",
            "stargazers_count": 280,
            "stargazers_url": "https://api.github.com/repos/PrismarineJS/prismarine-viewer/stargazers",
            "statuses_url": "https://api.github.com/repos/PrismarineJS/prismarine-viewer/statuses/{sha}",
            "subscribers_url": "https://api.github.com/repos/PrismarineJS/prismarine-viewer/subscribers",
            "subscription_url": "https://api.github.com/repos/PrismarineJS/prismarine-viewer/subscription",
            "svn_url": "https://github.com/PrismarineJS/prismarine-viewer",
            "tags_url": "https://api.github.com/repos/PrismarineJS/prismarine-viewer/tags",
            "teams_url": "https://api.github.com/repos/PrismarineJS/prismarine-viewer/teams",
            "topics": [],
            "trees_url": "https://api.github.com/repos/PrismarineJS/prismarine-viewer/git/trees{/sha}",
            "updated_at": "2024-12-27T09:35:50Z",
            "url": "https://api.github.com/repos/PrismarineJS/prismarine-viewer",
            "visibility": "public",
            "watchers": 280,
            "watchers_count": 280,
            "web_commit_signoff_required": false
        },
        "sha": "a1aafe934d9ff305d7e2a6f63165df173bb0f3b0",
        "user": {
            "avatar_url": "https://avatars.githubusercontent.com/u/11053411?v=4",
            "events_url": "https://api.github.com/users/PrismarineJS/events{/privacy}",
            "followers_url": "https://api.github.com/users/PrismarineJS/followers",
            "following_url": "https://api.github.com/users/PrismarineJS/following{/other_user}",
            "gists_url": "https://api.github.com/users/PrismarineJS/gists{/gist_id}",
            "gravatar_id": "",
            "html_url": "https://github.com/PrismarineJS",
            "id": 11053411,
            "login": "PrismarineJS",
            "node_id": "MDEyOk9yZ2FuaXphdGlvbjExMDUzNDEx",
            "organizations_url": "https://api.github.com/users/PrismarineJS/orgs",
            "received_events_url": "https://api.github.com/users/PrismarineJS/received_events",
            "repos_url": "https://api.github.com/users/PrismarineJS/repos",
            "site_admin": false,
            "starred_url": "https://api.github.com/users/PrismarineJS/starred{/owner}{/repo}",
            "subscriptions_url": "https://api.github.com/users/PrismarineJS/subscriptions",
            "type": "Organization",
            "url": "https://api.github.com/users/PrismarineJS",
            "user_view_type": "public"
        }
    },
    "html_url": "https://github.com/PrismarineJS/prismarine-viewer/pull/445",
    "id": 2251348337,
    "issue_url": "https://api.github.com/repos/PrismarineJS/prismarine-viewer/issues/445",
    "labels": [
        {
            "color": "0366d6",
            "default": false,
            "description": "Pull requests that update a dependency file",
            "id": 2474655629,
            "name": "dependencies",
            "node_id": "MDU6TGFiZWwyNDc0NjU1NjI5",
            "url": "https://api.github.com/repos/PrismarineJS/prismarine-viewer/labels/dependencies"
        },
        {
            "color": "168700",
            "default": false,
            "description": "Pull requests that update Javascript code",
            "id": 7907039067,
            "name": "javascript",
            "node_id": "LA_kwDOEC0DT88AAAAB10vXWw",
            "url": "https://api.github.com/repos/PrismarineJS/prismarine-viewer/labels/javascript"
        }
    ],
    "locked": false,
    "maintainer_can_modify": false,
    "merge_commit_sha": "dd3f3c06fe26100bfc28f942c7de2d4078f6cba6",
    "mergeable": true,
    "mergeable_state": "unstable",
    "merged": false,
    "merged_at": null,
    "merged_by": null,
    "milestone": null,
    "node_id": "PR_kwDOEC0DT86GMNlx",
    "number": 445,
    "patch_url": "https://github.com/PrismarineJS/prismarine-viewer/pull/445.patch",
    "rebaseable": false,
    "requested_reviewers": [],
    "requested_teams": [],
    "review_comment_url": "https://api.github.com/repos/PrismarineJS/prismarine-viewer/pulls/comments{/number}",
    "review_comments": 0,
    "review_comments_url": "https://api.github.com/repos/PrismarineJS/prismarine-viewer/pulls/445/comments",
    "state": "closed",
    "statuses_url": "https://api.github.com/repos/PrismarineJS/prismarine-viewer/statuses/a1aafe934d9ff305d7e2a6f63165df173bb0f3b0",
    "title": "Bump canvas from 2.11.2 to 3.0.0",
    "updated_at": "2025-01-01T00:05:30Z",
    "url": "https://api.github.com/repos/PrismarineJS/prismarine-viewer/pulls/445",
    "user": {
        "avatar_url": "https://avatars.githubusercontent.com/in/29110?v=4",
        "events_url": "https://api.github.com/users/dependabot%5Bbot%5D/events{/privacy}",
        "followers_url": "https://api.github.com/users/dependabot%5Bbot%5D/followers",
        "following_url": "https://api.github.com/users/dependabot%5Bbot%5D/following{/other_user}",
        "gists_url": "https://api.github.com/users/dependabot%5Bbot%5D/gists{/gist_id}",
        "gravatar_id": "",
        "html_url": "https://github.com/apps/dependabot",
        "id": 49699333,
        "login": "dependabot[bot]",
        "node_id": "MDM6Qm90NDk2OTkzMzM=",
        "organizations_url": "https://api.github.com/users/dependabot%5Bbot%5D/orgs",
        "received_events_url": "https://api.github.com/users/dependabot%5Bbot%5D/received_events",
        "repos_url": "https://api.github.com/users/dependabot%5Bbot%5D/repos",
        "site_admin": false,
        "starred_url": "https://api.github.com/users/dependabot%5Bbot%5D/starred{/owner}{/repo}",
        "subscriptions_url": "https://api.github.com/users/dependabot%5Bbot%5D/subscriptions",
        "type": "Bot",
        "url": "https://api.github.com/users/dependabot%5Bbot%5D",
        "user_view_type": "public"
    }
}