{
    "_links": {
        "comments": {
            "href": "https://api.github.com/repos/PrismarineJS/prismarine-viewer/issues/452/comments"
        },
        "commits": {
            "href": "https://api.github.com/repos/PrismarineJS/prismarine-viewer/pulls/452/commits"
        },
        "html": {
            "href": "https://github.com/PrismarineJS/prismarine-viewer/pull/452"
        },
        "issue": {
            "href": "https://api.github.com/repos/PrismarineJS/prismarine-viewer/issues/452"
        },
        "review_comment": {
            "href": "https://api.github.com/repos/PrismarineJS/prismarine-viewer/pulls/comments{/number}"
        },
        "review_comments": {
            "href": "https://api.github.com/repos/PrismarineJS/prismarine-viewer/pulls/452/comments"
        },
        "self": {
            "href": "https://api.github.com/repos/PrismarineJS/prismarine-viewer/pulls/452"
        },
        "statuses": {
            "href": "https://api.github.com/repos/PrismarineJS/prismarine-viewer/statuses/971fe7bb56593c20a3f2264e7cc887128b44fa0a"
        }
    },
    "active_lock_reason": null,
    "additions": 3,
    "assignee": null,
    "assignees": [],
    "author_association": "CONTRIBUTOR",
    "auto_merge": null,
    "base": {
        "label": "PrismarineJS:master",
        "ref": "master",
        "repo": {
            "allow_forking": true,
            "archive_url": "https://api.github.com/repos/PrismarineJS/prismarine-viewer/{archive_format}{/ref}",
            "archived": false,
            "assignees_url": "https://api.github.com/repos/PrismarineJS/prismarine-viewer/assignees{/user}",
            "blobs_url": "https://api.github.com/repos/PrismarineJS/prismarine-viewer/git/blobs{/sha}",
            "branches_url": "https://api.github.com/repos/PrismarineJS/prismarine-viewer/branches{/branch}",
            "clone_url": "https://github.com/PrismarineJS/prismarine-viewer.git",
            "collaborators_url": "https://api.github.com/repos/PrismarineJS/prismarine-viewer/collaborators{/collaborator}",
            "comments_url": "https://api.github.com/repos/PrismarineJS/prismarine-viewer/comments{/number}",
            "commits_url": "https://api.github.com/repos/PrismarineJS/prismarine-viewer/commits{/sha}",
            "compare_url": "https://api.github.com/repos/PrismarineJS/prismarine-viewer/compare/{base}...{head}",
            "contents_url": "https://api.github.com/repos/PrismarineJS/prismarine-viewer/contents/{+path}",
            "contributors_url": "https://api.github.com/repos/PrismarineJS/prismarine-viewer/contributors",
            "created_at": "2020-06-10T21:05:49Z",
            "default_branch": "master",
            "deployments_url": "https://api.github.com/repos/PrismarineJS/prismarine-viewer/deployments",
            "description": "Web based viewer for servers and bots",
            "disabled": false,
            "downloads_url": "https://api.github.com/repos/PrismarineJS/prismarine-viewer/downloads",
            "events_url": "https://api.github.com/repos/PrismarineJS/prismarine-viewer/events",
            "fork": false,
            "forks": 77,
            "forks_count": 77,
            "forks_url": "https://api.github.com/repos/PrismarineJS/prismarine-viewer/forks",
            "full_name": "PrismarineJS/prismarine-viewer",
            "git_commits_url": "https://api.github.com/repos/PrismarineJS/prismarine-viewer/git/commits{/sha}",
            "git_refs_url": "https://api.github.com/repos/PrismarineJS/prismarine-viewer/git/refs{/sha}",
            "git_tags_url": "https://api.github.com/repos/PrismarineJS/prismarine-viewer/git/tags{/sha}",
            "git_url": "git://github.com/PrismarineJS/prismarine-viewer.git",
            "has_discussions": false,
            "has_downloads": true,
            "has_issues": true,
            "has_pages": true,
            "has_projects": true,
            "has_wiki": true,
            "homepage": "https://prismarinejs.github.io/prismarine-viewer/",
            "hooks_url": "https://api.github.com/repos/PrismarineJS/prismarine-viewer/hooks",
            "html_url": "https://github.com/PrismarineJS/prismarine-viewer",
            "id": 271385423,
            "is_template": false,
            "issue_comment_url": "https://api.github.com/repos/PrismarineJS/prismarine-viewer/issues/comments{/number}",
            "issue_events_url": "https://api.github.com/repos/PrismarineJS/prismarine-viewer/issues/events{/number}",
            "issues_url": "https://api.github.com/repos/PrismarineJS/prismarine-viewer/issues{/number}",
            "keys_url": "https://api.github.com/repos/PrismarineJS/prismarine-viewer/keys{/key_id}",
            "labels_url": "https://api.github.com/repos/PrismarineJS/prismarine-viewer/labels{/name}",
            "language": "JavaScript",
            "languages_url": "https://api.github.com/repos/PrismarineJS/prismarine-viewer/languages",
            "license": {
                "key": "mit",
                "name": "MIT License",
                "node_id": "MDc6TGljZW5zZTEz",
                "spdx_id": "MIT",
                "url": "https://api.github.com/licenses/mit"
            },
            "merges_url": "https://api.github.com/repos/PrismarineJS/prismarine-viewer/merges",
            "milestones_url": "https://api.github.com/repos/PrismarineJS/prismarine-viewer/milestones{/number}",
            "mirror_url": null,
            "name": "prismarine-viewer",
            "node_id": "MDEwOlJlcG9zaXRvcnkyNzEzODU0MjM=",
            "notifications_url": "https://api.github.com/repos/PrismarineJS/prismarine-viewer/notifications{?since,all,participating}",
            "open_issues": 71,
            "open_issues_count": 71,
            "owner": {
                "avatar_url": "https://avatars.githubusercontent.com/u/11053411?v=4",
                "events_url": "https://api.github.com/users/PrismarineJS/events{/privacy}",
                "followers_url": "https://api.github.com/users/PrismarineJS/followers",
                "following_url": "https://api.github.com/users/PrismarineJS/following{/other_user}",
                "gists_url": "https://api.github.com/users/PrismarineJS/gists{/gist_id}",
                "gravatar_id": "",
                "html_url": "https://github.com/PrismarineJS",
                "id": 11053411,
                "login": "PrismarineJS",
                "node_id": "MDEyOk9yZ2FuaXphdGlvbjExMDUzNDEx",
                "organizations_url": "https://api.github.com/users/PrismarineJS/orgs",
                "received_events_url": "https://api.github.com/users/PrismarineJS/received_events",
                "repos_url": "https://api.github.com/users/PrismarineJS/repos",
                "site_admin": false,
                "starred_url": "https://api.github.com/users/PrismarineJS/starred{/owner}{/repo}",
                "subscriptions_url": "https://api.github.com/users/PrismarineJS/subscriptions",
                "type": "Organization",
                "url": "https://api.github.com/users/PrismarineJS",
                "user_view_type": "public"
            },
            "private": false,
            "pulls_url": "https://api.github.com/repos/PrismarineJS/prismarine-viewer/pulls{/number}",
            "pushed_at": "2025-02-09T09:04:37Z",
            "releases_url": "https://api.github.com/repos/PrismarineJS/prismarine-viewer/releases{/id}",
            "size": 312733,
            "ssh_url": "git@github.com:PrismarineJS/prismarine-viewer.git",
            "stargazers_count": 289,
            "stargazers_url": "https://api.github.com/repos/PrismarineJS/prismarine-viewer/stargazers",
            "statuses_url": "https://api.github.com/repos/PrismarineJS/prismarine-viewer/statuses/{sha}",
            "subscribers_url": "https://api.github.com/repos/PrismarineJS/prismarine-viewer/subscribers",
            "subscription_url": "https://api.github.com/repos/PrismarineJS/prismarine-viewer/subscription",
            "svn_url": "https://github.com/PrismarineJS/prismarine-viewer",
            "tags_url": "https://api.github.com/repos/PrismarineJS/prismarine-viewer/tags",
            "teams_url": "https://api.github.com/repos/PrismarineJS/prismarine-viewer/teams",
            "topics": [],
            "trees_url": "https://api.github.com/repos/PrismarineJS/prismarine-viewer/git/trees{/sha}",
            "updated_at": "2025-02-09T09:00:26Z",
            "url": "https://api.github.com/repos/PrismarineJS/prismarine-viewer",
            "visibility": "public",
            "watchers": 289,
            "watchers_count": 289,
            "web_commit_signoff_required": false
        },
        "sha": "42fa864711b6cdc14f9bf777bdd0326ba9214bac",
        "user": {
            "avatar_url": "https://avatars.githubusercontent.com/u/11053411?v=4",
            "events_url": "https://api.github.com/users/PrismarineJS/events{/privacy}",
            "followers_url": "https://api.github.com/users/PrismarineJS/followers",
            "following_url": "https://api.github.com/users/PrismarineJS/following{/other_user}",
            "gists_url": "https://api.github.com/users/PrismarineJS/gists{/gist_id}",
            "gravatar_id": "",
            "html_url": "https://github.com/PrismarineJS",
            "id": 11053411,
            "login": "PrismarineJS",
            "node_id": "MDEyOk9yZ2FuaXphdGlvbjExMDUzNDEx",
            "organizations_url": "https://api.github.com/users/PrismarineJS/orgs",
            "received_events_url": "https://api.github.com/users/PrismarineJS/received_events",
            "repos_url": "https://api.github.com/users/PrismarineJS/repos",
            "site_admin": false,
            "starred_url": "https://api.github.com/users/PrismarineJS/starred{/owner}{/repo}",
            "subscriptions_url": "https://api.github.com/users/PrismarineJS/subscriptions",
            "type": "Organization",
            "url": "https://api.github.com/users/PrismarineJS",
            "user_view_type": "public"
        }
    },
    "body": "Waiting on https://github.com/PrismarineJS/node-minecraft-assets/pull/37",
    "changed_files": 3,
    "closed_at": "2025-02-09T08:49:42Z",
    "comment_data": [],
    "comment_regular_data": [
        {
            "author_association": "MEMBER",
            "body": "Somehow I can't update this PR ",
            "created_at": "2025-02-09T08:02:40Z",
            "html_url": "https://github.com/PrismarineJS/prismarine-viewer/pull/452#issuecomment-2646115862",
            "id": 2646115862,
            "issue_url": "https://api.github.com/repos/PrismarineJS/prismarine-viewer/issues/452",
            "node_id": "IC_kwDOEC0DT86duIYW",
            "performed_via_github_app": null,
            "reactions": {
                "+1": 0,
                "-1": 0,
                "confused": 0,
                "eyes": 0,
                "heart": 0,
                "hooray": 0,
                "laugh": 0,
                "rocket": 0,
                "total_count": 0,
                "url": "https://api.github.com/repos/PrismarineJS/prismarine-viewer/issues/comments/2646115862/reactions"
            },
            "updated_at": "2025-02-09T08:02:40Z",
            "url": "https://api.github.com/repos/PrismarineJS/prismarine-viewer/issues/comments/2646115862",
            "user": {
                "avatar_url": "https://avatars.githubusercontent.com/u/2346494?v=4",
                "events_url": "https://api.github.com/users/rom1504/events{/privacy}",
                "followers_url": "https://api.github.com/users/rom1504/followers",
                "following_url": "https://api.github.com/users/rom1504/following{/other_user}",
                "gists_url": "https://api.github.com/users/rom1504/gists{/gist_id}",
                "gravatar_id": "",
                "html_url": "https://github.com/rom1504",
                "id": 2346494,
                "login": "rom1504",
                "node_id": "MDQ6VXNlcjIzNDY0OTQ=",
                "organizations_url": "https://api.github.com/users/rom1504/orgs",
                "received_events_url": "https://api.github.com/users/rom1504/received_events",
                "repos_url": "https://api.github.com/users/rom1504/repos",
                "site_admin": false,
                "starred_url": "https://api.github.com/users/rom1504/starred{/owner}{/repo}",
                "subscriptions_url": "https://api.github.com/users/rom1504/subscriptions",
                "type": "User",
                "url": "https://api.github.com/users/rom1504",
                "user_view_type": "public"
            }
        },
        {
            "author_association": "MEMBER",
            "body": "/makerelease ",
            "created_at": "2025-02-09T08:50:16Z",
            "html_url": "https://github.com/PrismarineJS/prismarine-viewer/pull/452#issuecomment-2646131076",
            "id": 2646131076,
            "issue_url": "https://api.github.com/repos/PrismarineJS/prismarine-viewer/issues/452",
            "node_id": "IC_kwDOEC0DT86duMGE",
            "performed_via_github_app": null,
            "reactions": {
                "+1": 0,
                "-1": 0,
                "confused": 0,
                "eyes": 1,
                "heart": 0,
                "hooray": 0,
                "laugh": 0,
                "rocket": 0,
                "total_count": 1,
                "url": "https://api.github.com/repos/PrismarineJS/prismarine-viewer/issues/comments/2646131076/reactions"
            },
            "updated_at": "2025-02-09T08:50:16Z",
            "url": "https://api.github.com/repos/PrismarineJS/prismarine-viewer/issues/comments/2646131076",
            "user": {
                "avatar_url": "https://avatars.githubusercontent.com/u/2346494?v=4",
                "events_url": "https://api.github.com/users/rom1504/events{/privacy}",
                "followers_url": "https://api.github.com/users/rom1504/followers",
                "following_url": "https://api.github.com/users/rom1504/following{/other_user}",
                "gists_url": "https://api.github.com/users/rom1504/gists{/gist_id}",
                "gravatar_id": "",
                "html_url": "https://github.com/rom1504",
                "id": 2346494,
                "login": "rom1504",
                "node_id": "MDQ6VXNlcjIzNDY0OTQ=",
                "organizations_url": "https://api.github.com/users/rom1504/orgs",
                "received_events_url": "https://api.github.com/users/rom1504/received_events",
                "repos_url": "https://api.github.com/users/rom1504/repos",
                "site_admin": false,
                "starred_url": "https://api.github.com/users/rom1504/starred{/owner}{/repo}",
                "subscriptions_url": "https://api.github.com/users/rom1504/subscriptions",
                "type": "User",
                "url": "https://api.github.com/users/rom1504",
                "user_view_type": "public"
            }
        }
    ],
    "comments": 2,
    "comments_url": "https://api.github.com/repos/PrismarineJS/prismarine-viewer/issues/452/comments",
    "commit_data": [
        {
            "author": {
                "avatar_url": "https://avatars.githubusercontent.com/u/45374546?v=4",
                "events_url": "https://api.github.com/users/SuperGamerTron/events{/privacy}",
                "followers_url": "https://api.github.com/users/SuperGamerTron/followers",
                "following_url": "https://api.github.com/users/SuperGamerTron/following{/other_user}",
                "gists_url": "https://api.github.com/users/SuperGamerTron/gists{/gist_id}",
                "gravatar_id": "",
                "html_url": "https://github.com/SuperGamerTron",
                "id": 45374546,
                "login": "SuperGamerTron",
                "node_id": "MDQ6VXNlcjQ1Mzc0NTQ2",
                "organizations_url": "https://api.github.com/users/SuperGamerTron/orgs",
                "received_events_url": "https://api.github.com/users/SuperGamerTron/received_events",
                "repos_url": "https://api.github.com/users/SuperGamerTron/repos",
                "site_admin": false,
                "starred_url": "https://api.github.com/users/SuperGamerTron/starred{/owner}{/repo}",
                "subscriptions_url": "https://api.github.com/users/SuperGamerTron/subscriptions",
                "type": "User",
                "url": "https://api.github.com/users/SuperGamerTron",
                "user_view_type": "public"
            },
            "comments_url": "https://api.github.com/repos/PrismarineJS/prismarine-viewer/commits/971fe7bb56593c20a3f2264e7cc887128b44fa0a/comments",
            "commit": {
                "author": {
                    "date": "2025-01-21T23:49:48Z",
                    "email": "oomonkeygaming@gmail.com",
                    "name": "SuperGamerTron"
                },
                "comment_count": 0,
                "committer": {
                    "date": "2025-01-21T23:49:48Z",
                    "email": "oomonkeygaming@gmail.com",
                    "name": "SuperGamerTron"
                },
                "message": "1.21.4",
                "tree": {
                    "sha": "de0a7df54504ecf22e1f74945071d233d7b90c35",
                    "url": "https://api.github.com/repos/PrismarineJS/prismarine-viewer/git/trees/de0a7df54504ecf22e1f74945071d233d7b90c35"
                },
                "url": "https://api.github.com/repos/PrismarineJS/prismarine-viewer/git/commits/971fe7bb56593c20a3f2264e7cc887128b44fa0a",
                "verification": {
                    "payload": null,
                    "reason": "unsigned",
                    "signature": null,
                    "verified": false,
                    "verified_at": null
                }
            },
            "committer": {
                "avatar_url": "https://avatars.githubusercontent.com/u/45374546?v=4",
                "events_url": "https://api.github.com/users/SuperGamerTron/events{/privacy}",
                "followers_url": "https://api.github.com/users/SuperGamerTron/followers",
                "following_url": "https://api.github.com/users/SuperGamerTron/following{/other_user}",
                "gists_url": "https://api.github.com/users/SuperGamerTron/gists{/gist_id}",
                "gravatar_id": "",
                "html_url": "https://github.com/SuperGamerTron",
                "id": 45374546,
                "login": "SuperGamerTron",
                "node_id": "MDQ6VXNlcjQ1Mzc0NTQ2",
                "organizations_url": "https://api.github.com/users/SuperGamerTron/orgs",
                "received_events_url": "https://api.github.com/users/SuperGamerTron/received_events",
                "repos_url": "https://api.github.com/users/SuperGamerTron/repos",
                "site_admin": false,
                "starred_url": "https://api.github.com/users/SuperGamerTron/starred{/owner}{/repo}",
                "subscriptions_url": "https://api.github.com/users/SuperGamerTron/subscriptions",
                "type": "User",
                "url": "https://api.github.com/users/SuperGamerTron",
                "user_view_type": "public"
            },
            "html_url": "https://github.com/PrismarineJS/prismarine-viewer/commit/971fe7bb56593c20a3f2264e7cc887128b44fa0a",
            "node_id": "C_kwDONWfz6doAKDk3MWZlN2JiNTY1OTNjMjBhM2YyMjY0ZTdjYzg4NzEyOGI0NGZhMGE",
            "parents": [
                {
                    "html_url": "https://github.com/PrismarineJS/prismarine-viewer/commit/42fa864711b6cdc14f9bf777bdd0326ba9214bac",
                    "sha": "42fa864711b6cdc14f9bf777bdd0326ba9214bac",
                    "url": "https://api.github.com/repos/PrismarineJS/prismarine-viewer/commits/42fa864711b6cdc14f9bf777bdd0326ba9214bac"
                }
            ],
            "sha": "971fe7bb56593c20a3f2264e7cc887128b44fa0a",
            "url": "https://api.github.com/repos/PrismarineJS/prismarine-viewer/commits/971fe7bb56593c20a3f2264e7cc887128b44fa0a"
        }
    ],
    "commits": 1,
    "commits_url": "https://api.github.com/repos/PrismarineJS/prismarine-viewer/pulls/452/commits",
    "created_at": "2025-01-22T00:02:25Z",
    "deletions": 3,
    "diff_url": "https://github.com/PrismarineJS/prismarine-viewer/pull/452.diff",
    "draft": false,
    "head": {
        "label": "SuperGamerTron:1.21.4",
        "ref": "1.21.4",
        "repo": {
            "allow_forking": true,
            "archive_url": "https://api.github.com/repos/SuperGamerTron/prismarine-viewer/{archive_format}{/ref}",
            "archived": false,
            "assignees_url": "https://api.github.com/repos/SuperGamerTron/prismarine-viewer/assignees{/user}",
            "blobs_url": "https://api.github.com/repos/SuperGamerTron/prismarine-viewer/git/blobs{/sha}",
            "branches_url": "https://api.github.com/repos/SuperGamerTron/prismarine-viewer/branches{/branch}",
            "clone_url": "https://github.com/SuperGamerTron/prismarine-viewer.git",
            "collaborators_url": "https://api.github.com/repos/SuperGamerTron/prismarine-viewer/collaborators{/collaborator}",
            "comments_url": "https://api.github.com/repos/SuperGamerTron/prismarine-viewer/comments{/number}",
            "commits_url": "https://api.github.com/repos/SuperGamerTron/prismarine-viewer/commits{/sha}",
            "compare_url": "https://api.github.com/repos/SuperGamerTron/prismarine-viewer/compare/{base}...{head}",
            "contents_url": "https://api.github.com/repos/SuperGamerTron/prismarine-viewer/contents/{+path}",
            "contributors_url": "https://api.github.com/repos/SuperGamerTron/prismarine-viewer/contributors",
            "created_at": "2024-11-29T11:00:21Z",
            "default_branch": "master",
            "deployments_url": "https://api.github.com/repos/SuperGamerTron/prismarine-viewer/deployments",
            "description": "Web based viewer for servers and bots",
            "disabled": false,
            "downloads_url": "https://api.github.com/repos/SuperGamerTron/prismarine-viewer/downloads",
            "events_url": "https://api.github.com/repos/SuperGamerTron/prismarine-viewer/events",
            "fork": true,
            "forks": 0,
            "forks_count": 0,
            "forks_url": "https://api.github.com/repos/SuperGamerTron/prismarine-viewer/forks",
            "full_name": "SuperGamerTron/prismarine-viewer",
            "git_commits_url": "https://api.github.com/repos/SuperGamerTron/prismarine-viewer/git/commits{/sha}",
            "git_refs_url": "https://api.github.com/repos/SuperGamerTron/prismarine-viewer/git/refs{/sha}",
            "git_tags_url": "https://api.github.com/repos/SuperGamerTron/prismarine-viewer/git/tags{/sha}",
            "git_url": "git://github.com/SuperGamerTron/prismarine-viewer.git",
            "has_discussions": false,
            "has_downloads": true,
            "has_issues": false,
            "has_pages": false,
            "has_projects": true,
            "has_wiki": true,
            "homepage": "https://prismarinejs.github.io/prismarine-viewer/",
            "hooks_url": "https://api.github.com/repos/SuperGamerTron/prismarine-viewer/hooks",
            "html_url": "https://github.com/SuperGamerTron/prismarine-viewer",
            "id": 896005097,
            "is_template": false,
            "issue_comment_url": "https://api.github.com/repos/SuperGamerTron/prismarine-viewer/issues/comments{/number}",
            "issue_events_url": "https://api.github.com/repos/SuperGamerTron/prismarine-viewer/issues/events{/number}",
            "issues_url": "https://api.github.com/repos/SuperGamerTron/prismarine-viewer/issues{/number}",
            "keys_url": "https://api.github.com/repos/SuperGamerTron/prismarine-viewer/keys{/key_id}",
            "labels_url": "https://api.github.com/repos/SuperGamerTron/prismarine-viewer/labels{/name}",
            "language": "JavaScript",
            "languages_url": "https://api.github.com/repos/SuperGamerTron/prismarine-viewer/languages",
            "license": {
                "key": "mit",
                "name": "MIT License",
                "node_id": "MDc6TGljZW5zZTEz",
                "spdx_id": "MIT",
                "url": "https://api.github.com/licenses/mit"
            },
            "merges_url": "https://api.github.com/repos/SuperGamerTron/prismarine-viewer/merges",
            "milestones_url": "https://api.github.com/repos/SuperGamerTron/prismarine-viewer/milestones{/number}",
            "mirror_url": null,
            "name": "prismarine-viewer",
            "node_id": "R_kgDONWfz6Q",
            "notifications_url": "https://api.github.com/repos/SuperGamerTron/prismarine-viewer/notifications{?since,all,participating}",
            "open_issues": 1,
            "open_issues_count": 1,
            "owner": {
                "avatar_url": "https://avatars.githubusercontent.com/u/45374546?v=4",
                "events_url": "https://api.github.com/users/SuperGamerTron/events{/privacy}",
                "followers_url": "https://api.github.com/users/SuperGamerTron/followers",
                "following_url": "https://api.github.com/users/SuperGamerTron/following{/other_user}",
                "gists_url": "https://api.github.com/users/SuperGamerTron/gists{/gist_id}",
                "gravatar_id": "",
                "html_url": "https://github.com/SuperGamerTron",
                "id": 45374546,
                "login": "SuperGamerTron",
                "node_id": "MDQ6VXNlcjQ1Mzc0NTQ2",
                "organizations_url": "https://api.github.com/users/SuperGamerTron/orgs",
                "received_events_url": "https://api.github.com/users/SuperGamerTron/received_events",
                "repos_url": "https://api.github.com/users/SuperGamerTron/repos",
                "site_admin": false,
                "starred_url": "https://api.github.com/users/SuperGamerTron/starred{/owner}{/repo}",
                "subscriptions_url": "https://api.github.com/users/SuperGamerTron/subscriptions",
                "type": "User",
                "url": "https://api.github.com/users/SuperGamerTron",
                "user_view_type": "public"
            },
            "private": false,
            "pulls_url": "https://api.github.com/repos/SuperGamerTron/prismarine-viewer/pulls{/number}",
            "pushed_at": "2025-01-21T23:50:23Z",
            "releases_url": "https://api.github.com/repos/SuperGamerTron/prismarine-viewer/releases{/id}",
            "size": 18421,
            "ssh_url": "git@github.com:SuperGamerTron/prismarine-viewer.git",
            "stargazers_count": 0,
            "stargazers_url": "https://api.github.com/repos/SuperGamerTron/prismarine-viewer/stargazers",
            "statuses_url": "https://api.github.com/repos/SuperGamerTron/prismarine-viewer/statuses/{sha}",
            "subscribers_url": "https://api.github.com/repos/SuperGamerTron/prismarine-viewer/subscribers",
            "subscription_url": "https://api.github.com/repos/SuperGamerTron/prismarine-viewer/subscription",
            "svn_url": "https://github.com/SuperGamerTron/prismarine-viewer",
            "tags_url": "https://api.github.com/repos/SuperGamerTron/prismarine-viewer/tags",
            "teams_url": "https://api.github.com/repos/SuperGamerTron/prismarine-viewer/teams",
            "topics": [],
            "trees_url": "https://api.github.com/repos/SuperGamerTron/prismarine-viewer/git/trees{/sha}",
            "updated_at": "2025-01-21T23:44:04Z",
            "url": "https://api.github.com/repos/SuperGamerTron/prismarine-viewer",
            "visibility": "public",
            "watchers": 0,
            "watchers_count": 0,
            "web_commit_signoff_required": false
        },
        "sha": "971fe7bb56593c20a3f2264e7cc887128b44fa0a",
        "user": {
            "avatar_url": "https://avatars.githubusercontent.com/u/45374546?v=4",
            "events_url": "https://api.github.com/users/SuperGamerTron/events{/privacy}",
            "followers_url": "https://api.github.com/users/SuperGamerTron/followers",
            "following_url": "https://api.github.com/users/SuperGamerTron/following{/other_user}",
            "gists_url": "https://api.github.com/users/SuperGamerTron/gists{/gist_id}",
            "gravatar_id": "",
            "html_url": "https://github.com/SuperGamerTron",
            "id": 45374546,
            "login": "SuperGamerTron",
            "node_id": "MDQ6VXNlcjQ1Mzc0NTQ2",
            "organizations_url": "https://api.github.com/users/SuperGamerTron/orgs",
            "received_events_url": "https://api.github.com/users/SuperGamerTron/received_events",
            "repos_url": "https://api.github.com/users/SuperGamerTron/repos",
            "site_admin": false,
            "starred_url": "https://api.github.com/users/SuperGamerTron/starred{/owner}{/repo}",
            "subscriptions_url": "https://api.github.com/users/SuperGamerTron/subscriptions",
            "type": "User",
            "url": "https://api.github.com/users/SuperGamerTron",
            "user_view_type": "public"
        }
    },
    "html_url": "https://github.com/PrismarineJS/prismarine-viewer/pull/452",
    "id": 2291069300,
    "issue_url": "https://api.github.com/repos/PrismarineJS/prismarine-viewer/issues/452",
    "labels": [],
    "locked": false,
    "maintainer_can_modify": false,
    "merge_commit_sha": "cf65208c2df9520dba8d8bc00ce9cc9f63edbe78",
    "mergeable": null,
    "mergeable_state": "unknown",
    "merged": true,
    "merged_at": "2025-02-09T08:49:42Z",
    "merged_by": {
        "avatar_url": "https://avatars.githubusercontent.com/u/2346494?v=4",
        "events_url": "https://api.github.com/users/rom1504/events{/privacy}",
        "followers_url": "https://api.github.com/users/rom1504/followers",
        "following_url": "https://api.github.com/users/rom1504/following{/other_user}",
        "gists_url": "https://api.github.com/users/rom1504/gists{/gist_id}",
        "gravatar_id": "",
        "html_url": "https://github.com/rom1504",
        "id": 2346494,
        "login": "rom1504",
        "node_id": "MDQ6VXNlcjIzNDY0OTQ=",
        "organizations_url": "https://api.github.com/users/rom1504/orgs",
        "received_events_url": "https://api.github.com/users/rom1504/received_events",
        "repos_url": "https://api.github.com/users/rom1504/repos",
        "site_admin": false,
        "starred_url": "https://api.github.com/users/rom1504/starred{/owner}{/repo}",
        "subscriptions_url": "https://api.github.com/users/rom1504/subscriptions",
        "type": "User",
        "url": "https://api.github.com/users/rom1504",
        "user_view_type": "public"
    },
    "milestone": null,
    "node_id": "PR_kwDOEC0DT86IjvF0",
    "number": 452,
    "patch_url": "https://github.com/PrismarineJS/prismarine-viewer/pull/452.patch",
    "rebaseable": null,
    "requested_reviewers": [],
    "requested_teams": [],
    "review_comment_url": "https://api.github.com/repos/PrismarineJS/prismarine-viewer/pulls/comments{/number}",
    "review_comments": 0,
    "review_comments_url": "https://api.github.com/repos/PrismarineJS/prismarine-viewer/pulls/452/comments",
    "state": "closed",
    "statuses_url": "https://api.github.com/repos/PrismarineJS/prismarine-viewer/statuses/971fe7bb56593c20a3f2264e7cc887128b44fa0a",
    "title": "1.21.4",
    "updated_at": "2025-02-09T08:50:16Z",
    "url": "https://api.github.com/repos/PrismarineJS/prismarine-viewer/pulls/452",
    "user": {
        "avatar_url": "https://avatars.githubusercontent.com/u/45374546?v=4",
        "events_url": "https://api.github.com/users/SuperGamerTron/events{/privacy}",
        "followers_url": "https://api.github.com/users/SuperGamerTron/followers",
        "following_url": "https://api.github.com/users/SuperGamerTron/following{/other_user}",
        "gists_url": "https://api.github.com/users/SuperGamerTron/gists{/gist_id}",
        "gravatar_id": "",
        "html_url": "https://github.com/SuperGamerTron",
        "id": 45374546,
        "login": "SuperGamerTron",
        "node_id": "MDQ6VXNlcjQ1Mzc0NTQ2",
        "organizations_url": "https://api.github.com/users/SuperGamerTron/orgs",
        "received_events_url": "https://api.github.com/users/SuperGamerTron/received_events",
        "repos_url": "https://api.github.com/users/SuperGamerTron/repos",
        "site_admin": false,
        "starred_url": "https://api.github.com/users/SuperGamerTron/starred{/owner}{/repo}",
        "subscriptions_url": "https://api.github.com/users/SuperGamerTron/subscriptions",
        "type": "User",
        "url": "https://api.github.com/users/SuperGamerTron",
        "user_view_type": "public"
    }
}