{
    "_links": {
        "comments": {
            "href": "https://api.github.com/repos/PrismarineJS/prismarine-viewer/issues/79/comments"
        },
        "commits": {
            "href": "https://api.github.com/repos/PrismarineJS/prismarine-viewer/pulls/79/commits"
        },
        "html": {
            "href": "https://github.com/PrismarineJS/prismarine-viewer/pull/79"
        },
        "issue": {
            "href": "https://api.github.com/repos/PrismarineJS/prismarine-viewer/issues/79"
        },
        "review_comment": {
            "href": "https://api.github.com/repos/PrismarineJS/prismarine-viewer/pulls/comments{/number}"
        },
        "review_comments": {
            "href": "https://api.github.com/repos/PrismarineJS/prismarine-viewer/pulls/79/comments"
        },
        "self": {
            "href": "https://api.github.com/repos/PrismarineJS/prismarine-viewer/pulls/79"
        },
        "statuses": {
            "href": "https://api.github.com/repos/PrismarineJS/prismarine-viewer/statuses/aceeaba3653a87529f47202fcbaeb8bb8f9da8d2"
        }
    },
    "active_lock_reason": null,
    "additions": 599,
    "assignee": null,
    "assignees": [],
    "author_association": "MEMBER",
    "auto_merge": null,
    "base": {
        "label": "PrismarineJS:karang",
        "ref": "karang",
        "repo": {
            "allow_forking": true,
            "archive_url": "https://api.github.com/repos/PrismarineJS/prismarine-viewer/{archive_format}{/ref}",
            "archived": false,
            "assignees_url": "https://api.github.com/repos/PrismarineJS/prismarine-viewer/assignees{/user}",
            "blobs_url": "https://api.github.com/repos/PrismarineJS/prismarine-viewer/git/blobs{/sha}",
            "branches_url": "https://api.github.com/repos/PrismarineJS/prismarine-viewer/branches{/branch}",
            "clone_url": "https://github.com/PrismarineJS/prismarine-viewer.git",
            "collaborators_url": "https://api.github.com/repos/PrismarineJS/prismarine-viewer/collaborators{/collaborator}",
            "comments_url": "https://api.github.com/repos/PrismarineJS/prismarine-viewer/comments{/number}",
            "commits_url": "https://api.github.com/repos/PrismarineJS/prismarine-viewer/commits{/sha}",
            "compare_url": "https://api.github.com/repos/PrismarineJS/prismarine-viewer/compare/{base}...{head}",
            "contents_url": "https://api.github.com/repos/PrismarineJS/prismarine-viewer/contents/{+path}",
            "contributors_url": "https://api.github.com/repos/PrismarineJS/prismarine-viewer/contributors",
            "created_at": "2020-06-10T21:05:49Z",
            "default_branch": "master",
            "deployments_url": "https://api.github.com/repos/PrismarineJS/prismarine-viewer/deployments",
            "description": "Web based viewer for servers and bots",
            "disabled": false,
            "downloads_url": "https://api.github.com/repos/PrismarineJS/prismarine-viewer/downloads",
            "events_url": "https://api.github.com/repos/PrismarineJS/prismarine-viewer/events",
            "fork": false,
            "forks": 57,
            "forks_count": 57,
            "forks_url": "https://api.github.com/repos/PrismarineJS/prismarine-viewer/forks",
            "full_name": "PrismarineJS/prismarine-viewer",
            "git_commits_url": "https://api.github.com/repos/PrismarineJS/prismarine-viewer/git/commits{/sha}",
            "git_refs_url": "https://api.github.com/repos/PrismarineJS/prismarine-viewer/git/refs{/sha}",
            "git_tags_url": "https://api.github.com/repos/PrismarineJS/prismarine-viewer/git/tags{/sha}",
            "git_url": "git://github.com/PrismarineJS/prismarine-viewer.git",
            "has_discussions": false,
            "has_downloads": true,
            "has_issues": true,
            "has_pages": true,
            "has_projects": true,
            "has_wiki": true,
            "homepage": "https://prismarinejs.github.io/prismarine-viewer/",
            "hooks_url": "https://api.github.com/repos/PrismarineJS/prismarine-viewer/hooks",
            "html_url": "https://github.com/PrismarineJS/prismarine-viewer",
            "id": 271385423,
            "is_template": false,
            "issue_comment_url": "https://api.github.com/repos/PrismarineJS/prismarine-viewer/issues/comments{/number}",
            "issue_events_url": "https://api.github.com/repos/PrismarineJS/prismarine-viewer/issues/events{/number}",
            "issues_url": "https://api.github.com/repos/PrismarineJS/prismarine-viewer/issues{/number}",
            "keys_url": "https://api.github.com/repos/PrismarineJS/prismarine-viewer/keys{/key_id}",
            "labels_url": "https://api.github.com/repos/PrismarineJS/prismarine-viewer/labels{/name}",
            "language": "JavaScript",
            "languages_url": "https://api.github.com/repos/PrismarineJS/prismarine-viewer/languages",
            "license": {
                "key": "mit",
                "name": "MIT License",
                "node_id": "MDc6TGljZW5zZTEz",
                "spdx_id": "MIT",
                "url": "https://api.github.com/licenses/mit"
            },
            "merges_url": "https://api.github.com/repos/PrismarineJS/prismarine-viewer/merges",
            "milestones_url": "https://api.github.com/repos/PrismarineJS/prismarine-viewer/milestones{/number}",
            "mirror_url": null,
            "name": "prismarine-viewer",
            "node_id": "MDEwOlJlcG9zaXRvcnkyNzEzODU0MjM=",
            "notifications_url": "https://api.github.com/repos/PrismarineJS/prismarine-viewer/notifications{?since,all,participating}",
            "open_issues": 69,
            "open_issues_count": 69,
            "owner": {
                "avatar_url": "https://avatars.githubusercontent.com/u/11053411?v=4",
                "events_url": "https://api.github.com/users/PrismarineJS/events{/privacy}",
                "followers_url": "https://api.github.com/users/PrismarineJS/followers",
                "following_url": "https://api.github.com/users/PrismarineJS/following{/other_user}",
                "gists_url": "https://api.github.com/users/PrismarineJS/gists{/gist_id}",
                "gravatar_id": "",
                "html_url": "https://github.com/PrismarineJS",
                "id": 11053411,
                "login": "PrismarineJS",
                "node_id": "MDEyOk9yZ2FuaXphdGlvbjExMDUzNDEx",
                "organizations_url": "https://api.github.com/users/PrismarineJS/orgs",
                "received_events_url": "https://api.github.com/users/PrismarineJS/received_events",
                "repos_url": "https://api.github.com/users/PrismarineJS/repos",
                "site_admin": false,
                "starred_url": "https://api.github.com/users/PrismarineJS/starred{/owner}{/repo}",
                "subscriptions_url": "https://api.github.com/users/PrismarineJS/subscriptions",
                "type": "Organization",
                "url": "https://api.github.com/users/PrismarineJS"
            },
            "private": false,
            "pulls_url": "https://api.github.com/repos/PrismarineJS/prismarine-viewer/pulls{/number}",
            "pushed_at": "2023-04-25T00:59:53Z",
            "releases_url": "https://api.github.com/repos/PrismarineJS/prismarine-viewer/releases{/id}",
            "size": 309473,
            "ssh_url": "git@github.com:PrismarineJS/prismarine-viewer.git",
            "stargazers_count": 168,
            "stargazers_url": "https://api.github.com/repos/PrismarineJS/prismarine-viewer/stargazers",
            "statuses_url": "https://api.github.com/repos/PrismarineJS/prismarine-viewer/statuses/{sha}",
            "subscribers_url": "https://api.github.com/repos/PrismarineJS/prismarine-viewer/subscribers",
            "subscription_url": "https://api.github.com/repos/PrismarineJS/prismarine-viewer/subscription",
            "svn_url": "https://github.com/PrismarineJS/prismarine-viewer",
            "tags_url": "https://api.github.com/repos/PrismarineJS/prismarine-viewer/tags",
            "teams_url": "https://api.github.com/repos/PrismarineJS/prismarine-viewer/teams",
            "topics": [],
            "trees_url": "https://api.github.com/repos/PrismarineJS/prismarine-viewer/git/trees{/sha}",
            "updated_at": "2023-04-24T03:47:17Z",
            "url": "https://api.github.com/repos/PrismarineJS/prismarine-viewer",
            "visibility": "public",
            "watchers": 168,
            "watchers_count": 168,
            "web_commit_signoff_required": false
        },
        "sha": "0ec43e19ed5a4d825106c49f8f4fc550b37859ba",
        "user": {
            "avatar_url": "https://avatars.githubusercontent.com/u/11053411?v=4",
            "events_url": "https://api.github.com/users/PrismarineJS/events{/privacy}",
            "followers_url": "https://api.github.com/users/PrismarineJS/followers",
            "following_url": "https://api.github.com/users/PrismarineJS/following{/other_user}",
            "gists_url": "https://api.github.com/users/PrismarineJS/gists{/gist_id}",
            "gravatar_id": "",
            "html_url": "https://github.com/PrismarineJS",
            "id": 11053411,
            "login": "PrismarineJS",
            "node_id": "MDEyOk9yZ2FuaXphdGlvbjExMDUzNDEx",
            "organizations_url": "https://api.github.com/users/PrismarineJS/orgs",
            "received_events_url": "https://api.github.com/users/PrismarineJS/received_events",
            "repos_url": "https://api.github.com/users/PrismarineJS/repos",
            "site_admin": false,
            "starred_url": "https://api.github.com/users/PrismarineJS/starred{/owner}{/repo}",
            "subscriptions_url": "https://api.github.com/users/PrismarineJS/subscriptions",
            "type": "Organization",
            "url": "https://api.github.com/users/PrismarineJS"
        }
    },
    "body": "@extremeheat",
    "changed_files": 16,
    "closed_at": "2020-12-19T15:18:00Z",
    "comment_data": [],
    "comment_regular_data": [],
    "comments": 0,
    "comments_url": "https://api.github.com/repos/PrismarineJS/prismarine-viewer/issues/79/comments",
    "commit_data": [
        {
            "author": {
                "avatar_url": "https://avatars.githubusercontent.com/u/13713600?v=4",
                "events_url": "https://api.github.com/users/extremeheat/events{/privacy}",
                "followers_url": "https://api.github.com/users/extremeheat/followers",
                "following_url": "https://api.github.com/users/extremeheat/following{/other_user}",
                "gists_url": "https://api.github.com/users/extremeheat/gists{/gist_id}",
                "gravatar_id": "",
                "html_url": "https://github.com/extremeheat",
                "id": 13713600,
                "login": "extremeheat",
                "node_id": "MDQ6VXNlcjEzNzEzNjAw",
                "organizations_url": "https://api.github.com/users/extremeheat/orgs",
                "received_events_url": "https://api.github.com/users/extremeheat/received_events",
                "repos_url": "https://api.github.com/users/extremeheat/repos",
                "site_admin": false,
                "starred_url": "https://api.github.com/users/extremeheat/starred{/owner}{/repo}",
                "subscriptions_url": "https://api.github.com/users/extremeheat/subscriptions",
                "type": "User",
                "url": "https://api.github.com/users/extremeheat"
            },
            "comments_url": "https://api.github.com/repos/PrismarineJS/prismarine-viewer/commits/38686d89c14c290080a7315bb84581997ad42dc6/comments",
            "commit": {
                "author": {
                    "date": "2020-12-16T11:57:03Z",
                    "email": "extreme@protonmail.ch",
                    "name": "extremeheat"
                },
                "comment_count": 0,
                "committer": {
                    "date": "2020-12-16T11:57:03Z",
                    "email": "extreme@protonmail.ch",
                    "name": "extremeheat"
                },
                "message": "electron demo",
                "tree": {
                    "sha": "1b5eae162953fec176df9f04b16f25a26cde07ed",
                    "url": "https://api.github.com/repos/PrismarineJS/prismarine-viewer/git/trees/1b5eae162953fec176df9f04b16f25a26cde07ed"
                },
                "url": "https://api.github.com/repos/PrismarineJS/prismarine-viewer/git/commits/38686d89c14c290080a7315bb84581997ad42dc6",
                "verification": {
                    "payload": null,
                    "reason": "unsigned",
                    "signature": null,
                    "verified": false
                }
            },
            "committer": {
                "avatar_url": "https://avatars.githubusercontent.com/u/13713600?v=4",
                "events_url": "https://api.github.com/users/extremeheat/events{/privacy}",
                "followers_url": "https://api.github.com/users/extremeheat/followers",
                "following_url": "https://api.github.com/users/extremeheat/following{/other_user}",
                "gists_url": "https://api.github.com/users/extremeheat/gists{/gist_id}",
                "gravatar_id": "",
                "html_url": "https://github.com/extremeheat",
                "id": 13713600,
                "login": "extremeheat",
                "node_id": "MDQ6VXNlcjEzNzEzNjAw",
                "organizations_url": "https://api.github.com/users/extremeheat/orgs",
                "received_events_url": "https://api.github.com/users/extremeheat/received_events",
                "repos_url": "https://api.github.com/users/extremeheat/repos",
                "site_admin": false,
                "starred_url": "https://api.github.com/users/extremeheat/starred{/owner}{/repo}",
                "subscriptions_url": "https://api.github.com/users/extremeheat/subscriptions",
                "type": "User",
                "url": "https://api.github.com/users/extremeheat"
            },
            "html_url": "https://github.com/PrismarineJS/prismarine-viewer/commit/38686d89c14c290080a7315bb84581997ad42dc6",
            "node_id": "MDY6Q29tbWl0MzE5MTA4MzY1OjM4Njg2ZDg5YzE0YzI5MDA4MGE3MzE1YmI4NDU4MTk5N2FkNDJkYzY=",
            "parents": [
                {
                    "html_url": "https://github.com/PrismarineJS/prismarine-viewer/commit/0ec43e19ed5a4d825106c49f8f4fc550b37859ba",
                    "sha": "0ec43e19ed5a4d825106c49f8f4fc550b37859ba",
                    "url": "https://api.github.com/repos/PrismarineJS/prismarine-viewer/commits/0ec43e19ed5a4d825106c49f8f4fc550b37859ba"
                }
            ],
            "sha": "38686d89c14c290080a7315bb84581997ad42dc6",
            "url": "https://api.github.com/repos/PrismarineJS/prismarine-viewer/commits/38686d89c14c290080a7315bb84581997ad42dc6"
        },
        {
            "author": {
                "avatar_url": "https://avatars.githubusercontent.com/u/13713600?v=4",
                "events_url": "https://api.github.com/users/extremeheat/events{/privacy}",
                "followers_url": "https://api.github.com/users/extremeheat/followers",
                "following_url": "https://api.github.com/users/extremeheat/following{/other_user}",
                "gists_url": "https://api.github.com/users/extremeheat/gists{/gist_id}",
                "gravatar_id": "",
                "html_url": "https://github.com/extremeheat",
                "id": 13713600,
                "login": "extremeheat",
                "node_id": "MDQ6VXNlcjEzNzEzNjAw",
                "organizations_url": "https://api.github.com/users/extremeheat/orgs",
                "received_events_url": "https://api.github.com/users/extremeheat/received_events",
                "repos_url": "https://api.github.com/users/extremeheat/repos",
                "site_admin": false,
                "starred_url": "https://api.github.com/users/extremeheat/starred{/owner}{/repo}",
                "subscriptions_url": "https://api.github.com/users/extremeheat/subscriptions",
                "type": "User",
                "url": "https://api.github.com/users/extremeheat"
            },
            "comments_url": "https://api.github.com/repos/PrismarineJS/prismarine-viewer/commits/f2d6dddc2c48e1615aec76a0648e21a1302e2c14/comments",
            "commit": {
                "author": {
                    "date": "2020-12-16T21:53:46Z",
                    "email": "extreme@protonmail.ch",
                    "name": "extremeheat"
                },
                "comment_count": 0,
                "committer": {
                    "date": "2020-12-16T21:54:09Z",
                    "email": "extreme@protonmail.ch",
                    "name": "extremeheat"
                },
                "message": "examples/electron: working world loading",
                "tree": {
                    "sha": "28010f07f3142686cd7771de03d3bcff0d5d488d",
                    "url": "https://api.github.com/repos/PrismarineJS/prismarine-viewer/git/trees/28010f07f3142686cd7771de03d3bcff0d5d488d"
                },
                "url": "https://api.github.com/repos/PrismarineJS/prismarine-viewer/git/commits/f2d6dddc2c48e1615aec76a0648e21a1302e2c14",
                "verification": {
                    "payload": null,
                    "reason": "unsigned",
                    "signature": null,
                    "verified": false
                }
            },
            "committer": {
                "avatar_url": "https://avatars.githubusercontent.com/u/13713600?v=4",
                "events_url": "https://api.github.com/users/extremeheat/events{/privacy}",
                "followers_url": "https://api.github.com/users/extremeheat/followers",
                "following_url": "https://api.github.com/users/extremeheat/following{/other_user}",
                "gists_url": "https://api.github.com/users/extremeheat/gists{/gist_id}",
                "gravatar_id": "",
                "html_url": "https://github.com/extremeheat",
                "id": 13713600,
                "login": "extremeheat",
                "node_id": "MDQ6VXNlcjEzNzEzNjAw",
                "organizations_url": "https://api.github.com/users/extremeheat/orgs",
                "received_events_url": "https://api.github.com/users/extremeheat/received_events",
                "repos_url": "https://api.github.com/users/extremeheat/repos",
                "site_admin": false,
                "starred_url": "https://api.github.com/users/extremeheat/starred{/owner}{/repo}",
                "subscriptions_url": "https://api.github.com/users/extremeheat/subscriptions",
                "type": "User",
                "url": "https://api.github.com/users/extremeheat"
            },
            "html_url": "https://github.com/PrismarineJS/prismarine-viewer/commit/f2d6dddc2c48e1615aec76a0648e21a1302e2c14",
            "node_id": "MDY6Q29tbWl0MzE5MTA4MzY1OmYyZDZkZGRjMmM0OGUxNjE1YWVjNzZhMDY0OGUyMWExMzAyZTJjMTQ=",
            "parents": [
                {
                    "html_url": "https://github.com/PrismarineJS/prismarine-viewer/commit/38686d89c14c290080a7315bb84581997ad42dc6",
                    "sha": "38686d89c14c290080a7315bb84581997ad42dc6",
                    "url": "https://api.github.com/repos/PrismarineJS/prismarine-viewer/commits/38686d89c14c290080a7315bb84581997ad42dc6"
                }
            ],
            "sha": "f2d6dddc2c48e1615aec76a0648e21a1302e2c14",
            "url": "https://api.github.com/repos/PrismarineJS/prismarine-viewer/commits/f2d6dddc2c48e1615aec76a0648e21a1302e2c14"
        },
        {
            "author": {
                "avatar_url": "https://avatars.githubusercontent.com/u/13713600?v=4",
                "events_url": "https://api.github.com/users/extremeheat/events{/privacy}",
                "followers_url": "https://api.github.com/users/extremeheat/followers",
                "following_url": "https://api.github.com/users/extremeheat/following{/other_user}",
                "gists_url": "https://api.github.com/users/extremeheat/gists{/gist_id}",
                "gravatar_id": "",
                "html_url": "https://github.com/extremeheat",
                "id": 13713600,
                "login": "extremeheat",
                "node_id": "MDQ6VXNlcjEzNzEzNjAw",
                "organizations_url": "https://api.github.com/users/extremeheat/orgs",
                "received_events_url": "https://api.github.com/users/extremeheat/received_events",
                "repos_url": "https://api.github.com/users/extremeheat/repos",
                "site_admin": false,
                "starred_url": "https://api.github.com/users/extremeheat/starred{/owner}{/repo}",
                "subscriptions_url": "https://api.github.com/users/extremeheat/subscriptions",
                "type": "User",
                "url": "https://api.github.com/users/extremeheat"
            },
            "comments_url": "https://api.github.com/repos/PrismarineJS/prismarine-viewer/commits/aceeaba3653a87529f47202fcbaeb8bb8f9da8d2/comments",
            "commit": {
                "author": {
                    "date": "2020-12-16T21:59:44Z",
                    "email": "extreme@protonmail.ch",
                    "name": "extremeheat"
                },
                "comment_count": 0,
                "committer": {
                    "date": "2020-12-16T21:59:44Z",
                    "email": "extreme@protonmail.ch",
                    "name": "extremeheat"
                },
                "message": "examples/electron: control fix",
                "tree": {
                    "sha": "9b776cba34554d8a07f303934f138f2615515a12",
                    "url": "https://api.github.com/repos/PrismarineJS/prismarine-viewer/git/trees/9b776cba34554d8a07f303934f138f2615515a12"
                },
                "url": "https://api.github.com/repos/PrismarineJS/prismarine-viewer/git/commits/aceeaba3653a87529f47202fcbaeb8bb8f9da8d2",
                "verification": {
                    "payload": null,
                    "reason": "unsigned",
                    "signature": null,
                    "verified": false
                }
            },
            "committer": {
                "avatar_url": "https://avatars.githubusercontent.com/u/13713600?v=4",
                "events_url": "https://api.github.com/users/extremeheat/events{/privacy}",
                "followers_url": "https://api.github.com/users/extremeheat/followers",
                "following_url": "https://api.github.com/users/extremeheat/following{/other_user}",
                "gists_url": "https://api.github.com/users/extremeheat/gists{/gist_id}",
                "gravatar_id": "",
                "html_url": "https://github.com/extremeheat",
                "id": 13713600,
                "login": "extremeheat",
                "node_id": "MDQ6VXNlcjEzNzEzNjAw",
                "organizations_url": "https://api.github.com/users/extremeheat/orgs",
                "received_events_url": "https://api.github.com/users/extremeheat/received_events",
                "repos_url": "https://api.github.com/users/extremeheat/repos",
                "site_admin": false,
                "starred_url": "https://api.github.com/users/extremeheat/starred{/owner}{/repo}",
                "subscriptions_url": "https://api.github.com/users/extremeheat/subscriptions",
                "type": "User",
                "url": "https://api.github.com/users/extremeheat"
            },
            "html_url": "https://github.com/PrismarineJS/prismarine-viewer/commit/aceeaba3653a87529f47202fcbaeb8bb8f9da8d2",
            "node_id": "MDY6Q29tbWl0MzE5MTA4MzY1OmFjZWVhYmEzNjUzYTg3NTI5ZjQ3MjAyZmNiYWViOGJiOGY5ZGE4ZDI=",
            "parents": [
                {
                    "html_url": "https://github.com/PrismarineJS/prismarine-viewer/commit/f2d6dddc2c48e1615aec76a0648e21a1302e2c14",
                    "sha": "f2d6dddc2c48e1615aec76a0648e21a1302e2c14",
                    "url": "https://api.github.com/repos/PrismarineJS/prismarine-viewer/commits/f2d6dddc2c48e1615aec76a0648e21a1302e2c14"
                }
            ],
            "sha": "aceeaba3653a87529f47202fcbaeb8bb8f9da8d2",
            "url": "https://api.github.com/repos/PrismarineJS/prismarine-viewer/commits/aceeaba3653a87529f47202fcbaeb8bb8f9da8d2"
        }
    ],
    "commits": 3,
    "commits_url": "https://api.github.com/repos/PrismarineJS/prismarine-viewer/pulls/79/commits",
    "created_at": "2020-12-19T15:03:18Z",
    "deletions": 4,
    "diff_url": "https://github.com/PrismarineJS/prismarine-viewer/pull/79.diff",
    "draft": false,
    "head": {
        "label": "extremeheat:electrondemo",
        "ref": "electrondemo",
        "repo": {
            "allow_forking": true,
            "archive_url": "https://api.github.com/repos/extremeheat/prismarine-viewer/{archive_format}{/ref}",
            "archived": false,
            "assignees_url": "https://api.github.com/repos/extremeheat/prismarine-viewer/assignees{/user}",
            "blobs_url": "https://api.github.com/repos/extremeheat/prismarine-viewer/git/blobs{/sha}",
            "branches_url": "https://api.github.com/repos/extremeheat/prismarine-viewer/branches{/branch}",
            "clone_url": "https://github.com/extremeheat/prismarine-viewer.git",
            "collaborators_url": "https://api.github.com/repos/extremeheat/prismarine-viewer/collaborators{/collaborator}",
            "comments_url": "https://api.github.com/repos/extremeheat/prismarine-viewer/comments{/number}",
            "commits_url": "https://api.github.com/repos/extremeheat/prismarine-viewer/commits{/sha}",
            "compare_url": "https://api.github.com/repos/extremeheat/prismarine-viewer/compare/{base}...{head}",
            "contents_url": "https://api.github.com/repos/extremeheat/prismarine-viewer/contents/{+path}",
            "contributors_url": "https://api.github.com/repos/extremeheat/prismarine-viewer/contributors",
            "created_at": "2020-12-06T18:58:40Z",
            "default_branch": "master",
            "deployments_url": "https://api.github.com/repos/extremeheat/prismarine-viewer/deployments",
            "description": "Web based viewer for servers and bots",
            "disabled": false,
            "downloads_url": "https://api.github.com/repos/extremeheat/prismarine-viewer/downloads",
            "events_url": "https://api.github.com/repos/extremeheat/prismarine-viewer/events",
            "fork": true,
            "forks": 0,
            "forks_count": 0,
            "forks_url": "https://api.github.com/repos/extremeheat/prismarine-viewer/forks",
            "full_name": "extremeheat/prismarine-viewer",
            "git_commits_url": "https://api.github.com/repos/extremeheat/prismarine-viewer/git/commits{/sha}",
            "git_refs_url": "https://api.github.com/repos/extremeheat/prismarine-viewer/git/refs{/sha}",
            "git_tags_url": "https://api.github.com/repos/extremeheat/prismarine-viewer/git/tags{/sha}",
            "git_url": "git://github.com/extremeheat/prismarine-viewer.git",
            "has_discussions": false,
            "has_downloads": true,
            "has_issues": false,
            "has_pages": false,
            "has_projects": true,
            "has_wiki": true,
            "homepage": "https://prismarine.js.org/prismarine-viewer/",
            "hooks_url": "https://api.github.com/repos/extremeheat/prismarine-viewer/hooks",
            "html_url": "https://github.com/extremeheat/prismarine-viewer",
            "id": 319108365,
            "is_template": false,
            "issue_comment_url": "https://api.github.com/repos/extremeheat/prismarine-viewer/issues/comments{/number}",
            "issue_events_url": "https://api.github.com/repos/extremeheat/prismarine-viewer/issues/events{/number}",
            "issues_url": "https://api.github.com/repos/extremeheat/prismarine-viewer/issues{/number}",
            "keys_url": "https://api.github.com/repos/extremeheat/prismarine-viewer/keys{/key_id}",
            "labels_url": "https://api.github.com/repos/extremeheat/prismarine-viewer/labels{/name}",
            "language": "JavaScript",
            "languages_url": "https://api.github.com/repos/extremeheat/prismarine-viewer/languages",
            "license": {
                "key": "mit",
                "name": "MIT License",
                "node_id": "MDc6TGljZW5zZTEz",
                "spdx_id": "MIT",
                "url": "https://api.github.com/licenses/mit"
            },
            "merges_url": "https://api.github.com/repos/extremeheat/prismarine-viewer/merges",
            "milestones_url": "https://api.github.com/repos/extremeheat/prismarine-viewer/milestones{/number}",
            "mirror_url": null,
            "name": "prismarine-viewer",
            "node_id": "MDEwOlJlcG9zaXRvcnkzMTkxMDgzNjU=",
            "notifications_url": "https://api.github.com/repos/extremeheat/prismarine-viewer/notifications{?since,all,participating}",
            "open_issues": 9,
            "open_issues_count": 9,
            "owner": {
                "avatar_url": "https://avatars.githubusercontent.com/u/13713600?v=4",
                "events_url": "https://api.github.com/users/extremeheat/events{/privacy}",
                "followers_url": "https://api.github.com/users/extremeheat/followers",
                "following_url": "https://api.github.com/users/extremeheat/following{/other_user}",
                "gists_url": "https://api.github.com/users/extremeheat/gists{/gist_id}",
                "gravatar_id": "",
                "html_url": "https://github.com/extremeheat",
                "id": 13713600,
                "login": "extremeheat",
                "node_id": "MDQ6VXNlcjEzNzEzNjAw",
                "organizations_url": "https://api.github.com/users/extremeheat/orgs",
                "received_events_url": "https://api.github.com/users/extremeheat/received_events",
                "repos_url": "https://api.github.com/users/extremeheat/repos",
                "site_admin": false,
                "starred_url": "https://api.github.com/users/extremeheat/starred{/owner}{/repo}",
                "subscriptions_url": "https://api.github.com/users/extremeheat/subscriptions",
                "type": "User",
                "url": "https://api.github.com/users/extremeheat"
            },
            "private": false,
            "pulls_url": "https://api.github.com/repos/extremeheat/prismarine-viewer/pulls{/number}",
            "pushed_at": "2023-04-08T23:45:40Z",
            "releases_url": "https://api.github.com/repos/extremeheat/prismarine-viewer/releases{/id}",
            "size": 8807,
            "ssh_url": "git@github.com:extremeheat/prismarine-viewer.git",
            "stargazers_count": 0,
            "stargazers_url": "https://api.github.com/repos/extremeheat/prismarine-viewer/stargazers",
            "statuses_url": "https://api.github.com/repos/extremeheat/prismarine-viewer/statuses/{sha}",
            "subscribers_url": "https://api.github.com/repos/extremeheat/prismarine-viewer/subscribers",
            "subscription_url": "https://api.github.com/repos/extremeheat/prismarine-viewer/subscription",
            "svn_url": "https://github.com/extremeheat/prismarine-viewer",
            "tags_url": "https://api.github.com/repos/extremeheat/prismarine-viewer/tags",
            "teams_url": "https://api.github.com/repos/extremeheat/prismarine-viewer/teams",
            "topics": [],
            "trees_url": "https://api.github.com/repos/extremeheat/prismarine-viewer/git/trees{/sha}",
            "updated_at": "2023-01-31T18:37:57Z",
            "url": "https://api.github.com/repos/extremeheat/prismarine-viewer",
            "visibility": "public",
            "watchers": 0,
            "watchers_count": 0,
            "web_commit_signoff_required": false
        },
        "sha": "aceeaba3653a87529f47202fcbaeb8bb8f9da8d2",
        "user": {
            "avatar_url": "https://avatars.githubusercontent.com/u/13713600?v=4",
            "events_url": "https://api.github.com/users/extremeheat/events{/privacy}",
            "followers_url": "https://api.github.com/users/extremeheat/followers",
            "following_url": "https://api.github.com/users/extremeheat/following{/other_user}",
            "gists_url": "https://api.github.com/users/extremeheat/gists{/gist_id}",
            "gravatar_id": "",
            "html_url": "https://github.com/extremeheat",
            "id": 13713600,
            "login": "extremeheat",
            "node_id": "MDQ6VXNlcjEzNzEzNjAw",
            "organizations_url": "https://api.github.com/users/extremeheat/orgs",
            "received_events_url": "https://api.github.com/users/extremeheat/received_events",
            "repos_url": "https://api.github.com/users/extremeheat/repos",
            "site_admin": false,
            "starred_url": "https://api.github.com/users/extremeheat/starred{/owner}{/repo}",
            "subscriptions_url": "https://api.github.com/users/extremeheat/subscriptions",
            "type": "User",
            "url": "https://api.github.com/users/extremeheat"
        }
    },
    "html_url": "https://github.com/PrismarineJS/prismarine-viewer/pull/79",
    "id": 542937917,
    "issue_url": "https://api.github.com/repos/PrismarineJS/prismarine-viewer/issues/79",
    "labels": [],
    "locked": false,
    "maintainer_can_modify": false,
    "merge_commit_sha": "131f516b98c88e0daa9abab8607626e7fb5baed7",
    "mergeable": false,
    "mergeable_state": "dirty",
    "merged": true,
    "merged_at": "2020-12-19T15:17:59Z",
    "merged_by": {
        "avatar_url": "https://avatars.githubusercontent.com/u/1977472?v=4",
        "events_url": "https://api.github.com/users/Karang/events{/privacy}",
        "followers_url": "https://api.github.com/users/Karang/followers",
        "following_url": "https://api.github.com/users/Karang/following{/other_user}",
        "gists_url": "https://api.github.com/users/Karang/gists{/gist_id}",
        "gravatar_id": "",
        "html_url": "https://github.com/Karang",
        "id": 1977472,
        "login": "Karang",
        "node_id": "MDQ6VXNlcjE5Nzc0NzI=",
        "organizations_url": "https://api.github.com/users/Karang/orgs",
        "received_events_url": "https://api.github.com/users/Karang/received_events",
        "repos_url": "https://api.github.com/users/Karang/repos",
        "site_admin": false,
        "starred_url": "https://api.github.com/users/Karang/starred{/owner}{/repo}",
        "subscriptions_url": "https://api.github.com/users/Karang/subscriptions",
        "type": "User",
        "url": "https://api.github.com/users/Karang"
    },
    "milestone": null,
    "node_id": "MDExOlB1bGxSZXF1ZXN0NTQyOTM3OTE3",
    "number": 79,
    "patch_url": "https://github.com/PrismarineJS/prismarine-viewer/pull/79.patch",
    "rebaseable": false,
    "requested_reviewers": [],
    "requested_teams": [],
    "review_comment_url": "https://api.github.com/repos/PrismarineJS/prismarine-viewer/pulls/comments{/number}",
    "review_comments": 0,
    "review_comments_url": "https://api.github.com/repos/PrismarineJS/prismarine-viewer/pulls/79/comments",
    "state": "closed",
    "statuses_url": "https://api.github.com/repos/PrismarineJS/prismarine-viewer/statuses/aceeaba3653a87529f47202fcbaeb8bb8f9da8d2",
    "title": "Electron demo",
    "updated_at": "2020-12-19T15:18:00Z",
    "url": "https://api.github.com/repos/PrismarineJS/prismarine-viewer/pulls/79",
    "user": {
        "avatar_url": "https://avatars.githubusercontent.com/u/1977472?v=4",
        "events_url": "https://api.github.com/users/Karang/events{/privacy}",
        "followers_url": "https://api.github.com/users/Karang/followers",
        "following_url": "https://api.github.com/users/Karang/following{/other_user}",
        "gists_url": "https://api.github.com/users/Karang/gists{/gist_id}",
        "gravatar_id": "",
        "html_url": "https://github.com/Karang",
        "id": 1977472,
        "login": "Karang",
        "node_id": "MDQ6VXNlcjE5Nzc0NzI=",
        "organizations_url": "https://api.github.com/users/Karang/orgs",
        "received_events_url": "https://api.github.com/users/Karang/received_events",
        "repos_url": "https://api.github.com/users/Karang/repos",
        "site_admin": false,
        "starred_url": "https://api.github.com/users/Karang/starred{/owner}{/repo}",
        "subscriptions_url": "https://api.github.com/users/Karang/subscriptions",
        "type": "User",
        "url": "https://api.github.com/users/Karang"
    }
}