[
    {
        "color": "d73a4a",
        "default": true,
        "description": "Something isn't working",
        "id": 1035103828,
        "name": "bug",
        "node_id": "MDU6TGFiZWwxMDM1MTAzODI4",
        "url": "https://api.github.com/repos/PrismarineJS/prismarine-contribute/labels/bug"
    },
    {
        "color": "cfd3d7",
        "default": true,
        "description": "This issue or pull request already exists",
        "id": 1035103830,
        "name": "duplicate",
        "node_id": "MDU6TGFiZWwxMDM1MTAzODMw",
        "url": "https://api.github.com/repos/PrismarineJS/prismarine-contribute/labels/duplicate"
    },
    {
        "color": "a2eeef",
        "default": true,
        "description": "New feature or request",
        "id": 1035103832,
        "name": "enhancement",
        "node_id": "MDU6TGFiZWwxMDM1MTAzODMy",
        "url": "https://api.github.com/repos/PrismarineJS/prismarine-contribute/labels/enhancement"
    },
    {
        "color": "7057ff",
        "default": true,
        "description": "Good for newcomers",
        "id": 1035103836,
        "name": "good first issue",
        "node_id": "MDU6TGFiZWwxMDM1MTAzODM2",
        "url": "https://api.github.com/repos/PrismarineJS/prismarine-contribute/labels/good%20first%20issue"
    },
    {
        "color": "008672",
        "default": true,
        "description": "Extra attention is needed",
        "id": 1035103834,
        "name": "help wanted",
        "node_id": "MDU6TGFiZWwxMDM1MTAzODM0",
        "url": "https://api.github.com/repos/PrismarineJS/prismarine-contribute/labels/help%20wanted"
    },
    {
        "color": "e4e669",
        "default": true,
        "description": "This doesn't seem right",
        "id": 1035103838,
        "name": "invalid",
        "node_id": "MDU6TGFiZWwxMDM1MTAzODM4",
        "url": "https://api.github.com/repos/PrismarineJS/prismarine-contribute/labels/invalid"
    },
    {
        "color": "d876e3",
        "default": true,
        "description": "Further information is requested",
        "id": 1035103840,
        "name": "question",
        "node_id": "MDU6TGFiZWwxMDM1MTAzODQw",
        "url": "https://api.github.com/repos/PrismarineJS/prismarine-contribute/labels/question"
    },
    {
        "color": "ffffff",
        "default": true,
        "description": "This will not be worked on",
        "id": 1035103841,
        "name": "wontfix",
        "node_id": "MDU6TGFiZWwxMDM1MTAzODQx",
        "url": "https://api.github.com/repos/PrismarineJS/prismarine-contribute/labels/wontfix"
    }
]