{
    "_links": {
        "comments": {
            "href": "https://api.github.com/repos/PrismarineJS/mineflayer-collectblock/issues/136/comments"
        },
        "commits": {
            "href": "https://api.github.com/repos/PrismarineJS/mineflayer-collectblock/pulls/136/commits"
        },
        "html": {
            "href": "https://github.com/PrismarineJS/mineflayer-collectblock/pull/136"
        },
        "issue": {
            "href": "https://api.github.com/repos/PrismarineJS/mineflayer-collectblock/issues/136"
        },
        "review_comment": {
            "href": "https://api.github.com/repos/PrismarineJS/mineflayer-collectblock/pulls/comments{/number}"
        },
        "review_comments": {
            "href": "https://api.github.com/repos/PrismarineJS/mineflayer-collectblock/pulls/136/comments"
        },
        "self": {
            "href": "https://api.github.com/repos/PrismarineJS/mineflayer-collectblock/pulls/136"
        },
        "statuses": {
            "href": "https://api.github.com/repos/PrismarineJS/mineflayer-collectblock/statuses/9299f0b6cb56af8f5fd5ae6c1514c613453a5a48"
        }
    },
    "active_lock_reason": null,
    "additions": 1244,
    "assignee": null,
    "assignees": [],
    "author_association": "NONE",
    "auto_merge": null,
    "base": {
        "label": "PrismarineJS:master",
        "ref": "master",
        "repo": {
            "allow_forking": true,
            "archive_url": "https://api.github.com/repos/PrismarineJS/mineflayer-collectblock/{archive_format}{/ref}",
            "archived": false,
            "assignees_url": "https://api.github.com/repos/PrismarineJS/mineflayer-collectblock/assignees{/user}",
            "blobs_url": "https://api.github.com/repos/PrismarineJS/mineflayer-collectblock/git/blobs{/sha}",
            "branches_url": "https://api.github.com/repos/PrismarineJS/mineflayer-collectblock/branches{/branch}",
            "clone_url": "https://github.com/PrismarineJS/mineflayer-collectblock.git",
            "collaborators_url": "https://api.github.com/repos/PrismarineJS/mineflayer-collectblock/collaborators{/collaborator}",
            "comments_url": "https://api.github.com/repos/PrismarineJS/mineflayer-collectblock/comments{/number}",
            "commits_url": "https://api.github.com/repos/PrismarineJS/mineflayer-collectblock/commits{/sha}",
            "compare_url": "https://api.github.com/repos/PrismarineJS/mineflayer-collectblock/compare/{base}...{head}",
            "contents_url": "https://api.github.com/repos/PrismarineJS/mineflayer-collectblock/contents/{+path}",
            "contributors_url": "https://api.github.com/repos/PrismarineJS/mineflayer-collectblock/contributors",
            "created_at": "2020-09-29T15:58:17Z",
            "default_branch": "master",
            "deployments_url": "https://api.github.com/repos/PrismarineJS/mineflayer-collectblock/deployments",
            "description": "A simple utility plugin for Mineflayer that add a higher level API for collecting blocks.",
            "disabled": false,
            "downloads_url": "https://api.github.com/repos/PrismarineJS/mineflayer-collectblock/downloads",
            "events_url": "https://api.github.com/repos/PrismarineJS/mineflayer-collectblock/events",
            "fork": false,
            "forks": 23,
            "forks_count": 23,
            "forks_url": "https://api.github.com/repos/PrismarineJS/mineflayer-collectblock/forks",
            "full_name": "PrismarineJS/mineflayer-collectblock",
            "git_commits_url": "https://api.github.com/repos/PrismarineJS/mineflayer-collectblock/git/commits{/sha}",
            "git_refs_url": "https://api.github.com/repos/PrismarineJS/mineflayer-collectblock/git/refs{/sha}",
            "git_tags_url": "https://api.github.com/repos/PrismarineJS/mineflayer-collectblock/git/tags{/sha}",
            "git_url": "git://github.com/PrismarineJS/mineflayer-collectblock.git",
            "has_discussions": false,
            "has_downloads": true,
            "has_issues": true,
            "has_pages": false,
            "has_projects": false,
            "has_wiki": false,
            "homepage": null,
            "hooks_url": "https://api.github.com/repos/PrismarineJS/mineflayer-collectblock/hooks",
            "html_url": "https://github.com/PrismarineJS/mineflayer-collectblock",
            "id": 299667051,
            "is_template": false,
            "issue_comment_url": "https://api.github.com/repos/PrismarineJS/mineflayer-collectblock/issues/comments{/number}",
            "issue_events_url": "https://api.github.com/repos/PrismarineJS/mineflayer-collectblock/issues/events{/number}",
            "issues_url": "https://api.github.com/repos/PrismarineJS/mineflayer-collectblock/issues{/number}",
            "keys_url": "https://api.github.com/repos/PrismarineJS/mineflayer-collectblock/keys{/key_id}",
            "labels_url": "https://api.github.com/repos/PrismarineJS/mineflayer-collectblock/labels{/name}",
            "language": "TypeScript",
            "languages_url": "https://api.github.com/repos/PrismarineJS/mineflayer-collectblock/languages",
            "license": {
                "key": "mit",
                "name": "MIT License",
                "node_id": "MDc6TGljZW5zZTEz",
                "spdx_id": "MIT",
                "url": "https://api.github.com/licenses/mit"
            },
            "merges_url": "https://api.github.com/repos/PrismarineJS/mineflayer-collectblock/merges",
            "milestones_url": "https://api.github.com/repos/PrismarineJS/mineflayer-collectblock/milestones{/number}",
            "mirror_url": null,
            "name": "mineflayer-collectblock",
            "node_id": "MDEwOlJlcG9zaXRvcnkyOTk2NjcwNTE=",
            "notifications_url": "https://api.github.com/repos/PrismarineJS/mineflayer-collectblock/notifications{?since,all,participating}",
            "open_issues": 26,
            "open_issues_count": 26,
            "owner": {
                "avatar_url": "https://avatars.githubusercontent.com/u/11053411?v=4",
                "events_url": "https://api.github.com/users/PrismarineJS/events{/privacy}",
                "followers_url": "https://api.github.com/users/PrismarineJS/followers",
                "following_url": "https://api.github.com/users/PrismarineJS/following{/other_user}",
                "gists_url": "https://api.github.com/users/PrismarineJS/gists{/gist_id}",
                "gravatar_id": "",
                "html_url": "https://github.com/PrismarineJS",
                "id": 11053411,
                "login": "PrismarineJS",
                "node_id": "MDEyOk9yZ2FuaXphdGlvbjExMDUzNDEx",
                "organizations_url": "https://api.github.com/users/PrismarineJS/orgs",
                "received_events_url": "https://api.github.com/users/PrismarineJS/received_events",
                "repos_url": "https://api.github.com/users/PrismarineJS/repos",
                "site_admin": false,
                "starred_url": "https://api.github.com/users/PrismarineJS/starred{/owner}{/repo}",
                "subscriptions_url": "https://api.github.com/users/PrismarineJS/subscriptions",
                "type": "Organization",
                "url": "https://api.github.com/users/PrismarineJS"
            },
            "private": false,
            "pulls_url": "https://api.github.com/repos/PrismarineJS/mineflayer-collectblock/pulls{/number}",
            "pushed_at": "2024-07-22T08:31:57Z",
            "releases_url": "https://api.github.com/repos/PrismarineJS/mineflayer-collectblock/releases{/id}",
            "size": 126,
            "ssh_url": "git@github.com:PrismarineJS/mineflayer-collectblock.git",
            "stargazers_count": 36,
            "stargazers_url": "https://api.github.com/repos/PrismarineJS/mineflayer-collectblock/stargazers",
            "statuses_url": "https://api.github.com/repos/PrismarineJS/mineflayer-collectblock/statuses/{sha}",
            "subscribers_url": "https://api.github.com/repos/PrismarineJS/mineflayer-collectblock/subscribers",
            "subscription_url": "https://api.github.com/repos/PrismarineJS/mineflayer-collectblock/subscription",
            "svn_url": "https://github.com/PrismarineJS/mineflayer-collectblock",
            "tags_url": "https://api.github.com/repos/PrismarineJS/mineflayer-collectblock/tags",
            "teams_url": "https://api.github.com/repos/PrismarineJS/mineflayer-collectblock/teams",
            "topics": [],
            "trees_url": "https://api.github.com/repos/PrismarineJS/mineflayer-collectblock/git/trees{/sha}",
            "updated_at": "2024-05-13T11:26:48Z",
            "url": "https://api.github.com/repos/PrismarineJS/mineflayer-collectblock",
            "visibility": "public",
            "watchers": 36,
            "watchers_count": 36,
            "web_commit_signoff_required": false
        },
        "sha": "5dbaed726f8f7d750a51531b443495270be59585",
        "user": {
            "avatar_url": "https://avatars.githubusercontent.com/u/11053411?v=4",
            "events_url": "https://api.github.com/users/PrismarineJS/events{/privacy}",
            "followers_url": "https://api.github.com/users/PrismarineJS/followers",
            "following_url": "https://api.github.com/users/PrismarineJS/following{/other_user}",
            "gists_url": "https://api.github.com/users/PrismarineJS/gists{/gist_id}",
            "gravatar_id": "",
            "html_url": "https://github.com/PrismarineJS",
            "id": 11053411,
            "login": "PrismarineJS",
            "node_id": "MDEyOk9yZ2FuaXphdGlvbjExMDUzNDEx",
            "organizations_url": "https://api.github.com/users/PrismarineJS/orgs",
            "received_events_url": "https://api.github.com/users/PrismarineJS/received_events",
            "repos_url": "https://api.github.com/users/PrismarineJS/repos",
            "site_admin": false,
            "starred_url": "https://api.github.com/users/PrismarineJS/starred{/owner}{/repo}",
            "subscriptions_url": "https://api.github.com/users/PrismarineJS/subscriptions",
            "type": "Organization",
            "url": "https://api.github.com/users/PrismarineJS"
        }
    },
    "body": "- Fix plugin TS \r\n- Fix held item (null if not held)\r\n- Update deprecated physicTick -> physicsTick",
    "changed_files": 25,
    "closed_at": "2024-09-04T13:55:16Z",
    "comment_data": [],
    "comment_regular_data": [],
    "comments": 0,
    "comments_url": "https://api.github.com/repos/PrismarineJS/mineflayer-collectblock/issues/136/comments",
    "commit_data": [
        {
            "author": {
                "avatar_url": "https://avatars.githubusercontent.com/u/83734728?v=4",
                "events_url": "https://api.github.com/users/lrdcxdes/events{/privacy}",
                "followers_url": "https://api.github.com/users/lrdcxdes/followers",
                "following_url": "https://api.github.com/users/lrdcxdes/following{/other_user}",
                "gists_url": "https://api.github.com/users/lrdcxdes/gists{/gist_id}",
                "gravatar_id": "",
                "html_url": "https://github.com/lrdcxdes",
                "id": 83734728,
                "login": "lrdcxdes",
                "node_id": "MDQ6VXNlcjgzNzM0NzI4",
                "organizations_url": "https://api.github.com/users/lrdcxdes/orgs",
                "received_events_url": "https://api.github.com/users/lrdcxdes/received_events",
                "repos_url": "https://api.github.com/users/lrdcxdes/repos",
                "site_admin": false,
                "starred_url": "https://api.github.com/users/lrdcxdes/starred{/owner}{/repo}",
                "subscriptions_url": "https://api.github.com/users/lrdcxdes/subscriptions",
                "type": "User",
                "url": "https://api.github.com/users/lrdcxdes"
            },
            "comments_url": "https://api.github.com/repos/PrismarineJS/mineflayer-collectblock/commits/04e1e55b9ef99a0ec2fceb1739a37677e17ed658/comments",
            "commit": {
                "author": {
                    "date": "2022-06-09T14:26:11Z",
                    "email": "lordgrief176@gmail.com",
                    "name": "LORD_CODE"
                },
                "comment_count": 0,
                "committer": {
                    "date": "2022-06-09T14:26:11Z",
                    "email": "lordgrief176@gmail.com",
                    "name": "LORD_CODE"
                },
                "message": "yeaaaaah",
                "tree": {
                    "sha": "8b546fc3a45a6bc1ae93ac9296e16063b6d5a9ae",
                    "url": "https://api.github.com/repos/PrismarineJS/mineflayer-collectblock/git/trees/8b546fc3a45a6bc1ae93ac9296e16063b6d5a9ae"
                },
                "url": "https://api.github.com/repos/PrismarineJS/mineflayer-collectblock/git/commits/04e1e55b9ef99a0ec2fceb1739a37677e17ed658",
                "verification": {
                    "payload": null,
                    "reason": "unsigned",
                    "signature": null,
                    "verified": false
                }
            },
            "committer": {
                "avatar_url": "https://avatars.githubusercontent.com/u/83734728?v=4",
                "events_url": "https://api.github.com/users/lrdcxdes/events{/privacy}",
                "followers_url": "https://api.github.com/users/lrdcxdes/followers",
                "following_url": "https://api.github.com/users/lrdcxdes/following{/other_user}",
                "gists_url": "https://api.github.com/users/lrdcxdes/gists{/gist_id}",
                "gravatar_id": "",
                "html_url": "https://github.com/lrdcxdes",
                "id": 83734728,
                "login": "lrdcxdes",
                "node_id": "MDQ6VXNlcjgzNzM0NzI4",
                "organizations_url": "https://api.github.com/users/lrdcxdes/orgs",
                "received_events_url": "https://api.github.com/users/lrdcxdes/received_events",
                "repos_url": "https://api.github.com/users/lrdcxdes/repos",
                "site_admin": false,
                "starred_url": "https://api.github.com/users/lrdcxdes/starred{/owner}{/repo}",
                "subscriptions_url": "https://api.github.com/users/lrdcxdes/subscriptions",
                "type": "User",
                "url": "https://api.github.com/users/lrdcxdes"
            },
            "html_url": "https://github.com/PrismarineJS/mineflayer-collectblock/commit/04e1e55b9ef99a0ec2fceb1739a37677e17ed658",
            "node_id": "C_kwDOEdyOa9oAKDA0ZTFlNTViOWVmOTlhMGVjMmZjZWIxNzM5YTM3Njc3ZTE3ZWQ2NTg",
            "parents": [
                {
                    "html_url": "https://github.com/PrismarineJS/mineflayer-collectblock/commit/08997f52464c219bb4ce9fd1c5eafa9f3af02482",
                    "sha": "08997f52464c219bb4ce9fd1c5eafa9f3af02482",
                    "url": "https://api.github.com/repos/PrismarineJS/mineflayer-collectblock/commits/08997f52464c219bb4ce9fd1c5eafa9f3af02482"
                }
            ],
            "sha": "04e1e55b9ef99a0ec2fceb1739a37677e17ed658",
            "url": "https://api.github.com/repos/PrismarineJS/mineflayer-collectblock/commits/04e1e55b9ef99a0ec2fceb1739a37677e17ed658"
        },
        {
            "author": {
                "avatar_url": "https://avatars.githubusercontent.com/u/83734728?v=4",
                "events_url": "https://api.github.com/users/lrdcxdes/events{/privacy}",
                "followers_url": "https://api.github.com/users/lrdcxdes/followers",
                "following_url": "https://api.github.com/users/lrdcxdes/following{/other_user}",
                "gists_url": "https://api.github.com/users/lrdcxdes/gists{/gist_id}",
                "gravatar_id": "",
                "html_url": "https://github.com/lrdcxdes",
                "id": 83734728,
                "login": "lrdcxdes",
                "node_id": "MDQ6VXNlcjgzNzM0NzI4",
                "organizations_url": "https://api.github.com/users/lrdcxdes/orgs",
                "received_events_url": "https://api.github.com/users/lrdcxdes/received_events",
                "repos_url": "https://api.github.com/users/lrdcxdes/repos",
                "site_admin": false,
                "starred_url": "https://api.github.com/users/lrdcxdes/starred{/owner}{/repo}",
                "subscriptions_url": "https://api.github.com/users/lrdcxdes/subscriptions",
                "type": "User",
                "url": "https://api.github.com/users/lrdcxdes"
            },
            "comments_url": "https://api.github.com/repos/PrismarineJS/mineflayer-collectblock/commits/b975b745bd5ca5cd62e0b90b44fdfcb41e55f295/comments",
            "commit": {
                "author": {
                    "date": "2022-06-09T14:28:36Z",
                    "email": "83734728+LORD-ME-CODE@users.noreply.github.com",
                    "name": "lordcodes"
                },
                "comment_count": 0,
                "committer": {
                    "date": "2022-06-09T14:28:36Z",
                    "email": "noreply@github.com",
                    "name": "GitHub"
                },
                "message": "Update CollectBlock.js",
                "tree": {
                    "sha": "38889489abbed8e97e4c2f29bfe488292f2a6a7f",
                    "url": "https://api.github.com/repos/PrismarineJS/mineflayer-collectblock/git/trees/38889489abbed8e97e4c2f29bfe488292f2a6a7f"
                },
                "url": "https://api.github.com/repos/PrismarineJS/mineflayer-collectblock/git/commits/b975b745bd5ca5cd62e0b90b44fdfcb41e55f295",
                "verification": {
                    "payload": "tree 38889489abbed8e97e4c2f29bfe488292f2a6a7f\nparent 04e1e55b9ef99a0ec2fceb1739a37677e17ed658\nauthor lordcodes <83734728+LORD-ME-CODE@users.noreply.github.com> 1654784916 +0300\ncommitter GitHub <noreply@github.com> 1654784916 +0300\n\nUpdate CollectBlock.js",
                    "reason": "valid",
                    "signature": "-----BEGIN PGP SIGNATURE-----\n\nwsBcBAABCAAQBQJiogOUCRBK7hj4Ov3rIwAAC+0IAKj772v/8MZgTCG9XRqxXLrc\nyVQQ1agftHXXaTHoma48aQVUF4PvFPkT14gg/D91ePy/EAIjuOx8LM4nqGyEw6Mv\nDO/EciwjjrsC3cu1VLFoB9P+5TKGbGVi/2jtKS2VzKstdnpO8a4N2cavnrG2wCO1\ngsHWZ3pK1FdczZypiLG5pDt1qAnbTn/p87KjwXJK5rEaDFf63G00E31aR7w0TQdE\n3irVjBIINDjWnMvl5DnWIYiePADcuVYYeyllEC6aFHvlwI84LNhXOLl8WjC/XNlI\nmsCHgIr/pcA+AoQsKl3ZmpNI99EpAWOwzcrnS7xTX/qX/hyFRVJLO5lDx9ZbWyw=\n=QQ+0\n-----END PGP SIGNATURE-----\n",
                    "verified": true
                }
            },
            "committer": {
                "avatar_url": "https://avatars.githubusercontent.com/u/19864447?v=4",
                "events_url": "https://api.github.com/users/web-flow/events{/privacy}",
                "followers_url": "https://api.github.com/users/web-flow/followers",
                "following_url": "https://api.github.com/users/web-flow/following{/other_user}",
                "gists_url": "https://api.github.com/users/web-flow/gists{/gist_id}",
                "gravatar_id": "",
                "html_url": "https://github.com/web-flow",
                "id": 19864447,
                "login": "web-flow",
                "node_id": "MDQ6VXNlcjE5ODY0NDQ3",
                "organizations_url": "https://api.github.com/users/web-flow/orgs",
                "received_events_url": "https://api.github.com/users/web-flow/received_events",
                "repos_url": "https://api.github.com/users/web-flow/repos",
                "site_admin": false,
                "starred_url": "https://api.github.com/users/web-flow/starred{/owner}{/repo}",
                "subscriptions_url": "https://api.github.com/users/web-flow/subscriptions",
                "type": "User",
                "url": "https://api.github.com/users/web-flow"
            },
            "html_url": "https://github.com/PrismarineJS/mineflayer-collectblock/commit/b975b745bd5ca5cd62e0b90b44fdfcb41e55f295",
            "node_id": "C_kwDOEdyOa9oAKGI5NzViNzQ1YmQ1Y2E1Y2Q2MmUwYjkwYjQ0ZmRmY2I0MWU1NWYyOTU",
            "parents": [
                {
                    "html_url": "https://github.com/PrismarineJS/mineflayer-collectblock/commit/04e1e55b9ef99a0ec2fceb1739a37677e17ed658",
                    "sha": "04e1e55b9ef99a0ec2fceb1739a37677e17ed658",
                    "url": "https://api.github.com/repos/PrismarineJS/mineflayer-collectblock/commits/04e1e55b9ef99a0ec2fceb1739a37677e17ed658"
                }
            ],
            "sha": "b975b745bd5ca5cd62e0b90b44fdfcb41e55f295",
            "url": "https://api.github.com/repos/PrismarineJS/mineflayer-collectblock/commits/b975b745bd5ca5cd62e0b90b44fdfcb41e55f295"
        },
        {
            "author": {
                "avatar_url": "https://avatars.githubusercontent.com/u/83734728?v=4",
                "events_url": "https://api.github.com/users/lrdcxdes/events{/privacy}",
                "followers_url": "https://api.github.com/users/lrdcxdes/followers",
                "following_url": "https://api.github.com/users/lrdcxdes/following{/other_user}",
                "gists_url": "https://api.github.com/users/lrdcxdes/gists{/gist_id}",
                "gravatar_id": "",
                "html_url": "https://github.com/lrdcxdes",
                "id": 83734728,
                "login": "lrdcxdes",
                "node_id": "MDQ6VXNlcjgzNzM0NzI4",
                "organizations_url": "https://api.github.com/users/lrdcxdes/orgs",
                "received_events_url": "https://api.github.com/users/lrdcxdes/received_events",
                "repos_url": "https://api.github.com/users/lrdcxdes/repos",
                "site_admin": false,
                "starred_url": "https://api.github.com/users/lrdcxdes/starred{/owner}{/repo}",
                "subscriptions_url": "https://api.github.com/users/lrdcxdes/subscriptions",
                "type": "User",
                "url": "https://api.github.com/users/lrdcxdes"
            },
            "comments_url": "https://api.github.com/repos/PrismarineJS/mineflayer-collectblock/commits/45e59e4d46a7484287b669e291c4da6fecc961b0/comments",
            "commit": {
                "author": {
                    "date": "2022-06-09T14:30:00Z",
                    "email": "83734728+LORD-ME-CODE@users.noreply.github.com",
                    "name": "lordcodes"
                },
                "comment_count": 0,
                "committer": {
                    "date": "2022-06-09T14:30:00Z",
                    "email": "noreply@github.com",
                    "name": "GitHub"
                },
                "message": "Update CollectBlock.ts",
                "tree": {
                    "sha": "b96fff474a046d6a06e106aae86b58ac0b4a6670",
                    "url": "https://api.github.com/repos/PrismarineJS/mineflayer-collectblock/git/trees/b96fff474a046d6a06e106aae86b58ac0b4a6670"
                },
                "url": "https://api.github.com/repos/PrismarineJS/mineflayer-collectblock/git/commits/45e59e4d46a7484287b669e291c4da6fecc961b0",
                "verification": {
                    "payload": "tree b96fff474a046d6a06e106aae86b58ac0b4a6670\nparent b975b745bd5ca5cd62e0b90b44fdfcb41e55f295\nauthor lordcodes <83734728+LORD-ME-CODE@users.noreply.github.com> 1654785000 +0300\ncommitter GitHub <noreply@github.com> 1654785000 +0300\n\nUpdate CollectBlock.ts",
                    "reason": "valid",
                    "signature": "-----BEGIN PGP SIGNATURE-----\n\nwsBcBAABCAAQBQJiogPoCRBK7hj4Ov3rIwAAKWoIAHlwduUIH/bDPYyDuGrO+E+O\nlL/wY7db6sawzxgX2cOdx2ZZLolqntxRa71by21Mix5xWw7RoglvcbdJF4twluRM\nNrkTmaIXJpXUWBqYSjvUY5BYv9XxjejZaA/nytsl59b7RQNQNFg7GK/Jotys6E0q\nKvIiHqjKDbMXt1L37HaLU/XEnJAEi8S+p1xWxK2o1VJbxY9lhHYQfRJ7J6pSzZbk\nrr3Paqon+KIQXOQZuCS/0VA0kWD8X1dPIckzqM6aV4nP+3JblAt/01zlODQJmlhB\nFuZcZ3S68UavtZ+mkkt0kgf04Xk1iVvSeQ3TUFX0b6mp122FQF0hmf85DgtSkRE=\n=HPC0\n-----END PGP SIGNATURE-----\n",
                    "verified": true
                }
            },
            "committer": {
                "avatar_url": "https://avatars.githubusercontent.com/u/19864447?v=4",
                "events_url": "https://api.github.com/users/web-flow/events{/privacy}",
                "followers_url": "https://api.github.com/users/web-flow/followers",
                "following_url": "https://api.github.com/users/web-flow/following{/other_user}",
                "gists_url": "https://api.github.com/users/web-flow/gists{/gist_id}",
                "gravatar_id": "",
                "html_url": "https://github.com/web-flow",
                "id": 19864447,
                "login": "web-flow",
                "node_id": "MDQ6VXNlcjE5ODY0NDQ3",
                "organizations_url": "https://api.github.com/users/web-flow/orgs",
                "received_events_url": "https://api.github.com/users/web-flow/received_events",
                "repos_url": "https://api.github.com/users/web-flow/repos",
                "site_admin": false,
                "starred_url": "https://api.github.com/users/web-flow/starred{/owner}{/repo}",
                "subscriptions_url": "https://api.github.com/users/web-flow/subscriptions",
                "type": "User",
                "url": "https://api.github.com/users/web-flow"
            },
            "html_url": "https://github.com/PrismarineJS/mineflayer-collectblock/commit/45e59e4d46a7484287b669e291c4da6fecc961b0",
            "node_id": "C_kwDOEdyOa9oAKDQ1ZTU5ZTRkNDZhNzQ4NDI4N2I2NjllMjkxYzRkYTZmZWNjOTYxYjA",
            "parents": [
                {
                    "html_url": "https://github.com/PrismarineJS/mineflayer-collectblock/commit/b975b745bd5ca5cd62e0b90b44fdfcb41e55f295",
                    "sha": "b975b745bd5ca5cd62e0b90b44fdfcb41e55f295",
                    "url": "https://api.github.com/repos/PrismarineJS/mineflayer-collectblock/commits/b975b745bd5ca5cd62e0b90b44fdfcb41e55f295"
                }
            ],
            "sha": "45e59e4d46a7484287b669e291c4da6fecc961b0",
            "url": "https://api.github.com/repos/PrismarineJS/mineflayer-collectblock/commits/45e59e4d46a7484287b669e291c4da6fecc961b0"
        },
        {
            "author": {
                "avatar_url": "https://avatars.githubusercontent.com/u/83734728?v=4",
                "events_url": "https://api.github.com/users/lrdcxdes/events{/privacy}",
                "followers_url": "https://api.github.com/users/lrdcxdes/followers",
                "following_url": "https://api.github.com/users/lrdcxdes/following{/other_user}",
                "gists_url": "https://api.github.com/users/lrdcxdes/gists{/gist_id}",
                "gravatar_id": "",
                "html_url": "https://github.com/lrdcxdes",
                "id": 83734728,
                "login": "lrdcxdes",
                "node_id": "MDQ6VXNlcjgzNzM0NzI4",
                "organizations_url": "https://api.github.com/users/lrdcxdes/orgs",
                "received_events_url": "https://api.github.com/users/lrdcxdes/received_events",
                "repos_url": "https://api.github.com/users/lrdcxdes/repos",
                "site_admin": false,
                "starred_url": "https://api.github.com/users/lrdcxdes/starred{/owner}{/repo}",
                "subscriptions_url": "https://api.github.com/users/lrdcxdes/subscriptions",
                "type": "User",
                "url": "https://api.github.com/users/lrdcxdes"
            },
            "comments_url": "https://api.github.com/repos/PrismarineJS/mineflayer-collectblock/commits/cf93347f3b884ed4d2903495a7f231cf1e606041/comments",
            "commit": {
                "author": {
                    "date": "2023-11-28T18:02:31Z",
                    "email": "83734728+lrdcxdes@users.noreply.github.com",
                    "name": "lordcodes"
                },
                "comment_count": 0,
                "committer": {
                    "date": "2023-11-28T18:02:31Z",
                    "email": "noreply@github.com",
                    "name": "GitHub"
                },
                "message": "Merge branch 'PrismarineJS:master' into master",
                "tree": {
                    "sha": "33724aab6c5c20184bf999758785c200b74064f1",
                    "url": "https://api.github.com/repos/PrismarineJS/mineflayer-collectblock/git/trees/33724aab6c5c20184bf999758785c200b74064f1"
                },
                "url": "https://api.github.com/repos/PrismarineJS/mineflayer-collectblock/git/commits/cf93347f3b884ed4d2903495a7f231cf1e606041",
                "verification": {
                    "payload": "tree 33724aab6c5c20184bf999758785c200b74064f1\nparent 45e59e4d46a7484287b669e291c4da6fecc961b0\nparent c7f44d7c8c1a9a03dbca696b41c3758a481ce4d5\nauthor lordcodes <83734728+lrdcxdes@users.noreply.github.com> 1701194551 +0200\ncommitter GitHub <noreply@github.com> 1701194551 +0200\n\nMerge branch 'PrismarineJS:master' into master\n",
                    "reason": "valid",
                    "signature": "-----BEGIN PGP SIGNATURE-----\n\nwsBcBAABCAAQBQJlZis3CRBK7hj4Ov3rIwAArXMIACXXqcrL3gnAy2Vig4yQowxf\nMfZ0Gag0dBVRXHaq902OEifCHSjgNE7wwrYCujxfuPHzJAlIUjiNkn26BI6Amoi4\n/McFTpr3vMatbiemDgcGQOd3m8qFM7EoAw1znNhDgrfV6P/zzA0MiG0KpTCkaJBi\nfnmJJ5u2OEuww2AHwRnOx+kLPBojGL/FM+Gkf4H4ZJiWrg0Xf9D1QK8SL8loZTbx\nQHKPAkK6NdIZw0vP41saDj1OSD8T51fMLFdjEE9xo0Gjmj6w05me8NTF8cjlDBU/\n7CWOhptjINxUxrV2XSa7E7F2KWOXWHtihJtwYUpI7Lq8vaHdaX7zgqNbaXtyGRo=\n=ZrAi\n-----END PGP SIGNATURE-----\n",
                    "verified": true
                }
            },
            "committer": {
                "avatar_url": "https://avatars.githubusercontent.com/u/19864447?v=4",
                "events_url": "https://api.github.com/users/web-flow/events{/privacy}",
                "followers_url": "https://api.github.com/users/web-flow/followers",
                "following_url": "https://api.github.com/users/web-flow/following{/other_user}",
                "gists_url": "https://api.github.com/users/web-flow/gists{/gist_id}",
                "gravatar_id": "",
                "html_url": "https://github.com/web-flow",
                "id": 19864447,
                "login": "web-flow",
                "node_id": "MDQ6VXNlcjE5ODY0NDQ3",
                "organizations_url": "https://api.github.com/users/web-flow/orgs",
                "received_events_url": "https://api.github.com/users/web-flow/received_events",
                "repos_url": "https://api.github.com/users/web-flow/repos",
                "site_admin": false,
                "starred_url": "https://api.github.com/users/web-flow/starred{/owner}{/repo}",
                "subscriptions_url": "https://api.github.com/users/web-flow/subscriptions",
                "type": "User",
                "url": "https://api.github.com/users/web-flow"
            },
            "html_url": "https://github.com/PrismarineJS/mineflayer-collectblock/commit/cf93347f3b884ed4d2903495a7f231cf1e606041",
            "node_id": "C_kwDOEdyOa9oAKGNmOTMzNDdmM2I4ODRlZDRkMjkwMzQ5NWE3ZjIzMWNmMWU2MDYwNDE",
            "parents": [
                {
                    "html_url": "https://github.com/PrismarineJS/mineflayer-collectblock/commit/45e59e4d46a7484287b669e291c4da6fecc961b0",
                    "sha": "45e59e4d46a7484287b669e291c4da6fecc961b0",
                    "url": "https://api.github.com/repos/PrismarineJS/mineflayer-collectblock/commits/45e59e4d46a7484287b669e291c4da6fecc961b0"
                },
                {
                    "html_url": "https://github.com/PrismarineJS/mineflayer-collectblock/commit/c7f44d7c8c1a9a03dbca696b41c3758a481ce4d5",
                    "sha": "c7f44d7c8c1a9a03dbca696b41c3758a481ce4d5",
                    "url": "https://api.github.com/repos/PrismarineJS/mineflayer-collectblock/commits/c7f44d7c8c1a9a03dbca696b41c3758a481ce4d5"
                }
            ],
            "sha": "cf93347f3b884ed4d2903495a7f231cf1e606041",
            "url": "https://api.github.com/repos/PrismarineJS/mineflayer-collectblock/commits/cf93347f3b884ed4d2903495a7f231cf1e606041"
        },
        {
            "author": {
                "avatar_url": "https://avatars.githubusercontent.com/u/61158869?v=4",
                "events_url": "https://api.github.com/users/Cleboost/events{/privacy}",
                "followers_url": "https://api.github.com/users/Cleboost/followers",
                "following_url": "https://api.github.com/users/Cleboost/following{/other_user}",
                "gists_url": "https://api.github.com/users/Cleboost/gists{/gist_id}",
                "gravatar_id": "",
                "html_url": "https://github.com/Cleboost",
                "id": 61158869,
                "login": "Cleboost",
                "node_id": "MDQ6VXNlcjYxMTU4ODY5",
                "organizations_url": "https://api.github.com/users/Cleboost/orgs",
                "received_events_url": "https://api.github.com/users/Cleboost/received_events",
                "repos_url": "https://api.github.com/users/Cleboost/repos",
                "site_admin": false,
                "starred_url": "https://api.github.com/users/Cleboost/starred{/owner}{/repo}",
                "subscriptions_url": "https://api.github.com/users/Cleboost/subscriptions",
                "type": "User",
                "url": "https://api.github.com/users/Cleboost"
            },
            "comments_url": "https://api.github.com/repos/PrismarineJS/mineflayer-collectblock/commits/43f24c549e668f404e9a580d204d878c077d8d8c/comments",
            "commit": {
                "author": {
                    "date": "2024-07-22T08:18:55Z",
                    "email": "clement.balarot@gmail.com",
                    "name": "Cleboost"
                },
                "comment_count": 0,
                "committer": {
                    "date": "2024-07-22T08:18:55Z",
                    "email": "clement.balarot@gmail.com",
                    "name": "Cleboost"
                },
                "message": "fix: held item",
                "tree": {
                    "sha": "ffc2708a70aed6cd2798ee1a57d8afc102983a9d",
                    "url": "https://api.github.com/repos/PrismarineJS/mineflayer-collectblock/git/trees/ffc2708a70aed6cd2798ee1a57d8afc102983a9d"
                },
                "url": "https://api.github.com/repos/PrismarineJS/mineflayer-collectblock/git/commits/43f24c549e668f404e9a580d204d878c077d8d8c",
                "verification": {
                    "payload": null,
                    "reason": "unsigned",
                    "signature": null,
                    "verified": false
                }
            },
            "committer": {
                "avatar_url": "https://avatars.githubusercontent.com/u/61158869?v=4",
                "events_url": "https://api.github.com/users/Cleboost/events{/privacy}",
                "followers_url": "https://api.github.com/users/Cleboost/followers",
                "following_url": "https://api.github.com/users/Cleboost/following{/other_user}",
                "gists_url": "https://api.github.com/users/Cleboost/gists{/gist_id}",
                "gravatar_id": "",
                "html_url": "https://github.com/Cleboost",
                "id": 61158869,
                "login": "Cleboost",
                "node_id": "MDQ6VXNlcjYxMTU4ODY5",
                "organizations_url": "https://api.github.com/users/Cleboost/orgs",
                "received_events_url": "https://api.github.com/users/Cleboost/received_events",
                "repos_url": "https://api.github.com/users/Cleboost/repos",
                "site_admin": false,
                "starred_url": "https://api.github.com/users/Cleboost/starred{/owner}{/repo}",
                "subscriptions_url": "https://api.github.com/users/Cleboost/subscriptions",
                "type": "User",
                "url": "https://api.github.com/users/Cleboost"
            },
            "html_url": "https://github.com/PrismarineJS/mineflayer-collectblock/commit/43f24c549e668f404e9a580d204d878c077d8d8c",
            "node_id": "C_kwDOEdyOa9oAKDQzZjI0YzU0OWU2NjhmNDA0ZTlhNTgwZDIwNGQ4NzhjMDc3ZDhkOGM",
            "parents": [
                {
                    "html_url": "https://github.com/PrismarineJS/mineflayer-collectblock/commit/cf93347f3b884ed4d2903495a7f231cf1e606041",
                    "sha": "cf93347f3b884ed4d2903495a7f231cf1e606041",
                    "url": "https://api.github.com/repos/PrismarineJS/mineflayer-collectblock/commits/cf93347f3b884ed4d2903495a7f231cf1e606041"
                }
            ],
            "sha": "43f24c549e668f404e9a580d204d878c077d8d8c",
            "url": "https://api.github.com/repos/PrismarineJS/mineflayer-collectblock/commits/43f24c549e668f404e9a580d204d878c077d8d8c"
        },
        {
            "author": {
                "avatar_url": "https://avatars.githubusercontent.com/u/61158869?v=4",
                "events_url": "https://api.github.com/users/Cleboost/events{/privacy}",
                "followers_url": "https://api.github.com/users/Cleboost/followers",
                "following_url": "https://api.github.com/users/Cleboost/following{/other_user}",
                "gists_url": "https://api.github.com/users/Cleboost/gists{/gist_id}",
                "gravatar_id": "",
                "html_url": "https://github.com/Cleboost",
                "id": 61158869,
                "login": "Cleboost",
                "node_id": "MDQ6VXNlcjYxMTU4ODY5",
                "organizations_url": "https://api.github.com/users/Cleboost/orgs",
                "received_events_url": "https://api.github.com/users/Cleboost/received_events",
                "repos_url": "https://api.github.com/users/Cleboost/repos",
                "site_admin": false,
                "starred_url": "https://api.github.com/users/Cleboost/starred{/owner}{/repo}",
                "subscriptions_url": "https://api.github.com/users/Cleboost/subscriptions",
                "type": "User",
                "url": "https://api.github.com/users/Cleboost"
            },
            "comments_url": "https://api.github.com/repos/PrismarineJS/mineflayer-collectblock/commits/c1833e2b04c4a6eb8df5d9515236e59527e314f7/comments",
            "commit": {
                "author": {
                    "date": "2024-07-22T08:19:13Z",
                    "email": "clement.balarot@gmail.com",
                    "name": "Cleboost"
                },
                "comment_count": 0,
                "committer": {
                    "date": "2024-07-22T08:19:13Z",
                    "email": "clement.balarot@gmail.com",
                    "name": "Cleboost"
                },
                "message": "update: mineflayer core",
                "tree": {
                    "sha": "21e8a628cc5a12fa830c6296025b2d4060df08d5",
                    "url": "https://api.github.com/repos/PrismarineJS/mineflayer-collectblock/git/trees/21e8a628cc5a12fa830c6296025b2d4060df08d5"
                },
                "url": "https://api.github.com/repos/PrismarineJS/mineflayer-collectblock/git/commits/c1833e2b04c4a6eb8df5d9515236e59527e314f7",
                "verification": {
                    "payload": null,
                    "reason": "unsigned",
                    "signature": null,
                    "verified": false
                }
            },
            "committer": {
                "avatar_url": "https://avatars.githubusercontent.com/u/61158869?v=4",
                "events_url": "https://api.github.com/users/Cleboost/events{/privacy}",
                "followers_url": "https://api.github.com/users/Cleboost/followers",
                "following_url": "https://api.github.com/users/Cleboost/following{/other_user}",
                "gists_url": "https://api.github.com/users/Cleboost/gists{/gist_id}",
                "gravatar_id": "",
                "html_url": "https://github.com/Cleboost",
                "id": 61158869,
                "login": "Cleboost",
                "node_id": "MDQ6VXNlcjYxMTU4ODY5",
                "organizations_url": "https://api.github.com/users/Cleboost/orgs",
                "received_events_url": "https://api.github.com/users/Cleboost/received_events",
                "repos_url": "https://api.github.com/users/Cleboost/repos",
                "site_admin": false,
                "starred_url": "https://api.github.com/users/Cleboost/starred{/owner}{/repo}",
                "subscriptions_url": "https://api.github.com/users/Cleboost/subscriptions",
                "type": "User",
                "url": "https://api.github.com/users/Cleboost"
            },
            "html_url": "https://github.com/PrismarineJS/mineflayer-collectblock/commit/c1833e2b04c4a6eb8df5d9515236e59527e314f7",
            "node_id": "C_kwDOEdyOa9oAKGMxODMzZTJiMDRjNGE2ZWI4ZGY1ZDk1MTUyMzZlNTk1MjdlMzE0Zjc",
            "parents": [
                {
                    "html_url": "https://github.com/PrismarineJS/mineflayer-collectblock/commit/43f24c549e668f404e9a580d204d878c077d8d8c",
                    "sha": "43f24c549e668f404e9a580d204d878c077d8d8c",
                    "url": "https://api.github.com/repos/PrismarineJS/mineflayer-collectblock/commits/43f24c549e668f404e9a580d204d878c077d8d8c"
                }
            ],
            "sha": "c1833e2b04c4a6eb8df5d9515236e59527e314f7",
            "url": "https://api.github.com/repos/PrismarineJS/mineflayer-collectblock/commits/c1833e2b04c4a6eb8df5d9515236e59527e314f7"
        },
        {
            "author": {
                "avatar_url": "https://avatars.githubusercontent.com/u/61158869?v=4",
                "events_url": "https://api.github.com/users/Cleboost/events{/privacy}",
                "followers_url": "https://api.github.com/users/Cleboost/followers",
                "following_url": "https://api.github.com/users/Cleboost/following{/other_user}",
                "gists_url": "https://api.github.com/users/Cleboost/gists{/gist_id}",
                "gravatar_id": "",
                "html_url": "https://github.com/Cleboost",
                "id": 61158869,
                "login": "Cleboost",
                "node_id": "MDQ6VXNlcjYxMTU4ODY5",
                "organizations_url": "https://api.github.com/users/Cleboost/orgs",
                "received_events_url": "https://api.github.com/users/Cleboost/received_events",
                "repos_url": "https://api.github.com/users/Cleboost/repos",
                "site_admin": false,
                "starred_url": "https://api.github.com/users/Cleboost/starred{/owner}{/repo}",
                "subscriptions_url": "https://api.github.com/users/Cleboost/subscriptions",
                "type": "User",
                "url": "https://api.github.com/users/Cleboost"
            },
            "comments_url": "https://api.github.com/repos/PrismarineJS/mineflayer-collectblock/commits/99e97818a408d9202c79ef4ea2b23ef1f72037d3/comments",
            "commit": {
                "author": {
                    "date": "2024-07-22T08:19:43Z",
                    "email": "clement.balarot@gmail.com",
                    "name": "Cleboost"
                },
                "comment_count": 0,
                "committer": {
                    "date": "2024-07-22T08:19:43Z",
                    "email": "clement.balarot@gmail.com",
                    "name": "Cleboost"
                },
                "message": "feat: indent",
                "tree": {
                    "sha": "a177e0f1c086c4d7b86179ee36c3978b76861107",
                    "url": "https://api.github.com/repos/PrismarineJS/mineflayer-collectblock/git/trees/a177e0f1c086c4d7b86179ee36c3978b76861107"
                },
                "url": "https://api.github.com/repos/PrismarineJS/mineflayer-collectblock/git/commits/99e97818a408d9202c79ef4ea2b23ef1f72037d3",
                "verification": {
                    "payload": null,
                    "reason": "unsigned",
                    "signature": null,
                    "verified": false
                }
            },
            "committer": {
                "avatar_url": "https://avatars.githubusercontent.com/u/61158869?v=4",
                "events_url": "https://api.github.com/users/Cleboost/events{/privacy}",
                "followers_url": "https://api.github.com/users/Cleboost/followers",
                "following_url": "https://api.github.com/users/Cleboost/following{/other_user}",
                "gists_url": "https://api.github.com/users/Cleboost/gists{/gist_id}",
                "gravatar_id": "",
                "html_url": "https://github.com/Cleboost",
                "id": 61158869,
                "login": "Cleboost",
                "node_id": "MDQ6VXNlcjYxMTU4ODY5",
                "organizations_url": "https://api.github.com/users/Cleboost/orgs",
                "received_events_url": "https://api.github.com/users/Cleboost/received_events",
                "repos_url": "https://api.github.com/users/Cleboost/repos",
                "site_admin": false,
                "starred_url": "https://api.github.com/users/Cleboost/starred{/owner}{/repo}",
                "subscriptions_url": "https://api.github.com/users/Cleboost/subscriptions",
                "type": "User",
                "url": "https://api.github.com/users/Cleboost"
            },
            "html_url": "https://github.com/PrismarineJS/mineflayer-collectblock/commit/99e97818a408d9202c79ef4ea2b23ef1f72037d3",
            "node_id": "C_kwDOEdyOa9oAKDk5ZTk3ODE4YTQwOGQ5MjAyYzc5ZWY0ZWEyYjIzZWYxZjcyMDM3ZDM",
            "parents": [
                {
                    "html_url": "https://github.com/PrismarineJS/mineflayer-collectblock/commit/c1833e2b04c4a6eb8df5d9515236e59527e314f7",
                    "sha": "c1833e2b04c4a6eb8df5d9515236e59527e314f7",
                    "url": "https://api.github.com/repos/PrismarineJS/mineflayer-collectblock/commits/c1833e2b04c4a6eb8df5d9515236e59527e314f7"
                }
            ],
            "sha": "99e97818a408d9202c79ef4ea2b23ef1f72037d3",
            "url": "https://api.github.com/repos/PrismarineJS/mineflayer-collectblock/commits/99e97818a408d9202c79ef4ea2b23ef1f72037d3"
        },
        {
            "author": {
                "avatar_url": "https://avatars.githubusercontent.com/u/61158869?v=4",
                "events_url": "https://api.github.com/users/Cleboost/events{/privacy}",
                "followers_url": "https://api.github.com/users/Cleboost/followers",
                "following_url": "https://api.github.com/users/Cleboost/following{/other_user}",
                "gists_url": "https://api.github.com/users/Cleboost/gists{/gist_id}",
                "gravatar_id": "",
                "html_url": "https://github.com/Cleboost",
                "id": 61158869,
                "login": "Cleboost",
                "node_id": "MDQ6VXNlcjYxMTU4ODY5",
                "organizations_url": "https://api.github.com/users/Cleboost/orgs",
                "received_events_url": "https://api.github.com/users/Cleboost/received_events",
                "repos_url": "https://api.github.com/users/Cleboost/repos",
                "site_admin": false,
                "starred_url": "https://api.github.com/users/Cleboost/starred{/owner}{/repo}",
                "subscriptions_url": "https://api.github.com/users/Cleboost/subscriptions",
                "type": "User",
                "url": "https://api.github.com/users/Cleboost"
            },
            "comments_url": "https://api.github.com/repos/PrismarineJS/mineflayer-collectblock/commits/9eb2e9a7ecfe768b77284e005f6855f8d1b89545/comments",
            "commit": {
                "author": {
                    "date": "2024-07-22T08:20:55Z",
                    "email": "clement.balarot@gmail.com",
                    "name": "Cleboost"
                },
                "comment_count": 0,
                "committer": {
                    "date": "2024-07-22T08:20:55Z",
                    "email": "clement.balarot@gmail.com",
                    "name": "Cleboost"
                },
                "message": "Revert \"feat: indent\"\n\nThis reverts commit 99e97818a408d9202c79ef4ea2b23ef1f72037d3.",
                "tree": {
                    "sha": "21e8a628cc5a12fa830c6296025b2d4060df08d5",
                    "url": "https://api.github.com/repos/PrismarineJS/mineflayer-collectblock/git/trees/21e8a628cc5a12fa830c6296025b2d4060df08d5"
                },
                "url": "https://api.github.com/repos/PrismarineJS/mineflayer-collectblock/git/commits/9eb2e9a7ecfe768b77284e005f6855f8d1b89545",
                "verification": {
                    "payload": null,
                    "reason": "unsigned",
                    "signature": null,
                    "verified": false
                }
            },
            "committer": {
                "avatar_url": "https://avatars.githubusercontent.com/u/61158869?v=4",
                "events_url": "https://api.github.com/users/Cleboost/events{/privacy}",
                "followers_url": "https://api.github.com/users/Cleboost/followers",
                "following_url": "https://api.github.com/users/Cleboost/following{/other_user}",
                "gists_url": "https://api.github.com/users/Cleboost/gists{/gist_id}",
                "gravatar_id": "",
                "html_url": "https://github.com/Cleboost",
                "id": 61158869,
                "login": "Cleboost",
                "node_id": "MDQ6VXNlcjYxMTU4ODY5",
                "organizations_url": "https://api.github.com/users/Cleboost/orgs",
                "received_events_url": "https://api.github.com/users/Cleboost/received_events",
                "repos_url": "https://api.github.com/users/Cleboost/repos",
                "site_admin": false,
                "starred_url": "https://api.github.com/users/Cleboost/starred{/owner}{/repo}",
                "subscriptions_url": "https://api.github.com/users/Cleboost/subscriptions",
                "type": "User",
                "url": "https://api.github.com/users/Cleboost"
            },
            "html_url": "https://github.com/PrismarineJS/mineflayer-collectblock/commit/9eb2e9a7ecfe768b77284e005f6855f8d1b89545",
            "node_id": "C_kwDOEdyOa9oAKDllYjJlOWE3ZWNmZTc2OGI3NzI4NGUwMDVmNjg1NWY4ZDFiODk1NDU",
            "parents": [
                {
                    "html_url": "https://github.com/PrismarineJS/mineflayer-collectblock/commit/99e97818a408d9202c79ef4ea2b23ef1f72037d3",
                    "sha": "99e97818a408d9202c79ef4ea2b23ef1f72037d3",
                    "url": "https://api.github.com/repos/PrismarineJS/mineflayer-collectblock/commits/99e97818a408d9202c79ef4ea2b23ef1f72037d3"
                }
            ],
            "sha": "9eb2e9a7ecfe768b77284e005f6855f8d1b89545",
            "url": "https://api.github.com/repos/PrismarineJS/mineflayer-collectblock/commits/9eb2e9a7ecfe768b77284e005f6855f8d1b89545"
        },
        {
            "author": {
                "avatar_url": "https://avatars.githubusercontent.com/u/61158869?v=4",
                "events_url": "https://api.github.com/users/Cleboost/events{/privacy}",
                "followers_url": "https://api.github.com/users/Cleboost/followers",
                "following_url": "https://api.github.com/users/Cleboost/following{/other_user}",
                "gists_url": "https://api.github.com/users/Cleboost/gists{/gist_id}",
                "gravatar_id": "",
                "html_url": "https://github.com/Cleboost",
                "id": 61158869,
                "login": "Cleboost",
                "node_id": "MDQ6VXNlcjYxMTU4ODY5",
                "organizations_url": "https://api.github.com/users/Cleboost/orgs",
                "received_events_url": "https://api.github.com/users/Cleboost/received_events",
                "repos_url": "https://api.github.com/users/Cleboost/repos",
                "site_admin": false,
                "starred_url": "https://api.github.com/users/Cleboost/starred{/owner}{/repo}",
                "subscriptions_url": "https://api.github.com/users/Cleboost/subscriptions",
                "type": "User",
                "url": "https://api.github.com/users/Cleboost"
            },
            "comments_url": "https://api.github.com/repos/PrismarineJS/mineflayer-collectblock/commits/b1234c235fa703bd2ee5f39b89074c7f4e0b38e2/comments",
            "commit": {
                "author": {
                    "date": "2024-07-22T08:22:31Z",
                    "email": "clement.balarot@gmail.com",
                    "name": "Cleboost"
                },
                "comment_count": 0,
                "committer": {
                    "date": "2024-07-22T08:22:31Z",
                    "email": "clement.balarot@gmail.com",
                    "name": "Cleboost"
                },
                "message": "Revert \"fix: held item\"\n\nThis reverts commit 43f24c549e668f404e9a580d204d878c077d8d8c.",
                "tree": {
                    "sha": "e75f3d261a2d0db3ffcf3184fca0d60e8fe80a65",
                    "url": "https://api.github.com/repos/PrismarineJS/mineflayer-collectblock/git/trees/e75f3d261a2d0db3ffcf3184fca0d60e8fe80a65"
                },
                "url": "https://api.github.com/repos/PrismarineJS/mineflayer-collectblock/git/commits/b1234c235fa703bd2ee5f39b89074c7f4e0b38e2",
                "verification": {
                    "payload": null,
                    "reason": "unsigned",
                    "signature": null,
                    "verified": false
                }
            },
            "committer": {
                "avatar_url": "https://avatars.githubusercontent.com/u/61158869?v=4",
                "events_url": "https://api.github.com/users/Cleboost/events{/privacy}",
                "followers_url": "https://api.github.com/users/Cleboost/followers",
                "following_url": "https://api.github.com/users/Cleboost/following{/other_user}",
                "gists_url": "https://api.github.com/users/Cleboost/gists{/gist_id}",
                "gravatar_id": "",
                "html_url": "https://github.com/Cleboost",
                "id": 61158869,
                "login": "Cleboost",
                "node_id": "MDQ6VXNlcjYxMTU4ODY5",
                "organizations_url": "https://api.github.com/users/Cleboost/orgs",
                "received_events_url": "https://api.github.com/users/Cleboost/received_events",
                "repos_url": "https://api.github.com/users/Cleboost/repos",
                "site_admin": false,
                "starred_url": "https://api.github.com/users/Cleboost/starred{/owner}{/repo}",
                "subscriptions_url": "https://api.github.com/users/Cleboost/subscriptions",
                "type": "User",
                "url": "https://api.github.com/users/Cleboost"
            },
            "html_url": "https://github.com/PrismarineJS/mineflayer-collectblock/commit/b1234c235fa703bd2ee5f39b89074c7f4e0b38e2",
            "node_id": "C_kwDOEdyOa9oAKGIxMjM0YzIzNWZhNzAzYmQyZWU1ZjM5Yjg5MDc0YzdmNGUwYjM4ZTI",
            "parents": [
                {
                    "html_url": "https://github.com/PrismarineJS/mineflayer-collectblock/commit/9eb2e9a7ecfe768b77284e005f6855f8d1b89545",
                    "sha": "9eb2e9a7ecfe768b77284e005f6855f8d1b89545",
                    "url": "https://api.github.com/repos/PrismarineJS/mineflayer-collectblock/commits/9eb2e9a7ecfe768b77284e005f6855f8d1b89545"
                }
            ],
            "sha": "b1234c235fa703bd2ee5f39b89074c7f4e0b38e2",
            "url": "https://api.github.com/repos/PrismarineJS/mineflayer-collectblock/commits/b1234c235fa703bd2ee5f39b89074c7f4e0b38e2"
        },
        {
            "author": {
                "avatar_url": "https://avatars.githubusercontent.com/u/61158869?v=4",
                "events_url": "https://api.github.com/users/Cleboost/events{/privacy}",
                "followers_url": "https://api.github.com/users/Cleboost/followers",
                "following_url": "https://api.github.com/users/Cleboost/following{/other_user}",
                "gists_url": "https://api.github.com/users/Cleboost/gists{/gist_id}",
                "gravatar_id": "",
                "html_url": "https://github.com/Cleboost",
                "id": 61158869,
                "login": "Cleboost",
                "node_id": "MDQ6VXNlcjYxMTU4ODY5",
                "organizations_url": "https://api.github.com/users/Cleboost/orgs",
                "received_events_url": "https://api.github.com/users/Cleboost/received_events",
                "repos_url": "https://api.github.com/users/Cleboost/repos",
                "site_admin": false,
                "starred_url": "https://api.github.com/users/Cleboost/starred{/owner}{/repo}",
                "subscriptions_url": "https://api.github.com/users/Cleboost/subscriptions",
                "type": "User",
                "url": "https://api.github.com/users/Cleboost"
            },
            "comments_url": "https://api.github.com/repos/PrismarineJS/mineflayer-collectblock/commits/8a265042885227e3f470c46e0fb4eda2775244f1/comments",
            "commit": {
                "author": {
                    "date": "2024-07-22T08:22:55Z",
                    "email": "clement.balarot@gmail.com",
                    "name": "Cleboost"
                },
                "comment_count": 0,
                "committer": {
                    "date": "2024-07-22T08:22:55Z",
                    "email": "clement.balarot@gmail.com",
                    "name": "Cleboost"
                },
                "message": "feat: indent",
                "tree": {
                    "sha": "1f4f572de03e8e2ad10b2b055f6a6ffb983f765d",
                    "url": "https://api.github.com/repos/PrismarineJS/mineflayer-collectblock/git/trees/1f4f572de03e8e2ad10b2b055f6a6ffb983f765d"
                },
                "url": "https://api.github.com/repos/PrismarineJS/mineflayer-collectblock/git/commits/8a265042885227e3f470c46e0fb4eda2775244f1",
                "verification": {
                    "payload": null,
                    "reason": "unsigned",
                    "signature": null,
                    "verified": false
                }
            },
            "committer": {
                "avatar_url": "https://avatars.githubusercontent.com/u/61158869?v=4",
                "events_url": "https://api.github.com/users/Cleboost/events{/privacy}",
                "followers_url": "https://api.github.com/users/Cleboost/followers",
                "following_url": "https://api.github.com/users/Cleboost/following{/other_user}",
                "gists_url": "https://api.github.com/users/Cleboost/gists{/gist_id}",
                "gravatar_id": "",
                "html_url": "https://github.com/Cleboost",
                "id": 61158869,
                "login": "Cleboost",
                "node_id": "MDQ6VXNlcjYxMTU4ODY5",
                "organizations_url": "https://api.github.com/users/Cleboost/orgs",
                "received_events_url": "https://api.github.com/users/Cleboost/received_events",
                "repos_url": "https://api.github.com/users/Cleboost/repos",
                "site_admin": false,
                "starred_url": "https://api.github.com/users/Cleboost/starred{/owner}{/repo}",
                "subscriptions_url": "https://api.github.com/users/Cleboost/subscriptions",
                "type": "User",
                "url": "https://api.github.com/users/Cleboost"
            },
            "html_url": "https://github.com/PrismarineJS/mineflayer-collectblock/commit/8a265042885227e3f470c46e0fb4eda2775244f1",
            "node_id": "C_kwDOEdyOa9oAKDhhMjY1MDQyODg1MjI3ZTNmNDcwYzQ2ZTBmYjRlZGEyNzc1MjQ0ZjE",
            "parents": [
                {
                    "html_url": "https://github.com/PrismarineJS/mineflayer-collectblock/commit/b1234c235fa703bd2ee5f39b89074c7f4e0b38e2",
                    "sha": "b1234c235fa703bd2ee5f39b89074c7f4e0b38e2",
                    "url": "https://api.github.com/repos/PrismarineJS/mineflayer-collectblock/commits/b1234c235fa703bd2ee5f39b89074c7f4e0b38e2"
                }
            ],
            "sha": "8a265042885227e3f470c46e0fb4eda2775244f1",
            "url": "https://api.github.com/repos/PrismarineJS/mineflayer-collectblock/commits/8a265042885227e3f470c46e0fb4eda2775244f1"
        },
        {
            "author": {
                "avatar_url": "https://avatars.githubusercontent.com/u/61158869?v=4",
                "events_url": "https://api.github.com/users/Cleboost/events{/privacy}",
                "followers_url": "https://api.github.com/users/Cleboost/followers",
                "following_url": "https://api.github.com/users/Cleboost/following{/other_user}",
                "gists_url": "https://api.github.com/users/Cleboost/gists{/gist_id}",
                "gravatar_id": "",
                "html_url": "https://github.com/Cleboost",
                "id": 61158869,
                "login": "Cleboost",
                "node_id": "MDQ6VXNlcjYxMTU4ODY5",
                "organizations_url": "https://api.github.com/users/Cleboost/orgs",
                "received_events_url": "https://api.github.com/users/Cleboost/received_events",
                "repos_url": "https://api.github.com/users/Cleboost/repos",
                "site_admin": false,
                "starred_url": "https://api.github.com/users/Cleboost/starred{/owner}{/repo}",
                "subscriptions_url": "https://api.github.com/users/Cleboost/subscriptions",
                "type": "User",
                "url": "https://api.github.com/users/Cleboost"
            },
            "comments_url": "https://api.github.com/repos/PrismarineJS/mineflayer-collectblock/commits/05beeb811ebd6a16b09a280ac561e1c531af433a/comments",
            "commit": {
                "author": {
                    "date": "2024-07-22T08:23:36Z",
                    "email": "clement.balarot@gmail.com",
                    "name": "Cleboost"
                },
                "comment_count": 0,
                "committer": {
                    "date": "2024-07-22T08:23:36Z",
                    "email": "clement.balarot@gmail.com",
                    "name": "Cleboost"
                },
                "message": "fix: heldItem",
                "tree": {
                    "sha": "aa08ce9c451811f675afe378c40fc571e9f06d5e",
                    "url": "https://api.github.com/repos/PrismarineJS/mineflayer-collectblock/git/trees/aa08ce9c451811f675afe378c40fc571e9f06d5e"
                },
                "url": "https://api.github.com/repos/PrismarineJS/mineflayer-collectblock/git/commits/05beeb811ebd6a16b09a280ac561e1c531af433a",
                "verification": {
                    "payload": null,
                    "reason": "unsigned",
                    "signature": null,
                    "verified": false
                }
            },
            "committer": {
                "avatar_url": "https://avatars.githubusercontent.com/u/61158869?v=4",
                "events_url": "https://api.github.com/users/Cleboost/events{/privacy}",
                "followers_url": "https://api.github.com/users/Cleboost/followers",
                "following_url": "https://api.github.com/users/Cleboost/following{/other_user}",
                "gists_url": "https://api.github.com/users/Cleboost/gists{/gist_id}",
                "gravatar_id": "",
                "html_url": "https://github.com/Cleboost",
                "id": 61158869,
                "login": "Cleboost",
                "node_id": "MDQ6VXNlcjYxMTU4ODY5",
                "organizations_url": "https://api.github.com/users/Cleboost/orgs",
                "received_events_url": "https://api.github.com/users/Cleboost/received_events",
                "repos_url": "https://api.github.com/users/Cleboost/repos",
                "site_admin": false,
                "starred_url": "https://api.github.com/users/Cleboost/starred{/owner}{/repo}",
                "subscriptions_url": "https://api.github.com/users/Cleboost/subscriptions",
                "type": "User",
                "url": "https://api.github.com/users/Cleboost"
            },
            "html_url": "https://github.com/PrismarineJS/mineflayer-collectblock/commit/05beeb811ebd6a16b09a280ac561e1c531af433a",
            "node_id": "C_kwDOEdyOa9oAKDA1YmVlYjgxMWViZDZhMTZiMDlhMjgwYWM1NjFlMWM1MzFhZjQzM2E",
            "parents": [
                {
                    "html_url": "https://github.com/PrismarineJS/mineflayer-collectblock/commit/8a265042885227e3f470c46e0fb4eda2775244f1",
                    "sha": "8a265042885227e3f470c46e0fb4eda2775244f1",
                    "url": "https://api.github.com/repos/PrismarineJS/mineflayer-collectblock/commits/8a265042885227e3f470c46e0fb4eda2775244f1"
                }
            ],
            "sha": "05beeb811ebd6a16b09a280ac561e1c531af433a",
            "url": "https://api.github.com/repos/PrismarineJS/mineflayer-collectblock/commits/05beeb811ebd6a16b09a280ac561e1c531af433a"
        },
        {
            "author": {
                "avatar_url": "https://avatars.githubusercontent.com/u/61158869?v=4",
                "events_url": "https://api.github.com/users/Cleboost/events{/privacy}",
                "followers_url": "https://api.github.com/users/Cleboost/followers",
                "following_url": "https://api.github.com/users/Cleboost/following{/other_user}",
                "gists_url": "https://api.github.com/users/Cleboost/gists{/gist_id}",
                "gravatar_id": "",
                "html_url": "https://github.com/Cleboost",
                "id": 61158869,
                "login": "Cleboost",
                "node_id": "MDQ6VXNlcjYxMTU4ODY5",
                "organizations_url": "https://api.github.com/users/Cleboost/orgs",
                "received_events_url": "https://api.github.com/users/Cleboost/received_events",
                "repos_url": "https://api.github.com/users/Cleboost/repos",
                "site_admin": false,
                "starred_url": "https://api.github.com/users/Cleboost/starred{/owner}{/repo}",
                "subscriptions_url": "https://api.github.com/users/Cleboost/subscriptions",
                "type": "User",
                "url": "https://api.github.com/users/Cleboost"
            },
            "comments_url": "https://api.github.com/repos/PrismarineJS/mineflayer-collectblock/commits/d2a56bf49813f98a2bb457eeb2dcf9301dc2f867/comments",
            "commit": {
                "author": {
                    "date": "2024-07-22T08:30:43Z",
                    "email": "clement.balarot@gmail.com",
                    "name": "Cleboost"
                },
                "comment_count": 0,
                "committer": {
                    "date": "2024-07-22T08:30:43Z",
                    "email": "clement.balarot@gmail.com",
                    "name": "Cleboost"
                },
                "message": "fix: resolve conflict",
                "tree": {
                    "sha": "c2a401eb698d1e2dc5532c1cdeb9b5840288e64d",
                    "url": "https://api.github.com/repos/PrismarineJS/mineflayer-collectblock/git/trees/c2a401eb698d1e2dc5532c1cdeb9b5840288e64d"
                },
                "url": "https://api.github.com/repos/PrismarineJS/mineflayer-collectblock/git/commits/d2a56bf49813f98a2bb457eeb2dcf9301dc2f867",
                "verification": {
                    "payload": null,
                    "reason": "unsigned",
                    "signature": null,
                    "verified": false
                }
            },
            "committer": {
                "avatar_url": "https://avatars.githubusercontent.com/u/61158869?v=4",
                "events_url": "https://api.github.com/users/Cleboost/events{/privacy}",
                "followers_url": "https://api.github.com/users/Cleboost/followers",
                "following_url": "https://api.github.com/users/Cleboost/following{/other_user}",
                "gists_url": "https://api.github.com/users/Cleboost/gists{/gist_id}",
                "gravatar_id": "",
                "html_url": "https://github.com/Cleboost",
                "id": 61158869,
                "login": "Cleboost",
                "node_id": "MDQ6VXNlcjYxMTU4ODY5",
                "organizations_url": "https://api.github.com/users/Cleboost/orgs",
                "received_events_url": "https://api.github.com/users/Cleboost/received_events",
                "repos_url": "https://api.github.com/users/Cleboost/repos",
                "site_admin": false,
                "starred_url": "https://api.github.com/users/Cleboost/starred{/owner}{/repo}",
                "subscriptions_url": "https://api.github.com/users/Cleboost/subscriptions",
                "type": "User",
                "url": "https://api.github.com/users/Cleboost"
            },
            "html_url": "https://github.com/PrismarineJS/mineflayer-collectblock/commit/d2a56bf49813f98a2bb457eeb2dcf9301dc2f867",
            "node_id": "C_kwDOEdyOa9oAKGQyYTU2YmY0OTgxM2Y5OGEyYmI0NTdlZWIyZGNmOTMwMWRjMmY4Njc",
            "parents": [
                {
                    "html_url": "https://github.com/PrismarineJS/mineflayer-collectblock/commit/05beeb811ebd6a16b09a280ac561e1c531af433a",
                    "sha": "05beeb811ebd6a16b09a280ac561e1c531af433a",
                    "url": "https://api.github.com/repos/PrismarineJS/mineflayer-collectblock/commits/05beeb811ebd6a16b09a280ac561e1c531af433a"
                }
            ],
            "sha": "d2a56bf49813f98a2bb457eeb2dcf9301dc2f867",
            "url": "https://api.github.com/repos/PrismarineJS/mineflayer-collectblock/commits/d2a56bf49813f98a2bb457eeb2dcf9301dc2f867"
        },
        {
            "author": {
                "avatar_url": "https://avatars.githubusercontent.com/u/61158869?v=4",
                "events_url": "https://api.github.com/users/Cleboost/events{/privacy}",
                "followers_url": "https://api.github.com/users/Cleboost/followers",
                "following_url": "https://api.github.com/users/Cleboost/following{/other_user}",
                "gists_url": "https://api.github.com/users/Cleboost/gists{/gist_id}",
                "gravatar_id": "",
                "html_url": "https://github.com/Cleboost",
                "id": 61158869,
                "login": "Cleboost",
                "node_id": "MDQ6VXNlcjYxMTU4ODY5",
                "organizations_url": "https://api.github.com/users/Cleboost/orgs",
                "received_events_url": "https://api.github.com/users/Cleboost/received_events",
                "repos_url": "https://api.github.com/users/Cleboost/repos",
                "site_admin": false,
                "starred_url": "https://api.github.com/users/Cleboost/starred{/owner}{/repo}",
                "subscriptions_url": "https://api.github.com/users/Cleboost/subscriptions",
                "type": "User",
                "url": "https://api.github.com/users/Cleboost"
            },
            "comments_url": "https://api.github.com/repos/PrismarineJS/mineflayer-collectblock/commits/9299f0b6cb56af8f5fd5ae6c1514c613453a5a48/comments",
            "commit": {
                "author": {
                    "date": "2024-07-22T08:31:55Z",
                    "email": "clement.balarot@gmail.com",
                    "name": "Cleboost"
                },
                "comment_count": 0,
                "committer": {
                    "date": "2024-07-22T08:31:55Z",
                    "email": "noreply@github.com",
                    "name": "GitHub"
                },
                "message": "Merge branch 'master' into master",
                "tree": {
                    "sha": "c2a401eb698d1e2dc5532c1cdeb9b5840288e64d",
                    "url": "https://api.github.com/repos/PrismarineJS/mineflayer-collectblock/git/trees/c2a401eb698d1e2dc5532c1cdeb9b5840288e64d"
                },
                "url": "https://api.github.com/repos/PrismarineJS/mineflayer-collectblock/git/commits/9299f0b6cb56af8f5fd5ae6c1514c613453a5a48",
                "verification": {
                    "payload": "tree c2a401eb698d1e2dc5532c1cdeb9b5840288e64d\nparent d2a56bf49813f98a2bb457eeb2dcf9301dc2f867\nparent 5dbaed726f8f7d750a51531b443495270be59585\nauthor Cleboost <clement.balarot@gmail.com> 1721637115 +0200\ncommitter GitHub <noreply@github.com> 1721637115 +0200\n\nMerge branch 'master' into master",
                    "reason": "valid",
                    "signature": "-----BEGIN PGP SIGNATURE-----\n\nwsFcBAABCAAQBQJmnhj7CRC1aQ7uu5UhlAAACCcQAAwEbuPA4fdKLKq5L7n3oTlV\nLWdFGc3JasNK8eIgS+q0zvBNl3Cor8K3tEWW43V1AQnnXjzKbfj8EfiGwTO6XpVE\nM2+ljNdbOdlcR7Sw0LFWmRduE9GfsynZJ+cJmpR9TqWpGQKwYRINfgTD4JMT2cmT\nRt/p3njhro1Xqcg6fgvaTT+ueOu9QsCjaF5rfHQU94sn8Rrz0P7xaBMJSgu3wbNA\n2PyiioCo5S+uYF1ljaTMmOvxeHXwbJknLbcwHsz8X5c1mzz5n3ocQn5RH3LjMizw\nzmy6DF+f/w1ugqueHhuSUtuZOhTJaZbpp2/4WKYG27EFE++W1CJJtXk45runvl7n\n4kcD8y9O43SCIPzPtSZpJQoCc/kE62auzw9y4W9gIT6FQB72BgMq/qEHC5uq/gnt\nbJCERhUzOMwgFIK/vkwQuszwZilr0Og/ZovGPX+TbRy6TqWf/yD/mlr4wgzoWYGk\n8G1ZaZ1xVXHbNbCjwN3zAoUQ8pLF/f//5NuR22ubkX3zobL0ruU0Keordv4rs2aT\nmr3EuavUh3r6U1M4L7tDz52EH/MxUFaPwjbkhG3/Rg7tXNzjPxIRq8Ymoh1sheZC\nApmf00FA4fXQubOnvzfIKlCBkJZO8aMcPGdbM9wO3hGxZnxc28gjYllnBHzEvgDo\nlcybhInr9vnbXM1U00HN\n=W33V\n-----END PGP SIGNATURE-----\n",
                    "verified": true
                }
            },
            "committer": {
                "avatar_url": "https://avatars.githubusercontent.com/u/19864447?v=4",
                "events_url": "https://api.github.com/users/web-flow/events{/privacy}",
                "followers_url": "https://api.github.com/users/web-flow/followers",
                "following_url": "https://api.github.com/users/web-flow/following{/other_user}",
                "gists_url": "https://api.github.com/users/web-flow/gists{/gist_id}",
                "gravatar_id": "",
                "html_url": "https://github.com/web-flow",
                "id": 19864447,
                "login": "web-flow",
                "node_id": "MDQ6VXNlcjE5ODY0NDQ3",
                "organizations_url": "https://api.github.com/users/web-flow/orgs",
                "received_events_url": "https://api.github.com/users/web-flow/received_events",
                "repos_url": "https://api.github.com/users/web-flow/repos",
                "site_admin": false,
                "starred_url": "https://api.github.com/users/web-flow/starred{/owner}{/repo}",
                "subscriptions_url": "https://api.github.com/users/web-flow/subscriptions",
                "type": "User",
                "url": "https://api.github.com/users/web-flow"
            },
            "html_url": "https://github.com/PrismarineJS/mineflayer-collectblock/commit/9299f0b6cb56af8f5fd5ae6c1514c613453a5a48",
            "node_id": "C_kwDOEdyOa9oAKDkyOTlmMGI2Y2I1NmFmOGY1ZmQ1YWU2YzE1MTRjNjEzNDUzYTVhNDg",
            "parents": [
                {
                    "html_url": "https://github.com/PrismarineJS/mineflayer-collectblock/commit/d2a56bf49813f98a2bb457eeb2dcf9301dc2f867",
                    "sha": "d2a56bf49813f98a2bb457eeb2dcf9301dc2f867",
                    "url": "https://api.github.com/repos/PrismarineJS/mineflayer-collectblock/commits/d2a56bf49813f98a2bb457eeb2dcf9301dc2f867"
                },
                {
                    "html_url": "https://github.com/PrismarineJS/mineflayer-collectblock/commit/5dbaed726f8f7d750a51531b443495270be59585",
                    "sha": "5dbaed726f8f7d750a51531b443495270be59585",
                    "url": "https://api.github.com/repos/PrismarineJS/mineflayer-collectblock/commits/5dbaed726f8f7d750a51531b443495270be59585"
                }
            ],
            "sha": "9299f0b6cb56af8f5fd5ae6c1514c613453a5a48",
            "url": "https://api.github.com/repos/PrismarineJS/mineflayer-collectblock/commits/9299f0b6cb56af8f5fd5ae6c1514c613453a5a48"
        }
    ],
    "commits": 13,
    "commits_url": "https://api.github.com/repos/PrismarineJS/mineflayer-collectblock/pulls/136/commits",
    "created_at": "2024-07-22T08:28:50Z",
    "deletions": 451,
    "diff_url": "https://github.com/PrismarineJS/mineflayer-collectblock/pull/136.diff",
    "draft": false,
    "head": {
        "label": "Cleboost:master",
        "ref": "master",
        "repo": {
            "allow_forking": true,
            "archive_url": "https://api.github.com/repos/Cleboost/mineflayer-collectblock/{archive_format}{/ref}",
            "archived": false,
            "assignees_url": "https://api.github.com/repos/Cleboost/mineflayer-collectblock/assignees{/user}",
            "blobs_url": "https://api.github.com/repos/Cleboost/mineflayer-collectblock/git/blobs{/sha}",
            "branches_url": "https://api.github.com/repos/Cleboost/mineflayer-collectblock/branches{/branch}",
            "clone_url": "https://github.com/Cleboost/mineflayer-collectblock.git",
            "collaborators_url": "https://api.github.com/repos/Cleboost/mineflayer-collectblock/collaborators{/collaborator}",
            "comments_url": "https://api.github.com/repos/Cleboost/mineflayer-collectblock/comments{/number}",
            "commits_url": "https://api.github.com/repos/Cleboost/mineflayer-collectblock/commits{/sha}",
            "compare_url": "https://api.github.com/repos/Cleboost/mineflayer-collectblock/compare/{base}...{head}",
            "contents_url": "https://api.github.com/repos/Cleboost/mineflayer-collectblock/contents/{+path}",
            "contributors_url": "https://api.github.com/repos/Cleboost/mineflayer-collectblock/contributors",
            "created_at": "2024-07-22T07:51:03Z",
            "default_branch": "master",
            "deployments_url": "https://api.github.com/repos/Cleboost/mineflayer-collectblock/deployments",
            "description": "A simple utility plugin for Mineflayer that add a higher level API for collecting blocks.",
            "disabled": true,
            "downloads_url": "https://api.github.com/repos/Cleboost/mineflayer-collectblock/downloads",
            "events_url": "https://api.github.com/repos/Cleboost/mineflayer-collectblock/events",
            "fork": true,
            "forks": 0,
            "forks_count": 0,
            "forks_url": "https://api.github.com/repos/Cleboost/mineflayer-collectblock/forks",
            "full_name": "Cleboost/mineflayer-collectblock",
            "git_commits_url": "https://api.github.com/repos/Cleboost/mineflayer-collectblock/git/commits{/sha}",
            "git_refs_url": "https://api.github.com/repos/Cleboost/mineflayer-collectblock/git/refs{/sha}",
            "git_tags_url": "https://api.github.com/repos/Cleboost/mineflayer-collectblock/git/tags{/sha}",
            "git_url": "git://github.com/Cleboost/mineflayer-collectblock.git",
            "has_discussions": false,
            "has_downloads": true,
            "has_issues": false,
            "has_pages": false,
            "has_projects": true,
            "has_wiki": false,
            "homepage": null,
            "hooks_url": "https://api.github.com/repos/Cleboost/mineflayer-collectblock/hooks",
            "html_url": "https://github.com/Cleboost/mineflayer-collectblock",
            "id": 832025259,
            "is_template": false,
            "issue_comment_url": "https://api.github.com/repos/Cleboost/mineflayer-collectblock/issues/comments{/number}",
            "issue_events_url": "https://api.github.com/repos/Cleboost/mineflayer-collectblock/issues/events{/number}",
            "issues_url": "https://api.github.com/repos/Cleboost/mineflayer-collectblock/issues{/number}",
            "keys_url": "https://api.github.com/repos/Cleboost/mineflayer-collectblock/keys{/key_id}",
            "labels_url": "https://api.github.com/repos/Cleboost/mineflayer-collectblock/labels{/name}",
            "language": "JavaScript",
            "languages_url": "https://api.github.com/repos/Cleboost/mineflayer-collectblock/languages",
            "license": {
                "key": "mit",
                "name": "MIT License",
                "node_id": "MDc6TGljZW5zZTEz",
                "spdx_id": "MIT",
                "url": "https://api.github.com/licenses/mit"
            },
            "merges_url": "https://api.github.com/repos/Cleboost/mineflayer-collectblock/merges",
            "milestones_url": "https://api.github.com/repos/Cleboost/mineflayer-collectblock/milestones{/number}",
            "mirror_url": null,
            "name": "mineflayer-collectblock",
            "node_id": "R_kgDOMZeyqw",
            "notifications_url": "https://api.github.com/repos/Cleboost/mineflayer-collectblock/notifications{?since,all,participating}",
            "open_issues": 0,
            "open_issues_count": 0,
            "owner": {
                "avatar_url": "https://avatars.githubusercontent.com/u/61158869?v=4",
                "events_url": "https://api.github.com/users/Cleboost/events{/privacy}",
                "followers_url": "https://api.github.com/users/Cleboost/followers",
                "following_url": "https://api.github.com/users/Cleboost/following{/other_user}",
                "gists_url": "https://api.github.com/users/Cleboost/gists{/gist_id}",
                "gravatar_id": "",
                "html_url": "https://github.com/Cleboost",
                "id": 61158869,
                "login": "Cleboost",
                "node_id": "MDQ6VXNlcjYxMTU4ODY5",
                "organizations_url": "https://api.github.com/users/Cleboost/orgs",
                "received_events_url": "https://api.github.com/users/Cleboost/received_events",
                "repos_url": "https://api.github.com/users/Cleboost/repos",
                "site_admin": false,
                "starred_url": "https://api.github.com/users/Cleboost/starred{/owner}{/repo}",
                "subscriptions_url": "https://api.github.com/users/Cleboost/subscriptions",
                "type": "User",
                "url": "https://api.github.com/users/Cleboost"
            },
            "private": false,
            "pulls_url": "https://api.github.com/repos/Cleboost/mineflayer-collectblock/pulls{/number}",
            "pushed_at": "2024-07-22T08:31:55Z",
            "releases_url": "https://api.github.com/repos/Cleboost/mineflayer-collectblock/releases{/id}",
            "size": 141,
            "ssh_url": "git@github.com:Cleboost/mineflayer-collectblock.git",
            "stargazers_count": 0,
            "stargazers_url": "https://api.github.com/repos/Cleboost/mineflayer-collectblock/stargazers",
            "statuses_url": "https://api.github.com/repos/Cleboost/mineflayer-collectblock/statuses/{sha}",
            "subscribers_url": "https://api.github.com/repos/Cleboost/mineflayer-collectblock/subscribers",
            "subscription_url": "https://api.github.com/repos/Cleboost/mineflayer-collectblock/subscription",
            "svn_url": "https://github.com/Cleboost/mineflayer-collectblock",
            "tags_url": "https://api.github.com/repos/Cleboost/mineflayer-collectblock/tags",
            "teams_url": "https://api.github.com/repos/Cleboost/mineflayer-collectblock/teams",
            "topics": [],
            "trees_url": "https://api.github.com/repos/Cleboost/mineflayer-collectblock/git/trees{/sha}",
            "updated_at": "2024-09-04T13:55:14Z",
            "url": "https://api.github.com/repos/Cleboost/mineflayer-collectblock",
            "visibility": "public",
            "watchers": 0,
            "watchers_count": 0,
            "web_commit_signoff_required": false
        },
        "sha": "9299f0b6cb56af8f5fd5ae6c1514c613453a5a48",
        "user": {
            "avatar_url": "https://avatars.githubusercontent.com/u/61158869?v=4",
            "events_url": "https://api.github.com/users/Cleboost/events{/privacy}",
            "followers_url": "https://api.github.com/users/Cleboost/followers",
            "following_url": "https://api.github.com/users/Cleboost/following{/other_user}",
            "gists_url": "https://api.github.com/users/Cleboost/gists{/gist_id}",
            "gravatar_id": "",
            "html_url": "https://github.com/Cleboost",
            "id": 61158869,
            "login": "Cleboost",
            "node_id": "MDQ6VXNlcjYxMTU4ODY5",
            "organizations_url": "https://api.github.com/users/Cleboost/orgs",
            "received_events_url": "https://api.github.com/users/Cleboost/received_events",
            "repos_url": "https://api.github.com/users/Cleboost/repos",
            "site_admin": false,
            "starred_url": "https://api.github.com/users/Cleboost/starred{/owner}{/repo}",
            "subscriptions_url": "https://api.github.com/users/Cleboost/subscriptions",
            "type": "User",
            "url": "https://api.github.com/users/Cleboost"
        }
    },
    "html_url": "https://github.com/PrismarineJS/mineflayer-collectblock/pull/136",
    "id": 1980698708,
    "issue_url": "https://api.github.com/repos/PrismarineJS/mineflayer-collectblock/issues/136",
    "labels": [],
    "locked": false,
    "maintainer_can_modify": false,
    "merge_commit_sha": "0e8e0114ebc8580b01f56fe49cbb6c220d0ca21b",
    "mergeable": true,
    "mergeable_state": "clean",
    "merged": false,
    "merged_at": null,
    "merged_by": null,
    "milestone": null,
    "node_id": "PR_kwDOEdyOa852DxBU",
    "number": 136,
    "patch_url": "https://github.com/PrismarineJS/mineflayer-collectblock/pull/136.patch",
    "rebaseable": false,
    "requested_reviewers": [],
    "requested_teams": [],
    "review_comment_url": "https://api.github.com/repos/PrismarineJS/mineflayer-collectblock/pulls/comments{/number}",
    "review_comments": 0,
    "review_comments_url": "https://api.github.com/repos/PrismarineJS/mineflayer-collectblock/pulls/136/comments",
    "state": "closed",
    "statuses_url": "https://api.github.com/repos/PrismarineJS/mineflayer-collectblock/statuses/9299f0b6cb56af8f5fd5ae6c1514c613453a5a48",
    "title": "Lot of fix",
    "updated_at": "2024-09-04T13:55:16Z",
    "url": "https://api.github.com/repos/PrismarineJS/mineflayer-collectblock/pulls/136",
    "user": {
        "avatar_url": "https://avatars.githubusercontent.com/u/61158869?v=4",
        "events_url": "https://api.github.com/users/Cleboost/events{/privacy}",
        "followers_url": "https://api.github.com/users/Cleboost/followers",
        "following_url": "https://api.github.com/users/Cleboost/following{/other_user}",
        "gists_url": "https://api.github.com/users/Cleboost/gists{/gist_id}",
        "gravatar_id": "",
        "html_url": "https://github.com/Cleboost",
        "id": 61158869,
        "login": "Cleboost",
        "node_id": "MDQ6VXNlcjYxMTU4ODY5",
        "organizations_url": "https://api.github.com/users/Cleboost/orgs",
        "received_events_url": "https://api.github.com/users/Cleboost/received_events",
        "repos_url": "https://api.github.com/users/Cleboost/repos",
        "site_admin": false,
        "starred_url": "https://api.github.com/users/Cleboost/starred{/owner}{/repo}",
        "subscriptions_url": "https://api.github.com/users/Cleboost/subscriptions",
        "type": "User",
        "url": "https://api.github.com/users/Cleboost"
    }
}