{
    "_links": {
        "comments": {
            "href": "https://api.github.com/repos/PrismarineJS/prismarine-provider-anvil/issues/3/comments"
        },
        "commits": {
            "href": "https://api.github.com/repos/PrismarineJS/prismarine-provider-anvil/pulls/3/commits"
        },
        "html": {
            "href": "https://github.com/PrismarineJS/prismarine-provider-anvil/pull/3"
        },
        "issue": {
            "href": "https://api.github.com/repos/PrismarineJS/prismarine-provider-anvil/issues/3"
        },
        "review_comment": {
            "href": "https://api.github.com/repos/PrismarineJS/prismarine-provider-anvil/pulls/comments{/number}"
        },
        "review_comments": {
            "href": "https://api.github.com/repos/PrismarineJS/prismarine-provider-anvil/pulls/3/comments"
        },
        "self": {
            "href": "https://api.github.com/repos/PrismarineJS/prismarine-provider-anvil/pulls/3"
        },
        "statuses": {
            "href": "https://api.github.com/repos/PrismarineJS/prismarine-provider-anvil/statuses/dafba78ed3b141506c5bb11bd3bf9c935a5ebc5b"
        }
    },
    "active_lock_reason": null,
    "additions": 111,
    "assignee": null,
    "assignees": [],
    "author_association": "MEMBER",
    "auto_merge": null,
    "base": {
        "label": "PrismarineJS:master",
        "ref": "master",
        "repo": {
            "allow_forking": true,
            "archive_url": "https://api.github.com/repos/PrismarineJS/prismarine-provider-anvil/{archive_format}{/ref}",
            "archived": false,
            "assignees_url": "https://api.github.com/repos/PrismarineJS/prismarine-provider-anvil/assignees{/user}",
            "blobs_url": "https://api.github.com/repos/PrismarineJS/prismarine-provider-anvil/git/blobs{/sha}",
            "branches_url": "https://api.github.com/repos/PrismarineJS/prismarine-provider-anvil/branches{/branch}",
            "clone_url": "https://github.com/PrismarineJS/prismarine-provider-anvil.git",
            "collaborators_url": "https://api.github.com/repos/PrismarineJS/prismarine-provider-anvil/collaborators{/collaborator}",
            "comments_url": "https://api.github.com/repos/PrismarineJS/prismarine-provider-anvil/comments{/number}",
            "commits_url": "https://api.github.com/repos/PrismarineJS/prismarine-provider-anvil/commits{/sha}",
            "compare_url": "https://api.github.com/repos/PrismarineJS/prismarine-provider-anvil/compare/{base}...{head}",
            "contents_url": "https://api.github.com/repos/PrismarineJS/prismarine-provider-anvil/contents/{+path}",
            "contributors_url": "https://api.github.com/repos/PrismarineJS/prismarine-provider-anvil/contributors",
            "created_at": "2015-03-07T20:11:01Z",
            "default_branch": "master",
            "deployments_url": "https://api.github.com/repos/PrismarineJS/prismarine-provider-anvil/deployments",
            "description": "Anvil Storage Provider implementation.",
            "disabled": false,
            "downloads_url": "https://api.github.com/repos/PrismarineJS/prismarine-provider-anvil/downloads",
            "events_url": "https://api.github.com/repos/PrismarineJS/prismarine-provider-anvil/events",
            "fork": false,
            "forks": 20,
            "forks_count": 20,
            "forks_url": "https://api.github.com/repos/PrismarineJS/prismarine-provider-anvil/forks",
            "full_name": "PrismarineJS/prismarine-provider-anvil",
            "git_commits_url": "https://api.github.com/repos/PrismarineJS/prismarine-provider-anvil/git/commits{/sha}",
            "git_refs_url": "https://api.github.com/repos/PrismarineJS/prismarine-provider-anvil/git/refs{/sha}",
            "git_tags_url": "https://api.github.com/repos/PrismarineJS/prismarine-provider-anvil/git/tags{/sha}",
            "git_url": "git://github.com/PrismarineJS/prismarine-provider-anvil.git",
            "has_discussions": false,
            "has_downloads": true,
            "has_issues": true,
            "has_pages": false,
            "has_projects": true,
            "has_wiki": true,
            "homepage": null,
            "hooks_url": "https://api.github.com/repos/PrismarineJS/prismarine-provider-anvil/hooks",
            "html_url": "https://github.com/PrismarineJS/prismarine-provider-anvil",
            "id": 31825707,
            "is_template": false,
            "issue_comment_url": "https://api.github.com/repos/PrismarineJS/prismarine-provider-anvil/issues/comments{/number}",
            "issue_events_url": "https://api.github.com/repos/PrismarineJS/prismarine-provider-anvil/issues/events{/number}",
            "issues_url": "https://api.github.com/repos/PrismarineJS/prismarine-provider-anvil/issues{/number}",
            "keys_url": "https://api.github.com/repos/PrismarineJS/prismarine-provider-anvil/keys{/key_id}",
            "labels_url": "https://api.github.com/repos/PrismarineJS/prismarine-provider-anvil/labels{/name}",
            "language": "JavaScript",
            "languages_url": "https://api.github.com/repos/PrismarineJS/prismarine-provider-anvil/languages",
            "license": null,
            "merges_url": "https://api.github.com/repos/PrismarineJS/prismarine-provider-anvil/merges",
            "milestones_url": "https://api.github.com/repos/PrismarineJS/prismarine-provider-anvil/milestones{/number}",
            "mirror_url": null,
            "name": "prismarine-provider-anvil",
            "node_id": "MDEwOlJlcG9zaXRvcnkzMTgyNTcwNw==",
            "notifications_url": "https://api.github.com/repos/PrismarineJS/prismarine-provider-anvil/notifications{?since,all,participating}",
            "open_issues": 10,
            "open_issues_count": 10,
            "owner": {
                "avatar_url": "https://avatars.githubusercontent.com/u/11053411?v=4",
                "events_url": "https://api.github.com/users/PrismarineJS/events{/privacy}",
                "followers_url": "https://api.github.com/users/PrismarineJS/followers",
                "following_url": "https://api.github.com/users/PrismarineJS/following{/other_user}",
                "gists_url": "https://api.github.com/users/PrismarineJS/gists{/gist_id}",
                "gravatar_id": "",
                "html_url": "https://github.com/PrismarineJS",
                "id": 11053411,
                "login": "PrismarineJS",
                "node_id": "MDEyOk9yZ2FuaXphdGlvbjExMDUzNDEx",
                "organizations_url": "https://api.github.com/users/PrismarineJS/orgs",
                "received_events_url": "https://api.github.com/users/PrismarineJS/received_events",
                "repos_url": "https://api.github.com/users/PrismarineJS/repos",
                "site_admin": false,
                "starred_url": "https://api.github.com/users/PrismarineJS/starred{/owner}{/repo}",
                "subscriptions_url": "https://api.github.com/users/PrismarineJS/subscriptions",
                "type": "Organization",
                "url": "https://api.github.com/users/PrismarineJS"
            },
            "private": false,
            "pulls_url": "https://api.github.com/repos/PrismarineJS/prismarine-provider-anvil/pulls{/number}",
            "pushed_at": "2023-04-19T16:46:32Z",
            "releases_url": "https://api.github.com/repos/PrismarineJS/prismarine-provider-anvil/releases{/id}",
            "size": 6497,
            "ssh_url": "git@github.com:PrismarineJS/prismarine-provider-anvil.git",
            "stargazers_count": 10,
            "stargazers_url": "https://api.github.com/repos/PrismarineJS/prismarine-provider-anvil/stargazers",
            "statuses_url": "https://api.github.com/repos/PrismarineJS/prismarine-provider-anvil/statuses/{sha}",
            "subscribers_url": "https://api.github.com/repos/PrismarineJS/prismarine-provider-anvil/subscribers",
            "subscription_url": "https://api.github.com/repos/PrismarineJS/prismarine-provider-anvil/subscription",
            "svn_url": "https://github.com/PrismarineJS/prismarine-provider-anvil",
            "tags_url": "https://api.github.com/repos/PrismarineJS/prismarine-provider-anvil/tags",
            "teams_url": "https://api.github.com/repos/PrismarineJS/prismarine-provider-anvil/teams",
            "topics": [],
            "trees_url": "https://api.github.com/repos/PrismarineJS/prismarine-provider-anvil/git/trees{/sha}",
            "updated_at": "2022-04-28T20:40:54Z",
            "url": "https://api.github.com/repos/PrismarineJS/prismarine-provider-anvil",
            "visibility": "public",
            "watchers": 10,
            "watchers_count": 10,
            "web_commit_signoff_required": false
        },
        "sha": "8f75537320f580ab46d6f06909c75a79c90ec3ce",
        "user": {
            "avatar_url": "https://avatars.githubusercontent.com/u/11053411?v=4",
            "events_url": "https://api.github.com/users/PrismarineJS/events{/privacy}",
            "followers_url": "https://api.github.com/users/PrismarineJS/followers",
            "following_url": "https://api.github.com/users/PrismarineJS/following{/other_user}",
            "gists_url": "https://api.github.com/users/PrismarineJS/gists{/gist_id}",
            "gravatar_id": "",
            "html_url": "https://github.com/PrismarineJS",
            "id": 11053411,
            "login": "PrismarineJS",
            "node_id": "MDEyOk9yZ2FuaXphdGlvbjExMDUzNDEx",
            "organizations_url": "https://api.github.com/users/PrismarineJS/orgs",
            "received_events_url": "https://api.github.com/users/PrismarineJS/received_events",
            "repos_url": "https://api.github.com/users/PrismarineJS/repos",
            "site_admin": false,
            "starred_url": "https://api.github.com/users/PrismarineJS/starred{/owner}{/repo}",
            "subscriptions_url": "https://api.github.com/users/PrismarineJS/subscriptions",
            "type": "Organization",
            "url": "https://api.github.com/users/PrismarineJS"
        }
    },
    "body": "",
    "changed_files": 8,
    "closed_at": "2015-10-24T01:34:56Z",
    "comment_data": [],
    "comment_regular_data": [],
    "comments": 0,
    "comments_url": "https://api.github.com/repos/PrismarineJS/prismarine-provider-anvil/issues/3/comments",
    "commit_data": [
        {
            "author": {
                "avatar_url": "https://avatars.githubusercontent.com/u/2346494?v=4",
                "events_url": "https://api.github.com/users/rom1504/events{/privacy}",
                "followers_url": "https://api.github.com/users/rom1504/followers",
                "following_url": "https://api.github.com/users/rom1504/following{/other_user}",
                "gists_url": "https://api.github.com/users/rom1504/gists{/gist_id}",
                "gravatar_id": "",
                "html_url": "https://github.com/rom1504",
                "id": 2346494,
                "login": "rom1504",
                "node_id": "MDQ6VXNlcjIzNDY0OTQ=",
                "organizations_url": "https://api.github.com/users/rom1504/orgs",
                "received_events_url": "https://api.github.com/users/rom1504/received_events",
                "repos_url": "https://api.github.com/users/rom1504/repos",
                "site_admin": false,
                "starred_url": "https://api.github.com/users/rom1504/starred{/owner}{/repo}",
                "subscriptions_url": "https://api.github.com/users/rom1504/subscriptions",
                "type": "User",
                "url": "https://api.github.com/users/rom1504"
            },
            "comments_url": "https://api.github.com/repos/PrismarineJS/prismarine-provider-anvil/commits/89894818300536edebb863d7bc826513f54e374c/comments",
            "commit": {
                "author": {
                    "date": "2015-10-23T13:10:10Z",
                    "email": "romain.rom1@gmail.com",
                    "name": "Romain Beaumont"
                },
                "comment_count": 0,
                "committer": {
                    "date": "2015-10-23T13:12:34Z",
                    "email": "romain.rom1@gmail.com",
                    "name": "Romain Beaumont"
                },
                "message": "fix gulp, make the path configurable, create example.js",
                "tree": {
                    "sha": "76d2eb76e54203fca96135dd0b133128857405c5",
                    "url": "https://api.github.com/repos/PrismarineJS/prismarine-provider-anvil/git/trees/76d2eb76e54203fca96135dd0b133128857405c5"
                },
                "url": "https://api.github.com/repos/PrismarineJS/prismarine-provider-anvil/git/commits/89894818300536edebb863d7bc826513f54e374c",
                "verification": {
                    "payload": null,
                    "reason": "unsigned",
                    "signature": null,
                    "verified": false
                }
            },
            "committer": {
                "avatar_url": "https://avatars.githubusercontent.com/u/2346494?v=4",
                "events_url": "https://api.github.com/users/rom1504/events{/privacy}",
                "followers_url": "https://api.github.com/users/rom1504/followers",
                "following_url": "https://api.github.com/users/rom1504/following{/other_user}",
                "gists_url": "https://api.github.com/users/rom1504/gists{/gist_id}",
                "gravatar_id": "",
                "html_url": "https://github.com/rom1504",
                "id": 2346494,
                "login": "rom1504",
                "node_id": "MDQ6VXNlcjIzNDY0OTQ=",
                "organizations_url": "https://api.github.com/users/rom1504/orgs",
                "received_events_url": "https://api.github.com/users/rom1504/received_events",
                "repos_url": "https://api.github.com/users/rom1504/repos",
                "site_admin": false,
                "starred_url": "https://api.github.com/users/rom1504/starred{/owner}{/repo}",
                "subscriptions_url": "https://api.github.com/users/rom1504/subscriptions",
                "type": "User",
                "url": "https://api.github.com/users/rom1504"
            },
            "html_url": "https://github.com/PrismarineJS/prismarine-provider-anvil/commit/89894818300536edebb863d7bc826513f54e374c",
            "node_id": "MDY6Q29tbWl0NDQ4MTM3Mzc6ODk4OTQ4MTgzMDA1MzZlZGViYjg2M2Q3YmM4MjY1MTNmNTRlMzc0Yw==",
            "parents": [
                {
                    "html_url": "https://github.com/PrismarineJS/prismarine-provider-anvil/commit/8f75537320f580ab46d6f06909c75a79c90ec3ce",
                    "sha": "8f75537320f580ab46d6f06909c75a79c90ec3ce",
                    "url": "https://api.github.com/repos/PrismarineJS/prismarine-provider-anvil/commits/8f75537320f580ab46d6f06909c75a79c90ec3ce"
                }
            ],
            "sha": "89894818300536edebb863d7bc826513f54e374c",
            "url": "https://api.github.com/repos/PrismarineJS/prismarine-provider-anvil/commits/89894818300536edebb863d7bc826513f54e374c"
        },
        {
            "author": {
                "avatar_url": "https://avatars.githubusercontent.com/u/2346494?v=4",
                "events_url": "https://api.github.com/users/rom1504/events{/privacy}",
                "followers_url": "https://api.github.com/users/rom1504/followers",
                "following_url": "https://api.github.com/users/rom1504/following{/other_user}",
                "gists_url": "https://api.github.com/users/rom1504/gists{/gist_id}",
                "gravatar_id": "",
                "html_url": "https://github.com/rom1504",
                "id": 2346494,
                "login": "rom1504",
                "node_id": "MDQ6VXNlcjIzNDY0OTQ=",
                "organizations_url": "https://api.github.com/users/rom1504/orgs",
                "received_events_url": "https://api.github.com/users/rom1504/received_events",
                "repos_url": "https://api.github.com/users/rom1504/repos",
                "site_admin": false,
                "starred_url": "https://api.github.com/users/rom1504/starred{/owner}{/repo}",
                "subscriptions_url": "https://api.github.com/users/rom1504/subscriptions",
                "type": "User",
                "url": "https://api.github.com/users/rom1504"
            },
            "comments_url": "https://api.github.com/repos/PrismarineJS/prismarine-provider-anvil/commits/93401bb26be33c8f23384e7ee021acc939f8d52f/comments",
            "commit": {
                "author": {
                    "date": "2015-10-23T13:39:58Z",
                    "email": "romain.rom1@gmail.com",
                    "name": "Romain Beaumont"
                },
                "comment_count": 0,
                "committer": {
                    "date": "2015-10-23T13:39:58Z",
                    "email": "romain.rom1@gmail.com",
                    "name": "Romain Beaumont"
                },
                "message": "2 space tab + prismarine-chunk",
                "tree": {
                    "sha": "3c041cb4d74c9e605a0c0cb0a8bfb45bb960b2e7",
                    "url": "https://api.github.com/repos/PrismarineJS/prismarine-provider-anvil/git/trees/3c041cb4d74c9e605a0c0cb0a8bfb45bb960b2e7"
                },
                "url": "https://api.github.com/repos/PrismarineJS/prismarine-provider-anvil/git/commits/93401bb26be33c8f23384e7ee021acc939f8d52f",
                "verification": {
                    "payload": null,
                    "reason": "unsigned",
                    "signature": null,
                    "verified": false
                }
            },
            "committer": {
                "avatar_url": "https://avatars.githubusercontent.com/u/2346494?v=4",
                "events_url": "https://api.github.com/users/rom1504/events{/privacy}",
                "followers_url": "https://api.github.com/users/rom1504/followers",
                "following_url": "https://api.github.com/users/rom1504/following{/other_user}",
                "gists_url": "https://api.github.com/users/rom1504/gists{/gist_id}",
                "gravatar_id": "",
                "html_url": "https://github.com/rom1504",
                "id": 2346494,
                "login": "rom1504",
                "node_id": "MDQ6VXNlcjIzNDY0OTQ=",
                "organizations_url": "https://api.github.com/users/rom1504/orgs",
                "received_events_url": "https://api.github.com/users/rom1504/received_events",
                "repos_url": "https://api.github.com/users/rom1504/repos",
                "site_admin": false,
                "starred_url": "https://api.github.com/users/rom1504/starred{/owner}{/repo}",
                "subscriptions_url": "https://api.github.com/users/rom1504/subscriptions",
                "type": "User",
                "url": "https://api.github.com/users/rom1504"
            },
            "html_url": "https://github.com/PrismarineJS/prismarine-provider-anvil/commit/93401bb26be33c8f23384e7ee021acc939f8d52f",
            "node_id": "MDY6Q29tbWl0NDQ4MTM3Mzc6OTM0MDFiYjI2YmUzM2M4ZjIzMzg0ZTdlZTAyMWFjYzkzOWY4ZDUyZg==",
            "parents": [
                {
                    "html_url": "https://github.com/PrismarineJS/prismarine-provider-anvil/commit/89894818300536edebb863d7bc826513f54e374c",
                    "sha": "89894818300536edebb863d7bc826513f54e374c",
                    "url": "https://api.github.com/repos/PrismarineJS/prismarine-provider-anvil/commits/89894818300536edebb863d7bc826513f54e374c"
                }
            ],
            "sha": "93401bb26be33c8f23384e7ee021acc939f8d52f",
            "url": "https://api.github.com/repos/PrismarineJS/prismarine-provider-anvil/commits/93401bb26be33c8f23384e7ee021acc939f8d52f"
        },
        {
            "author": {
                "avatar_url": "https://avatars.githubusercontent.com/u/2346494?v=4",
                "events_url": "https://api.github.com/users/rom1504/events{/privacy}",
                "followers_url": "https://api.github.com/users/rom1504/followers",
                "following_url": "https://api.github.com/users/rom1504/following{/other_user}",
                "gists_url": "https://api.github.com/users/rom1504/gists{/gist_id}",
                "gravatar_id": "",
                "html_url": "https://github.com/rom1504",
                "id": 2346494,
                "login": "rom1504",
                "node_id": "MDQ6VXNlcjIzNDY0OTQ=",
                "organizations_url": "https://api.github.com/users/rom1504/orgs",
                "received_events_url": "https://api.github.com/users/rom1504/received_events",
                "repos_url": "https://api.github.com/users/rom1504/repos",
                "site_admin": false,
                "starred_url": "https://api.github.com/users/rom1504/starred{/owner}{/repo}",
                "subscriptions_url": "https://api.github.com/users/rom1504/subscriptions",
                "type": "User",
                "url": "https://api.github.com/users/rom1504"
            },
            "comments_url": "https://api.github.com/repos/PrismarineJS/prismarine-provider-anvil/commits/37afbecd624c457f61640b293f3627388b10bc13/comments",
            "commit": {
                "author": {
                    "date": "2015-10-23T13:52:40Z",
                    "email": "romain.rom1@gmail.com",
                    "name": "Romain Beaumont"
                },
                "comment_count": 0,
                "committer": {
                    "date": "2015-10-23T13:52:40Z",
                    "email": "romain.rom1@gmail.com",
                    "name": "Romain Beaumont"
                },
                "message": "get a name",
                "tree": {
                    "sha": "5aae71ab33f56060a1126b2205784d73d73e37d4",
                    "url": "https://api.github.com/repos/PrismarineJS/prismarine-provider-anvil/git/trees/5aae71ab33f56060a1126b2205784d73d73e37d4"
                },
                "url": "https://api.github.com/repos/PrismarineJS/prismarine-provider-anvil/git/commits/37afbecd624c457f61640b293f3627388b10bc13",
                "verification": {
                    "payload": null,
                    "reason": "unsigned",
                    "signature": null,
                    "verified": false
                }
            },
            "committer": {
                "avatar_url": "https://avatars.githubusercontent.com/u/2346494?v=4",
                "events_url": "https://api.github.com/users/rom1504/events{/privacy}",
                "followers_url": "https://api.github.com/users/rom1504/followers",
                "following_url": "https://api.github.com/users/rom1504/following{/other_user}",
                "gists_url": "https://api.github.com/users/rom1504/gists{/gist_id}",
                "gravatar_id": "",
                "html_url": "https://github.com/rom1504",
                "id": 2346494,
                "login": "rom1504",
                "node_id": "MDQ6VXNlcjIzNDY0OTQ=",
                "organizations_url": "https://api.github.com/users/rom1504/orgs",
                "received_events_url": "https://api.github.com/users/rom1504/received_events",
                "repos_url": "https://api.github.com/users/rom1504/repos",
                "site_admin": false,
                "starred_url": "https://api.github.com/users/rom1504/starred{/owner}{/repo}",
                "subscriptions_url": "https://api.github.com/users/rom1504/subscriptions",
                "type": "User",
                "url": "https://api.github.com/users/rom1504"
            },
            "html_url": "https://github.com/PrismarineJS/prismarine-provider-anvil/commit/37afbecd624c457f61640b293f3627388b10bc13",
            "node_id": "MDY6Q29tbWl0NDQ4MTM3Mzc6MzdhZmJlY2Q2MjRjNDU3ZjYxNjQwYjI5M2YzNjI3Mzg4YjEwYmMxMw==",
            "parents": [
                {
                    "html_url": "https://github.com/PrismarineJS/prismarine-provider-anvil/commit/93401bb26be33c8f23384e7ee021acc939f8d52f",
                    "sha": "93401bb26be33c8f23384e7ee021acc939f8d52f",
                    "url": "https://api.github.com/repos/PrismarineJS/prismarine-provider-anvil/commits/93401bb26be33c8f23384e7ee021acc939f8d52f"
                }
            ],
            "sha": "37afbecd624c457f61640b293f3627388b10bc13",
            "url": "https://api.github.com/repos/PrismarineJS/prismarine-provider-anvil/commits/37afbecd624c457f61640b293f3627388b10bc13"
        },
        {
            "author": {
                "avatar_url": "https://avatars.githubusercontent.com/u/2346494?v=4",
                "events_url": "https://api.github.com/users/rom1504/events{/privacy}",
                "followers_url": "https://api.github.com/users/rom1504/followers",
                "following_url": "https://api.github.com/users/rom1504/following{/other_user}",
                "gists_url": "https://api.github.com/users/rom1504/gists{/gist_id}",
                "gravatar_id": "",
                "html_url": "https://github.com/rom1504",
                "id": 2346494,
                "login": "rom1504",
                "node_id": "MDQ6VXNlcjIzNDY0OTQ=",
                "organizations_url": "https://api.github.com/users/rom1504/orgs",
                "received_events_url": "https://api.github.com/users/rom1504/received_events",
                "repos_url": "https://api.github.com/users/rom1504/repos",
                "site_admin": false,
                "starred_url": "https://api.github.com/users/rom1504/starred{/owner}{/repo}",
                "subscriptions_url": "https://api.github.com/users/rom1504/subscriptions",
                "type": "User",
                "url": "https://api.github.com/users/rom1504"
            },
            "comments_url": "https://api.github.com/repos/PrismarineJS/prismarine-provider-anvil/commits/ecb0f4c4f430dedd96599f0757a8bfcffc969f38/comments",
            "commit": {
                "author": {
                    "date": "2015-10-23T14:14:20Z",
                    "email": "romain.rom1@gmail.com",
                    "name": "Romain Beaumont"
                },
                "comment_count": 0,
                "committer": {
                    "date": "2015-10-23T14:14:20Z",
                    "email": "romain.rom1@gmail.com",
                    "name": "Romain Beaumont"
                },
                "message": "add skylight",
                "tree": {
                    "sha": "77118f8256ce4a346015c0b378c32a57a774cc8f",
                    "url": "https://api.github.com/repos/PrismarineJS/prismarine-provider-anvil/git/trees/77118f8256ce4a346015c0b378c32a57a774cc8f"
                },
                "url": "https://api.github.com/repos/PrismarineJS/prismarine-provider-anvil/git/commits/ecb0f4c4f430dedd96599f0757a8bfcffc969f38",
                "verification": {
                    "payload": null,
                    "reason": "unsigned",
                    "signature": null,
                    "verified": false
                }
            },
            "committer": {
                "avatar_url": "https://avatars.githubusercontent.com/u/2346494?v=4",
                "events_url": "https://api.github.com/users/rom1504/events{/privacy}",
                "followers_url": "https://api.github.com/users/rom1504/followers",
                "following_url": "https://api.github.com/users/rom1504/following{/other_user}",
                "gists_url": "https://api.github.com/users/rom1504/gists{/gist_id}",
                "gravatar_id": "",
                "html_url": "https://github.com/rom1504",
                "id": 2346494,
                "login": "rom1504",
                "node_id": "MDQ6VXNlcjIzNDY0OTQ=",
                "organizations_url": "https://api.github.com/users/rom1504/orgs",
                "received_events_url": "https://api.github.com/users/rom1504/received_events",
                "repos_url": "https://api.github.com/users/rom1504/repos",
                "site_admin": false,
                "starred_url": "https://api.github.com/users/rom1504/starred{/owner}{/repo}",
                "subscriptions_url": "https://api.github.com/users/rom1504/subscriptions",
                "type": "User",
                "url": "https://api.github.com/users/rom1504"
            },
            "html_url": "https://github.com/PrismarineJS/prismarine-provider-anvil/commit/ecb0f4c4f430dedd96599f0757a8bfcffc969f38",
            "node_id": "MDY6Q29tbWl0NDQ4MTM3Mzc6ZWNiMGY0YzRmNDMwZGVkZDk2NTk5ZjA3NTdhOGJmY2ZmYzk2OWYzOA==",
            "parents": [
                {
                    "html_url": "https://github.com/PrismarineJS/prismarine-provider-anvil/commit/37afbecd624c457f61640b293f3627388b10bc13",
                    "sha": "37afbecd624c457f61640b293f3627388b10bc13",
                    "url": "https://api.github.com/repos/PrismarineJS/prismarine-provider-anvil/commits/37afbecd624c457f61640b293f3627388b10bc13"
                }
            ],
            "sha": "ecb0f4c4f430dedd96599f0757a8bfcffc969f38",
            "url": "https://api.github.com/repos/PrismarineJS/prismarine-provider-anvil/commits/ecb0f4c4f430dedd96599f0757a8bfcffc969f38"
        },
        {
            "author": {
                "avatar_url": "https://avatars.githubusercontent.com/u/2346494?v=4",
                "events_url": "https://api.github.com/users/rom1504/events{/privacy}",
                "followers_url": "https://api.github.com/users/rom1504/followers",
                "following_url": "https://api.github.com/users/rom1504/following{/other_user}",
                "gists_url": "https://api.github.com/users/rom1504/gists{/gist_id}",
                "gravatar_id": "",
                "html_url": "https://github.com/rom1504",
                "id": 2346494,
                "login": "rom1504",
                "node_id": "MDQ6VXNlcjIzNDY0OTQ=",
                "organizations_url": "https://api.github.com/users/rom1504/orgs",
                "received_events_url": "https://api.github.com/users/rom1504/received_events",
                "repos_url": "https://api.github.com/users/rom1504/repos",
                "site_admin": false,
                "starred_url": "https://api.github.com/users/rom1504/starred{/owner}{/repo}",
                "subscriptions_url": "https://api.github.com/users/rom1504/subscriptions",
                "type": "User",
                "url": "https://api.github.com/users/rom1504"
            },
            "comments_url": "https://api.github.com/repos/PrismarineJS/prismarine-provider-anvil/commits/06fccb0a4c2ee2314313b0075189e0470574f626/comments",
            "commit": {
                "author": {
                    "date": "2015-10-23T16:04:53Z",
                    "email": "romain.rom1@gmail.com",
                    "name": "Romain Beaumont"
                },
                "comment_count": 0,
                "committer": {
                    "date": "2015-10-23T16:04:53Z",
                    "email": "romain.rom1@gmail.com",
                    "name": "Romain Beaumont"
                },
                "message": "read the region asyncly",
                "tree": {
                    "sha": "adad88f6417552bb9e56bf33f432247c93aa4edf",
                    "url": "https://api.github.com/repos/PrismarineJS/prismarine-provider-anvil/git/trees/adad88f6417552bb9e56bf33f432247c93aa4edf"
                },
                "url": "https://api.github.com/repos/PrismarineJS/prismarine-provider-anvil/git/commits/06fccb0a4c2ee2314313b0075189e0470574f626",
                "verification": {
                    "payload": null,
                    "reason": "unsigned",
                    "signature": null,
                    "verified": false
                }
            },
            "committer": {
                "avatar_url": "https://avatars.githubusercontent.com/u/2346494?v=4",
                "events_url": "https://api.github.com/users/rom1504/events{/privacy}",
                "followers_url": "https://api.github.com/users/rom1504/followers",
                "following_url": "https://api.github.com/users/rom1504/following{/other_user}",
                "gists_url": "https://api.github.com/users/rom1504/gists{/gist_id}",
                "gravatar_id": "",
                "html_url": "https://github.com/rom1504",
                "id": 2346494,
                "login": "rom1504",
                "node_id": "MDQ6VXNlcjIzNDY0OTQ=",
                "organizations_url": "https://api.github.com/users/rom1504/orgs",
                "received_events_url": "https://api.github.com/users/rom1504/received_events",
                "repos_url": "https://api.github.com/users/rom1504/repos",
                "site_admin": false,
                "starred_url": "https://api.github.com/users/rom1504/starred{/owner}{/repo}",
                "subscriptions_url": "https://api.github.com/users/rom1504/subscriptions",
                "type": "User",
                "url": "https://api.github.com/users/rom1504"
            },
            "html_url": "https://github.com/PrismarineJS/prismarine-provider-anvil/commit/06fccb0a4c2ee2314313b0075189e0470574f626",
            "node_id": "MDY6Q29tbWl0NDQ4MTM3Mzc6MDZmY2NiMGE0YzJlZTIzMTQzMTNiMDA3NTE4OWUwNDcwNTc0ZjYyNg==",
            "parents": [
                {
                    "html_url": "https://github.com/PrismarineJS/prismarine-provider-anvil/commit/ecb0f4c4f430dedd96599f0757a8bfcffc969f38",
                    "sha": "ecb0f4c4f430dedd96599f0757a8bfcffc969f38",
                    "url": "https://api.github.com/repos/PrismarineJS/prismarine-provider-anvil/commits/ecb0f4c4f430dedd96599f0757a8bfcffc969f38"
                }
            ],
            "sha": "06fccb0a4c2ee2314313b0075189e0470574f626",
            "url": "https://api.github.com/repos/PrismarineJS/prismarine-provider-anvil/commits/06fccb0a4c2ee2314313b0075189e0470574f626"
        },
        {
            "author": {
                "avatar_url": "https://avatars.githubusercontent.com/u/2346494?v=4",
                "events_url": "https://api.github.com/users/rom1504/events{/privacy}",
                "followers_url": "https://api.github.com/users/rom1504/followers",
                "following_url": "https://api.github.com/users/rom1504/following{/other_user}",
                "gists_url": "https://api.github.com/users/rom1504/gists{/gist_id}",
                "gravatar_id": "",
                "html_url": "https://github.com/rom1504",
                "id": 2346494,
                "login": "rom1504",
                "node_id": "MDQ6VXNlcjIzNDY0OTQ=",
                "organizations_url": "https://api.github.com/users/rom1504/orgs",
                "received_events_url": "https://api.github.com/users/rom1504/received_events",
                "repos_url": "https://api.github.com/users/rom1504/repos",
                "site_admin": false,
                "starred_url": "https://api.github.com/users/rom1504/starred{/owner}{/repo}",
                "subscriptions_url": "https://api.github.com/users/rom1504/subscriptions",
                "type": "User",
                "url": "https://api.github.com/users/rom1504"
            },
            "comments_url": "https://api.github.com/repos/PrismarineJS/prismarine-provider-anvil/commits/1540721cb3c4541b04aaa2bbe9ea8dc749160ebd/comments",
            "commit": {
                "author": {
                    "date": "2015-10-23T16:07:49Z",
                    "email": "romain.rom1@gmail.com",
                    "name": "Romain Beaumont"
                },
                "comment_count": 0,
                "committer": {
                    "date": "2015-10-23T16:07:49Z",
                    "email": "romain.rom1@gmail.com",
                    "name": "Romain Beaumont"
                },
                "message": "remove printing",
                "tree": {
                    "sha": "580c89fa4edc3f3f5c5519d8617591708f2988aa",
                    "url": "https://api.github.com/repos/PrismarineJS/prismarine-provider-anvil/git/trees/580c89fa4edc3f3f5c5519d8617591708f2988aa"
                },
                "url": "https://api.github.com/repos/PrismarineJS/prismarine-provider-anvil/git/commits/1540721cb3c4541b04aaa2bbe9ea8dc749160ebd",
                "verification": {
                    "payload": null,
                    "reason": "unsigned",
                    "signature": null,
                    "verified": false
                }
            },
            "committer": {
                "avatar_url": "https://avatars.githubusercontent.com/u/2346494?v=4",
                "events_url": "https://api.github.com/users/rom1504/events{/privacy}",
                "followers_url": "https://api.github.com/users/rom1504/followers",
                "following_url": "https://api.github.com/users/rom1504/following{/other_user}",
                "gists_url": "https://api.github.com/users/rom1504/gists{/gist_id}",
                "gravatar_id": "",
                "html_url": "https://github.com/rom1504",
                "id": 2346494,
                "login": "rom1504",
                "node_id": "MDQ6VXNlcjIzNDY0OTQ=",
                "organizations_url": "https://api.github.com/users/rom1504/orgs",
                "received_events_url": "https://api.github.com/users/rom1504/received_events",
                "repos_url": "https://api.github.com/users/rom1504/repos",
                "site_admin": false,
                "starred_url": "https://api.github.com/users/rom1504/starred{/owner}{/repo}",
                "subscriptions_url": "https://api.github.com/users/rom1504/subscriptions",
                "type": "User",
                "url": "https://api.github.com/users/rom1504"
            },
            "html_url": "https://github.com/PrismarineJS/prismarine-provider-anvil/commit/1540721cb3c4541b04aaa2bbe9ea8dc749160ebd",
            "node_id": "MDY6Q29tbWl0NDQ4MTM3Mzc6MTU0MDcyMWNiM2M0NTQxYjA0YWFhMmJiZTllYThkYzc0OTE2MGViZA==",
            "parents": [
                {
                    "html_url": "https://github.com/PrismarineJS/prismarine-provider-anvil/commit/06fccb0a4c2ee2314313b0075189e0470574f626",
                    "sha": "06fccb0a4c2ee2314313b0075189e0470574f626",
                    "url": "https://api.github.com/repos/PrismarineJS/prismarine-provider-anvil/commits/06fccb0a4c2ee2314313b0075189e0470574f626"
                }
            ],
            "sha": "1540721cb3c4541b04aaa2bbe9ea8dc749160ebd",
            "url": "https://api.github.com/repos/PrismarineJS/prismarine-provider-anvil/commits/1540721cb3c4541b04aaa2bbe9ea8dc749160ebd"
        },
        {
            "author": {
                "avatar_url": "https://avatars.githubusercontent.com/u/2346494?v=4",
                "events_url": "https://api.github.com/users/rom1504/events{/privacy}",
                "followers_url": "https://api.github.com/users/rom1504/followers",
                "following_url": "https://api.github.com/users/rom1504/following{/other_user}",
                "gists_url": "https://api.github.com/users/rom1504/gists{/gist_id}",
                "gravatar_id": "",
                "html_url": "https://github.com/rom1504",
                "id": 2346494,
                "login": "rom1504",
                "node_id": "MDQ6VXNlcjIzNDY0OTQ=",
                "organizations_url": "https://api.github.com/users/rom1504/orgs",
                "received_events_url": "https://api.github.com/users/rom1504/received_events",
                "repos_url": "https://api.github.com/users/rom1504/repos",
                "site_admin": false,
                "starred_url": "https://api.github.com/users/rom1504/starred{/owner}{/repo}",
                "subscriptions_url": "https://api.github.com/users/rom1504/subscriptions",
                "type": "User",
                "url": "https://api.github.com/users/rom1504"
            },
            "comments_url": "https://api.github.com/repos/PrismarineJS/prismarine-provider-anvil/commits/dafba78ed3b141506c5bb11bd3bf9c935a5ebc5b/comments",
            "commit": {
                "author": {
                    "date": "2015-10-24T01:34:15Z",
                    "email": "romain.rom1@gmail.com",
                    "name": "Romain Beaumont"
                },
                "comment_count": 0,
                "committer": {
                    "date": "2015-10-24T01:34:15Z",
                    "email": "romain.rom1@gmail.com",
                    "name": "Romain Beaumont"
                },
                "message": "cleanup readme, package.json and npmignore",
                "tree": {
                    "sha": "d8c2488e55597d99071189a6814702c26675ef2a",
                    "url": "https://api.github.com/repos/PrismarineJS/prismarine-provider-anvil/git/trees/d8c2488e55597d99071189a6814702c26675ef2a"
                },
                "url": "https://api.github.com/repos/PrismarineJS/prismarine-provider-anvil/git/commits/dafba78ed3b141506c5bb11bd3bf9c935a5ebc5b",
                "verification": {
                    "payload": null,
                    "reason": "unsigned",
                    "signature": null,
                    "verified": false
                }
            },
            "committer": {
                "avatar_url": "https://avatars.githubusercontent.com/u/2346494?v=4",
                "events_url": "https://api.github.com/users/rom1504/events{/privacy}",
                "followers_url": "https://api.github.com/users/rom1504/followers",
                "following_url": "https://api.github.com/users/rom1504/following{/other_user}",
                "gists_url": "https://api.github.com/users/rom1504/gists{/gist_id}",
                "gravatar_id": "",
                "html_url": "https://github.com/rom1504",
                "id": 2346494,
                "login": "rom1504",
                "node_id": "MDQ6VXNlcjIzNDY0OTQ=",
                "organizations_url": "https://api.github.com/users/rom1504/orgs",
                "received_events_url": "https://api.github.com/users/rom1504/received_events",
                "repos_url": "https://api.github.com/users/rom1504/repos",
                "site_admin": false,
                "starred_url": "https://api.github.com/users/rom1504/starred{/owner}{/repo}",
                "subscriptions_url": "https://api.github.com/users/rom1504/subscriptions",
                "type": "User",
                "url": "https://api.github.com/users/rom1504"
            },
            "html_url": "https://github.com/PrismarineJS/prismarine-provider-anvil/commit/dafba78ed3b141506c5bb11bd3bf9c935a5ebc5b",
            "node_id": "MDY6Q29tbWl0NDQ4MTM3Mzc6ZGFmYmE3OGVkM2IxNDE1MDZjNWJiMTFiZDNiZjljOTM1YTVlYmM1Yg==",
            "parents": [
                {
                    "html_url": "https://github.com/PrismarineJS/prismarine-provider-anvil/commit/1540721cb3c4541b04aaa2bbe9ea8dc749160ebd",
                    "sha": "1540721cb3c4541b04aaa2bbe9ea8dc749160ebd",
                    "url": "https://api.github.com/repos/PrismarineJS/prismarine-provider-anvil/commits/1540721cb3c4541b04aaa2bbe9ea8dc749160ebd"
                }
            ],
            "sha": "dafba78ed3b141506c5bb11bd3bf9c935a5ebc5b",
            "url": "https://api.github.com/repos/PrismarineJS/prismarine-provider-anvil/commits/dafba78ed3b141506c5bb11bd3bf9c935a5ebc5b"
        }
    ],
    "commits": 7,
    "commits_url": "https://api.github.com/repos/PrismarineJS/prismarine-provider-anvil/pulls/3/commits",
    "created_at": "2015-10-23T13:10:54Z",
    "deletions": 97,
    "diff_url": "https://github.com/PrismarineJS/prismarine-provider-anvil/pull/3.diff",
    "draft": false,
    "head": {
        "label": "rom1504:update",
        "ref": "update",
        "repo": {
            "allow_forking": true,
            "archive_url": "https://api.github.com/repos/rom1504/prismarine-provider-anvil/{archive_format}{/ref}",
            "archived": false,
            "assignees_url": "https://api.github.com/repos/rom1504/prismarine-provider-anvil/assignees{/user}",
            "blobs_url": "https://api.github.com/repos/rom1504/prismarine-provider-anvil/git/blobs{/sha}",
            "branches_url": "https://api.github.com/repos/rom1504/prismarine-provider-anvil/branches{/branch}",
            "clone_url": "https://github.com/rom1504/prismarine-provider-anvil.git",
            "collaborators_url": "https://api.github.com/repos/rom1504/prismarine-provider-anvil/collaborators{/collaborator}",
            "comments_url": "https://api.github.com/repos/rom1504/prismarine-provider-anvil/comments{/number}",
            "commits_url": "https://api.github.com/repos/rom1504/prismarine-provider-anvil/commits{/sha}",
            "compare_url": "https://api.github.com/repos/rom1504/prismarine-provider-anvil/compare/{base}...{head}",
            "contents_url": "https://api.github.com/repos/rom1504/prismarine-provider-anvil/contents/{+path}",
            "contributors_url": "https://api.github.com/repos/rom1504/prismarine-provider-anvil/contributors",
            "created_at": "2015-10-23T13:08:53Z",
            "default_branch": "master",
            "deployments_url": "https://api.github.com/repos/rom1504/prismarine-provider-anvil/deployments",
            "description": "Anvil Storage Provider implementation.",
            "disabled": false,
            "downloads_url": "https://api.github.com/repos/rom1504/prismarine-provider-anvil/downloads",
            "events_url": "https://api.github.com/repos/rom1504/prismarine-provider-anvil/events",
            "fork": true,
            "forks": 0,
            "forks_count": 0,
            "forks_url": "https://api.github.com/repos/rom1504/prismarine-provider-anvil/forks",
            "full_name": "rom1504/prismarine-provider-anvil",
            "git_commits_url": "https://api.github.com/repos/rom1504/prismarine-provider-anvil/git/commits{/sha}",
            "git_refs_url": "https://api.github.com/repos/rom1504/prismarine-provider-anvil/git/refs{/sha}",
            "git_tags_url": "https://api.github.com/repos/rom1504/prismarine-provider-anvil/git/tags{/sha}",
            "git_url": "git://github.com/rom1504/prismarine-provider-anvil.git",
            "has_discussions": false,
            "has_downloads": true,
            "has_issues": false,
            "has_pages": false,
            "has_projects": true,
            "has_wiki": true,
            "homepage": null,
            "hooks_url": "https://api.github.com/repos/rom1504/prismarine-provider-anvil/hooks",
            "html_url": "https://github.com/rom1504/prismarine-provider-anvil",
            "id": 44813737,
            "is_template": false,
            "issue_comment_url": "https://api.github.com/repos/rom1504/prismarine-provider-anvil/issues/comments{/number}",
            "issue_events_url": "https://api.github.com/repos/rom1504/prismarine-provider-anvil/issues/events{/number}",
            "issues_url": "https://api.github.com/repos/rom1504/prismarine-provider-anvil/issues{/number}",
            "keys_url": "https://api.github.com/repos/rom1504/prismarine-provider-anvil/keys{/key_id}",
            "labels_url": "https://api.github.com/repos/rom1504/prismarine-provider-anvil/labels{/name}",
            "language": "JavaScript",
            "languages_url": "https://api.github.com/repos/rom1504/prismarine-provider-anvil/languages",
            "license": null,
            "merges_url": "https://api.github.com/repos/rom1504/prismarine-provider-anvil/merges",
            "milestones_url": "https://api.github.com/repos/rom1504/prismarine-provider-anvil/milestones{/number}",
            "mirror_url": null,
            "name": "prismarine-provider-anvil",
            "node_id": "MDEwOlJlcG9zaXRvcnk0NDgxMzczNw==",
            "notifications_url": "https://api.github.com/repos/rom1504/prismarine-provider-anvil/notifications{?since,all,participating}",
            "open_issues": 0,
            "open_issues_count": 0,
            "owner": {
                "avatar_url": "https://avatars.githubusercontent.com/u/2346494?v=4",
                "events_url": "https://api.github.com/users/rom1504/events{/privacy}",
                "followers_url": "https://api.github.com/users/rom1504/followers",
                "following_url": "https://api.github.com/users/rom1504/following{/other_user}",
                "gists_url": "https://api.github.com/users/rom1504/gists{/gist_id}",
                "gravatar_id": "",
                "html_url": "https://github.com/rom1504",
                "id": 2346494,
                "login": "rom1504",
                "node_id": "MDQ6VXNlcjIzNDY0OTQ=",
                "organizations_url": "https://api.github.com/users/rom1504/orgs",
                "received_events_url": "https://api.github.com/users/rom1504/received_events",
                "repos_url": "https://api.github.com/users/rom1504/repos",
                "site_admin": false,
                "starred_url": "https://api.github.com/users/rom1504/starred{/owner}{/repo}",
                "subscriptions_url": "https://api.github.com/users/rom1504/subscriptions",
                "type": "User",
                "url": "https://api.github.com/users/rom1504"
            },
            "private": false,
            "pulls_url": "https://api.github.com/repos/rom1504/prismarine-provider-anvil/pulls{/number}",
            "pushed_at": "2017-01-12T17:25:02Z",
            "releases_url": "https://api.github.com/repos/rom1504/prismarine-provider-anvil/releases{/id}",
            "size": 664,
            "ssh_url": "git@github.com:rom1504/prismarine-provider-anvil.git",
            "stargazers_count": 0,
            "stargazers_url": "https://api.github.com/repos/rom1504/prismarine-provider-anvil/stargazers",
            "statuses_url": "https://api.github.com/repos/rom1504/prismarine-provider-anvil/statuses/{sha}",
            "subscribers_url": "https://api.github.com/repos/rom1504/prismarine-provider-anvil/subscribers",
            "subscription_url": "https://api.github.com/repos/rom1504/prismarine-provider-anvil/subscription",
            "svn_url": "https://github.com/rom1504/prismarine-provider-anvil",
            "tags_url": "https://api.github.com/repos/rom1504/prismarine-provider-anvil/tags",
            "teams_url": "https://api.github.com/repos/rom1504/prismarine-provider-anvil/teams",
            "topics": [],
            "trees_url": "https://api.github.com/repos/rom1504/prismarine-provider-anvil/git/trees{/sha}",
            "updated_at": "2015-10-23T13:08:54Z",
            "url": "https://api.github.com/repos/rom1504/prismarine-provider-anvil",
            "visibility": "public",
            "watchers": 0,
            "watchers_count": 0,
            "web_commit_signoff_required": false
        },
        "sha": "dafba78ed3b141506c5bb11bd3bf9c935a5ebc5b",
        "user": {
            "avatar_url": "https://avatars.githubusercontent.com/u/2346494?v=4",
            "events_url": "https://api.github.com/users/rom1504/events{/privacy}",
            "followers_url": "https://api.github.com/users/rom1504/followers",
            "following_url": "https://api.github.com/users/rom1504/following{/other_user}",
            "gists_url": "https://api.github.com/users/rom1504/gists{/gist_id}",
            "gravatar_id": "",
            "html_url": "https://github.com/rom1504",
            "id": 2346494,
            "login": "rom1504",
            "node_id": "MDQ6VXNlcjIzNDY0OTQ=",
            "organizations_url": "https://api.github.com/users/rom1504/orgs",
            "received_events_url": "https://api.github.com/users/rom1504/received_events",
            "repos_url": "https://api.github.com/users/rom1504/repos",
            "site_admin": false,
            "starred_url": "https://api.github.com/users/rom1504/starred{/owner}{/repo}",
            "subscriptions_url": "https://api.github.com/users/rom1504/subscriptions",
            "type": "User",
            "url": "https://api.github.com/users/rom1504"
        }
    },
    "html_url": "https://github.com/PrismarineJS/prismarine-provider-anvil/pull/3",
    "id": 48577952,
    "issue_url": "https://api.github.com/repos/PrismarineJS/prismarine-provider-anvil/issues/3",
    "labels": [],
    "locked": false,
    "maintainer_can_modify": false,
    "merge_commit_sha": "464af550f9419541d3faf664fa932596f6dc0a67",
    "mergeable": null,
    "mergeable_state": "unknown",
    "merged": true,
    "merged_at": "2015-10-24T01:34:56Z",
    "merged_by": {
        "avatar_url": "https://avatars.githubusercontent.com/u/2346494?v=4",
        "events_url": "https://api.github.com/users/rom1504/events{/privacy}",
        "followers_url": "https://api.github.com/users/rom1504/followers",
        "following_url": "https://api.github.com/users/rom1504/following{/other_user}",
        "gists_url": "https://api.github.com/users/rom1504/gists{/gist_id}",
        "gravatar_id": "",
        "html_url": "https://github.com/rom1504",
        "id": 2346494,
        "login": "rom1504",
        "node_id": "MDQ6VXNlcjIzNDY0OTQ=",
        "organizations_url": "https://api.github.com/users/rom1504/orgs",
        "received_events_url": "https://api.github.com/users/rom1504/received_events",
        "repos_url": "https://api.github.com/users/rom1504/repos",
        "site_admin": false,
        "starred_url": "https://api.github.com/users/rom1504/starred{/owner}{/repo}",
        "subscriptions_url": "https://api.github.com/users/rom1504/subscriptions",
        "type": "User",
        "url": "https://api.github.com/users/rom1504"
    },
    "milestone": null,
    "node_id": "MDExOlB1bGxSZXF1ZXN0NDg1Nzc5NTI=",
    "number": 3,
    "patch_url": "https://github.com/PrismarineJS/prismarine-provider-anvil/pull/3.patch",
    "rebaseable": null,
    "requested_reviewers": [],
    "requested_teams": [],
    "review_comment_url": "https://api.github.com/repos/PrismarineJS/prismarine-provider-anvil/pulls/comments{/number}",
    "review_comments": 0,
    "review_comments_url": "https://api.github.com/repos/PrismarineJS/prismarine-provider-anvil/pulls/3/comments",
    "state": "closed",
    "statuses_url": "https://api.github.com/repos/PrismarineJS/prismarine-provider-anvil/statuses/dafba78ed3b141506c5bb11bd3bf9c935a5ebc5b",
    "title": "[WIP] some progress",
    "updated_at": "2015-10-24T01:34:58Z",
    "url": "https://api.github.com/repos/PrismarineJS/prismarine-provider-anvil/pulls/3",
    "user": {
        "avatar_url": "https://avatars.githubusercontent.com/u/2346494?v=4",
        "events_url": "https://api.github.com/users/rom1504/events{/privacy}",
        "followers_url": "https://api.github.com/users/rom1504/followers",
        "following_url": "https://api.github.com/users/rom1504/following{/other_user}",
        "gists_url": "https://api.github.com/users/rom1504/gists{/gist_id}",
        "gravatar_id": "",
        "html_url": "https://github.com/rom1504",
        "id": 2346494,
        "login": "rom1504",
        "node_id": "MDQ6VXNlcjIzNDY0OTQ=",
        "organizations_url": "https://api.github.com/users/rom1504/orgs",
        "received_events_url": "https://api.github.com/users/rom1504/received_events",
        "repos_url": "https://api.github.com/users/rom1504/repos",
        "site_admin": false,
        "starred_url": "https://api.github.com/users/rom1504/starred{/owner}{/repo}",
        "subscriptions_url": "https://api.github.com/users/rom1504/subscriptions",
        "type": "User",
        "url": "https://api.github.com/users/rom1504"
    }
}