{
    "_links": {
        "comments": {
            "href": "https://api.github.com/repos/PrismarineJS/prismarine-chat/issues/44/comments"
        },
        "commits": {
            "href": "https://api.github.com/repos/PrismarineJS/prismarine-chat/pulls/44/commits"
        },
        "html": {
            "href": "https://github.com/PrismarineJS/prismarine-chat/pull/44"
        },
        "issue": {
            "href": "https://api.github.com/repos/PrismarineJS/prismarine-chat/issues/44"
        },
        "review_comment": {
            "href": "https://api.github.com/repos/PrismarineJS/prismarine-chat/pulls/comments{/number}"
        },
        "review_comments": {
            "href": "https://api.github.com/repos/PrismarineJS/prismarine-chat/pulls/44/comments"
        },
        "self": {
            "href": "https://api.github.com/repos/PrismarineJS/prismarine-chat/pulls/44"
        },
        "statuses": {
            "href": "https://api.github.com/repos/PrismarineJS/prismarine-chat/statuses/9022082cc654064d1576826fb47207ac45e124db"
        }
    },
    "active_lock_reason": null,
    "additions": 21,
    "assignee": null,
    "assignees": [],
    "author_association": "MEMBER",
    "auto_merge": null,
    "base": {
        "label": "PrismarineJS:master",
        "ref": "master",
        "repo": {
            "allow_forking": true,
            "archive_url": "https://api.github.com/repos/PrismarineJS/prismarine-chat/{archive_format}{/ref}",
            "archived": false,
            "assignees_url": "https://api.github.com/repos/PrismarineJS/prismarine-chat/assignees{/user}",
            "blobs_url": "https://api.github.com/repos/PrismarineJS/prismarine-chat/git/blobs{/sha}",
            "branches_url": "https://api.github.com/repos/PrismarineJS/prismarine-chat/branches{/branch}",
            "clone_url": "https://github.com/PrismarineJS/prismarine-chat.git",
            "collaborators_url": "https://api.github.com/repos/PrismarineJS/prismarine-chat/collaborators{/collaborator}",
            "comments_url": "https://api.github.com/repos/PrismarineJS/prismarine-chat/comments{/number}",
            "commits_url": "https://api.github.com/repos/PrismarineJS/prismarine-chat/commits{/sha}",
            "compare_url": "https://api.github.com/repos/PrismarineJS/prismarine-chat/compare/{base}...{head}",
            "contents_url": "https://api.github.com/repos/PrismarineJS/prismarine-chat/contents/{+path}",
            "contributors_url": "https://api.github.com/repos/PrismarineJS/prismarine-chat/contributors",
            "created_at": "2020-07-14T12:45:45Z",
            "default_branch": "master",
            "deployments_url": "https://api.github.com/repos/PrismarineJS/prismarine-chat/deployments",
            "description": "A parser for a minecraft chat message",
            "disabled": false,
            "downloads_url": "https://api.github.com/repos/PrismarineJS/prismarine-chat/downloads",
            "events_url": "https://api.github.com/repos/PrismarineJS/prismarine-chat/events",
            "fork": false,
            "forks": 21,
            "forks_count": 21,
            "forks_url": "https://api.github.com/repos/PrismarineJS/prismarine-chat/forks",
            "full_name": "PrismarineJS/prismarine-chat",
            "git_commits_url": "https://api.github.com/repos/PrismarineJS/prismarine-chat/git/commits{/sha}",
            "git_refs_url": "https://api.github.com/repos/PrismarineJS/prismarine-chat/git/refs{/sha}",
            "git_tags_url": "https://api.github.com/repos/PrismarineJS/prismarine-chat/git/tags{/sha}",
            "git_url": "git://github.com/PrismarineJS/prismarine-chat.git",
            "has_discussions": false,
            "has_downloads": true,
            "has_issues": true,
            "has_pages": false,
            "has_projects": true,
            "has_wiki": true,
            "homepage": "",
            "hooks_url": "https://api.github.com/repos/PrismarineJS/prismarine-chat/hooks",
            "html_url": "https://github.com/PrismarineJS/prismarine-chat",
            "id": 279582717,
            "is_template": false,
            "issue_comment_url": "https://api.github.com/repos/PrismarineJS/prismarine-chat/issues/comments{/number}",
            "issue_events_url": "https://api.github.com/repos/PrismarineJS/prismarine-chat/issues/events{/number}",
            "issues_url": "https://api.github.com/repos/PrismarineJS/prismarine-chat/issues{/number}",
            "keys_url": "https://api.github.com/repos/PrismarineJS/prismarine-chat/keys{/key_id}",
            "labels_url": "https://api.github.com/repos/PrismarineJS/prismarine-chat/labels{/name}",
            "language": "JavaScript",
            "languages_url": "https://api.github.com/repos/PrismarineJS/prismarine-chat/languages",
            "license": {
                "key": "mit",
                "name": "MIT License",
                "node_id": "MDc6TGljZW5zZTEz",
                "spdx_id": "MIT",
                "url": "https://api.github.com/licenses/mit"
            },
            "merges_url": "https://api.github.com/repos/PrismarineJS/prismarine-chat/merges",
            "milestones_url": "https://api.github.com/repos/PrismarineJS/prismarine-chat/milestones{/number}",
            "mirror_url": null,
            "name": "prismarine-chat",
            "node_id": "MDEwOlJlcG9zaXRvcnkyNzk1ODI3MTc=",
            "notifications_url": "https://api.github.com/repos/PrismarineJS/prismarine-chat/notifications{?since,all,participating}",
            "open_issues": 13,
            "open_issues_count": 13,
            "owner": {
                "avatar_url": "https://avatars.githubusercontent.com/u/11053411?v=4",
                "events_url": "https://api.github.com/users/PrismarineJS/events{/privacy}",
                "followers_url": "https://api.github.com/users/PrismarineJS/followers",
                "following_url": "https://api.github.com/users/PrismarineJS/following{/other_user}",
                "gists_url": "https://api.github.com/users/PrismarineJS/gists{/gist_id}",
                "gravatar_id": "",
                "html_url": "https://github.com/PrismarineJS",
                "id": 11053411,
                "login": "PrismarineJS",
                "node_id": "MDEyOk9yZ2FuaXphdGlvbjExMDUzNDEx",
                "organizations_url": "https://api.github.com/users/PrismarineJS/orgs",
                "received_events_url": "https://api.github.com/users/PrismarineJS/received_events",
                "repos_url": "https://api.github.com/users/PrismarineJS/repos",
                "site_admin": false,
                "starred_url": "https://api.github.com/users/PrismarineJS/starred{/owner}{/repo}",
                "subscriptions_url": "https://api.github.com/users/PrismarineJS/subscriptions",
                "type": "Organization",
                "url": "https://api.github.com/users/PrismarineJS"
            },
            "private": false,
            "pulls_url": "https://api.github.com/repos/PrismarineJS/prismarine-chat/pulls{/number}",
            "pushed_at": "2023-04-16T21:44:32Z",
            "releases_url": "https://api.github.com/repos/PrismarineJS/prismarine-chat/releases{/id}",
            "size": 90,
            "ssh_url": "git@github.com:PrismarineJS/prismarine-chat.git",
            "stargazers_count": 24,
            "stargazers_url": "https://api.github.com/repos/PrismarineJS/prismarine-chat/stargazers",
            "statuses_url": "https://api.github.com/repos/PrismarineJS/prismarine-chat/statuses/{sha}",
            "subscribers_url": "https://api.github.com/repos/PrismarineJS/prismarine-chat/subscribers",
            "subscription_url": "https://api.github.com/repos/PrismarineJS/prismarine-chat/subscription",
            "svn_url": "https://github.com/PrismarineJS/prismarine-chat",
            "tags_url": "https://api.github.com/repos/PrismarineJS/prismarine-chat/tags",
            "teams_url": "https://api.github.com/repos/PrismarineJS/prismarine-chat/teams",
            "topics": [],
            "trees_url": "https://api.github.com/repos/PrismarineJS/prismarine-chat/git/trees{/sha}",
            "updated_at": "2022-12-11T21:09:39Z",
            "url": "https://api.github.com/repos/PrismarineJS/prismarine-chat",
            "visibility": "public",
            "watchers": 24,
            "watchers_count": 24,
            "web_commit_signoff_required": false
        },
        "sha": "63d7e09bac28041afea760c73d83ea2f66ce6238",
        "user": {
            "avatar_url": "https://avatars.githubusercontent.com/u/11053411?v=4",
            "events_url": "https://api.github.com/users/PrismarineJS/events{/privacy}",
            "followers_url": "https://api.github.com/users/PrismarineJS/followers",
            "following_url": "https://api.github.com/users/PrismarineJS/following{/other_user}",
            "gists_url": "https://api.github.com/users/PrismarineJS/gists{/gist_id}",
            "gravatar_id": "",
            "html_url": "https://github.com/PrismarineJS",
            "id": 11053411,
            "login": "PrismarineJS",
            "node_id": "MDEyOk9yZ2FuaXphdGlvbjExMDUzNDEx",
            "organizations_url": "https://api.github.com/users/PrismarineJS/orgs",
            "received_events_url": "https://api.github.com/users/PrismarineJS/received_events",
            "repos_url": "https://api.github.com/users/PrismarineJS/repos",
            "site_admin": false,
            "starred_url": "https://api.github.com/users/PrismarineJS/starred{/owner}{/repo}",
            "subscriptions_url": "https://api.github.com/users/PrismarineJS/subscriptions",
            "type": "Organization",
            "url": "https://api.github.com/users/PrismarineJS"
        }
    },
    "body": null,
    "changed_files": 3,
    "closed_at": "2021-11-12T21:38:31Z",
    "comment_data": [],
    "comment_regular_data": [],
    "comments": 0,
    "comments_url": "https://api.github.com/repos/PrismarineJS/prismarine-chat/issues/44/comments",
    "commit_data": [
        {
            "author": {
                "avatar_url": "https://avatars.githubusercontent.com/u/43508353?v=4",
                "events_url": "https://api.github.com/users/u9g/events{/privacy}",
                "followers_url": "https://api.github.com/users/u9g/followers",
                "following_url": "https://api.github.com/users/u9g/following{/other_user}",
                "gists_url": "https://api.github.com/users/u9g/gists{/gist_id}",
                "gravatar_id": "",
                "html_url": "https://github.com/u9g",
                "id": 43508353,
                "login": "u9g",
                "node_id": "MDQ6VXNlcjQzNTA4MzUz",
                "organizations_url": "https://api.github.com/users/u9g/orgs",
                "received_events_url": "https://api.github.com/users/u9g/received_events",
                "repos_url": "https://api.github.com/users/u9g/repos",
                "site_admin": false,
                "starred_url": "https://api.github.com/users/u9g/starred{/owner}{/repo}",
                "subscriptions_url": "https://api.github.com/users/u9g/subscriptions",
                "type": "User",
                "url": "https://api.github.com/users/u9g"
            },
            "comments_url": "https://api.github.com/repos/PrismarineJS/prismarine-chat/commits/fdfe23a2c7801c465943bddce339a81791aa7b70/comments",
            "commit": {
                "author": {
                    "date": "2021-09-19T05:18:21Z",
                    "email": "43508353+u9g@users.noreply.github.com",
                    "name": "u9g"
                },
                "comment_count": 0,
                "committer": {
                    "date": "2021-09-19T05:18:21Z",
                    "email": "noreply@github.com",
                    "name": "GitHub"
                },
                "message": "use rest arg to allow many withs or extras",
                "tree": {
                    "sha": "eeff3585e6348e4ff79e23f3912fb729c56f6c9a",
                    "url": "https://api.github.com/repos/PrismarineJS/prismarine-chat/git/trees/eeff3585e6348e4ff79e23f3912fb729c56f6c9a"
                },
                "url": "https://api.github.com/repos/PrismarineJS/prismarine-chat/git/commits/fdfe23a2c7801c465943bddce339a81791aa7b70",
                "verification": {
                    "payload": "tree eeff3585e6348e4ff79e23f3912fb729c56f6c9a\nparent 63d7e09bac28041afea760c73d83ea2f66ce6238\nauthor u9g <43508353+u9g@users.noreply.github.com> 1632028701 -0400\ncommitter GitHub <noreply@github.com> 1632028701 -0400\n\nuse rest arg to allow many withs or extras",
                    "reason": "valid",
                    "signature": "-----BEGIN PGP SIGNATURE-----\n\nwsBcBAABCAAQBQJhRsgdCRBK7hj4Ov3rIwAAZJUIACP0QRLr1vpgKwIgiTXZZx12\nM5f+pPrCwjgQV5h0jutFepxqJ0rzgt7B9fasgsh/7mGdC/lKbFQh9vKHrDlzjY+F\nWFFht1m5rnqF8bG565ckC/OoToLkunmem/K2Ow5Usx3PhnFMlS0HIQbG3oSIe8eh\ncbICNabLlzrX/XdHeAJV88B27H5Q+RMa7OihiKuCWlQYJkCeZholynM2/FBhSI2C\nj1/CIpPvWNuMgW6Be/28xW9SIQfsBevbo+yuew9c/T/MOX/zs/FPLPI7KkH6Dx0Z\nCDvCBjly0zgPhZ1/MqzukZWT+c3EMkvrcW28xWwnr1ra2qxhDrBnVWT9MJYai5g=\n=uVvF\n-----END PGP SIGNATURE-----\n",
                    "verified": true
                }
            },
            "committer": {
                "avatar_url": "https://avatars.githubusercontent.com/u/19864447?v=4",
                "events_url": "https://api.github.com/users/web-flow/events{/privacy}",
                "followers_url": "https://api.github.com/users/web-flow/followers",
                "following_url": "https://api.github.com/users/web-flow/following{/other_user}",
                "gists_url": "https://api.github.com/users/web-flow/gists{/gist_id}",
                "gravatar_id": "",
                "html_url": "https://github.com/web-flow",
                "id": 19864447,
                "login": "web-flow",
                "node_id": "MDQ6VXNlcjE5ODY0NDQ3",
                "organizations_url": "https://api.github.com/users/web-flow/orgs",
                "received_events_url": "https://api.github.com/users/web-flow/received_events",
                "repos_url": "https://api.github.com/users/web-flow/repos",
                "site_admin": false,
                "starred_url": "https://api.github.com/users/web-flow/starred{/owner}{/repo}",
                "subscriptions_url": "https://api.github.com/users/web-flow/subscriptions",
                "type": "User",
                "url": "https://api.github.com/users/web-flow"
            },
            "html_url": "https://github.com/PrismarineJS/prismarine-chat/commit/fdfe23a2c7801c465943bddce339a81791aa7b70",
            "node_id": "MDY6Q29tbWl0Mjc5NTgyNzE3OmZkZmUyM2EyYzc4MDFjNDY1OTQzYmRkY2UzMzlhODE3OTFhYTdiNzA=",
            "parents": [
                {
                    "html_url": "https://github.com/PrismarineJS/prismarine-chat/commit/63d7e09bac28041afea760c73d83ea2f66ce6238",
                    "sha": "63d7e09bac28041afea760c73d83ea2f66ce6238",
                    "url": "https://api.github.com/repos/PrismarineJS/prismarine-chat/commits/63d7e09bac28041afea760c73d83ea2f66ce6238"
                }
            ],
            "sha": "fdfe23a2c7801c465943bddce339a81791aa7b70",
            "url": "https://api.github.com/repos/PrismarineJS/prismarine-chat/commits/fdfe23a2c7801c465943bddce339a81791aa7b70"
        },
        {
            "author": {
                "avatar_url": "https://avatars.githubusercontent.com/u/43508353?v=4",
                "events_url": "https://api.github.com/users/u9g/events{/privacy}",
                "followers_url": "https://api.github.com/users/u9g/followers",
                "following_url": "https://api.github.com/users/u9g/following{/other_user}",
                "gists_url": "https://api.github.com/users/u9g/gists{/gist_id}",
                "gravatar_id": "",
                "html_url": "https://github.com/u9g",
                "id": 43508353,
                "login": "u9g",
                "node_id": "MDQ6VXNlcjQzNTA4MzUz",
                "organizations_url": "https://api.github.com/users/u9g/orgs",
                "received_events_url": "https://api.github.com/users/u9g/received_events",
                "repos_url": "https://api.github.com/users/u9g/repos",
                "site_admin": false,
                "starred_url": "https://api.github.com/users/u9g/starred{/owner}{/repo}",
                "subscriptions_url": "https://api.github.com/users/u9g/subscriptions",
                "type": "User",
                "url": "https://api.github.com/users/u9g"
            },
            "comments_url": "https://api.github.com/repos/PrismarineJS/prismarine-chat/commits/cf743e58ba7a121da0138b73f1fd52d967f39235/comments",
            "commit": {
                "author": {
                    "date": "2021-09-19T05:18:56Z",
                    "email": "43508353+u9g@users.noreply.github.com",
                    "name": "u9g"
                },
                "comment_count": 0,
                "committer": {
                    "date": "2021-09-19T05:18:56Z",
                    "email": "noreply@github.com",
                    "name": "GitHub"
                },
                "message": "Update index.d.ts",
                "tree": {
                    "sha": "ecb296a38a22c466c5b54607801c71c158c0f517",
                    "url": "https://api.github.com/repos/PrismarineJS/prismarine-chat/git/trees/ecb296a38a22c466c5b54607801c71c158c0f517"
                },
                "url": "https://api.github.com/repos/PrismarineJS/prismarine-chat/git/commits/cf743e58ba7a121da0138b73f1fd52d967f39235",
                "verification": {
                    "payload": "tree ecb296a38a22c466c5b54607801c71c158c0f517\nparent fdfe23a2c7801c465943bddce339a81791aa7b70\nauthor u9g <43508353+u9g@users.noreply.github.com> 1632028736 -0400\ncommitter GitHub <noreply@github.com> 1632028736 -0400\n\nUpdate index.d.ts",
                    "reason": "valid",
                    "signature": "-----BEGIN PGP SIGNATURE-----\n\nwsBcBAABCAAQBQJhRshACRBK7hj4Ov3rIwAAZ6oIAEuU9np9eAYileCLzfO9Hkzc\nxqfawT/1R5hW8eLni7OlwSLhtUgjqUfZ+tvlGH/7ElNX9OnHlmaEduAEuAFbV3yw\nqYGw/IbRcqiik1GgmlnL7Y3z37o2wcTuKreVyHLMcIT680ND04gJpczZkaGHqGwP\nSZaoXR8zJ/KOewtoZ3eLk66sVSIXLr1TvmfYTHzJM+xQJwiwuosQum7gCmj0dcDU\nV635sLSHGgxtmK/Nkdqu0zGk5ia+8Zx+ZAbjuobZfSX5G9ZE6zWSmOeMrFdiMMAk\njgZfzSRr/cc0CwBa/IkgodLJtFdaXEmW6gChyI3oKcaDZTMHx/A6THUWEL8UMsE=\n=sLSD\n-----END PGP SIGNATURE-----\n",
                    "verified": true
                }
            },
            "committer": {
                "avatar_url": "https://avatars.githubusercontent.com/u/19864447?v=4",
                "events_url": "https://api.github.com/users/web-flow/events{/privacy}",
                "followers_url": "https://api.github.com/users/web-flow/followers",
                "following_url": "https://api.github.com/users/web-flow/following{/other_user}",
                "gists_url": "https://api.github.com/users/web-flow/gists{/gist_id}",
                "gravatar_id": "",
                "html_url": "https://github.com/web-flow",
                "id": 19864447,
                "login": "web-flow",
                "node_id": "MDQ6VXNlcjE5ODY0NDQ3",
                "organizations_url": "https://api.github.com/users/web-flow/orgs",
                "received_events_url": "https://api.github.com/users/web-flow/received_events",
                "repos_url": "https://api.github.com/users/web-flow/repos",
                "site_admin": false,
                "starred_url": "https://api.github.com/users/web-flow/starred{/owner}{/repo}",
                "subscriptions_url": "https://api.github.com/users/web-flow/subscriptions",
                "type": "User",
                "url": "https://api.github.com/users/web-flow"
            },
            "html_url": "https://github.com/PrismarineJS/prismarine-chat/commit/cf743e58ba7a121da0138b73f1fd52d967f39235",
            "node_id": "MDY6Q29tbWl0Mjc5NTgyNzE3OmNmNzQzZTU4YmE3YTEyMWRhMDEzOGI3M2YxZmQ1MmQ5NjdmMzkyMzU=",
            "parents": [
                {
                    "html_url": "https://github.com/PrismarineJS/prismarine-chat/commit/fdfe23a2c7801c465943bddce339a81791aa7b70",
                    "sha": "fdfe23a2c7801c465943bddce339a81791aa7b70",
                    "url": "https://api.github.com/repos/PrismarineJS/prismarine-chat/commits/fdfe23a2c7801c465943bddce339a81791aa7b70"
                }
            ],
            "sha": "cf743e58ba7a121da0138b73f1fd52d967f39235",
            "url": "https://api.github.com/repos/PrismarineJS/prismarine-chat/commits/cf743e58ba7a121da0138b73f1fd52d967f39235"
        },
        {
            "author": {
                "avatar_url": "https://avatars.githubusercontent.com/u/43508353?v=4",
                "events_url": "https://api.github.com/users/u9g/events{/privacy}",
                "followers_url": "https://api.github.com/users/u9g/followers",
                "following_url": "https://api.github.com/users/u9g/following{/other_user}",
                "gists_url": "https://api.github.com/users/u9g/gists{/gist_id}",
                "gravatar_id": "",
                "html_url": "https://github.com/u9g",
                "id": 43508353,
                "login": "u9g",
                "node_id": "MDQ6VXNlcjQzNTA4MzUz",
                "organizations_url": "https://api.github.com/users/u9g/orgs",
                "received_events_url": "https://api.github.com/users/u9g/received_events",
                "repos_url": "https://api.github.com/users/u9g/repos",
                "site_admin": false,
                "starred_url": "https://api.github.com/users/u9g/starred{/owner}{/repo}",
                "subscriptions_url": "https://api.github.com/users/u9g/subscriptions",
                "type": "User",
                "url": "https://api.github.com/users/u9g"
            },
            "comments_url": "https://api.github.com/repos/PrismarineJS/prismarine-chat/commits/e228a945eb459859081bf8863e66b88298283c3f/comments",
            "commit": {
                "author": {
                    "date": "2021-09-19T05:20:31Z",
                    "email": "43508353+u9g@users.noreply.github.com",
                    "name": "u9g"
                },
                "comment_count": 0,
                "committer": {
                    "date": "2021-09-19T05:20:31Z",
                    "email": "noreply@github.com",
                    "name": "GitHub"
                },
                "message": "Lint",
                "tree": {
                    "sha": "283343dddaa6d8ad884b3531b31aeedffacdcacd",
                    "url": "https://api.github.com/repos/PrismarineJS/prismarine-chat/git/trees/283343dddaa6d8ad884b3531b31aeedffacdcacd"
                },
                "url": "https://api.github.com/repos/PrismarineJS/prismarine-chat/git/commits/e228a945eb459859081bf8863e66b88298283c3f",
                "verification": {
                    "payload": "tree 283343dddaa6d8ad884b3531b31aeedffacdcacd\nparent cf743e58ba7a121da0138b73f1fd52d967f39235\nauthor u9g <43508353+u9g@users.noreply.github.com> 1632028831 -0400\ncommitter GitHub <noreply@github.com> 1632028831 -0400\n\nLint",
                    "reason": "valid",
                    "signature": "-----BEGIN PGP SIGNATURE-----\n\nwsBcBAABCAAQBQJhRsifCRBK7hj4Ov3rIwAAE7IIAJGuB1j9xaA0YPxAbGkgh8VW\n63JdpP59fkGX1fU2F7bHybSs8svtddmLifLYDeT7ywzpznofnI8f7qLyNULsNwoI\nEqf+EYIIdOyMkjwP3g21HioW1ucGp5oZJH2CAgGrkaWcTH6dEthV+S2NxtjKu6jz\nXKsolf6+LUsQ2oYSFykOSwt0NZGxyhCkaWvs3ko4H2Ml6FF4jWjNVpyofeSC2ApM\n32yIl2/w1duM+4RtkQlZTq/B4/7Zut9zBhnPkjAOnXniTM/gs/w2kDiZQEIinAXX\nR82j8ZyTBaBZSe8o1gGu4JugMPugwrz0SVMnRXIkni5um60RxBfvkrY4psV7tcI=\n=irzQ\n-----END PGP SIGNATURE-----\n",
                    "verified": true
                }
            },
            "committer": {
                "avatar_url": "https://avatars.githubusercontent.com/u/19864447?v=4",
                "events_url": "https://api.github.com/users/web-flow/events{/privacy}",
                "followers_url": "https://api.github.com/users/web-flow/followers",
                "following_url": "https://api.github.com/users/web-flow/following{/other_user}",
                "gists_url": "https://api.github.com/users/web-flow/gists{/gist_id}",
                "gravatar_id": "",
                "html_url": "https://github.com/web-flow",
                "id": 19864447,
                "login": "web-flow",
                "node_id": "MDQ6VXNlcjE5ODY0NDQ3",
                "organizations_url": "https://api.github.com/users/web-flow/orgs",
                "received_events_url": "https://api.github.com/users/web-flow/received_events",
                "repos_url": "https://api.github.com/users/web-flow/repos",
                "site_admin": false,
                "starred_url": "https://api.github.com/users/web-flow/starred{/owner}{/repo}",
                "subscriptions_url": "https://api.github.com/users/web-flow/subscriptions",
                "type": "User",
                "url": "https://api.github.com/users/web-flow"
            },
            "html_url": "https://github.com/PrismarineJS/prismarine-chat/commit/e228a945eb459859081bf8863e66b88298283c3f",
            "node_id": "MDY6Q29tbWl0Mjc5NTgyNzE3OmUyMjhhOTQ1ZWI0NTk4NTkwODFiZjg4NjNlNjZiODgyOTgyODNjM2Y=",
            "parents": [
                {
                    "html_url": "https://github.com/PrismarineJS/prismarine-chat/commit/cf743e58ba7a121da0138b73f1fd52d967f39235",
                    "sha": "cf743e58ba7a121da0138b73f1fd52d967f39235",
                    "url": "https://api.github.com/repos/PrismarineJS/prismarine-chat/commits/cf743e58ba7a121da0138b73f1fd52d967f39235"
                }
            ],
            "sha": "e228a945eb459859081bf8863e66b88298283c3f",
            "url": "https://api.github.com/repos/PrismarineJS/prismarine-chat/commits/e228a945eb459859081bf8863e66b88298283c3f"
        },
        {
            "author": {
                "avatar_url": "https://avatars.githubusercontent.com/u/43508353?v=4",
                "events_url": "https://api.github.com/users/u9g/events{/privacy}",
                "followers_url": "https://api.github.com/users/u9g/followers",
                "following_url": "https://api.github.com/users/u9g/following{/other_user}",
                "gists_url": "https://api.github.com/users/u9g/gists{/gist_id}",
                "gravatar_id": "",
                "html_url": "https://github.com/u9g",
                "id": 43508353,
                "login": "u9g",
                "node_id": "MDQ6VXNlcjQzNTA4MzUz",
                "organizations_url": "https://api.github.com/users/u9g/orgs",
                "received_events_url": "https://api.github.com/users/u9g/received_events",
                "repos_url": "https://api.github.com/users/u9g/repos",
                "site_admin": false,
                "starred_url": "https://api.github.com/users/u9g/starred{/owner}{/repo}",
                "subscriptions_url": "https://api.github.com/users/u9g/subscriptions",
                "type": "User",
                "url": "https://api.github.com/users/u9g"
            },
            "comments_url": "https://api.github.com/repos/PrismarineJS/prismarine-chat/commits/eb480401b8e91f7f2bd196acc4ed11a5cc784710/comments",
            "commit": {
                "author": {
                    "date": "2021-09-19T05:33:21Z",
                    "email": "43508353+u9g@users.noreply.github.com",
                    "name": "u9g"
                },
                "comment_count": 0,
                "committer": {
                    "date": "2021-09-19T05:33:21Z",
                    "email": "noreply@github.com",
                    "name": "GitHub"
                },
                "message": "Update index.d.ts",
                "tree": {
                    "sha": "8a7d9231e7532a9eb5a978567182a9f2a3457899",
                    "url": "https://api.github.com/repos/PrismarineJS/prismarine-chat/git/trees/8a7d9231e7532a9eb5a978567182a9f2a3457899"
                },
                "url": "https://api.github.com/repos/PrismarineJS/prismarine-chat/git/commits/eb480401b8e91f7f2bd196acc4ed11a5cc784710",
                "verification": {
                    "payload": "tree 8a7d9231e7532a9eb5a978567182a9f2a3457899\nparent e228a945eb459859081bf8863e66b88298283c3f\nauthor u9g <43508353+u9g@users.noreply.github.com> 1632029601 -0400\ncommitter GitHub <noreply@github.com> 1632029601 -0400\n\nUpdate index.d.ts",
                    "reason": "valid",
                    "signature": "-----BEGIN PGP SIGNATURE-----\n\nwsBcBAABCAAQBQJhRsuhCRBK7hj4Ov3rIwAAQ/0IALGTJv2LuJwm6fv6RVtx+m7Z\nhvrEKfdOAnCEtyimNfqZMB0x37v7cPCC13fAVwyzwknUJ5RW45mNle78sMlNRp1q\nHaCkAhHKMQIqWaaxxhtXWqEIgNSSxTeBdzRdJvcu1dJNq8BRRdLWCJb1AqsjiLzS\nepFusu+6SIwMOdwlyRQj+JUUH4YIzHnchganOYuMVc/Ii/sIFVYnzFaINqpX1eRO\nSvj6OTplUSkCf+7FTvdvgudZgWiUOa70VjHD87zmF5VczwJbsB3ugJ1xW1w4qhss\nhaOFWp3pyHY/dCSEQ5BZW2HiWuj8pXhNv+lElLHDUq3faxhw5Ud/mYxt2q+Xq1c=\n=Cvzr\n-----END PGP SIGNATURE-----\n",
                    "verified": true
                }
            },
            "committer": {
                "avatar_url": "https://avatars.githubusercontent.com/u/19864447?v=4",
                "events_url": "https://api.github.com/users/web-flow/events{/privacy}",
                "followers_url": "https://api.github.com/users/web-flow/followers",
                "following_url": "https://api.github.com/users/web-flow/following{/other_user}",
                "gists_url": "https://api.github.com/users/web-flow/gists{/gist_id}",
                "gravatar_id": "",
                "html_url": "https://github.com/web-flow",
                "id": 19864447,
                "login": "web-flow",
                "node_id": "MDQ6VXNlcjE5ODY0NDQ3",
                "organizations_url": "https://api.github.com/users/web-flow/orgs",
                "received_events_url": "https://api.github.com/users/web-flow/received_events",
                "repos_url": "https://api.github.com/users/web-flow/repos",
                "site_admin": false,
                "starred_url": "https://api.github.com/users/web-flow/starred{/owner}{/repo}",
                "subscriptions_url": "https://api.github.com/users/web-flow/subscriptions",
                "type": "User",
                "url": "https://api.github.com/users/web-flow"
            },
            "html_url": "https://github.com/PrismarineJS/prismarine-chat/commit/eb480401b8e91f7f2bd196acc4ed11a5cc784710",
            "node_id": "MDY6Q29tbWl0Mjc5NTgyNzE3OmViNDgwNDAxYjhlOTFmN2YyYmQxOTZhY2M0ZWQxMWE1Y2M3ODQ3MTA=",
            "parents": [
                {
                    "html_url": "https://github.com/PrismarineJS/prismarine-chat/commit/e228a945eb459859081bf8863e66b88298283c3f",
                    "sha": "e228a945eb459859081bf8863e66b88298283c3f",
                    "url": "https://api.github.com/repos/PrismarineJS/prismarine-chat/commits/e228a945eb459859081bf8863e66b88298283c3f"
                }
            ],
            "sha": "eb480401b8e91f7f2bd196acc4ed11a5cc784710",
            "url": "https://api.github.com/repos/PrismarineJS/prismarine-chat/commits/eb480401b8e91f7f2bd196acc4ed11a5cc784710"
        },
        {
            "author": {
                "avatar_url": "https://avatars.githubusercontent.com/u/43508353?v=4",
                "events_url": "https://api.github.com/users/u9g/events{/privacy}",
                "followers_url": "https://api.github.com/users/u9g/followers",
                "following_url": "https://api.github.com/users/u9g/following{/other_user}",
                "gists_url": "https://api.github.com/users/u9g/gists{/gist_id}",
                "gravatar_id": "",
                "html_url": "https://github.com/u9g",
                "id": 43508353,
                "login": "u9g",
                "node_id": "MDQ6VXNlcjQzNTA4MzUz",
                "organizations_url": "https://api.github.com/users/u9g/orgs",
                "received_events_url": "https://api.github.com/users/u9g/received_events",
                "repos_url": "https://api.github.com/users/u9g/repos",
                "site_admin": false,
                "starred_url": "https://api.github.com/users/u9g/starred{/owner}{/repo}",
                "subscriptions_url": "https://api.github.com/users/u9g/subscriptions",
                "type": "User",
                "url": "https://api.github.com/users/u9g"
            },
            "comments_url": "https://api.github.com/repos/PrismarineJS/prismarine-chat/commits/91a328453e7ee7c00c79f1d45bbe214627013243/comments",
            "commit": {
                "author": {
                    "date": "2021-09-19T05:34:26Z",
                    "email": "43508353+u9g@users.noreply.github.com",
                    "name": "u9g"
                },
                "comment_count": 0,
                "committer": {
                    "date": "2021-09-19T05:34:26Z",
                    "email": "noreply@github.com",
                    "name": "GitHub"
                },
                "message": "Fix typings",
                "tree": {
                    "sha": "28ab52e5a9b3fce60aac35deabb64c684f553241",
                    "url": "https://api.github.com/repos/PrismarineJS/prismarine-chat/git/trees/28ab52e5a9b3fce60aac35deabb64c684f553241"
                },
                "url": "https://api.github.com/repos/PrismarineJS/prismarine-chat/git/commits/91a328453e7ee7c00c79f1d45bbe214627013243",
                "verification": {
                    "payload": "tree 28ab52e5a9b3fce60aac35deabb64c684f553241\nparent eb480401b8e91f7f2bd196acc4ed11a5cc784710\nauthor u9g <43508353+u9g@users.noreply.github.com> 1632029666 -0400\ncommitter GitHub <noreply@github.com> 1632029666 -0400\n\nFix typings",
                    "reason": "valid",
                    "signature": "-----BEGIN PGP SIGNATURE-----\n\nwsBcBAABCAAQBQJhRsvjCRBK7hj4Ov3rIwAAImEIAGEAOivTHiqQlAyx7bYjEsa7\n+On6noAIY/9tzgJARtGzL2WKyB1Iy1U7LnMaz3exPNb2R0i4NboggznbUaf471CT\na4/tefiXgqmtrmv9oUwt7HlWn/Us10VugjUenvaCTIDplvITZXiYE8qxWmtmwsnX\nGxbbRztg+ZiOilVYOGfQMUFeWK/aqBwbsXatrDL/eHbKOH2DDBiPxPnyzKVIs2O1\nlJ7KCq2MT8gWHy16Vegot4Nq1PFsNOd+bumx10YLcSO0YnoQfXmTPuuhod41lgcP\nhp3DupK/i0IyOmyeLzHMeUYGpLeqPdi1I2PbVaA0N1iRvwmwsavRvLrwgxnG8Wc=\n=KmxH\n-----END PGP SIGNATURE-----\n",
                    "verified": true
                }
            },
            "committer": {
                "avatar_url": "https://avatars.githubusercontent.com/u/19864447?v=4",
                "events_url": "https://api.github.com/users/web-flow/events{/privacy}",
                "followers_url": "https://api.github.com/users/web-flow/followers",
                "following_url": "https://api.github.com/users/web-flow/following{/other_user}",
                "gists_url": "https://api.github.com/users/web-flow/gists{/gist_id}",
                "gravatar_id": "",
                "html_url": "https://github.com/web-flow",
                "id": 19864447,
                "login": "web-flow",
                "node_id": "MDQ6VXNlcjE5ODY0NDQ3",
                "organizations_url": "https://api.github.com/users/web-flow/orgs",
                "received_events_url": "https://api.github.com/users/web-flow/received_events",
                "repos_url": "https://api.github.com/users/web-flow/repos",
                "site_admin": false,
                "starred_url": "https://api.github.com/users/web-flow/starred{/owner}{/repo}",
                "subscriptions_url": "https://api.github.com/users/web-flow/subscriptions",
                "type": "User",
                "url": "https://api.github.com/users/web-flow"
            },
            "html_url": "https://github.com/PrismarineJS/prismarine-chat/commit/91a328453e7ee7c00c79f1d45bbe214627013243",
            "node_id": "MDY6Q29tbWl0Mjc5NTgyNzE3OjkxYTMyODQ1M2U3ZWU3YzAwYzc5ZjFkNDViYmUyMTQ2MjcwMTMyNDM=",
            "parents": [
                {
                    "html_url": "https://github.com/PrismarineJS/prismarine-chat/commit/eb480401b8e91f7f2bd196acc4ed11a5cc784710",
                    "sha": "eb480401b8e91f7f2bd196acc4ed11a5cc784710",
                    "url": "https://api.github.com/repos/PrismarineJS/prismarine-chat/commits/eb480401b8e91f7f2bd196acc4ed11a5cc784710"
                }
            ],
            "sha": "91a328453e7ee7c00c79f1d45bbe214627013243",
            "url": "https://api.github.com/repos/PrismarineJS/prismarine-chat/commits/91a328453e7ee7c00c79f1d45bbe214627013243"
        },
        {
            "author": {
                "avatar_url": "https://avatars.githubusercontent.com/u/43508353?v=4",
                "events_url": "https://api.github.com/users/u9g/events{/privacy}",
                "followers_url": "https://api.github.com/users/u9g/followers",
                "following_url": "https://api.github.com/users/u9g/following{/other_user}",
                "gists_url": "https://api.github.com/users/u9g/gists{/gist_id}",
                "gravatar_id": "",
                "html_url": "https://github.com/u9g",
                "id": 43508353,
                "login": "u9g",
                "node_id": "MDQ6VXNlcjQzNTA4MzUz",
                "organizations_url": "https://api.github.com/users/u9g/orgs",
                "received_events_url": "https://api.github.com/users/u9g/received_events",
                "repos_url": "https://api.github.com/users/u9g/repos",
                "site_admin": false,
                "starred_url": "https://api.github.com/users/u9g/starred{/owner}{/repo}",
                "subscriptions_url": "https://api.github.com/users/u9g/subscriptions",
                "type": "User",
                "url": "https://api.github.com/users/u9g"
            },
            "comments_url": "https://api.github.com/repos/PrismarineJS/prismarine-chat/commits/c36435ef8c36636e0063edfffd6a306eb05817a9/comments",
            "commit": {
                "author": {
                    "date": "2021-09-19T05:36:15Z",
                    "email": "43508353+u9g@users.noreply.github.com",
                    "name": "u9g"
                },
                "comment_count": 0,
                "committer": {
                    "date": "2021-09-19T05:36:15Z",
                    "email": "noreply@github.com",
                    "name": "GitHub"
                },
                "message": "Fix lint",
                "tree": {
                    "sha": "8e425273da9cfed182e86a57af615f6a8b2170ef",
                    "url": "https://api.github.com/repos/PrismarineJS/prismarine-chat/git/trees/8e425273da9cfed182e86a57af615f6a8b2170ef"
                },
                "url": "https://api.github.com/repos/PrismarineJS/prismarine-chat/git/commits/c36435ef8c36636e0063edfffd6a306eb05817a9",
                "verification": {
                    "payload": "tree 8e425273da9cfed182e86a57af615f6a8b2170ef\nparent 91a328453e7ee7c00c79f1d45bbe214627013243\nauthor u9g <43508353+u9g@users.noreply.github.com> 1632029775 -0400\ncommitter GitHub <noreply@github.com> 1632029775 -0400\n\nFix lint",
                    "reason": "valid",
                    "signature": "-----BEGIN PGP SIGNATURE-----\n\nwsBcBAABCAAQBQJhRsxPCRBK7hj4Ov3rIwAALTUIAKjwXhlXcBguL9KHJ5rGFoU8\n6gMTNewt7gyyrFxuSTy2m7RZCPYZQmbq9ysQhSX+V2tJKmueJp1k92T3L3YSc5L9\nC2fYYcb1Z++s69IpXozff9eHEj3A3LyIkRNgbxOF1+xEr6WNX4dHwxMi7CWb1qIn\nVFV09TLmh69mSGbYNo8Eh5S4gAEk3DcgmnG+9/9/MrcGmSDwx94Vw19IThxrqce/\nLaPh9ghrkNtyvsMiCVWW9RKoZLsAs0DKbZYqmSLN3vhcxLROdCyrr2TZ69jfnyzW\np0kgxNTh2yfezypX8BhGa8kXzzRX/PTrJGxp3EO0RP5J94JUXOMWE7yBuXo91KY=\n=2a9u\n-----END PGP SIGNATURE-----\n",
                    "verified": true
                }
            },
            "committer": {
                "avatar_url": "https://avatars.githubusercontent.com/u/19864447?v=4",
                "events_url": "https://api.github.com/users/web-flow/events{/privacy}",
                "followers_url": "https://api.github.com/users/web-flow/followers",
                "following_url": "https://api.github.com/users/web-flow/following{/other_user}",
                "gists_url": "https://api.github.com/users/web-flow/gists{/gist_id}",
                "gravatar_id": "",
                "html_url": "https://github.com/web-flow",
                "id": 19864447,
                "login": "web-flow",
                "node_id": "MDQ6VXNlcjE5ODY0NDQ3",
                "organizations_url": "https://api.github.com/users/web-flow/orgs",
                "received_events_url": "https://api.github.com/users/web-flow/received_events",
                "repos_url": "https://api.github.com/users/web-flow/repos",
                "site_admin": false,
                "starred_url": "https://api.github.com/users/web-flow/starred{/owner}{/repo}",
                "subscriptions_url": "https://api.github.com/users/web-flow/subscriptions",
                "type": "User",
                "url": "https://api.github.com/users/web-flow"
            },
            "html_url": "https://github.com/PrismarineJS/prismarine-chat/commit/c36435ef8c36636e0063edfffd6a306eb05817a9",
            "node_id": "MDY6Q29tbWl0Mjc5NTgyNzE3OmMzNjQzNWVmOGMzNjYzNmUwMDYzZWRmZmZkNmEzMDZlYjA1ODE3YTk=",
            "parents": [
                {
                    "html_url": "https://github.com/PrismarineJS/prismarine-chat/commit/91a328453e7ee7c00c79f1d45bbe214627013243",
                    "sha": "91a328453e7ee7c00c79f1d45bbe214627013243",
                    "url": "https://api.github.com/repos/PrismarineJS/prismarine-chat/commits/91a328453e7ee7c00c79f1d45bbe214627013243"
                }
            ],
            "sha": "c36435ef8c36636e0063edfffd6a306eb05817a9",
            "url": "https://api.github.com/repos/PrismarineJS/prismarine-chat/commits/c36435ef8c36636e0063edfffd6a306eb05817a9"
        },
        {
            "author": {
                "avatar_url": "https://avatars.githubusercontent.com/u/43508353?v=4",
                "events_url": "https://api.github.com/users/u9g/events{/privacy}",
                "followers_url": "https://api.github.com/users/u9g/followers",
                "following_url": "https://api.github.com/users/u9g/following{/other_user}",
                "gists_url": "https://api.github.com/users/u9g/gists{/gist_id}",
                "gravatar_id": "",
                "html_url": "https://github.com/u9g",
                "id": 43508353,
                "login": "u9g",
                "node_id": "MDQ6VXNlcjQzNTA4MzUz",
                "organizations_url": "https://api.github.com/users/u9g/orgs",
                "received_events_url": "https://api.github.com/users/u9g/received_events",
                "repos_url": "https://api.github.com/users/u9g/repos",
                "site_admin": false,
                "starred_url": "https://api.github.com/users/u9g/starred{/owner}{/repo}",
                "subscriptions_url": "https://api.github.com/users/u9g/subscriptions",
                "type": "User",
                "url": "https://api.github.com/users/u9g"
            },
            "comments_url": "https://api.github.com/repos/PrismarineJS/prismarine-chat/commits/189fd5d4222432018f4c7998cc2af074ff0a800e/comments",
            "commit": {
                "author": {
                    "date": "2021-09-19T05:38:19Z",
                    "email": "43508353+u9g@users.noreply.github.com",
                    "name": "u9g"
                },
                "comment_count": 0,
                "committer": {
                    "date": "2021-09-19T05:38:19Z",
                    "email": "noreply@github.com",
                    "name": "GitHub"
                },
                "message": "Fix typo",
                "tree": {
                    "sha": "ab2410f6c407bc64dda7e1a46dea143ae394693e",
                    "url": "https://api.github.com/repos/PrismarineJS/prismarine-chat/git/trees/ab2410f6c407bc64dda7e1a46dea143ae394693e"
                },
                "url": "https://api.github.com/repos/PrismarineJS/prismarine-chat/git/commits/189fd5d4222432018f4c7998cc2af074ff0a800e",
                "verification": {
                    "payload": "tree ab2410f6c407bc64dda7e1a46dea143ae394693e\nparent c36435ef8c36636e0063edfffd6a306eb05817a9\nauthor u9g <43508353+u9g@users.noreply.github.com> 1632029899 -0400\ncommitter GitHub <noreply@github.com> 1632029899 -0400\n\nFix typo",
                    "reason": "valid",
                    "signature": "-----BEGIN PGP SIGNATURE-----\n\nwsBcBAABCAAQBQJhRszLCRBK7hj4Ov3rIwAAYHMIACCoLLUaPFXPYWNtP0c5AZWl\ntqnSoinKBgkwLRI0X3Nhaq7yc+DlS0vbh+5XSlrg2jYXxxK6FKlDxZHp4pfzLMf1\ni93g/u05pnl5c3G6nI0GRbBt7nNF0mBKpF0EeUQQ226weH5w6fauJ1UuFt8eZoda\nkW9yPzXJs1rOYrDvbNV5NpLDzz2mh3UnDVqBBuJxuccrUIdawALuK1ee53M7jJxJ\nbsIyS0iJ2s6dTq0jU8mkA3gtlrEdVQLCdMvJOa4lM5OuHhkf7IHqQVoAeHn2uJZ3\nP3daIZvJVH7ZNFNjBdn1xgErNukoh5lAqXhUnNySQL1Cw9FjQUvGqC49n9jk5lk=\n=ihb/\n-----END PGP SIGNATURE-----\n",
                    "verified": true
                }
            },
            "committer": {
                "avatar_url": "https://avatars.githubusercontent.com/u/19864447?v=4",
                "events_url": "https://api.github.com/users/web-flow/events{/privacy}",
                "followers_url": "https://api.github.com/users/web-flow/followers",
                "following_url": "https://api.github.com/users/web-flow/following{/other_user}",
                "gists_url": "https://api.github.com/users/web-flow/gists{/gist_id}",
                "gravatar_id": "",
                "html_url": "https://github.com/web-flow",
                "id": 19864447,
                "login": "web-flow",
                "node_id": "MDQ6VXNlcjE5ODY0NDQ3",
                "organizations_url": "https://api.github.com/users/web-flow/orgs",
                "received_events_url": "https://api.github.com/users/web-flow/received_events",
                "repos_url": "https://api.github.com/users/web-flow/repos",
                "site_admin": false,
                "starred_url": "https://api.github.com/users/web-flow/starred{/owner}{/repo}",
                "subscriptions_url": "https://api.github.com/users/web-flow/subscriptions",
                "type": "User",
                "url": "https://api.github.com/users/web-flow"
            },
            "html_url": "https://github.com/PrismarineJS/prismarine-chat/commit/189fd5d4222432018f4c7998cc2af074ff0a800e",
            "node_id": "MDY6Q29tbWl0Mjc5NTgyNzE3OjE4OWZkNWQ0MjIyNDMyMDE4ZjRjNzk5OGNjMmFmMDc0ZmYwYTgwMGU=",
            "parents": [
                {
                    "html_url": "https://github.com/PrismarineJS/prismarine-chat/commit/c36435ef8c36636e0063edfffd6a306eb05817a9",
                    "sha": "c36435ef8c36636e0063edfffd6a306eb05817a9",
                    "url": "https://api.github.com/repos/PrismarineJS/prismarine-chat/commits/c36435ef8c36636e0063edfffd6a306eb05817a9"
                }
            ],
            "sha": "189fd5d4222432018f4c7998cc2af074ff0a800e",
            "url": "https://api.github.com/repos/PrismarineJS/prismarine-chat/commits/189fd5d4222432018f4c7998cc2af074ff0a800e"
        },
        {
            "author": {
                "avatar_url": "https://avatars.githubusercontent.com/u/43508353?v=4",
                "events_url": "https://api.github.com/users/u9g/events{/privacy}",
                "followers_url": "https://api.github.com/users/u9g/followers",
                "following_url": "https://api.github.com/users/u9g/following{/other_user}",
                "gists_url": "https://api.github.com/users/u9g/gists{/gist_id}",
                "gravatar_id": "",
                "html_url": "https://github.com/u9g",
                "id": 43508353,
                "login": "u9g",
                "node_id": "MDQ6VXNlcjQzNTA4MzUz",
                "organizations_url": "https://api.github.com/users/u9g/orgs",
                "received_events_url": "https://api.github.com/users/u9g/received_events",
                "repos_url": "https://api.github.com/users/u9g/repos",
                "site_admin": false,
                "starred_url": "https://api.github.com/users/u9g/starred{/owner}{/repo}",
                "subscriptions_url": "https://api.github.com/users/u9g/subscriptions",
                "type": "User",
                "url": "https://api.github.com/users/u9g"
            },
            "comments_url": "https://api.github.com/repos/PrismarineJS/prismarine-chat/commits/9022082cc654064d1576826fb47207ac45e124db/comments",
            "commit": {
                "author": {
                    "date": "2021-11-11T20:57:51Z",
                    "email": "43508353+u9g@users.noreply.github.com",
                    "name": "u9g"
                },
                "comment_count": 0,
                "committer": {
                    "date": "2021-11-11T20:57:51Z",
                    "email": "43508353+u9g@users.noreply.github.com",
                    "name": "u9g"
                },
                "message": "add to docs",
                "tree": {
                    "sha": "cf02f8501f087c49ff06245084f398963b9235a7",
                    "url": "https://api.github.com/repos/PrismarineJS/prismarine-chat/git/trees/cf02f8501f087c49ff06245084f398963b9235a7"
                },
                "url": "https://api.github.com/repos/PrismarineJS/prismarine-chat/git/commits/9022082cc654064d1576826fb47207ac45e124db",
                "verification": {
                    "payload": null,
                    "reason": "unsigned",
                    "signature": null,
                    "verified": false
                }
            },
            "committer": {
                "avatar_url": "https://avatars.githubusercontent.com/u/43508353?v=4",
                "events_url": "https://api.github.com/users/u9g/events{/privacy}",
                "followers_url": "https://api.github.com/users/u9g/followers",
                "following_url": "https://api.github.com/users/u9g/following{/other_user}",
                "gists_url": "https://api.github.com/users/u9g/gists{/gist_id}",
                "gravatar_id": "",
                "html_url": "https://github.com/u9g",
                "id": 43508353,
                "login": "u9g",
                "node_id": "MDQ6VXNlcjQzNTA4MzUz",
                "organizations_url": "https://api.github.com/users/u9g/orgs",
                "received_events_url": "https://api.github.com/users/u9g/received_events",
                "repos_url": "https://api.github.com/users/u9g/repos",
                "site_admin": false,
                "starred_url": "https://api.github.com/users/u9g/starred{/owner}{/repo}",
                "subscriptions_url": "https://api.github.com/users/u9g/subscriptions",
                "type": "User",
                "url": "https://api.github.com/users/u9g"
            },
            "html_url": "https://github.com/PrismarineJS/prismarine-chat/commit/9022082cc654064d1576826fb47207ac45e124db",
            "node_id": "C_kwDOEKoX_doAKDkwMjIwODJjYzY1NDA2NGQxNTc2ODI2ZmI0NzIwN2FjNDVlMTI0ZGI",
            "parents": [
                {
                    "html_url": "https://github.com/PrismarineJS/prismarine-chat/commit/189fd5d4222432018f4c7998cc2af074ff0a800e",
                    "sha": "189fd5d4222432018f4c7998cc2af074ff0a800e",
                    "url": "https://api.github.com/repos/PrismarineJS/prismarine-chat/commits/189fd5d4222432018f4c7998cc2af074ff0a800e"
                }
            ],
            "sha": "9022082cc654064d1576826fb47207ac45e124db",
            "url": "https://api.github.com/repos/PrismarineJS/prismarine-chat/commits/9022082cc654064d1576826fb47207ac45e124db"
        }
    ],
    "commits": 8,
    "commits_url": "https://api.github.com/repos/PrismarineJS/prismarine-chat/pulls/44/commits",
    "created_at": "2021-09-19T05:18:24Z",
    "deletions": 8,
    "diff_url": "https://github.com/PrismarineJS/prismarine-chat/pull/44.diff",
    "draft": false,
    "head": {
        "label": "PrismarineJS:use-rest-arg",
        "ref": "use-rest-arg",
        "repo": {
            "allow_forking": true,
            "archive_url": "https://api.github.com/repos/PrismarineJS/prismarine-chat/{archive_format}{/ref}",
            "archived": false,
            "assignees_url": "https://api.github.com/repos/PrismarineJS/prismarine-chat/assignees{/user}",
            "blobs_url": "https://api.github.com/repos/PrismarineJS/prismarine-chat/git/blobs{/sha}",
            "branches_url": "https://api.github.com/repos/PrismarineJS/prismarine-chat/branches{/branch}",
            "clone_url": "https://github.com/PrismarineJS/prismarine-chat.git",
            "collaborators_url": "https://api.github.com/repos/PrismarineJS/prismarine-chat/collaborators{/collaborator}",
            "comments_url": "https://api.github.com/repos/PrismarineJS/prismarine-chat/comments{/number}",
            "commits_url": "https://api.github.com/repos/PrismarineJS/prismarine-chat/commits{/sha}",
            "compare_url": "https://api.github.com/repos/PrismarineJS/prismarine-chat/compare/{base}...{head}",
            "contents_url": "https://api.github.com/repos/PrismarineJS/prismarine-chat/contents/{+path}",
            "contributors_url": "https://api.github.com/repos/PrismarineJS/prismarine-chat/contributors",
            "created_at": "2020-07-14T12:45:45Z",
            "default_branch": "master",
            "deployments_url": "https://api.github.com/repos/PrismarineJS/prismarine-chat/deployments",
            "description": "A parser for a minecraft chat message",
            "disabled": false,
            "downloads_url": "https://api.github.com/repos/PrismarineJS/prismarine-chat/downloads",
            "events_url": "https://api.github.com/repos/PrismarineJS/prismarine-chat/events",
            "fork": false,
            "forks": 21,
            "forks_count": 21,
            "forks_url": "https://api.github.com/repos/PrismarineJS/prismarine-chat/forks",
            "full_name": "PrismarineJS/prismarine-chat",
            "git_commits_url": "https://api.github.com/repos/PrismarineJS/prismarine-chat/git/commits{/sha}",
            "git_refs_url": "https://api.github.com/repos/PrismarineJS/prismarine-chat/git/refs{/sha}",
            "git_tags_url": "https://api.github.com/repos/PrismarineJS/prismarine-chat/git/tags{/sha}",
            "git_url": "git://github.com/PrismarineJS/prismarine-chat.git",
            "has_discussions": false,
            "has_downloads": true,
            "has_issues": true,
            "has_pages": false,
            "has_projects": true,
            "has_wiki": true,
            "homepage": "",
            "hooks_url": "https://api.github.com/repos/PrismarineJS/prismarine-chat/hooks",
            "html_url": "https://github.com/PrismarineJS/prismarine-chat",
            "id": 279582717,
            "is_template": false,
            "issue_comment_url": "https://api.github.com/repos/PrismarineJS/prismarine-chat/issues/comments{/number}",
            "issue_events_url": "https://api.github.com/repos/PrismarineJS/prismarine-chat/issues/events{/number}",
            "issues_url": "https://api.github.com/repos/PrismarineJS/prismarine-chat/issues{/number}",
            "keys_url": "https://api.github.com/repos/PrismarineJS/prismarine-chat/keys{/key_id}",
            "labels_url": "https://api.github.com/repos/PrismarineJS/prismarine-chat/labels{/name}",
            "language": "JavaScript",
            "languages_url": "https://api.github.com/repos/PrismarineJS/prismarine-chat/languages",
            "license": {
                "key": "mit",
                "name": "MIT License",
                "node_id": "MDc6TGljZW5zZTEz",
                "spdx_id": "MIT",
                "url": "https://api.github.com/licenses/mit"
            },
            "merges_url": "https://api.github.com/repos/PrismarineJS/prismarine-chat/merges",
            "milestones_url": "https://api.github.com/repos/PrismarineJS/prismarine-chat/milestones{/number}",
            "mirror_url": null,
            "name": "prismarine-chat",
            "node_id": "MDEwOlJlcG9zaXRvcnkyNzk1ODI3MTc=",
            "notifications_url": "https://api.github.com/repos/PrismarineJS/prismarine-chat/notifications{?since,all,participating}",
            "open_issues": 13,
            "open_issues_count": 13,
            "owner": {
                "avatar_url": "https://avatars.githubusercontent.com/u/11053411?v=4",
                "events_url": "https://api.github.com/users/PrismarineJS/events{/privacy}",
                "followers_url": "https://api.github.com/users/PrismarineJS/followers",
                "following_url": "https://api.github.com/users/PrismarineJS/following{/other_user}",
                "gists_url": "https://api.github.com/users/PrismarineJS/gists{/gist_id}",
                "gravatar_id": "",
                "html_url": "https://github.com/PrismarineJS",
                "id": 11053411,
                "login": "PrismarineJS",
                "node_id": "MDEyOk9yZ2FuaXphdGlvbjExMDUzNDEx",
                "organizations_url": "https://api.github.com/users/PrismarineJS/orgs",
                "received_events_url": "https://api.github.com/users/PrismarineJS/received_events",
                "repos_url": "https://api.github.com/users/PrismarineJS/repos",
                "site_admin": false,
                "starred_url": "https://api.github.com/users/PrismarineJS/starred{/owner}{/repo}",
                "subscriptions_url": "https://api.github.com/users/PrismarineJS/subscriptions",
                "type": "Organization",
                "url": "https://api.github.com/users/PrismarineJS"
            },
            "private": false,
            "pulls_url": "https://api.github.com/repos/PrismarineJS/prismarine-chat/pulls{/number}",
            "pushed_at": "2023-04-16T21:44:32Z",
            "releases_url": "https://api.github.com/repos/PrismarineJS/prismarine-chat/releases{/id}",
            "size": 90,
            "ssh_url": "git@github.com:PrismarineJS/prismarine-chat.git",
            "stargazers_count": 24,
            "stargazers_url": "https://api.github.com/repos/PrismarineJS/prismarine-chat/stargazers",
            "statuses_url": "https://api.github.com/repos/PrismarineJS/prismarine-chat/statuses/{sha}",
            "subscribers_url": "https://api.github.com/repos/PrismarineJS/prismarine-chat/subscribers",
            "subscription_url": "https://api.github.com/repos/PrismarineJS/prismarine-chat/subscription",
            "svn_url": "https://github.com/PrismarineJS/prismarine-chat",
            "tags_url": "https://api.github.com/repos/PrismarineJS/prismarine-chat/tags",
            "teams_url": "https://api.github.com/repos/PrismarineJS/prismarine-chat/teams",
            "topics": [],
            "trees_url": "https://api.github.com/repos/PrismarineJS/prismarine-chat/git/trees{/sha}",
            "updated_at": "2022-12-11T21:09:39Z",
            "url": "https://api.github.com/repos/PrismarineJS/prismarine-chat",
            "visibility": "public",
            "watchers": 24,
            "watchers_count": 24,
            "web_commit_signoff_required": false
        },
        "sha": "9022082cc654064d1576826fb47207ac45e124db",
        "user": {
            "avatar_url": "https://avatars.githubusercontent.com/u/11053411?v=4",
            "events_url": "https://api.github.com/users/PrismarineJS/events{/privacy}",
            "followers_url": "https://api.github.com/users/PrismarineJS/followers",
            "following_url": "https://api.github.com/users/PrismarineJS/following{/other_user}",
            "gists_url": "https://api.github.com/users/PrismarineJS/gists{/gist_id}",
            "gravatar_id": "",
            "html_url": "https://github.com/PrismarineJS",
            "id": 11053411,
            "login": "PrismarineJS",
            "node_id": "MDEyOk9yZ2FuaXphdGlvbjExMDUzNDEx",
            "organizations_url": "https://api.github.com/users/PrismarineJS/orgs",
            "received_events_url": "https://api.github.com/users/PrismarineJS/received_events",
            "repos_url": "https://api.github.com/users/PrismarineJS/repos",
            "site_admin": false,
            "starred_url": "https://api.github.com/users/PrismarineJS/starred{/owner}{/repo}",
            "subscriptions_url": "https://api.github.com/users/PrismarineJS/subscriptions",
            "type": "Organization",
            "url": "https://api.github.com/users/PrismarineJS"
        }
    },
    "html_url": "https://github.com/PrismarineJS/prismarine-chat/pull/44",
    "id": 737012238,
    "issue_url": "https://api.github.com/repos/PrismarineJS/prismarine-chat/issues/44",
    "labels": [],
    "locked": false,
    "maintainer_can_modify": false,
    "merge_commit_sha": "b678a54aae41593af3a5e36f3ce42d8b6106375b",
    "mergeable": null,
    "mergeable_state": "unknown",
    "merged": true,
    "merged_at": "2021-11-12T21:38:31Z",
    "merged_by": {
        "avatar_url": "https://avatars.githubusercontent.com/u/2346494?v=4",
        "events_url": "https://api.github.com/users/rom1504/events{/privacy}",
        "followers_url": "https://api.github.com/users/rom1504/followers",
        "following_url": "https://api.github.com/users/rom1504/following{/other_user}",
        "gists_url": "https://api.github.com/users/rom1504/gists{/gist_id}",
        "gravatar_id": "",
        "html_url": "https://github.com/rom1504",
        "id": 2346494,
        "login": "rom1504",
        "node_id": "MDQ6VXNlcjIzNDY0OTQ=",
        "organizations_url": "https://api.github.com/users/rom1504/orgs",
        "received_events_url": "https://api.github.com/users/rom1504/received_events",
        "repos_url": "https://api.github.com/users/rom1504/repos",
        "site_admin": false,
        "starred_url": "https://api.github.com/users/rom1504/starred{/owner}{/repo}",
        "subscriptions_url": "https://api.github.com/users/rom1504/subscriptions",
        "type": "User",
        "url": "https://api.github.com/users/rom1504"
    },
    "milestone": null,
    "node_id": "PR_kwDOEKoX_c4r7eoO",
    "number": 44,
    "patch_url": "https://github.com/PrismarineJS/prismarine-chat/pull/44.patch",
    "rebaseable": null,
    "requested_reviewers": [],
    "requested_teams": [],
    "review_comment_url": "https://api.github.com/repos/PrismarineJS/prismarine-chat/pulls/comments{/number}",
    "review_comments": 0,
    "review_comments_url": "https://api.github.com/repos/PrismarineJS/prismarine-chat/pulls/44/comments",
    "state": "closed",
    "statuses_url": "https://api.github.com/repos/PrismarineJS/prismarine-chat/statuses/9022082cc654064d1576826fb47207ac45e124db",
    "title": "use rest arg to allow many withs or extras",
    "updated_at": "2021-11-13T14:56:52Z",
    "url": "https://api.github.com/repos/PrismarineJS/prismarine-chat/pulls/44",
    "user": {
        "avatar_url": "https://avatars.githubusercontent.com/u/43508353?v=4",
        "events_url": "https://api.github.com/users/u9g/events{/privacy}",
        "followers_url": "https://api.github.com/users/u9g/followers",
        "following_url": "https://api.github.com/users/u9g/following{/other_user}",
        "gists_url": "https://api.github.com/users/u9g/gists{/gist_id}",
        "gravatar_id": "",
        "html_url": "https://github.com/u9g",
        "id": 43508353,
        "login": "u9g",
        "node_id": "MDQ6VXNlcjQzNTA4MzUz",
        "organizations_url": "https://api.github.com/users/u9g/orgs",
        "received_events_url": "https://api.github.com/users/u9g/received_events",
        "repos_url": "https://api.github.com/users/u9g/repos",
        "site_admin": false,
        "starred_url": "https://api.github.com/users/u9g/starred{/owner}{/repo}",
        "subscriptions_url": "https://api.github.com/users/u9g/subscriptions",
        "type": "User",
        "url": "https://api.github.com/users/u9g"
    }
}