{
    "_links": {
        "comments": {
            "href": "https://api.github.com/repos/PrismarineJS/prismarine-chat/issues/76/comments"
        },
        "commits": {
            "href": "https://api.github.com/repos/PrismarineJS/prismarine-chat/pulls/76/commits"
        },
        "html": {
            "href": "https://github.com/PrismarineJS/prismarine-chat/pull/76"
        },
        "issue": {
            "href": "https://api.github.com/repos/PrismarineJS/prismarine-chat/issues/76"
        },
        "review_comment": {
            "href": "https://api.github.com/repos/PrismarineJS/prismarine-chat/pulls/comments{/number}"
        },
        "review_comments": {
            "href": "https://api.github.com/repos/PrismarineJS/prismarine-chat/pulls/76/comments"
        },
        "self": {
            "href": "https://api.github.com/repos/PrismarineJS/prismarine-chat/pulls/76"
        },
        "statuses": {
            "href": "https://api.github.com/repos/PrismarineJS/prismarine-chat/statuses/e40781ddc5f2fdfe479c149f501cb1983dfa11f5"
        }
    },
    "active_lock_reason": null,
    "additions": 1,
    "assignee": null,
    "assignees": [],
    "author_association": "CONTRIBUTOR",
    "auto_merge": null,
    "base": {
        "label": "PrismarineJS:master",
        "ref": "master",
        "repo": {
            "allow_forking": true,
            "archive_url": "https://api.github.com/repos/PrismarineJS/prismarine-chat/{archive_format}{/ref}",
            "archived": false,
            "assignees_url": "https://api.github.com/repos/PrismarineJS/prismarine-chat/assignees{/user}",
            "blobs_url": "https://api.github.com/repos/PrismarineJS/prismarine-chat/git/blobs{/sha}",
            "branches_url": "https://api.github.com/repos/PrismarineJS/prismarine-chat/branches{/branch}",
            "clone_url": "https://github.com/PrismarineJS/prismarine-chat.git",
            "collaborators_url": "https://api.github.com/repos/PrismarineJS/prismarine-chat/collaborators{/collaborator}",
            "comments_url": "https://api.github.com/repos/PrismarineJS/prismarine-chat/comments{/number}",
            "commits_url": "https://api.github.com/repos/PrismarineJS/prismarine-chat/commits{/sha}",
            "compare_url": "https://api.github.com/repos/PrismarineJS/prismarine-chat/compare/{base}...{head}",
            "contents_url": "https://api.github.com/repos/PrismarineJS/prismarine-chat/contents/{+path}",
            "contributors_url": "https://api.github.com/repos/PrismarineJS/prismarine-chat/contributors",
            "created_at": "2020-07-14T12:45:45Z",
            "default_branch": "master",
            "deployments_url": "https://api.github.com/repos/PrismarineJS/prismarine-chat/deployments",
            "description": "A parser for a minecraft chat message",
            "disabled": false,
            "downloads_url": "https://api.github.com/repos/PrismarineJS/prismarine-chat/downloads",
            "events_url": "https://api.github.com/repos/PrismarineJS/prismarine-chat/events",
            "fork": false,
            "forks": 21,
            "forks_count": 21,
            "forks_url": "https://api.github.com/repos/PrismarineJS/prismarine-chat/forks",
            "full_name": "PrismarineJS/prismarine-chat",
            "git_commits_url": "https://api.github.com/repos/PrismarineJS/prismarine-chat/git/commits{/sha}",
            "git_refs_url": "https://api.github.com/repos/PrismarineJS/prismarine-chat/git/refs{/sha}",
            "git_tags_url": "https://api.github.com/repos/PrismarineJS/prismarine-chat/git/tags{/sha}",
            "git_url": "git://github.com/PrismarineJS/prismarine-chat.git",
            "has_discussions": false,
            "has_downloads": true,
            "has_issues": true,
            "has_pages": false,
            "has_projects": true,
            "has_wiki": true,
            "homepage": "",
            "hooks_url": "https://api.github.com/repos/PrismarineJS/prismarine-chat/hooks",
            "html_url": "https://github.com/PrismarineJS/prismarine-chat",
            "id": 279582717,
            "is_template": false,
            "issue_comment_url": "https://api.github.com/repos/PrismarineJS/prismarine-chat/issues/comments{/number}",
            "issue_events_url": "https://api.github.com/repos/PrismarineJS/prismarine-chat/issues/events{/number}",
            "issues_url": "https://api.github.com/repos/PrismarineJS/prismarine-chat/issues{/number}",
            "keys_url": "https://api.github.com/repos/PrismarineJS/prismarine-chat/keys{/key_id}",
            "labels_url": "https://api.github.com/repos/PrismarineJS/prismarine-chat/labels{/name}",
            "language": "JavaScript",
            "languages_url": "https://api.github.com/repos/PrismarineJS/prismarine-chat/languages",
            "license": {
                "key": "mit",
                "name": "MIT License",
                "node_id": "MDc6TGljZW5zZTEz",
                "spdx_id": "MIT",
                "url": "https://api.github.com/licenses/mit"
            },
            "merges_url": "https://api.github.com/repos/PrismarineJS/prismarine-chat/merges",
            "milestones_url": "https://api.github.com/repos/PrismarineJS/prismarine-chat/milestones{/number}",
            "mirror_url": null,
            "name": "prismarine-chat",
            "node_id": "MDEwOlJlcG9zaXRvcnkyNzk1ODI3MTc=",
            "notifications_url": "https://api.github.com/repos/PrismarineJS/prismarine-chat/notifications{?since,all,participating}",
            "open_issues": 13,
            "open_issues_count": 13,
            "owner": {
                "avatar_url": "https://avatars.githubusercontent.com/u/11053411?v=4",
                "events_url": "https://api.github.com/users/PrismarineJS/events{/privacy}",
                "followers_url": "https://api.github.com/users/PrismarineJS/followers",
                "following_url": "https://api.github.com/users/PrismarineJS/following{/other_user}",
                "gists_url": "https://api.github.com/users/PrismarineJS/gists{/gist_id}",
                "gravatar_id": "",
                "html_url": "https://github.com/PrismarineJS",
                "id": 11053411,
                "login": "PrismarineJS",
                "node_id": "MDEyOk9yZ2FuaXphdGlvbjExMDUzNDEx",
                "organizations_url": "https://api.github.com/users/PrismarineJS/orgs",
                "received_events_url": "https://api.github.com/users/PrismarineJS/received_events",
                "repos_url": "https://api.github.com/users/PrismarineJS/repos",
                "site_admin": false,
                "starred_url": "https://api.github.com/users/PrismarineJS/starred{/owner}{/repo}",
                "subscriptions_url": "https://api.github.com/users/PrismarineJS/subscriptions",
                "type": "Organization",
                "url": "https://api.github.com/users/PrismarineJS"
            },
            "private": false,
            "pulls_url": "https://api.github.com/repos/PrismarineJS/prismarine-chat/pulls{/number}",
            "pushed_at": "2023-04-16T21:44:32Z",
            "releases_url": "https://api.github.com/repos/PrismarineJS/prismarine-chat/releases{/id}",
            "size": 90,
            "ssh_url": "git@github.com:PrismarineJS/prismarine-chat.git",
            "stargazers_count": 24,
            "stargazers_url": "https://api.github.com/repos/PrismarineJS/prismarine-chat/stargazers",
            "statuses_url": "https://api.github.com/repos/PrismarineJS/prismarine-chat/statuses/{sha}",
            "subscribers_url": "https://api.github.com/repos/PrismarineJS/prismarine-chat/subscribers",
            "subscription_url": "https://api.github.com/repos/PrismarineJS/prismarine-chat/subscription",
            "svn_url": "https://github.com/PrismarineJS/prismarine-chat",
            "tags_url": "https://api.github.com/repos/PrismarineJS/prismarine-chat/tags",
            "teams_url": "https://api.github.com/repos/PrismarineJS/prismarine-chat/teams",
            "topics": [],
            "trees_url": "https://api.github.com/repos/PrismarineJS/prismarine-chat/git/trees{/sha}",
            "updated_at": "2022-12-11T21:09:39Z",
            "url": "https://api.github.com/repos/PrismarineJS/prismarine-chat",
            "visibility": "public",
            "watchers": 24,
            "watchers_count": 24,
            "web_commit_signoff_required": false
        },
        "sha": "9127eb1e58ca5015d2d78e3a0d5be4f54318e719",
        "user": {
            "avatar_url": "https://avatars.githubusercontent.com/u/11053411?v=4",
            "events_url": "https://api.github.com/users/PrismarineJS/events{/privacy}",
            "followers_url": "https://api.github.com/users/PrismarineJS/followers",
            "following_url": "https://api.github.com/users/PrismarineJS/following{/other_user}",
            "gists_url": "https://api.github.com/users/PrismarineJS/gists{/gist_id}",
            "gravatar_id": "",
            "html_url": "https://github.com/PrismarineJS",
            "id": 11053411,
            "login": "PrismarineJS",
            "node_id": "MDEyOk9yZ2FuaXphdGlvbjExMDUzNDEx",
            "organizations_url": "https://api.github.com/users/PrismarineJS/orgs",
            "received_events_url": "https://api.github.com/users/PrismarineJS/received_events",
            "repos_url": "https://api.github.com/users/PrismarineJS/repos",
            "site_admin": false,
            "starred_url": "https://api.github.com/users/PrismarineJS/starred{/owner}{/repo}",
            "subscriptions_url": "https://api.github.com/users/PrismarineJS/subscriptions",
            "type": "Organization",
            "url": "https://api.github.com/users/PrismarineJS"
        }
    },
    "body": "Bumps [expect](https://github.com/facebook/jest/tree/HEAD/packages/expect) from 28.1.3 to 29.1.0.\n<details>\n<summary>Release notes</summary>\n<p><em>Sourced from <a href=\"https://github.com/facebook/jest/releases\">expect's releases</a>.</em></p>\n<blockquote>\n<h2>v29.1.0</h2>\n<h2>Features</h2>\n<ul>\n<li><code>[expect, @jest/expect]</code> support type inference for function parameters in <code>CalledWith</code> assertions (<a href=\"https://github-redirect.dependabot.com/facebook/jest/pull/13268\">#13268</a>)</li>\n<li><code>[expect, @jest/expect]</code> Infer type of <code>*ReturnedWith</code> matchers argument (<a href=\"https://github-redirect.dependabot.com/facebook/jest/pull/13278\">#13278</a>)</li>\n<li><code>[@jest/environment, jest-runtime]</code> Allow <code>jest.requireActual</code> and <code>jest.requireMock</code> to take a type argument (<a href=\"https://github-redirect.dependabot.com/facebook/jest/pull/13253\">#13253</a>)</li>\n<li><code>[@jest/environment]</code> Allow <code>jest.mock</code> and <code>jest.doMock</code> to take a type argument (<a href=\"https://github-redirect.dependabot.com/facebook/jest/pull/13254\">#13254</a>)</li>\n<li><code>[@jest/fake-timers]</code> Add <code>jest.now()</code> to return the current fake clock time (<a href=\"https://github-redirect.dependabot.com/facebook/jest/pull/13244\">#13244</a>, <a href=\"https://github-redirect.dependabot.com/facebook/jest/pull/13246\">#13246</a>)</li>\n<li><code>[@jest/mock]</code> Add <code>withImplementation</code> method for temporarily overriding a mock (<a href=\"https://github-redirect.dependabot.com/facebook/jest/pull/13281\">#13281</a>)</li>\n<li><code>[expect]</code> Export <code>toThrow*</code> matchers (<a href=\"https://github-redirect.dependabot.com/facebook/jest/pull/13328\">#13328</a>)</li>\n</ul>\n<h2>Fixes</h2>\n<ul>\n<li><code>[jest-circus, jest-jasmine2]</code> Fix error messages for Node's <code>assert.throes</code> (<a href=\"https://github-redirect.dependabot.com/facebook/jest/pull/13322\">#13322</a>)</li>\n<li><code>[jest-haste-map]</code> Remove <code>__proto__</code> usage (<a href=\"https://github-redirect.dependabot.com/facebook/jest/pull/13256\">#13256</a>)</li>\n<li><code>[jest-mock]</code> Improve <code>spyOn</code> typings to handle optional properties (<a href=\"https://github-redirect.dependabot.com/facebook/jest/pull/13247\">#13247</a>)</li>\n<li><code>[jest-mock]</code> Fix mocking of getters and setters on classes (<a href=\"https://github-redirect.dependabot.com/facebook/jest/pull/13145\">#13145</a>)</li>\n<li><code>[jest-snapshot]</code> Throw useful error when an array is passed as property matchers (<a href=\"https://github-redirect.dependabot.com/facebook/jest/pull/13263\">#13263</a>)</li>\n<li><code>[jest-snapshot]</code> Prioritize parser used in the project (<a href=\"https://github-redirect.dependabot.com/facebook/jest/pull/13323\">#13323</a>)</li>\n<li><code>[jest-transform]</code> Attempt to work around issues with atomic writes on Windows (<a href=\"https://github-redirect.dependabot.com/facebook/jest/pull/11423\">#11423</a>)</li>\n</ul>\n<h2>New Contributors</h2>\n<ul>\n<li><a href=\"https://github.com/fzn0x\"><code>@​fzn0x</code></a> made their first contribution in <a href=\"https://github-redirect.dependabot.com/facebook/jest/pull/13234\">facebook/jest#13234</a></li>\n<li><a href=\"https://github.com/guimard\"><code>@​guimard</code></a> made their first contribution in <a href=\"https://github-redirect.dependabot.com/facebook/jest/pull/13256\">facebook/jest#13256</a></li>\n<li><a href=\"https://github.com/weidehai\"><code>@​weidehai</code></a> made their first contribution in <a href=\"https://github-redirect.dependabot.com/facebook/jest/pull/13270\">facebook/jest#13270</a></li>\n<li><a href=\"https://github.com/kettanaito\"><code>@​kettanaito</code></a> made their first contribution in <a href=\"https://github-redirect.dependabot.com/facebook/jest/pull/12871\">facebook/jest#12871</a></li>\n<li><a href=\"https://github.com/royhadad\"><code>@​royhadad</code></a> made their first contribution in <a href=\"https://github-redirect.dependabot.com/facebook/jest/pull/13279\">facebook/jest#13279</a></li>\n<li><a href=\"https://github.com/ghiscoding\"><code>@​ghiscoding</code></a> made their first contribution in <a href=\"https://github-redirect.dependabot.com/facebook/jest/pull/13290\">facebook/jest#13290</a></li>\n<li><a href=\"https://github.com/paulreece\"><code>@​paulreece</code></a> made their first contribution in <a href=\"https://github-redirect.dependabot.com/facebook/jest/pull/13311\">facebook/jest#13311</a></li>\n<li><a href=\"https://github.com/jeppester\"><code>@​jeppester</code></a> made their first contribution in <a href=\"https://github-redirect.dependabot.com/facebook/jest/pull/13281\">facebook/jest#13281</a></li>\n<li><a href=\"https://github.com/sashashura\"><code>@​sashashura</code></a> made their first contribution in <a href=\"https://github-redirect.dependabot.com/facebook/jest/pull/13324\">facebook/jest#13324</a></li>\n<li><a href=\"https://github.com/lpizzinidev\"><code>@​lpizzinidev</code></a> made their first contribution in <a href=\"https://github-redirect.dependabot.com/facebook/jest/pull/13322\">facebook/jest#13322</a></li>\n<li><a href=\"https://github.com/JVBorges\"><code>@​JVBorges</code></a> made their first contribution in <a href=\"https://github-redirect.dependabot.com/facebook/jest/pull/13323\">facebook/jest#13323</a></li>\n<li><a href=\"https://github.com/staplespeter\"><code>@​staplespeter</code></a> made their first contribution in <a href=\"https://github-redirect.dependabot.com/facebook/jest/pull/13145\">facebook/jest#13145</a></li>\n</ul>\n<p><strong>Full Changelog</strong>: <a href=\"https://github.com/facebook/jest/compare/v29.0.3...v29.1.0\">https://github.com/facebook/jest/compare/v29.0.3...v29.1.0</a></p>\n<h2>v29.0.3</h2>\n<h2>Features</h2>\n<ul>\n<li><code>[@jest/environment, jest-runtime]</code> Allow passing a generic type argument to <code>jest.createMockFromModule&lt;T&gt;()</code> method (<a href=\"https://github-redirect.dependabot.com/facebook/jest/pull/13202\">#13202</a>)</li>\n<li><code>[expect]</code> Expose <code>ExpectationResult</code> type (<a href=\"https://github-redirect.dependabot.com/facebook/jest/pull/13240\">#13240</a>)</li>\n<li><code>[jest-snapshot]</code> Expose <code>Context</code> type (<a href=\"https://github-redirect.dependabot.com/facebook/jest/pull/13240\">#13240</a>)</li>\n<li><code>[@jest/globals]</code> Add <code>jest.Mock</code> type helper (<a href=\"https://github-redirect.dependabot.com/facebook/jest/pull/13235\">#13235</a>)</li>\n</ul>\n<h2>Fixes</h2>\n<ul>\n<li><code>[jest-core]</code> Capture <code>execError</code> during <code>TestScheduler.scheduleTests</code> and dispatch to reporters (<a href=\"https://github-redirect.dependabot.com/facebook/jest/pull/13203\">#13203</a>)</li>\n<li><code>[jest-resolve]</code> Make sure to resolve module paths after looking at <code>exports</code> (<a href=\"https://github-redirect.dependabot.com/facebook/jest/pull/13242\">#13242</a>)</li>\n<li><code>[jest-resolve]</code> Improve error on module not found deep in the <code>require</code> stack (<a href=\"https://github-redirect.dependabot.com/facebook/jest/pull/8704\">#8704</a>)</li>\n</ul>\n<!-- raw HTML omitted -->\n</blockquote>\n<p>... (truncated)</p>\n</details>\n<details>\n<summary>Changelog</summary>\n<p><em>Sourced from <a href=\"https://github.com/facebook/jest/blob/main/CHANGELOG.md\">expect's changelog</a>.</em></p>\n<blockquote>\n<h2>29.1.0</h2>\n<h3>Features</h3>\n<ul>\n<li><code>[expect, @jest/expect]</code> support type inference for function parameters in <code>CalledWith</code> assertions (<a href=\"https://github-redirect.dependabot.com/facebook/jest/pull/13268\">#13268</a>)</li>\n<li><code>[expect, @jest/expect]</code> Infer type of <code>*ReturnedWith</code> matchers argument (<a href=\"https://github-redirect.dependabot.com/facebook/jest/pull/13278\">#13278</a>)</li>\n<li><code>[@jest/environment, jest-runtime]</code> Allow <code>jest.requireActual</code> and <code>jest.requireMock</code> to take a type argument (<a href=\"https://github-redirect.dependabot.com/facebook/jest/pull/13253\">#13253</a>)</li>\n<li><code>[@jest/environment]</code> Allow <code>jest.mock</code> and <code>jest.doMock</code> to take a type argument (<a href=\"https://github-redirect.dependabot.com/facebook/jest/pull/13254\">#13254</a>)</li>\n<li><code>[@jest/fake-timers]</code> Add <code>jest.now()</code> to return the current fake clock time (<a href=\"https://github-redirect.dependabot.com/facebook/jest/pull/13244\">#13244</a>, <a href=\"https://github-redirect.dependabot.com/facebook/jest/pull/13246\">#13246</a>)</li>\n<li><code>[@jest/mock]</code> Add <code>withImplementation</code> method for temporarily overriding a mock (<a href=\"https://github-redirect.dependabot.com/facebook/jest/pull/13281\">#13281</a>)</li>\n<li><code>[expect]</code> Export <code>toThrow*</code> matchers (<a href=\"https://github-redirect.dependabot.com/facebook/jest/pull/13328\">#13328</a>)</li>\n</ul>\n<h3>Fixes</h3>\n<ul>\n<li><code>[jest-circus, jest-jasmine2]</code> Fix error messages for Node's <code>assert.throes</code> (<a href=\"https://github-redirect.dependabot.com/facebook/jest/pull/13322\">#13322</a>)</li>\n<li><code>[jest-haste-map]</code> Remove <code>__proto__</code> usage (<a href=\"https://github-redirect.dependabot.com/facebook/jest/pull/13256\">#13256</a>)</li>\n<li><code>[jest-mock]</code> Improve <code>spyOn</code> typings to handle optional properties (<a href=\"https://github-redirect.dependabot.com/facebook/jest/pull/13247\">#13247</a>)</li>\n<li><code>[jest-mock]</code> Fix mocking of getters and setters on classes (<a href=\"https://github-redirect.dependabot.com/facebook/jest/pull/13145\">#13145</a>)</li>\n<li><code>[jest-snapshot]</code> Throw useful error when an array is passed as property matchers (<a href=\"https://github-redirect.dependabot.com/facebook/jest/pull/13263\">#13263</a>)</li>\n<li><code>[jest-snapshot]</code> Prioritize parser used in the project (<a href=\"https://github-redirect.dependabot.com/facebook/jest/pull/13323\">#13323</a>)</li>\n<li><code>[jest-transform]</code> Attempt to work around issues with atomic writes on Windows (<a href=\"https://github-redirect.dependabot.com/facebook/jest/pull/11423\">#11423</a>)</li>\n</ul>\n<h2>29.0.3</h2>\n<h3>Features</h3>\n<ul>\n<li><code>[@jest/environment, jest-runtime]</code> Allow passing a generic type argument to <code>jest.createMockFromModule&lt;T&gt;()</code> method (<a href=\"https://github-redirect.dependabot.com/facebook/jest/pull/13202\">#13202</a>)</li>\n<li><code>[expect]</code> Expose <code>ExpectationResult</code> type (<a href=\"https://github-redirect.dependabot.com/facebook/jest/pull/13240\">#13240</a>)</li>\n<li><code>[jest-snapshot]</code> Expose <code>Context</code> type (<a href=\"https://github-redirect.dependabot.com/facebook/jest/pull/13240\">#13240</a>)</li>\n<li><code>[@jest/globals]</code> Add <code>jest.Mock</code> type helper (<a href=\"https://github-redirect.dependabot.com/facebook/jest/pull/13235\">#13235</a>)</li>\n</ul>\n<h3>Fixes</h3>\n<ul>\n<li><code>[jest-core]</code> Capture <code>execError</code> during <code>TestScheduler.scheduleTests</code> and dispatch to reporters (<a href=\"https://github-redirect.dependabot.com/facebook/jest/pull/13203\">#13203</a>)</li>\n<li><code>[jest-resolve]</code> Make sure to resolve module paths after looking at <code>exports</code> (<a href=\"https://github-redirect.dependabot.com/facebook/jest/pull/13242\">#13242</a>)</li>\n<li><code>[jest-resolve]</code> Improve error on module not found deep in the <code>require</code> stack (<a href=\"https://github-redirect.dependabot.com/facebook/jest/pull/8704\">#8704</a>)</li>\n<li><code>[jest-snapshot]</code> Fix typings of snapshot matchers (<a href=\"https://github-redirect.dependabot.com/facebook/jest/pull/13240\">#13240</a>)</li>\n</ul>\n<h3>Chore &amp; Maintenance</h3>\n<ul>\n<li><code>[*]</code> Fix inconsistent workspace prefixes (<a href=\"https://github-redirect.dependabot.com/facebook/jest/pull/13217\">#13217</a>)</li>\n<li><code>[jest-haste-map]</code> Expose a minimal public API to TypeScript (<a href=\"https://github-redirect.dependabot.com/facebook/jest/pull/13023\">#13023</a>)</li>\n</ul>\n<h2>29.0.2</h2>\n<h3>Features</h3>\n<ul>\n<li><code>[jest-transform]</code> Expose <code>TransformFactory</code> type (<a href=\"https://github-redirect.dependabot.com/facebook/jest/pull/13184\">#13184</a>)</li>\n</ul>\n<h3>Fixes</h3>\n<!-- raw HTML omitted -->\n</blockquote>\n<p>... (truncated)</p>\n</details>\n<details>\n<summary>Commits</summary>\n<ul>\n<li><a href=\"https://github.com/facebook/jest/commit/51f10300daf90db003a1749ceaed1084c4f74811\"><code>51f1030</code></a> v29.1.0</li>\n<li><a href=\"https://github.com/facebook/jest/commit/5e51a06ded2fee7ceb8b1f5ea29af6bcfccc7d1e\"><code>5e51a06</code></a> feat(expect): Expose toThrowMatchers (<a href=\"https://github.com/facebook/jest/tree/HEAD/packages/expect/issues/13328\">#13328</a>)</li>\n<li><a href=\"https://github.com/facebook/jest/commit/2e608c1089c300d5acc997a2700de27e9f407bc8\"><code>2e608c1</code></a> fix: correct <code>isPromise</code> implementation (<a href=\"https://github.com/facebook/jest/tree/HEAD/packages/expect/issues/13314\">#13314</a>)</li>\n<li><a href=\"https://github.com/facebook/jest/commit/3d626a5beac622419668ff4a135cf5a895e46514\"><code>3d626a5</code></a> feat(expect, <code>@​jest/expect</code>): infer type of <code>*ReturnedWith</code> matchers argument (...</li>\n<li><a href=\"https://github.com/facebook/jest/commit/d0f1b0a7afdf90a1f7a7c4384cbce03610ff0da2\"><code>d0f1b0a</code></a> feat(expect, <code>@​jest/expect</code>): support type inference for function parame… (<a href=\"https://github.com/facebook/jest/tree/HEAD/packages/expect/issues/13268\">#13268</a>)</li>\n<li><a href=\"https://github.com/facebook/jest/commit/77f865da39af5b3e1c114dc347e49257eb3dcfd1\"><code>77f865d</code></a> v29.0.3</li>\n<li><a href=\"https://github.com/facebook/jest/commit/63f8a995ede8adb54505eeea41b65065163b0237\"><code>63f8a99</code></a> fix(jest-snapshot): fix typings of snapshot matchers (<a href=\"https://github.com/facebook/jest/tree/HEAD/packages/expect/issues/13240\">#13240</a>)</li>\n<li><a href=\"https://github.com/facebook/jest/commit/0aa9b0233e33cec32cd89214cd4ac2e07a81ca54\"><code>0aa9b02</code></a> fix(tests): clean up <code>jest.Mock</code> usage in tests (<a href=\"https://github.com/facebook/jest/tree/HEAD/packages/expect/issues/13238\">#13238</a>)</li>\n<li><a href=\"https://github.com/facebook/jest/commit/616fcf56bb8481d29ba29cc34be32a92b1cf85e5\"><code>616fcf5</code></a> v29.0.2</li>\n<li><a href=\"https://github.com/facebook/jest/commit/132e815f95cad24b0ea28cd2f3aecaf8c87b047a\"><code>132e815</code></a> chore: update to TypeScript 4.8 (<a href=\"https://github.com/facebook/jest/tree/HEAD/packages/expect/issues/13177\">#13177</a>)</li>\n<li>Additional commits viewable in <a href=\"https://github.com/facebook/jest/commits/v29.1.0/packages/expect\">compare view</a></li>\n</ul>\n</details>\n<br />\n\n\n[![Dependabot compatibility score](https://dependabot-badges.githubapp.com/badges/compatibility_score?dependency-name=expect&package-manager=npm_and_yarn&previous-version=28.1.3&new-version=29.1.0)](https://docs.github.com/en/github/managing-security-vulnerabilities/about-dependabot-security-updates#about-compatibility-scores)\n\nDependabot will resolve any conflicts with this PR as long as you don't alter it yourself. You can also trigger a rebase manually by commenting `@dependabot rebase`.\n\n[//]: # (dependabot-automerge-start)\n[//]: # (dependabot-automerge-end)\n\n---\n\n<details>\n<summary>Dependabot commands and options</summary>\n<br />\n\nYou can trigger Dependabot actions by commenting on this PR:\n- `@dependabot rebase` will rebase this PR\n- `@dependabot recreate` will recreate this PR, overwriting any edits that have been made to it\n- `@dependabot merge` will merge this PR after your CI passes on it\n- `@dependabot squash and merge` will squash and merge this PR after your CI passes on it\n- `@dependabot cancel merge` will cancel a previously requested merge and block automerging\n- `@dependabot reopen` will reopen this PR if it is closed\n- `@dependabot close` will close this PR and stop Dependabot recreating it. You can achieve the same result by closing it manually\n- `@dependabot ignore this major version` will close this PR and stop Dependabot creating any more for this major version (unless you reopen the PR or upgrade to it yourself)\n- `@dependabot ignore this minor version` will close this PR and stop Dependabot creating any more for this minor version (unless you reopen the PR or upgrade to it yourself)\n- `@dependabot ignore this dependency` will close this PR and stop Dependabot creating any more for this dependency (unless you reopen the PR or upgrade to it yourself)\n\n\n</details>",
    "changed_files": 1,
    "closed_at": "2022-09-30T17:46:44Z",
    "comment_data": [],
    "comment_regular_data": [],
    "comments": 0,
    "comments_url": "https://api.github.com/repos/PrismarineJS/prismarine-chat/issues/76/comments",
    "commit_data": [
        {
            "author": {
                "avatar_url": "https://avatars.githubusercontent.com/in/29110?v=4",
                "events_url": "https://api.github.com/users/dependabot%5Bbot%5D/events{/privacy}",
                "followers_url": "https://api.github.com/users/dependabot%5Bbot%5D/followers",
                "following_url": "https://api.github.com/users/dependabot%5Bbot%5D/following{/other_user}",
                "gists_url": "https://api.github.com/users/dependabot%5Bbot%5D/gists{/gist_id}",
                "gravatar_id": "",
                "html_url": "https://github.com/apps/dependabot",
                "id": 49699333,
                "login": "dependabot[bot]",
                "node_id": "MDM6Qm90NDk2OTkzMzM=",
                "organizations_url": "https://api.github.com/users/dependabot%5Bbot%5D/orgs",
                "received_events_url": "https://api.github.com/users/dependabot%5Bbot%5D/received_events",
                "repos_url": "https://api.github.com/users/dependabot%5Bbot%5D/repos",
                "site_admin": false,
                "starred_url": "https://api.github.com/users/dependabot%5Bbot%5D/starred{/owner}{/repo}",
                "subscriptions_url": "https://api.github.com/users/dependabot%5Bbot%5D/subscriptions",
                "type": "Bot",
                "url": "https://api.github.com/users/dependabot%5Bbot%5D"
            },
            "comments_url": "https://api.github.com/repos/PrismarineJS/prismarine-chat/commits/e40781ddc5f2fdfe479c149f501cb1983dfa11f5/comments",
            "commit": {
                "author": {
                    "date": "2022-09-28T21:24:31Z",
                    "email": "49699333+dependabot[bot]@users.noreply.github.com",
                    "name": "dependabot[bot]"
                },
                "comment_count": 0,
                "committer": {
                    "date": "2022-09-28T21:24:31Z",
                    "email": "noreply@github.com",
                    "name": "GitHub"
                },
                "message": "Bump expect from 28.1.3 to 29.1.0\n\nBumps [expect](https://github.com/facebook/jest/tree/HEAD/packages/expect) from 28.1.3 to 29.1.0.\n- [Release notes](https://github.com/facebook/jest/releases)\n- [Changelog](https://github.com/facebook/jest/blob/main/CHANGELOG.md)\n- [Commits](https://github.com/facebook/jest/commits/v29.1.0/packages/expect)\n\n---\nupdated-dependencies:\n- dependency-name: expect\n  dependency-type: direct:development\n  update-type: version-update:semver-major\n...\n\nSigned-off-by: dependabot[bot] <support@github.com>",
                "tree": {
                    "sha": "92023846937f269584d766a4098bafd2ae60b949",
                    "url": "https://api.github.com/repos/PrismarineJS/prismarine-chat/git/trees/92023846937f269584d766a4098bafd2ae60b949"
                },
                "url": "https://api.github.com/repos/PrismarineJS/prismarine-chat/git/commits/e40781ddc5f2fdfe479c149f501cb1983dfa11f5",
                "verification": {
                    "payload": "tree 92023846937f269584d766a4098bafd2ae60b949\nparent 9127eb1e58ca5015d2d78e3a0d5be4f54318e719\nauthor dependabot[bot] <49699333+dependabot[bot]@users.noreply.github.com> 1664400271 +0000\ncommitter GitHub <noreply@github.com> 1664400271 +0000\n\nBump expect from 28.1.3 to 29.1.0\n\nBumps [expect](https://github.com/facebook/jest/tree/HEAD/packages/expect) from 28.1.3 to 29.1.0.\n- [Release notes](https://github.com/facebook/jest/releases)\n- [Changelog](https://github.com/facebook/jest/blob/main/CHANGELOG.md)\n- [Commits](https://github.com/facebook/jest/commits/v29.1.0/packages/expect)\n\n---\nupdated-dependencies:\n- dependency-name: expect\n  dependency-type: direct:development\n  update-type: version-update:semver-major\n...\n\nSigned-off-by: dependabot[bot] <support@github.com>",
                    "reason": "valid",
                    "signature": "-----BEGIN PGP SIGNATURE-----\n\nwsBcBAABCAAQBQJjNLuPCRBK7hj4Ov3rIwAAAz0IAGCOSW75YxMBZTD1F5QihI7X\n0z8yfWQ7rHhCgEQiHWLmI8uRrMYT0uOvxVj1B8wfax/B3KNE4KMHN0zHB3aRbrie\nBG65Dd8el5e13707yMwUMOovNOYyZTe639CnQO1iPO8nmxU+uwEdijrkdsjyBmr8\nS8Ig8rr7aI2IrJFuiMYDDR2HJ/4iLdNlPW7Bbfo1OAt2XJ5LaJfNRbrxVdq6uukX\ne0dRHx6LAqkVoZbgVuszUFGf648PBfXLHPKyM2TE2fyl9qZ4Xn3Bs5Et4+8pyBsK\nWxAncAPBw5my8OtOuybifrbiy+cmh1jWnkosnPDNeXtVjRdaKNn3CP+Tw9R+tHs=\n=Ris3\n-----END PGP SIGNATURE-----\n",
                    "verified": true
                }
            },
            "committer": {
                "avatar_url": "https://avatars.githubusercontent.com/u/19864447?v=4",
                "events_url": "https://api.github.com/users/web-flow/events{/privacy}",
                "followers_url": "https://api.github.com/users/web-flow/followers",
                "following_url": "https://api.github.com/users/web-flow/following{/other_user}",
                "gists_url": "https://api.github.com/users/web-flow/gists{/gist_id}",
                "gravatar_id": "",
                "html_url": "https://github.com/web-flow",
                "id": 19864447,
                "login": "web-flow",
                "node_id": "MDQ6VXNlcjE5ODY0NDQ3",
                "organizations_url": "https://api.github.com/users/web-flow/orgs",
                "received_events_url": "https://api.github.com/users/web-flow/received_events",
                "repos_url": "https://api.github.com/users/web-flow/repos",
                "site_admin": false,
                "starred_url": "https://api.github.com/users/web-flow/starred{/owner}{/repo}",
                "subscriptions_url": "https://api.github.com/users/web-flow/subscriptions",
                "type": "User",
                "url": "https://api.github.com/users/web-flow"
            },
            "html_url": "https://github.com/PrismarineJS/prismarine-chat/commit/e40781ddc5f2fdfe479c149f501cb1983dfa11f5",
            "node_id": "C_kwDOEKoX_doAKGU0MDc4MWRkYzVmMmZkZmU0NzljMTQ5ZjUwMWNiMTk4M2RmYTExZjU",
            "parents": [
                {
                    "html_url": "https://github.com/PrismarineJS/prismarine-chat/commit/9127eb1e58ca5015d2d78e3a0d5be4f54318e719",
                    "sha": "9127eb1e58ca5015d2d78e3a0d5be4f54318e719",
                    "url": "https://api.github.com/repos/PrismarineJS/prismarine-chat/commits/9127eb1e58ca5015d2d78e3a0d5be4f54318e719"
                }
            ],
            "sha": "e40781ddc5f2fdfe479c149f501cb1983dfa11f5",
            "url": "https://api.github.com/repos/PrismarineJS/prismarine-chat/commits/e40781ddc5f2fdfe479c149f501cb1983dfa11f5"
        }
    ],
    "commits": 1,
    "commits_url": "https://api.github.com/repos/PrismarineJS/prismarine-chat/pulls/76/commits",
    "created_at": "2022-09-28T21:24:32Z",
    "deletions": 1,
    "diff_url": "https://github.com/PrismarineJS/prismarine-chat/pull/76.diff",
    "draft": false,
    "head": {
        "label": "PrismarineJS:dependabot/npm_and_yarn/expect-29.1.0",
        "ref": "dependabot/npm_and_yarn/expect-29.1.0",
        "repo": {
            "allow_forking": true,
            "archive_url": "https://api.github.com/repos/PrismarineJS/prismarine-chat/{archive_format}{/ref}",
            "archived": false,
            "assignees_url": "https://api.github.com/repos/PrismarineJS/prismarine-chat/assignees{/user}",
            "blobs_url": "https://api.github.com/repos/PrismarineJS/prismarine-chat/git/blobs{/sha}",
            "branches_url": "https://api.github.com/repos/PrismarineJS/prismarine-chat/branches{/branch}",
            "clone_url": "https://github.com/PrismarineJS/prismarine-chat.git",
            "collaborators_url": "https://api.github.com/repos/PrismarineJS/prismarine-chat/collaborators{/collaborator}",
            "comments_url": "https://api.github.com/repos/PrismarineJS/prismarine-chat/comments{/number}",
            "commits_url": "https://api.github.com/repos/PrismarineJS/prismarine-chat/commits{/sha}",
            "compare_url": "https://api.github.com/repos/PrismarineJS/prismarine-chat/compare/{base}...{head}",
            "contents_url": "https://api.github.com/repos/PrismarineJS/prismarine-chat/contents/{+path}",
            "contributors_url": "https://api.github.com/repos/PrismarineJS/prismarine-chat/contributors",
            "created_at": "2020-07-14T12:45:45Z",
            "default_branch": "master",
            "deployments_url": "https://api.github.com/repos/PrismarineJS/prismarine-chat/deployments",
            "description": "A parser for a minecraft chat message",
            "disabled": false,
            "downloads_url": "https://api.github.com/repos/PrismarineJS/prismarine-chat/downloads",
            "events_url": "https://api.github.com/repos/PrismarineJS/prismarine-chat/events",
            "fork": false,
            "forks": 21,
            "forks_count": 21,
            "forks_url": "https://api.github.com/repos/PrismarineJS/prismarine-chat/forks",
            "full_name": "PrismarineJS/prismarine-chat",
            "git_commits_url": "https://api.github.com/repos/PrismarineJS/prismarine-chat/git/commits{/sha}",
            "git_refs_url": "https://api.github.com/repos/PrismarineJS/prismarine-chat/git/refs{/sha}",
            "git_tags_url": "https://api.github.com/repos/PrismarineJS/prismarine-chat/git/tags{/sha}",
            "git_url": "git://github.com/PrismarineJS/prismarine-chat.git",
            "has_discussions": false,
            "has_downloads": true,
            "has_issues": true,
            "has_pages": false,
            "has_projects": true,
            "has_wiki": true,
            "homepage": "",
            "hooks_url": "https://api.github.com/repos/PrismarineJS/prismarine-chat/hooks",
            "html_url": "https://github.com/PrismarineJS/prismarine-chat",
            "id": 279582717,
            "is_template": false,
            "issue_comment_url": "https://api.github.com/repos/PrismarineJS/prismarine-chat/issues/comments{/number}",
            "issue_events_url": "https://api.github.com/repos/PrismarineJS/prismarine-chat/issues/events{/number}",
            "issues_url": "https://api.github.com/repos/PrismarineJS/prismarine-chat/issues{/number}",
            "keys_url": "https://api.github.com/repos/PrismarineJS/prismarine-chat/keys{/key_id}",
            "labels_url": "https://api.github.com/repos/PrismarineJS/prismarine-chat/labels{/name}",
            "language": "JavaScript",
            "languages_url": "https://api.github.com/repos/PrismarineJS/prismarine-chat/languages",
            "license": {
                "key": "mit",
                "name": "MIT License",
                "node_id": "MDc6TGljZW5zZTEz",
                "spdx_id": "MIT",
                "url": "https://api.github.com/licenses/mit"
            },
            "merges_url": "https://api.github.com/repos/PrismarineJS/prismarine-chat/merges",
            "milestones_url": "https://api.github.com/repos/PrismarineJS/prismarine-chat/milestones{/number}",
            "mirror_url": null,
            "name": "prismarine-chat",
            "node_id": "MDEwOlJlcG9zaXRvcnkyNzk1ODI3MTc=",
            "notifications_url": "https://api.github.com/repos/PrismarineJS/prismarine-chat/notifications{?since,all,participating}",
            "open_issues": 13,
            "open_issues_count": 13,
            "owner": {
                "avatar_url": "https://avatars.githubusercontent.com/u/11053411?v=4",
                "events_url": "https://api.github.com/users/PrismarineJS/events{/privacy}",
                "followers_url": "https://api.github.com/users/PrismarineJS/followers",
                "following_url": "https://api.github.com/users/PrismarineJS/following{/other_user}",
                "gists_url": "https://api.github.com/users/PrismarineJS/gists{/gist_id}",
                "gravatar_id": "",
                "html_url": "https://github.com/PrismarineJS",
                "id": 11053411,
                "login": "PrismarineJS",
                "node_id": "MDEyOk9yZ2FuaXphdGlvbjExMDUzNDEx",
                "organizations_url": "https://api.github.com/users/PrismarineJS/orgs",
                "received_events_url": "https://api.github.com/users/PrismarineJS/received_events",
                "repos_url": "https://api.github.com/users/PrismarineJS/repos",
                "site_admin": false,
                "starred_url": "https://api.github.com/users/PrismarineJS/starred{/owner}{/repo}",
                "subscriptions_url": "https://api.github.com/users/PrismarineJS/subscriptions",
                "type": "Organization",
                "url": "https://api.github.com/users/PrismarineJS"
            },
            "private": false,
            "pulls_url": "https://api.github.com/repos/PrismarineJS/prismarine-chat/pulls{/number}",
            "pushed_at": "2023-04-16T21:44:32Z",
            "releases_url": "https://api.github.com/repos/PrismarineJS/prismarine-chat/releases{/id}",
            "size": 90,
            "ssh_url": "git@github.com:PrismarineJS/prismarine-chat.git",
            "stargazers_count": 24,
            "stargazers_url": "https://api.github.com/repos/PrismarineJS/prismarine-chat/stargazers",
            "statuses_url": "https://api.github.com/repos/PrismarineJS/prismarine-chat/statuses/{sha}",
            "subscribers_url": "https://api.github.com/repos/PrismarineJS/prismarine-chat/subscribers",
            "subscription_url": "https://api.github.com/repos/PrismarineJS/prismarine-chat/subscription",
            "svn_url": "https://github.com/PrismarineJS/prismarine-chat",
            "tags_url": "https://api.github.com/repos/PrismarineJS/prismarine-chat/tags",
            "teams_url": "https://api.github.com/repos/PrismarineJS/prismarine-chat/teams",
            "topics": [],
            "trees_url": "https://api.github.com/repos/PrismarineJS/prismarine-chat/git/trees{/sha}",
            "updated_at": "2022-12-11T21:09:39Z",
            "url": "https://api.github.com/repos/PrismarineJS/prismarine-chat",
            "visibility": "public",
            "watchers": 24,
            "watchers_count": 24,
            "web_commit_signoff_required": false
        },
        "sha": "e40781ddc5f2fdfe479c149f501cb1983dfa11f5",
        "user": {
            "avatar_url": "https://avatars.githubusercontent.com/u/11053411?v=4",
            "events_url": "https://api.github.com/users/PrismarineJS/events{/privacy}",
            "followers_url": "https://api.github.com/users/PrismarineJS/followers",
            "following_url": "https://api.github.com/users/PrismarineJS/following{/other_user}",
            "gists_url": "https://api.github.com/users/PrismarineJS/gists{/gist_id}",
            "gravatar_id": "",
            "html_url": "https://github.com/PrismarineJS",
            "id": 11053411,
            "login": "PrismarineJS",
            "node_id": "MDEyOk9yZ2FuaXphdGlvbjExMDUzNDEx",
            "organizations_url": "https://api.github.com/users/PrismarineJS/orgs",
            "received_events_url": "https://api.github.com/users/PrismarineJS/received_events",
            "repos_url": "https://api.github.com/users/PrismarineJS/repos",
            "site_admin": false,
            "starred_url": "https://api.github.com/users/PrismarineJS/starred{/owner}{/repo}",
            "subscriptions_url": "https://api.github.com/users/PrismarineJS/subscriptions",
            "type": "Organization",
            "url": "https://api.github.com/users/PrismarineJS"
        }
    },
    "html_url": "https://github.com/PrismarineJS/prismarine-chat/pull/76",
    "id": 1070558960,
    "issue_url": "https://api.github.com/repos/PrismarineJS/prismarine-chat/issues/76",
    "labels": [
        {
            "color": "0366d6",
            "default": false,
            "description": "Pull requests that update a dependency file",
            "id": 2761650344,
            "name": "dependencies",
            "node_id": "MDU6TGFiZWwyNzYxNjUwMzQ0",
            "url": "https://api.github.com/repos/PrismarineJS/prismarine-chat/labels/dependencies"
        }
    ],
    "locked": false,
    "maintainer_can_modify": false,
    "merge_commit_sha": "a965a72b9d441936392f3d03a368fe525f024e2f",
    "mergeable": null,
    "mergeable_state": "unknown",
    "merged": true,
    "merged_at": "2022-09-30T17:46:44Z",
    "merged_by": {
        "avatar_url": "https://avatars.githubusercontent.com/u/2346494?v=4",
        "events_url": "https://api.github.com/users/rom1504/events{/privacy}",
        "followers_url": "https://api.github.com/users/rom1504/followers",
        "following_url": "https://api.github.com/users/rom1504/following{/other_user}",
        "gists_url": "https://api.github.com/users/rom1504/gists{/gist_id}",
        "gravatar_id": "",
        "html_url": "https://github.com/rom1504",
        "id": 2346494,
        "login": "rom1504",
        "node_id": "MDQ6VXNlcjIzNDY0OTQ=",
        "organizations_url": "https://api.github.com/users/rom1504/orgs",
        "received_events_url": "https://api.github.com/users/rom1504/received_events",
        "repos_url": "https://api.github.com/users/rom1504/repos",
        "site_admin": false,
        "starred_url": "https://api.github.com/users/rom1504/starred{/owner}{/repo}",
        "subscriptions_url": "https://api.github.com/users/rom1504/subscriptions",
        "type": "User",
        "url": "https://api.github.com/users/rom1504"
    },
    "milestone": null,
    "node_id": "PR_kwDOEKoX_c4_z27w",
    "number": 76,
    "patch_url": "https://github.com/PrismarineJS/prismarine-chat/pull/76.patch",
    "rebaseable": null,
    "requested_reviewers": [],
    "requested_teams": [],
    "review_comment_url": "https://api.github.com/repos/PrismarineJS/prismarine-chat/pulls/comments{/number}",
    "review_comments": 0,
    "review_comments_url": "https://api.github.com/repos/PrismarineJS/prismarine-chat/pulls/76/comments",
    "state": "closed",
    "statuses_url": "https://api.github.com/repos/PrismarineJS/prismarine-chat/statuses/e40781ddc5f2fdfe479c149f501cb1983dfa11f5",
    "title": "Bump expect from 28.1.3 to 29.1.0",
    "updated_at": "2022-09-30T17:46:55Z",
    "url": "https://api.github.com/repos/PrismarineJS/prismarine-chat/pulls/76",
    "user": {
        "avatar_url": "https://avatars.githubusercontent.com/in/29110?v=4",
        "events_url": "https://api.github.com/users/dependabot%5Bbot%5D/events{/privacy}",
        "followers_url": "https://api.github.com/users/dependabot%5Bbot%5D/followers",
        "following_url": "https://api.github.com/users/dependabot%5Bbot%5D/following{/other_user}",
        "gists_url": "https://api.github.com/users/dependabot%5Bbot%5D/gists{/gist_id}",
        "gravatar_id": "",
        "html_url": "https://github.com/apps/dependabot",
        "id": 49699333,
        "login": "dependabot[bot]",
        "node_id": "MDM6Qm90NDk2OTkzMzM=",
        "organizations_url": "https://api.github.com/users/dependabot%5Bbot%5D/orgs",
        "received_events_url": "https://api.github.com/users/dependabot%5Bbot%5D/received_events",
        "repos_url": "https://api.github.com/users/dependabot%5Bbot%5D/repos",
        "site_admin": false,
        "starred_url": "https://api.github.com/users/dependabot%5Bbot%5D/starred{/owner}{/repo}",
        "subscriptions_url": "https://api.github.com/users/dependabot%5Bbot%5D/subscriptions",
        "type": "Bot",
        "url": "https://api.github.com/users/dependabot%5Bbot%5D"
    }
}