{
    "_links": {
        "comments": {
            "href": "https://api.github.com/repos/PrismarineJS/prismarine-chat/issues/83/comments"
        },
        "commits": {
            "href": "https://api.github.com/repos/PrismarineJS/prismarine-chat/pulls/83/commits"
        },
        "html": {
            "href": "https://github.com/PrismarineJS/prismarine-chat/pull/83"
        },
        "issue": {
            "href": "https://api.github.com/repos/PrismarineJS/prismarine-chat/issues/83"
        },
        "review_comment": {
            "href": "https://api.github.com/repos/PrismarineJS/prismarine-chat/pulls/comments{/number}"
        },
        "review_comments": {
            "href": "https://api.github.com/repos/PrismarineJS/prismarine-chat/pulls/83/comments"
        },
        "self": {
            "href": "https://api.github.com/repos/PrismarineJS/prismarine-chat/pulls/83"
        },
        "statuses": {
            "href": "https://api.github.com/repos/PrismarineJS/prismarine-chat/statuses/02ec9b1ea7d028c091e20cb5c30efd1a4caca5e8"
        }
    },
    "active_lock_reason": null,
    "additions": 55,
    "assignee": null,
    "assignees": [],
    "author_association": "CONTRIBUTOR",
    "auto_merge": null,
    "base": {
        "label": "PrismarineJS:master",
        "ref": "master",
        "repo": {
            "allow_forking": true,
            "archive_url": "https://api.github.com/repos/PrismarineJS/prismarine-chat/{archive_format}{/ref}",
            "archived": false,
            "assignees_url": "https://api.github.com/repos/PrismarineJS/prismarine-chat/assignees{/user}",
            "blobs_url": "https://api.github.com/repos/PrismarineJS/prismarine-chat/git/blobs{/sha}",
            "branches_url": "https://api.github.com/repos/PrismarineJS/prismarine-chat/branches{/branch}",
            "clone_url": "https://github.com/PrismarineJS/prismarine-chat.git",
            "collaborators_url": "https://api.github.com/repos/PrismarineJS/prismarine-chat/collaborators{/collaborator}",
            "comments_url": "https://api.github.com/repos/PrismarineJS/prismarine-chat/comments{/number}",
            "commits_url": "https://api.github.com/repos/PrismarineJS/prismarine-chat/commits{/sha}",
            "compare_url": "https://api.github.com/repos/PrismarineJS/prismarine-chat/compare/{base}...{head}",
            "contents_url": "https://api.github.com/repos/PrismarineJS/prismarine-chat/contents/{+path}",
            "contributors_url": "https://api.github.com/repos/PrismarineJS/prismarine-chat/contributors",
            "created_at": "2020-07-14T12:45:45Z",
            "default_branch": "master",
            "deployments_url": "https://api.github.com/repos/PrismarineJS/prismarine-chat/deployments",
            "description": "A parser for a minecraft chat message",
            "disabled": false,
            "downloads_url": "https://api.github.com/repos/PrismarineJS/prismarine-chat/downloads",
            "events_url": "https://api.github.com/repos/PrismarineJS/prismarine-chat/events",
            "fork": false,
            "forks": 21,
            "forks_count": 21,
            "forks_url": "https://api.github.com/repos/PrismarineJS/prismarine-chat/forks",
            "full_name": "PrismarineJS/prismarine-chat",
            "git_commits_url": "https://api.github.com/repos/PrismarineJS/prismarine-chat/git/commits{/sha}",
            "git_refs_url": "https://api.github.com/repos/PrismarineJS/prismarine-chat/git/refs{/sha}",
            "git_tags_url": "https://api.github.com/repos/PrismarineJS/prismarine-chat/git/tags{/sha}",
            "git_url": "git://github.com/PrismarineJS/prismarine-chat.git",
            "has_discussions": false,
            "has_downloads": true,
            "has_issues": true,
            "has_pages": false,
            "has_projects": true,
            "has_wiki": true,
            "homepage": "",
            "hooks_url": "https://api.github.com/repos/PrismarineJS/prismarine-chat/hooks",
            "html_url": "https://github.com/PrismarineJS/prismarine-chat",
            "id": 279582717,
            "is_template": false,
            "issue_comment_url": "https://api.github.com/repos/PrismarineJS/prismarine-chat/issues/comments{/number}",
            "issue_events_url": "https://api.github.com/repos/PrismarineJS/prismarine-chat/issues/events{/number}",
            "issues_url": "https://api.github.com/repos/PrismarineJS/prismarine-chat/issues{/number}",
            "keys_url": "https://api.github.com/repos/PrismarineJS/prismarine-chat/keys{/key_id}",
            "labels_url": "https://api.github.com/repos/PrismarineJS/prismarine-chat/labels{/name}",
            "language": "JavaScript",
            "languages_url": "https://api.github.com/repos/PrismarineJS/prismarine-chat/languages",
            "license": {
                "key": "mit",
                "name": "MIT License",
                "node_id": "MDc6TGljZW5zZTEz",
                "spdx_id": "MIT",
                "url": "https://api.github.com/licenses/mit"
            },
            "merges_url": "https://api.github.com/repos/PrismarineJS/prismarine-chat/merges",
            "milestones_url": "https://api.github.com/repos/PrismarineJS/prismarine-chat/milestones{/number}",
            "mirror_url": null,
            "name": "prismarine-chat",
            "node_id": "MDEwOlJlcG9zaXRvcnkyNzk1ODI3MTc=",
            "notifications_url": "https://api.github.com/repos/PrismarineJS/prismarine-chat/notifications{?since,all,participating}",
            "open_issues": 13,
            "open_issues_count": 13,
            "owner": {
                "avatar_url": "https://avatars.githubusercontent.com/u/11053411?v=4",
                "events_url": "https://api.github.com/users/PrismarineJS/events{/privacy}",
                "followers_url": "https://api.github.com/users/PrismarineJS/followers",
                "following_url": "https://api.github.com/users/PrismarineJS/following{/other_user}",
                "gists_url": "https://api.github.com/users/PrismarineJS/gists{/gist_id}",
                "gravatar_id": "",
                "html_url": "https://github.com/PrismarineJS",
                "id": 11053411,
                "login": "PrismarineJS",
                "node_id": "MDEyOk9yZ2FuaXphdGlvbjExMDUzNDEx",
                "organizations_url": "https://api.github.com/users/PrismarineJS/orgs",
                "received_events_url": "https://api.github.com/users/PrismarineJS/received_events",
                "repos_url": "https://api.github.com/users/PrismarineJS/repos",
                "site_admin": false,
                "starred_url": "https://api.github.com/users/PrismarineJS/starred{/owner}{/repo}",
                "subscriptions_url": "https://api.github.com/users/PrismarineJS/subscriptions",
                "type": "Organization",
                "url": "https://api.github.com/users/PrismarineJS"
            },
            "private": false,
            "pulls_url": "https://api.github.com/repos/PrismarineJS/prismarine-chat/pulls{/number}",
            "pushed_at": "2023-04-16T21:44:32Z",
            "releases_url": "https://api.github.com/repos/PrismarineJS/prismarine-chat/releases{/id}",
            "size": 90,
            "ssh_url": "git@github.com:PrismarineJS/prismarine-chat.git",
            "stargazers_count": 24,
            "stargazers_url": "https://api.github.com/repos/PrismarineJS/prismarine-chat/stargazers",
            "statuses_url": "https://api.github.com/repos/PrismarineJS/prismarine-chat/statuses/{sha}",
            "subscribers_url": "https://api.github.com/repos/PrismarineJS/prismarine-chat/subscribers",
            "subscription_url": "https://api.github.com/repos/PrismarineJS/prismarine-chat/subscription",
            "svn_url": "https://github.com/PrismarineJS/prismarine-chat",
            "tags_url": "https://api.github.com/repos/PrismarineJS/prismarine-chat/tags",
            "teams_url": "https://api.github.com/repos/PrismarineJS/prismarine-chat/teams",
            "topics": [],
            "trees_url": "https://api.github.com/repos/PrismarineJS/prismarine-chat/git/trees{/sha}",
            "updated_at": "2022-12-11T21:09:39Z",
            "url": "https://api.github.com/repos/PrismarineJS/prismarine-chat",
            "visibility": "public",
            "watchers": 24,
            "watchers_count": 24,
            "web_commit_signoff_required": false
        },
        "sha": "2ba443f8ae20609fb1ab893263936cff142db2e4",
        "user": {
            "avatar_url": "https://avatars.githubusercontent.com/u/11053411?v=4",
            "events_url": "https://api.github.com/users/PrismarineJS/events{/privacy}",
            "followers_url": "https://api.github.com/users/PrismarineJS/followers",
            "following_url": "https://api.github.com/users/PrismarineJS/following{/other_user}",
            "gists_url": "https://api.github.com/users/PrismarineJS/gists{/gist_id}",
            "gravatar_id": "",
            "html_url": "https://github.com/PrismarineJS",
            "id": 11053411,
            "login": "PrismarineJS",
            "node_id": "MDEyOk9yZ2FuaXphdGlvbjExMDUzNDEx",
            "organizations_url": "https://api.github.com/users/PrismarineJS/orgs",
            "received_events_url": "https://api.github.com/users/PrismarineJS/received_events",
            "repos_url": "https://api.github.com/users/PrismarineJS/repos",
            "site_admin": false,
            "starred_url": "https://api.github.com/users/PrismarineJS/starred{/owner}{/repo}",
            "subscriptions_url": "https://api.github.com/users/PrismarineJS/subscriptions",
            "type": "Organization",
            "url": "https://api.github.com/users/PrismarineJS"
        }
    },
    "body": "This PR fixes the `translation.test.invalid` exploit, adds support for translation keys that do not exist in the language (such as `[%s] %s › %s`), and makes `fromNetwork` return a `translate` component.",
    "changed_files": 4,
    "closed_at": "2022-11-29T02:08:33Z",
    "comment_data": [],
    "comment_regular_data": [
        {
            "author_association": "NONE",
            "body": "bump",
            "created_at": "2022-10-21T19:04:27Z",
            "html_url": "https://github.com/PrismarineJS/prismarine-chat/pull/83#issuecomment-1287336841",
            "id": 1287336841,
            "issue_url": "https://api.github.com/repos/PrismarineJS/prismarine-chat/issues/83",
            "node_id": "IC_kwDOEKoX_c5MuzOJ",
            "performed_via_github_app": null,
            "reactions": {
                "+1": 0,
                "-1": 0,
                "confused": 0,
                "eyes": 0,
                "heart": 0,
                "hooray": 0,
                "laugh": 0,
                "rocket": 0,
                "total_count": 0,
                "url": "https://api.github.com/repos/PrismarineJS/prismarine-chat/issues/comments/1287336841/reactions"
            },
            "updated_at": "2022-10-21T19:04:27Z",
            "url": "https://api.github.com/repos/PrismarineJS/prismarine-chat/issues/comments/1287336841",
            "user": {
                "avatar_url": "https://avatars.githubusercontent.com/u/17932849?v=4",
                "events_url": "https://api.github.com/users/Kate-Moss/events{/privacy}",
                "followers_url": "https://api.github.com/users/Kate-Moss/followers",
                "following_url": "https://api.github.com/users/Kate-Moss/following{/other_user}",
                "gists_url": "https://api.github.com/users/Kate-Moss/gists{/gist_id}",
                "gravatar_id": "",
                "html_url": "https://github.com/Kate-Moss",
                "id": 17932849,
                "login": "Kate-Moss",
                "node_id": "MDQ6VXNlcjE3OTMyODQ5",
                "organizations_url": "https://api.github.com/users/Kate-Moss/orgs",
                "received_events_url": "https://api.github.com/users/Kate-Moss/received_events",
                "repos_url": "https://api.github.com/users/Kate-Moss/repos",
                "site_admin": false,
                "starred_url": "https://api.github.com/users/Kate-Moss/starred{/owner}{/repo}",
                "subscriptions_url": "https://api.github.com/users/Kate-Moss/subscriptions",
                "type": "User",
                "url": "https://api.github.com/users/Kate-Moss"
            }
        },
        {
            "author_association": "CONTRIBUTOR",
            "body": "bump",
            "created_at": "2022-10-28T14:29:24Z",
            "html_url": "https://github.com/PrismarineJS/prismarine-chat/pull/83#issuecomment-1295071789",
            "id": 1295071789,
            "issue_url": "https://api.github.com/repos/PrismarineJS/prismarine-chat/issues/83",
            "node_id": "IC_kwDOEKoX_c5NMTot",
            "performed_via_github_app": null,
            "reactions": {
                "+1": 0,
                "-1": 0,
                "confused": 0,
                "eyes": 0,
                "heart": 0,
                "hooray": 0,
                "laugh": 0,
                "rocket": 0,
                "total_count": 0,
                "url": "https://api.github.com/repos/PrismarineJS/prismarine-chat/issues/comments/1295071789/reactions"
            },
            "updated_at": "2022-10-28T14:29:24Z",
            "url": "https://api.github.com/repos/PrismarineJS/prismarine-chat/issues/comments/1295071789",
            "user": {
                "avatar_url": "https://avatars.githubusercontent.com/u/65827213?v=4",
                "events_url": "https://api.github.com/users/ChipmunkMC/events{/privacy}",
                "followers_url": "https://api.github.com/users/ChipmunkMC/followers",
                "following_url": "https://api.github.com/users/ChipmunkMC/following{/other_user}",
                "gists_url": "https://api.github.com/users/ChipmunkMC/gists{/gist_id}",
                "gravatar_id": "",
                "html_url": "https://github.com/ChipmunkMC",
                "id": 65827213,
                "login": "ChipmunkMC",
                "node_id": "MDQ6VXNlcjY1ODI3MjEz",
                "organizations_url": "https://api.github.com/users/ChipmunkMC/orgs",
                "received_events_url": "https://api.github.com/users/ChipmunkMC/received_events",
                "repos_url": "https://api.github.com/users/ChipmunkMC/repos",
                "site_admin": false,
                "starred_url": "https://api.github.com/users/ChipmunkMC/starred{/owner}{/repo}",
                "subscriptions_url": "https://api.github.com/users/ChipmunkMC/subscriptions",
                "type": "User",
                "url": "https://api.github.com/users/ChipmunkMC"
            }
        },
        {
            "author_association": "NONE",
            "body": "bump",
            "created_at": "2022-11-18T21:19:33Z",
            "html_url": "https://github.com/PrismarineJS/prismarine-chat/pull/83#issuecomment-1320533481",
            "id": 1320533481,
            "issue_url": "https://api.github.com/repos/PrismarineJS/prismarine-chat/issues/83",
            "node_id": "IC_kwDOEKoX_c5Otb3p",
            "performed_via_github_app": null,
            "reactions": {
                "+1": 0,
                "-1": 0,
                "confused": 0,
                "eyes": 0,
                "heart": 0,
                "hooray": 0,
                "laugh": 0,
                "rocket": 0,
                "total_count": 0,
                "url": "https://api.github.com/repos/PrismarineJS/prismarine-chat/issues/comments/1320533481/reactions"
            },
            "updated_at": "2022-11-18T21:19:33Z",
            "url": "https://api.github.com/repos/PrismarineJS/prismarine-chat/issues/comments/1320533481",
            "user": {
                "avatar_url": "https://avatars.githubusercontent.com/u/17932849?v=4",
                "events_url": "https://api.github.com/users/Kate-Moss/events{/privacy}",
                "followers_url": "https://api.github.com/users/Kate-Moss/followers",
                "following_url": "https://api.github.com/users/Kate-Moss/following{/other_user}",
                "gists_url": "https://api.github.com/users/Kate-Moss/gists{/gist_id}",
                "gravatar_id": "",
                "html_url": "https://github.com/Kate-Moss",
                "id": 17932849,
                "login": "Kate-Moss",
                "node_id": "MDQ6VXNlcjE3OTMyODQ5",
                "organizations_url": "https://api.github.com/users/Kate-Moss/orgs",
                "received_events_url": "https://api.github.com/users/Kate-Moss/received_events",
                "repos_url": "https://api.github.com/users/Kate-Moss/repos",
                "site_admin": false,
                "starred_url": "https://api.github.com/users/Kate-Moss/starred{/owner}{/repo}",
                "subscriptions_url": "https://api.github.com/users/Kate-Moss/subscriptions",
                "type": "User",
                "url": "https://api.github.com/users/Kate-Moss"
            }
        }
    ],
    "comments": 3,
    "comments_url": "https://api.github.com/repos/PrismarineJS/prismarine-chat/issues/83/comments",
    "commit_data": [
        {
            "author": {
                "avatar_url": "https://avatars.githubusercontent.com/u/65827213?v=4",
                "events_url": "https://api.github.com/users/ChipmunkMC/events{/privacy}",
                "followers_url": "https://api.github.com/users/ChipmunkMC/followers",
                "following_url": "https://api.github.com/users/ChipmunkMC/following{/other_user}",
                "gists_url": "https://api.github.com/users/ChipmunkMC/gists{/gist_id}",
                "gravatar_id": "",
                "html_url": "https://github.com/ChipmunkMC",
                "id": 65827213,
                "login": "ChipmunkMC",
                "node_id": "MDQ6VXNlcjY1ODI3MjEz",
                "organizations_url": "https://api.github.com/users/ChipmunkMC/orgs",
                "received_events_url": "https://api.github.com/users/ChipmunkMC/received_events",
                "repos_url": "https://api.github.com/users/ChipmunkMC/repos",
                "site_admin": false,
                "starred_url": "https://api.github.com/users/ChipmunkMC/starred{/owner}{/repo}",
                "subscriptions_url": "https://api.github.com/users/ChipmunkMC/subscriptions",
                "type": "User",
                "url": "https://api.github.com/users/ChipmunkMC"
            },
            "comments_url": "https://api.github.com/repos/PrismarineJS/prismarine-chat/commits/04d219a16a3298e77567df76d75e5a133be68ce7/comments",
            "commit": {
                "author": {
                    "date": "2022-10-17T01:09:24Z",
                    "email": "65827213+ChipmunkMC@users.noreply.github.com",
                    "name": "Chip"
                },
                "comment_count": 0,
                "committer": {
                    "date": "2022-10-17T01:09:24Z",
                    "email": "noreply@github.com",
                    "name": "GitHub"
                },
                "message": "Improve how `translate` components are handled\n\nIn the `toString` and `toMotd` methods of `ChatMessage`, `lang[this.translate] ?? this.translate` is now used to get the translation value (correctly), and uses of vsprintf are now try-catch'ed to handle invalid translations (`translation.test.invalid`, `%`, etc...)",
                "tree": {
                    "sha": "ceb1999c9f67c1c5d7806d5d5db58382adf406d6",
                    "url": "https://api.github.com/repos/PrismarineJS/prismarine-chat/git/trees/ceb1999c9f67c1c5d7806d5d5db58382adf406d6"
                },
                "url": "https://api.github.com/repos/PrismarineJS/prismarine-chat/git/commits/04d219a16a3298e77567df76d75e5a133be68ce7",
                "verification": {
                    "payload": "tree ceb1999c9f67c1c5d7806d5d5db58382adf406d6\nparent 2ba443f8ae20609fb1ab893263936cff142db2e4\nauthor Chip <65827213+ChipmunkMC@users.noreply.github.com> 1665968964 +0000\ncommitter GitHub <noreply@github.com> 1665968964 +0000\n\nImprove how `translate` components are handled\n\nIn the `toString` and `toMotd` methods of `ChatMessage`, `lang[this.translate] ?? this.translate` is now used to get the translation value (correctly), and uses of vsprintf are now try-catch'ed to handle invalid translations (`translation.test.invalid`, `%`, etc...)",
                    "reason": "valid",
                    "signature": "-----BEGIN PGP SIGNATURE-----\n\nwsBcBAABCAAQBQJjTKtECRBK7hj4Ov3rIwAAVJUIAFoCCw/Kk339sLBOKWImfFth\nyzfDOHTHm/9iJVQ68zU0R11dx2OI9q+JhFOlWpwTv2/iveT2OvZ3Mdxqo5Bz9OJr\nAe3Iy4PhTRArIQJLMvG8cL47WrnB2FkRcXTtUv6YFzTcpX/8m1lSERb/LFXpl2eb\nMh7FmMJhbebgsVOd08mx3hHkES7ViN0T3M7a/WR41ddTPuXjUDn68jpra4dmMtuu\nHCdfvBBTvlw1hKtAARCDKaE4vXOcZr2nOKFwZXehVujQnSpRqoZP5OtOW21tUEwv\nZzPXOzfFtPMruRRJTmdMONkNix1GQkrhcc8PI8BaprIyBfrKAbRYxDkG2VE2Ibc=\n=4plP\n-----END PGP SIGNATURE-----\n",
                    "verified": true
                }
            },
            "committer": {
                "avatar_url": "https://avatars.githubusercontent.com/u/19864447?v=4",
                "events_url": "https://api.github.com/users/web-flow/events{/privacy}",
                "followers_url": "https://api.github.com/users/web-flow/followers",
                "following_url": "https://api.github.com/users/web-flow/following{/other_user}",
                "gists_url": "https://api.github.com/users/web-flow/gists{/gist_id}",
                "gravatar_id": "",
                "html_url": "https://github.com/web-flow",
                "id": 19864447,
                "login": "web-flow",
                "node_id": "MDQ6VXNlcjE5ODY0NDQ3",
                "organizations_url": "https://api.github.com/users/web-flow/orgs",
                "received_events_url": "https://api.github.com/users/web-flow/received_events",
                "repos_url": "https://api.github.com/users/web-flow/repos",
                "site_admin": false,
                "starred_url": "https://api.github.com/users/web-flow/starred{/owner}{/repo}",
                "subscriptions_url": "https://api.github.com/users/web-flow/subscriptions",
                "type": "User",
                "url": "https://api.github.com/users/web-flow"
            },
            "html_url": "https://github.com/PrismarineJS/prismarine-chat/commit/04d219a16a3298e77567df76d75e5a133be68ce7",
            "node_id": "C_kwDOIPBdE9oAKDA0ZDIxOWExNmEzMjk4ZTc3NTY3ZGY3NmQ3NWU1YTEzM2JlNjhjZTc",
            "parents": [
                {
                    "html_url": "https://github.com/PrismarineJS/prismarine-chat/commit/2ba443f8ae20609fb1ab893263936cff142db2e4",
                    "sha": "2ba443f8ae20609fb1ab893263936cff142db2e4",
                    "url": "https://api.github.com/repos/PrismarineJS/prismarine-chat/commits/2ba443f8ae20609fb1ab893263936cff142db2e4"
                }
            ],
            "sha": "04d219a16a3298e77567df76d75e5a133be68ce7",
            "url": "https://api.github.com/repos/PrismarineJS/prismarine-chat/commits/04d219a16a3298e77567df76d75e5a133be68ce7"
        },
        {
            "author": {
                "avatar_url": "https://avatars.githubusercontent.com/u/65827213?v=4",
                "events_url": "https://api.github.com/users/ChipmunkMC/events{/privacy}",
                "followers_url": "https://api.github.com/users/ChipmunkMC/followers",
                "following_url": "https://api.github.com/users/ChipmunkMC/following{/other_user}",
                "gists_url": "https://api.github.com/users/ChipmunkMC/gists{/gist_id}",
                "gravatar_id": "",
                "html_url": "https://github.com/ChipmunkMC",
                "id": 65827213,
                "login": "ChipmunkMC",
                "node_id": "MDQ6VXNlcjY1ODI3MjEz",
                "organizations_url": "https://api.github.com/users/ChipmunkMC/orgs",
                "received_events_url": "https://api.github.com/users/ChipmunkMC/received_events",
                "repos_url": "https://api.github.com/users/ChipmunkMC/repos",
                "site_admin": false,
                "starred_url": "https://api.github.com/users/ChipmunkMC/starred{/owner}{/repo}",
                "subscriptions_url": "https://api.github.com/users/ChipmunkMC/subscriptions",
                "type": "User",
                "url": "https://api.github.com/users/ChipmunkMC"
            },
            "comments_url": "https://api.github.com/repos/PrismarineJS/prismarine-chat/commits/58674787bad59e230e2cf4780f4cf869ee5679f2/comments",
            "commit": {
                "author": {
                    "date": "2022-10-17T01:23:26Z",
                    "email": "65827213+ChipmunkMC@users.noreply.github.com",
                    "name": "Chip"
                },
                "comment_count": 0,
                "committer": {
                    "date": "2022-10-17T01:23:26Z",
                    "email": "noreply@github.com",
                    "name": "GitHub"
                },
                "message": "Use a `translate` component for `fromNetwork`",
                "tree": {
                    "sha": "0f7cbad2d1593e9eb6f1ff8c5916b4c8bb0fc481",
                    "url": "https://api.github.com/repos/PrismarineJS/prismarine-chat/git/trees/0f7cbad2d1593e9eb6f1ff8c5916b4c8bb0fc481"
                },
                "url": "https://api.github.com/repos/PrismarineJS/prismarine-chat/git/commits/58674787bad59e230e2cf4780f4cf869ee5679f2",
                "verification": {
                    "payload": "tree 0f7cbad2d1593e9eb6f1ff8c5916b4c8bb0fc481\nparent 04d219a16a3298e77567df76d75e5a133be68ce7\nauthor Chip <65827213+ChipmunkMC@users.noreply.github.com> 1665969806 +0000\ncommitter GitHub <noreply@github.com> 1665969806 +0000\n\nUse a `translate` component for `fromNetwork`",
                    "reason": "valid",
                    "signature": "-----BEGIN PGP SIGNATURE-----\n\nwsBcBAABCAAQBQJjTK6OCRBK7hj4Ov3rIwAA4AcIAHOi7VNcNvK2Surbq4dwwItC\nz9WKrUSGP6zRloNnz7xI5rizr/OQxlUfkf4HyVGW4uaqdeEzyaPaZOBnDJjt/Ivv\naL1GLHR3iT+9khJYabG9QNaNIgAO6tRIcgcJ4PfZS93hAvdPilwsybYiHYuYOsgI\nd8u+pbQ9+RjkLigIH2MPqQ0QwMWdeRl2RPtpUQXOZqbU0VB+pqoJtQJ05oRcZe7V\nbThv1R50L27TmXrXAVm4xutA0zmV3BB4xgdCp+xc8s7ewAMOGMdcBCK8Ncvz//qq\nll5LBexxC959wHT8I8pUtS1VjY9VARC2jVj9MUKRTDOticQoufMhrm+gCO+B8/Q=\n=ODJh\n-----END PGP SIGNATURE-----\n",
                    "verified": true
                }
            },
            "committer": {
                "avatar_url": "https://avatars.githubusercontent.com/u/19864447?v=4",
                "events_url": "https://api.github.com/users/web-flow/events{/privacy}",
                "followers_url": "https://api.github.com/users/web-flow/followers",
                "following_url": "https://api.github.com/users/web-flow/following{/other_user}",
                "gists_url": "https://api.github.com/users/web-flow/gists{/gist_id}",
                "gravatar_id": "",
                "html_url": "https://github.com/web-flow",
                "id": 19864447,
                "login": "web-flow",
                "node_id": "MDQ6VXNlcjE5ODY0NDQ3",
                "organizations_url": "https://api.github.com/users/web-flow/orgs",
                "received_events_url": "https://api.github.com/users/web-flow/received_events",
                "repos_url": "https://api.github.com/users/web-flow/repos",
                "site_admin": false,
                "starred_url": "https://api.github.com/users/web-flow/starred{/owner}{/repo}",
                "subscriptions_url": "https://api.github.com/users/web-flow/subscriptions",
                "type": "User",
                "url": "https://api.github.com/users/web-flow"
            },
            "html_url": "https://github.com/PrismarineJS/prismarine-chat/commit/58674787bad59e230e2cf4780f4cf869ee5679f2",
            "node_id": "C_kwDOIPBdE9oAKDU4Njc0Nzg3YmFkNTllMjMwZTJjZjQ3ODBmNGNmODY5ZWU1Njc5ZjI",
            "parents": [
                {
                    "html_url": "https://github.com/PrismarineJS/prismarine-chat/commit/04d219a16a3298e77567df76d75e5a133be68ce7",
                    "sha": "04d219a16a3298e77567df76d75e5a133be68ce7",
                    "url": "https://api.github.com/repos/PrismarineJS/prismarine-chat/commits/04d219a16a3298e77567df76d75e5a133be68ce7"
                }
            ],
            "sha": "58674787bad59e230e2cf4780f4cf869ee5679f2",
            "url": "https://api.github.com/repos/PrismarineJS/prismarine-chat/commits/58674787bad59e230e2cf4780f4cf869ee5679f2"
        },
        {
            "author": {
                "avatar_url": "https://avatars.githubusercontent.com/u/65827213?v=4",
                "events_url": "https://api.github.com/users/ChipmunkMC/events{/privacy}",
                "followers_url": "https://api.github.com/users/ChipmunkMC/followers",
                "following_url": "https://api.github.com/users/ChipmunkMC/following{/other_user}",
                "gists_url": "https://api.github.com/users/ChipmunkMC/gists{/gist_id}",
                "gravatar_id": "",
                "html_url": "https://github.com/ChipmunkMC",
                "id": 65827213,
                "login": "ChipmunkMC",
                "node_id": "MDQ6VXNlcjY1ODI3MjEz",
                "organizations_url": "https://api.github.com/users/ChipmunkMC/orgs",
                "received_events_url": "https://api.github.com/users/ChipmunkMC/received_events",
                "repos_url": "https://api.github.com/users/ChipmunkMC/repos",
                "site_admin": false,
                "starred_url": "https://api.github.com/users/ChipmunkMC/starred{/owner}{/repo}",
                "subscriptions_url": "https://api.github.com/users/ChipmunkMC/subscriptions",
                "type": "User",
                "url": "https://api.github.com/users/ChipmunkMC"
            },
            "comments_url": "https://api.github.com/repos/PrismarineJS/prismarine-chat/commits/8b7ea007e4ac5db4d8981211040c18a73e34adb4/comments",
            "commit": {
                "author": {
                    "date": "2022-10-17T01:30:38Z",
                    "email": "65827213+ChipmunkMC@users.noreply.github.com",
                    "name": "Chip"
                },
                "comment_count": 0,
                "committer": {
                    "date": "2022-10-17T01:30:38Z",
                    "email": "noreply@github.com",
                    "name": "GitHub"
                },
                "message": "Tests",
                "tree": {
                    "sha": "05a88e0bbc03eb22d1588dfa86ae77b7ea317504",
                    "url": "https://api.github.com/repos/PrismarineJS/prismarine-chat/git/trees/05a88e0bbc03eb22d1588dfa86ae77b7ea317504"
                },
                "url": "https://api.github.com/repos/PrismarineJS/prismarine-chat/git/commits/8b7ea007e4ac5db4d8981211040c18a73e34adb4",
                "verification": {
                    "payload": "tree 05a88e0bbc03eb22d1588dfa86ae77b7ea317504\nparent 58674787bad59e230e2cf4780f4cf869ee5679f2\nauthor Chip <65827213+ChipmunkMC@users.noreply.github.com> 1665970238 +0000\ncommitter GitHub <noreply@github.com> 1665970238 +0000\n\nTests",
                    "reason": "valid",
                    "signature": "-----BEGIN PGP SIGNATURE-----\n\nwsBcBAABCAAQBQJjTLA+CRBK7hj4Ov3rIwAAtYAIAK3dE2Nxt80f3C0S9+PMnTbr\n1XPEqSFKv2AZa0vi7+Q9ZZ1U2KCPoTaky9jn4NFeP3f2k6J0ImX1gvjS/knpmAiH\ntfWj0gnPsmBfUDLD+9zof1jG3dKNecUZVDkGzhTnLy48Tn+60B7HtCzopVUETvpe\nWM8EVUREBo31rw6/smqJW3dgw8qmgJV+POGfKbLwRSWEb0IDBE6tu8KNYRE4+DDH\nIG/nw2kHw3lvxfJLZwjWabC3SVwIV/nMw18Cz1FbBjMJgvTMxINnhNzwfD5yBFq1\n7aedRQtPDdx1XTgzwwopvL0tv/d7nAG7KdL5hYieodWNjtbeR/BL/b3xk0dx4vM=\n=+WQZ\n-----END PGP SIGNATURE-----\n",
                    "verified": true
                }
            },
            "committer": {
                "avatar_url": "https://avatars.githubusercontent.com/u/19864447?v=4",
                "events_url": "https://api.github.com/users/web-flow/events{/privacy}",
                "followers_url": "https://api.github.com/users/web-flow/followers",
                "following_url": "https://api.github.com/users/web-flow/following{/other_user}",
                "gists_url": "https://api.github.com/users/web-flow/gists{/gist_id}",
                "gravatar_id": "",
                "html_url": "https://github.com/web-flow",
                "id": 19864447,
                "login": "web-flow",
                "node_id": "MDQ6VXNlcjE5ODY0NDQ3",
                "organizations_url": "https://api.github.com/users/web-flow/orgs",
                "received_events_url": "https://api.github.com/users/web-flow/received_events",
                "repos_url": "https://api.github.com/users/web-flow/repos",
                "site_admin": false,
                "starred_url": "https://api.github.com/users/web-flow/starred{/owner}{/repo}",
                "subscriptions_url": "https://api.github.com/users/web-flow/subscriptions",
                "type": "User",
                "url": "https://api.github.com/users/web-flow"
            },
            "html_url": "https://github.com/PrismarineJS/prismarine-chat/commit/8b7ea007e4ac5db4d8981211040c18a73e34adb4",
            "node_id": "C_kwDOIPBdE9oAKDhiN2VhMDA3ZTRhYzVkYjRkODk4MTIxMTA0MGMxOGE3M2UzNGFkYjQ",
            "parents": [
                {
                    "html_url": "https://github.com/PrismarineJS/prismarine-chat/commit/58674787bad59e230e2cf4780f4cf869ee5679f2",
                    "sha": "58674787bad59e230e2cf4780f4cf869ee5679f2",
                    "url": "https://api.github.com/repos/PrismarineJS/prismarine-chat/commits/58674787bad59e230e2cf4780f4cf869ee5679f2"
                }
            ],
            "sha": "8b7ea007e4ac5db4d8981211040c18a73e34adb4",
            "url": "https://api.github.com/repos/PrismarineJS/prismarine-chat/commits/8b7ea007e4ac5db4d8981211040c18a73e34adb4"
        },
        {
            "author": {
                "avatar_url": "https://avatars.githubusercontent.com/u/65827213?v=4",
                "events_url": "https://api.github.com/users/ChipmunkMC/events{/privacy}",
                "followers_url": "https://api.github.com/users/ChipmunkMC/followers",
                "following_url": "https://api.github.com/users/ChipmunkMC/following{/other_user}",
                "gists_url": "https://api.github.com/users/ChipmunkMC/gists{/gist_id}",
                "gravatar_id": "",
                "html_url": "https://github.com/ChipmunkMC",
                "id": 65827213,
                "login": "ChipmunkMC",
                "node_id": "MDQ6VXNlcjY1ODI3MjEz",
                "organizations_url": "https://api.github.com/users/ChipmunkMC/orgs",
                "received_events_url": "https://api.github.com/users/ChipmunkMC/received_events",
                "repos_url": "https://api.github.com/users/ChipmunkMC/repos",
                "site_admin": false,
                "starred_url": "https://api.github.com/users/ChipmunkMC/starred{/owner}{/repo}",
                "subscriptions_url": "https://api.github.com/users/ChipmunkMC/subscriptions",
                "type": "User",
                "url": "https://api.github.com/users/ChipmunkMC"
            },
            "comments_url": "https://api.github.com/repos/PrismarineJS/prismarine-chat/commits/a34a1e07949be1ae69aebec646749ca8018bca20/comments",
            "commit": {
                "author": {
                    "date": "2022-10-17T01:38:11Z",
                    "email": "65827213+ChipmunkMC@users.noreply.github.com",
                    "name": "Chip"
                },
                "comment_count": 0,
                "committer": {
                    "date": "2022-10-17T01:38:11Z",
                    "email": "noreply@github.com",
                    "name": "GitHub"
                },
                "message": "Invalid test\n\ni forgor :skull:",
                "tree": {
                    "sha": "72f8862a3fcb24c73c1d79f2401b9cc2680b05eb",
                    "url": "https://api.github.com/repos/PrismarineJS/prismarine-chat/git/trees/72f8862a3fcb24c73c1d79f2401b9cc2680b05eb"
                },
                "url": "https://api.github.com/repos/PrismarineJS/prismarine-chat/git/commits/a34a1e07949be1ae69aebec646749ca8018bca20",
                "verification": {
                    "payload": "tree 72f8862a3fcb24c73c1d79f2401b9cc2680b05eb\nparent 8b7ea007e4ac5db4d8981211040c18a73e34adb4\nauthor Chip <65827213+ChipmunkMC@users.noreply.github.com> 1665970691 +0000\ncommitter GitHub <noreply@github.com> 1665970691 +0000\n\nInvalid test\n\ni forgor :skull:",
                    "reason": "valid",
                    "signature": "-----BEGIN PGP SIGNATURE-----\n\nwsBcBAABCAAQBQJjTLIDCRBK7hj4Ov3rIwAADuUIAFdz4le3qpk2JYfa6PJdP2Ig\nPSyZgqu2R83tAJOIyZScXBIzh9lWwhK29ja4HotcC0fUlIfzlRUufz9K73mKAr/s\nPgQ32sIMFKEPmBlX172AHhjzVO0aVyDV5jHL40jqHQ6/U3wcS+ZB7iweHhG6Uhm7\nB9PU3yATqWIaTfaDqQNuySw1OgQaDwr1+gbE7rI79v4qMO+04F4uVAwxdN9NNR2z\n3VjXZFEIYyPSZUE4FukkTHUQ2lHOlooPfYvPTsYZNqqYAHkUTx9lCYI4L07DGG5n\nrrJJq/VC7CUJ6FGyO4KSLjB8+JrD1ANDTnd1kU6ezWeWqwwXZMqtJlITu9s+Bzk=\n=1EDH\n-----END PGP SIGNATURE-----\n",
                    "verified": true
                }
            },
            "committer": {
                "avatar_url": "https://avatars.githubusercontent.com/u/19864447?v=4",
                "events_url": "https://api.github.com/users/web-flow/events{/privacy}",
                "followers_url": "https://api.github.com/users/web-flow/followers",
                "following_url": "https://api.github.com/users/web-flow/following{/other_user}",
                "gists_url": "https://api.github.com/users/web-flow/gists{/gist_id}",
                "gravatar_id": "",
                "html_url": "https://github.com/web-flow",
                "id": 19864447,
                "login": "web-flow",
                "node_id": "MDQ6VXNlcjE5ODY0NDQ3",
                "organizations_url": "https://api.github.com/users/web-flow/orgs",
                "received_events_url": "https://api.github.com/users/web-flow/received_events",
                "repos_url": "https://api.github.com/users/web-flow/repos",
                "site_admin": false,
                "starred_url": "https://api.github.com/users/web-flow/starred{/owner}{/repo}",
                "subscriptions_url": "https://api.github.com/users/web-flow/subscriptions",
                "type": "User",
                "url": "https://api.github.com/users/web-flow"
            },
            "html_url": "https://github.com/PrismarineJS/prismarine-chat/commit/a34a1e07949be1ae69aebec646749ca8018bca20",
            "node_id": "C_kwDOIPBdE9oAKGEzNGExZTA3OTQ5YmUxYWU2OWFlYmVjNjQ2NzQ5Y2E4MDE4YmNhMjA",
            "parents": [
                {
                    "html_url": "https://github.com/PrismarineJS/prismarine-chat/commit/8b7ea007e4ac5db4d8981211040c18a73e34adb4",
                    "sha": "8b7ea007e4ac5db4d8981211040c18a73e34adb4",
                    "url": "https://api.github.com/repos/PrismarineJS/prismarine-chat/commits/8b7ea007e4ac5db4d8981211040c18a73e34adb4"
                }
            ],
            "sha": "a34a1e07949be1ae69aebec646749ca8018bca20",
            "url": "https://api.github.com/repos/PrismarineJS/prismarine-chat/commits/a34a1e07949be1ae69aebec646749ca8018bca20"
        },
        {
            "author": {
                "avatar_url": "https://avatars.githubusercontent.com/u/65827213?v=4",
                "events_url": "https://api.github.com/users/ChipmunkMC/events{/privacy}",
                "followers_url": "https://api.github.com/users/ChipmunkMC/followers",
                "following_url": "https://api.github.com/users/ChipmunkMC/following{/other_user}",
                "gists_url": "https://api.github.com/users/ChipmunkMC/gists{/gist_id}",
                "gravatar_id": "",
                "html_url": "https://github.com/ChipmunkMC",
                "id": 65827213,
                "login": "ChipmunkMC",
                "node_id": "MDQ6VXNlcjY1ODI3MjEz",
                "organizations_url": "https://api.github.com/users/ChipmunkMC/orgs",
                "received_events_url": "https://api.github.com/users/ChipmunkMC/received_events",
                "repos_url": "https://api.github.com/users/ChipmunkMC/repos",
                "site_admin": false,
                "starred_url": "https://api.github.com/users/ChipmunkMC/starred{/owner}{/repo}",
                "subscriptions_url": "https://api.github.com/users/ChipmunkMC/subscriptions",
                "type": "User",
                "url": "https://api.github.com/users/ChipmunkMC"
            },
            "comments_url": "https://api.github.com/repos/PrismarineJS/prismarine-chat/commits/4b27cc3fe024a93e0300e7aafe836363146af5c7/comments",
            "commit": {
                "author": {
                    "date": "2022-10-17T01:49:32Z",
                    "email": "65827213+ChipmunkMC@users.noreply.github.com",
                    "name": "Chip"
                },
                "comment_count": 0,
                "committer": {
                    "date": "2022-10-17T01:49:32Z",
                    "email": "noreply@github.com",
                    "name": "GitHub"
                },
                "message": "`message += format`",
                "tree": {
                    "sha": "5ec2fd2fb4b9aa3901c2d66b502b88f1613b2df7",
                    "url": "https://api.github.com/repos/PrismarineJS/prismarine-chat/git/trees/5ec2fd2fb4b9aa3901c2d66b502b88f1613b2df7"
                },
                "url": "https://api.github.com/repos/PrismarineJS/prismarine-chat/git/commits/4b27cc3fe024a93e0300e7aafe836363146af5c7",
                "verification": {
                    "payload": "tree 5ec2fd2fb4b9aa3901c2d66b502b88f1613b2df7\nparent a34a1e07949be1ae69aebec646749ca8018bca20\nauthor Chip <65827213+ChipmunkMC@users.noreply.github.com> 1665971372 +0000\ncommitter GitHub <noreply@github.com> 1665971372 +0000\n\n`message += format`",
                    "reason": "valid",
                    "signature": "-----BEGIN PGP SIGNATURE-----\n\nwsBcBAABCAAQBQJjTLSsCRBK7hj4Ov3rIwAAIZwIABf5inRbm3374geCQ1zwPgV0\n0rYjv3N13E849KohYudCv3T5FSzyLSM6krwVCI58oklAoNOUdFwFPk5wp9uOgDP/\neOLHoXBOIvaHf4mMn9WXQVj1oZicTMxGm2qHkKF1Vk2Wj2+EEB3FqT8ck7kW/xM2\nKVRgcbTKvREMLhH44fBnQGvxDq7t9l+9yvNH2Molk//Sznenj1kdyQEFxx9hLuVR\nG5XelITFcFmO8nJQtZWw642xwZb6YJuFGUp3tvKmxAbUHl3qfYlnqIzxZRn8hb1g\nbKEHuggjXy1qIj17d/Vbh/1h9kBtMNqT2z6lHuU2mUOxubiT6IM+tw7dPOquJU0=\n=DJhe\n-----END PGP SIGNATURE-----\n",
                    "verified": true
                }
            },
            "committer": {
                "avatar_url": "https://avatars.githubusercontent.com/u/19864447?v=4",
                "events_url": "https://api.github.com/users/web-flow/events{/privacy}",
                "followers_url": "https://api.github.com/users/web-flow/followers",
                "following_url": "https://api.github.com/users/web-flow/following{/other_user}",
                "gists_url": "https://api.github.com/users/web-flow/gists{/gist_id}",
                "gravatar_id": "",
                "html_url": "https://github.com/web-flow",
                "id": 19864447,
                "login": "web-flow",
                "node_id": "MDQ6VXNlcjE5ODY0NDQ3",
                "organizations_url": "https://api.github.com/users/web-flow/orgs",
                "received_events_url": "https://api.github.com/users/web-flow/received_events",
                "repos_url": "https://api.github.com/users/web-flow/repos",
                "site_admin": false,
                "starred_url": "https://api.github.com/users/web-flow/starred{/owner}{/repo}",
                "subscriptions_url": "https://api.github.com/users/web-flow/subscriptions",
                "type": "User",
                "url": "https://api.github.com/users/web-flow"
            },
            "html_url": "https://github.com/PrismarineJS/prismarine-chat/commit/4b27cc3fe024a93e0300e7aafe836363146af5c7",
            "node_id": "C_kwDOIPBdE9oAKDRiMjdjYzNmZTAyNGE5M2UwMzAwZTdhYWZlODM2MzYzMTQ2YWY1Yzc",
            "parents": [
                {
                    "html_url": "https://github.com/PrismarineJS/prismarine-chat/commit/a34a1e07949be1ae69aebec646749ca8018bca20",
                    "sha": "a34a1e07949be1ae69aebec646749ca8018bca20",
                    "url": "https://api.github.com/repos/PrismarineJS/prismarine-chat/commits/a34a1e07949be1ae69aebec646749ca8018bca20"
                }
            ],
            "sha": "4b27cc3fe024a93e0300e7aafe836363146af5c7",
            "url": "https://api.github.com/repos/PrismarineJS/prismarine-chat/commits/4b27cc3fe024a93e0300e7aafe836363146af5c7"
        },
        {
            "author": {
                "avatar_url": "https://avatars.githubusercontent.com/u/65827213?v=4",
                "events_url": "https://api.github.com/users/ChipmunkMC/events{/privacy}",
                "followers_url": "https://api.github.com/users/ChipmunkMC/followers",
                "following_url": "https://api.github.com/users/ChipmunkMC/following{/other_user}",
                "gists_url": "https://api.github.com/users/ChipmunkMC/gists{/gist_id}",
                "gravatar_id": "",
                "html_url": "https://github.com/ChipmunkMC",
                "id": 65827213,
                "login": "ChipmunkMC",
                "node_id": "MDQ6VXNlcjY1ODI3MjEz",
                "organizations_url": "https://api.github.com/users/ChipmunkMC/orgs",
                "received_events_url": "https://api.github.com/users/ChipmunkMC/received_events",
                "repos_url": "https://api.github.com/users/ChipmunkMC/repos",
                "site_admin": false,
                "starred_url": "https://api.github.com/users/ChipmunkMC/starred{/owner}{/repo}",
                "subscriptions_url": "https://api.github.com/users/ChipmunkMC/subscriptions",
                "type": "User",
                "url": "https://api.github.com/users/ChipmunkMC"
            },
            "comments_url": "https://api.github.com/repos/PrismarineJS/prismarine-chat/commits/02ec9b1ea7d028c091e20cb5c30efd1a4caca5e8/comments",
            "commit": {
                "author": {
                    "date": "2022-10-17T16:02:00Z",
                    "email": "65827213+ChipmunkMC@users.noreply.github.com",
                    "name": "Chip"
                },
                "comment_count": 0,
                "committer": {
                    "date": "2022-10-17T16:02:00Z",
                    "email": "65827213+ChipmunkMC@users.noreply.github.com",
                    "name": "Chip"
                },
                "message": "Replace `sprintf-js` with a custom handler\n\nSorry for making this change a while after opening the pr, but `sprintf-js` has some things that translations shouldn't support (such as `%j`), and it uses `undefined` for missing entries instead of empty strings (like translations), so it was replaced with a custom formatting handler. Also, `toString` and `toMotd` were rewritten to handle `translate` components without `with` as if they had `[]` as their with, instead of just appending the translation format to the string.",
                "tree": {
                    "sha": "ae242abb30d0ca905442b80d93f44d67e580747d",
                    "url": "https://api.github.com/repos/PrismarineJS/prismarine-chat/git/trees/ae242abb30d0ca905442b80d93f44d67e580747d"
                },
                "url": "https://api.github.com/repos/PrismarineJS/prismarine-chat/git/commits/02ec9b1ea7d028c091e20cb5c30efd1a4caca5e8",
                "verification": {
                    "payload": null,
                    "reason": "unsigned",
                    "signature": null,
                    "verified": false
                }
            },
            "committer": {
                "avatar_url": "https://avatars.githubusercontent.com/u/65827213?v=4",
                "events_url": "https://api.github.com/users/ChipmunkMC/events{/privacy}",
                "followers_url": "https://api.github.com/users/ChipmunkMC/followers",
                "following_url": "https://api.github.com/users/ChipmunkMC/following{/other_user}",
                "gists_url": "https://api.github.com/users/ChipmunkMC/gists{/gist_id}",
                "gravatar_id": "",
                "html_url": "https://github.com/ChipmunkMC",
                "id": 65827213,
                "login": "ChipmunkMC",
                "node_id": "MDQ6VXNlcjY1ODI3MjEz",
                "organizations_url": "https://api.github.com/users/ChipmunkMC/orgs",
                "received_events_url": "https://api.github.com/users/ChipmunkMC/received_events",
                "repos_url": "https://api.github.com/users/ChipmunkMC/repos",
                "site_admin": false,
                "starred_url": "https://api.github.com/users/ChipmunkMC/starred{/owner}{/repo}",
                "subscriptions_url": "https://api.github.com/users/ChipmunkMC/subscriptions",
                "type": "User",
                "url": "https://api.github.com/users/ChipmunkMC"
            },
            "html_url": "https://github.com/PrismarineJS/prismarine-chat/commit/02ec9b1ea7d028c091e20cb5c30efd1a4caca5e8",
            "node_id": "C_kwDOIPBdE9oAKDAyZWM5YjFlYTdkMDI4YzA5MWUyMGNiNWMzMGVmZDFhNGNhY2E1ZTg",
            "parents": [
                {
                    "html_url": "https://github.com/PrismarineJS/prismarine-chat/commit/4b27cc3fe024a93e0300e7aafe836363146af5c7",
                    "sha": "4b27cc3fe024a93e0300e7aafe836363146af5c7",
                    "url": "https://api.github.com/repos/PrismarineJS/prismarine-chat/commits/4b27cc3fe024a93e0300e7aafe836363146af5c7"
                }
            ],
            "sha": "02ec9b1ea7d028c091e20cb5c30efd1a4caca5e8",
            "url": "https://api.github.com/repos/PrismarineJS/prismarine-chat/commits/02ec9b1ea7d028c091e20cb5c30efd1a4caca5e8"
        }
    ],
    "commits": 6,
    "commits_url": "https://api.github.com/repos/PrismarineJS/prismarine-chat/pulls/83/commits",
    "created_at": "2022-10-17T01:58:22Z",
    "deletions": 34,
    "diff_url": "https://github.com/PrismarineJS/prismarine-chat/pull/83.diff",
    "draft": false,
    "head": {
        "label": "ChipmunkMC:better-translation-handling",
        "ref": "better-translation-handling",
        "repo": {
            "allow_forking": true,
            "archive_url": "https://api.github.com/repos/ChipmunkMC/prismarine-chat/{archive_format}{/ref}",
            "archived": false,
            "assignees_url": "https://api.github.com/repos/ChipmunkMC/prismarine-chat/assignees{/user}",
            "blobs_url": "https://api.github.com/repos/ChipmunkMC/prismarine-chat/git/blobs{/sha}",
            "branches_url": "https://api.github.com/repos/ChipmunkMC/prismarine-chat/branches{/branch}",
            "clone_url": "https://github.com/ChipmunkMC/prismarine-chat.git",
            "collaborators_url": "https://api.github.com/repos/ChipmunkMC/prismarine-chat/collaborators{/collaborator}",
            "comments_url": "https://api.github.com/repos/ChipmunkMC/prismarine-chat/comments{/number}",
            "commits_url": "https://api.github.com/repos/ChipmunkMC/prismarine-chat/commits{/sha}",
            "compare_url": "https://api.github.com/repos/ChipmunkMC/prismarine-chat/compare/{base}...{head}",
            "contents_url": "https://api.github.com/repos/ChipmunkMC/prismarine-chat/contents/{+path}",
            "contributors_url": "https://api.github.com/repos/ChipmunkMC/prismarine-chat/contributors",
            "created_at": "2022-10-17T00:55:16Z",
            "default_branch": "master",
            "deployments_url": "https://api.github.com/repos/ChipmunkMC/prismarine-chat/deployments",
            "description": "A parser for a minecraft chat message",
            "disabled": false,
            "downloads_url": "https://api.github.com/repos/ChipmunkMC/prismarine-chat/downloads",
            "events_url": "https://api.github.com/repos/ChipmunkMC/prismarine-chat/events",
            "fork": true,
            "forks": 0,
            "forks_count": 0,
            "forks_url": "https://api.github.com/repos/ChipmunkMC/prismarine-chat/forks",
            "full_name": "ChipmunkMC/prismarine-chat",
            "git_commits_url": "https://api.github.com/repos/ChipmunkMC/prismarine-chat/git/commits{/sha}",
            "git_refs_url": "https://api.github.com/repos/ChipmunkMC/prismarine-chat/git/refs{/sha}",
            "git_tags_url": "https://api.github.com/repos/ChipmunkMC/prismarine-chat/git/tags{/sha}",
            "git_url": "git://github.com/ChipmunkMC/prismarine-chat.git",
            "has_discussions": false,
            "has_downloads": true,
            "has_issues": false,
            "has_pages": false,
            "has_projects": true,
            "has_wiki": true,
            "homepage": "",
            "hooks_url": "https://api.github.com/repos/ChipmunkMC/prismarine-chat/hooks",
            "html_url": "https://github.com/ChipmunkMC/prismarine-chat",
            "id": 552623379,
            "is_template": false,
            "issue_comment_url": "https://api.github.com/repos/ChipmunkMC/prismarine-chat/issues/comments{/number}",
            "issue_events_url": "https://api.github.com/repos/ChipmunkMC/prismarine-chat/issues/events{/number}",
            "issues_url": "https://api.github.com/repos/ChipmunkMC/prismarine-chat/issues{/number}",
            "keys_url": "https://api.github.com/repos/ChipmunkMC/prismarine-chat/keys{/key_id}",
            "labels_url": "https://api.github.com/repos/ChipmunkMC/prismarine-chat/labels{/name}",
            "language": null,
            "languages_url": "https://api.github.com/repos/ChipmunkMC/prismarine-chat/languages",
            "license": {
                "key": "mit",
                "name": "MIT License",
                "node_id": "MDc6TGljZW5zZTEz",
                "spdx_id": "MIT",
                "url": "https://api.github.com/licenses/mit"
            },
            "merges_url": "https://api.github.com/repos/ChipmunkMC/prismarine-chat/merges",
            "milestones_url": "https://api.github.com/repos/ChipmunkMC/prismarine-chat/milestones{/number}",
            "mirror_url": null,
            "name": "prismarine-chat",
            "node_id": "R_kgDOIPBdEw",
            "notifications_url": "https://api.github.com/repos/ChipmunkMC/prismarine-chat/notifications{?since,all,participating}",
            "open_issues": 0,
            "open_issues_count": 0,
            "owner": {
                "avatar_url": "https://avatars.githubusercontent.com/u/65827213?v=4",
                "events_url": "https://api.github.com/users/ChipmunkMC/events{/privacy}",
                "followers_url": "https://api.github.com/users/ChipmunkMC/followers",
                "following_url": "https://api.github.com/users/ChipmunkMC/following{/other_user}",
                "gists_url": "https://api.github.com/users/ChipmunkMC/gists{/gist_id}",
                "gravatar_id": "",
                "html_url": "https://github.com/ChipmunkMC",
                "id": 65827213,
                "login": "ChipmunkMC",
                "node_id": "MDQ6VXNlcjY1ODI3MjEz",
                "organizations_url": "https://api.github.com/users/ChipmunkMC/orgs",
                "received_events_url": "https://api.github.com/users/ChipmunkMC/received_events",
                "repos_url": "https://api.github.com/users/ChipmunkMC/repos",
                "site_admin": false,
                "starred_url": "https://api.github.com/users/ChipmunkMC/starred{/owner}{/repo}",
                "subscriptions_url": "https://api.github.com/users/ChipmunkMC/subscriptions",
                "type": "User",
                "url": "https://api.github.com/users/ChipmunkMC"
            },
            "private": false,
            "pulls_url": "https://api.github.com/repos/ChipmunkMC/prismarine-chat/pulls{/number}",
            "pushed_at": "2022-11-23T04:00:18Z",
            "releases_url": "https://api.github.com/repos/ChipmunkMC/prismarine-chat/releases{/id}",
            "size": 104,
            "ssh_url": "git@github.com:ChipmunkMC/prismarine-chat.git",
            "stargazers_count": 0,
            "stargazers_url": "https://api.github.com/repos/ChipmunkMC/prismarine-chat/stargazers",
            "statuses_url": "https://api.github.com/repos/ChipmunkMC/prismarine-chat/statuses/{sha}",
            "subscribers_url": "https://api.github.com/repos/ChipmunkMC/prismarine-chat/subscribers",
            "subscription_url": "https://api.github.com/repos/ChipmunkMC/prismarine-chat/subscription",
            "svn_url": "https://github.com/ChipmunkMC/prismarine-chat",
            "tags_url": "https://api.github.com/repos/ChipmunkMC/prismarine-chat/tags",
            "teams_url": "https://api.github.com/repos/ChipmunkMC/prismarine-chat/teams",
            "topics": [],
            "trees_url": "https://api.github.com/repos/ChipmunkMC/prismarine-chat/git/trees{/sha}",
            "updated_at": "2022-09-24T21:14:44Z",
            "url": "https://api.github.com/repos/ChipmunkMC/prismarine-chat",
            "visibility": "public",
            "watchers": 0,
            "watchers_count": 0,
            "web_commit_signoff_required": false
        },
        "sha": "02ec9b1ea7d028c091e20cb5c30efd1a4caca5e8",
        "user": {
            "avatar_url": "https://avatars.githubusercontent.com/u/65827213?v=4",
            "events_url": "https://api.github.com/users/ChipmunkMC/events{/privacy}",
            "followers_url": "https://api.github.com/users/ChipmunkMC/followers",
            "following_url": "https://api.github.com/users/ChipmunkMC/following{/other_user}",
            "gists_url": "https://api.github.com/users/ChipmunkMC/gists{/gist_id}",
            "gravatar_id": "",
            "html_url": "https://github.com/ChipmunkMC",
            "id": 65827213,
            "login": "ChipmunkMC",
            "node_id": "MDQ6VXNlcjY1ODI3MjEz",
            "organizations_url": "https://api.github.com/users/ChipmunkMC/orgs",
            "received_events_url": "https://api.github.com/users/ChipmunkMC/received_events",
            "repos_url": "https://api.github.com/users/ChipmunkMC/repos",
            "site_admin": false,
            "starred_url": "https://api.github.com/users/ChipmunkMC/starred{/owner}{/repo}",
            "subscriptions_url": "https://api.github.com/users/ChipmunkMC/subscriptions",
            "type": "User",
            "url": "https://api.github.com/users/ChipmunkMC"
        }
    },
    "html_url": "https://github.com/PrismarineJS/prismarine-chat/pull/83",
    "id": 1088621249,
    "issue_url": "https://api.github.com/repos/PrismarineJS/prismarine-chat/issues/83",
    "labels": [],
    "locked": false,
    "maintainer_can_modify": false,
    "merge_commit_sha": "3e2eb58fb6fc1a5df11e6d4e1e2cb511a46f0bf5",
    "mergeable": null,
    "mergeable_state": "unknown",
    "merged": true,
    "merged_at": "2022-11-29T02:08:33Z",
    "merged_by": {
        "avatar_url": "https://avatars.githubusercontent.com/u/2346494?v=4",
        "events_url": "https://api.github.com/users/rom1504/events{/privacy}",
        "followers_url": "https://api.github.com/users/rom1504/followers",
        "following_url": "https://api.github.com/users/rom1504/following{/other_user}",
        "gists_url": "https://api.github.com/users/rom1504/gists{/gist_id}",
        "gravatar_id": "",
        "html_url": "https://github.com/rom1504",
        "id": 2346494,
        "login": "rom1504",
        "node_id": "MDQ6VXNlcjIzNDY0OTQ=",
        "organizations_url": "https://api.github.com/users/rom1504/orgs",
        "received_events_url": "https://api.github.com/users/rom1504/received_events",
        "repos_url": "https://api.github.com/users/rom1504/repos",
        "site_admin": false,
        "starred_url": "https://api.github.com/users/rom1504/starred{/owner}{/repo}",
        "subscriptions_url": "https://api.github.com/users/rom1504/subscriptions",
        "type": "User",
        "url": "https://api.github.com/users/rom1504"
    },
    "milestone": null,
    "node_id": "PR_kwDOEKoX_c5A4wrB",
    "number": 83,
    "patch_url": "https://github.com/PrismarineJS/prismarine-chat/pull/83.patch",
    "rebaseable": null,
    "requested_reviewers": [],
    "requested_teams": [],
    "review_comment_url": "https://api.github.com/repos/PrismarineJS/prismarine-chat/pulls/comments{/number}",
    "review_comments": 0,
    "review_comments_url": "https://api.github.com/repos/PrismarineJS/prismarine-chat/pulls/83/comments",
    "state": "closed",
    "statuses_url": "https://api.github.com/repos/PrismarineJS/prismarine-chat/statuses/02ec9b1ea7d028c091e20cb5c30efd1a4caca5e8",
    "title": "Better translation handling",
    "updated_at": "2022-11-29T02:08:34Z",
    "url": "https://api.github.com/repos/PrismarineJS/prismarine-chat/pulls/83",
    "user": {
        "avatar_url": "https://avatars.githubusercontent.com/u/65827213?v=4",
        "events_url": "https://api.github.com/users/ChipmunkMC/events{/privacy}",
        "followers_url": "https://api.github.com/users/ChipmunkMC/followers",
        "following_url": "https://api.github.com/users/ChipmunkMC/following{/other_user}",
        "gists_url": "https://api.github.com/users/ChipmunkMC/gists{/gist_id}",
        "gravatar_id": "",
        "html_url": "https://github.com/ChipmunkMC",
        "id": 65827213,
        "login": "ChipmunkMC",
        "node_id": "MDQ6VXNlcjY1ODI3MjEz",
        "organizations_url": "https://api.github.com/users/ChipmunkMC/orgs",
        "received_events_url": "https://api.github.com/users/ChipmunkMC/received_events",
        "repos_url": "https://api.github.com/users/ChipmunkMC/repos",
        "site_admin": false,
        "starred_url": "https://api.github.com/users/ChipmunkMC/starred{/owner}{/repo}",
        "subscriptions_url": "https://api.github.com/users/ChipmunkMC/subscriptions",
        "type": "User",
        "url": "https://api.github.com/users/ChipmunkMC"
    }
}