{
    "_links": {
        "comments": {
            "href": "https://api.github.com/repos/PrismarineJS/prismarine-block/issues/18/comments"
        },
        "commits": {
            "href": "https://api.github.com/repos/PrismarineJS/prismarine-block/pulls/18/commits"
        },
        "html": {
            "href": "https://github.com/PrismarineJS/prismarine-block/pull/18"
        },
        "issue": {
            "href": "https://api.github.com/repos/PrismarineJS/prismarine-block/issues/18"
        },
        "review_comment": {
            "href": "https://api.github.com/repos/PrismarineJS/prismarine-block/pulls/comments{/number}"
        },
        "review_comments": {
            "href": "https://api.github.com/repos/PrismarineJS/prismarine-block/pulls/18/comments"
        },
        "self": {
            "href": "https://api.github.com/repos/PrismarineJS/prismarine-block/pulls/18"
        },
        "statuses": {
            "href": "https://api.github.com/repos/PrismarineJS/prismarine-block/statuses/f9641fb2582e80525cdc8b61e29cb87c9d4e71da"
        }
    },
    "active_lock_reason": null,
    "additions": 1,
    "assignee": null,
    "assignees": [],
    "author_association": "CONTRIBUTOR",
    "auto_merge": null,
    "base": {
        "label": "PrismarineJS:master",
        "ref": "master",
        "repo": {
            "allow_forking": true,
            "archive_url": "https://api.github.com/repos/PrismarineJS/prismarine-block/{archive_format}{/ref}",
            "archived": false,
            "assignees_url": "https://api.github.com/repos/PrismarineJS/prismarine-block/assignees{/user}",
            "blobs_url": "https://api.github.com/repos/PrismarineJS/prismarine-block/git/blobs{/sha}",
            "branches_url": "https://api.github.com/repos/PrismarineJS/prismarine-block/branches{/branch}",
            "clone_url": "https://github.com/PrismarineJS/prismarine-block.git",
            "collaborators_url": "https://api.github.com/repos/PrismarineJS/prismarine-block/collaborators{/collaborator}",
            "comments_url": "https://api.github.com/repos/PrismarineJS/prismarine-block/comments{/number}",
            "commits_url": "https://api.github.com/repos/PrismarineJS/prismarine-block/commits{/sha}",
            "compare_url": "https://api.github.com/repos/PrismarineJS/prismarine-block/compare/{base}...{head}",
            "contents_url": "https://api.github.com/repos/PrismarineJS/prismarine-block/contents/{+path}",
            "contributors_url": "https://api.github.com/repos/PrismarineJS/prismarine-block/contributors",
            "created_at": "2015-08-28T22:08:17Z",
            "default_branch": "master",
            "deployments_url": "https://api.github.com/repos/PrismarineJS/prismarine-block/deployments",
            "description": "Represent a minecraft block with its associated data",
            "disabled": false,
            "downloads_url": "https://api.github.com/repos/PrismarineJS/prismarine-block/downloads",
            "events_url": "https://api.github.com/repos/PrismarineJS/prismarine-block/events",
            "fork": false,
            "forks": 18,
            "forks_count": 18,
            "forks_url": "https://api.github.com/repos/PrismarineJS/prismarine-block/forks",
            "full_name": "PrismarineJS/prismarine-block",
            "git_commits_url": "https://api.github.com/repos/PrismarineJS/prismarine-block/git/commits{/sha}",
            "git_refs_url": "https://api.github.com/repos/PrismarineJS/prismarine-block/git/refs{/sha}",
            "git_tags_url": "https://api.github.com/repos/PrismarineJS/prismarine-block/git/tags{/sha}",
            "git_url": "git://github.com/PrismarineJS/prismarine-block.git",
            "has_discussions": false,
            "has_downloads": true,
            "has_issues": true,
            "has_pages": false,
            "has_projects": true,
            "has_wiki": true,
            "homepage": null,
            "hooks_url": "https://api.github.com/repos/PrismarineJS/prismarine-block/hooks",
            "html_url": "https://github.com/PrismarineJS/prismarine-block",
            "id": 41571323,
            "is_template": false,
            "issue_comment_url": "https://api.github.com/repos/PrismarineJS/prismarine-block/issues/comments{/number}",
            "issue_events_url": "https://api.github.com/repos/PrismarineJS/prismarine-block/issues/events{/number}",
            "issues_url": "https://api.github.com/repos/PrismarineJS/prismarine-block/issues{/number}",
            "keys_url": "https://api.github.com/repos/PrismarineJS/prismarine-block/keys{/key_id}",
            "labels_url": "https://api.github.com/repos/PrismarineJS/prismarine-block/labels{/name}",
            "language": "JavaScript",
            "languages_url": "https://api.github.com/repos/PrismarineJS/prismarine-block/languages",
            "license": null,
            "merges_url": "https://api.github.com/repos/PrismarineJS/prismarine-block/merges",
            "milestones_url": "https://api.github.com/repos/PrismarineJS/prismarine-block/milestones{/number}",
            "mirror_url": null,
            "name": "prismarine-block",
            "node_id": "MDEwOlJlcG9zaXRvcnk0MTU3MTMyMw==",
            "notifications_url": "https://api.github.com/repos/PrismarineJS/prismarine-block/notifications{?since,all,participating}",
            "open_issues": 4,
            "open_issues_count": 4,
            "owner": {
                "avatar_url": "https://avatars.githubusercontent.com/u/11053411?v=4",
                "events_url": "https://api.github.com/users/PrismarineJS/events{/privacy}",
                "followers_url": "https://api.github.com/users/PrismarineJS/followers",
                "following_url": "https://api.github.com/users/PrismarineJS/following{/other_user}",
                "gists_url": "https://api.github.com/users/PrismarineJS/gists{/gist_id}",
                "gravatar_id": "",
                "html_url": "https://github.com/PrismarineJS",
                "id": 11053411,
                "login": "PrismarineJS",
                "node_id": "MDEyOk9yZ2FuaXphdGlvbjExMDUzNDEx",
                "organizations_url": "https://api.github.com/users/PrismarineJS/orgs",
                "received_events_url": "https://api.github.com/users/PrismarineJS/received_events",
                "repos_url": "https://api.github.com/users/PrismarineJS/repos",
                "site_admin": false,
                "starred_url": "https://api.github.com/users/PrismarineJS/starred{/owner}{/repo}",
                "subscriptions_url": "https://api.github.com/users/PrismarineJS/subscriptions",
                "type": "Organization",
                "url": "https://api.github.com/users/PrismarineJS"
            },
            "private": false,
            "pulls_url": "https://api.github.com/repos/PrismarineJS/prismarine-block/pulls{/number}",
            "pushed_at": "2023-03-04T18:03:03Z",
            "releases_url": "https://api.github.com/repos/PrismarineJS/prismarine-block/releases{/id}",
            "size": 122,
            "ssh_url": "git@github.com:PrismarineJS/prismarine-block.git",
            "stargazers_count": 24,
            "stargazers_url": "https://api.github.com/repos/PrismarineJS/prismarine-block/stargazers",
            "statuses_url": "https://api.github.com/repos/PrismarineJS/prismarine-block/statuses/{sha}",
            "subscribers_url": "https://api.github.com/repos/PrismarineJS/prismarine-block/subscribers",
            "subscription_url": "https://api.github.com/repos/PrismarineJS/prismarine-block/subscription",
            "svn_url": "https://github.com/PrismarineJS/prismarine-block",
            "tags_url": "https://api.github.com/repos/PrismarineJS/prismarine-block/tags",
            "teams_url": "https://api.github.com/repos/PrismarineJS/prismarine-block/teams",
            "topics": [],
            "trees_url": "https://api.github.com/repos/PrismarineJS/prismarine-block/git/trees{/sha}",
            "updated_at": "2023-01-20T16:05:42Z",
            "url": "https://api.github.com/repos/PrismarineJS/prismarine-block",
            "visibility": "public",
            "watchers": 24,
            "watchers_count": 24,
            "web_commit_signoff_required": false
        },
        "sha": "a5171e63ad4b8b7ffec34c3c49eda9b009d8ccc7",
        "user": {
            "avatar_url": "https://avatars.githubusercontent.com/u/11053411?v=4",
            "events_url": "https://api.github.com/users/PrismarineJS/events{/privacy}",
            "followers_url": "https://api.github.com/users/PrismarineJS/followers",
            "following_url": "https://api.github.com/users/PrismarineJS/following{/other_user}",
            "gists_url": "https://api.github.com/users/PrismarineJS/gists{/gist_id}",
            "gravatar_id": "",
            "html_url": "https://github.com/PrismarineJS",
            "id": 11053411,
            "login": "PrismarineJS",
            "node_id": "MDEyOk9yZ2FuaXphdGlvbjExMDUzNDEx",
            "organizations_url": "https://api.github.com/users/PrismarineJS/orgs",
            "received_events_url": "https://api.github.com/users/PrismarineJS/received_events",
            "repos_url": "https://api.github.com/users/PrismarineJS/repos",
            "site_admin": false,
            "starred_url": "https://api.github.com/users/PrismarineJS/starred{/owner}{/repo}",
            "subscriptions_url": "https://api.github.com/users/PrismarineJS/subscriptions",
            "type": "Organization",
            "url": "https://api.github.com/users/PrismarineJS"
        }
    },
    "body": "Bumps [standard](https://github.com/standard/standard) from 14.3.4 to 15.0.0.\n<details>\n<summary>Changelog</summary>\n<p><em>Sourced from <a href=\"https://github.com/standard/standard/blob/master/CHANGELOG.md\">standard's changelog</a>.</em></p>\n<blockquote>\n<h2>[15.0.0] - 2020-10-21</h2>\n<p>We're super excited to announce <code>standard</code> 15!</p>\n<p>As with every new major release, there are lots of new rules in 15.0.0 designed\nto help catch bugs and make programmer intent more explicit. This release brings\nsupport for ES 2021, the latest version of the ECMAScript specification, as well\nas many quality-of-life improvements, including ESLint v7.</p>\n<p>When you upgrade, consider running <code>standard --fix</code> to automatically format your\ncode to match the newly added rules.</p>\n<p>❤️ If you enjoy StandardJS and want to support future releases, check out\nFeross's <a href=\"https://github.com/users/feross/sponsorship\">GitHub Sponsors page</a>.</p>\n<h3>New features</h3>\n<ul>\n<li>Support ES 2021, the latest version of the ECMAScript specification, which includes support for <a href=\"https://github.com/tc39/proposal-logical-assignment\">logical assignment operators</a> and <a href=\"https://github.com/tc39/proposal-numeric-separator\">numeric separators</a> <a href=\"https://github-redirect.dependabot.com/standard/standard/issues/1551\">#1551</a></li>\n<li>Support ES 2020 features such as <a href=\"https://developer.mozilla.org/en-US/docs/Web/JavaScript/Reference/Operators/Optional_chaining\">optional chaining</a>, the <a href=\"https://developer.mozilla.org/en-US/docs/Web/JavaScript/Reference/Operators/Nullish_coalescing_operator\">nullish coalescing operator</a>, <code>export * as ns from 'source'</code>, and <a href=\"https://developer.mozilla.org/en-US/docs/Web/JavaScript/Reference/Statements/import.meta\"><code>import.meta</code></a>.</li>\n<li>Support global variables from ES 2017 (<code>Atomics</code>, <code>SharedArrayBuffer</code>), ES 2020 (<code>BigInt</code>, <code>BigInt64Array</code>, <code>BigUint64Array</code>, <code>globalThis</code>), and ES 2021 (<code>FinalizationRegistry</code>, <code>WeakRef</code>). <a href=\"https://github-redirect.dependabot.com/standard/standard/issues/1436\">#1436</a> <a href=\"https://github-redirect.dependabot.com/standard/standard/issues/1557\">#1557</a> [eslint-config-standard/<a href=\"https://github-redirect.dependabot.com/standard/standard/issues/156\">#156</a>](<a href=\"https://github-redirect.dependabot.com/standard/eslint-config-standard/pull/156\">standard/eslint-config-standard#156</a>)</li>\n<li>The documentation is now available in Indonesian 🇮🇩! <a href=\"https://github-redirect.dependabot.com/standard/standard/pull/1544\">#1544</a>\n<ul>\n<li>Thanks to <a href=\"https://github.com/yoga1234\">@yoga1234</a> for the excellent work!</li>\n<li>Other community contributed translations exist in Spanish, French, Italian, Japanese, Korean, Portuguese, Simplified Chinese, and Taiwanese Mandarin.</li>\n<li>More translations are always welcome!</li>\n</ul>\n</li>\n</ul>\n<h3>Changed features</h3>\n<ul>\n<li>BREAKING: Node.js 8 is no longer supported\n<ul>\n<li>Node.js 8 is EOL and will no longer be receiving security updates.</li>\n<li>To prevent breaking CI for projects which still support Node 8, <code>standard</code> silently passes when run by an unsupported version of Node</li>\n</ul>\n</li>\n<li>Update <code>eslint</code> from <code>~6.8.0</code> to <code>~7.11.0</code></li>\n</ul>\n<h3>New rules</h3>\n<p><em>(Estimated % of affected standard users, based on test suite in parens)</em></p>\n<ul>\n<li>Require indentation for values of ternary expressions (<a href=\"https://eslint.org/docs/rules/indent\">indent</a>) <a href=\"https://github-redirect.dependabot.com/standard/standard/issues/927\">#927</a> [4%]</li>\n<li>Enforce newlines between operands of ternary expressions if the expression spans multiple lines (<a href=\"https://eslint.org/docs/rules/multiline-ternary\">multiline-ternary</a>) <a href=\"https://github-redirect.dependabot.com/standard/standard/issues/1558\">#1558</a> [3%]</li>\n<li>Disallow loops with a body that allows only one iteration (<a href=\"https://eslint.org/docs/rules/no-unreachable-loop\">no-unreachable-loop</a>) <a href=\"https://github-redirect.dependabot.com/standard/standard/issues/1556\">#1556</a> [0%]</li>\n<li>Disallow useless backreferences in regular expressions (<a href=\"https://eslint.org/docs/rules/no-useless-backreference\">no-useless-backreference</a>) <a href=\"https://github-redirect.dependabot.com/standard/standard/issues/1554\">#1554</a> [0%]</li>\n<li>Enforce default clauses in switch statements to be last (<a href=\"https://eslint.org/docs/rules/default-case-last\">default-case-last</a>) <a href=\"https://github-redirect.dependabot.com/standard/standard/issues/1553\">#1553</a> [0%]</li>\n<li>Disallow Number Literals That Lose Precision (<a href=\"https://eslint.org/docs/rules/no-loss-of-precision\">no-loss-of-precision</a>) <a href=\"https://github-redirect.dependabot.com/standard/standard/issues/1552\">#1552</a> [0%]</li>\n</ul>\n<h3>Changed rules</h3>\n<ul>\n<li>Relax rule: Allow function declarations in nested blocks <a href=\"https://github-redirect.dependabot.com/standard/standard/issues/1406\">#1406</a></li>\n<li>Relax rule: Removed redundant <code>no-negated-in-lhs</code> rule, already enforced by <code>no-unsafe-negation</code> [eslint-config-standard/<a href=\"https://github-redirect.dependabot.com/standard/standard/issues/160\">#160</a>](<a href=\"https://github-redirect.dependabot.com/standard/eslint-config-standard/pull/160\">standard/eslint-config-standard#160</a>)</li>\n</ul>\n</blockquote>\n</details>\n<details>\n<summary>Commits</summary>\n<ul>\n<li><a href=\"https://github.com/standard/standard/commit/5a63a036c44c71d118c82f7321d41afc21fe4551\"><code>5a63a03</code></a> 15.0.0</li>\n<li><a href=\"https://github.com/standard/standard/commit/36cbcd8c3117641ab74072276f69a658d8293fd6\"><code>36cbcd8</code></a> changelog</li>\n<li><a href=\"https://github.com/standard/standard/commit/ab0e7a5f04ece0a01ca3be0362456b680d709933\"><code>ab0e7a5</code></a> update deps</li>\n<li><a href=\"https://github.com/standard/standard/commit/3d0ea44d1399822a18478d39a35cac4835136828\"><code>3d0ea44</code></a> eslint-config-standard-jsx 9.0.0</li>\n<li><a href=\"https://github.com/standard/standard/commit/8c0513acdf02f56c8c00cf3d960457c923f9f0e7\"><code>8c0513a</code></a> eslint-config-standard 15.0.0</li>\n<li><a href=\"https://github.com/standard/standard/commit/c8c255ceeb4db9b88fabf8dd17fa81576f77b44f\"><code>c8c255c</code></a> changelog</li>\n<li><a href=\"https://github.com/standard/standard/commit/1af9b8a4bb7e7387959b03dcc2456ac3279275bc\"><code>1af9b8a</code></a> use &quot;Indonesian&quot; since it's the language name</li>\n<li><a href=\"https://github.com/standard/standard/commit/c0fd5674a32da47f6a0cb577da3f8372cf5f6bc6\"><code>c0fd567</code></a> remove sponsor link</li>\n<li><a href=\"https://github.com/standard/standard/commit/b926ce28d20f3eddcc82ff5a8070f7ccec05881c\"><code>b926ce2</code></a> remove spammy standard user link</li>\n<li><a href=\"https://github.com/standard/standard/commit/1cc9df7c569429b713fbee165937efd882a3261b\"><code>1cc9df7</code></a> changelog</li>\n<li>Additional commits viewable in <a href=\"https://github.com/standard/standard/compare/v14.3.4...v15.0.0\">compare view</a></li>\n</ul>\n</details>\n<br />\n\n\n[![Dependabot compatibility score](https://api.dependabot.com/badges/compatibility_score?dependency-name=standard&package-manager=npm_and_yarn&previous-version=14.3.4&new-version=15.0.0)](https://dependabot.com/compatibility-score/?dependency-name=standard&package-manager=npm_and_yarn&previous-version=14.3.4&new-version=15.0.0)\n\nDependabot will resolve any conflicts with this PR as long as you don't alter it yourself. You can also trigger a rebase manually by commenting `@dependabot rebase`.\n\n[//]: # (dependabot-automerge-start)\n[//]: # (dependabot-automerge-end)\n\n---\n\n<details>\n<summary>Dependabot commands and options</summary>\n<br />\n\nYou can trigger Dependabot actions by commenting on this PR:\n- `@dependabot rebase` will rebase this PR\n- `@dependabot recreate` will recreate this PR, overwriting any edits that have been made to it\n- `@dependabot merge` will merge this PR after your CI passes on it\n- `@dependabot squash and merge` will squash and merge this PR after your CI passes on it\n- `@dependabot cancel merge` will cancel a previously requested merge and block automerging\n- `@dependabot reopen` will reopen this PR if it is closed\n- `@dependabot close` will close this PR and stop Dependabot recreating it. You can achieve the same result by closing it manually\n- `@dependabot ignore this major version` will close this PR and stop Dependabot creating any more for this major version (unless you reopen the PR or upgrade to it yourself)\n- `@dependabot ignore this minor version` will close this PR and stop Dependabot creating any more for this minor version (unless you reopen the PR or upgrade to it yourself)\n- `@dependabot ignore this dependency` will close this PR and stop Dependabot creating any more for this dependency (unless you reopen the PR or upgrade to it yourself)\n- `@dependabot use these labels` will set the current labels as the default for future PRs for this repo and language\n- `@dependabot use these reviewers` will set the current reviewers as the default for future PRs for this repo and language\n- `@dependabot use these assignees` will set the current assignees as the default for future PRs for this repo and language\n- `@dependabot use this milestone` will set the current milestone as the default for future PRs for this repo and language\n- `@dependabot badge me` will comment on this PR with code to add a \"Dependabot enabled\" badge to your readme\n\nAdditionally, you can set the following in your Dependabot [dashboard](https://app.dependabot.com):\n- Update frequency (including time of day and day of week)\n- Pull request limits (per update run and/or open at any time)\n- Out-of-range updates (receive only lockfile updates, if desired)\n- Security updates (receive only security updates, if desired)\n\n\n\n</details>",
    "changed_files": 1,
    "closed_at": "2020-10-25T10:37:46Z",
    "comment_data": [],
    "comment_regular_data": [
        {
            "author_association": "CONTRIBUTOR",
            "body": "Looks like standard is up-to-date now, so this is no longer needed.",
            "created_at": "2020-10-25T10:37:44Z",
            "html_url": "https://github.com/PrismarineJS/prismarine-block/pull/18#issuecomment-716125496",
            "id": 716125496,
            "issue_url": "https://api.github.com/repos/PrismarineJS/prismarine-block/issues/18",
            "node_id": "MDEyOklzc3VlQ29tbWVudDcxNjEyNTQ5Ng==",
            "performed_via_github_app": null,
            "reactions": {
                "+1": 0,
                "-1": 0,
                "confused": 0,
                "eyes": 0,
                "heart": 0,
                "hooray": 0,
                "laugh": 0,
                "rocket": 0,
                "total_count": 0,
                "url": "https://api.github.com/repos/PrismarineJS/prismarine-block/issues/comments/716125496/reactions"
            },
            "updated_at": "2020-10-25T10:37:44Z",
            "url": "https://api.github.com/repos/PrismarineJS/prismarine-block/issues/comments/716125496",
            "user": {
                "avatar_url": "https://avatars.githubusercontent.com/in/2141?v=4",
                "events_url": "https://api.github.com/users/dependabot-preview%5Bbot%5D/events{/privacy}",
                "followers_url": "https://api.github.com/users/dependabot-preview%5Bbot%5D/followers",
                "following_url": "https://api.github.com/users/dependabot-preview%5Bbot%5D/following{/other_user}",
                "gists_url": "https://api.github.com/users/dependabot-preview%5Bbot%5D/gists{/gist_id}",
                "gravatar_id": "",
                "html_url": "https://github.com/apps/dependabot-preview",
                "id": 27856297,
                "login": "dependabot-preview[bot]",
                "node_id": "MDM6Qm90Mjc4NTYyOTc=",
                "organizations_url": "https://api.github.com/users/dependabot-preview%5Bbot%5D/orgs",
                "received_events_url": "https://api.github.com/users/dependabot-preview%5Bbot%5D/received_events",
                "repos_url": "https://api.github.com/users/dependabot-preview%5Bbot%5D/repos",
                "site_admin": false,
                "starred_url": "https://api.github.com/users/dependabot-preview%5Bbot%5D/starred{/owner}{/repo}",
                "subscriptions_url": "https://api.github.com/users/dependabot-preview%5Bbot%5D/subscriptions",
                "type": "Bot",
                "url": "https://api.github.com/users/dependabot-preview%5Bbot%5D"
            }
        }
    ],
    "comments": 1,
    "comments_url": "https://api.github.com/repos/PrismarineJS/prismarine-block/issues/18/comments",
    "commit_data": [
        {
            "author": {
                "avatar_url": "https://avatars.githubusercontent.com/in/2141?v=4",
                "events_url": "https://api.github.com/users/dependabot-preview%5Bbot%5D/events{/privacy}",
                "followers_url": "https://api.github.com/users/dependabot-preview%5Bbot%5D/followers",
                "following_url": "https://api.github.com/users/dependabot-preview%5Bbot%5D/following{/other_user}",
                "gists_url": "https://api.github.com/users/dependabot-preview%5Bbot%5D/gists{/gist_id}",
                "gravatar_id": "",
                "html_url": "https://github.com/apps/dependabot-preview",
                "id": 27856297,
                "login": "dependabot-preview[bot]",
                "node_id": "MDM6Qm90Mjc4NTYyOTc=",
                "organizations_url": "https://api.github.com/users/dependabot-preview%5Bbot%5D/orgs",
                "received_events_url": "https://api.github.com/users/dependabot-preview%5Bbot%5D/received_events",
                "repos_url": "https://api.github.com/users/dependabot-preview%5Bbot%5D/repos",
                "site_admin": false,
                "starred_url": "https://api.github.com/users/dependabot-preview%5Bbot%5D/starred{/owner}{/repo}",
                "subscriptions_url": "https://api.github.com/users/dependabot-preview%5Bbot%5D/subscriptions",
                "type": "Bot",
                "url": "https://api.github.com/users/dependabot-preview%5Bbot%5D"
            },
            "comments_url": "https://api.github.com/repos/PrismarineJS/prismarine-block/commits/f9641fb2582e80525cdc8b61e29cb87c9d4e71da/comments",
            "commit": {
                "author": {
                    "date": "2020-10-23T03:32:24Z",
                    "email": "27856297+dependabot-preview[bot]@users.noreply.github.com",
                    "name": "dependabot-preview[bot]"
                },
                "comment_count": 0,
                "committer": {
                    "date": "2020-10-23T03:32:24Z",
                    "email": "noreply@github.com",
                    "name": "GitHub"
                },
                "message": "Bump standard from 14.3.4 to 15.0.0\n\nBumps [standard](https://github.com/standard/standard) from 14.3.4 to 15.0.0.\n- [Release notes](https://github.com/standard/standard/releases)\n- [Changelog](https://github.com/standard/standard/blob/master/CHANGELOG.md)\n- [Commits](https://github.com/standard/standard/compare/v14.3.4...v15.0.0)\n\nSigned-off-by: dependabot-preview[bot] <support@dependabot.com>",
                "tree": {
                    "sha": "317bfe931184ba377f01e09178c831c23cff6067",
                    "url": "https://api.github.com/repos/PrismarineJS/prismarine-block/git/trees/317bfe931184ba377f01e09178c831c23cff6067"
                },
                "url": "https://api.github.com/repos/PrismarineJS/prismarine-block/git/commits/f9641fb2582e80525cdc8b61e29cb87c9d4e71da",
                "verification": {
                    "payload": "tree 317bfe931184ba377f01e09178c831c23cff6067\nparent a5171e63ad4b8b7ffec34c3c49eda9b009d8ccc7\nauthor dependabot-preview[bot] <27856297+dependabot-preview[bot]@users.noreply.github.com> 1603423944 +0000\ncommitter GitHub <noreply@github.com> 1603423944 +0000\n\nBump standard from 14.3.4 to 15.0.0\n\nBumps [standard](https://github.com/standard/standard) from 14.3.4 to 15.0.0.\n- [Release notes](https://github.com/standard/standard/releases)\n- [Changelog](https://github.com/standard/standard/blob/master/CHANGELOG.md)\n- [Commits](https://github.com/standard/standard/compare/v14.3.4...v15.0.0)\n\nSigned-off-by: dependabot-preview[bot] <support@dependabot.com>",
                    "reason": "valid",
                    "signature": "-----BEGIN PGP SIGNATURE-----\n\nwsBcBAABCAAQBQJfkk7ICRBK7hj4Ov3rIwAAdHIIAI7GvgspxcWI8wnR2XLSCLXe\nyahyOr/wbebCxKn1J1qj3pW7JwzQmFwoA/asHBcxd/BmyKYDu6ECtZ7VIy2JYsTq\nhYGOaEdlKr0IwWm4aSldz7M9S45HXXSMZ/L0kS688cdDwtN3Rp9yRThBm76Z2Rv5\nqgAFBU0n9uOD8BQjYNaJOnWTeldGBNtyLcO7/BYz/2SDkXQiFQe8N0KH6HTne1n4\nGY16O0AIkVn+EEDl4iIj8UdFSis5Xj23A2UzaoZdOwX0QY3ek6MbcpErWx6tKoeW\nFSPmrEI50wZ0s2/YchRQMWy6wOojnM/sev+C7/MpZtNs3JPfsamjMDPnJGAWKDc=\n=/0Ev\n-----END PGP SIGNATURE-----\n",
                    "verified": true
                }
            },
            "committer": {
                "avatar_url": "https://avatars.githubusercontent.com/u/19864447?v=4",
                "events_url": "https://api.github.com/users/web-flow/events{/privacy}",
                "followers_url": "https://api.github.com/users/web-flow/followers",
                "following_url": "https://api.github.com/users/web-flow/following{/other_user}",
                "gists_url": "https://api.github.com/users/web-flow/gists{/gist_id}",
                "gravatar_id": "",
                "html_url": "https://github.com/web-flow",
                "id": 19864447,
                "login": "web-flow",
                "node_id": "MDQ6VXNlcjE5ODY0NDQ3",
                "organizations_url": "https://api.github.com/users/web-flow/orgs",
                "received_events_url": "https://api.github.com/users/web-flow/received_events",
                "repos_url": "https://api.github.com/users/web-flow/repos",
                "site_admin": false,
                "starred_url": "https://api.github.com/users/web-flow/starred{/owner}{/repo}",
                "subscriptions_url": "https://api.github.com/users/web-flow/subscriptions",
                "type": "User",
                "url": "https://api.github.com/users/web-flow"
            },
            "html_url": "https://github.com/PrismarineJS/prismarine-block/commit/f9641fb2582e80525cdc8b61e29cb87c9d4e71da",
            "node_id": "MDY6Q29tbWl0NDE1NzEzMjM6Zjk2NDFmYjI1ODJlODA1MjVjZGM4YjYxZTI5Y2I4N2M5ZDRlNzFkYQ==",
            "parents": [
                {
                    "html_url": "https://github.com/PrismarineJS/prismarine-block/commit/a5171e63ad4b8b7ffec34c3c49eda9b009d8ccc7",
                    "sha": "a5171e63ad4b8b7ffec34c3c49eda9b009d8ccc7",
                    "url": "https://api.github.com/repos/PrismarineJS/prismarine-block/commits/a5171e63ad4b8b7ffec34c3c49eda9b009d8ccc7"
                }
            ],
            "sha": "f9641fb2582e80525cdc8b61e29cb87c9d4e71da",
            "url": "https://api.github.com/repos/PrismarineJS/prismarine-block/commits/f9641fb2582e80525cdc8b61e29cb87c9d4e71da"
        }
    ],
    "commits": 1,
    "commits_url": "https://api.github.com/repos/PrismarineJS/prismarine-block/pulls/18/commits",
    "created_at": "2020-10-23T03:32:25Z",
    "deletions": 1,
    "diff_url": "https://github.com/PrismarineJS/prismarine-block/pull/18.diff",
    "draft": false,
    "head": {
        "label": "PrismarineJS:dependabot/npm_and_yarn/standard-15.0.0",
        "ref": "dependabot/npm_and_yarn/standard-15.0.0",
        "repo": {
            "allow_forking": true,
            "archive_url": "https://api.github.com/repos/PrismarineJS/prismarine-block/{archive_format}{/ref}",
            "archived": false,
            "assignees_url": "https://api.github.com/repos/PrismarineJS/prismarine-block/assignees{/user}",
            "blobs_url": "https://api.github.com/repos/PrismarineJS/prismarine-block/git/blobs{/sha}",
            "branches_url": "https://api.github.com/repos/PrismarineJS/prismarine-block/branches{/branch}",
            "clone_url": "https://github.com/PrismarineJS/prismarine-block.git",
            "collaborators_url": "https://api.github.com/repos/PrismarineJS/prismarine-block/collaborators{/collaborator}",
            "comments_url": "https://api.github.com/repos/PrismarineJS/prismarine-block/comments{/number}",
            "commits_url": "https://api.github.com/repos/PrismarineJS/prismarine-block/commits{/sha}",
            "compare_url": "https://api.github.com/repos/PrismarineJS/prismarine-block/compare/{base}...{head}",
            "contents_url": "https://api.github.com/repos/PrismarineJS/prismarine-block/contents/{+path}",
            "contributors_url": "https://api.github.com/repos/PrismarineJS/prismarine-block/contributors",
            "created_at": "2015-08-28T22:08:17Z",
            "default_branch": "master",
            "deployments_url": "https://api.github.com/repos/PrismarineJS/prismarine-block/deployments",
            "description": "Represent a minecraft block with its associated data",
            "disabled": false,
            "downloads_url": "https://api.github.com/repos/PrismarineJS/prismarine-block/downloads",
            "events_url": "https://api.github.com/repos/PrismarineJS/prismarine-block/events",
            "fork": false,
            "forks": 18,
            "forks_count": 18,
            "forks_url": "https://api.github.com/repos/PrismarineJS/prismarine-block/forks",
            "full_name": "PrismarineJS/prismarine-block",
            "git_commits_url": "https://api.github.com/repos/PrismarineJS/prismarine-block/git/commits{/sha}",
            "git_refs_url": "https://api.github.com/repos/PrismarineJS/prismarine-block/git/refs{/sha}",
            "git_tags_url": "https://api.github.com/repos/PrismarineJS/prismarine-block/git/tags{/sha}",
            "git_url": "git://github.com/PrismarineJS/prismarine-block.git",
            "has_discussions": false,
            "has_downloads": true,
            "has_issues": true,
            "has_pages": false,
            "has_projects": true,
            "has_wiki": true,
            "homepage": null,
            "hooks_url": "https://api.github.com/repos/PrismarineJS/prismarine-block/hooks",
            "html_url": "https://github.com/PrismarineJS/prismarine-block",
            "id": 41571323,
            "is_template": false,
            "issue_comment_url": "https://api.github.com/repos/PrismarineJS/prismarine-block/issues/comments{/number}",
            "issue_events_url": "https://api.github.com/repos/PrismarineJS/prismarine-block/issues/events{/number}",
            "issues_url": "https://api.github.com/repos/PrismarineJS/prismarine-block/issues{/number}",
            "keys_url": "https://api.github.com/repos/PrismarineJS/prismarine-block/keys{/key_id}",
            "labels_url": "https://api.github.com/repos/PrismarineJS/prismarine-block/labels{/name}",
            "language": "JavaScript",
            "languages_url": "https://api.github.com/repos/PrismarineJS/prismarine-block/languages",
            "license": null,
            "merges_url": "https://api.github.com/repos/PrismarineJS/prismarine-block/merges",
            "milestones_url": "https://api.github.com/repos/PrismarineJS/prismarine-block/milestones{/number}",
            "mirror_url": null,
            "name": "prismarine-block",
            "node_id": "MDEwOlJlcG9zaXRvcnk0MTU3MTMyMw==",
            "notifications_url": "https://api.github.com/repos/PrismarineJS/prismarine-block/notifications{?since,all,participating}",
            "open_issues": 4,
            "open_issues_count": 4,
            "owner": {
                "avatar_url": "https://avatars.githubusercontent.com/u/11053411?v=4",
                "events_url": "https://api.github.com/users/PrismarineJS/events{/privacy}",
                "followers_url": "https://api.github.com/users/PrismarineJS/followers",
                "following_url": "https://api.github.com/users/PrismarineJS/following{/other_user}",
                "gists_url": "https://api.github.com/users/PrismarineJS/gists{/gist_id}",
                "gravatar_id": "",
                "html_url": "https://github.com/PrismarineJS",
                "id": 11053411,
                "login": "PrismarineJS",
                "node_id": "MDEyOk9yZ2FuaXphdGlvbjExMDUzNDEx",
                "organizations_url": "https://api.github.com/users/PrismarineJS/orgs",
                "received_events_url": "https://api.github.com/users/PrismarineJS/received_events",
                "repos_url": "https://api.github.com/users/PrismarineJS/repos",
                "site_admin": false,
                "starred_url": "https://api.github.com/users/PrismarineJS/starred{/owner}{/repo}",
                "subscriptions_url": "https://api.github.com/users/PrismarineJS/subscriptions",
                "type": "Organization",
                "url": "https://api.github.com/users/PrismarineJS"
            },
            "private": false,
            "pulls_url": "https://api.github.com/repos/PrismarineJS/prismarine-block/pulls{/number}",
            "pushed_at": "2023-03-04T18:03:03Z",
            "releases_url": "https://api.github.com/repos/PrismarineJS/prismarine-block/releases{/id}",
            "size": 122,
            "ssh_url": "git@github.com:PrismarineJS/prismarine-block.git",
            "stargazers_count": 24,
            "stargazers_url": "https://api.github.com/repos/PrismarineJS/prismarine-block/stargazers",
            "statuses_url": "https://api.github.com/repos/PrismarineJS/prismarine-block/statuses/{sha}",
            "subscribers_url": "https://api.github.com/repos/PrismarineJS/prismarine-block/subscribers",
            "subscription_url": "https://api.github.com/repos/PrismarineJS/prismarine-block/subscription",
            "svn_url": "https://github.com/PrismarineJS/prismarine-block",
            "tags_url": "https://api.github.com/repos/PrismarineJS/prismarine-block/tags",
            "teams_url": "https://api.github.com/repos/PrismarineJS/prismarine-block/teams",
            "topics": [],
            "trees_url": "https://api.github.com/repos/PrismarineJS/prismarine-block/git/trees{/sha}",
            "updated_at": "2023-01-20T16:05:42Z",
            "url": "https://api.github.com/repos/PrismarineJS/prismarine-block",
            "visibility": "public",
            "watchers": 24,
            "watchers_count": 24,
            "web_commit_signoff_required": false
        },
        "sha": "f9641fb2582e80525cdc8b61e29cb87c9d4e71da",
        "user": {
            "avatar_url": "https://avatars.githubusercontent.com/u/11053411?v=4",
            "events_url": "https://api.github.com/users/PrismarineJS/events{/privacy}",
            "followers_url": "https://api.github.com/users/PrismarineJS/followers",
            "following_url": "https://api.github.com/users/PrismarineJS/following{/other_user}",
            "gists_url": "https://api.github.com/users/PrismarineJS/gists{/gist_id}",
            "gravatar_id": "",
            "html_url": "https://github.com/PrismarineJS",
            "id": 11053411,
            "login": "PrismarineJS",
            "node_id": "MDEyOk9yZ2FuaXphdGlvbjExMDUzNDEx",
            "organizations_url": "https://api.github.com/users/PrismarineJS/orgs",
            "received_events_url": "https://api.github.com/users/PrismarineJS/received_events",
            "repos_url": "https://api.github.com/users/PrismarineJS/repos",
            "site_admin": false,
            "starred_url": "https://api.github.com/users/PrismarineJS/starred{/owner}{/repo}",
            "subscriptions_url": "https://api.github.com/users/PrismarineJS/subscriptions",
            "type": "Organization",
            "url": "https://api.github.com/users/PrismarineJS"
        }
    },
    "html_url": "https://github.com/PrismarineJS/prismarine-block/pull/18",
    "id": 508674402,
    "issue_url": "https://api.github.com/repos/PrismarineJS/prismarine-block/issues/18",
    "labels": [
        {
            "color": "0366d6",
            "default": false,
            "description": "Pull requests that update a dependency file",
            "id": 2067070310,
            "name": "dependencies",
            "node_id": "MDU6TGFiZWwyMDY3MDcwMzEw",
            "url": "https://api.github.com/repos/PrismarineJS/prismarine-block/labels/dependencies"
        }
    ],
    "locked": false,
    "maintainer_can_modify": false,
    "merge_commit_sha": "c45809029982e4430fd0f85d28816fb094f312a3",
    "mergeable": null,
    "mergeable_state": "unknown",
    "merged": false,
    "merged_at": null,
    "merged_by": null,
    "milestone": null,
    "node_id": "MDExOlB1bGxSZXF1ZXN0NTA4Njc0NDAy",
    "number": 18,
    "patch_url": "https://github.com/PrismarineJS/prismarine-block/pull/18.patch",
    "rebaseable": null,
    "requested_reviewers": [],
    "requested_teams": [],
    "review_comment_url": "https://api.github.com/repos/PrismarineJS/prismarine-block/pulls/comments{/number}",
    "review_comments": 0,
    "review_comments_url": "https://api.github.com/repos/PrismarineJS/prismarine-block/pulls/18/comments",
    "state": "closed",
    "statuses_url": "https://api.github.com/repos/PrismarineJS/prismarine-block/statuses/f9641fb2582e80525cdc8b61e29cb87c9d4e71da",
    "title": "Bump standard from 14.3.4 to 15.0.0",
    "updated_at": "2020-10-25T10:37:48Z",
    "url": "https://api.github.com/repos/PrismarineJS/prismarine-block/pulls/18",
    "user": {
        "avatar_url": "https://avatars.githubusercontent.com/in/2141?v=4",
        "events_url": "https://api.github.com/users/dependabot-preview%5Bbot%5D/events{/privacy}",
        "followers_url": "https://api.github.com/users/dependabot-preview%5Bbot%5D/followers",
        "following_url": "https://api.github.com/users/dependabot-preview%5Bbot%5D/following{/other_user}",
        "gists_url": "https://api.github.com/users/dependabot-preview%5Bbot%5D/gists{/gist_id}",
        "gravatar_id": "",
        "html_url": "https://github.com/apps/dependabot-preview",
        "id": 27856297,
        "login": "dependabot-preview[bot]",
        "node_id": "MDM6Qm90Mjc4NTYyOTc=",
        "organizations_url": "https://api.github.com/users/dependabot-preview%5Bbot%5D/orgs",
        "received_events_url": "https://api.github.com/users/dependabot-preview%5Bbot%5D/received_events",
        "repos_url": "https://api.github.com/users/dependabot-preview%5Bbot%5D/repos",
        "site_admin": false,
        "starred_url": "https://api.github.com/users/dependabot-preview%5Bbot%5D/starred{/owner}{/repo}",
        "subscriptions_url": "https://api.github.com/users/dependabot-preview%5Bbot%5D/subscriptions",
        "type": "Bot",
        "url": "https://api.github.com/users/dependabot-preview%5Bbot%5D"
    }
}