{
    "assets": [],
    "assets_url": "https://api.github.com/repos/PrismarineJS/minecraft-data/releases/107789177/assets",
    "author": {
        "avatar_url": "https://avatars.githubusercontent.com/in/15368?v=4",
        "events_url": "https://api.github.com/users/github-actions%5Bbot%5D/events{/privacy}",
        "followers_url": "https://api.github.com/users/github-actions%5Bbot%5D/followers",
        "following_url": "https://api.github.com/users/github-actions%5Bbot%5D/following{/other_user}",
        "gists_url": "https://api.github.com/users/github-actions%5Bbot%5D/gists{/gist_id}",
        "gravatar_id": "",
        "html_url": "https://github.com/apps/github-actions",
        "id": 41898282,
        "login": "github-actions[bot]",
        "node_id": "MDM6Qm90NDE4OTgyODI=",
        "organizations_url": "https://api.github.com/users/github-actions%5Bbot%5D/orgs",
        "received_events_url": "https://api.github.com/users/github-actions%5Bbot%5D/received_events",
        "repos_url": "https://api.github.com/users/github-actions%5Bbot%5D/repos",
        "site_admin": false,
        "starred_url": "https://api.github.com/users/github-actions%5Bbot%5D/starred{/owner}{/repo}",
        "subscriptions_url": "https://api.github.com/users/github-actions%5Bbot%5D/subscriptions",
        "type": "Bot",
        "url": "https://api.github.com/users/github-actions%5Bbot%5D",
        "user_view_type": "public"
    },
    "body": "3.35.0",
    "created_at": "2023-06-08T07:08:10Z",
    "draft": false,
    "html_url": "https://github.com/PrismarineJS/minecraft-data/releases/tag/3.35.0",
    "id": 107789177,
    "name": "Release 3.35.0",
    "node_id": "RE_kwDOAfOYes4GbLt5",
    "prerelease": false,
    "published_at": "2023-06-08T07:08:28Z",
    "tag_name": "3.35.0",
    "tarball_url": "https://api.github.com/repos/PrismarineJS/minecraft-data/tarball/3.35.0",
    "target_commitish": "b7d49a96e943786c4de9797dbdbe19830e829d6b",
    "upload_url": "https://uploads.github.com/repos/PrismarineJS/minecraft-data/releases/107789177/assets{?name,label}",
    "url": "https://api.github.com/repos/PrismarineJS/minecraft-data/releases/107789177",
    "zipball_url": "https://api.github.com/repos/PrismarineJS/minecraft-data/zipball/3.35.0"
}