{
    "assets": [],
    "assets_url": "https://api.github.com/repos/PrismarineJS/minecraft-data/releases/117876369/assets",
    "author": {
        "avatar_url": "https://avatars.githubusercontent.com/in/15368?v=4",
        "events_url": "https://api.github.com/users/github-actions%5Bbot%5D/events{/privacy}",
        "followers_url": "https://api.github.com/users/github-actions%5Bbot%5D/followers",
        "following_url": "https://api.github.com/users/github-actions%5Bbot%5D/following{/other_user}",
        "gists_url": "https://api.github.com/users/github-actions%5Bbot%5D/gists{/gist_id}",
        "gravatar_id": "",
        "html_url": "https://github.com/apps/github-actions",
        "id": 41898282,
        "login": "github-actions[bot]",
        "node_id": "MDM6Qm90NDE4OTgyODI=",
        "organizations_url": "https://api.github.com/users/github-actions%5Bbot%5D/orgs",
        "received_events_url": "https://api.github.com/users/github-actions%5Bbot%5D/received_events",
        "repos_url": "https://api.github.com/users/github-actions%5Bbot%5D/repos",
        "site_admin": false,
        "starred_url": "https://api.github.com/users/github-actions%5Bbot%5D/starred{/owner}{/repo}",
        "subscriptions_url": "https://api.github.com/users/github-actions%5Bbot%5D/subscriptions",
        "type": "Bot",
        "url": "https://api.github.com/users/github-actions%5Bbot%5D",
        "user_view_type": "public"
    },
    "body": "3.43.0",
    "created_at": "2023-08-19T19:46:40Z",
    "draft": false,
    "html_url": "https://github.com/PrismarineJS/minecraft-data/releases/tag/3.43.0",
    "id": 117876369,
    "name": "Release 3.43.0",
    "node_id": "RE_kwDOAfOYes4HBqaR",
    "prerelease": false,
    "published_at": "2023-08-19T19:47:01Z",
    "reactions": {
        "+1": 1,
        "-1": 0,
        "confused": 0,
        "eyes": 0,
        "heart": 0,
        "hooray": 0,
        "laugh": 0,
        "rocket": 0,
        "total_count": 1,
        "url": "https://api.github.com/repos/PrismarineJS/minecraft-data/releases/117876369/reactions"
    },
    "tag_name": "3.43.0",
    "tarball_url": "https://api.github.com/repos/PrismarineJS/minecraft-data/tarball/3.43.0",
    "target_commitish": "514787f81fedd876ace7c554de808e8ead9d53f6",
    "upload_url": "https://uploads.github.com/repos/PrismarineJS/minecraft-data/releases/117876369/assets{?name,label}",
    "url": "https://api.github.com/repos/PrismarineJS/minecraft-data/releases/117876369",
    "zipball_url": "https://api.github.com/repos/PrismarineJS/minecraft-data/zipball/3.43.0"
}