{
    "_links": {
        "comments": {
            "href": "https://api.github.com/repos/PrismarineJS/prismarine-world/issues/115/comments"
        },
        "commits": {
            "href": "https://api.github.com/repos/PrismarineJS/prismarine-world/pulls/115/commits"
        },
        "html": {
            "href": "https://github.com/PrismarineJS/prismarine-world/pull/115"
        },
        "issue": {
            "href": "https://api.github.com/repos/PrismarineJS/prismarine-world/issues/115"
        },
        "review_comment": {
            "href": "https://api.github.com/repos/PrismarineJS/prismarine-world/pulls/comments{/number}"
        },
        "review_comments": {
            "href": "https://api.github.com/repos/PrismarineJS/prismarine-world/pulls/115/comments"
        },
        "self": {
            "href": "https://api.github.com/repos/PrismarineJS/prismarine-world/pulls/115"
        },
        "statuses": {
            "href": "https://api.github.com/repos/PrismarineJS/prismarine-world/statuses/f1957c1c6e7111b917959bea373b1d4b2926b191"
        }
    },
    "active_lock_reason": null,
    "additions": 4,
    "assignee": null,
    "assignees": [],
    "author_association": "NONE",
    "auto_merge": null,
    "base": {
        "label": "PrismarineJS:master",
        "ref": "master",
        "repo": {
            "allow_forking": true,
            "archive_url": "https://api.github.com/repos/PrismarineJS/prismarine-world/{archive_format}{/ref}",
            "archived": false,
            "assignees_url": "https://api.github.com/repos/PrismarineJS/prismarine-world/assignees{/user}",
            "blobs_url": "https://api.github.com/repos/PrismarineJS/prismarine-world/git/blobs{/sha}",
            "branches_url": "https://api.github.com/repos/PrismarineJS/prismarine-world/branches{/branch}",
            "clone_url": "https://github.com/PrismarineJS/prismarine-world.git",
            "collaborators_url": "https://api.github.com/repos/PrismarineJS/prismarine-world/collaborators{/collaborator}",
            "comments_url": "https://api.github.com/repos/PrismarineJS/prismarine-world/comments{/number}",
            "commits_url": "https://api.github.com/repos/PrismarineJS/prismarine-world/commits{/sha}",
            "compare_url": "https://api.github.com/repos/PrismarineJS/prismarine-world/compare/{base}...{head}",
            "contents_url": "https://api.github.com/repos/PrismarineJS/prismarine-world/contents/{+path}",
            "contributors_url": "https://api.github.com/repos/PrismarineJS/prismarine-world/contributors",
            "created_at": "2015-03-03T23:50:22Z",
            "default_branch": "master",
            "deployments_url": "https://api.github.com/repos/PrismarineJS/prismarine-world/deployments",
            "description": "The core implementation of worlds for prismarine",
            "disabled": false,
            "downloads_url": "https://api.github.com/repos/PrismarineJS/prismarine-world/downloads",
            "events_url": "https://api.github.com/repos/PrismarineJS/prismarine-world/events",
            "fork": false,
            "forks": 27,
            "forks_count": 27,
            "forks_url": "https://api.github.com/repos/PrismarineJS/prismarine-world/forks",
            "full_name": "PrismarineJS/prismarine-world",
            "git_commits_url": "https://api.github.com/repos/PrismarineJS/prismarine-world/git/commits{/sha}",
            "git_refs_url": "https://api.github.com/repos/PrismarineJS/prismarine-world/git/refs{/sha}",
            "git_tags_url": "https://api.github.com/repos/PrismarineJS/prismarine-world/git/tags{/sha}",
            "git_url": "git://github.com/PrismarineJS/prismarine-world.git",
            "has_discussions": false,
            "has_downloads": true,
            "has_issues": true,
            "has_pages": true,
            "has_projects": true,
            "has_wiki": true,
            "homepage": "http://prismarine.js.org/prismarine-world/",
            "hooks_url": "https://api.github.com/repos/PrismarineJS/prismarine-world/hooks",
            "html_url": "https://github.com/PrismarineJS/prismarine-world",
            "id": 31627956,
            "is_template": false,
            "issue_comment_url": "https://api.github.com/repos/PrismarineJS/prismarine-world/issues/comments{/number}",
            "issue_events_url": "https://api.github.com/repos/PrismarineJS/prismarine-world/issues/events{/number}",
            "issues_url": "https://api.github.com/repos/PrismarineJS/prismarine-world/issues{/number}",
            "keys_url": "https://api.github.com/repos/PrismarineJS/prismarine-world/keys{/key_id}",
            "labels_url": "https://api.github.com/repos/PrismarineJS/prismarine-world/labels{/name}",
            "language": "JavaScript",
            "languages_url": "https://api.github.com/repos/PrismarineJS/prismarine-world/languages",
            "license": null,
            "merges_url": "https://api.github.com/repos/PrismarineJS/prismarine-world/merges",
            "milestones_url": "https://api.github.com/repos/PrismarineJS/prismarine-world/milestones{/number}",
            "mirror_url": null,
            "name": "prismarine-world",
            "node_id": "MDEwOlJlcG9zaXRvcnkzMTYyNzk1Ng==",
            "notifications_url": "https://api.github.com/repos/PrismarineJS/prismarine-world/notifications{?since,all,participating}",
            "open_issues": 15,
            "open_issues_count": 15,
            "owner": {
                "avatar_url": "https://avatars.githubusercontent.com/u/11053411?v=4",
                "events_url": "https://api.github.com/users/PrismarineJS/events{/privacy}",
                "followers_url": "https://api.github.com/users/PrismarineJS/followers",
                "following_url": "https://api.github.com/users/PrismarineJS/following{/other_user}",
                "gists_url": "https://api.github.com/users/PrismarineJS/gists{/gist_id}",
                "gravatar_id": "",
                "html_url": "https://github.com/PrismarineJS",
                "id": 11053411,
                "login": "PrismarineJS",
                "node_id": "MDEyOk9yZ2FuaXphdGlvbjExMDUzNDEx",
                "organizations_url": "https://api.github.com/users/PrismarineJS/orgs",
                "received_events_url": "https://api.github.com/users/PrismarineJS/received_events",
                "repos_url": "https://api.github.com/users/PrismarineJS/repos",
                "site_admin": false,
                "starred_url": "https://api.github.com/users/PrismarineJS/starred{/owner}{/repo}",
                "subscriptions_url": "https://api.github.com/users/PrismarineJS/subscriptions",
                "type": "Organization",
                "url": "https://api.github.com/users/PrismarineJS"
            },
            "private": false,
            "pulls_url": "https://api.github.com/repos/PrismarineJS/prismarine-world/pulls{/number}",
            "pushed_at": "2023-04-25T14:57:52Z",
            "releases_url": "https://api.github.com/repos/PrismarineJS/prismarine-world/releases{/id}",
            "size": 6883,
            "ssh_url": "git@github.com:PrismarineJS/prismarine-world.git",
            "stargazers_count": 22,
            "stargazers_url": "https://api.github.com/repos/PrismarineJS/prismarine-world/stargazers",
            "statuses_url": "https://api.github.com/repos/PrismarineJS/prismarine-world/statuses/{sha}",
            "subscribers_url": "https://api.github.com/repos/PrismarineJS/prismarine-world/subscribers",
            "subscription_url": "https://api.github.com/repos/PrismarineJS/prismarine-world/subscription",
            "svn_url": "https://github.com/PrismarineJS/prismarine-world",
            "tags_url": "https://api.github.com/repos/PrismarineJS/prismarine-world/tags",
            "teams_url": "https://api.github.com/repos/PrismarineJS/prismarine-world/teams",
            "topics": [
                "3d",
                "minecraft",
                "world"
            ],
            "trees_url": "https://api.github.com/repos/PrismarineJS/prismarine-world/git/trees{/sha}",
            "updated_at": "2023-04-07T06:42:38Z",
            "url": "https://api.github.com/repos/PrismarineJS/prismarine-world",
            "visibility": "public",
            "watchers": 22,
            "watchers_count": 22,
            "web_commit_signoff_required": false
        },
        "sha": "b86ae0bd3e14f946898fad16ff18e03676e0b014",
        "user": {
            "avatar_url": "https://avatars.githubusercontent.com/u/11053411?v=4",
            "events_url": "https://api.github.com/users/PrismarineJS/events{/privacy}",
            "followers_url": "https://api.github.com/users/PrismarineJS/followers",
            "following_url": "https://api.github.com/users/PrismarineJS/following{/other_user}",
            "gists_url": "https://api.github.com/users/PrismarineJS/gists{/gist_id}",
            "gravatar_id": "",
            "html_url": "https://github.com/PrismarineJS",
            "id": 11053411,
            "login": "PrismarineJS",
            "node_id": "MDEyOk9yZ2FuaXphdGlvbjExMDUzNDEx",
            "organizations_url": "https://api.github.com/users/PrismarineJS/orgs",
            "received_events_url": "https://api.github.com/users/PrismarineJS/received_events",
            "repos_url": "https://api.github.com/users/PrismarineJS/repos",
            "site_admin": false,
            "starred_url": "https://api.github.com/users/PrismarineJS/starred{/owner}{/repo}",
            "subscriptions_url": "https://api.github.com/users/PrismarineJS/subscriptions",
            "type": "Organization",
            "url": "https://api.github.com/users/PrismarineJS"
        }
    },
    "body": "Exporting Class World needed for this: https://github.com/PrismarineJS/mineflayer/issues/2687\r\nAfter this, I will PR for Mineflayer connecting the typings for https://github.com/PrismarineJS/mineflayer/blob/master/index.d.ts",
    "changed_files": 1,
    "closed_at": "2023-01-20T21:45:28Z",
    "comment_data": [],
    "comment_regular_data": [
        {
            "author_association": "MEMBER",
            "body": "You updated the JS file, `export` cannot be used since it's using commonjs. If you want to import typescript type then you need to write an `index.d.ts` file that mirrors the JS code",
            "created_at": "2023-01-16T23:06:49Z",
            "html_url": "https://github.com/PrismarineJS/prismarine-world/pull/115#issuecomment-1384653927",
            "id": 1384653927,
            "issue_url": "https://api.github.com/repos/PrismarineJS/prismarine-world/issues/115",
            "node_id": "IC_kwDOAeKatM5SiCRn",
            "performed_via_github_app": null,
            "reactions": {
                "+1": 0,
                "-1": 0,
                "confused": 0,
                "eyes": 0,
                "heart": 0,
                "hooray": 0,
                "laugh": 0,
                "rocket": 0,
                "total_count": 0,
                "url": "https://api.github.com/repos/PrismarineJS/prismarine-world/issues/comments/1384653927/reactions"
            },
            "updated_at": "2023-01-16T23:06:49Z",
            "url": "https://api.github.com/repos/PrismarineJS/prismarine-world/issues/comments/1384653927",
            "user": {
                "avatar_url": "https://avatars.githubusercontent.com/u/13713600?v=4",
                "events_url": "https://api.github.com/users/extremeheat/events{/privacy}",
                "followers_url": "https://api.github.com/users/extremeheat/followers",
                "following_url": "https://api.github.com/users/extremeheat/following{/other_user}",
                "gists_url": "https://api.github.com/users/extremeheat/gists{/gist_id}",
                "gravatar_id": "",
                "html_url": "https://github.com/extremeheat",
                "id": 13713600,
                "login": "extremeheat",
                "node_id": "MDQ6VXNlcjEzNzEzNjAw",
                "organizations_url": "https://api.github.com/users/extremeheat/orgs",
                "received_events_url": "https://api.github.com/users/extremeheat/received_events",
                "repos_url": "https://api.github.com/users/extremeheat/repos",
                "site_admin": false,
                "starred_url": "https://api.github.com/users/extremeheat/starred{/owner}{/repo}",
                "subscriptions_url": "https://api.github.com/users/extremeheat/subscriptions",
                "type": "User",
                "url": "https://api.github.com/users/extremeheat"
            }
        }
    ],
    "comments": 1,
    "comments_url": "https://api.github.com/repos/PrismarineJS/prismarine-world/issues/115/comments",
    "commit_data": [
        {
            "author": {
                "avatar_url": "https://avatars.githubusercontent.com/u/65435039?v=4",
                "events_url": "https://api.github.com/users/schneiderchristopher/events{/privacy}",
                "followers_url": "https://api.github.com/users/schneiderchristopher/followers",
                "following_url": "https://api.github.com/users/schneiderchristopher/following{/other_user}",
                "gists_url": "https://api.github.com/users/schneiderchristopher/gists{/gist_id}",
                "gravatar_id": "",
                "html_url": "https://github.com/schneiderchristopher",
                "id": 65435039,
                "login": "schneiderchristopher",
                "node_id": "MDQ6VXNlcjY1NDM1MDM5",
                "organizations_url": "https://api.github.com/users/schneiderchristopher/orgs",
                "received_events_url": "https://api.github.com/users/schneiderchristopher/received_events",
                "repos_url": "https://api.github.com/users/schneiderchristopher/repos",
                "site_admin": false,
                "starred_url": "https://api.github.com/users/schneiderchristopher/starred{/owner}{/repo}",
                "subscriptions_url": "https://api.github.com/users/schneiderchristopher/subscriptions",
                "type": "User",
                "url": "https://api.github.com/users/schneiderchristopher"
            },
            "comments_url": "https://api.github.com/repos/PrismarineJS/prismarine-world/commits/5772745b6eb1e17afe79519f8193bfb6e88cf188/comments",
            "commit": {
                "author": {
                    "date": "2023-01-16T22:45:46Z",
                    "email": "65435039+schneiderchristopher@users.noreply.github.com",
                    "name": "Christopher Schneider"
                },
                "comment_count": 0,
                "committer": {
                    "date": "2023-01-16T22:45:46Z",
                    "email": "noreply@github.com",
                    "name": "GitHub"
                },
                "message": "exports class World",
                "tree": {
                    "sha": "5940bf587d1f0ef902710ab0e3e1d23820e170b6",
                    "url": "https://api.github.com/repos/PrismarineJS/prismarine-world/git/trees/5940bf587d1f0ef902710ab0e3e1d23820e170b6"
                },
                "url": "https://api.github.com/repos/PrismarineJS/prismarine-world/git/commits/5772745b6eb1e17afe79519f8193bfb6e88cf188",
                "verification": {
                    "payload": "tree 5940bf587d1f0ef902710ab0e3e1d23820e170b6\nparent b86ae0bd3e14f946898fad16ff18e03676e0b014\nauthor Christopher Schneider <65435039+schneiderchristopher@users.noreply.github.com> 1673909146 -0300\ncommitter GitHub <noreply@github.com> 1673909146 -0300\n\nexports class World",
                    "reason": "valid",
                    "signature": "-----BEGIN PGP SIGNATURE-----\n\nwsBcBAABCAAQBQJjxdOaCRBK7hj4Ov3rIwAARbsIALI1F/8aSdxaaCGiXlaoDPIS\nrPXQMMpPgUebcd8B1y4jNJPLP1t6afIkjyRXKJlbTq+8WA09h15T/csqUHXUl2gx\ndtyTbBwiyh6QqiETUzRG9ASKg4uw2IXbJbALOJJKR4pmLWAhsnY/baXyvrD8Z4aa\nfHXvc/uk5BYr+kOYBunB+r+V5u4QTnImt+YegKzO3s+1yeEHG9MufZi07ZLYuD8v\ntLnbIyXBRy4/vrb1UmnmByo0AOJZrjH62pOq/+6UUKmY4B61egHOjxHeAKCmeFIA\nMiqgeC/HQB9AjONeDUGYeiJfVjoUkq61qOA9ldagY9EkjfDl+1RWM3P3KxqcvIc=\n=EKhE\n-----END PGP SIGNATURE-----\n",
                    "verified": true
                }
            },
            "committer": {
                "avatar_url": "https://avatars.githubusercontent.com/u/19864447?v=4",
                "events_url": "https://api.github.com/users/web-flow/events{/privacy}",
                "followers_url": "https://api.github.com/users/web-flow/followers",
                "following_url": "https://api.github.com/users/web-flow/following{/other_user}",
                "gists_url": "https://api.github.com/users/web-flow/gists{/gist_id}",
                "gravatar_id": "",
                "html_url": "https://github.com/web-flow",
                "id": 19864447,
                "login": "web-flow",
                "node_id": "MDQ6VXNlcjE5ODY0NDQ3",
                "organizations_url": "https://api.github.com/users/web-flow/orgs",
                "received_events_url": "https://api.github.com/users/web-flow/received_events",
                "repos_url": "https://api.github.com/users/web-flow/repos",
                "site_admin": false,
                "starred_url": "https://api.github.com/users/web-flow/starred{/owner}{/repo}",
                "subscriptions_url": "https://api.github.com/users/web-flow/subscriptions",
                "type": "User",
                "url": "https://api.github.com/users/web-flow"
            },
            "html_url": "https://github.com/PrismarineJS/prismarine-world/commit/5772745b6eb1e17afe79519f8193bfb6e88cf188",
            "node_id": "C_kwDOAeKatNoAKDU3NzI3NDViNmViMWUxN2FmZTc5NTE5ZjgxOTNiZmI2ZTg4Y2YxODg",
            "parents": [
                {
                    "html_url": "https://github.com/PrismarineJS/prismarine-world/commit/b86ae0bd3e14f946898fad16ff18e03676e0b014",
                    "sha": "b86ae0bd3e14f946898fad16ff18e03676e0b014",
                    "url": "https://api.github.com/repos/PrismarineJS/prismarine-world/commits/b86ae0bd3e14f946898fad16ff18e03676e0b014"
                }
            ],
            "sha": "5772745b6eb1e17afe79519f8193bfb6e88cf188",
            "url": "https://api.github.com/repos/PrismarineJS/prismarine-world/commits/5772745b6eb1e17afe79519f8193bfb6e88cf188"
        },
        {
            "author": {
                "avatar_url": "https://avatars.githubusercontent.com/u/65435039?v=4",
                "events_url": "https://api.github.com/users/schneiderchristopher/events{/privacy}",
                "followers_url": "https://api.github.com/users/schneiderchristopher/followers",
                "following_url": "https://api.github.com/users/schneiderchristopher/following{/other_user}",
                "gists_url": "https://api.github.com/users/schneiderchristopher/gists{/gist_id}",
                "gravatar_id": "",
                "html_url": "https://github.com/schneiderchristopher",
                "id": 65435039,
                "login": "schneiderchristopher",
                "node_id": "MDQ6VXNlcjY1NDM1MDM5",
                "organizations_url": "https://api.github.com/users/schneiderchristopher/orgs",
                "received_events_url": "https://api.github.com/users/schneiderchristopher/received_events",
                "repos_url": "https://api.github.com/users/schneiderchristopher/repos",
                "site_admin": false,
                "starred_url": "https://api.github.com/users/schneiderchristopher/starred{/owner}{/repo}",
                "subscriptions_url": "https://api.github.com/users/schneiderchristopher/subscriptions",
                "type": "User",
                "url": "https://api.github.com/users/schneiderchristopher"
            },
            "comments_url": "https://api.github.com/repos/PrismarineJS/prismarine-world/commits/f1957c1c6e7111b917959bea373b1d4b2926b191/comments",
            "commit": {
                "author": {
                    "date": "2023-01-20T21:32:36Z",
                    "email": "schneiderchristopher16@gmail.com",
                    "name": "Christopher Schneider"
                },
                "comment_count": 0,
                "committer": {
                    "date": "2023-01-20T21:32:36Z",
                    "email": "schneiderchristopher16@gmail.com",
                    "name": "Christopher Schneider"
                },
                "message": "fix: exporting world the correct way, as it already had typing but were not being used due to not being exported from the src file",
                "tree": {
                    "sha": "0c7551e85bfb6e49d7a374f08f8732347f728007",
                    "url": "https://api.github.com/repos/PrismarineJS/prismarine-world/git/trees/0c7551e85bfb6e49d7a374f08f8732347f728007"
                },
                "url": "https://api.github.com/repos/PrismarineJS/prismarine-world/git/commits/f1957c1c6e7111b917959bea373b1d4b2926b191",
                "verification": {
                    "payload": null,
                    "reason": "unsigned",
                    "signature": null,
                    "verified": false
                }
            },
            "committer": {
                "avatar_url": "https://avatars.githubusercontent.com/u/65435039?v=4",
                "events_url": "https://api.github.com/users/schneiderchristopher/events{/privacy}",
                "followers_url": "https://api.github.com/users/schneiderchristopher/followers",
                "following_url": "https://api.github.com/users/schneiderchristopher/following{/other_user}",
                "gists_url": "https://api.github.com/users/schneiderchristopher/gists{/gist_id}",
                "gravatar_id": "",
                "html_url": "https://github.com/schneiderchristopher",
                "id": 65435039,
                "login": "schneiderchristopher",
                "node_id": "MDQ6VXNlcjY1NDM1MDM5",
                "organizations_url": "https://api.github.com/users/schneiderchristopher/orgs",
                "received_events_url": "https://api.github.com/users/schneiderchristopher/received_events",
                "repos_url": "https://api.github.com/users/schneiderchristopher/repos",
                "site_admin": false,
                "starred_url": "https://api.github.com/users/schneiderchristopher/starred{/owner}{/repo}",
                "subscriptions_url": "https://api.github.com/users/schneiderchristopher/subscriptions",
                "type": "User",
                "url": "https://api.github.com/users/schneiderchristopher"
            },
            "html_url": "https://github.com/PrismarineJS/prismarine-world/commit/f1957c1c6e7111b917959bea373b1d4b2926b191",
            "node_id": "C_kwDOAeKatNoAKGYxOTU3YzFjNmU3MTExYjkxNzk1OWJlYTM3M2IxZDRiMjkyNmIxOTE",
            "parents": [
                {
                    "html_url": "https://github.com/PrismarineJS/prismarine-world/commit/5772745b6eb1e17afe79519f8193bfb6e88cf188",
                    "sha": "5772745b6eb1e17afe79519f8193bfb6e88cf188",
                    "url": "https://api.github.com/repos/PrismarineJS/prismarine-world/commits/5772745b6eb1e17afe79519f8193bfb6e88cf188"
                }
            ],
            "sha": "f1957c1c6e7111b917959bea373b1d4b2926b191",
            "url": "https://api.github.com/repos/PrismarineJS/prismarine-world/commits/f1957c1c6e7111b917959bea373b1d4b2926b191"
        }
    ],
    "commits": 2,
    "commits_url": "https://api.github.com/repos/PrismarineJS/prismarine-world/pulls/115/commits",
    "created_at": "2023-01-16T22:49:44Z",
    "deletions": 1,
    "diff_url": "https://github.com/PrismarineJS/prismarine-world/pull/115.diff",
    "draft": false,
    "head": {
        "label": "schneiderchristopher:master",
        "ref": "master",
        "repo": null,
        "sha": "f1957c1c6e7111b917959bea373b1d4b2926b191",
        "user": {
            "avatar_url": "https://avatars.githubusercontent.com/u/65435039?v=4",
            "events_url": "https://api.github.com/users/schneiderchristopher/events{/privacy}",
            "followers_url": "https://api.github.com/users/schneiderchristopher/followers",
            "following_url": "https://api.github.com/users/schneiderchristopher/following{/other_user}",
            "gists_url": "https://api.github.com/users/schneiderchristopher/gists{/gist_id}",
            "gravatar_id": "",
            "html_url": "https://github.com/schneiderchristopher",
            "id": 65435039,
            "login": "schneiderchristopher",
            "node_id": "MDQ6VXNlcjY1NDM1MDM5",
            "organizations_url": "https://api.github.com/users/schneiderchristopher/orgs",
            "received_events_url": "https://api.github.com/users/schneiderchristopher/received_events",
            "repos_url": "https://api.github.com/users/schneiderchristopher/repos",
            "site_admin": false,
            "starred_url": "https://api.github.com/users/schneiderchristopher/starred{/owner}{/repo}",
            "subscriptions_url": "https://api.github.com/users/schneiderchristopher/subscriptions",
            "type": "User",
            "url": "https://api.github.com/users/schneiderchristopher"
        }
    },
    "html_url": "https://github.com/PrismarineJS/prismarine-world/pull/115",
    "id": 1199569864,
    "issue_url": "https://api.github.com/repos/PrismarineJS/prismarine-world/issues/115",
    "labels": [],
    "locked": false,
    "maintainer_can_modify": false,
    "merge_commit_sha": "0a504cdc484f1dd5b8e957d4214654d5f4b2b3d4",
    "mergeable": null,
    "mergeable_state": "unknown",
    "merged": false,
    "merged_at": null,
    "merged_by": null,
    "milestone": null,
    "node_id": "PR_kwDOAeKatM5Hf_vI",
    "number": 115,
    "patch_url": "https://github.com/PrismarineJS/prismarine-world/pull/115.patch",
    "rebaseable": null,
    "requested_reviewers": [],
    "requested_teams": [],
    "review_comment_url": "https://api.github.com/repos/PrismarineJS/prismarine-world/pulls/comments{/number}",
    "review_comments": 0,
    "review_comments_url": "https://api.github.com/repos/PrismarineJS/prismarine-world/pulls/115/comments",
    "state": "closed",
    "statuses_url": "https://api.github.com/repos/PrismarineJS/prismarine-world/statuses/f1957c1c6e7111b917959bea373b1d4b2926b191",
    "title": "exports class World",
    "updated_at": "2023-01-20T21:45:28Z",
    "url": "https://api.github.com/repos/PrismarineJS/prismarine-world/pulls/115",
    "user": {
        "avatar_url": "https://avatars.githubusercontent.com/u/65435039?v=4",
        "events_url": "https://api.github.com/users/schneiderchristopher/events{/privacy}",
        "followers_url": "https://api.github.com/users/schneiderchristopher/followers",
        "following_url": "https://api.github.com/users/schneiderchristopher/following{/other_user}",
        "gists_url": "https://api.github.com/users/schneiderchristopher/gists{/gist_id}",
        "gravatar_id": "",
        "html_url": "https://github.com/schneiderchristopher",
        "id": 65435039,
        "login": "schneiderchristopher",
        "node_id": "MDQ6VXNlcjY1NDM1MDM5",
        "organizations_url": "https://api.github.com/users/schneiderchristopher/orgs",
        "received_events_url": "https://api.github.com/users/schneiderchristopher/received_events",
        "repos_url": "https://api.github.com/users/schneiderchristopher/repos",
        "site_admin": false,
        "starred_url": "https://api.github.com/users/schneiderchristopher/starred{/owner}{/repo}",
        "subscriptions_url": "https://api.github.com/users/schneiderchristopher/subscriptions",
        "type": "User",
        "url": "https://api.github.com/users/schneiderchristopher"
    }
}