{
    "_links": {
        "comments": {
            "href": "https://api.github.com/repos/PrismarineJS/prismarine-world/issues/76/comments"
        },
        "commits": {
            "href": "https://api.github.com/repos/PrismarineJS/prismarine-world/pulls/76/commits"
        },
        "html": {
            "href": "https://github.com/PrismarineJS/prismarine-world/pull/76"
        },
        "issue": {
            "href": "https://api.github.com/repos/PrismarineJS/prismarine-world/issues/76"
        },
        "review_comment": {
            "href": "https://api.github.com/repos/PrismarineJS/prismarine-world/pulls/comments{/number}"
        },
        "review_comments": {
            "href": "https://api.github.com/repos/PrismarineJS/prismarine-world/pulls/76/comments"
        },
        "self": {
            "href": "https://api.github.com/repos/PrismarineJS/prismarine-world/pulls/76"
        },
        "statuses": {
            "href": "https://api.github.com/repos/PrismarineJS/prismarine-world/statuses/15a889b6a2d720a1d4aeb610356feb8618fd7d14"
        }
    },
    "active_lock_reason": null,
    "additions": 1,
    "assignee": null,
    "assignees": [],
    "author_association": "CONTRIBUTOR",
    "auto_merge": null,
    "base": {
        "label": "PrismarineJS:master",
        "ref": "master",
        "repo": {
            "allow_forking": true,
            "archive_url": "https://api.github.com/repos/PrismarineJS/prismarine-world/{archive_format}{/ref}",
            "archived": false,
            "assignees_url": "https://api.github.com/repos/PrismarineJS/prismarine-world/assignees{/user}",
            "blobs_url": "https://api.github.com/repos/PrismarineJS/prismarine-world/git/blobs{/sha}",
            "branches_url": "https://api.github.com/repos/PrismarineJS/prismarine-world/branches{/branch}",
            "clone_url": "https://github.com/PrismarineJS/prismarine-world.git",
            "collaborators_url": "https://api.github.com/repos/PrismarineJS/prismarine-world/collaborators{/collaborator}",
            "comments_url": "https://api.github.com/repos/PrismarineJS/prismarine-world/comments{/number}",
            "commits_url": "https://api.github.com/repos/PrismarineJS/prismarine-world/commits{/sha}",
            "compare_url": "https://api.github.com/repos/PrismarineJS/prismarine-world/compare/{base}...{head}",
            "contents_url": "https://api.github.com/repos/PrismarineJS/prismarine-world/contents/{+path}",
            "contributors_url": "https://api.github.com/repos/PrismarineJS/prismarine-world/contributors",
            "created_at": "2015-03-03T23:50:22Z",
            "default_branch": "master",
            "deployments_url": "https://api.github.com/repos/PrismarineJS/prismarine-world/deployments",
            "description": "The core implementation of worlds for prismarine",
            "disabled": false,
            "downloads_url": "https://api.github.com/repos/PrismarineJS/prismarine-world/downloads",
            "events_url": "https://api.github.com/repos/PrismarineJS/prismarine-world/events",
            "fork": false,
            "forks": 27,
            "forks_count": 27,
            "forks_url": "https://api.github.com/repos/PrismarineJS/prismarine-world/forks",
            "full_name": "PrismarineJS/prismarine-world",
            "git_commits_url": "https://api.github.com/repos/PrismarineJS/prismarine-world/git/commits{/sha}",
            "git_refs_url": "https://api.github.com/repos/PrismarineJS/prismarine-world/git/refs{/sha}",
            "git_tags_url": "https://api.github.com/repos/PrismarineJS/prismarine-world/git/tags{/sha}",
            "git_url": "git://github.com/PrismarineJS/prismarine-world.git",
            "has_discussions": false,
            "has_downloads": true,
            "has_issues": true,
            "has_pages": true,
            "has_projects": true,
            "has_wiki": true,
            "homepage": "http://prismarine.js.org/prismarine-world/",
            "hooks_url": "https://api.github.com/repos/PrismarineJS/prismarine-world/hooks",
            "html_url": "https://github.com/PrismarineJS/prismarine-world",
            "id": 31627956,
            "is_template": false,
            "issue_comment_url": "https://api.github.com/repos/PrismarineJS/prismarine-world/issues/comments{/number}",
            "issue_events_url": "https://api.github.com/repos/PrismarineJS/prismarine-world/issues/events{/number}",
            "issues_url": "https://api.github.com/repos/PrismarineJS/prismarine-world/issues{/number}",
            "keys_url": "https://api.github.com/repos/PrismarineJS/prismarine-world/keys{/key_id}",
            "labels_url": "https://api.github.com/repos/PrismarineJS/prismarine-world/labels{/name}",
            "language": "JavaScript",
            "languages_url": "https://api.github.com/repos/PrismarineJS/prismarine-world/languages",
            "license": null,
            "merges_url": "https://api.github.com/repos/PrismarineJS/prismarine-world/merges",
            "milestones_url": "https://api.github.com/repos/PrismarineJS/prismarine-world/milestones{/number}",
            "mirror_url": null,
            "name": "prismarine-world",
            "node_id": "MDEwOlJlcG9zaXRvcnkzMTYyNzk1Ng==",
            "notifications_url": "https://api.github.com/repos/PrismarineJS/prismarine-world/notifications{?since,all,participating}",
            "open_issues": 15,
            "open_issues_count": 15,
            "owner": {
                "avatar_url": "https://avatars.githubusercontent.com/u/11053411?v=4",
                "events_url": "https://api.github.com/users/PrismarineJS/events{/privacy}",
                "followers_url": "https://api.github.com/users/PrismarineJS/followers",
                "following_url": "https://api.github.com/users/PrismarineJS/following{/other_user}",
                "gists_url": "https://api.github.com/users/PrismarineJS/gists{/gist_id}",
                "gravatar_id": "",
                "html_url": "https://github.com/PrismarineJS",
                "id": 11053411,
                "login": "PrismarineJS",
                "node_id": "MDEyOk9yZ2FuaXphdGlvbjExMDUzNDEx",
                "organizations_url": "https://api.github.com/users/PrismarineJS/orgs",
                "received_events_url": "https://api.github.com/users/PrismarineJS/received_events",
                "repos_url": "https://api.github.com/users/PrismarineJS/repos",
                "site_admin": false,
                "starred_url": "https://api.github.com/users/PrismarineJS/starred{/owner}{/repo}",
                "subscriptions_url": "https://api.github.com/users/PrismarineJS/subscriptions",
                "type": "Organization",
                "url": "https://api.github.com/users/PrismarineJS"
            },
            "private": false,
            "pulls_url": "https://api.github.com/repos/PrismarineJS/prismarine-world/pulls{/number}",
            "pushed_at": "2023-04-25T14:57:52Z",
            "releases_url": "https://api.github.com/repos/PrismarineJS/prismarine-world/releases{/id}",
            "size": 6883,
            "ssh_url": "git@github.com:PrismarineJS/prismarine-world.git",
            "stargazers_count": 22,
            "stargazers_url": "https://api.github.com/repos/PrismarineJS/prismarine-world/stargazers",
            "statuses_url": "https://api.github.com/repos/PrismarineJS/prismarine-world/statuses/{sha}",
            "subscribers_url": "https://api.github.com/repos/PrismarineJS/prismarine-world/subscribers",
            "subscription_url": "https://api.github.com/repos/PrismarineJS/prismarine-world/subscription",
            "svn_url": "https://github.com/PrismarineJS/prismarine-world",
            "tags_url": "https://api.github.com/repos/PrismarineJS/prismarine-world/tags",
            "teams_url": "https://api.github.com/repos/PrismarineJS/prismarine-world/teams",
            "topics": [
                "3d",
                "minecraft",
                "world"
            ],
            "trees_url": "https://api.github.com/repos/PrismarineJS/prismarine-world/git/trees{/sha}",
            "updated_at": "2023-04-07T06:42:38Z",
            "url": "https://api.github.com/repos/PrismarineJS/prismarine-world",
            "visibility": "public",
            "watchers": 22,
            "watchers_count": 22,
            "web_commit_signoff_required": false
        },
        "sha": "d765e634717781c9a511749e1f036dcca5b8d137",
        "user": {
            "avatar_url": "https://avatars.githubusercontent.com/u/11053411?v=4",
            "events_url": "https://api.github.com/users/PrismarineJS/events{/privacy}",
            "followers_url": "https://api.github.com/users/PrismarineJS/followers",
            "following_url": "https://api.github.com/users/PrismarineJS/following{/other_user}",
            "gists_url": "https://api.github.com/users/PrismarineJS/gists{/gist_id}",
            "gravatar_id": "",
            "html_url": "https://github.com/PrismarineJS",
            "id": 11053411,
            "login": "PrismarineJS",
            "node_id": "MDEyOk9yZ2FuaXphdGlvbjExMDUzNDEx",
            "organizations_url": "https://api.github.com/users/PrismarineJS/orgs",
            "received_events_url": "https://api.github.com/users/PrismarineJS/received_events",
            "repos_url": "https://api.github.com/users/PrismarineJS/repos",
            "site_admin": false,
            "starred_url": "https://api.github.com/users/PrismarineJS/starred{/owner}{/repo}",
            "subscriptions_url": "https://api.github.com/users/PrismarineJS/subscriptions",
            "type": "Organization",
            "url": "https://api.github.com/users/PrismarineJS"
        }
    },
    "body": "Bumps [jest](https://github.com/facebook/jest) from 26.6.3 to 27.1.0.\n<details>\n<summary>Release notes</summary>\n<p><em>Sourced from <a href=\"https://github.com/facebook/jest/releases\">jest's releases</a>.</em></p>\n<blockquote>\n<h2>27.1.0</h2>\n<h3>Features</h3>\n<ul>\n<li><code>[jest-haste-map]</code> Use watchman suffix-set option for faster file indexing. (<a href=\"https://github-redirect.dependabot.com/facebook/jest/pull/11784\">#11784</a>)</li>\n<li><code>[jest-cli]</code> Adds a new config options <code>snapshotFormat</code> which offers a way to override any of the formatting settings which come with <a href=\"https://www.npmjs.com/package/pretty-format#usage-with-options\">pretty-format</a>. (<a href=\"https://github-redirect.dependabot.com/facebook/jest/pull/11654\">#11654</a>)</li>\n<li><code>[jest-reporters]</code> Expose the <code>getSummary</code> util (<a href=\"https://github-redirect.dependabot.com/facebook/jest/pull/11695\">#11695</a>).</li>\n<li><code>[jest-resolver]</code> Support <code>node:</code> prefix when importing Node core modules (<a href=\"https://github-redirect.dependabot.com/facebook/jest/pull/11331\">#11331</a>)</li>\n</ul>\n<h3>Fixes</h3>\n<ul>\n<li><code>[jest-each]</code> Relaxed the validation to allow multibyte characters in headings (<a href=\"https://github-redirect.dependabot.com/facebook/jest/pull/11575\">#11575</a>)</li>\n<li><code>[jest-environment-jsdom]</code> Add support for <code>userAgent</code> option (<a href=\"https://github-redirect.dependabot.com/facebook/jest/pull/11773\">#11773</a>)</li>\n<li><code>[jest-environment-node]</code> Add <code>Event</code> and <code>EventTarget</code> to node global environment. (<a href=\"https://github-redirect.dependabot.com/facebook/jest/pull/11727\">#11727</a>)</li>\n<li><code>[jest-mock]</code> Fix <code>spyOn</code> to use <code>Object.prototype.hasOwnProperty</code> (<a href=\"https://github-redirect.dependabot.com/facebook/jest/pull/11721\">#11721</a>)</li>\n<li><code>[jest-resolver]</code> Add dependency on <code>jest-haste-map</code> (<a href=\"https://github-redirect.dependabot.com/facebook/jest/pull/11759\">#11759</a>)</li>\n<li><code>[jest-types]</code> Compat with <code>@types/node</code> v16 (<a href=\"https://github-redirect.dependabot.com/facebook/jest/pull/11645\">#11645</a>)</li>\n</ul>\n<h3>Chore &amp; Maintenance</h3>\n<ul>\n<li><code>[docs]</code> Correct <code>expects.assertions</code> documentation by adding async/await for asynchronous function.</li>\n</ul>\n<h2>27.0.6</h2>\n<h3>Fixes</h3>\n<ul>\n<li><code>[*]</code> Publish all modules to include the build change in <a href=\"https://github-redirect.dependabot.com/facebook/jest/pull/11569\">#11569</a></li>\n</ul>\n<h2>27.0.5</h2>\n<h3>Features</h3>\n<ul>\n<li><code>[@jest/fake-timers]</code> Flush callbacks scheduled with <code>requestAnimationFrame</code> every 16ms when using legacy timers. (<a href=\"https://github-redirect.dependabot.com/facebook/jest/pull/11567\">#11523</a>)</li>\n<li><code>[pretty-format]</code> Use <code>globalThis</code> (with polyfill if required) to bring support for esbuild's browser bundling mode (<a href=\"https://github-redirect.dependabot.com/facebook/jest/pull/11569\">#11569</a></li>\n</ul>\n<h3>Fixes</h3>\n<ul>\n<li><code>[jest-core]</code> Support special characters like <code>@</code>, <code>+</code> and <code>()</code> on Windows with <code>--findRelatedTests</code> (<a href=\"https://github-redirect.dependabot.com/facebook/jest/pull/11548\">#11548</a>)</li>\n<li><code>[@jest/fake-timers]</code> Do not add <code>setImmediate</code> and <code>clearImmediate</code> if they do not exist in the global environment (<a href=\"https://github-redirect.dependabot.com/facebook/jest/pull/11599\">#11599</a>)</li>\n<li><code>[@jest/reporters]</code> Allow <code>node-notifier@10</code> as peer dependency (<a href=\"https://github-redirect.dependabot.com/facebook/jest/pull/11523\">#11523</a>)</li>\n<li><code>[@jest/reporters]</code> Update <code>v8-to-istanbul</code> (<a href=\"https://github-redirect.dependabot.com/facebook/jest/pull/11523\">#11523</a>)</li>\n</ul>\n<h2>27.0.4</h2>\n<h3>Fixes</h3>\n<ul>\n<li><code>[jest-config, jest-resolve]</code> Pass in <code>require.resolve</code> to resolvers to resolve from correct base (<a href=\"https://github-redirect.dependabot.com/facebook/jest/pull/11493\">#11493</a>)</li>\n</ul>\n<h2>27.0.3</h2>\n<h3>Fixes</h3>\n<ul>\n<li><code>[jest-config]</code> <code>require.resolve</code> on default test sequencer and test environment (<a href=\"https://github-redirect.dependabot.com/facebook/jest/pull/11482\">#11482</a>)</li>\n<li><code>[jest-mock]</code> Fixed <code>fn</code> and <code>spyOn</code> exports (<a href=\"https://github-redirect.dependabot.com/facebook/jest/pull/11480\">#11480</a>)</li>\n</ul>\n<!-- raw HTML omitted -->\n</blockquote>\n<p>... (truncated)</p>\n</details>\n<details>\n<summary>Changelog</summary>\n<p><em>Sourced from <a href=\"https://github.com/facebook/jest/blob/master/CHANGELOG.md\">jest's changelog</a>.</em></p>\n<blockquote>\n<h2>27.1.0</h2>\n<h3>Features</h3>\n<ul>\n<li><code>[jest-haste-map]</code> Use watchman suffix-set option for faster file indexing. (<a href=\"https://github-redirect.dependabot.com/facebook/jest/pull/11784\">#11784</a>)</li>\n<li><code>[jest-cli]</code> Adds a new config options <code>snapshotFormat</code> which offers a way to override any of the formatting settings which come with <a href=\"https://www.npmjs.com/package/pretty-format#usage-with-options\">pretty-format</a>. (<a href=\"https://github-redirect.dependabot.com/facebook/jest/pull/11654\">#11654</a>)</li>\n<li><code>[jest-reporters]</code> Expose the <code>getSummary</code> util (<a href=\"https://github-redirect.dependabot.com/facebook/jest/pull/11695\">#11695</a>).</li>\n<li><code>[jest-resolver]</code> Support <code>node:</code> prefix when importing Node core modules (<a href=\"https://github-redirect.dependabot.com/facebook/jest/pull/11331\">#11331</a>)</li>\n</ul>\n<h3>Fixes</h3>\n<ul>\n<li><code>[jest-each]</code> Relaxed the validation to allow multibyte characters in headings (<a href=\"https://github-redirect.dependabot.com/facebook/jest/pull/11575\">#11575</a>)</li>\n<li><code>[jest-environment-jsdom]</code> Add support for <code>userAgent</code> option (<a href=\"https://github-redirect.dependabot.com/facebook/jest/pull/11773\">#11773</a>)</li>\n<li><code>[jest-environment-node]</code> Add <code>Event</code> and <code>EventTarget</code> to node global environment. (<a href=\"https://github-redirect.dependabot.com/facebook/jest/pull/11727\">#11727</a>)</li>\n<li><code>[jest-mock]</code> Fix <code>spyOn</code> to use <code>Object.prototype.hasOwnProperty</code> (<a href=\"https://github-redirect.dependabot.com/facebook/jest/pull/11721\">#11721</a>)</li>\n<li><code>[jest-resolver]</code> Add dependency on <code>jest-haste-map</code> (<a href=\"https://github-redirect.dependabot.com/facebook/jest/pull/11759\">#11759</a>)</li>\n<li><code>[jest-types]</code> Compat with <code>@types/node</code> v16 (<a href=\"https://github-redirect.dependabot.com/facebook/jest/pull/11645\">#11645</a>)</li>\n</ul>\n<h3>Chore &amp; Maintenance</h3>\n<ul>\n<li><code>[docs]</code> Correct <code>expects.assertions</code> documentation by adding async/await for asynchronous function.</li>\n</ul>\n<h2>27.0.6</h2>\n<h3>Fixes</h3>\n<ul>\n<li><code>[*]</code> Publish all modules to include the build change in (<a href=\"https://github-redirect.dependabot.com/facebook/jest/pull/11569\">#11569</a>)</li>\n</ul>\n<h2>27.0.5</h2>\n<h3>Features</h3>\n<ul>\n<li><code>[@jest/fake-timers]</code> Flush callbacks scheduled with <code>requestAnimationFrame</code> every 16ms when using legacy timers. (<a href=\"https://github-redirect.dependabot.com/facebook/jest/pull/11567\">#11523</a>)</li>\n<li><code>[pretty-format]</code> Use <code>globalThis</code> (with polyfill if required) to bring support for esbuild's browser bundling mode (<a href=\"https://github-redirect.dependabot.com/facebook/jest/pull/11569\">#11569</a>)</li>\n</ul>\n<h3>Fixes</h3>\n<ul>\n<li><code>[jest-core]</code> Support special characters like <code>@</code>, <code>+</code> and <code>()</code> on Windows with <code>--findRelatedTests</code> (<a href=\"https://github-redirect.dependabot.com/facebook/jest/pull/11548\">#11548</a>)</li>\n<li><code>[@jest/fake-timers]</code> Do not add <code>setImmediate</code> and <code>clearImmediate</code> if they do not exist in the global environment (<a href=\"https://github-redirect.dependabot.com/facebook/jest/pull/11599\">#11599</a>)</li>\n<li><code>[@jest/reporters]</code> Allow <code>node-notifier@10</code> as peer dependency (<a href=\"https://github-redirect.dependabot.com/facebook/jest/pull/11523\">#11523</a>)</li>\n<li><code>[@jest/reporters]</code> Update <code>v8-to-istanbul</code> (<a href=\"https://github-redirect.dependabot.com/facebook/jest/pull/11523\">#11523</a>)</li>\n</ul>\n<h2>27.0.4</h2>\n<h3>Fixes</h3>\n<ul>\n<li><code>[jest-config, jest-resolve]</code> Pass in <code>require.resolve</code> to resolvers to resolve from correct base (<a href=\"https://github-redirect.dependabot.com/facebook/jest/pull/11493\">#11493</a>)</li>\n</ul>\n<h2>27.0.3</h2>\n<!-- raw HTML omitted -->\n</blockquote>\n<p>... (truncated)</p>\n</details>\n<details>\n<summary>Commits</summary>\n<ul>\n<li><a href=\"https://github.com/facebook/jest/commit/5ef792e957e83428d868a18618b8629e32719993\"><code>5ef792e</code></a> v27.1.0</li>\n<li><a href=\"https://github.com/facebook/jest/commit/d4b05468534bdabd59d8a4eaedd31427639adecc\"><code>d4b0546</code></a> chore: update changelog for release</li>\n<li><a href=\"https://github.com/facebook/jest/commit/38558a80192111e8f8bdc960a12e079e4fb918cc\"><code>38558a8</code></a> chore(ci): use &quot;latest&quot; version of the OSes on Azure Pipelines (<a href=\"https://github-redirect.dependabot.com/facebook/jest/issues/11793\">#11793</a>)</li>\n<li><a href=\"https://github.com/facebook/jest/commit/554d7d21756b1369c82d23afa54e7a6003f67f43\"><code>554d7d2</code></a> feat(resolver): support <code>node:</code> prefix when loading core modules (<a href=\"https://github-redirect.dependabot.com/facebook/jest/issues/11331\">#11331</a>)</li>\n<li><a href=\"https://github.com/facebook/jest/commit/499ef4f7d156ed74548f5814ede7ef0956b3644f\"><code>499ef4f</code></a> [jest-each] Relaxed the validation to allow multibyte characters in headings ...</li>\n<li><a href=\"https://github.com/facebook/jest/commit/d455d2db46c47efb7cfa6779b14a10c538752a8d\"><code>d455d2d</code></a> [jest-haste-map] Use more optimal suffix-set format (<a href=\"https://github-redirect.dependabot.com/facebook/jest/issues/11784\">#11784</a>)</li>\n<li><a href=\"https://github.com/facebook/jest/commit/c8b8ce2908c38e79cf87e2919a8df8da1b592f61\"><code>c8b8ce2</code></a> chore: fix typo in examples (<a href=\"https://github-redirect.dependabot.com/facebook/jest/issues/11788\">#11788</a>)</li>\n<li><a href=\"https://github.com/facebook/jest/commit/39190eae941b7160ba75b8588fa57b1fcec9090e\"><code>39190ea</code></a> fix(jest-types): compat with <code>@​types/node</code> v16 (<a href=\"https://github-redirect.dependabot.com/facebook/jest/issues/11645\">#11645</a>)</li>\n<li><a href=\"https://github.com/facebook/jest/commit/321e8d53c8253c2922f70d8ebd89c1435cb65fb5\"><code>321e8d5</code></a> chore: fix PnP test by forcing older version of typescript</li>\n<li><a href=\"https://github.com/facebook/jest/commit/d38156ccd7a68e52372b4eb6fc02afbadd5b703e\"><code>d38156c</code></a> chore: replace issue templates with forms (<a href=\"https://github-redirect.dependabot.com/facebook/jest/issues/11772\">#11772</a>)</li>\n<li>Additional commits viewable in <a href=\"https://github.com/facebook/jest/compare/v26.6.3...v27.1.0\">compare view</a></li>\n</ul>\n</details>\n<br />\n\n\n[![Dependabot compatibility score](https://dependabot-badges.githubapp.com/badges/compatibility_score?dependency-name=jest&package-manager=npm_and_yarn&previous-version=26.6.3&new-version=27.1.0)](https://docs.github.com/en/github/managing-security-vulnerabilities/about-dependabot-security-updates#about-compatibility-scores)\n\nDependabot will resolve any conflicts with this PR as long as you don't alter it yourself. You can also trigger a rebase manually by commenting `@dependabot rebase`.\n\n[//]: # (dependabot-automerge-start)\n[//]: # (dependabot-automerge-end)\n\n---\n\n<details>\n<summary>Dependabot commands and options</summary>\n<br />\n\nYou can trigger Dependabot actions by commenting on this PR:\n- `@dependabot rebase` will rebase this PR\n- `@dependabot recreate` will recreate this PR, overwriting any edits that have been made to it\n- `@dependabot merge` will merge this PR after your CI passes on it\n- `@dependabot squash and merge` will squash and merge this PR after your CI passes on it\n- `@dependabot cancel merge` will cancel a previously requested merge and block automerging\n- `@dependabot reopen` will reopen this PR if it is closed\n- `@dependabot close` will close this PR and stop Dependabot recreating it. You can achieve the same result by closing it manually\n- `@dependabot ignore this major version` will close this PR and stop Dependabot creating any more for this major version (unless you reopen the PR or upgrade to it yourself)\n- `@dependabot ignore this minor version` will close this PR and stop Dependabot creating any more for this minor version (unless you reopen the PR or upgrade to it yourself)\n- `@dependabot ignore this dependency` will close this PR and stop Dependabot creating any more for this dependency (unless you reopen the PR or upgrade to it yourself)\n\n\n</details>",
    "changed_files": 1,
    "closed_at": "2021-09-08T14:09:24Z",
    "comment_data": [],
    "comment_regular_data": [
        {
            "author_association": "CONTRIBUTOR",
            "body": "Superseded by #77.",
            "created_at": "2021-09-08T14:09:23Z",
            "html_url": "https://github.com/PrismarineJS/prismarine-world/pull/76#issuecomment-915273557",
            "id": 915273557,
            "issue_url": "https://api.github.com/repos/PrismarineJS/prismarine-world/issues/76",
            "node_id": "IC_kwDOAeKatM42jfdV",
            "performed_via_github_app": null,
            "reactions": {
                "+1": 0,
                "-1": 0,
                "confused": 0,
                "eyes": 0,
                "heart": 0,
                "hooray": 0,
                "laugh": 0,
                "rocket": 0,
                "total_count": 0,
                "url": "https://api.github.com/repos/PrismarineJS/prismarine-world/issues/comments/915273557/reactions"
            },
            "updated_at": "2021-09-08T14:09:23Z",
            "url": "https://api.github.com/repos/PrismarineJS/prismarine-world/issues/comments/915273557",
            "user": {
                "avatar_url": "https://avatars.githubusercontent.com/in/29110?v=4",
                "events_url": "https://api.github.com/users/dependabot%5Bbot%5D/events{/privacy}",
                "followers_url": "https://api.github.com/users/dependabot%5Bbot%5D/followers",
                "following_url": "https://api.github.com/users/dependabot%5Bbot%5D/following{/other_user}",
                "gists_url": "https://api.github.com/users/dependabot%5Bbot%5D/gists{/gist_id}",
                "gravatar_id": "",
                "html_url": "https://github.com/apps/dependabot",
                "id": 49699333,
                "login": "dependabot[bot]",
                "node_id": "MDM6Qm90NDk2OTkzMzM=",
                "organizations_url": "https://api.github.com/users/dependabot%5Bbot%5D/orgs",
                "received_events_url": "https://api.github.com/users/dependabot%5Bbot%5D/received_events",
                "repos_url": "https://api.github.com/users/dependabot%5Bbot%5D/repos",
                "site_admin": false,
                "starred_url": "https://api.github.com/users/dependabot%5Bbot%5D/starred{/owner}{/repo}",
                "subscriptions_url": "https://api.github.com/users/dependabot%5Bbot%5D/subscriptions",
                "type": "Bot",
                "url": "https://api.github.com/users/dependabot%5Bbot%5D"
            }
        }
    ],
    "comments": 1,
    "comments_url": "https://api.github.com/repos/PrismarineJS/prismarine-world/issues/76/comments",
    "commit_data": [
        {
            "author": {
                "avatar_url": "https://avatars.githubusercontent.com/in/29110?v=4",
                "events_url": "https://api.github.com/users/dependabot%5Bbot%5D/events{/privacy}",
                "followers_url": "https://api.github.com/users/dependabot%5Bbot%5D/followers",
                "following_url": "https://api.github.com/users/dependabot%5Bbot%5D/following{/other_user}",
                "gists_url": "https://api.github.com/users/dependabot%5Bbot%5D/gists{/gist_id}",
                "gravatar_id": "",
                "html_url": "https://github.com/apps/dependabot",
                "id": 49699333,
                "login": "dependabot[bot]",
                "node_id": "MDM6Qm90NDk2OTkzMzM=",
                "organizations_url": "https://api.github.com/users/dependabot%5Bbot%5D/orgs",
                "received_events_url": "https://api.github.com/users/dependabot%5Bbot%5D/received_events",
                "repos_url": "https://api.github.com/users/dependabot%5Bbot%5D/repos",
                "site_admin": false,
                "starred_url": "https://api.github.com/users/dependabot%5Bbot%5D/starred{/owner}{/repo}",
                "subscriptions_url": "https://api.github.com/users/dependabot%5Bbot%5D/subscriptions",
                "type": "Bot",
                "url": "https://api.github.com/users/dependabot%5Bbot%5D"
            },
            "comments_url": "https://api.github.com/repos/PrismarineJS/prismarine-world/commits/15a889b6a2d720a1d4aeb610356feb8618fd7d14/comments",
            "commit": {
                "author": {
                    "date": "2021-08-27T14:10:17Z",
                    "email": "49699333+dependabot[bot]@users.noreply.github.com",
                    "name": "dependabot[bot]"
                },
                "comment_count": 0,
                "committer": {
                    "date": "2021-08-27T14:10:17Z",
                    "email": "noreply@github.com",
                    "name": "GitHub"
                },
                "message": "Bump jest from 26.6.3 to 27.1.0\n\nBumps [jest](https://github.com/facebook/jest) from 26.6.3 to 27.1.0.\n- [Release notes](https://github.com/facebook/jest/releases)\n- [Changelog](https://github.com/facebook/jest/blob/master/CHANGELOG.md)\n- [Commits](https://github.com/facebook/jest/compare/v26.6.3...v27.1.0)\n\n---\nupdated-dependencies:\n- dependency-name: jest\n  dependency-type: direct:development\n  update-type: version-update:semver-major\n...\n\nSigned-off-by: dependabot[bot] <support@github.com>",
                "tree": {
                    "sha": "6360822a883688d3eaea311cb12b1e2cf4092260",
                    "url": "https://api.github.com/repos/PrismarineJS/prismarine-world/git/trees/6360822a883688d3eaea311cb12b1e2cf4092260"
                },
                "url": "https://api.github.com/repos/PrismarineJS/prismarine-world/git/commits/15a889b6a2d720a1d4aeb610356feb8618fd7d14",
                "verification": {
                    "payload": "tree 6360822a883688d3eaea311cb12b1e2cf4092260\nparent d765e634717781c9a511749e1f036dcca5b8d137\nauthor dependabot[bot] <49699333+dependabot[bot]@users.noreply.github.com> 1630073417 +0000\ncommitter GitHub <noreply@github.com> 1630073417 +0000\n\nBump jest from 26.6.3 to 27.1.0\n\nBumps [jest](https://github.com/facebook/jest) from 26.6.3 to 27.1.0.\n- [Release notes](https://github.com/facebook/jest/releases)\n- [Changelog](https://github.com/facebook/jest/blob/master/CHANGELOG.md)\n- [Commits](https://github.com/facebook/jest/compare/v26.6.3...v27.1.0)\n\n---\nupdated-dependencies:\n- dependency-name: jest\n  dependency-type: direct:development\n  update-type: version-update:semver-major\n...\n\nSigned-off-by: dependabot[bot] <support@github.com>",
                    "reason": "valid",
                    "signature": "-----BEGIN PGP SIGNATURE-----\n\nwsBcBAABCAAQBQJhKPJJCRBK7hj4Ov3rIwAA7sIIAFZb2VCy10WD+QlY/2rjB5zq\n8pZcmPHb96TCzKhjDx++WLaCevzZSIIp1ZFXRjgMGxFCtyRNI2aaos9dIK4O9LY6\ndQgHF0R4pC0okClCquz5DRBcp48KVty59uJIBlaqFiVN0+jxYiX06R1hRKwyZiLZ\nRPqq/Ie2ExVOdjEnUFpEEcDPGZzKRMsvOqnM0nIBSTBoJcQuU4WaDRkoEUeEBRdl\nwGa7BP4iUqmVBPQCpH6Z7EVWu7UbgVLCwYcRwviDIpaQk3n6uYwlYmiz6Rmjgrcz\nH7oCw4ObzZKQ1HV1dAzX48n5s52EIq3J8Nywi4Ud42ZpOIWEGCf7umWF6FcyRSk=\n=CuVh\n-----END PGP SIGNATURE-----\n",
                    "verified": true
                }
            },
            "committer": {
                "avatar_url": "https://avatars.githubusercontent.com/u/19864447?v=4",
                "events_url": "https://api.github.com/users/web-flow/events{/privacy}",
                "followers_url": "https://api.github.com/users/web-flow/followers",
                "following_url": "https://api.github.com/users/web-flow/following{/other_user}",
                "gists_url": "https://api.github.com/users/web-flow/gists{/gist_id}",
                "gravatar_id": "",
                "html_url": "https://github.com/web-flow",
                "id": 19864447,
                "login": "web-flow",
                "node_id": "MDQ6VXNlcjE5ODY0NDQ3",
                "organizations_url": "https://api.github.com/users/web-flow/orgs",
                "received_events_url": "https://api.github.com/users/web-flow/received_events",
                "repos_url": "https://api.github.com/users/web-flow/repos",
                "site_admin": false,
                "starred_url": "https://api.github.com/users/web-flow/starred{/owner}{/repo}",
                "subscriptions_url": "https://api.github.com/users/web-flow/subscriptions",
                "type": "User",
                "url": "https://api.github.com/users/web-flow"
            },
            "html_url": "https://github.com/PrismarineJS/prismarine-world/commit/15a889b6a2d720a1d4aeb610356feb8618fd7d14",
            "node_id": "MDY6Q29tbWl0MzE2Mjc5NTY6MTVhODg5YjZhMmQ3MjBhMWQ0YWViNjEwMzU2ZmViODYxOGZkN2QxNA==",
            "parents": [
                {
                    "html_url": "https://github.com/PrismarineJS/prismarine-world/commit/d765e634717781c9a511749e1f036dcca5b8d137",
                    "sha": "d765e634717781c9a511749e1f036dcca5b8d137",
                    "url": "https://api.github.com/repos/PrismarineJS/prismarine-world/commits/d765e634717781c9a511749e1f036dcca5b8d137"
                }
            ],
            "sha": "15a889b6a2d720a1d4aeb610356feb8618fd7d14",
            "url": "https://api.github.com/repos/PrismarineJS/prismarine-world/commits/15a889b6a2d720a1d4aeb610356feb8618fd7d14"
        }
    ],
    "commits": 1,
    "commits_url": "https://api.github.com/repos/PrismarineJS/prismarine-world/pulls/76/commits",
    "created_at": "2021-08-27T14:10:17Z",
    "deletions": 1,
    "diff_url": "https://github.com/PrismarineJS/prismarine-world/pull/76.diff",
    "draft": false,
    "head": {
        "label": "PrismarineJS:dependabot/npm_and_yarn/jest-27.1.0",
        "ref": "dependabot/npm_and_yarn/jest-27.1.0",
        "repo": {
            "allow_forking": true,
            "archive_url": "https://api.github.com/repos/PrismarineJS/prismarine-world/{archive_format}{/ref}",
            "archived": false,
            "assignees_url": "https://api.github.com/repos/PrismarineJS/prismarine-world/assignees{/user}",
            "blobs_url": "https://api.github.com/repos/PrismarineJS/prismarine-world/git/blobs{/sha}",
            "branches_url": "https://api.github.com/repos/PrismarineJS/prismarine-world/branches{/branch}",
            "clone_url": "https://github.com/PrismarineJS/prismarine-world.git",
            "collaborators_url": "https://api.github.com/repos/PrismarineJS/prismarine-world/collaborators{/collaborator}",
            "comments_url": "https://api.github.com/repos/PrismarineJS/prismarine-world/comments{/number}",
            "commits_url": "https://api.github.com/repos/PrismarineJS/prismarine-world/commits{/sha}",
            "compare_url": "https://api.github.com/repos/PrismarineJS/prismarine-world/compare/{base}...{head}",
            "contents_url": "https://api.github.com/repos/PrismarineJS/prismarine-world/contents/{+path}",
            "contributors_url": "https://api.github.com/repos/PrismarineJS/prismarine-world/contributors",
            "created_at": "2015-03-03T23:50:22Z",
            "default_branch": "master",
            "deployments_url": "https://api.github.com/repos/PrismarineJS/prismarine-world/deployments",
            "description": "The core implementation of worlds for prismarine",
            "disabled": false,
            "downloads_url": "https://api.github.com/repos/PrismarineJS/prismarine-world/downloads",
            "events_url": "https://api.github.com/repos/PrismarineJS/prismarine-world/events",
            "fork": false,
            "forks": 27,
            "forks_count": 27,
            "forks_url": "https://api.github.com/repos/PrismarineJS/prismarine-world/forks",
            "full_name": "PrismarineJS/prismarine-world",
            "git_commits_url": "https://api.github.com/repos/PrismarineJS/prismarine-world/git/commits{/sha}",
            "git_refs_url": "https://api.github.com/repos/PrismarineJS/prismarine-world/git/refs{/sha}",
            "git_tags_url": "https://api.github.com/repos/PrismarineJS/prismarine-world/git/tags{/sha}",
            "git_url": "git://github.com/PrismarineJS/prismarine-world.git",
            "has_discussions": false,
            "has_downloads": true,
            "has_issues": true,
            "has_pages": true,
            "has_projects": true,
            "has_wiki": true,
            "homepage": "http://prismarine.js.org/prismarine-world/",
            "hooks_url": "https://api.github.com/repos/PrismarineJS/prismarine-world/hooks",
            "html_url": "https://github.com/PrismarineJS/prismarine-world",
            "id": 31627956,
            "is_template": false,
            "issue_comment_url": "https://api.github.com/repos/PrismarineJS/prismarine-world/issues/comments{/number}",
            "issue_events_url": "https://api.github.com/repos/PrismarineJS/prismarine-world/issues/events{/number}",
            "issues_url": "https://api.github.com/repos/PrismarineJS/prismarine-world/issues{/number}",
            "keys_url": "https://api.github.com/repos/PrismarineJS/prismarine-world/keys{/key_id}",
            "labels_url": "https://api.github.com/repos/PrismarineJS/prismarine-world/labels{/name}",
            "language": "JavaScript",
            "languages_url": "https://api.github.com/repos/PrismarineJS/prismarine-world/languages",
            "license": null,
            "merges_url": "https://api.github.com/repos/PrismarineJS/prismarine-world/merges",
            "milestones_url": "https://api.github.com/repos/PrismarineJS/prismarine-world/milestones{/number}",
            "mirror_url": null,
            "name": "prismarine-world",
            "node_id": "MDEwOlJlcG9zaXRvcnkzMTYyNzk1Ng==",
            "notifications_url": "https://api.github.com/repos/PrismarineJS/prismarine-world/notifications{?since,all,participating}",
            "open_issues": 15,
            "open_issues_count": 15,
            "owner": {
                "avatar_url": "https://avatars.githubusercontent.com/u/11053411?v=4",
                "events_url": "https://api.github.com/users/PrismarineJS/events{/privacy}",
                "followers_url": "https://api.github.com/users/PrismarineJS/followers",
                "following_url": "https://api.github.com/users/PrismarineJS/following{/other_user}",
                "gists_url": "https://api.github.com/users/PrismarineJS/gists{/gist_id}",
                "gravatar_id": "",
                "html_url": "https://github.com/PrismarineJS",
                "id": 11053411,
                "login": "PrismarineJS",
                "node_id": "MDEyOk9yZ2FuaXphdGlvbjExMDUzNDEx",
                "organizations_url": "https://api.github.com/users/PrismarineJS/orgs",
                "received_events_url": "https://api.github.com/users/PrismarineJS/received_events",
                "repos_url": "https://api.github.com/users/PrismarineJS/repos",
                "site_admin": false,
                "starred_url": "https://api.github.com/users/PrismarineJS/starred{/owner}{/repo}",
                "subscriptions_url": "https://api.github.com/users/PrismarineJS/subscriptions",
                "type": "Organization",
                "url": "https://api.github.com/users/PrismarineJS"
            },
            "private": false,
            "pulls_url": "https://api.github.com/repos/PrismarineJS/prismarine-world/pulls{/number}",
            "pushed_at": "2023-04-25T14:57:52Z",
            "releases_url": "https://api.github.com/repos/PrismarineJS/prismarine-world/releases{/id}",
            "size": 6883,
            "ssh_url": "git@github.com:PrismarineJS/prismarine-world.git",
            "stargazers_count": 22,
            "stargazers_url": "https://api.github.com/repos/PrismarineJS/prismarine-world/stargazers",
            "statuses_url": "https://api.github.com/repos/PrismarineJS/prismarine-world/statuses/{sha}",
            "subscribers_url": "https://api.github.com/repos/PrismarineJS/prismarine-world/subscribers",
            "subscription_url": "https://api.github.com/repos/PrismarineJS/prismarine-world/subscription",
            "svn_url": "https://github.com/PrismarineJS/prismarine-world",
            "tags_url": "https://api.github.com/repos/PrismarineJS/prismarine-world/tags",
            "teams_url": "https://api.github.com/repos/PrismarineJS/prismarine-world/teams",
            "topics": [
                "3d",
                "minecraft",
                "world"
            ],
            "trees_url": "https://api.github.com/repos/PrismarineJS/prismarine-world/git/trees{/sha}",
            "updated_at": "2023-04-07T06:42:38Z",
            "url": "https://api.github.com/repos/PrismarineJS/prismarine-world",
            "visibility": "public",
            "watchers": 22,
            "watchers_count": 22,
            "web_commit_signoff_required": false
        },
        "sha": "15a889b6a2d720a1d4aeb610356feb8618fd7d14",
        "user": {
            "avatar_url": "https://avatars.githubusercontent.com/u/11053411?v=4",
            "events_url": "https://api.github.com/users/PrismarineJS/events{/privacy}",
            "followers_url": "https://api.github.com/users/PrismarineJS/followers",
            "following_url": "https://api.github.com/users/PrismarineJS/following{/other_user}",
            "gists_url": "https://api.github.com/users/PrismarineJS/gists{/gist_id}",
            "gravatar_id": "",
            "html_url": "https://github.com/PrismarineJS",
            "id": 11053411,
            "login": "PrismarineJS",
            "node_id": "MDEyOk9yZ2FuaXphdGlvbjExMDUzNDEx",
            "organizations_url": "https://api.github.com/users/PrismarineJS/orgs",
            "received_events_url": "https://api.github.com/users/PrismarineJS/received_events",
            "repos_url": "https://api.github.com/users/PrismarineJS/repos",
            "site_admin": false,
            "starred_url": "https://api.github.com/users/PrismarineJS/starred{/owner}{/repo}",
            "subscriptions_url": "https://api.github.com/users/PrismarineJS/subscriptions",
            "type": "Organization",
            "url": "https://api.github.com/users/PrismarineJS"
        }
    },
    "html_url": "https://github.com/PrismarineJS/prismarine-world/pull/76",
    "id": 721367851,
    "issue_url": "https://api.github.com/repos/PrismarineJS/prismarine-world/issues/76",
    "labels": [
        {
            "color": "0366d6",
            "default": false,
            "description": "Pull requests that update a dependency file",
            "id": 2067071255,
            "name": "dependencies",
            "node_id": "MDU6TGFiZWwyMDY3MDcxMjU1",
            "url": "https://api.github.com/repos/PrismarineJS/prismarine-world/labels/dependencies"
        }
    ],
    "locked": false,
    "maintainer_can_modify": false,
    "merge_commit_sha": "f1bb526e189eedbd5ad4556d2024290c690de862",
    "mergeable": null,
    "mergeable_state": "unknown",
    "merged": false,
    "merged_at": null,
    "merged_by": null,
    "milestone": null,
    "node_id": "MDExOlB1bGxSZXF1ZXN0NzIxMzY3ODUx",
    "number": 76,
    "patch_url": "https://github.com/PrismarineJS/prismarine-world/pull/76.patch",
    "rebaseable": null,
    "requested_reviewers": [],
    "requested_teams": [],
    "review_comment_url": "https://api.github.com/repos/PrismarineJS/prismarine-world/pulls/comments{/number}",
    "review_comments": 0,
    "review_comments_url": "https://api.github.com/repos/PrismarineJS/prismarine-world/pulls/76/comments",
    "state": "closed",
    "statuses_url": "https://api.github.com/repos/PrismarineJS/prismarine-world/statuses/15a889b6a2d720a1d4aeb610356feb8618fd7d14",
    "title": "Bump jest from 26.6.3 to 27.1.0",
    "updated_at": "2021-09-08T14:09:25Z",
    "url": "https://api.github.com/repos/PrismarineJS/prismarine-world/pulls/76",
    "user": {
        "avatar_url": "https://avatars.githubusercontent.com/in/29110?v=4",
        "events_url": "https://api.github.com/users/dependabot%5Bbot%5D/events{/privacy}",
        "followers_url": "https://api.github.com/users/dependabot%5Bbot%5D/followers",
        "following_url": "https://api.github.com/users/dependabot%5Bbot%5D/following{/other_user}",
        "gists_url": "https://api.github.com/users/dependabot%5Bbot%5D/gists{/gist_id}",
        "gravatar_id": "",
        "html_url": "https://github.com/apps/dependabot",
        "id": 49699333,
        "login": "dependabot[bot]",
        "node_id": "MDM6Qm90NDk2OTkzMzM=",
        "organizations_url": "https://api.github.com/users/dependabot%5Bbot%5D/orgs",
        "received_events_url": "https://api.github.com/users/dependabot%5Bbot%5D/received_events",
        "repos_url": "https://api.github.com/users/dependabot%5Bbot%5D/repos",
        "site_admin": false,
        "starred_url": "https://api.github.com/users/dependabot%5Bbot%5D/starred{/owner}{/repo}",
        "subscriptions_url": "https://api.github.com/users/dependabot%5Bbot%5D/subscriptions",
        "type": "Bot",
        "url": "https://api.github.com/users/dependabot%5Bbot%5D"
    }
}