{
    "_links": {
        "comments": {
            "href": "https://api.github.com/repos/PrismarineJS/mineflayer/issues/1095/comments"
        },
        "commits": {
            "href": "https://api.github.com/repos/PrismarineJS/mineflayer/pulls/1095/commits"
        },
        "html": {
            "href": "https://github.com/PrismarineJS/mineflayer/pull/1095"
        },
        "issue": {
            "href": "https://api.github.com/repos/PrismarineJS/mineflayer/issues/1095"
        },
        "review_comment": {
            "href": "https://api.github.com/repos/PrismarineJS/mineflayer/pulls/comments{/number}"
        },
        "review_comments": {
            "href": "https://api.github.com/repos/PrismarineJS/mineflayer/pulls/1095/comments"
        },
        "self": {
            "href": "https://api.github.com/repos/PrismarineJS/mineflayer/pulls/1095"
        },
        "statuses": {
            "href": "https://api.github.com/repos/PrismarineJS/mineflayer/statuses/451c1b0d5d0e13de3bab9b3e5cf9e375e8970d42"
        }
    },
    "active_lock_reason": null,
    "additions": 118,
    "assignee": null,
    "assignees": [],
    "author_association": "CONTRIBUTOR",
    "auto_merge": null,
    "base": {
        "label": "PrismarineJS:master",
        "ref": "master",
        "repo": {
            "allow_forking": true,
            "archive_url": "https://api.github.com/repos/PrismarineJS/mineflayer/{archive_format}{/ref}",
            "archived": false,
            "assignees_url": "https://api.github.com/repos/PrismarineJS/mineflayer/assignees{/user}",
            "blobs_url": "https://api.github.com/repos/PrismarineJS/mineflayer/git/blobs{/sha}",
            "branches_url": "https://api.github.com/repos/PrismarineJS/mineflayer/branches{/branch}",
            "clone_url": "https://github.com/PrismarineJS/mineflayer.git",
            "collaborators_url": "https://api.github.com/repos/PrismarineJS/mineflayer/collaborators{/collaborator}",
            "comments_url": "https://api.github.com/repos/PrismarineJS/mineflayer/comments{/number}",
            "commits_url": "https://api.github.com/repos/PrismarineJS/mineflayer/commits{/sha}",
            "compare_url": "https://api.github.com/repos/PrismarineJS/mineflayer/compare/{base}...{head}",
            "contents_url": "https://api.github.com/repos/PrismarineJS/mineflayer/contents/{+path}",
            "contributors_url": "https://api.github.com/repos/PrismarineJS/mineflayer/contributors",
            "created_at": "2011-01-23T09:41:55Z",
            "default_branch": "master",
            "deployments_url": "https://api.github.com/repos/PrismarineJS/mineflayer/deployments",
            "description": "Create Minecraft bots with a powerful, stable, and high level JavaScript API.",
            "disabled": false,
            "downloads_url": "https://api.github.com/repos/PrismarineJS/mineflayer/downloads",
            "events_url": "https://api.github.com/repos/PrismarineJS/mineflayer/events",
            "fork": false,
            "forks": 748,
            "forks_count": 748,
            "forks_url": "https://api.github.com/repos/PrismarineJS/mineflayer/forks",
            "full_name": "PrismarineJS/mineflayer",
            "git_commits_url": "https://api.github.com/repos/PrismarineJS/mineflayer/git/commits{/sha}",
            "git_refs_url": "https://api.github.com/repos/PrismarineJS/mineflayer/git/refs{/sha}",
            "git_tags_url": "https://api.github.com/repos/PrismarineJS/mineflayer/git/tags{/sha}",
            "git_url": "git://github.com/PrismarineJS/mineflayer.git",
            "has_discussions": true,
            "has_downloads": true,
            "has_issues": true,
            "has_pages": true,
            "has_projects": true,
            "has_wiki": true,
            "homepage": "https://prismarinejs.github.io/mineflayer/",
            "hooks_url": "https://api.github.com/repos/PrismarineJS/mineflayer/hooks",
            "html_url": "https://github.com/PrismarineJS/mineflayer",
            "id": 1284185,
            "is_template": false,
            "issue_comment_url": "https://api.github.com/repos/PrismarineJS/mineflayer/issues/comments{/number}",
            "issue_events_url": "https://api.github.com/repos/PrismarineJS/mineflayer/issues/events{/number}",
            "issues_url": "https://api.github.com/repos/PrismarineJS/mineflayer/issues{/number}",
            "keys_url": "https://api.github.com/repos/PrismarineJS/mineflayer/keys{/key_id}",
            "labels_url": "https://api.github.com/repos/PrismarineJS/mineflayer/labels{/name}",
            "language": "JavaScript",
            "languages_url": "https://api.github.com/repos/PrismarineJS/mineflayer/languages",
            "license": {
                "key": "mit",
                "name": "MIT License",
                "node_id": "MDc6TGljZW5zZTEz",
                "spdx_id": "MIT",
                "url": "https://api.github.com/licenses/mit"
            },
            "merges_url": "https://api.github.com/repos/PrismarineJS/mineflayer/merges",
            "milestones_url": "https://api.github.com/repos/PrismarineJS/mineflayer/milestones{/number}",
            "mirror_url": null,
            "name": "mineflayer",
            "node_id": "MDEwOlJlcG9zaXRvcnkxMjg0MTg1",
            "notifications_url": "https://api.github.com/repos/PrismarineJS/mineflayer/notifications{?since,all,participating}",
            "open_issues": 269,
            "open_issues_count": 269,
            "owner": {
                "avatar_url": "https://avatars.githubusercontent.com/u/11053411?v=4",
                "events_url": "https://api.github.com/users/PrismarineJS/events{/privacy}",
                "followers_url": "https://api.github.com/users/PrismarineJS/followers",
                "following_url": "https://api.github.com/users/PrismarineJS/following{/other_user}",
                "gists_url": "https://api.github.com/users/PrismarineJS/gists{/gist_id}",
                "gravatar_id": "",
                "html_url": "https://github.com/PrismarineJS",
                "id": 11053411,
                "login": "PrismarineJS",
                "node_id": "MDEyOk9yZ2FuaXphdGlvbjExMDUzNDEx",
                "organizations_url": "https://api.github.com/users/PrismarineJS/orgs",
                "received_events_url": "https://api.github.com/users/PrismarineJS/received_events",
                "repos_url": "https://api.github.com/users/PrismarineJS/repos",
                "site_admin": false,
                "starred_url": "https://api.github.com/users/PrismarineJS/starred{/owner}{/repo}",
                "subscriptions_url": "https://api.github.com/users/PrismarineJS/subscriptions",
                "type": "Organization",
                "url": "https://api.github.com/users/PrismarineJS"
            },
            "private": false,
            "pulls_url": "https://api.github.com/repos/PrismarineJS/mineflayer/pulls{/number}",
            "pushed_at": "2023-04-25T00:44:52Z",
            "releases_url": "https://api.github.com/repos/PrismarineJS/mineflayer/releases{/id}",
            "size": 12493,
            "ssh_url": "git@github.com:PrismarineJS/mineflayer.git",
            "stargazers_count": 3698,
            "stargazers_url": "https://api.github.com/repos/PrismarineJS/mineflayer/stargazers",
            "statuses_url": "https://api.github.com/repos/PrismarineJS/mineflayer/statuses/{sha}",
            "subscribers_url": "https://api.github.com/repos/PrismarineJS/mineflayer/subscribers",
            "subscription_url": "https://api.github.com/repos/PrismarineJS/mineflayer/subscription",
            "svn_url": "https://github.com/PrismarineJS/mineflayer",
            "tags_url": "https://api.github.com/repos/PrismarineJS/mineflayer/tags",
            "teams_url": "https://api.github.com/repos/PrismarineJS/mineflayer/teams",
            "topics": [
                "bot",
                "minecraft",
                "minecraft-api",
                "minecraft-bot",
                "network",
                "nodejs"
            ],
            "trees_url": "https://api.github.com/repos/PrismarineJS/mineflayer/git/trees{/sha}",
            "updated_at": "2023-04-25T14:07:03Z",
            "url": "https://api.github.com/repos/PrismarineJS/mineflayer",
            "visibility": "public",
            "watchers": 3698,
            "watchers_count": 3698,
            "web_commit_signoff_required": false
        },
        "sha": "8b374961ed543f4c2db47ba7955c3788827a963d",
        "user": {
            "avatar_url": "https://avatars.githubusercontent.com/u/11053411?v=4",
            "events_url": "https://api.github.com/users/PrismarineJS/events{/privacy}",
            "followers_url": "https://api.github.com/users/PrismarineJS/followers",
            "following_url": "https://api.github.com/users/PrismarineJS/following{/other_user}",
            "gists_url": "https://api.github.com/users/PrismarineJS/gists{/gist_id}",
            "gravatar_id": "",
            "html_url": "https://github.com/PrismarineJS",
            "id": 11053411,
            "login": "PrismarineJS",
            "node_id": "MDEyOk9yZ2FuaXphdGlvbjExMDUzNDEx",
            "organizations_url": "https://api.github.com/users/PrismarineJS/orgs",
            "received_events_url": "https://api.github.com/users/PrismarineJS/received_events",
            "repos_url": "https://api.github.com/users/PrismarineJS/repos",
            "site_admin": false,
            "starred_url": "https://api.github.com/users/PrismarineJS/starred{/owner}{/repo}",
            "subscriptions_url": "https://api.github.com/users/PrismarineJS/subscriptions",
            "type": "Organization",
            "url": "https://api.github.com/users/PrismarineJS"
        }
    },
    "body": "Replaced base EventEmitter with [TypedEmitter](https://github.com/andywer/typed-emitter) and extract all events in separate interfaces with inheritence where possible\r\n\r\nUsing TypedEmitter allows us to automatically type not only \"on\" events as it was previously but \"once\", \"off\", \"emit\" and so on. The change is backwards-compatible.",
    "changed_files": 2,
    "closed_at": "2020-06-28T15:47:25Z",
    "comment_data": [],
    "comment_regular_data": [],
    "comments": 0,
    "comments_url": "https://api.github.com/repos/PrismarineJS/mineflayer/issues/1095/comments",
    "commit_data": [
        {
            "author": {
                "avatar_url": "https://avatars.githubusercontent.com/u/6943514?v=4",
                "events_url": "https://api.github.com/users/G07cha/events{/privacy}",
                "followers_url": "https://api.github.com/users/G07cha/followers",
                "following_url": "https://api.github.com/users/G07cha/following{/other_user}",
                "gists_url": "https://api.github.com/users/G07cha/gists{/gist_id}",
                "gravatar_id": "",
                "html_url": "https://github.com/G07cha",
                "id": 6943514,
                "login": "G07cha",
                "node_id": "MDQ6VXNlcjY5NDM1MTQ=",
                "organizations_url": "https://api.github.com/users/G07cha/orgs",
                "received_events_url": "https://api.github.com/users/G07cha/received_events",
                "repos_url": "https://api.github.com/users/G07cha/repos",
                "site_admin": false,
                "starred_url": "https://api.github.com/users/G07cha/starred{/owner}{/repo}",
                "subscriptions_url": "https://api.github.com/users/G07cha/subscriptions",
                "type": "User",
                "url": "https://api.github.com/users/G07cha"
            },
            "comments_url": "https://api.github.com/repos/PrismarineJS/mineflayer/commits/451c1b0d5d0e13de3bab9b3e5cf9e375e8970d42/comments",
            "commit": {
                "author": {
                    "date": "2020-06-28T14:01:16Z",
                    "email": "azizovkostya97@gmail.com",
                    "name": "Konstantin"
                },
                "comment_count": 0,
                "committer": {
                    "date": "2020-06-28T14:01:16Z",
                    "email": "azizovkostya97@gmail.com",
                    "name": "Konstantin"
                },
                "message": "chore: update typings for events\n\nReplaced base EventEmitter with [TypedEmitter](https://github.com/andywer/typed-emitter) and extract all events in separate interfaces with inheritence where possible\n\nUsing TypedEmitter allows us to automatically type not only \"on\" events as it was previously but \"once\", \"off\", \"emit\" and so on. The change is backwards-compatible.",
                "tree": {
                    "sha": "f25f74f2fa513666ead3c52c2a6c718f4e5bd4d3",
                    "url": "https://api.github.com/repos/PrismarineJS/mineflayer/git/trees/f25f74f2fa513666ead3c52c2a6c718f4e5bd4d3"
                },
                "url": "https://api.github.com/repos/PrismarineJS/mineflayer/git/commits/451c1b0d5d0e13de3bab9b3e5cf9e375e8970d42",
                "verification": {
                    "payload": null,
                    "reason": "unsigned",
                    "signature": null,
                    "verified": false
                }
            },
            "committer": {
                "avatar_url": "https://avatars.githubusercontent.com/u/6943514?v=4",
                "events_url": "https://api.github.com/users/G07cha/events{/privacy}",
                "followers_url": "https://api.github.com/users/G07cha/followers",
                "following_url": "https://api.github.com/users/G07cha/following{/other_user}",
                "gists_url": "https://api.github.com/users/G07cha/gists{/gist_id}",
                "gravatar_id": "",
                "html_url": "https://github.com/G07cha",
                "id": 6943514,
                "login": "G07cha",
                "node_id": "MDQ6VXNlcjY5NDM1MTQ=",
                "organizations_url": "https://api.github.com/users/G07cha/orgs",
                "received_events_url": "https://api.github.com/users/G07cha/received_events",
                "repos_url": "https://api.github.com/users/G07cha/repos",
                "site_admin": false,
                "starred_url": "https://api.github.com/users/G07cha/starred{/owner}{/repo}",
                "subscriptions_url": "https://api.github.com/users/G07cha/subscriptions",
                "type": "User",
                "url": "https://api.github.com/users/G07cha"
            },
            "html_url": "https://github.com/PrismarineJS/mineflayer/commit/451c1b0d5d0e13de3bab9b3e5cf9e375e8970d42",
            "node_id": "MDY6Q29tbWl0NTEyMzgxNDI6NDUxYzFiMGQ1ZDBlMTNkZTNiYWI5YjNlNWNmOWUzNzVlODk3MGQ0Mg==",
            "parents": [
                {
                    "html_url": "https://github.com/PrismarineJS/mineflayer/commit/8b374961ed543f4c2db47ba7955c3788827a963d",
                    "sha": "8b374961ed543f4c2db47ba7955c3788827a963d",
                    "url": "https://api.github.com/repos/PrismarineJS/mineflayer/commits/8b374961ed543f4c2db47ba7955c3788827a963d"
                }
            ],
            "sha": "451c1b0d5d0e13de3bab9b3e5cf9e375e8970d42",
            "url": "https://api.github.com/repos/PrismarineJS/mineflayer/commits/451c1b0d5d0e13de3bab9b3e5cf9e375e8970d42"
        }
    ],
    "commits": 1,
    "commits_url": "https://api.github.com/repos/PrismarineJS/mineflayer/pulls/1095/commits",
    "created_at": "2020-06-28T14:04:20Z",
    "deletions": 269,
    "diff_url": "https://github.com/PrismarineJS/mineflayer/pull/1095.diff",
    "draft": false,
    "head": {
        "label": "G07cha:chore/update-emitter-types",
        "ref": "chore/update-emitter-types",
        "repo": {
            "allow_forking": true,
            "archive_url": "https://api.github.com/repos/G07cha/mineflayer/{archive_format}{/ref}",
            "archived": false,
            "assignees_url": "https://api.github.com/repos/G07cha/mineflayer/assignees{/user}",
            "blobs_url": "https://api.github.com/repos/G07cha/mineflayer/git/blobs{/sha}",
            "branches_url": "https://api.github.com/repos/G07cha/mineflayer/branches{/branch}",
            "clone_url": "https://github.com/G07cha/mineflayer.git",
            "collaborators_url": "https://api.github.com/repos/G07cha/mineflayer/collaborators{/collaborator}",
            "comments_url": "https://api.github.com/repos/G07cha/mineflayer/comments{/number}",
            "commits_url": "https://api.github.com/repos/G07cha/mineflayer/commits{/sha}",
            "compare_url": "https://api.github.com/repos/G07cha/mineflayer/compare/{base}...{head}",
            "contents_url": "https://api.github.com/repos/G07cha/mineflayer/contents/{+path}",
            "contributors_url": "https://api.github.com/repos/G07cha/mineflayer/contributors",
            "created_at": "2016-02-07T06:28:55Z",
            "default_branch": "master",
            "deployments_url": "https://api.github.com/repos/G07cha/mineflayer/deployments",
            "description": "Create Minecraft bots with a powerful, stable, and high level JavaScript API.",
            "disabled": false,
            "downloads_url": "https://api.github.com/repos/G07cha/mineflayer/downloads",
            "events_url": "https://api.github.com/repos/G07cha/mineflayer/events",
            "fork": true,
            "forks": 0,
            "forks_count": 0,
            "forks_url": "https://api.github.com/repos/G07cha/mineflayer/forks",
            "full_name": "G07cha/mineflayer",
            "git_commits_url": "https://api.github.com/repos/G07cha/mineflayer/git/commits{/sha}",
            "git_refs_url": "https://api.github.com/repos/G07cha/mineflayer/git/refs{/sha}",
            "git_tags_url": "https://api.github.com/repos/G07cha/mineflayer/git/tags{/sha}",
            "git_url": "git://github.com/G07cha/mineflayer.git",
            "has_discussions": false,
            "has_downloads": true,
            "has_issues": false,
            "has_pages": false,
            "has_projects": true,
            "has_wiki": true,
            "homepage": "",
            "hooks_url": "https://api.github.com/repos/G07cha/mineflayer/hooks",
            "html_url": "https://github.com/G07cha/mineflayer",
            "id": 51238142,
            "is_template": false,
            "issue_comment_url": "https://api.github.com/repos/G07cha/mineflayer/issues/comments{/number}",
            "issue_events_url": "https://api.github.com/repos/G07cha/mineflayer/issues/events{/number}",
            "issues_url": "https://api.github.com/repos/G07cha/mineflayer/issues{/number}",
            "keys_url": "https://api.github.com/repos/G07cha/mineflayer/keys{/key_id}",
            "labels_url": "https://api.github.com/repos/G07cha/mineflayer/labels{/name}",
            "language": "JavaScript",
            "languages_url": "https://api.github.com/repos/G07cha/mineflayer/languages",
            "license": {
                "key": "mit",
                "name": "MIT License",
                "node_id": "MDc6TGljZW5zZTEz",
                "spdx_id": "MIT",
                "url": "https://api.github.com/licenses/mit"
            },
            "merges_url": "https://api.github.com/repos/G07cha/mineflayer/merges",
            "milestones_url": "https://api.github.com/repos/G07cha/mineflayer/milestones{/number}",
            "mirror_url": null,
            "name": "mineflayer",
            "node_id": "MDEwOlJlcG9zaXRvcnk1MTIzODE0Mg==",
            "notifications_url": "https://api.github.com/repos/G07cha/mineflayer/notifications{?since,all,participating}",
            "open_issues": 0,
            "open_issues_count": 0,
            "owner": {
                "avatar_url": "https://avatars.githubusercontent.com/u/6943514?v=4",
                "events_url": "https://api.github.com/users/G07cha/events{/privacy}",
                "followers_url": "https://api.github.com/users/G07cha/followers",
                "following_url": "https://api.github.com/users/G07cha/following{/other_user}",
                "gists_url": "https://api.github.com/users/G07cha/gists{/gist_id}",
                "gravatar_id": "",
                "html_url": "https://github.com/G07cha",
                "id": 6943514,
                "login": "G07cha",
                "node_id": "MDQ6VXNlcjY5NDM1MTQ=",
                "organizations_url": "https://api.github.com/users/G07cha/orgs",
                "received_events_url": "https://api.github.com/users/G07cha/received_events",
                "repos_url": "https://api.github.com/users/G07cha/repos",
                "site_admin": false,
                "starred_url": "https://api.github.com/users/G07cha/starred{/owner}{/repo}",
                "subscriptions_url": "https://api.github.com/users/G07cha/subscriptions",
                "type": "User",
                "url": "https://api.github.com/users/G07cha"
            },
            "private": false,
            "pulls_url": "https://api.github.com/repos/G07cha/mineflayer/pulls{/number}",
            "pushed_at": "2020-07-20T08:10:47Z",
            "releases_url": "https://api.github.com/repos/G07cha/mineflayer/releases{/id}",
            "size": 10089,
            "ssh_url": "git@github.com:G07cha/mineflayer.git",
            "stargazers_count": 0,
            "stargazers_url": "https://api.github.com/repos/G07cha/mineflayer/stargazers",
            "statuses_url": "https://api.github.com/repos/G07cha/mineflayer/statuses/{sha}",
            "subscribers_url": "https://api.github.com/repos/G07cha/mineflayer/subscribers",
            "subscription_url": "https://api.github.com/repos/G07cha/mineflayer/subscription",
            "svn_url": "https://github.com/G07cha/mineflayer",
            "tags_url": "https://api.github.com/repos/G07cha/mineflayer/tags",
            "teams_url": "https://api.github.com/repos/G07cha/mineflayer/teams",
            "topics": [],
            "trees_url": "https://api.github.com/repos/G07cha/mineflayer/git/trees{/sha}",
            "updated_at": "2016-02-07T06:28:55Z",
            "url": "https://api.github.com/repos/G07cha/mineflayer",
            "visibility": "public",
            "watchers": 0,
            "watchers_count": 0,
            "web_commit_signoff_required": false
        },
        "sha": "451c1b0d5d0e13de3bab9b3e5cf9e375e8970d42",
        "user": {
            "avatar_url": "https://avatars.githubusercontent.com/u/6943514?v=4",
            "events_url": "https://api.github.com/users/G07cha/events{/privacy}",
            "followers_url": "https://api.github.com/users/G07cha/followers",
            "following_url": "https://api.github.com/users/G07cha/following{/other_user}",
            "gists_url": "https://api.github.com/users/G07cha/gists{/gist_id}",
            "gravatar_id": "",
            "html_url": "https://github.com/G07cha",
            "id": 6943514,
            "login": "G07cha",
            "node_id": "MDQ6VXNlcjY5NDM1MTQ=",
            "organizations_url": "https://api.github.com/users/G07cha/orgs",
            "received_events_url": "https://api.github.com/users/G07cha/received_events",
            "repos_url": "https://api.github.com/users/G07cha/repos",
            "site_admin": false,
            "starred_url": "https://api.github.com/users/G07cha/starred{/owner}{/repo}",
            "subscriptions_url": "https://api.github.com/users/G07cha/subscriptions",
            "type": "User",
            "url": "https://api.github.com/users/G07cha"
        }
    },
    "html_url": "https://github.com/PrismarineJS/mineflayer/pull/1095",
    "id": 441061391,
    "issue_url": "https://api.github.com/repos/PrismarineJS/mineflayer/issues/1095",
    "labels": [],
    "locked": false,
    "maintainer_can_modify": false,
    "merge_commit_sha": "44fd65e71d093acc4d94a39feb7f00a03b63db64",
    "mergeable": null,
    "mergeable_state": "unknown",
    "merged": true,
    "merged_at": "2020-06-28T15:47:25Z",
    "merged_by": {
        "avatar_url": "https://avatars.githubusercontent.com/u/2346494?v=4",
        "events_url": "https://api.github.com/users/rom1504/events{/privacy}",
        "followers_url": "https://api.github.com/users/rom1504/followers",
        "following_url": "https://api.github.com/users/rom1504/following{/other_user}",
        "gists_url": "https://api.github.com/users/rom1504/gists{/gist_id}",
        "gravatar_id": "",
        "html_url": "https://github.com/rom1504",
        "id": 2346494,
        "login": "rom1504",
        "node_id": "MDQ6VXNlcjIzNDY0OTQ=",
        "organizations_url": "https://api.github.com/users/rom1504/orgs",
        "received_events_url": "https://api.github.com/users/rom1504/received_events",
        "repos_url": "https://api.github.com/users/rom1504/repos",
        "site_admin": false,
        "starred_url": "https://api.github.com/users/rom1504/starred{/owner}{/repo}",
        "subscriptions_url": "https://api.github.com/users/rom1504/subscriptions",
        "type": "User",
        "url": "https://api.github.com/users/rom1504"
    },
    "milestone": null,
    "node_id": "MDExOlB1bGxSZXF1ZXN0NDQxMDYxMzkx",
    "number": 1095,
    "patch_url": "https://github.com/PrismarineJS/mineflayer/pull/1095.patch",
    "rebaseable": null,
    "requested_reviewers": [],
    "requested_teams": [],
    "review_comment_url": "https://api.github.com/repos/PrismarineJS/mineflayer/pulls/comments{/number}",
    "review_comments": 0,
    "review_comments_url": "https://api.github.com/repos/PrismarineJS/mineflayer/pulls/1095/comments",
    "state": "closed",
    "statuses_url": "https://api.github.com/repos/PrismarineJS/mineflayer/statuses/451c1b0d5d0e13de3bab9b3e5cf9e375e8970d42",
    "title": "chore: update typings for events",
    "updated_at": "2020-06-29T07:24:34Z",
    "url": "https://api.github.com/repos/PrismarineJS/mineflayer/pulls/1095",
    "user": {
        "avatar_url": "https://avatars.githubusercontent.com/u/6943514?v=4",
        "events_url": "https://api.github.com/users/G07cha/events{/privacy}",
        "followers_url": "https://api.github.com/users/G07cha/followers",
        "following_url": "https://api.github.com/users/G07cha/following{/other_user}",
        "gists_url": "https://api.github.com/users/G07cha/gists{/gist_id}",
        "gravatar_id": "",
        "html_url": "https://github.com/G07cha",
        "id": 6943514,
        "login": "G07cha",
        "node_id": "MDQ6VXNlcjY5NDM1MTQ=",
        "organizations_url": "https://api.github.com/users/G07cha/orgs",
        "received_events_url": "https://api.github.com/users/G07cha/received_events",
        "repos_url": "https://api.github.com/users/G07cha/repos",
        "site_admin": false,
        "starred_url": "https://api.github.com/users/G07cha/starred{/owner}{/repo}",
        "subscriptions_url": "https://api.github.com/users/G07cha/subscriptions",
        "type": "User",
        "url": "https://api.github.com/users/G07cha"
    }
}