{
    "_links": {
        "comments": {
            "href": "https://api.github.com/repos/PrismarineJS/mineflayer/issues/1336/comments"
        },
        "commits": {
            "href": "https://api.github.com/repos/PrismarineJS/mineflayer/pulls/1336/commits"
        },
        "html": {
            "href": "https://github.com/PrismarineJS/mineflayer/pull/1336"
        },
        "issue": {
            "href": "https://api.github.com/repos/PrismarineJS/mineflayer/issues/1336"
        },
        "review_comment": {
            "href": "https://api.github.com/repos/PrismarineJS/mineflayer/pulls/comments{/number}"
        },
        "review_comments": {
            "href": "https://api.github.com/repos/PrismarineJS/mineflayer/pulls/1336/comments"
        },
        "self": {
            "href": "https://api.github.com/repos/PrismarineJS/mineflayer/pulls/1336"
        },
        "statuses": {
            "href": "https://api.github.com/repos/PrismarineJS/mineflayer/statuses/7dc2365dad25388f7a5db4382bb55d0996da8a83"
        }
    },
    "active_lock_reason": null,
    "additions": 64,
    "assignee": null,
    "assignees": [],
    "author_association": "MEMBER",
    "auto_merge": null,
    "base": {
        "label": "PrismarineJS:master",
        "ref": "master",
        "repo": {
            "allow_forking": true,
            "archive_url": "https://api.github.com/repos/PrismarineJS/mineflayer/{archive_format}{/ref}",
            "archived": false,
            "assignees_url": "https://api.github.com/repos/PrismarineJS/mineflayer/assignees{/user}",
            "blobs_url": "https://api.github.com/repos/PrismarineJS/mineflayer/git/blobs{/sha}",
            "branches_url": "https://api.github.com/repos/PrismarineJS/mineflayer/branches{/branch}",
            "clone_url": "https://github.com/PrismarineJS/mineflayer.git",
            "collaborators_url": "https://api.github.com/repos/PrismarineJS/mineflayer/collaborators{/collaborator}",
            "comments_url": "https://api.github.com/repos/PrismarineJS/mineflayer/comments{/number}",
            "commits_url": "https://api.github.com/repos/PrismarineJS/mineflayer/commits{/sha}",
            "compare_url": "https://api.github.com/repos/PrismarineJS/mineflayer/compare/{base}...{head}",
            "contents_url": "https://api.github.com/repos/PrismarineJS/mineflayer/contents/{+path}",
            "contributors_url": "https://api.github.com/repos/PrismarineJS/mineflayer/contributors",
            "created_at": "2011-01-23T09:41:55Z",
            "default_branch": "master",
            "deployments_url": "https://api.github.com/repos/PrismarineJS/mineflayer/deployments",
            "description": "Create Minecraft bots with a powerful, stable, and high level JavaScript API.",
            "disabled": false,
            "downloads_url": "https://api.github.com/repos/PrismarineJS/mineflayer/downloads",
            "events_url": "https://api.github.com/repos/PrismarineJS/mineflayer/events",
            "fork": false,
            "forks": 748,
            "forks_count": 748,
            "forks_url": "https://api.github.com/repos/PrismarineJS/mineflayer/forks",
            "full_name": "PrismarineJS/mineflayer",
            "git_commits_url": "https://api.github.com/repos/PrismarineJS/mineflayer/git/commits{/sha}",
            "git_refs_url": "https://api.github.com/repos/PrismarineJS/mineflayer/git/refs{/sha}",
            "git_tags_url": "https://api.github.com/repos/PrismarineJS/mineflayer/git/tags{/sha}",
            "git_url": "git://github.com/PrismarineJS/mineflayer.git",
            "has_discussions": true,
            "has_downloads": true,
            "has_issues": true,
            "has_pages": true,
            "has_projects": true,
            "has_wiki": true,
            "homepage": "https://prismarinejs.github.io/mineflayer/",
            "hooks_url": "https://api.github.com/repos/PrismarineJS/mineflayer/hooks",
            "html_url": "https://github.com/PrismarineJS/mineflayer",
            "id": 1284185,
            "is_template": false,
            "issue_comment_url": "https://api.github.com/repos/PrismarineJS/mineflayer/issues/comments{/number}",
            "issue_events_url": "https://api.github.com/repos/PrismarineJS/mineflayer/issues/events{/number}",
            "issues_url": "https://api.github.com/repos/PrismarineJS/mineflayer/issues{/number}",
            "keys_url": "https://api.github.com/repos/PrismarineJS/mineflayer/keys{/key_id}",
            "labels_url": "https://api.github.com/repos/PrismarineJS/mineflayer/labels{/name}",
            "language": "JavaScript",
            "languages_url": "https://api.github.com/repos/PrismarineJS/mineflayer/languages",
            "license": {
                "key": "mit",
                "name": "MIT License",
                "node_id": "MDc6TGljZW5zZTEz",
                "spdx_id": "MIT",
                "url": "https://api.github.com/licenses/mit"
            },
            "merges_url": "https://api.github.com/repos/PrismarineJS/mineflayer/merges",
            "milestones_url": "https://api.github.com/repos/PrismarineJS/mineflayer/milestones{/number}",
            "mirror_url": null,
            "name": "mineflayer",
            "node_id": "MDEwOlJlcG9zaXRvcnkxMjg0MTg1",
            "notifications_url": "https://api.github.com/repos/PrismarineJS/mineflayer/notifications{?since,all,participating}",
            "open_issues": 269,
            "open_issues_count": 269,
            "owner": {
                "avatar_url": "https://avatars.githubusercontent.com/u/11053411?v=4",
                "events_url": "https://api.github.com/users/PrismarineJS/events{/privacy}",
                "followers_url": "https://api.github.com/users/PrismarineJS/followers",
                "following_url": "https://api.github.com/users/PrismarineJS/following{/other_user}",
                "gists_url": "https://api.github.com/users/PrismarineJS/gists{/gist_id}",
                "gravatar_id": "",
                "html_url": "https://github.com/PrismarineJS",
                "id": 11053411,
                "login": "PrismarineJS",
                "node_id": "MDEyOk9yZ2FuaXphdGlvbjExMDUzNDEx",
                "organizations_url": "https://api.github.com/users/PrismarineJS/orgs",
                "received_events_url": "https://api.github.com/users/PrismarineJS/received_events",
                "repos_url": "https://api.github.com/users/PrismarineJS/repos",
                "site_admin": false,
                "starred_url": "https://api.github.com/users/PrismarineJS/starred{/owner}{/repo}",
                "subscriptions_url": "https://api.github.com/users/PrismarineJS/subscriptions",
                "type": "Organization",
                "url": "https://api.github.com/users/PrismarineJS"
            },
            "private": false,
            "pulls_url": "https://api.github.com/repos/PrismarineJS/mineflayer/pulls{/number}",
            "pushed_at": "2023-04-25T00:44:52Z",
            "releases_url": "https://api.github.com/repos/PrismarineJS/mineflayer/releases{/id}",
            "size": 12493,
            "ssh_url": "git@github.com:PrismarineJS/mineflayer.git",
            "stargazers_count": 3698,
            "stargazers_url": "https://api.github.com/repos/PrismarineJS/mineflayer/stargazers",
            "statuses_url": "https://api.github.com/repos/PrismarineJS/mineflayer/statuses/{sha}",
            "subscribers_url": "https://api.github.com/repos/PrismarineJS/mineflayer/subscribers",
            "subscription_url": "https://api.github.com/repos/PrismarineJS/mineflayer/subscription",
            "svn_url": "https://github.com/PrismarineJS/mineflayer",
            "tags_url": "https://api.github.com/repos/PrismarineJS/mineflayer/tags",
            "teams_url": "https://api.github.com/repos/PrismarineJS/mineflayer/teams",
            "topics": [
                "bot",
                "minecraft",
                "minecraft-api",
                "minecraft-bot",
                "network",
                "nodejs"
            ],
            "trees_url": "https://api.github.com/repos/PrismarineJS/mineflayer/git/trees{/sha}",
            "updated_at": "2023-04-25T14:07:03Z",
            "url": "https://api.github.com/repos/PrismarineJS/mineflayer",
            "visibility": "public",
            "watchers": 3698,
            "watchers_count": 3698,
            "web_commit_signoff_required": false
        },
        "sha": "49d156b53d9815db7d5afc5668a1fc71ea63d805",
        "user": {
            "avatar_url": "https://avatars.githubusercontent.com/u/11053411?v=4",
            "events_url": "https://api.github.com/users/PrismarineJS/events{/privacy}",
            "followers_url": "https://api.github.com/users/PrismarineJS/followers",
            "following_url": "https://api.github.com/users/PrismarineJS/following{/other_user}",
            "gists_url": "https://api.github.com/users/PrismarineJS/gists{/gist_id}",
            "gravatar_id": "",
            "html_url": "https://github.com/PrismarineJS",
            "id": 11053411,
            "login": "PrismarineJS",
            "node_id": "MDEyOk9yZ2FuaXphdGlvbjExMDUzNDEx",
            "organizations_url": "https://api.github.com/users/PrismarineJS/orgs",
            "received_events_url": "https://api.github.com/users/PrismarineJS/received_events",
            "repos_url": "https://api.github.com/users/PrismarineJS/repos",
            "site_admin": false,
            "starred_url": "https://api.github.com/users/PrismarineJS/starred{/owner}{/repo}",
            "subscriptions_url": "https://api.github.com/users/PrismarineJS/subscriptions",
            "type": "Organization",
            "url": "https://api.github.com/users/PrismarineJS"
        }
    },
    "body": "",
    "changed_files": 1,
    "closed_at": "2020-10-01T19:57:59Z",
    "comment_data": [],
    "comment_regular_data": [],
    "comments": 0,
    "comments_url": "https://api.github.com/repos/PrismarineJS/mineflayer/issues/1336/comments",
    "commit_data": [
        {
            "author": {
                "avatar_url": "https://avatars.githubusercontent.com/u/3118172?v=4",
                "events_url": "https://api.github.com/users/TheDudeFromCI/events{/privacy}",
                "followers_url": "https://api.github.com/users/TheDudeFromCI/followers",
                "following_url": "https://api.github.com/users/TheDudeFromCI/following{/other_user}",
                "gists_url": "https://api.github.com/users/TheDudeFromCI/gists{/gist_id}",
                "gravatar_id": "",
                "html_url": "https://github.com/TheDudeFromCI",
                "id": 3118172,
                "login": "TheDudeFromCI",
                "node_id": "MDQ6VXNlcjMxMTgxNzI=",
                "organizations_url": "https://api.github.com/users/TheDudeFromCI/orgs",
                "received_events_url": "https://api.github.com/users/TheDudeFromCI/received_events",
                "repos_url": "https://api.github.com/users/TheDudeFromCI/repos",
                "site_admin": false,
                "starred_url": "https://api.github.com/users/TheDudeFromCI/starred{/owner}{/repo}",
                "subscriptions_url": "https://api.github.com/users/TheDudeFromCI/subscriptions",
                "type": "User",
                "url": "https://api.github.com/users/TheDudeFromCI"
            },
            "comments_url": "https://api.github.com/repos/PrismarineJS/mineflayer/commits/26602ee0c992da059a16d711c10320c751195982/comments",
            "commit": {
                "author": {
                    "date": "2020-09-30T19:41:51Z",
                    "email": "thedudefromci@gmail.com",
                    "name": "TheDudeFromCI"
                },
                "comment_count": 0,
                "committer": {
                    "date": "2020-09-30T19:41:51Z",
                    "email": "noreply@github.com",
                    "name": "GitHub"
                },
                "message": "Create collectblock.js",
                "tree": {
                    "sha": "f23a9924125008a0e8ee3aeaa63902f2b22bbb56",
                    "url": "https://api.github.com/repos/PrismarineJS/mineflayer/git/trees/f23a9924125008a0e8ee3aeaa63902f2b22bbb56"
                },
                "url": "https://api.github.com/repos/PrismarineJS/mineflayer/git/commits/26602ee0c992da059a16d711c10320c751195982",
                "verification": {
                    "payload": "tree f23a9924125008a0e8ee3aeaa63902f2b22bbb56\nparent 49d156b53d9815db7d5afc5668a1fc71ea63d805\nauthor TheDudeFromCI <thedudefromci@gmail.com> 1601494911 -0700\ncommitter GitHub <noreply@github.com> 1601494911 -0700\n\nCreate collectblock.js",
                    "reason": "valid",
                    "signature": "-----BEGIN PGP SIGNATURE-----\n\nwsBcBAABCAAQBQJfdN9/CRBK7hj4Ov3rIwAAdHIIAHHfaBIchvQk5Mxnt+EsONnF\nU9VjV/sxuCcOfDPk6wrpMsEac/AkRF7VqNbzRR9STKnh6sI08DacCfTBLY6IjD9h\nNV5TJ8GgbwYWXzTXITORCgPqXP3ZUY8Sfd6rOqhFnY9d8b0FaNYEGzdaetdnkWQf\nZKOpR+UkRWuL82a80vuvv/hjE3KK3j2ZRUTXBBkbR7CLQyMmozlmyCJ/2zV+n8YZ\n4ChqGtqbWM+Dr2ClwlbvWTVZ7ifALw4qukhDTcHOIdWW2bOgzM5mu1xrUaRje7Lh\nVMR5rCnia3cgTX33JKYi62tIMkn25wREayRELV0qS+feZkh1QpoEMJQ+/RfYdag=\n=dUHe\n-----END PGP SIGNATURE-----\n",
                    "verified": true
                }
            },
            "committer": {
                "avatar_url": "https://avatars.githubusercontent.com/u/19864447?v=4",
                "events_url": "https://api.github.com/users/web-flow/events{/privacy}",
                "followers_url": "https://api.github.com/users/web-flow/followers",
                "following_url": "https://api.github.com/users/web-flow/following{/other_user}",
                "gists_url": "https://api.github.com/users/web-flow/gists{/gist_id}",
                "gravatar_id": "",
                "html_url": "https://github.com/web-flow",
                "id": 19864447,
                "login": "web-flow",
                "node_id": "MDQ6VXNlcjE5ODY0NDQ3",
                "organizations_url": "https://api.github.com/users/web-flow/orgs",
                "received_events_url": "https://api.github.com/users/web-flow/received_events",
                "repos_url": "https://api.github.com/users/web-flow/repos",
                "site_admin": false,
                "starred_url": "https://api.github.com/users/web-flow/starred{/owner}{/repo}",
                "subscriptions_url": "https://api.github.com/users/web-flow/subscriptions",
                "type": "User",
                "url": "https://api.github.com/users/web-flow"
            },
            "html_url": "https://github.com/PrismarineJS/mineflayer/commit/26602ee0c992da059a16d711c10320c751195982",
            "node_id": "MDY6Q29tbWl0MjcyMTY2MDA5OjI2NjAyZWUwYzk5MmRhMDU5YTE2ZDcxMWMxMDMyMGM3NTExOTU5ODI=",
            "parents": [
                {
                    "html_url": "https://github.com/PrismarineJS/mineflayer/commit/49d156b53d9815db7d5afc5668a1fc71ea63d805",
                    "sha": "49d156b53d9815db7d5afc5668a1fc71ea63d805",
                    "url": "https://api.github.com/repos/PrismarineJS/mineflayer/commits/49d156b53d9815db7d5afc5668a1fc71ea63d805"
                }
            ],
            "sha": "26602ee0c992da059a16d711c10320c751195982",
            "url": "https://api.github.com/repos/PrismarineJS/mineflayer/commits/26602ee0c992da059a16d711c10320c751195982"
        },
        {
            "author": {
                "avatar_url": "https://avatars.githubusercontent.com/u/3118172?v=4",
                "events_url": "https://api.github.com/users/TheDudeFromCI/events{/privacy}",
                "followers_url": "https://api.github.com/users/TheDudeFromCI/followers",
                "following_url": "https://api.github.com/users/TheDudeFromCI/following{/other_user}",
                "gists_url": "https://api.github.com/users/TheDudeFromCI/gists{/gist_id}",
                "gravatar_id": "",
                "html_url": "https://github.com/TheDudeFromCI",
                "id": 3118172,
                "login": "TheDudeFromCI",
                "node_id": "MDQ6VXNlcjMxMTgxNzI=",
                "organizations_url": "https://api.github.com/users/TheDudeFromCI/orgs",
                "received_events_url": "https://api.github.com/users/TheDudeFromCI/received_events",
                "repos_url": "https://api.github.com/users/TheDudeFromCI/repos",
                "site_admin": false,
                "starred_url": "https://api.github.com/users/TheDudeFromCI/starred{/owner}{/repo}",
                "subscriptions_url": "https://api.github.com/users/TheDudeFromCI/subscriptions",
                "type": "User",
                "url": "https://api.github.com/users/TheDudeFromCI"
            },
            "comments_url": "https://api.github.com/repos/PrismarineJS/mineflayer/commits/6ead8b889121e87c265df000b0f7f1f4ba0df5a1/comments",
            "commit": {
                "author": {
                    "date": "2020-09-30T19:53:31Z",
                    "email": "thedudefromci@gmail.com",
                    "name": "TheDudeFromCI"
                },
                "comment_count": 0,
                "committer": {
                    "date": "2020-09-30T19:53:31Z",
                    "email": "noreply@github.com",
                    "name": "GitHub"
                },
                "message": "Update collectblock.js",
                "tree": {
                    "sha": "527f113da5a3dbd10d69122164f354bb8f883942",
                    "url": "https://api.github.com/repos/PrismarineJS/mineflayer/git/trees/527f113da5a3dbd10d69122164f354bb8f883942"
                },
                "url": "https://api.github.com/repos/PrismarineJS/mineflayer/git/commits/6ead8b889121e87c265df000b0f7f1f4ba0df5a1",
                "verification": {
                    "payload": "tree 527f113da5a3dbd10d69122164f354bb8f883942\nparent 26602ee0c992da059a16d711c10320c751195982\nauthor TheDudeFromCI <thedudefromci@gmail.com> 1601495611 -0700\ncommitter GitHub <noreply@github.com> 1601495611 -0700\n\nUpdate collectblock.js",
                    "reason": "valid",
                    "signature": "-----BEGIN PGP SIGNATURE-----\n\nwsBcBAABCAAQBQJfdOI7CRBK7hj4Ov3rIwAAdHIIAFd9OgqgAOP+2XlQL12lzEqI\nEIxt9GpvPea0Dg6qxiLRrp/Ls43Ks72r778mElrvOBdjT4dUbKYp2kjSPLDhmt1y\n4AydBkJbQG9ogdJEH7STO8aSZhOEMH2GEqdE/xnOJUhOGb58efD08db344Xuy8e2\no+lwTie4/c0pFz6jFn5GZDGG/QE6cLYdWTXJ3H9diwwH37rqOh/cJ8FJirIMMevY\n84J0SiDJyaP9Pkj+xufK2zPsf5U1tbt2d1XoulwdW0CUytHvByIKZETs6kYyIcs6\ndF3PLi3RSvECpsfOxLQuRP4BovpB92O6Ja/yp7DELA1IrmyKEFMpnXujdGf/1DE=\n=nYD3\n-----END PGP SIGNATURE-----\n",
                    "verified": true
                }
            },
            "committer": {
                "avatar_url": "https://avatars.githubusercontent.com/u/19864447?v=4",
                "events_url": "https://api.github.com/users/web-flow/events{/privacy}",
                "followers_url": "https://api.github.com/users/web-flow/followers",
                "following_url": "https://api.github.com/users/web-flow/following{/other_user}",
                "gists_url": "https://api.github.com/users/web-flow/gists{/gist_id}",
                "gravatar_id": "",
                "html_url": "https://github.com/web-flow",
                "id": 19864447,
                "login": "web-flow",
                "node_id": "MDQ6VXNlcjE5ODY0NDQ3",
                "organizations_url": "https://api.github.com/users/web-flow/orgs",
                "received_events_url": "https://api.github.com/users/web-flow/received_events",
                "repos_url": "https://api.github.com/users/web-flow/repos",
                "site_admin": false,
                "starred_url": "https://api.github.com/users/web-flow/starred{/owner}{/repo}",
                "subscriptions_url": "https://api.github.com/users/web-flow/subscriptions",
                "type": "User",
                "url": "https://api.github.com/users/web-flow"
            },
            "html_url": "https://github.com/PrismarineJS/mineflayer/commit/6ead8b889121e87c265df000b0f7f1f4ba0df5a1",
            "node_id": "MDY6Q29tbWl0MjcyMTY2MDA5OjZlYWQ4Yjg4OTEyMWU4N2MyNjVkZjAwMGIwZjdmMWY0YmEwZGY1YTE=",
            "parents": [
                {
                    "html_url": "https://github.com/PrismarineJS/mineflayer/commit/26602ee0c992da059a16d711c10320c751195982",
                    "sha": "26602ee0c992da059a16d711c10320c751195982",
                    "url": "https://api.github.com/repos/PrismarineJS/mineflayer/commits/26602ee0c992da059a16d711c10320c751195982"
                }
            ],
            "sha": "6ead8b889121e87c265df000b0f7f1f4ba0df5a1",
            "url": "https://api.github.com/repos/PrismarineJS/mineflayer/commits/6ead8b889121e87c265df000b0f7f1f4ba0df5a1"
        },
        {
            "author": {
                "avatar_url": "https://avatars.githubusercontent.com/u/3118172?v=4",
                "events_url": "https://api.github.com/users/TheDudeFromCI/events{/privacy}",
                "followers_url": "https://api.github.com/users/TheDudeFromCI/followers",
                "following_url": "https://api.github.com/users/TheDudeFromCI/following{/other_user}",
                "gists_url": "https://api.github.com/users/TheDudeFromCI/gists{/gist_id}",
                "gravatar_id": "",
                "html_url": "https://github.com/TheDudeFromCI",
                "id": 3118172,
                "login": "TheDudeFromCI",
                "node_id": "MDQ6VXNlcjMxMTgxNzI=",
                "organizations_url": "https://api.github.com/users/TheDudeFromCI/orgs",
                "received_events_url": "https://api.github.com/users/TheDudeFromCI/received_events",
                "repos_url": "https://api.github.com/users/TheDudeFromCI/repos",
                "site_admin": false,
                "starred_url": "https://api.github.com/users/TheDudeFromCI/starred{/owner}{/repo}",
                "subscriptions_url": "https://api.github.com/users/TheDudeFromCI/subscriptions",
                "type": "User",
                "url": "https://api.github.com/users/TheDudeFromCI"
            },
            "comments_url": "https://api.github.com/repos/PrismarineJS/mineflayer/commits/7dc2365dad25388f7a5db4382bb55d0996da8a83/comments",
            "commit": {
                "author": {
                    "date": "2020-09-30T19:55:58Z",
                    "email": "thedudefromci@gmail.com",
                    "name": "TheDudeFromCI"
                },
                "comment_count": 0,
                "committer": {
                    "date": "2020-09-30T19:55:58Z",
                    "email": "noreply@github.com",
                    "name": "GitHub"
                },
                "message": "Update collectblock.js",
                "tree": {
                    "sha": "a2328278a81ede371f1be1c57ca74650dd3411c4",
                    "url": "https://api.github.com/repos/PrismarineJS/mineflayer/git/trees/a2328278a81ede371f1be1c57ca74650dd3411c4"
                },
                "url": "https://api.github.com/repos/PrismarineJS/mineflayer/git/commits/7dc2365dad25388f7a5db4382bb55d0996da8a83",
                "verification": {
                    "payload": "tree a2328278a81ede371f1be1c57ca74650dd3411c4\nparent 6ead8b889121e87c265df000b0f7f1f4ba0df5a1\nauthor TheDudeFromCI <thedudefromci@gmail.com> 1601495758 -0700\ncommitter GitHub <noreply@github.com> 1601495758 -0700\n\nUpdate collectblock.js",
                    "reason": "valid",
                    "signature": "-----BEGIN PGP SIGNATURE-----\n\nwsBcBAABCAAQBQJfdOLOCRBK7hj4Ov3rIwAAdHIIAF8qu3G9k3IY6zB5TFsrvo24\nD47voVmbdAU+hIh9W64hlsxIOE/Kg85H/nA9GNHgPsDwTiGWnDHlKfMdsgnbFJJk\nBt9jBHNEGERglUV2g4e5oxjIc03IHiUm11J057Jdgx4/aX8FvXmI5sP/iLsAwNGe\nY43MSJ0vLdGXsT0wfrO2zDVcleLVtkdDL5D44rcpMnyKhohI1PhOc1a8a+fTMFcR\nAvq3isESk7zjNw+VwWAkIeoHzW/g8UrZwcxdSbsri7BMQR8NoTBSTNFFQ1zOZCWd\n0geOQQOMh068GtTOavFMgZezIbpdQqmGj/r+eB20Zd2oAxGCogagVrREQu3BN1k=\n=2rsj\n-----END PGP SIGNATURE-----\n",
                    "verified": true
                }
            },
            "committer": {
                "avatar_url": "https://avatars.githubusercontent.com/u/19864447?v=4",
                "events_url": "https://api.github.com/users/web-flow/events{/privacy}",
                "followers_url": "https://api.github.com/users/web-flow/followers",
                "following_url": "https://api.github.com/users/web-flow/following{/other_user}",
                "gists_url": "https://api.github.com/users/web-flow/gists{/gist_id}",
                "gravatar_id": "",
                "html_url": "https://github.com/web-flow",
                "id": 19864447,
                "login": "web-flow",
                "node_id": "MDQ6VXNlcjE5ODY0NDQ3",
                "organizations_url": "https://api.github.com/users/web-flow/orgs",
                "received_events_url": "https://api.github.com/users/web-flow/received_events",
                "repos_url": "https://api.github.com/users/web-flow/repos",
                "site_admin": false,
                "starred_url": "https://api.github.com/users/web-flow/starred{/owner}{/repo}",
                "subscriptions_url": "https://api.github.com/users/web-flow/subscriptions",
                "type": "User",
                "url": "https://api.github.com/users/web-flow"
            },
            "html_url": "https://github.com/PrismarineJS/mineflayer/commit/7dc2365dad25388f7a5db4382bb55d0996da8a83",
            "node_id": "MDY6Q29tbWl0MjcyMTY2MDA5OjdkYzIzNjVkYWQyNTM4OGY3YTVkYjQzODJiYjU1ZDA5OTZkYThhODM=",
            "parents": [
                {
                    "html_url": "https://github.com/PrismarineJS/mineflayer/commit/6ead8b889121e87c265df000b0f7f1f4ba0df5a1",
                    "sha": "6ead8b889121e87c265df000b0f7f1f4ba0df5a1",
                    "url": "https://api.github.com/repos/PrismarineJS/mineflayer/commits/6ead8b889121e87c265df000b0f7f1f4ba0df5a1"
                }
            ],
            "sha": "7dc2365dad25388f7a5db4382bb55d0996da8a83",
            "url": "https://api.github.com/repos/PrismarineJS/mineflayer/commits/7dc2365dad25388f7a5db4382bb55d0996da8a83"
        }
    ],
    "commits": 3,
    "commits_url": "https://api.github.com/repos/PrismarineJS/mineflayer/pulls/1336/commits",
    "created_at": "2020-09-30T19:42:05Z",
    "deletions": 0,
    "diff_url": "https://github.com/PrismarineJS/mineflayer/pull/1336.diff",
    "draft": false,
    "head": {
        "label": "TheDudeFromCI:patch-19",
        "ref": "patch-19",
        "repo": {
            "allow_forking": true,
            "archive_url": "https://api.github.com/repos/TheDudeFromCI/mineflayer/{archive_format}{/ref}",
            "archived": false,
            "assignees_url": "https://api.github.com/repos/TheDudeFromCI/mineflayer/assignees{/user}",
            "blobs_url": "https://api.github.com/repos/TheDudeFromCI/mineflayer/git/blobs{/sha}",
            "branches_url": "https://api.github.com/repos/TheDudeFromCI/mineflayer/branches{/branch}",
            "clone_url": "https://github.com/TheDudeFromCI/mineflayer.git",
            "collaborators_url": "https://api.github.com/repos/TheDudeFromCI/mineflayer/collaborators{/collaborator}",
            "comments_url": "https://api.github.com/repos/TheDudeFromCI/mineflayer/comments{/number}",
            "commits_url": "https://api.github.com/repos/TheDudeFromCI/mineflayer/commits{/sha}",
            "compare_url": "https://api.github.com/repos/TheDudeFromCI/mineflayer/compare/{base}...{head}",
            "contents_url": "https://api.github.com/repos/TheDudeFromCI/mineflayer/contents/{+path}",
            "contributors_url": "https://api.github.com/repos/TheDudeFromCI/mineflayer/contributors",
            "created_at": "2020-06-14T08:56:47Z",
            "default_branch": "master",
            "deployments_url": "https://api.github.com/repos/TheDudeFromCI/mineflayer/deployments",
            "description": "Create Minecraft bots with a powerful, stable, and high level JavaScript API.",
            "disabled": false,
            "downloads_url": "https://api.github.com/repos/TheDudeFromCI/mineflayer/downloads",
            "events_url": "https://api.github.com/repos/TheDudeFromCI/mineflayer/events",
            "fork": true,
            "forks": 1,
            "forks_count": 1,
            "forks_url": "https://api.github.com/repos/TheDudeFromCI/mineflayer/forks",
            "full_name": "TheDudeFromCI/mineflayer",
            "git_commits_url": "https://api.github.com/repos/TheDudeFromCI/mineflayer/git/commits{/sha}",
            "git_refs_url": "https://api.github.com/repos/TheDudeFromCI/mineflayer/git/refs{/sha}",
            "git_tags_url": "https://api.github.com/repos/TheDudeFromCI/mineflayer/git/tags{/sha}",
            "git_url": "git://github.com/TheDudeFromCI/mineflayer.git",
            "has_discussions": false,
            "has_downloads": true,
            "has_issues": false,
            "has_pages": false,
            "has_projects": true,
            "has_wiki": true,
            "homepage": "http://mineflayer.prismarine.js.org",
            "hooks_url": "https://api.github.com/repos/TheDudeFromCI/mineflayer/hooks",
            "html_url": "https://github.com/TheDudeFromCI/mineflayer",
            "id": 272166009,
            "is_template": false,
            "issue_comment_url": "https://api.github.com/repos/TheDudeFromCI/mineflayer/issues/comments{/number}",
            "issue_events_url": "https://api.github.com/repos/TheDudeFromCI/mineflayer/issues/events{/number}",
            "issues_url": "https://api.github.com/repos/TheDudeFromCI/mineflayer/issues{/number}",
            "keys_url": "https://api.github.com/repos/TheDudeFromCI/mineflayer/keys{/key_id}",
            "labels_url": "https://api.github.com/repos/TheDudeFromCI/mineflayer/labels{/name}",
            "language": "JavaScript",
            "languages_url": "https://api.github.com/repos/TheDudeFromCI/mineflayer/languages",
            "license": {
                "key": "mit",
                "name": "MIT License",
                "node_id": "MDc6TGljZW5zZTEz",
                "spdx_id": "MIT",
                "url": "https://api.github.com/licenses/mit"
            },
            "merges_url": "https://api.github.com/repos/TheDudeFromCI/mineflayer/merges",
            "milestones_url": "https://api.github.com/repos/TheDudeFromCI/mineflayer/milestones{/number}",
            "mirror_url": null,
            "name": "mineflayer",
            "node_id": "MDEwOlJlcG9zaXRvcnkyNzIxNjYwMDk=",
            "notifications_url": "https://api.github.com/repos/TheDudeFromCI/mineflayer/notifications{?since,all,participating}",
            "open_issues": 0,
            "open_issues_count": 0,
            "owner": {
                "avatar_url": "https://avatars.githubusercontent.com/u/3118172?v=4",
                "events_url": "https://api.github.com/users/TheDudeFromCI/events{/privacy}",
                "followers_url": "https://api.github.com/users/TheDudeFromCI/followers",
                "following_url": "https://api.github.com/users/TheDudeFromCI/following{/other_user}",
                "gists_url": "https://api.github.com/users/TheDudeFromCI/gists{/gist_id}",
                "gravatar_id": "",
                "html_url": "https://github.com/TheDudeFromCI",
                "id": 3118172,
                "login": "TheDudeFromCI",
                "node_id": "MDQ6VXNlcjMxMTgxNzI=",
                "organizations_url": "https://api.github.com/users/TheDudeFromCI/orgs",
                "received_events_url": "https://api.github.com/users/TheDudeFromCI/received_events",
                "repos_url": "https://api.github.com/users/TheDudeFromCI/repos",
                "site_admin": false,
                "starred_url": "https://api.github.com/users/TheDudeFromCI/starred{/owner}{/repo}",
                "subscriptions_url": "https://api.github.com/users/TheDudeFromCI/subscriptions",
                "type": "User",
                "url": "https://api.github.com/users/TheDudeFromCI"
            },
            "private": false,
            "pulls_url": "https://api.github.com/repos/TheDudeFromCI/mineflayer/pulls{/number}",
            "pushed_at": "2021-01-17T05:02:49Z",
            "releases_url": "https://api.github.com/repos/TheDudeFromCI/mineflayer/releases{/id}",
            "size": 11432,
            "ssh_url": "git@github.com:TheDudeFromCI/mineflayer.git",
            "stargazers_count": 2,
            "stargazers_url": "https://api.github.com/repos/TheDudeFromCI/mineflayer/stargazers",
            "statuses_url": "https://api.github.com/repos/TheDudeFromCI/mineflayer/statuses/{sha}",
            "subscribers_url": "https://api.github.com/repos/TheDudeFromCI/mineflayer/subscribers",
            "subscription_url": "https://api.github.com/repos/TheDudeFromCI/mineflayer/subscription",
            "svn_url": "https://github.com/TheDudeFromCI/mineflayer",
            "tags_url": "https://api.github.com/repos/TheDudeFromCI/mineflayer/tags",
            "teams_url": "https://api.github.com/repos/TheDudeFromCI/mineflayer/teams",
            "topics": [],
            "trees_url": "https://api.github.com/repos/TheDudeFromCI/mineflayer/git/trees{/sha}",
            "updated_at": "2023-04-15T19:26:02Z",
            "url": "https://api.github.com/repos/TheDudeFromCI/mineflayer",
            "visibility": "public",
            "watchers": 2,
            "watchers_count": 2,
            "web_commit_signoff_required": false
        },
        "sha": "7dc2365dad25388f7a5db4382bb55d0996da8a83",
        "user": {
            "avatar_url": "https://avatars.githubusercontent.com/u/3118172?v=4",
            "events_url": "https://api.github.com/users/TheDudeFromCI/events{/privacy}",
            "followers_url": "https://api.github.com/users/TheDudeFromCI/followers",
            "following_url": "https://api.github.com/users/TheDudeFromCI/following{/other_user}",
            "gists_url": "https://api.github.com/users/TheDudeFromCI/gists{/gist_id}",
            "gravatar_id": "",
            "html_url": "https://github.com/TheDudeFromCI",
            "id": 3118172,
            "login": "TheDudeFromCI",
            "node_id": "MDQ6VXNlcjMxMTgxNzI=",
            "organizations_url": "https://api.github.com/users/TheDudeFromCI/orgs",
            "received_events_url": "https://api.github.com/users/TheDudeFromCI/received_events",
            "repos_url": "https://api.github.com/users/TheDudeFromCI/repos",
            "site_admin": false,
            "starred_url": "https://api.github.com/users/TheDudeFromCI/starred{/owner}{/repo}",
            "subscriptions_url": "https://api.github.com/users/TheDudeFromCI/subscriptions",
            "type": "User",
            "url": "https://api.github.com/users/TheDudeFromCI"
        }
    },
    "html_url": "https://github.com/PrismarineJS/mineflayer/pull/1336",
    "id": 495744174,
    "issue_url": "https://api.github.com/repos/PrismarineJS/mineflayer/issues/1336",
    "labels": [],
    "locked": false,
    "maintainer_can_modify": false,
    "merge_commit_sha": "a3b0f8f5a3b78bb4de9d1699d74850de1e061b6b",
    "mergeable": null,
    "mergeable_state": "unknown",
    "merged": true,
    "merged_at": "2020-10-01T19:57:59Z",
    "merged_by": {
        "avatar_url": "https://avatars.githubusercontent.com/u/2346494?v=4",
        "events_url": "https://api.github.com/users/rom1504/events{/privacy}",
        "followers_url": "https://api.github.com/users/rom1504/followers",
        "following_url": "https://api.github.com/users/rom1504/following{/other_user}",
        "gists_url": "https://api.github.com/users/rom1504/gists{/gist_id}",
        "gravatar_id": "",
        "html_url": "https://github.com/rom1504",
        "id": 2346494,
        "login": "rom1504",
        "node_id": "MDQ6VXNlcjIzNDY0OTQ=",
        "organizations_url": "https://api.github.com/users/rom1504/orgs",
        "received_events_url": "https://api.github.com/users/rom1504/received_events",
        "repos_url": "https://api.github.com/users/rom1504/repos",
        "site_admin": false,
        "starred_url": "https://api.github.com/users/rom1504/starred{/owner}{/repo}",
        "subscriptions_url": "https://api.github.com/users/rom1504/subscriptions",
        "type": "User",
        "url": "https://api.github.com/users/rom1504"
    },
    "milestone": null,
    "node_id": "MDExOlB1bGxSZXF1ZXN0NDk1NzQ0MTc0",
    "number": 1336,
    "patch_url": "https://github.com/PrismarineJS/mineflayer/pull/1336.patch",
    "rebaseable": null,
    "requested_reviewers": [],
    "requested_teams": [],
    "review_comment_url": "https://api.github.com/repos/PrismarineJS/mineflayer/pulls/comments{/number}",
    "review_comments": 0,
    "review_comments_url": "https://api.github.com/repos/PrismarineJS/mineflayer/pulls/1336/comments",
    "state": "closed",
    "statuses_url": "https://api.github.com/repos/PrismarineJS/mineflayer/statuses/7dc2365dad25388f7a5db4382bb55d0996da8a83",
    "title": "Added collectblock example",
    "updated_at": "2020-10-01T19:57:59Z",
    "url": "https://api.github.com/repos/PrismarineJS/mineflayer/pulls/1336",
    "user": {
        "avatar_url": "https://avatars.githubusercontent.com/u/3118172?v=4",
        "events_url": "https://api.github.com/users/TheDudeFromCI/events{/privacy}",
        "followers_url": "https://api.github.com/users/TheDudeFromCI/followers",
        "following_url": "https://api.github.com/users/TheDudeFromCI/following{/other_user}",
        "gists_url": "https://api.github.com/users/TheDudeFromCI/gists{/gist_id}",
        "gravatar_id": "",
        "html_url": "https://github.com/TheDudeFromCI",
        "id": 3118172,
        "login": "TheDudeFromCI",
        "node_id": "MDQ6VXNlcjMxMTgxNzI=",
        "organizations_url": "https://api.github.com/users/TheDudeFromCI/orgs",
        "received_events_url": "https://api.github.com/users/TheDudeFromCI/received_events",
        "repos_url": "https://api.github.com/users/TheDudeFromCI/repos",
        "site_admin": false,
        "starred_url": "https://api.github.com/users/TheDudeFromCI/starred{/owner}{/repo}",
        "subscriptions_url": "https://api.github.com/users/TheDudeFromCI/subscriptions",
        "type": "User",
        "url": "https://api.github.com/users/TheDudeFromCI"
    }
}