{
    "_links": {
        "comments": {
            "href": "https://api.github.com/repos/PrismarineJS/mineflayer/issues/1534/comments"
        },
        "commits": {
            "href": "https://api.github.com/repos/PrismarineJS/mineflayer/pulls/1534/commits"
        },
        "html": {
            "href": "https://github.com/PrismarineJS/mineflayer/pull/1534"
        },
        "issue": {
            "href": "https://api.github.com/repos/PrismarineJS/mineflayer/issues/1534"
        },
        "review_comment": {
            "href": "https://api.github.com/repos/PrismarineJS/mineflayer/pulls/comments{/number}"
        },
        "review_comments": {
            "href": "https://api.github.com/repos/PrismarineJS/mineflayer/pulls/1534/comments"
        },
        "self": {
            "href": "https://api.github.com/repos/PrismarineJS/mineflayer/pulls/1534"
        },
        "statuses": {
            "href": "https://api.github.com/repos/PrismarineJS/mineflayer/statuses/3553fb2839d5a99ee5a06067e75e628d1fcb41f5"
        }
    },
    "active_lock_reason": null,
    "additions": 83,
    "assignee": null,
    "assignees": [],
    "author_association": "NONE",
    "auto_merge": null,
    "base": {
        "label": "PrismarineJS:master",
        "ref": "master",
        "repo": {
            "allow_forking": true,
            "archive_url": "https://api.github.com/repos/PrismarineJS/mineflayer/{archive_format}{/ref}",
            "archived": false,
            "assignees_url": "https://api.github.com/repos/PrismarineJS/mineflayer/assignees{/user}",
            "blobs_url": "https://api.github.com/repos/PrismarineJS/mineflayer/git/blobs{/sha}",
            "branches_url": "https://api.github.com/repos/PrismarineJS/mineflayer/branches{/branch}",
            "clone_url": "https://github.com/PrismarineJS/mineflayer.git",
            "collaborators_url": "https://api.github.com/repos/PrismarineJS/mineflayer/collaborators{/collaborator}",
            "comments_url": "https://api.github.com/repos/PrismarineJS/mineflayer/comments{/number}",
            "commits_url": "https://api.github.com/repos/PrismarineJS/mineflayer/commits{/sha}",
            "compare_url": "https://api.github.com/repos/PrismarineJS/mineflayer/compare/{base}...{head}",
            "contents_url": "https://api.github.com/repos/PrismarineJS/mineflayer/contents/{+path}",
            "contributors_url": "https://api.github.com/repos/PrismarineJS/mineflayer/contributors",
            "created_at": "2011-01-23T09:41:55Z",
            "default_branch": "master",
            "deployments_url": "https://api.github.com/repos/PrismarineJS/mineflayer/deployments",
            "description": "Create Minecraft bots with a powerful, stable, and high level JavaScript API.",
            "disabled": false,
            "downloads_url": "https://api.github.com/repos/PrismarineJS/mineflayer/downloads",
            "events_url": "https://api.github.com/repos/PrismarineJS/mineflayer/events",
            "fork": false,
            "forks": 748,
            "forks_count": 748,
            "forks_url": "https://api.github.com/repos/PrismarineJS/mineflayer/forks",
            "full_name": "PrismarineJS/mineflayer",
            "git_commits_url": "https://api.github.com/repos/PrismarineJS/mineflayer/git/commits{/sha}",
            "git_refs_url": "https://api.github.com/repos/PrismarineJS/mineflayer/git/refs{/sha}",
            "git_tags_url": "https://api.github.com/repos/PrismarineJS/mineflayer/git/tags{/sha}",
            "git_url": "git://github.com/PrismarineJS/mineflayer.git",
            "has_discussions": true,
            "has_downloads": true,
            "has_issues": true,
            "has_pages": true,
            "has_projects": true,
            "has_wiki": true,
            "homepage": "https://prismarinejs.github.io/mineflayer/",
            "hooks_url": "https://api.github.com/repos/PrismarineJS/mineflayer/hooks",
            "html_url": "https://github.com/PrismarineJS/mineflayer",
            "id": 1284185,
            "is_template": false,
            "issue_comment_url": "https://api.github.com/repos/PrismarineJS/mineflayer/issues/comments{/number}",
            "issue_events_url": "https://api.github.com/repos/PrismarineJS/mineflayer/issues/events{/number}",
            "issues_url": "https://api.github.com/repos/PrismarineJS/mineflayer/issues{/number}",
            "keys_url": "https://api.github.com/repos/PrismarineJS/mineflayer/keys{/key_id}",
            "labels_url": "https://api.github.com/repos/PrismarineJS/mineflayer/labels{/name}",
            "language": "JavaScript",
            "languages_url": "https://api.github.com/repos/PrismarineJS/mineflayer/languages",
            "license": {
                "key": "mit",
                "name": "MIT License",
                "node_id": "MDc6TGljZW5zZTEz",
                "spdx_id": "MIT",
                "url": "https://api.github.com/licenses/mit"
            },
            "merges_url": "https://api.github.com/repos/PrismarineJS/mineflayer/merges",
            "milestones_url": "https://api.github.com/repos/PrismarineJS/mineflayer/milestones{/number}",
            "mirror_url": null,
            "name": "mineflayer",
            "node_id": "MDEwOlJlcG9zaXRvcnkxMjg0MTg1",
            "notifications_url": "https://api.github.com/repos/PrismarineJS/mineflayer/notifications{?since,all,participating}",
            "open_issues": 269,
            "open_issues_count": 269,
            "owner": {
                "avatar_url": "https://avatars.githubusercontent.com/u/11053411?v=4",
                "events_url": "https://api.github.com/users/PrismarineJS/events{/privacy}",
                "followers_url": "https://api.github.com/users/PrismarineJS/followers",
                "following_url": "https://api.github.com/users/PrismarineJS/following{/other_user}",
                "gists_url": "https://api.github.com/users/PrismarineJS/gists{/gist_id}",
                "gravatar_id": "",
                "html_url": "https://github.com/PrismarineJS",
                "id": 11053411,
                "login": "PrismarineJS",
                "node_id": "MDEyOk9yZ2FuaXphdGlvbjExMDUzNDEx",
                "organizations_url": "https://api.github.com/users/PrismarineJS/orgs",
                "received_events_url": "https://api.github.com/users/PrismarineJS/received_events",
                "repos_url": "https://api.github.com/users/PrismarineJS/repos",
                "site_admin": false,
                "starred_url": "https://api.github.com/users/PrismarineJS/starred{/owner}{/repo}",
                "subscriptions_url": "https://api.github.com/users/PrismarineJS/subscriptions",
                "type": "Organization",
                "url": "https://api.github.com/users/PrismarineJS"
            },
            "private": false,
            "pulls_url": "https://api.github.com/repos/PrismarineJS/mineflayer/pulls{/number}",
            "pushed_at": "2023-04-25T00:44:52Z",
            "releases_url": "https://api.github.com/repos/PrismarineJS/mineflayer/releases{/id}",
            "size": 12493,
            "ssh_url": "git@github.com:PrismarineJS/mineflayer.git",
            "stargazers_count": 3698,
            "stargazers_url": "https://api.github.com/repos/PrismarineJS/mineflayer/stargazers",
            "statuses_url": "https://api.github.com/repos/PrismarineJS/mineflayer/statuses/{sha}",
            "subscribers_url": "https://api.github.com/repos/PrismarineJS/mineflayer/subscribers",
            "subscription_url": "https://api.github.com/repos/PrismarineJS/mineflayer/subscription",
            "svn_url": "https://github.com/PrismarineJS/mineflayer",
            "tags_url": "https://api.github.com/repos/PrismarineJS/mineflayer/tags",
            "teams_url": "https://api.github.com/repos/PrismarineJS/mineflayer/teams",
            "topics": [
                "bot",
                "minecraft",
                "minecraft-api",
                "minecraft-bot",
                "network",
                "nodejs"
            ],
            "trees_url": "https://api.github.com/repos/PrismarineJS/mineflayer/git/trees{/sha}",
            "updated_at": "2023-04-25T14:07:03Z",
            "url": "https://api.github.com/repos/PrismarineJS/mineflayer",
            "visibility": "public",
            "watchers": 3698,
            "watchers_count": 3698,
            "web_commit_signoff_required": false
        },
        "sha": "7c44c7057c76db9c7609ff483d0ee89e950f18f8",
        "user": {
            "avatar_url": "https://avatars.githubusercontent.com/u/11053411?v=4",
            "events_url": "https://api.github.com/users/PrismarineJS/events{/privacy}",
            "followers_url": "https://api.github.com/users/PrismarineJS/followers",
            "following_url": "https://api.github.com/users/PrismarineJS/following{/other_user}",
            "gists_url": "https://api.github.com/users/PrismarineJS/gists{/gist_id}",
            "gravatar_id": "",
            "html_url": "https://github.com/PrismarineJS",
            "id": 11053411,
            "login": "PrismarineJS",
            "node_id": "MDEyOk9yZ2FuaXphdGlvbjExMDUzNDEx",
            "organizations_url": "https://api.github.com/users/PrismarineJS/orgs",
            "received_events_url": "https://api.github.com/users/PrismarineJS/received_events",
            "repos_url": "https://api.github.com/users/PrismarineJS/repos",
            "site_admin": false,
            "starred_url": "https://api.github.com/users/PrismarineJS/starred{/owner}{/repo}",
            "subscriptions_url": "https://api.github.com/users/PrismarineJS/subscriptions",
            "type": "Organization",
            "url": "https://api.github.com/users/PrismarineJS"
        }
    },
    "body": "",
    "changed_files": 1,
    "closed_at": "2020-12-25T00:24:19Z",
    "comment_data": [],
    "comment_regular_data": [],
    "comments": 0,
    "comments_url": "https://api.github.com/repos/PrismarineJS/mineflayer/issues/1534/comments",
    "commit_data": [
        {
            "author": null,
            "comments_url": "https://api.github.com/repos/PrismarineJS/mineflayer/commits/cfd8b0b6f9b58437f20501d98f5fbf05d448beb3/comments",
            "commit": {
                "author": {
                    "date": "2020-12-24T15:04:37Z",
                    "email": "72702713+goncharovchik@users.noreply.github.com",
                    "name": "Aleksey Goncharov"
                },
                "comment_count": 0,
                "committer": {
                    "date": "2020-12-24T15:04:37Z",
                    "email": "noreply@github.com",
                    "name": "GitHub"
                },
                "message": "Create FAQ_RU.md for Russian audience",
                "tree": {
                    "sha": "9053af90e8fa761361aca87435f0d7fe7683bef3",
                    "url": "https://api.github.com/repos/PrismarineJS/mineflayer/git/trees/9053af90e8fa761361aca87435f0d7fe7683bef3"
                },
                "url": "https://api.github.com/repos/PrismarineJS/mineflayer/git/commits/cfd8b0b6f9b58437f20501d98f5fbf05d448beb3",
                "verification": {
                    "payload": "tree 9053af90e8fa761361aca87435f0d7fe7683bef3\nparent 7c44c7057c76db9c7609ff483d0ee89e950f18f8\nauthor Aleksey Goncharov <72702713+goncharovchik@users.noreply.github.com> 1608822277 +0600\ncommitter GitHub <noreply@github.com> 1608822277 +0600\n\nCreate FAQ_RU.md for Russian audience",
                    "reason": "valid",
                    "signature": "-----BEGIN PGP SIGNATURE-----\n\nwsBcBAABCAAQBQJf5K4FCRBK7hj4Ov3rIwAAdHIIAKY8JYHFOYqJRuijGDKZ5040\ncKSsZob+BY+AmecVYe2MLunqEma16JDVfuYQMBnrMiGNdCeXKW+wCLVkgvXL+WMw\nDDHKWFnjaYZ4jV+ASxMC/jW3tNHGamq+O2yZclzioxErPJkMb/78ZbLyM8VTjuZk\n7nOuqOn8/qnRJhb3UfrKEk1pjDLSqRYZiHF3gzbkIhKjyBRUka14e421am5DdEsg\n2Q48BzX5V0sri8AvdoRts4IJPT6KM46hmXcWxtjNI11s02LPgBxgDFQS+sFevElf\niLeRRiXEF+cNQ3zGEVpLjZxIkKcDlRojMKzsCERpjCK7cys3BrxeNCRSVNvr2Kw=\n=HN9w\n-----END PGP SIGNATURE-----\n",
                    "verified": true
                }
            },
            "committer": {
                "avatar_url": "https://avatars.githubusercontent.com/u/19864447?v=4",
                "events_url": "https://api.github.com/users/web-flow/events{/privacy}",
                "followers_url": "https://api.github.com/users/web-flow/followers",
                "following_url": "https://api.github.com/users/web-flow/following{/other_user}",
                "gists_url": "https://api.github.com/users/web-flow/gists{/gist_id}",
                "gravatar_id": "",
                "html_url": "https://github.com/web-flow",
                "id": 19864447,
                "login": "web-flow",
                "node_id": "MDQ6VXNlcjE5ODY0NDQ3",
                "organizations_url": "https://api.github.com/users/web-flow/orgs",
                "received_events_url": "https://api.github.com/users/web-flow/received_events",
                "repos_url": "https://api.github.com/users/web-flow/repos",
                "site_admin": false,
                "starred_url": "https://api.github.com/users/web-flow/starred{/owner}{/repo}",
                "subscriptions_url": "https://api.github.com/users/web-flow/subscriptions",
                "type": "User",
                "url": "https://api.github.com/users/web-flow"
            },
            "html_url": "https://github.com/PrismarineJS/mineflayer/commit/cfd8b0b6f9b58437f20501d98f5fbf05d448beb3",
            "node_id": "MDY6Q29tbWl0MTI4NDE4NTpjZmQ4YjBiNmY5YjU4NDM3ZjIwNTAxZDk4ZjVmYmYwNWQ0NDhiZWIz",
            "parents": [
                {
                    "html_url": "https://github.com/PrismarineJS/mineflayer/commit/7c44c7057c76db9c7609ff483d0ee89e950f18f8",
                    "sha": "7c44c7057c76db9c7609ff483d0ee89e950f18f8",
                    "url": "https://api.github.com/repos/PrismarineJS/mineflayer/commits/7c44c7057c76db9c7609ff483d0ee89e950f18f8"
                }
            ],
            "sha": "cfd8b0b6f9b58437f20501d98f5fbf05d448beb3",
            "url": "https://api.github.com/repos/PrismarineJS/mineflayer/commits/cfd8b0b6f9b58437f20501d98f5fbf05d448beb3"
        },
        {
            "author": null,
            "comments_url": "https://api.github.com/repos/PrismarineJS/mineflayer/commits/b9d8f74a035236ac5d93b1db249162a307047300/comments",
            "commit": {
                "author": {
                    "date": "2020-12-24T15:06:26Z",
                    "email": "72702713+goncharovchik@users.noreply.github.com",
                    "name": "Aleksey Goncharov"
                },
                "comment_count": 0,
                "committer": {
                    "date": "2020-12-24T15:06:26Z",
                    "email": "noreply@github.com",
                    "name": "GitHub"
                },
                "message": "Update FAQ_RU.md",
                "tree": {
                    "sha": "7394f2970a7c5e04b4bf135894c1ddee6e05a424",
                    "url": "https://api.github.com/repos/PrismarineJS/mineflayer/git/trees/7394f2970a7c5e04b4bf135894c1ddee6e05a424"
                },
                "url": "https://api.github.com/repos/PrismarineJS/mineflayer/git/commits/b9d8f74a035236ac5d93b1db249162a307047300",
                "verification": {
                    "payload": "tree 7394f2970a7c5e04b4bf135894c1ddee6e05a424\nparent cfd8b0b6f9b58437f20501d98f5fbf05d448beb3\nauthor Aleksey Goncharov <72702713+goncharovchik@users.noreply.github.com> 1608822386 +0600\ncommitter GitHub <noreply@github.com> 1608822386 +0600\n\nUpdate FAQ_RU.md",
                    "reason": "valid",
                    "signature": "-----BEGIN PGP SIGNATURE-----\n\nwsBcBAABCAAQBQJf5K5yCRBK7hj4Ov3rIwAAdHIIAHqnvYSAnvkd6u0L/wwMQodV\nGzZOseH/q/swwUjxVqeIRDqMQJpSmoqm/8ixWwxvK07eUhrR9tH9OHXeRxrDIa+h\nyxye6PnQUZNex2ZheUu3JzORU8X/yP2GGmqbB5vPEKFh5UPJUatb/gJLVWP83qj6\nL6hj71T7ZNGxcVtZIlHataBPcKQH+Rr3/Q7faQQD2TI+Wy5n9pM/bNZdaplY8Vy8\na2yklLst4bjmGMDBg00MOk4eQG9SnQOLaKzMMybZwmfXkVz+7W5TQgbjJCbb4jl3\nl5O9Oz6A1NbB/w3Hsl5Kyl/O2SAEOxfT8UJuBGyPjb0XnGbANSScWGsYGKEbXyo=\n=IauY\n-----END PGP SIGNATURE-----\n",
                    "verified": true
                }
            },
            "committer": {
                "avatar_url": "https://avatars.githubusercontent.com/u/19864447?v=4",
                "events_url": "https://api.github.com/users/web-flow/events{/privacy}",
                "followers_url": "https://api.github.com/users/web-flow/followers",
                "following_url": "https://api.github.com/users/web-flow/following{/other_user}",
                "gists_url": "https://api.github.com/users/web-flow/gists{/gist_id}",
                "gravatar_id": "",
                "html_url": "https://github.com/web-flow",
                "id": 19864447,
                "login": "web-flow",
                "node_id": "MDQ6VXNlcjE5ODY0NDQ3",
                "organizations_url": "https://api.github.com/users/web-flow/orgs",
                "received_events_url": "https://api.github.com/users/web-flow/received_events",
                "repos_url": "https://api.github.com/users/web-flow/repos",
                "site_admin": false,
                "starred_url": "https://api.github.com/users/web-flow/starred{/owner}{/repo}",
                "subscriptions_url": "https://api.github.com/users/web-flow/subscriptions",
                "type": "User",
                "url": "https://api.github.com/users/web-flow"
            },
            "html_url": "https://github.com/PrismarineJS/mineflayer/commit/b9d8f74a035236ac5d93b1db249162a307047300",
            "node_id": "MDY6Q29tbWl0MTI4NDE4NTpiOWQ4Zjc0YTAzNTIzNmFjNWQ5M2IxZGIyNDkxNjJhMzA3MDQ3MzAw",
            "parents": [
                {
                    "html_url": "https://github.com/PrismarineJS/mineflayer/commit/cfd8b0b6f9b58437f20501d98f5fbf05d448beb3",
                    "sha": "cfd8b0b6f9b58437f20501d98f5fbf05d448beb3",
                    "url": "https://api.github.com/repos/PrismarineJS/mineflayer/commits/cfd8b0b6f9b58437f20501d98f5fbf05d448beb3"
                }
            ],
            "sha": "b9d8f74a035236ac5d93b1db249162a307047300",
            "url": "https://api.github.com/repos/PrismarineJS/mineflayer/commits/b9d8f74a035236ac5d93b1db249162a307047300"
        },
        {
            "author": null,
            "comments_url": "https://api.github.com/repos/PrismarineJS/mineflayer/commits/3553fb2839d5a99ee5a06067e75e628d1fcb41f5/comments",
            "commit": {
                "author": {
                    "date": "2020-12-24T15:09:42Z",
                    "email": "72702713+goncharovchik@users.noreply.github.com",
                    "name": "Aleksey Goncharov"
                },
                "comment_count": 0,
                "committer": {
                    "date": "2020-12-24T15:09:42Z",
                    "email": "noreply@github.com",
                    "name": "GitHub"
                },
                "message": "Update FAQ_RU.md",
                "tree": {
                    "sha": "4cd642b055bf84be945c8e72fd88e43c64d0c4b1",
                    "url": "https://api.github.com/repos/PrismarineJS/mineflayer/git/trees/4cd642b055bf84be945c8e72fd88e43c64d0c4b1"
                },
                "url": "https://api.github.com/repos/PrismarineJS/mineflayer/git/commits/3553fb2839d5a99ee5a06067e75e628d1fcb41f5",
                "verification": {
                    "payload": "tree 4cd642b055bf84be945c8e72fd88e43c64d0c4b1\nparent b9d8f74a035236ac5d93b1db249162a307047300\nauthor Aleksey Goncharov <72702713+goncharovchik@users.noreply.github.com> 1608822582 +0600\ncommitter GitHub <noreply@github.com> 1608822582 +0600\n\nUpdate FAQ_RU.md",
                    "reason": "valid",
                    "signature": "-----BEGIN PGP SIGNATURE-----\n\nwsBcBAABCAAQBQJf5K82CRBK7hj4Ov3rIwAAdHIIAIVozujFM70tWR+ZXCk2KiD1\ntpUJ9oQAciCqESdtKLiitjFyJ7K986oV2oKTiszikDlqa8K/YzKsinwB7/DTvU6V\nFE0QXPHILw8N1ijqf0Uk5PJE+vDc+DQGzZVf7ojPFf3UjCM8wUuM6/5A+/OlG35W\nCF6QopHzhP6MRRuarZUDo8hyMJOc3zddAO7vDNkwgqCT0xFUL7Da2zANXokLm29a\nKnDRPrBvzRWWaVDs5n0gkIk+unuuyLCLVzx0acqK+b6S0iAmWFZtXDmzllSt/Yqo\n3PBe9qV4EcaoOf2a3uCLHqsoHvgXPvreKX791j0EIkPSy1hIfLOhHNpwF7VPzHs=\n=vhtN\n-----END PGP SIGNATURE-----\n",
                    "verified": true
                }
            },
            "committer": {
                "avatar_url": "https://avatars.githubusercontent.com/u/19864447?v=4",
                "events_url": "https://api.github.com/users/web-flow/events{/privacy}",
                "followers_url": "https://api.github.com/users/web-flow/followers",
                "following_url": "https://api.github.com/users/web-flow/following{/other_user}",
                "gists_url": "https://api.github.com/users/web-flow/gists{/gist_id}",
                "gravatar_id": "",
                "html_url": "https://github.com/web-flow",
                "id": 19864447,
                "login": "web-flow",
                "node_id": "MDQ6VXNlcjE5ODY0NDQ3",
                "organizations_url": "https://api.github.com/users/web-flow/orgs",
                "received_events_url": "https://api.github.com/users/web-flow/received_events",
                "repos_url": "https://api.github.com/users/web-flow/repos",
                "site_admin": false,
                "starred_url": "https://api.github.com/users/web-flow/starred{/owner}{/repo}",
                "subscriptions_url": "https://api.github.com/users/web-flow/subscriptions",
                "type": "User",
                "url": "https://api.github.com/users/web-flow"
            },
            "html_url": "https://github.com/PrismarineJS/mineflayer/commit/3553fb2839d5a99ee5a06067e75e628d1fcb41f5",
            "node_id": "MDY6Q29tbWl0MTI4NDE4NTozNTUzZmIyODM5ZDVhOTllZTVhMDYwNjdlNzVlNjI4ZDFmY2I0MWY1",
            "parents": [
                {
                    "html_url": "https://github.com/PrismarineJS/mineflayer/commit/b9d8f74a035236ac5d93b1db249162a307047300",
                    "sha": "b9d8f74a035236ac5d93b1db249162a307047300",
                    "url": "https://api.github.com/repos/PrismarineJS/mineflayer/commits/b9d8f74a035236ac5d93b1db249162a307047300"
                }
            ],
            "sha": "3553fb2839d5a99ee5a06067e75e628d1fcb41f5",
            "url": "https://api.github.com/repos/PrismarineJS/mineflayer/commits/3553fb2839d5a99ee5a06067e75e628d1fcb41f5"
        }
    ],
    "commits": 3,
    "commits_url": "https://api.github.com/repos/PrismarineJS/mineflayer/pulls/1534/commits",
    "created_at": "2020-12-24T15:04:55Z",
    "deletions": 0,
    "diff_url": "https://github.com/PrismarineJS/mineflayer/pull/1534.diff",
    "draft": false,
    "head": {
        "label": null,
        "ref": "patch-6",
        "repo": null,
        "sha": "3553fb2839d5a99ee5a06067e75e628d1fcb41f5",
        "user": null
    },
    "html_url": "https://github.com/PrismarineJS/mineflayer/pull/1534",
    "id": 545400537,
    "issue_url": "https://api.github.com/repos/PrismarineJS/mineflayer/issues/1534",
    "labels": [],
    "locked": false,
    "maintainer_can_modify": false,
    "merge_commit_sha": "4a5d3f21fb5c38ac46f472dd1d209df884996ede",
    "mergeable": null,
    "mergeable_state": "unknown",
    "merged": true,
    "merged_at": "2020-12-25T00:24:19Z",
    "merged_by": {
        "avatar_url": "https://avatars.githubusercontent.com/u/2346494?v=4",
        "events_url": "https://api.github.com/users/rom1504/events{/privacy}",
        "followers_url": "https://api.github.com/users/rom1504/followers",
        "following_url": "https://api.github.com/users/rom1504/following{/other_user}",
        "gists_url": "https://api.github.com/users/rom1504/gists{/gist_id}",
        "gravatar_id": "",
        "html_url": "https://github.com/rom1504",
        "id": 2346494,
        "login": "rom1504",
        "node_id": "MDQ6VXNlcjIzNDY0OTQ=",
        "organizations_url": "https://api.github.com/users/rom1504/orgs",
        "received_events_url": "https://api.github.com/users/rom1504/received_events",
        "repos_url": "https://api.github.com/users/rom1504/repos",
        "site_admin": false,
        "starred_url": "https://api.github.com/users/rom1504/starred{/owner}{/repo}",
        "subscriptions_url": "https://api.github.com/users/rom1504/subscriptions",
        "type": "User",
        "url": "https://api.github.com/users/rom1504"
    },
    "milestone": null,
    "node_id": "MDExOlB1bGxSZXF1ZXN0NTQ1NDAwNTM3",
    "number": 1534,
    "patch_url": "https://github.com/PrismarineJS/mineflayer/pull/1534.patch",
    "rebaseable": null,
    "requested_reviewers": [],
    "requested_teams": [],
    "review_comment_url": "https://api.github.com/repos/PrismarineJS/mineflayer/pulls/comments{/number}",
    "review_comments": 0,
    "review_comments_url": "https://api.github.com/repos/PrismarineJS/mineflayer/pulls/1534/comments",
    "state": "closed",
    "statuses_url": "https://api.github.com/repos/PrismarineJS/mineflayer/statuses/3553fb2839d5a99ee5a06067e75e628d1fcb41f5",
    "title": "Create FAQ_RU.md for Russian audience",
    "updated_at": "2020-12-25T03:26:35Z",
    "url": "https://api.github.com/repos/PrismarineJS/mineflayer/pulls/1534",
    "user": {
        "avatar_url": "https://avatars.githubusercontent.com/u/10137?v=4",
        "events_url": "https://api.github.com/users/ghost/events{/privacy}",
        "followers_url": "https://api.github.com/users/ghost/followers",
        "following_url": "https://api.github.com/users/ghost/following{/other_user}",
        "gists_url": "https://api.github.com/users/ghost/gists{/gist_id}",
        "gravatar_id": "",
        "html_url": "https://github.com/ghost",
        "id": 10137,
        "login": "ghost",
        "node_id": "MDQ6VXNlcjEwMTM3",
        "organizations_url": "https://api.github.com/users/ghost/orgs",
        "received_events_url": "https://api.github.com/users/ghost/received_events",
        "repos_url": "https://api.github.com/users/ghost/repos",
        "site_admin": false,
        "starred_url": "https://api.github.com/users/ghost/starred{/owner}{/repo}",
        "subscriptions_url": "https://api.github.com/users/ghost/subscriptions",
        "type": "User",
        "url": "https://api.github.com/users/ghost"
    }
}