{
    "_links": {
        "comments": {
            "href": "https://api.github.com/repos/PrismarineJS/mineflayer/issues/1664/comments"
        },
        "commits": {
            "href": "https://api.github.com/repos/PrismarineJS/mineflayer/pulls/1664/commits"
        },
        "html": {
            "href": "https://github.com/PrismarineJS/mineflayer/pull/1664"
        },
        "issue": {
            "href": "https://api.github.com/repos/PrismarineJS/mineflayer/issues/1664"
        },
        "review_comment": {
            "href": "https://api.github.com/repos/PrismarineJS/mineflayer/pulls/comments{/number}"
        },
        "review_comments": {
            "href": "https://api.github.com/repos/PrismarineJS/mineflayer/pulls/1664/comments"
        },
        "self": {
            "href": "https://api.github.com/repos/PrismarineJS/mineflayer/pulls/1664"
        },
        "statuses": {
            "href": "https://api.github.com/repos/PrismarineJS/mineflayer/statuses/158cff7589cd680b29f4a6e46fd70813e67d51a2"
        }
    },
    "active_lock_reason": null,
    "additions": 3,
    "assignee": null,
    "assignees": [],
    "author_association": "CONTRIBUTOR",
    "auto_merge": null,
    "base": {
        "label": "PrismarineJS:master",
        "ref": "master",
        "repo": {
            "allow_forking": true,
            "archive_url": "https://api.github.com/repos/PrismarineJS/mineflayer/{archive_format}{/ref}",
            "archived": false,
            "assignees_url": "https://api.github.com/repos/PrismarineJS/mineflayer/assignees{/user}",
            "blobs_url": "https://api.github.com/repos/PrismarineJS/mineflayer/git/blobs{/sha}",
            "branches_url": "https://api.github.com/repos/PrismarineJS/mineflayer/branches{/branch}",
            "clone_url": "https://github.com/PrismarineJS/mineflayer.git",
            "collaborators_url": "https://api.github.com/repos/PrismarineJS/mineflayer/collaborators{/collaborator}",
            "comments_url": "https://api.github.com/repos/PrismarineJS/mineflayer/comments{/number}",
            "commits_url": "https://api.github.com/repos/PrismarineJS/mineflayer/commits{/sha}",
            "compare_url": "https://api.github.com/repos/PrismarineJS/mineflayer/compare/{base}...{head}",
            "contents_url": "https://api.github.com/repos/PrismarineJS/mineflayer/contents/{+path}",
            "contributors_url": "https://api.github.com/repos/PrismarineJS/mineflayer/contributors",
            "created_at": "2011-01-23T09:41:55Z",
            "default_branch": "master",
            "deployments_url": "https://api.github.com/repos/PrismarineJS/mineflayer/deployments",
            "description": "Create Minecraft bots with a powerful, stable, and high level JavaScript API.",
            "disabled": false,
            "downloads_url": "https://api.github.com/repos/PrismarineJS/mineflayer/downloads",
            "events_url": "https://api.github.com/repos/PrismarineJS/mineflayer/events",
            "fork": false,
            "forks": 748,
            "forks_count": 748,
            "forks_url": "https://api.github.com/repos/PrismarineJS/mineflayer/forks",
            "full_name": "PrismarineJS/mineflayer",
            "git_commits_url": "https://api.github.com/repos/PrismarineJS/mineflayer/git/commits{/sha}",
            "git_refs_url": "https://api.github.com/repos/PrismarineJS/mineflayer/git/refs{/sha}",
            "git_tags_url": "https://api.github.com/repos/PrismarineJS/mineflayer/git/tags{/sha}",
            "git_url": "git://github.com/PrismarineJS/mineflayer.git",
            "has_discussions": true,
            "has_downloads": true,
            "has_issues": true,
            "has_pages": true,
            "has_projects": true,
            "has_wiki": true,
            "homepage": "https://prismarinejs.github.io/mineflayer/",
            "hooks_url": "https://api.github.com/repos/PrismarineJS/mineflayer/hooks",
            "html_url": "https://github.com/PrismarineJS/mineflayer",
            "id": 1284185,
            "is_template": false,
            "issue_comment_url": "https://api.github.com/repos/PrismarineJS/mineflayer/issues/comments{/number}",
            "issue_events_url": "https://api.github.com/repos/PrismarineJS/mineflayer/issues/events{/number}",
            "issues_url": "https://api.github.com/repos/PrismarineJS/mineflayer/issues{/number}",
            "keys_url": "https://api.github.com/repos/PrismarineJS/mineflayer/keys{/key_id}",
            "labels_url": "https://api.github.com/repos/PrismarineJS/mineflayer/labels{/name}",
            "language": "JavaScript",
            "languages_url": "https://api.github.com/repos/PrismarineJS/mineflayer/languages",
            "license": {
                "key": "mit",
                "name": "MIT License",
                "node_id": "MDc6TGljZW5zZTEz",
                "spdx_id": "MIT",
                "url": "https://api.github.com/licenses/mit"
            },
            "merges_url": "https://api.github.com/repos/PrismarineJS/mineflayer/merges",
            "milestones_url": "https://api.github.com/repos/PrismarineJS/mineflayer/milestones{/number}",
            "mirror_url": null,
            "name": "mineflayer",
            "node_id": "MDEwOlJlcG9zaXRvcnkxMjg0MTg1",
            "notifications_url": "https://api.github.com/repos/PrismarineJS/mineflayer/notifications{?since,all,participating}",
            "open_issues": 269,
            "open_issues_count": 269,
            "owner": {
                "avatar_url": "https://avatars.githubusercontent.com/u/11053411?v=4",
                "events_url": "https://api.github.com/users/PrismarineJS/events{/privacy}",
                "followers_url": "https://api.github.com/users/PrismarineJS/followers",
                "following_url": "https://api.github.com/users/PrismarineJS/following{/other_user}",
                "gists_url": "https://api.github.com/users/PrismarineJS/gists{/gist_id}",
                "gravatar_id": "",
                "html_url": "https://github.com/PrismarineJS",
                "id": 11053411,
                "login": "PrismarineJS",
                "node_id": "MDEyOk9yZ2FuaXphdGlvbjExMDUzNDEx",
                "organizations_url": "https://api.github.com/users/PrismarineJS/orgs",
                "received_events_url": "https://api.github.com/users/PrismarineJS/received_events",
                "repos_url": "https://api.github.com/users/PrismarineJS/repos",
                "site_admin": false,
                "starred_url": "https://api.github.com/users/PrismarineJS/starred{/owner}{/repo}",
                "subscriptions_url": "https://api.github.com/users/PrismarineJS/subscriptions",
                "type": "Organization",
                "url": "https://api.github.com/users/PrismarineJS"
            },
            "private": false,
            "pulls_url": "https://api.github.com/repos/PrismarineJS/mineflayer/pulls{/number}",
            "pushed_at": "2023-04-25T00:44:52Z",
            "releases_url": "https://api.github.com/repos/PrismarineJS/mineflayer/releases{/id}",
            "size": 12493,
            "ssh_url": "git@github.com:PrismarineJS/mineflayer.git",
            "stargazers_count": 3698,
            "stargazers_url": "https://api.github.com/repos/PrismarineJS/mineflayer/stargazers",
            "statuses_url": "https://api.github.com/repos/PrismarineJS/mineflayer/statuses/{sha}",
            "subscribers_url": "https://api.github.com/repos/PrismarineJS/mineflayer/subscribers",
            "subscription_url": "https://api.github.com/repos/PrismarineJS/mineflayer/subscription",
            "svn_url": "https://github.com/PrismarineJS/mineflayer",
            "tags_url": "https://api.github.com/repos/PrismarineJS/mineflayer/tags",
            "teams_url": "https://api.github.com/repos/PrismarineJS/mineflayer/teams",
            "topics": [
                "bot",
                "minecraft",
                "minecraft-api",
                "minecraft-bot",
                "network",
                "nodejs"
            ],
            "trees_url": "https://api.github.com/repos/PrismarineJS/mineflayer/git/trees{/sha}",
            "updated_at": "2023-04-25T14:07:03Z",
            "url": "https://api.github.com/repos/PrismarineJS/mineflayer",
            "visibility": "public",
            "watchers": 3698,
            "watchers_count": 3698,
            "web_commit_signoff_required": false
        },
        "sha": "61a0ea5a2d9630f4d0639eb9ecab83a1efd2724d",
        "user": {
            "avatar_url": "https://avatars.githubusercontent.com/u/11053411?v=4",
            "events_url": "https://api.github.com/users/PrismarineJS/events{/privacy}",
            "followers_url": "https://api.github.com/users/PrismarineJS/followers",
            "following_url": "https://api.github.com/users/PrismarineJS/following{/other_user}",
            "gists_url": "https://api.github.com/users/PrismarineJS/gists{/gist_id}",
            "gravatar_id": "",
            "html_url": "https://github.com/PrismarineJS",
            "id": 11053411,
            "login": "PrismarineJS",
            "node_id": "MDEyOk9yZ2FuaXphdGlvbjExMDUzNDEx",
            "organizations_url": "https://api.github.com/users/PrismarineJS/orgs",
            "received_events_url": "https://api.github.com/users/PrismarineJS/received_events",
            "repos_url": "https://api.github.com/users/PrismarineJS/repos",
            "site_admin": false,
            "starred_url": "https://api.github.com/users/PrismarineJS/starred{/owner}{/repo}",
            "subscriptions_url": "https://api.github.com/users/PrismarineJS/subscriptions",
            "type": "Organization",
            "url": "https://api.github.com/users/PrismarineJS"
        }
    },
    "body": "As described in #1663, the typings for findBlock and findBlocks were incorrect. This PR fixes them, as well as updates the docs for findBlock so that it better reflects what's actually happening.",
    "changed_files": 2,
    "closed_at": "2021-02-12T08:58:05Z",
    "comment_data": [],
    "comment_regular_data": [],
    "comments": 0,
    "comments_url": "https://api.github.com/repos/PrismarineJS/mineflayer/issues/1664/comments",
    "commit_data": [
        {
            "author": null,
            "comments_url": "https://api.github.com/repos/PrismarineJS/mineflayer/commits/b713615a1850eb01ff829652b45275ab84f6ec92/comments",
            "commit": {
                "author": {
                    "date": "2021-02-12T08:35:41Z",
                    "email": "fabian.csorba@bigfish.hu",
                    "name": "Fabian Csorba"
                },
                "comment_count": 0,
                "committer": {
                    "date": "2021-02-12T08:35:41Z",
                    "email": "fabian.csorba@bigfish.hu",
                    "name": "Fabian Csorba"
                },
                "message": "fix(typings): fixed return types of Bot.findBlock() and Bot.findBlocks()",
                "tree": {
                    "sha": "0cedd21ec7815b43f19c08149a829557d1e95808",
                    "url": "https://api.github.com/repos/PrismarineJS/mineflayer/git/trees/0cedd21ec7815b43f19c08149a829557d1e95808"
                },
                "url": "https://api.github.com/repos/PrismarineJS/mineflayer/git/commits/b713615a1850eb01ff829652b45275ab84f6ec92",
                "verification": {
                    "payload": null,
                    "reason": "unsigned",
                    "signature": null,
                    "verified": false
                }
            },
            "committer": null,
            "html_url": "https://github.com/PrismarineJS/mineflayer/commit/b713615a1850eb01ff829652b45275ab84f6ec92",
            "node_id": "MDY6Q29tbWl0MzM4MjYxMDcyOmI3MTM2MTVhMTg1MGViMDFmZjgyOTY1MmI0NTI3NWFiODRmNmVjOTI=",
            "parents": [
                {
                    "html_url": "https://github.com/PrismarineJS/mineflayer/commit/61a0ea5a2d9630f4d0639eb9ecab83a1efd2724d",
                    "sha": "61a0ea5a2d9630f4d0639eb9ecab83a1efd2724d",
                    "url": "https://api.github.com/repos/PrismarineJS/mineflayer/commits/61a0ea5a2d9630f4d0639eb9ecab83a1efd2724d"
                }
            ],
            "sha": "b713615a1850eb01ff829652b45275ab84f6ec92",
            "url": "https://api.github.com/repos/PrismarineJS/mineflayer/commits/b713615a1850eb01ff829652b45275ab84f6ec92"
        },
        {
            "author": null,
            "comments_url": "https://api.github.com/repos/PrismarineJS/mineflayer/commits/158cff7589cd680b29f4a6e46fd70813e67d51a2/comments",
            "commit": {
                "author": {
                    "date": "2021-02-12T08:36:41Z",
                    "email": "fabian.csorba@bigfish.hu",
                    "name": "Fabian Csorba"
                },
                "comment_count": 0,
                "committer": {
                    "date": "2021-02-12T08:36:41Z",
                    "email": "fabian.csorba@bigfish.hu",
                    "name": "Fabian Csorba"
                },
                "message": "docs: correct explanation of what findBlock does",
                "tree": {
                    "sha": "f892b508c7844923cc1511a55ebea7ed0a1390b3",
                    "url": "https://api.github.com/repos/PrismarineJS/mineflayer/git/trees/f892b508c7844923cc1511a55ebea7ed0a1390b3"
                },
                "url": "https://api.github.com/repos/PrismarineJS/mineflayer/git/commits/158cff7589cd680b29f4a6e46fd70813e67d51a2",
                "verification": {
                    "payload": null,
                    "reason": "unsigned",
                    "signature": null,
                    "verified": false
                }
            },
            "committer": null,
            "html_url": "https://github.com/PrismarineJS/mineflayer/commit/158cff7589cd680b29f4a6e46fd70813e67d51a2",
            "node_id": "MDY6Q29tbWl0MzM4MjYxMDcyOjE1OGNmZjc1ODljZDY4MGIyOWY0YTZlNDZmZDcwODEzZTY3ZDUxYTI=",
            "parents": [
                {
                    "html_url": "https://github.com/PrismarineJS/mineflayer/commit/b713615a1850eb01ff829652b45275ab84f6ec92",
                    "sha": "b713615a1850eb01ff829652b45275ab84f6ec92",
                    "url": "https://api.github.com/repos/PrismarineJS/mineflayer/commits/b713615a1850eb01ff829652b45275ab84f6ec92"
                }
            ],
            "sha": "158cff7589cd680b29f4a6e46fd70813e67d51a2",
            "url": "https://api.github.com/repos/PrismarineJS/mineflayer/commits/158cff7589cd680b29f4a6e46fd70813e67d51a2"
        }
    ],
    "commits": 2,
    "commits_url": "https://api.github.com/repos/PrismarineJS/mineflayer/pulls/1664/commits",
    "created_at": "2021-02-12T08:38:35Z",
    "deletions": 3,
    "diff_url": "https://github.com/PrismarineJS/mineflayer/pull/1664.diff",
    "draft": false,
    "head": {
        "label": "csorfab:issue-1663",
        "ref": "issue-1663",
        "repo": {
            "allow_forking": true,
            "archive_url": "https://api.github.com/repos/csorfab/mineflayer/{archive_format}{/ref}",
            "archived": false,
            "assignees_url": "https://api.github.com/repos/csorfab/mineflayer/assignees{/user}",
            "blobs_url": "https://api.github.com/repos/csorfab/mineflayer/git/blobs{/sha}",
            "branches_url": "https://api.github.com/repos/csorfab/mineflayer/branches{/branch}",
            "clone_url": "https://github.com/csorfab/mineflayer.git",
            "collaborators_url": "https://api.github.com/repos/csorfab/mineflayer/collaborators{/collaborator}",
            "comments_url": "https://api.github.com/repos/csorfab/mineflayer/comments{/number}",
            "commits_url": "https://api.github.com/repos/csorfab/mineflayer/commits{/sha}",
            "compare_url": "https://api.github.com/repos/csorfab/mineflayer/compare/{base}...{head}",
            "contents_url": "https://api.github.com/repos/csorfab/mineflayer/contents/{+path}",
            "contributors_url": "https://api.github.com/repos/csorfab/mineflayer/contributors",
            "created_at": "2021-02-12T08:24:48Z",
            "default_branch": "master",
            "deployments_url": "https://api.github.com/repos/csorfab/mineflayer/deployments",
            "description": "Create Minecraft bots with a powerful, stable, and high level JavaScript API.",
            "disabled": false,
            "downloads_url": "https://api.github.com/repos/csorfab/mineflayer/downloads",
            "events_url": "https://api.github.com/repos/csorfab/mineflayer/events",
            "fork": true,
            "forks": 0,
            "forks_count": 0,
            "forks_url": "https://api.github.com/repos/csorfab/mineflayer/forks",
            "full_name": "csorfab/mineflayer",
            "git_commits_url": "https://api.github.com/repos/csorfab/mineflayer/git/commits{/sha}",
            "git_refs_url": "https://api.github.com/repos/csorfab/mineflayer/git/refs{/sha}",
            "git_tags_url": "https://api.github.com/repos/csorfab/mineflayer/git/tags{/sha}",
            "git_url": "git://github.com/csorfab/mineflayer.git",
            "has_discussions": false,
            "has_downloads": true,
            "has_issues": false,
            "has_pages": false,
            "has_projects": true,
            "has_wiki": true,
            "homepage": "https://mineflayer.prismarine.js.org",
            "hooks_url": "https://api.github.com/repos/csorfab/mineflayer/hooks",
            "html_url": "https://github.com/csorfab/mineflayer",
            "id": 338261072,
            "is_template": false,
            "issue_comment_url": "https://api.github.com/repos/csorfab/mineflayer/issues/comments{/number}",
            "issue_events_url": "https://api.github.com/repos/csorfab/mineflayer/issues/events{/number}",
            "issues_url": "https://api.github.com/repos/csorfab/mineflayer/issues{/number}",
            "keys_url": "https://api.github.com/repos/csorfab/mineflayer/keys{/key_id}",
            "labels_url": "https://api.github.com/repos/csorfab/mineflayer/labels{/name}",
            "language": null,
            "languages_url": "https://api.github.com/repos/csorfab/mineflayer/languages",
            "license": {
                "key": "mit",
                "name": "MIT License",
                "node_id": "MDc6TGljZW5zZTEz",
                "spdx_id": "MIT",
                "url": "https://api.github.com/licenses/mit"
            },
            "merges_url": "https://api.github.com/repos/csorfab/mineflayer/merges",
            "milestones_url": "https://api.github.com/repos/csorfab/mineflayer/milestones{/number}",
            "mirror_url": null,
            "name": "mineflayer",
            "node_id": "MDEwOlJlcG9zaXRvcnkzMzgyNjEwNzI=",
            "notifications_url": "https://api.github.com/repos/csorfab/mineflayer/notifications{?since,all,participating}",
            "open_issues": 0,
            "open_issues_count": 0,
            "owner": {
                "avatar_url": "https://avatars.githubusercontent.com/u/9340111?v=4",
                "events_url": "https://api.github.com/users/csorfab/events{/privacy}",
                "followers_url": "https://api.github.com/users/csorfab/followers",
                "following_url": "https://api.github.com/users/csorfab/following{/other_user}",
                "gists_url": "https://api.github.com/users/csorfab/gists{/gist_id}",
                "gravatar_id": "",
                "html_url": "https://github.com/csorfab",
                "id": 9340111,
                "login": "csorfab",
                "node_id": "MDQ6VXNlcjkzNDAxMTE=",
                "organizations_url": "https://api.github.com/users/csorfab/orgs",
                "received_events_url": "https://api.github.com/users/csorfab/received_events",
                "repos_url": "https://api.github.com/users/csorfab/repos",
                "site_admin": false,
                "starred_url": "https://api.github.com/users/csorfab/starred{/owner}{/repo}",
                "subscriptions_url": "https://api.github.com/users/csorfab/subscriptions",
                "type": "User",
                "url": "https://api.github.com/users/csorfab"
            },
            "private": false,
            "pulls_url": "https://api.github.com/repos/csorfab/mineflayer/pulls{/number}",
            "pushed_at": "2021-02-12T09:37:38Z",
            "releases_url": "https://api.github.com/repos/csorfab/mineflayer/releases{/id}",
            "size": 11406,
            "ssh_url": "git@github.com:csorfab/mineflayer.git",
            "stargazers_count": 0,
            "stargazers_url": "https://api.github.com/repos/csorfab/mineflayer/stargazers",
            "statuses_url": "https://api.github.com/repos/csorfab/mineflayer/statuses/{sha}",
            "subscribers_url": "https://api.github.com/repos/csorfab/mineflayer/subscribers",
            "subscription_url": "https://api.github.com/repos/csorfab/mineflayer/subscription",
            "svn_url": "https://github.com/csorfab/mineflayer",
            "tags_url": "https://api.github.com/repos/csorfab/mineflayer/tags",
            "teams_url": "https://api.github.com/repos/csorfab/mineflayer/teams",
            "topics": [],
            "trees_url": "https://api.github.com/repos/csorfab/mineflayer/git/trees{/sha}",
            "updated_at": "2021-02-12T08:24:49Z",
            "url": "https://api.github.com/repos/csorfab/mineflayer",
            "visibility": "public",
            "watchers": 0,
            "watchers_count": 0,
            "web_commit_signoff_required": false
        },
        "sha": "158cff7589cd680b29f4a6e46fd70813e67d51a2",
        "user": {
            "avatar_url": "https://avatars.githubusercontent.com/u/9340111?v=4",
            "events_url": "https://api.github.com/users/csorfab/events{/privacy}",
            "followers_url": "https://api.github.com/users/csorfab/followers",
            "following_url": "https://api.github.com/users/csorfab/following{/other_user}",
            "gists_url": "https://api.github.com/users/csorfab/gists{/gist_id}",
            "gravatar_id": "",
            "html_url": "https://github.com/csorfab",
            "id": 9340111,
            "login": "csorfab",
            "node_id": "MDQ6VXNlcjkzNDAxMTE=",
            "organizations_url": "https://api.github.com/users/csorfab/orgs",
            "received_events_url": "https://api.github.com/users/csorfab/received_events",
            "repos_url": "https://api.github.com/users/csorfab/repos",
            "site_admin": false,
            "starred_url": "https://api.github.com/users/csorfab/starred{/owner}{/repo}",
            "subscriptions_url": "https://api.github.com/users/csorfab/subscriptions",
            "type": "User",
            "url": "https://api.github.com/users/csorfab"
        }
    },
    "html_url": "https://github.com/PrismarineJS/mineflayer/pull/1664",
    "id": 572364635,
    "issue_url": "https://api.github.com/repos/PrismarineJS/mineflayer/issues/1664",
    "labels": [],
    "locked": false,
    "maintainer_can_modify": false,
    "merge_commit_sha": "3556ca258ff9cf9affaafd0faa8ed250ae248463",
    "mergeable": null,
    "mergeable_state": "unknown",
    "merged": true,
    "merged_at": "2021-02-12T08:58:05Z",
    "merged_by": {
        "avatar_url": "https://avatars.githubusercontent.com/u/1977472?v=4",
        "events_url": "https://api.github.com/users/Karang/events{/privacy}",
        "followers_url": "https://api.github.com/users/Karang/followers",
        "following_url": "https://api.github.com/users/Karang/following{/other_user}",
        "gists_url": "https://api.github.com/users/Karang/gists{/gist_id}",
        "gravatar_id": "",
        "html_url": "https://github.com/Karang",
        "id": 1977472,
        "login": "Karang",
        "node_id": "MDQ6VXNlcjE5Nzc0NzI=",
        "organizations_url": "https://api.github.com/users/Karang/orgs",
        "received_events_url": "https://api.github.com/users/Karang/received_events",
        "repos_url": "https://api.github.com/users/Karang/repos",
        "site_admin": false,
        "starred_url": "https://api.github.com/users/Karang/starred{/owner}{/repo}",
        "subscriptions_url": "https://api.github.com/users/Karang/subscriptions",
        "type": "User",
        "url": "https://api.github.com/users/Karang"
    },
    "milestone": null,
    "node_id": "MDExOlB1bGxSZXF1ZXN0NTcyMzY0NjM1",
    "number": 1664,
    "patch_url": "https://github.com/PrismarineJS/mineflayer/pull/1664.patch",
    "rebaseable": null,
    "requested_reviewers": [],
    "requested_teams": [],
    "review_comment_url": "https://api.github.com/repos/PrismarineJS/mineflayer/pulls/comments{/number}",
    "review_comments": 0,
    "review_comments_url": "https://api.github.com/repos/PrismarineJS/mineflayer/pulls/1664/comments",
    "state": "closed",
    "statuses_url": "https://api.github.com/repos/PrismarineJS/mineflayer/statuses/158cff7589cd680b29f4a6e46fd70813e67d51a2",
    "title": "Fix typings of findBlock and findBlocks",
    "updated_at": "2021-02-12T09:37:39Z",
    "url": "https://api.github.com/repos/PrismarineJS/mineflayer/pulls/1664",
    "user": {
        "avatar_url": "https://avatars.githubusercontent.com/u/9340111?v=4",
        "events_url": "https://api.github.com/users/csorfab/events{/privacy}",
        "followers_url": "https://api.github.com/users/csorfab/followers",
        "following_url": "https://api.github.com/users/csorfab/following{/other_user}",
        "gists_url": "https://api.github.com/users/csorfab/gists{/gist_id}",
        "gravatar_id": "",
        "html_url": "https://github.com/csorfab",
        "id": 9340111,
        "login": "csorfab",
        "node_id": "MDQ6VXNlcjkzNDAxMTE=",
        "organizations_url": "https://api.github.com/users/csorfab/orgs",
        "received_events_url": "https://api.github.com/users/csorfab/received_events",
        "repos_url": "https://api.github.com/users/csorfab/repos",
        "site_admin": false,
        "starred_url": "https://api.github.com/users/csorfab/starred{/owner}{/repo}",
        "subscriptions_url": "https://api.github.com/users/csorfab/subscriptions",
        "type": "User",
        "url": "https://api.github.com/users/csorfab"
    }
}