{
    "_links": {
        "comments": {
            "href": "https://api.github.com/repos/PrismarineJS/mineflayer/issues/1791/comments"
        },
        "commits": {
            "href": "https://api.github.com/repos/PrismarineJS/mineflayer/pulls/1791/commits"
        },
        "html": {
            "href": "https://github.com/PrismarineJS/mineflayer/pull/1791"
        },
        "issue": {
            "href": "https://api.github.com/repos/PrismarineJS/mineflayer/issues/1791"
        },
        "review_comment": {
            "href": "https://api.github.com/repos/PrismarineJS/mineflayer/pulls/comments{/number}"
        },
        "review_comments": {
            "href": "https://api.github.com/repos/PrismarineJS/mineflayer/pulls/1791/comments"
        },
        "self": {
            "href": "https://api.github.com/repos/PrismarineJS/mineflayer/pulls/1791"
        },
        "statuses": {
            "href": "https://api.github.com/repos/PrismarineJS/mineflayer/statuses/a4f4b1e125ac7cf160fdf234b8454459540650a7"
        }
    },
    "active_lock_reason": null,
    "additions": 1,
    "assignee": null,
    "assignees": [],
    "author_association": "MEMBER",
    "auto_merge": null,
    "base": {
        "label": "PrismarineJS:master",
        "ref": "master",
        "repo": {
            "allow_forking": true,
            "archive_url": "https://api.github.com/repos/PrismarineJS/mineflayer/{archive_format}{/ref}",
            "archived": false,
            "assignees_url": "https://api.github.com/repos/PrismarineJS/mineflayer/assignees{/user}",
            "blobs_url": "https://api.github.com/repos/PrismarineJS/mineflayer/git/blobs{/sha}",
            "branches_url": "https://api.github.com/repos/PrismarineJS/mineflayer/branches{/branch}",
            "clone_url": "https://github.com/PrismarineJS/mineflayer.git",
            "collaborators_url": "https://api.github.com/repos/PrismarineJS/mineflayer/collaborators{/collaborator}",
            "comments_url": "https://api.github.com/repos/PrismarineJS/mineflayer/comments{/number}",
            "commits_url": "https://api.github.com/repos/PrismarineJS/mineflayer/commits{/sha}",
            "compare_url": "https://api.github.com/repos/PrismarineJS/mineflayer/compare/{base}...{head}",
            "contents_url": "https://api.github.com/repos/PrismarineJS/mineflayer/contents/{+path}",
            "contributors_url": "https://api.github.com/repos/PrismarineJS/mineflayer/contributors",
            "created_at": "2011-01-23T09:41:55Z",
            "default_branch": "master",
            "deployments_url": "https://api.github.com/repos/PrismarineJS/mineflayer/deployments",
            "description": "Create Minecraft bots with a powerful, stable, and high level JavaScript API.",
            "disabled": false,
            "downloads_url": "https://api.github.com/repos/PrismarineJS/mineflayer/downloads",
            "events_url": "https://api.github.com/repos/PrismarineJS/mineflayer/events",
            "fork": false,
            "forks": 748,
            "forks_count": 748,
            "forks_url": "https://api.github.com/repos/PrismarineJS/mineflayer/forks",
            "full_name": "PrismarineJS/mineflayer",
            "git_commits_url": "https://api.github.com/repos/PrismarineJS/mineflayer/git/commits{/sha}",
            "git_refs_url": "https://api.github.com/repos/PrismarineJS/mineflayer/git/refs{/sha}",
            "git_tags_url": "https://api.github.com/repos/PrismarineJS/mineflayer/git/tags{/sha}",
            "git_url": "git://github.com/PrismarineJS/mineflayer.git",
            "has_discussions": true,
            "has_downloads": true,
            "has_issues": true,
            "has_pages": true,
            "has_projects": true,
            "has_wiki": true,
            "homepage": "https://prismarinejs.github.io/mineflayer/",
            "hooks_url": "https://api.github.com/repos/PrismarineJS/mineflayer/hooks",
            "html_url": "https://github.com/PrismarineJS/mineflayer",
            "id": 1284185,
            "is_template": false,
            "issue_comment_url": "https://api.github.com/repos/PrismarineJS/mineflayer/issues/comments{/number}",
            "issue_events_url": "https://api.github.com/repos/PrismarineJS/mineflayer/issues/events{/number}",
            "issues_url": "https://api.github.com/repos/PrismarineJS/mineflayer/issues{/number}",
            "keys_url": "https://api.github.com/repos/PrismarineJS/mineflayer/keys{/key_id}",
            "labels_url": "https://api.github.com/repos/PrismarineJS/mineflayer/labels{/name}",
            "language": "JavaScript",
            "languages_url": "https://api.github.com/repos/PrismarineJS/mineflayer/languages",
            "license": {
                "key": "mit",
                "name": "MIT License",
                "node_id": "MDc6TGljZW5zZTEz",
                "spdx_id": "MIT",
                "url": "https://api.github.com/licenses/mit"
            },
            "merges_url": "https://api.github.com/repos/PrismarineJS/mineflayer/merges",
            "milestones_url": "https://api.github.com/repos/PrismarineJS/mineflayer/milestones{/number}",
            "mirror_url": null,
            "name": "mineflayer",
            "node_id": "MDEwOlJlcG9zaXRvcnkxMjg0MTg1",
            "notifications_url": "https://api.github.com/repos/PrismarineJS/mineflayer/notifications{?since,all,participating}",
            "open_issues": 269,
            "open_issues_count": 269,
            "owner": {
                "avatar_url": "https://avatars.githubusercontent.com/u/11053411?v=4",
                "events_url": "https://api.github.com/users/PrismarineJS/events{/privacy}",
                "followers_url": "https://api.github.com/users/PrismarineJS/followers",
                "following_url": "https://api.github.com/users/PrismarineJS/following{/other_user}",
                "gists_url": "https://api.github.com/users/PrismarineJS/gists{/gist_id}",
                "gravatar_id": "",
                "html_url": "https://github.com/PrismarineJS",
                "id": 11053411,
                "login": "PrismarineJS",
                "node_id": "MDEyOk9yZ2FuaXphdGlvbjExMDUzNDEx",
                "organizations_url": "https://api.github.com/users/PrismarineJS/orgs",
                "received_events_url": "https://api.github.com/users/PrismarineJS/received_events",
                "repos_url": "https://api.github.com/users/PrismarineJS/repos",
                "site_admin": false,
                "starred_url": "https://api.github.com/users/PrismarineJS/starred{/owner}{/repo}",
                "subscriptions_url": "https://api.github.com/users/PrismarineJS/subscriptions",
                "type": "Organization",
                "url": "https://api.github.com/users/PrismarineJS"
            },
            "private": false,
            "pulls_url": "https://api.github.com/repos/PrismarineJS/mineflayer/pulls{/number}",
            "pushed_at": "2023-04-25T00:44:52Z",
            "releases_url": "https://api.github.com/repos/PrismarineJS/mineflayer/releases{/id}",
            "size": 12493,
            "ssh_url": "git@github.com:PrismarineJS/mineflayer.git",
            "stargazers_count": 3698,
            "stargazers_url": "https://api.github.com/repos/PrismarineJS/mineflayer/stargazers",
            "statuses_url": "https://api.github.com/repos/PrismarineJS/mineflayer/statuses/{sha}",
            "subscribers_url": "https://api.github.com/repos/PrismarineJS/mineflayer/subscribers",
            "subscription_url": "https://api.github.com/repos/PrismarineJS/mineflayer/subscription",
            "svn_url": "https://github.com/PrismarineJS/mineflayer",
            "tags_url": "https://api.github.com/repos/PrismarineJS/mineflayer/tags",
            "teams_url": "https://api.github.com/repos/PrismarineJS/mineflayer/teams",
            "topics": [
                "bot",
                "minecraft",
                "minecraft-api",
                "minecraft-bot",
                "network",
                "nodejs"
            ],
            "trees_url": "https://api.github.com/repos/PrismarineJS/mineflayer/git/trees{/sha}",
            "updated_at": "2023-04-25T14:07:03Z",
            "url": "https://api.github.com/repos/PrismarineJS/mineflayer",
            "visibility": "public",
            "watchers": 3698,
            "watchers_count": 3698,
            "web_commit_signoff_required": false
        },
        "sha": "aa49ed7182e07c30a7ce9d974db380d2ad411e79",
        "user": {
            "avatar_url": "https://avatars.githubusercontent.com/u/11053411?v=4",
            "events_url": "https://api.github.com/users/PrismarineJS/events{/privacy}",
            "followers_url": "https://api.github.com/users/PrismarineJS/followers",
            "following_url": "https://api.github.com/users/PrismarineJS/following{/other_user}",
            "gists_url": "https://api.github.com/users/PrismarineJS/gists{/gist_id}",
            "gravatar_id": "",
            "html_url": "https://github.com/PrismarineJS",
            "id": 11053411,
            "login": "PrismarineJS",
            "node_id": "MDEyOk9yZ2FuaXphdGlvbjExMDUzNDEx",
            "organizations_url": "https://api.github.com/users/PrismarineJS/orgs",
            "received_events_url": "https://api.github.com/users/PrismarineJS/received_events",
            "repos_url": "https://api.github.com/users/PrismarineJS/repos",
            "site_admin": false,
            "starred_url": "https://api.github.com/users/PrismarineJS/starred{/owner}{/repo}",
            "subscriptions_url": "https://api.github.com/users/PrismarineJS/subscriptions",
            "type": "Organization",
            "url": "https://api.github.com/users/PrismarineJS"
        }
    },
    "body": "",
    "changed_files": 1,
    "closed_at": "2021-03-21T23:53:30Z",
    "comment_data": [],
    "comment_regular_data": [
        {
            "author_association": "MEMBER",
            "body": "https://github.com/PrismarineJS/mineflayer/pull/1792#issuecomment-803471291",
            "created_at": "2021-03-20T22:17:09Z",
            "html_url": "https://github.com/PrismarineJS/mineflayer/pull/1791#issuecomment-803471410",
            "id": 803471410,
            "issue_url": "https://api.github.com/repos/PrismarineJS/mineflayer/issues/1791",
            "node_id": "MDEyOklzc3VlQ29tbWVudDgwMzQ3MTQxMA==",
            "performed_via_github_app": null,
            "reactions": {
                "+1": 0,
                "-1": 0,
                "confused": 0,
                "eyes": 0,
                "heart": 0,
                "hooray": 0,
                "laugh": 0,
                "rocket": 0,
                "total_count": 0,
                "url": "https://api.github.com/repos/PrismarineJS/mineflayer/issues/comments/803471410/reactions"
            },
            "updated_at": "2021-03-20T22:17:09Z",
            "url": "https://api.github.com/repos/PrismarineJS/mineflayer/issues/comments/803471410",
            "user": {
                "avatar_url": "https://avatars.githubusercontent.com/u/2346494?v=4",
                "events_url": "https://api.github.com/users/rom1504/events{/privacy}",
                "followers_url": "https://api.github.com/users/rom1504/followers",
                "following_url": "https://api.github.com/users/rom1504/following{/other_user}",
                "gists_url": "https://api.github.com/users/rom1504/gists{/gist_id}",
                "gravatar_id": "",
                "html_url": "https://github.com/rom1504",
                "id": 2346494,
                "login": "rom1504",
                "node_id": "MDQ6VXNlcjIzNDY0OTQ=",
                "organizations_url": "https://api.github.com/users/rom1504/orgs",
                "received_events_url": "https://api.github.com/users/rom1504/received_events",
                "repos_url": "https://api.github.com/users/rom1504/repos",
                "site_admin": false,
                "starred_url": "https://api.github.com/users/rom1504/starred{/owner}{/repo}",
                "subscriptions_url": "https://api.github.com/users/rom1504/subscriptions",
                "type": "User",
                "url": "https://api.github.com/users/rom1504"
            }
        }
    ],
    "comments": 1,
    "comments_url": "https://api.github.com/repos/PrismarineJS/mineflayer/issues/1791/comments",
    "commit_data": [
        {
            "author": {
                "avatar_url": "https://avatars.githubusercontent.com/u/43508353?v=4",
                "events_url": "https://api.github.com/users/u9g/events{/privacy}",
                "followers_url": "https://api.github.com/users/u9g/followers",
                "following_url": "https://api.github.com/users/u9g/following{/other_user}",
                "gists_url": "https://api.github.com/users/u9g/gists{/gist_id}",
                "gravatar_id": "",
                "html_url": "https://github.com/u9g",
                "id": 43508353,
                "login": "u9g",
                "node_id": "MDQ6VXNlcjQzNTA4MzUz",
                "organizations_url": "https://api.github.com/users/u9g/orgs",
                "received_events_url": "https://api.github.com/users/u9g/received_events",
                "repos_url": "https://api.github.com/users/u9g/repos",
                "site_admin": false,
                "starred_url": "https://api.github.com/users/u9g/starred{/owner}{/repo}",
                "subscriptions_url": "https://api.github.com/users/u9g/subscriptions",
                "type": "User",
                "url": "https://api.github.com/users/u9g"
            },
            "comments_url": "https://api.github.com/repos/PrismarineJS/mineflayer/commits/a4f4b1e125ac7cf160fdf234b8454459540650a7/comments",
            "commit": {
                "author": {
                    "date": "2021-03-20T19:44:35Z",
                    "email": "43508353+u9g@users.noreply.github.com",
                    "name": "u9g"
                },
                "comment_count": 0,
                "committer": {
                    "date": "2021-03-20T19:44:35Z",
                    "email": "noreply@github.com",
                    "name": "GitHub"
                },
                "message": "add example with chatregex plugin",
                "tree": {
                    "sha": "9245004adfc6d3a1d10d6d22e8e1317341b028d2",
                    "url": "https://api.github.com/repos/PrismarineJS/mineflayer/git/trees/9245004adfc6d3a1d10d6d22e8e1317341b028d2"
                },
                "url": "https://api.github.com/repos/PrismarineJS/mineflayer/git/commits/a4f4b1e125ac7cf160fdf234b8454459540650a7",
                "verification": {
                    "payload": "tree 9245004adfc6d3a1d10d6d22e8e1317341b028d2\nparent aa49ed7182e07c30a7ce9d974db380d2ad411e79\nauthor u9g <43508353+u9g@users.noreply.github.com> 1616269475 -0400\ncommitter GitHub <noreply@github.com> 1616269475 -0400\n\nadd example with chatregex plugin",
                    "reason": "valid",
                    "signature": "-----BEGIN PGP SIGNATURE-----\n\nwsBcBAABCAAQBQJgVlCjCRBK7hj4Ov3rIwAAdHIIABdvMNfTU4ZFtGhXVD17B1rB\nnYCZI6CUGF/FrMHTsTxC9WhHUPwsJeXs2TIzc4/9R6O4yn1VK38V7Rl1cZW4/sCi\nrdkhQb85VcsNzrl4dLilszqst9r5UHCnPgtOW44GyvnecHQTgTQzJ/XqC9eTIumE\nGhttCtExJlSB5g5Fzi4a7qJFiqijjfWWJjgDeSjsT6Ih0XX3P84wNqPihTOTr/dJ\ncatbzf/o8Nj13YPR0Qwu00bLcbsSqvjpT0vt2xgbONwR1rSoOCjzOibZtxBQ62vi\nh7HVSyB5Gz0fbefHYiTYzJnZ5xqCm9Znz6SduamVIChRIC8Vim76qFp6uhGGegY=\n=SpNJ\n-----END PGP SIGNATURE-----\n",
                    "verified": true
                }
            },
            "committer": {
                "avatar_url": "https://avatars.githubusercontent.com/u/19864447?v=4",
                "events_url": "https://api.github.com/users/web-flow/events{/privacy}",
                "followers_url": "https://api.github.com/users/web-flow/followers",
                "following_url": "https://api.github.com/users/web-flow/following{/other_user}",
                "gists_url": "https://api.github.com/users/web-flow/gists{/gist_id}",
                "gravatar_id": "",
                "html_url": "https://github.com/web-flow",
                "id": 19864447,
                "login": "web-flow",
                "node_id": "MDQ6VXNlcjE5ODY0NDQ3",
                "organizations_url": "https://api.github.com/users/web-flow/orgs",
                "received_events_url": "https://api.github.com/users/web-flow/received_events",
                "repos_url": "https://api.github.com/users/web-flow/repos",
                "site_admin": false,
                "starred_url": "https://api.github.com/users/web-flow/starred{/owner}{/repo}",
                "subscriptions_url": "https://api.github.com/users/web-flow/subscriptions",
                "type": "User",
                "url": "https://api.github.com/users/web-flow"
            },
            "html_url": "https://github.com/PrismarineJS/mineflayer/commit/a4f4b1e125ac7cf160fdf234b8454459540650a7",
            "node_id": "MDY6Q29tbWl0MTI4NDE4NTphNGY0YjFlMTI1YWM3Y2YxNjBmZGYyMzRiODQ1NDQ1OTU0MDY1MGE3",
            "parents": [
                {
                    "html_url": "https://github.com/PrismarineJS/mineflayer/commit/aa49ed7182e07c30a7ce9d974db380d2ad411e79",
                    "sha": "aa49ed7182e07c30a7ce9d974db380d2ad411e79",
                    "url": "https://api.github.com/repos/PrismarineJS/mineflayer/commits/aa49ed7182e07c30a7ce9d974db380d2ad411e79"
                }
            ],
            "sha": "a4f4b1e125ac7cf160fdf234b8454459540650a7",
            "url": "https://api.github.com/repos/PrismarineJS/mineflayer/commits/a4f4b1e125ac7cf160fdf234b8454459540650a7"
        }
    ],
    "commits": 1,
    "commits_url": "https://api.github.com/repos/PrismarineJS/mineflayer/pulls/1791/commits",
    "created_at": "2021-03-20T19:44:39Z",
    "deletions": 1,
    "diff_url": "https://github.com/PrismarineJS/mineflayer/pull/1791.diff",
    "draft": false,
    "head": {
        "label": "u9g:patch-2",
        "ref": "patch-2",
        "repo": null,
        "sha": "a4f4b1e125ac7cf160fdf234b8454459540650a7",
        "user": {
            "avatar_url": "https://avatars.githubusercontent.com/u/43508353?v=4",
            "events_url": "https://api.github.com/users/u9g/events{/privacy}",
            "followers_url": "https://api.github.com/users/u9g/followers",
            "following_url": "https://api.github.com/users/u9g/following{/other_user}",
            "gists_url": "https://api.github.com/users/u9g/gists{/gist_id}",
            "gravatar_id": "",
            "html_url": "https://github.com/u9g",
            "id": 43508353,
            "login": "u9g",
            "node_id": "MDQ6VXNlcjQzNTA4MzUz",
            "organizations_url": "https://api.github.com/users/u9g/orgs",
            "received_events_url": "https://api.github.com/users/u9g/received_events",
            "repos_url": "https://api.github.com/users/u9g/repos",
            "site_admin": false,
            "starred_url": "https://api.github.com/users/u9g/starred{/owner}{/repo}",
            "subscriptions_url": "https://api.github.com/users/u9g/subscriptions",
            "type": "User",
            "url": "https://api.github.com/users/u9g"
        }
    },
    "html_url": "https://github.com/PrismarineJS/mineflayer/pull/1791",
    "id": 597348486,
    "issue_url": "https://api.github.com/repos/PrismarineJS/mineflayer/issues/1791",
    "labels": [
        {
            "color": "663399",
            "default": false,
            "description": null,
            "id": 241251380,
            "name": "waiting info from op",
            "node_id": "MDU6TGFiZWwyNDEyNTEzODA=",
            "url": "https://api.github.com/repos/PrismarineJS/mineflayer/labels/waiting%20info%20from%20op"
        }
    ],
    "locked": false,
    "maintainer_can_modify": false,
    "merge_commit_sha": "fc1d339059a9478bfb096ace48151a9d61218a6c",
    "mergeable": null,
    "mergeable_state": "unknown",
    "merged": false,
    "merged_at": null,
    "merged_by": null,
    "milestone": null,
    "node_id": "MDExOlB1bGxSZXF1ZXN0NTk3MzQ4NDg2",
    "number": 1791,
    "patch_url": "https://github.com/PrismarineJS/mineflayer/pull/1791.patch",
    "rebaseable": null,
    "requested_reviewers": [],
    "requested_teams": [],
    "review_comment_url": "https://api.github.com/repos/PrismarineJS/mineflayer/pulls/comments{/number}",
    "review_comments": 0,
    "review_comments_url": "https://api.github.com/repos/PrismarineJS/mineflayer/pulls/1791/comments",
    "state": "closed",
    "statuses_url": "https://api.github.com/repos/PrismarineJS/mineflayer/statuses/a4f4b1e125ac7cf160fdf234b8454459540650a7",
    "title": "add example with chatregex plugin",
    "updated_at": "2021-03-21T23:53:30Z",
    "url": "https://api.github.com/repos/PrismarineJS/mineflayer/pulls/1791",
    "user": {
        "avatar_url": "https://avatars.githubusercontent.com/u/43508353?v=4",
        "events_url": "https://api.github.com/users/u9g/events{/privacy}",
        "followers_url": "https://api.github.com/users/u9g/followers",
        "following_url": "https://api.github.com/users/u9g/following{/other_user}",
        "gists_url": "https://api.github.com/users/u9g/gists{/gist_id}",
        "gravatar_id": "",
        "html_url": "https://github.com/u9g",
        "id": 43508353,
        "login": "u9g",
        "node_id": "MDQ6VXNlcjQzNTA4MzUz",
        "organizations_url": "https://api.github.com/users/u9g/orgs",
        "received_events_url": "https://api.github.com/users/u9g/received_events",
        "repos_url": "https://api.github.com/users/u9g/repos",
        "site_admin": false,
        "starred_url": "https://api.github.com/users/u9g/starred{/owner}{/repo}",
        "subscriptions_url": "https://api.github.com/users/u9g/subscriptions",
        "type": "User",
        "url": "https://api.github.com/users/u9g"
    }
}