{
    "_links": {
        "comments": {
            "href": "https://api.github.com/repos/PrismarineJS/mineflayer/issues/227/comments"
        },
        "commits": {
            "href": "https://api.github.com/repos/PrismarineJS/mineflayer/pulls/227/commits"
        },
        "html": {
            "href": "https://github.com/PrismarineJS/mineflayer/pull/227"
        },
        "issue": {
            "href": "https://api.github.com/repos/PrismarineJS/mineflayer/issues/227"
        },
        "review_comment": {
            "href": "https://api.github.com/repos/PrismarineJS/mineflayer/pulls/comments{/number}"
        },
        "review_comments": {
            "href": "https://api.github.com/repos/PrismarineJS/mineflayer/pulls/227/comments"
        },
        "self": {
            "href": "https://api.github.com/repos/PrismarineJS/mineflayer/pulls/227"
        },
        "statuses": {
            "href": "https://api.github.com/repos/PrismarineJS/mineflayer/statuses/73dba2be75f7ac1429bcc1230faab38f00c79bbf"
        }
    },
    "active_lock_reason": null,
    "additions": 163,
    "assignee": null,
    "assignees": [],
    "author_association": "CONTRIBUTOR",
    "auto_merge": null,
    "base": {
        "label": "PrismarineJS:master",
        "ref": "master",
        "repo": {
            "allow_forking": true,
            "archive_url": "https://api.github.com/repos/PrismarineJS/mineflayer/{archive_format}{/ref}",
            "archived": false,
            "assignees_url": "https://api.github.com/repos/PrismarineJS/mineflayer/assignees{/user}",
            "blobs_url": "https://api.github.com/repos/PrismarineJS/mineflayer/git/blobs{/sha}",
            "branches_url": "https://api.github.com/repos/PrismarineJS/mineflayer/branches{/branch}",
            "clone_url": "https://github.com/PrismarineJS/mineflayer.git",
            "collaborators_url": "https://api.github.com/repos/PrismarineJS/mineflayer/collaborators{/collaborator}",
            "comments_url": "https://api.github.com/repos/PrismarineJS/mineflayer/comments{/number}",
            "commits_url": "https://api.github.com/repos/PrismarineJS/mineflayer/commits{/sha}",
            "compare_url": "https://api.github.com/repos/PrismarineJS/mineflayer/compare/{base}...{head}",
            "contents_url": "https://api.github.com/repos/PrismarineJS/mineflayer/contents/{+path}",
            "contributors_url": "https://api.github.com/repos/PrismarineJS/mineflayer/contributors",
            "created_at": "2011-01-23T09:41:55Z",
            "default_branch": "master",
            "deployments_url": "https://api.github.com/repos/PrismarineJS/mineflayer/deployments",
            "description": "Create Minecraft bots with a powerful, stable, and high level JavaScript API.",
            "disabled": false,
            "downloads_url": "https://api.github.com/repos/PrismarineJS/mineflayer/downloads",
            "events_url": "https://api.github.com/repos/PrismarineJS/mineflayer/events",
            "fork": false,
            "forks": 748,
            "forks_count": 748,
            "forks_url": "https://api.github.com/repos/PrismarineJS/mineflayer/forks",
            "full_name": "PrismarineJS/mineflayer",
            "git_commits_url": "https://api.github.com/repos/PrismarineJS/mineflayer/git/commits{/sha}",
            "git_refs_url": "https://api.github.com/repos/PrismarineJS/mineflayer/git/refs{/sha}",
            "git_tags_url": "https://api.github.com/repos/PrismarineJS/mineflayer/git/tags{/sha}",
            "git_url": "git://github.com/PrismarineJS/mineflayer.git",
            "has_discussions": true,
            "has_downloads": true,
            "has_issues": true,
            "has_pages": true,
            "has_projects": true,
            "has_wiki": true,
            "homepage": "https://prismarinejs.github.io/mineflayer/",
            "hooks_url": "https://api.github.com/repos/PrismarineJS/mineflayer/hooks",
            "html_url": "https://github.com/PrismarineJS/mineflayer",
            "id": 1284185,
            "is_template": false,
            "issue_comment_url": "https://api.github.com/repos/PrismarineJS/mineflayer/issues/comments{/number}",
            "issue_events_url": "https://api.github.com/repos/PrismarineJS/mineflayer/issues/events{/number}",
            "issues_url": "https://api.github.com/repos/PrismarineJS/mineflayer/issues{/number}",
            "keys_url": "https://api.github.com/repos/PrismarineJS/mineflayer/keys{/key_id}",
            "labels_url": "https://api.github.com/repos/PrismarineJS/mineflayer/labels{/name}",
            "language": "JavaScript",
            "languages_url": "https://api.github.com/repos/PrismarineJS/mineflayer/languages",
            "license": {
                "key": "mit",
                "name": "MIT License",
                "node_id": "MDc6TGljZW5zZTEz",
                "spdx_id": "MIT",
                "url": "https://api.github.com/licenses/mit"
            },
            "merges_url": "https://api.github.com/repos/PrismarineJS/mineflayer/merges",
            "milestones_url": "https://api.github.com/repos/PrismarineJS/mineflayer/milestones{/number}",
            "mirror_url": null,
            "name": "mineflayer",
            "node_id": "MDEwOlJlcG9zaXRvcnkxMjg0MTg1",
            "notifications_url": "https://api.github.com/repos/PrismarineJS/mineflayer/notifications{?since,all,participating}",
            "open_issues": 269,
            "open_issues_count": 269,
            "owner": {
                "avatar_url": "https://avatars.githubusercontent.com/u/11053411?v=4",
                "events_url": "https://api.github.com/users/PrismarineJS/events{/privacy}",
                "followers_url": "https://api.github.com/users/PrismarineJS/followers",
                "following_url": "https://api.github.com/users/PrismarineJS/following{/other_user}",
                "gists_url": "https://api.github.com/users/PrismarineJS/gists{/gist_id}",
                "gravatar_id": "",
                "html_url": "https://github.com/PrismarineJS",
                "id": 11053411,
                "login": "PrismarineJS",
                "node_id": "MDEyOk9yZ2FuaXphdGlvbjExMDUzNDEx",
                "organizations_url": "https://api.github.com/users/PrismarineJS/orgs",
                "received_events_url": "https://api.github.com/users/PrismarineJS/received_events",
                "repos_url": "https://api.github.com/users/PrismarineJS/repos",
                "site_admin": false,
                "starred_url": "https://api.github.com/users/PrismarineJS/starred{/owner}{/repo}",
                "subscriptions_url": "https://api.github.com/users/PrismarineJS/subscriptions",
                "type": "Organization",
                "url": "https://api.github.com/users/PrismarineJS"
            },
            "private": false,
            "pulls_url": "https://api.github.com/repos/PrismarineJS/mineflayer/pulls{/number}",
            "pushed_at": "2023-04-25T00:44:52Z",
            "releases_url": "https://api.github.com/repos/PrismarineJS/mineflayer/releases{/id}",
            "size": 12493,
            "ssh_url": "git@github.com:PrismarineJS/mineflayer.git",
            "stargazers_count": 3698,
            "stargazers_url": "https://api.github.com/repos/PrismarineJS/mineflayer/stargazers",
            "statuses_url": "https://api.github.com/repos/PrismarineJS/mineflayer/statuses/{sha}",
            "subscribers_url": "https://api.github.com/repos/PrismarineJS/mineflayer/subscribers",
            "subscription_url": "https://api.github.com/repos/PrismarineJS/mineflayer/subscription",
            "svn_url": "https://github.com/PrismarineJS/mineflayer",
            "tags_url": "https://api.github.com/repos/PrismarineJS/mineflayer/tags",
            "teams_url": "https://api.github.com/repos/PrismarineJS/mineflayer/teams",
            "topics": [
                "bot",
                "minecraft",
                "minecraft-api",
                "minecraft-bot",
                "network",
                "nodejs"
            ],
            "trees_url": "https://api.github.com/repos/PrismarineJS/mineflayer/git/trees{/sha}",
            "updated_at": "2023-04-25T14:07:03Z",
            "url": "https://api.github.com/repos/PrismarineJS/mineflayer",
            "visibility": "public",
            "watchers": 3698,
            "watchers_count": 3698,
            "web_commit_signoff_required": false
        },
        "sha": "0d109a55b68cb92cf6a009213bdd982ede7f2061",
        "user": {
            "avatar_url": "https://avatars.githubusercontent.com/u/11053411?v=4",
            "events_url": "https://api.github.com/users/PrismarineJS/events{/privacy}",
            "followers_url": "https://api.github.com/users/PrismarineJS/followers",
            "following_url": "https://api.github.com/users/PrismarineJS/following{/other_user}",
            "gists_url": "https://api.github.com/users/PrismarineJS/gists{/gist_id}",
            "gravatar_id": "",
            "html_url": "https://github.com/PrismarineJS",
            "id": 11053411,
            "login": "PrismarineJS",
            "node_id": "MDEyOk9yZ2FuaXphdGlvbjExMDUzNDEx",
            "organizations_url": "https://api.github.com/users/PrismarineJS/orgs",
            "received_events_url": "https://api.github.com/users/PrismarineJS/received_events",
            "repos_url": "https://api.github.com/users/PrismarineJS/repos",
            "site_admin": false,
            "starred_url": "https://api.github.com/users/PrismarineJS/starred{/owner}{/repo}",
            "subscriptions_url": "https://api.github.com/users/PrismarineJS/subscriptions",
            "type": "Organization",
            "url": "https://api.github.com/users/PrismarineJS"
        }
    },
    "body": "",
    "changed_files": 1,
    "closed_at": "2015-03-22T18:02:27Z",
    "comment_data": [],
    "comment_regular_data": [
        {
            "author_association": "MEMBER",
            "body": "Extracted (manually) from http://minecraft.gamepedia.com/Items , for example http://minecraft.gamepedia.com/Dark_Oak_Door for the Dark Oak Door.\n\nA bit difficult to extract automatically hence to be sure there's everything, but it seems good to me.\n",
            "created_at": "2015-03-22T17:58:23Z",
            "html_url": "https://github.com/PrismarineJS/mineflayer/pull/227#issuecomment-84667245",
            "id": 84667245,
            "issue_url": "https://api.github.com/repos/PrismarineJS/mineflayer/issues/227",
            "node_id": "MDEyOklzc3VlQ29tbWVudDg0NjY3MjQ1",
            "performed_via_github_app": null,
            "reactions": {
                "+1": 0,
                "-1": 0,
                "confused": 0,
                "eyes": 0,
                "heart": 0,
                "hooray": 0,
                "laugh": 0,
                "rocket": 0,
                "total_count": 0,
                "url": "https://api.github.com/repos/PrismarineJS/mineflayer/issues/comments/84667245/reactions"
            },
            "updated_at": "2015-03-22T17:58:23Z",
            "url": "https://api.github.com/repos/PrismarineJS/mineflayer/issues/comments/84667245",
            "user": {
                "avatar_url": "https://avatars.githubusercontent.com/u/2346494?v=4",
                "events_url": "https://api.github.com/users/rom1504/events{/privacy}",
                "followers_url": "https://api.github.com/users/rom1504/followers",
                "following_url": "https://api.github.com/users/rom1504/following{/other_user}",
                "gists_url": "https://api.github.com/users/rom1504/gists{/gist_id}",
                "gravatar_id": "",
                "html_url": "https://github.com/rom1504",
                "id": 2346494,
                "login": "rom1504",
                "node_id": "MDQ6VXNlcjIzNDY0OTQ=",
                "organizations_url": "https://api.github.com/users/rom1504/orgs",
                "received_events_url": "https://api.github.com/users/rom1504/received_events",
                "repos_url": "https://api.github.com/users/rom1504/repos",
                "site_admin": false,
                "starred_url": "https://api.github.com/users/rom1504/starred{/owner}{/repo}",
                "subscriptions_url": "https://api.github.com/users/rom1504/subscriptions",
                "type": "User",
                "url": "https://api.github.com/users/rom1504"
            }
        },
        {
            "author_association": "MEMBER",
            "body": "Thanks :) merging.\nI think it would be better to have something automatic to extract these but that will do for now.\n",
            "created_at": "2015-03-22T18:02:17Z",
            "html_url": "https://github.com/PrismarineJS/mineflayer/pull/227#issuecomment-84667609",
            "id": 84667609,
            "issue_url": "https://api.github.com/repos/PrismarineJS/mineflayer/issues/227",
            "node_id": "MDEyOklzc3VlQ29tbWVudDg0NjY3NjA5",
            "performed_via_github_app": null,
            "reactions": {
                "+1": 0,
                "-1": 0,
                "confused": 0,
                "eyes": 0,
                "heart": 0,
                "hooray": 0,
                "laugh": 0,
                "rocket": 0,
                "total_count": 0,
                "url": "https://api.github.com/repos/PrismarineJS/mineflayer/issues/comments/84667609/reactions"
            },
            "updated_at": "2015-03-22T18:02:17Z",
            "url": "https://api.github.com/repos/PrismarineJS/mineflayer/issues/comments/84667609",
            "user": {
                "avatar_url": "https://avatars.githubusercontent.com/u/2346494?v=4",
                "events_url": "https://api.github.com/users/rom1504/events{/privacy}",
                "followers_url": "https://api.github.com/users/rom1504/followers",
                "following_url": "https://api.github.com/users/rom1504/following{/other_user}",
                "gists_url": "https://api.github.com/users/rom1504/gists{/gist_id}",
                "gravatar_id": "",
                "html_url": "https://github.com/rom1504",
                "id": 2346494,
                "login": "rom1504",
                "node_id": "MDQ6VXNlcjIzNDY0OTQ=",
                "organizations_url": "https://api.github.com/users/rom1504/orgs",
                "received_events_url": "https://api.github.com/users/rom1504/received_events",
                "repos_url": "https://api.github.com/users/rom1504/repos",
                "site_admin": false,
                "starred_url": "https://api.github.com/users/rom1504/starred{/owner}{/repo}",
                "subscriptions_url": "https://api.github.com/users/rom1504/subscriptions",
                "type": "User",
                "url": "https://api.github.com/users/rom1504"
            }
        }
    ],
    "comments": 2,
    "comments_url": "https://api.github.com/repos/PrismarineJS/mineflayer/issues/227/comments",
    "commit_data": [
        {
            "author": {
                "avatar_url": "https://avatars.githubusercontent.com/u/3944524?v=4",
                "events_url": "https://api.github.com/users/Kupferhirn/events{/privacy}",
                "followers_url": "https://api.github.com/users/Kupferhirn/followers",
                "following_url": "https://api.github.com/users/Kupferhirn/following{/other_user}",
                "gists_url": "https://api.github.com/users/Kupferhirn/gists{/gist_id}",
                "gravatar_id": "",
                "html_url": "https://github.com/Kupferhirn",
                "id": 3944524,
                "login": "Kupferhirn",
                "node_id": "MDQ6VXNlcjM5NDQ1MjQ=",
                "organizations_url": "https://api.github.com/users/Kupferhirn/orgs",
                "received_events_url": "https://api.github.com/users/Kupferhirn/received_events",
                "repos_url": "https://api.github.com/users/Kupferhirn/repos",
                "site_admin": false,
                "starred_url": "https://api.github.com/users/Kupferhirn/starred{/owner}{/repo}",
                "subscriptions_url": "https://api.github.com/users/Kupferhirn/subscriptions",
                "type": "User",
                "url": "https://api.github.com/users/Kupferhirn"
            },
            "comments_url": "https://api.github.com/repos/PrismarineJS/mineflayer/commits/73dba2be75f7ac1429bcc1230faab38f00c79bbf/comments",
            "commit": {
                "author": {
                    "date": "2015-03-22T15:25:05Z",
                    "email": "kupferhirn@brokensoft.net",
                    "name": "Stefan Leitgeb"
                },
                "comment_count": 0,
                "committer": {
                    "date": "2015-03-22T15:25:05Z",
                    "email": "kupferhirn@brokensoft.net",
                    "name": "Stefan Leitgeb"
                },
                "message": "Update items enum for 1.8",
                "tree": {
                    "sha": "b062f77a76ed90b97ca78d43723f5aed8b8e5c2c",
                    "url": "https://api.github.com/repos/PrismarineJS/mineflayer/git/trees/b062f77a76ed90b97ca78d43723f5aed8b8e5c2c"
                },
                "url": "https://api.github.com/repos/PrismarineJS/mineflayer/git/commits/73dba2be75f7ac1429bcc1230faab38f00c79bbf",
                "verification": {
                    "payload": null,
                    "reason": "unsigned",
                    "signature": null,
                    "verified": false
                }
            },
            "committer": {
                "avatar_url": "https://avatars.githubusercontent.com/u/3944524?v=4",
                "events_url": "https://api.github.com/users/Kupferhirn/events{/privacy}",
                "followers_url": "https://api.github.com/users/Kupferhirn/followers",
                "following_url": "https://api.github.com/users/Kupferhirn/following{/other_user}",
                "gists_url": "https://api.github.com/users/Kupferhirn/gists{/gist_id}",
                "gravatar_id": "",
                "html_url": "https://github.com/Kupferhirn",
                "id": 3944524,
                "login": "Kupferhirn",
                "node_id": "MDQ6VXNlcjM5NDQ1MjQ=",
                "organizations_url": "https://api.github.com/users/Kupferhirn/orgs",
                "received_events_url": "https://api.github.com/users/Kupferhirn/received_events",
                "repos_url": "https://api.github.com/users/Kupferhirn/repos",
                "site_admin": false,
                "starred_url": "https://api.github.com/users/Kupferhirn/starred{/owner}{/repo}",
                "subscriptions_url": "https://api.github.com/users/Kupferhirn/subscriptions",
                "type": "User",
                "url": "https://api.github.com/users/Kupferhirn"
            },
            "html_url": "https://github.com/PrismarineJS/mineflayer/commit/73dba2be75f7ac1429bcc1230faab38f00c79bbf",
            "node_id": "MDY6Q29tbWl0MzI2NzI4NjY6NzNkYmEyYmU3NWY3YWMxNDI5YmNjMTIzMGZhYWIzOGYwMGM3OWJiZg==",
            "parents": [
                {
                    "html_url": "https://github.com/PrismarineJS/mineflayer/commit/0d109a55b68cb92cf6a009213bdd982ede7f2061",
                    "sha": "0d109a55b68cb92cf6a009213bdd982ede7f2061",
                    "url": "https://api.github.com/repos/PrismarineJS/mineflayer/commits/0d109a55b68cb92cf6a009213bdd982ede7f2061"
                }
            ],
            "sha": "73dba2be75f7ac1429bcc1230faab38f00c79bbf",
            "url": "https://api.github.com/repos/PrismarineJS/mineflayer/commits/73dba2be75f7ac1429bcc1230faab38f00c79bbf"
        }
    ],
    "commits": 1,
    "commits_url": "https://api.github.com/repos/PrismarineJS/mineflayer/pulls/227/commits",
    "created_at": "2015-03-22T15:28:02Z",
    "deletions": 1,
    "diff_url": "https://github.com/PrismarineJS/mineflayer/pull/227.diff",
    "draft": false,
    "head": {
        "label": "Kupferhirn:master",
        "ref": "master",
        "repo": {
            "allow_forking": true,
            "archive_url": "https://api.github.com/repos/Kupferhirn/mineflayer/{archive_format}{/ref}",
            "archived": false,
            "assignees_url": "https://api.github.com/repos/Kupferhirn/mineflayer/assignees{/user}",
            "blobs_url": "https://api.github.com/repos/Kupferhirn/mineflayer/git/blobs{/sha}",
            "branches_url": "https://api.github.com/repos/Kupferhirn/mineflayer/branches{/branch}",
            "clone_url": "https://github.com/Kupferhirn/mineflayer.git",
            "collaborators_url": "https://api.github.com/repos/Kupferhirn/mineflayer/collaborators{/collaborator}",
            "comments_url": "https://api.github.com/repos/Kupferhirn/mineflayer/comments{/number}",
            "commits_url": "https://api.github.com/repos/Kupferhirn/mineflayer/commits{/sha}",
            "compare_url": "https://api.github.com/repos/Kupferhirn/mineflayer/compare/{base}...{head}",
            "contents_url": "https://api.github.com/repos/Kupferhirn/mineflayer/contents/{+path}",
            "contributors_url": "https://api.github.com/repos/Kupferhirn/mineflayer/contributors",
            "created_at": "2015-03-22T11:29:37Z",
            "default_branch": "master",
            "deployments_url": "https://api.github.com/repos/Kupferhirn/mineflayer/deployments",
            "description": "Create Minecraft bots with a powerful, stable, and high level JavaScript API.",
            "disabled": false,
            "downloads_url": "https://api.github.com/repos/Kupferhirn/mineflayer/downloads",
            "events_url": "https://api.github.com/repos/Kupferhirn/mineflayer/events",
            "fork": true,
            "forks": 0,
            "forks_count": 0,
            "forks_url": "https://api.github.com/repos/Kupferhirn/mineflayer/forks",
            "full_name": "Kupferhirn/mineflayer",
            "git_commits_url": "https://api.github.com/repos/Kupferhirn/mineflayer/git/commits{/sha}",
            "git_refs_url": "https://api.github.com/repos/Kupferhirn/mineflayer/git/refs{/sha}",
            "git_tags_url": "https://api.github.com/repos/Kupferhirn/mineflayer/git/tags{/sha}",
            "git_url": "git://github.com/Kupferhirn/mineflayer.git",
            "has_discussions": false,
            "has_downloads": true,
            "has_issues": false,
            "has_pages": false,
            "has_projects": true,
            "has_wiki": true,
            "homepage": "",
            "hooks_url": "https://api.github.com/repos/Kupferhirn/mineflayer/hooks",
            "html_url": "https://github.com/Kupferhirn/mineflayer",
            "id": 32672866,
            "is_template": false,
            "issue_comment_url": "https://api.github.com/repos/Kupferhirn/mineflayer/issues/comments{/number}",
            "issue_events_url": "https://api.github.com/repos/Kupferhirn/mineflayer/issues/events{/number}",
            "issues_url": "https://api.github.com/repos/Kupferhirn/mineflayer/issues{/number}",
            "keys_url": "https://api.github.com/repos/Kupferhirn/mineflayer/keys{/key_id}",
            "labels_url": "https://api.github.com/repos/Kupferhirn/mineflayer/labels{/name}",
            "language": "JavaScript",
            "languages_url": "https://api.github.com/repos/Kupferhirn/mineflayer/languages",
            "license": null,
            "merges_url": "https://api.github.com/repos/Kupferhirn/mineflayer/merges",
            "milestones_url": "https://api.github.com/repos/Kupferhirn/mineflayer/milestones{/number}",
            "mirror_url": null,
            "name": "mineflayer",
            "node_id": "MDEwOlJlcG9zaXRvcnkzMjY3Mjg2Ng==",
            "notifications_url": "https://api.github.com/repos/Kupferhirn/mineflayer/notifications{?since,all,participating}",
            "open_issues": 0,
            "open_issues_count": 0,
            "owner": {
                "avatar_url": "https://avatars.githubusercontent.com/u/3944524?v=4",
                "events_url": "https://api.github.com/users/Kupferhirn/events{/privacy}",
                "followers_url": "https://api.github.com/users/Kupferhirn/followers",
                "following_url": "https://api.github.com/users/Kupferhirn/following{/other_user}",
                "gists_url": "https://api.github.com/users/Kupferhirn/gists{/gist_id}",
                "gravatar_id": "",
                "html_url": "https://github.com/Kupferhirn",
                "id": 3944524,
                "login": "Kupferhirn",
                "node_id": "MDQ6VXNlcjM5NDQ1MjQ=",
                "organizations_url": "https://api.github.com/users/Kupferhirn/orgs",
                "received_events_url": "https://api.github.com/users/Kupferhirn/received_events",
                "repos_url": "https://api.github.com/users/Kupferhirn/repos",
                "site_admin": false,
                "starred_url": "https://api.github.com/users/Kupferhirn/starred{/owner}{/repo}",
                "subscriptions_url": "https://api.github.com/users/Kupferhirn/subscriptions",
                "type": "User",
                "url": "https://api.github.com/users/Kupferhirn"
            },
            "private": false,
            "pulls_url": "https://api.github.com/repos/Kupferhirn/mineflayer/pulls{/number}",
            "pushed_at": "2015-03-22T20:08:11Z",
            "releases_url": "https://api.github.com/repos/Kupferhirn/mineflayer/releases{/id}",
            "size": 9902,
            "ssh_url": "git@github.com:Kupferhirn/mineflayer.git",
            "stargazers_count": 0,
            "stargazers_url": "https://api.github.com/repos/Kupferhirn/mineflayer/stargazers",
            "statuses_url": "https://api.github.com/repos/Kupferhirn/mineflayer/statuses/{sha}",
            "subscribers_url": "https://api.github.com/repos/Kupferhirn/mineflayer/subscribers",
            "subscription_url": "https://api.github.com/repos/Kupferhirn/mineflayer/subscription",
            "svn_url": "https://github.com/Kupferhirn/mineflayer",
            "tags_url": "https://api.github.com/repos/Kupferhirn/mineflayer/tags",
            "teams_url": "https://api.github.com/repos/Kupferhirn/mineflayer/teams",
            "topics": [],
            "trees_url": "https://api.github.com/repos/Kupferhirn/mineflayer/git/trees{/sha}",
            "updated_at": "2015-03-22T20:08:13Z",
            "url": "https://api.github.com/repos/Kupferhirn/mineflayer",
            "visibility": "public",
            "watchers": 0,
            "watchers_count": 0,
            "web_commit_signoff_required": false
        },
        "sha": "73dba2be75f7ac1429bcc1230faab38f00c79bbf",
        "user": {
            "avatar_url": "https://avatars.githubusercontent.com/u/3944524?v=4",
            "events_url": "https://api.github.com/users/Kupferhirn/events{/privacy}",
            "followers_url": "https://api.github.com/users/Kupferhirn/followers",
            "following_url": "https://api.github.com/users/Kupferhirn/following{/other_user}",
            "gists_url": "https://api.github.com/users/Kupferhirn/gists{/gist_id}",
            "gravatar_id": "",
            "html_url": "https://github.com/Kupferhirn",
            "id": 3944524,
            "login": "Kupferhirn",
            "node_id": "MDQ6VXNlcjM5NDQ1MjQ=",
            "organizations_url": "https://api.github.com/users/Kupferhirn/orgs",
            "received_events_url": "https://api.github.com/users/Kupferhirn/received_events",
            "repos_url": "https://api.github.com/users/Kupferhirn/repos",
            "site_admin": false,
            "starred_url": "https://api.github.com/users/Kupferhirn/starred{/owner}{/repo}",
            "subscriptions_url": "https://api.github.com/users/Kupferhirn/subscriptions",
            "type": "User",
            "url": "https://api.github.com/users/Kupferhirn"
        }
    },
    "html_url": "https://github.com/PrismarineJS/mineflayer/pull/227",
    "id": 31689368,
    "issue_url": "https://api.github.com/repos/PrismarineJS/mineflayer/issues/227",
    "labels": [],
    "locked": false,
    "maintainer_can_modify": false,
    "merge_commit_sha": "25dbe456df30a9101bbca200687f4e79323f2c2f",
    "mergeable": null,
    "mergeable_state": "unknown",
    "merged": true,
    "merged_at": "2015-03-22T18:02:27Z",
    "merged_by": {
        "avatar_url": "https://avatars.githubusercontent.com/u/2346494?v=4",
        "events_url": "https://api.github.com/users/rom1504/events{/privacy}",
        "followers_url": "https://api.github.com/users/rom1504/followers",
        "following_url": "https://api.github.com/users/rom1504/following{/other_user}",
        "gists_url": "https://api.github.com/users/rom1504/gists{/gist_id}",
        "gravatar_id": "",
        "html_url": "https://github.com/rom1504",
        "id": 2346494,
        "login": "rom1504",
        "node_id": "MDQ6VXNlcjIzNDY0OTQ=",
        "organizations_url": "https://api.github.com/users/rom1504/orgs",
        "received_events_url": "https://api.github.com/users/rom1504/received_events",
        "repos_url": "https://api.github.com/users/rom1504/repos",
        "site_admin": false,
        "starred_url": "https://api.github.com/users/rom1504/starred{/owner}{/repo}",
        "subscriptions_url": "https://api.github.com/users/rom1504/subscriptions",
        "type": "User",
        "url": "https://api.github.com/users/rom1504"
    },
    "milestone": null,
    "node_id": "MDExOlB1bGxSZXF1ZXN0MzE2ODkzNjg=",
    "number": 227,
    "patch_url": "https://github.com/PrismarineJS/mineflayer/pull/227.patch",
    "rebaseable": null,
    "requested_reviewers": [],
    "requested_teams": [],
    "review_comment_url": "https://api.github.com/repos/PrismarineJS/mineflayer/pulls/comments{/number}",
    "review_comments": 0,
    "review_comments_url": "https://api.github.com/repos/PrismarineJS/mineflayer/pulls/227/comments",
    "state": "closed",
    "statuses_url": "https://api.github.com/repos/PrismarineJS/mineflayer/statuses/73dba2be75f7ac1429bcc1230faab38f00c79bbf",
    "title": "Update items enum for 1.8",
    "updated_at": "2015-03-22T18:02:27Z",
    "url": "https://api.github.com/repos/PrismarineJS/mineflayer/pulls/227",
    "user": {
        "avatar_url": "https://avatars.githubusercontent.com/u/3944524?v=4",
        "events_url": "https://api.github.com/users/Kupferhirn/events{/privacy}",
        "followers_url": "https://api.github.com/users/Kupferhirn/followers",
        "following_url": "https://api.github.com/users/Kupferhirn/following{/other_user}",
        "gists_url": "https://api.github.com/users/Kupferhirn/gists{/gist_id}",
        "gravatar_id": "",
        "html_url": "https://github.com/Kupferhirn",
        "id": 3944524,
        "login": "Kupferhirn",
        "node_id": "MDQ6VXNlcjM5NDQ1MjQ=",
        "organizations_url": "https://api.github.com/users/Kupferhirn/orgs",
        "received_events_url": "https://api.github.com/users/Kupferhirn/received_events",
        "repos_url": "https://api.github.com/users/Kupferhirn/repos",
        "site_admin": false,
        "starred_url": "https://api.github.com/users/Kupferhirn/starred{/owner}{/repo}",
        "subscriptions_url": "https://api.github.com/users/Kupferhirn/subscriptions",
        "type": "User",
        "url": "https://api.github.com/users/Kupferhirn"
    }
}