{
    "_links": {
        "comments": {
            "href": "https://api.github.com/repos/PrismarineJS/mineflayer/issues/255/comments"
        },
        "commits": {
            "href": "https://api.github.com/repos/PrismarineJS/mineflayer/pulls/255/commits"
        },
        "html": {
            "href": "https://github.com/PrismarineJS/mineflayer/pull/255"
        },
        "issue": {
            "href": "https://api.github.com/repos/PrismarineJS/mineflayer/issues/255"
        },
        "review_comment": {
            "href": "https://api.github.com/repos/PrismarineJS/mineflayer/pulls/comments{/number}"
        },
        "review_comments": {
            "href": "https://api.github.com/repos/PrismarineJS/mineflayer/pulls/255/comments"
        },
        "self": {
            "href": "https://api.github.com/repos/PrismarineJS/mineflayer/pulls/255"
        },
        "statuses": {
            "href": "https://api.github.com/repos/PrismarineJS/mineflayer/statuses/68125fee73afd9d561c518eb48912a0682818ee6"
        }
    },
    "active_lock_reason": null,
    "additions": 17,
    "assignee": null,
    "assignees": [],
    "author_association": "CONTRIBUTOR",
    "auto_merge": null,
    "base": {
        "label": "PrismarineJS:master",
        "ref": "master",
        "repo": {
            "allow_forking": true,
            "archive_url": "https://api.github.com/repos/PrismarineJS/mineflayer/{archive_format}{/ref}",
            "archived": false,
            "assignees_url": "https://api.github.com/repos/PrismarineJS/mineflayer/assignees{/user}",
            "blobs_url": "https://api.github.com/repos/PrismarineJS/mineflayer/git/blobs{/sha}",
            "branches_url": "https://api.github.com/repos/PrismarineJS/mineflayer/branches{/branch}",
            "clone_url": "https://github.com/PrismarineJS/mineflayer.git",
            "collaborators_url": "https://api.github.com/repos/PrismarineJS/mineflayer/collaborators{/collaborator}",
            "comments_url": "https://api.github.com/repos/PrismarineJS/mineflayer/comments{/number}",
            "commits_url": "https://api.github.com/repos/PrismarineJS/mineflayer/commits{/sha}",
            "compare_url": "https://api.github.com/repos/PrismarineJS/mineflayer/compare/{base}...{head}",
            "contents_url": "https://api.github.com/repos/PrismarineJS/mineflayer/contents/{+path}",
            "contributors_url": "https://api.github.com/repos/PrismarineJS/mineflayer/contributors",
            "created_at": "2011-01-23T09:41:55Z",
            "default_branch": "master",
            "deployments_url": "https://api.github.com/repos/PrismarineJS/mineflayer/deployments",
            "description": "Create Minecraft bots with a powerful, stable, and high level JavaScript API.",
            "disabled": false,
            "downloads_url": "https://api.github.com/repos/PrismarineJS/mineflayer/downloads",
            "events_url": "https://api.github.com/repos/PrismarineJS/mineflayer/events",
            "fork": false,
            "forks": 748,
            "forks_count": 748,
            "forks_url": "https://api.github.com/repos/PrismarineJS/mineflayer/forks",
            "full_name": "PrismarineJS/mineflayer",
            "git_commits_url": "https://api.github.com/repos/PrismarineJS/mineflayer/git/commits{/sha}",
            "git_refs_url": "https://api.github.com/repos/PrismarineJS/mineflayer/git/refs{/sha}",
            "git_tags_url": "https://api.github.com/repos/PrismarineJS/mineflayer/git/tags{/sha}",
            "git_url": "git://github.com/PrismarineJS/mineflayer.git",
            "has_discussions": true,
            "has_downloads": true,
            "has_issues": true,
            "has_pages": true,
            "has_projects": true,
            "has_wiki": true,
            "homepage": "https://prismarinejs.github.io/mineflayer/",
            "hooks_url": "https://api.github.com/repos/PrismarineJS/mineflayer/hooks",
            "html_url": "https://github.com/PrismarineJS/mineflayer",
            "id": 1284185,
            "is_template": false,
            "issue_comment_url": "https://api.github.com/repos/PrismarineJS/mineflayer/issues/comments{/number}",
            "issue_events_url": "https://api.github.com/repos/PrismarineJS/mineflayer/issues/events{/number}",
            "issues_url": "https://api.github.com/repos/PrismarineJS/mineflayer/issues{/number}",
            "keys_url": "https://api.github.com/repos/PrismarineJS/mineflayer/keys{/key_id}",
            "labels_url": "https://api.github.com/repos/PrismarineJS/mineflayer/labels{/name}",
            "language": "JavaScript",
            "languages_url": "https://api.github.com/repos/PrismarineJS/mineflayer/languages",
            "license": {
                "key": "mit",
                "name": "MIT License",
                "node_id": "MDc6TGljZW5zZTEz",
                "spdx_id": "MIT",
                "url": "https://api.github.com/licenses/mit"
            },
            "merges_url": "https://api.github.com/repos/PrismarineJS/mineflayer/merges",
            "milestones_url": "https://api.github.com/repos/PrismarineJS/mineflayer/milestones{/number}",
            "mirror_url": null,
            "name": "mineflayer",
            "node_id": "MDEwOlJlcG9zaXRvcnkxMjg0MTg1",
            "notifications_url": "https://api.github.com/repos/PrismarineJS/mineflayer/notifications{?since,all,participating}",
            "open_issues": 269,
            "open_issues_count": 269,
            "owner": {
                "avatar_url": "https://avatars.githubusercontent.com/u/11053411?v=4",
                "events_url": "https://api.github.com/users/PrismarineJS/events{/privacy}",
                "followers_url": "https://api.github.com/users/PrismarineJS/followers",
                "following_url": "https://api.github.com/users/PrismarineJS/following{/other_user}",
                "gists_url": "https://api.github.com/users/PrismarineJS/gists{/gist_id}",
                "gravatar_id": "",
                "html_url": "https://github.com/PrismarineJS",
                "id": 11053411,
                "login": "PrismarineJS",
                "node_id": "MDEyOk9yZ2FuaXphdGlvbjExMDUzNDEx",
                "organizations_url": "https://api.github.com/users/PrismarineJS/orgs",
                "received_events_url": "https://api.github.com/users/PrismarineJS/received_events",
                "repos_url": "https://api.github.com/users/PrismarineJS/repos",
                "site_admin": false,
                "starred_url": "https://api.github.com/users/PrismarineJS/starred{/owner}{/repo}",
                "subscriptions_url": "https://api.github.com/users/PrismarineJS/subscriptions",
                "type": "Organization",
                "url": "https://api.github.com/users/PrismarineJS"
            },
            "private": false,
            "pulls_url": "https://api.github.com/repos/PrismarineJS/mineflayer/pulls{/number}",
            "pushed_at": "2023-04-25T00:44:52Z",
            "releases_url": "https://api.github.com/repos/PrismarineJS/mineflayer/releases{/id}",
            "size": 12493,
            "ssh_url": "git@github.com:PrismarineJS/mineflayer.git",
            "stargazers_count": 3698,
            "stargazers_url": "https://api.github.com/repos/PrismarineJS/mineflayer/stargazers",
            "statuses_url": "https://api.github.com/repos/PrismarineJS/mineflayer/statuses/{sha}",
            "subscribers_url": "https://api.github.com/repos/PrismarineJS/mineflayer/subscribers",
            "subscription_url": "https://api.github.com/repos/PrismarineJS/mineflayer/subscription",
            "svn_url": "https://github.com/PrismarineJS/mineflayer",
            "tags_url": "https://api.github.com/repos/PrismarineJS/mineflayer/tags",
            "teams_url": "https://api.github.com/repos/PrismarineJS/mineflayer/teams",
            "topics": [
                "bot",
                "minecraft",
                "minecraft-api",
                "minecraft-bot",
                "network",
                "nodejs"
            ],
            "trees_url": "https://api.github.com/repos/PrismarineJS/mineflayer/git/trees{/sha}",
            "updated_at": "2023-04-25T14:07:03Z",
            "url": "https://api.github.com/repos/PrismarineJS/mineflayer",
            "visibility": "public",
            "watchers": 3698,
            "watchers_count": 3698,
            "web_commit_signoff_required": false
        },
        "sha": "91b1100a1f793030250af3409de86b5359f699ce",
        "user": {
            "avatar_url": "https://avatars.githubusercontent.com/u/11053411?v=4",
            "events_url": "https://api.github.com/users/PrismarineJS/events{/privacy}",
            "followers_url": "https://api.github.com/users/PrismarineJS/followers",
            "following_url": "https://api.github.com/users/PrismarineJS/following{/other_user}",
            "gists_url": "https://api.github.com/users/PrismarineJS/gists{/gist_id}",
            "gravatar_id": "",
            "html_url": "https://github.com/PrismarineJS",
            "id": 11053411,
            "login": "PrismarineJS",
            "node_id": "MDEyOk9yZ2FuaXphdGlvbjExMDUzNDEx",
            "organizations_url": "https://api.github.com/users/PrismarineJS/orgs",
            "received_events_url": "https://api.github.com/users/PrismarineJS/received_events",
            "repos_url": "https://api.github.com/users/PrismarineJS/repos",
            "site_admin": false,
            "starred_url": "https://api.github.com/users/PrismarineJS/starred{/owner}{/repo}",
            "subscriptions_url": "https://api.github.com/users/PrismarineJS/subscriptions",
            "type": "Organization",
            "url": "https://api.github.com/users/PrismarineJS"
        }
    },
    "body": "Also made a minor fix to api.md which was bugging me.\n\nI needed to be able to access the recipe of a crafting table before I had made the planks (using Dutie). This seemed to be the best solution. It just doesn't check on wether the bot has enough materials or not.\n",
    "changed_files": 2,
    "closed_at": "2015-04-05T20:51:28Z",
    "comment_data": [
        {
            "_links": {
                "html": {
                    "href": "https://github.com/PrismarineJS/mineflayer/pull/255#discussion_r27775959"
                },
                "pull_request": {
                    "href": "https://api.github.com/repos/PrismarineJS/mineflayer/pulls/255"
                },
                "self": {
                    "href": "https://api.github.com/repos/PrismarineJS/mineflayer/pulls/comments/27775959"
                }
            },
            "author_association": "MEMBER",
            "body": "Woops, should be bot.recipesAll ^^\n",
            "commit_id": "68125fee73afd9d561c518eb48912a0682818ee6",
            "created_at": "2015-04-05T09:15:30Z",
            "diff_hunk": "@@ -1180,6 +1181,10 @@ with `metadata`.\n  * `craftingTable` - a `Block` instance. If `null`, only recipes that can\n    be performed in your inventory window will be included in the list.\n \n+#### bot.recipesFor(itemType, metadata, craftingTable)",
            "html_url": "https://github.com/PrismarineJS/mineflayer/pull/255#discussion_r27775959",
            "id": 27775959,
            "line": null,
            "node_id": "MDI0OlB1bGxSZXF1ZXN0UmV2aWV3Q29tbWVudDI3Nzc1OTU5",
            "original_commit_id": "d0d309fbb5b0db9c4bd576a762df714b69dd0e60",
            "original_line": null,
            "original_position": 12,
            "original_start_line": null,
            "path": "doc/api.md",
            "position": null,
            "pull_request_review_id": null,
            "pull_request_url": "https://api.github.com/repos/PrismarineJS/mineflayer/pulls/255",
            "reactions": {
                "+1": 0,
                "-1": 0,
                "confused": 0,
                "eyes": 0,
                "heart": 0,
                "hooray": 0,
                "laugh": 0,
                "rocket": 0,
                "total_count": 0,
                "url": "https://api.github.com/repos/PrismarineJS/mineflayer/pulls/comments/27775959/reactions"
            },
            "side": "RIGHT",
            "start_line": null,
            "start_side": null,
            "subject_type": "line",
            "updated_at": "2015-04-05T09:17:02Z",
            "url": "https://api.github.com/repos/PrismarineJS/mineflayer/pulls/comments/27775959",
            "user": {
                "avatar_url": "https://avatars.githubusercontent.com/u/1069318?v=4",
                "events_url": "https://api.github.com/users/roblabla/events{/privacy}",
                "followers_url": "https://api.github.com/users/roblabla/followers",
                "following_url": "https://api.github.com/users/roblabla/following{/other_user}",
                "gists_url": "https://api.github.com/users/roblabla/gists{/gist_id}",
                "gravatar_id": "",
                "html_url": "https://github.com/roblabla",
                "id": 1069318,
                "login": "roblabla",
                "node_id": "MDQ6VXNlcjEwNjkzMTg=",
                "organizations_url": "https://api.github.com/users/roblabla/orgs",
                "received_events_url": "https://api.github.com/users/roblabla/received_events",
                "repos_url": "https://api.github.com/users/roblabla/repos",
                "site_admin": false,
                "starred_url": "https://api.github.com/users/roblabla/starred{/owner}{/repo}",
                "subscriptions_url": "https://api.github.com/users/roblabla/subscriptions",
                "type": "User",
                "url": "https://api.github.com/users/roblabla"
            }
        }
    ],
    "comment_regular_data": [
        {
            "author_association": "MEMBER",
            "body": "[Recipe.find](https://github.com/andrewrk/mineflayer/blob/master/doc/api.md#recipefinditemtype-metadata) is basically the same thing as your recipesAll.\nI'm okay with the api.md change about force, it would be easier if it was in an other PR (you should use branches on your fork to do different PRs)\n",
            "created_at": "2015-04-05T12:13:31Z",
            "html_url": "https://github.com/PrismarineJS/mineflayer/pull/255#issuecomment-89757689",
            "id": 89757689,
            "issue_url": "https://api.github.com/repos/PrismarineJS/mineflayer/issues/255",
            "node_id": "MDEyOklzc3VlQ29tbWVudDg5NzU3Njg5",
            "performed_via_github_app": null,
            "reactions": {
                "+1": 0,
                "-1": 0,
                "confused": 0,
                "eyes": 0,
                "heart": 0,
                "hooray": 0,
                "laugh": 0,
                "rocket": 0,
                "total_count": 0,
                "url": "https://api.github.com/repos/PrismarineJS/mineflayer/issues/comments/89757689/reactions"
            },
            "updated_at": "2015-04-05T12:13:43Z",
            "url": "https://api.github.com/repos/PrismarineJS/mineflayer/issues/comments/89757689",
            "user": {
                "avatar_url": "https://avatars.githubusercontent.com/u/2346494?v=4",
                "events_url": "https://api.github.com/users/rom1504/events{/privacy}",
                "followers_url": "https://api.github.com/users/rom1504/followers",
                "following_url": "https://api.github.com/users/rom1504/following{/other_user}",
                "gists_url": "https://api.github.com/users/rom1504/gists{/gist_id}",
                "gravatar_id": "",
                "html_url": "https://github.com/rom1504",
                "id": 2346494,
                "login": "rom1504",
                "node_id": "MDQ6VXNlcjIzNDY0OTQ=",
                "organizations_url": "https://api.github.com/users/rom1504/orgs",
                "received_events_url": "https://api.github.com/users/rom1504/received_events",
                "repos_url": "https://api.github.com/users/rom1504/repos",
                "site_admin": false,
                "starred_url": "https://api.github.com/users/rom1504/starred{/owner}{/repo}",
                "subscriptions_url": "https://api.github.com/users/rom1504/subscriptions",
                "type": "User",
                "url": "https://api.github.com/users/rom1504"
            }
        },
        {
            "author_association": "MEMBER",
            "body": "We could add a requirementsMetForRecipe boolean parameter to recipesFor if you want instead ?\n",
            "created_at": "2015-04-05T12:34:22Z",
            "html_url": "https://github.com/PrismarineJS/mineflayer/pull/255#issuecomment-89763238",
            "id": 89763238,
            "issue_url": "https://api.github.com/repos/PrismarineJS/mineflayer/issues/255",
            "node_id": "MDEyOklzc3VlQ29tbWVudDg5NzYzMjM4",
            "performed_via_github_app": null,
            "reactions": {
                "+1": 0,
                "-1": 0,
                "confused": 0,
                "eyes": 0,
                "heart": 0,
                "hooray": 0,
                "laugh": 0,
                "rocket": 0,
                "total_count": 0,
                "url": "https://api.github.com/repos/PrismarineJS/mineflayer/issues/comments/89763238/reactions"
            },
            "updated_at": "2015-04-05T12:34:22Z",
            "url": "https://api.github.com/repos/PrismarineJS/mineflayer/issues/comments/89763238",
            "user": {
                "avatar_url": "https://avatars.githubusercontent.com/u/2346494?v=4",
                "events_url": "https://api.github.com/users/rom1504/events{/privacy}",
                "followers_url": "https://api.github.com/users/rom1504/followers",
                "following_url": "https://api.github.com/users/rom1504/following{/other_user}",
                "gists_url": "https://api.github.com/users/rom1504/gists{/gist_id}",
                "gravatar_id": "",
                "html_url": "https://github.com/rom1504",
                "id": 2346494,
                "login": "rom1504",
                "node_id": "MDQ6VXNlcjIzNDY0OTQ=",
                "organizations_url": "https://api.github.com/users/rom1504/orgs",
                "received_events_url": "https://api.github.com/users/rom1504/received_events",
                "repos_url": "https://api.github.com/users/rom1504/repos",
                "site_admin": false,
                "starred_url": "https://api.github.com/users/rom1504/starred{/owner}{/repo}",
                "subscriptions_url": "https://api.github.com/users/rom1504/subscriptions",
                "type": "User",
                "url": "https://api.github.com/users/rom1504"
            }
        },
        {
            "author_association": "CONTRIBUTOR",
            "body": "I didn't want to add a parameters because I still wanted to be able to check for the crafting table (to better organize the possible recipes) as well as make it easier to understand when reading people's codes.\n\nI don't want to use Recipe.find due to reasons of having to pass through a function rather than easily receiving an array. Otherwise it'd just be remaking a function that would always do the same thing.\n",
            "created_at": "2015-04-05T20:24:11Z",
            "html_url": "https://github.com/PrismarineJS/mineflayer/pull/255#issuecomment-89846885",
            "id": 89846885,
            "issue_url": "https://api.github.com/repos/PrismarineJS/mineflayer/issues/255",
            "node_id": "MDEyOklzc3VlQ29tbWVudDg5ODQ2ODg1",
            "performed_via_github_app": null,
            "reactions": {
                "+1": 0,
                "-1": 0,
                "confused": 0,
                "eyes": 0,
                "heart": 0,
                "hooray": 0,
                "laugh": 0,
                "rocket": 0,
                "total_count": 0,
                "url": "https://api.github.com/repos/PrismarineJS/mineflayer/issues/comments/89846885/reactions"
            },
            "updated_at": "2015-04-05T20:24:11Z",
            "url": "https://api.github.com/repos/PrismarineJS/mineflayer/issues/comments/89846885",
            "user": {
                "avatar_url": "https://avatars.githubusercontent.com/u/7506359?v=4",
                "events_url": "https://api.github.com/users/demipixel/events{/privacy}",
                "followers_url": "https://api.github.com/users/demipixel/followers",
                "following_url": "https://api.github.com/users/demipixel/following{/other_user}",
                "gists_url": "https://api.github.com/users/demipixel/gists{/gist_id}",
                "gravatar_id": "",
                "html_url": "https://github.com/demipixel",
                "id": 7506359,
                "login": "demipixel",
                "node_id": "MDQ6VXNlcjc1MDYzNTk=",
                "organizations_url": "https://api.github.com/users/demipixel/orgs",
                "received_events_url": "https://api.github.com/users/demipixel/received_events",
                "repos_url": "https://api.github.com/users/demipixel/repos",
                "site_admin": false,
                "starred_url": "https://api.github.com/users/demipixel/starred{/owner}{/repo}",
                "subscriptions_url": "https://api.github.com/users/demipixel/subscriptions",
                "type": "User",
                "url": "https://api.github.com/users/demipixel"
            }
        },
        {
            "author_association": "MEMBER",
            "body": "Okay I guess it doesn't hurt to have one more function for this. Merging.\n",
            "created_at": "2015-04-05T20:51:22Z",
            "html_url": "https://github.com/PrismarineJS/mineflayer/pull/255#issuecomment-89848867",
            "id": 89848867,
            "issue_url": "https://api.github.com/repos/PrismarineJS/mineflayer/issues/255",
            "node_id": "MDEyOklzc3VlQ29tbWVudDg5ODQ4ODY3",
            "performed_via_github_app": null,
            "reactions": {
                "+1": 0,
                "-1": 0,
                "confused": 0,
                "eyes": 0,
                "heart": 0,
                "hooray": 0,
                "laugh": 0,
                "rocket": 0,
                "total_count": 0,
                "url": "https://api.github.com/repos/PrismarineJS/mineflayer/issues/comments/89848867/reactions"
            },
            "updated_at": "2015-04-05T20:51:22Z",
            "url": "https://api.github.com/repos/PrismarineJS/mineflayer/issues/comments/89848867",
            "user": {
                "avatar_url": "https://avatars.githubusercontent.com/u/2346494?v=4",
                "events_url": "https://api.github.com/users/rom1504/events{/privacy}",
                "followers_url": "https://api.github.com/users/rom1504/followers",
                "following_url": "https://api.github.com/users/rom1504/following{/other_user}",
                "gists_url": "https://api.github.com/users/rom1504/gists{/gist_id}",
                "gravatar_id": "",
                "html_url": "https://github.com/rom1504",
                "id": 2346494,
                "login": "rom1504",
                "node_id": "MDQ6VXNlcjIzNDY0OTQ=",
                "organizations_url": "https://api.github.com/users/rom1504/orgs",
                "received_events_url": "https://api.github.com/users/rom1504/received_events",
                "repos_url": "https://api.github.com/users/rom1504/repos",
                "site_admin": false,
                "starred_url": "https://api.github.com/users/rom1504/starred{/owner}{/repo}",
                "subscriptions_url": "https://api.github.com/users/rom1504/subscriptions",
                "type": "User",
                "url": "https://api.github.com/users/rom1504"
            }
        }
    ],
    "comments": 4,
    "comments_url": "https://api.github.com/repos/PrismarineJS/mineflayer/issues/255/comments",
    "commit_data": [
        {
            "author": {
                "avatar_url": "https://avatars.githubusercontent.com/u/7506359?v=4",
                "events_url": "https://api.github.com/users/demipixel/events{/privacy}",
                "followers_url": "https://api.github.com/users/demipixel/followers",
                "following_url": "https://api.github.com/users/demipixel/following{/other_user}",
                "gists_url": "https://api.github.com/users/demipixel/gists{/gist_id}",
                "gravatar_id": "",
                "html_url": "https://github.com/demipixel",
                "id": 7506359,
                "login": "demipixel",
                "node_id": "MDQ6VXNlcjc1MDYzNTk=",
                "organizations_url": "https://api.github.com/users/demipixel/orgs",
                "received_events_url": "https://api.github.com/users/demipixel/received_events",
                "repos_url": "https://api.github.com/users/demipixel/repos",
                "site_admin": false,
                "starred_url": "https://api.github.com/users/demipixel/starred{/owner}{/repo}",
                "subscriptions_url": "https://api.github.com/users/demipixel/subscriptions",
                "type": "User",
                "url": "https://api.github.com/users/demipixel"
            },
            "comments_url": "https://api.github.com/repos/PrismarineJS/mineflayer/commits/d0d309fbb5b0db9c4bd576a762df714b69dd0e60/comments",
            "commit": {
                "author": {
                    "date": "2015-04-05T09:06:29Z",
                    "email": "luke5227@gmail.com",
                    "name": "DemiPixel"
                },
                "comment_count": 0,
                "committer": {
                    "date": "2015-04-05T09:06:29Z",
                    "email": "luke5227@gmail.com",
                    "name": "DemiPixel"
                },
                "message": "added bot.recipesAll()",
                "tree": {
                    "sha": "8216e29bf8228aaafeca97aa76a91bfb520c1665",
                    "url": "https://api.github.com/repos/PrismarineJS/mineflayer/git/trees/8216e29bf8228aaafeca97aa76a91bfb520c1665"
                },
                "url": "https://api.github.com/repos/PrismarineJS/mineflayer/git/commits/d0d309fbb5b0db9c4bd576a762df714b69dd0e60",
                "verification": {
                    "payload": null,
                    "reason": "unsigned",
                    "signature": null,
                    "verified": false
                }
            },
            "committer": {
                "avatar_url": "https://avatars.githubusercontent.com/u/7506359?v=4",
                "events_url": "https://api.github.com/users/demipixel/events{/privacy}",
                "followers_url": "https://api.github.com/users/demipixel/followers",
                "following_url": "https://api.github.com/users/demipixel/following{/other_user}",
                "gists_url": "https://api.github.com/users/demipixel/gists{/gist_id}",
                "gravatar_id": "",
                "html_url": "https://github.com/demipixel",
                "id": 7506359,
                "login": "demipixel",
                "node_id": "MDQ6VXNlcjc1MDYzNTk=",
                "organizations_url": "https://api.github.com/users/demipixel/orgs",
                "received_events_url": "https://api.github.com/users/demipixel/received_events",
                "repos_url": "https://api.github.com/users/demipixel/repos",
                "site_admin": false,
                "starred_url": "https://api.github.com/users/demipixel/starred{/owner}{/repo}",
                "subscriptions_url": "https://api.github.com/users/demipixel/subscriptions",
                "type": "User",
                "url": "https://api.github.com/users/demipixel"
            },
            "html_url": "https://github.com/PrismarineJS/mineflayer/commit/d0d309fbb5b0db9c4bd576a762df714b69dd0e60",
            "node_id": "MDY6Q29tbWl0MTI4NDE4NTpkMGQzMDlmYmI1YjBkYjljNGJkNTc2YTc2MmRmNzE0YjY5ZGQwZTYw",
            "parents": [
                {
                    "html_url": "https://github.com/PrismarineJS/mineflayer/commit/91b1100a1f793030250af3409de86b5359f699ce",
                    "sha": "91b1100a1f793030250af3409de86b5359f699ce",
                    "url": "https://api.github.com/repos/PrismarineJS/mineflayer/commits/91b1100a1f793030250af3409de86b5359f699ce"
                }
            ],
            "sha": "d0d309fbb5b0db9c4bd576a762df714b69dd0e60",
            "url": "https://api.github.com/repos/PrismarineJS/mineflayer/commits/d0d309fbb5b0db9c4bd576a762df714b69dd0e60"
        },
        {
            "author": {
                "avatar_url": "https://avatars.githubusercontent.com/u/7506359?v=4",
                "events_url": "https://api.github.com/users/demipixel/events{/privacy}",
                "followers_url": "https://api.github.com/users/demipixel/followers",
                "following_url": "https://api.github.com/users/demipixel/following{/other_user}",
                "gists_url": "https://api.github.com/users/demipixel/gists{/gist_id}",
                "gravatar_id": "",
                "html_url": "https://github.com/demipixel",
                "id": 7506359,
                "login": "demipixel",
                "node_id": "MDQ6VXNlcjc1MDYzNTk=",
                "organizations_url": "https://api.github.com/users/demipixel/orgs",
                "received_events_url": "https://api.github.com/users/demipixel/received_events",
                "repos_url": "https://api.github.com/users/demipixel/repos",
                "site_admin": false,
                "starred_url": "https://api.github.com/users/demipixel/starred{/owner}{/repo}",
                "subscriptions_url": "https://api.github.com/users/demipixel/subscriptions",
                "type": "User",
                "url": "https://api.github.com/users/demipixel"
            },
            "comments_url": "https://api.github.com/repos/PrismarineJS/mineflayer/commits/68125fee73afd9d561c518eb48912a0682818ee6/comments",
            "commit": {
                "author": {
                    "date": "2015-04-05T09:16:59Z",
                    "email": "luke5227@gmail.com",
                    "name": "DemiPixel"
                },
                "comment_count": 0,
                "committer": {
                    "date": "2015-04-05T09:16:59Z",
                    "email": "luke5227@gmail.com",
                    "name": "DemiPixel"
                },
                "message": "fix in docs",
                "tree": {
                    "sha": "1e717d739a89c887d7c52876f01d1d9b9037a433",
                    "url": "https://api.github.com/repos/PrismarineJS/mineflayer/git/trees/1e717d739a89c887d7c52876f01d1d9b9037a433"
                },
                "url": "https://api.github.com/repos/PrismarineJS/mineflayer/git/commits/68125fee73afd9d561c518eb48912a0682818ee6",
                "verification": {
                    "payload": null,
                    "reason": "unsigned",
                    "signature": null,
                    "verified": false
                }
            },
            "committer": {
                "avatar_url": "https://avatars.githubusercontent.com/u/7506359?v=4",
                "events_url": "https://api.github.com/users/demipixel/events{/privacy}",
                "followers_url": "https://api.github.com/users/demipixel/followers",
                "following_url": "https://api.github.com/users/demipixel/following{/other_user}",
                "gists_url": "https://api.github.com/users/demipixel/gists{/gist_id}",
                "gravatar_id": "",
                "html_url": "https://github.com/demipixel",
                "id": 7506359,
                "login": "demipixel",
                "node_id": "MDQ6VXNlcjc1MDYzNTk=",
                "organizations_url": "https://api.github.com/users/demipixel/orgs",
                "received_events_url": "https://api.github.com/users/demipixel/received_events",
                "repos_url": "https://api.github.com/users/demipixel/repos",
                "site_admin": false,
                "starred_url": "https://api.github.com/users/demipixel/starred{/owner}{/repo}",
                "subscriptions_url": "https://api.github.com/users/demipixel/subscriptions",
                "type": "User",
                "url": "https://api.github.com/users/demipixel"
            },
            "html_url": "https://github.com/PrismarineJS/mineflayer/commit/68125fee73afd9d561c518eb48912a0682818ee6",
            "node_id": "MDY6Q29tbWl0MTI4NDE4NTo2ODEyNWZlZTczYWZkOWQ1NjFjNTE4ZWI0ODkxMmEwNjgyODE4ZWU2",
            "parents": [
                {
                    "html_url": "https://github.com/PrismarineJS/mineflayer/commit/d0d309fbb5b0db9c4bd576a762df714b69dd0e60",
                    "sha": "d0d309fbb5b0db9c4bd576a762df714b69dd0e60",
                    "url": "https://api.github.com/repos/PrismarineJS/mineflayer/commits/d0d309fbb5b0db9c4bd576a762df714b69dd0e60"
                }
            ],
            "sha": "68125fee73afd9d561c518eb48912a0682818ee6",
            "url": "https://api.github.com/repos/PrismarineJS/mineflayer/commits/68125fee73afd9d561c518eb48912a0682818ee6"
        }
    ],
    "commits": 2,
    "commits_url": "https://api.github.com/repos/PrismarineJS/mineflayer/pulls/255/commits",
    "created_at": "2015-04-05T09:09:20Z",
    "deletions": 1,
    "diff_url": "https://github.com/PrismarineJS/mineflayer/pull/255.diff",
    "draft": false,
    "head": {
        "label": "demipixel:master",
        "ref": "master",
        "repo": null,
        "sha": "68125fee73afd9d561c518eb48912a0682818ee6",
        "user": {
            "avatar_url": "https://avatars.githubusercontent.com/u/7506359?v=4",
            "events_url": "https://api.github.com/users/demipixel/events{/privacy}",
            "followers_url": "https://api.github.com/users/demipixel/followers",
            "following_url": "https://api.github.com/users/demipixel/following{/other_user}",
            "gists_url": "https://api.github.com/users/demipixel/gists{/gist_id}",
            "gravatar_id": "",
            "html_url": "https://github.com/demipixel",
            "id": 7506359,
            "login": "demipixel",
            "node_id": "MDQ6VXNlcjc1MDYzNTk=",
            "organizations_url": "https://api.github.com/users/demipixel/orgs",
            "received_events_url": "https://api.github.com/users/demipixel/received_events",
            "repos_url": "https://api.github.com/users/demipixel/repos",
            "site_admin": false,
            "starred_url": "https://api.github.com/users/demipixel/starred{/owner}{/repo}",
            "subscriptions_url": "https://api.github.com/users/demipixel/subscriptions",
            "type": "User",
            "url": "https://api.github.com/users/demipixel"
        }
    },
    "html_url": "https://github.com/PrismarineJS/mineflayer/pull/255",
    "id": 32646279,
    "issue_url": "https://api.github.com/repos/PrismarineJS/mineflayer/issues/255",
    "labels": [],
    "locked": false,
    "maintainer_can_modify": false,
    "merge_commit_sha": "61df97ffdc4e2f711ce9250587afd264319d465b",
    "mergeable": null,
    "mergeable_state": "unknown",
    "merged": true,
    "merged_at": "2015-04-05T20:51:28Z",
    "merged_by": {
        "avatar_url": "https://avatars.githubusercontent.com/u/2346494?v=4",
        "events_url": "https://api.github.com/users/rom1504/events{/privacy}",
        "followers_url": "https://api.github.com/users/rom1504/followers",
        "following_url": "https://api.github.com/users/rom1504/following{/other_user}",
        "gists_url": "https://api.github.com/users/rom1504/gists{/gist_id}",
        "gravatar_id": "",
        "html_url": "https://github.com/rom1504",
        "id": 2346494,
        "login": "rom1504",
        "node_id": "MDQ6VXNlcjIzNDY0OTQ=",
        "organizations_url": "https://api.github.com/users/rom1504/orgs",
        "received_events_url": "https://api.github.com/users/rom1504/received_events",
        "repos_url": "https://api.github.com/users/rom1504/repos",
        "site_admin": false,
        "starred_url": "https://api.github.com/users/rom1504/starred{/owner}{/repo}",
        "subscriptions_url": "https://api.github.com/users/rom1504/subscriptions",
        "type": "User",
        "url": "https://api.github.com/users/rom1504"
    },
    "milestone": null,
    "node_id": "MDExOlB1bGxSZXF1ZXN0MzI2NDYyNzk=",
    "number": 255,
    "patch_url": "https://github.com/PrismarineJS/mineflayer/pull/255.patch",
    "rebaseable": null,
    "requested_reviewers": [],
    "requested_teams": [],
    "review_comment_url": "https://api.github.com/repos/PrismarineJS/mineflayer/pulls/comments{/number}",
    "review_comments": 1,
    "review_comments_url": "https://api.github.com/repos/PrismarineJS/mineflayer/pulls/255/comments",
    "state": "closed",
    "statuses_url": "https://api.github.com/repos/PrismarineJS/mineflayer/statuses/68125fee73afd9d561c518eb48912a0682818ee6",
    "title": "added bot.recipesAll()",
    "updated_at": "2015-04-05T20:51:28Z",
    "url": "https://api.github.com/repos/PrismarineJS/mineflayer/pulls/255",
    "user": {
        "avatar_url": "https://avatars.githubusercontent.com/u/7506359?v=4",
        "events_url": "https://api.github.com/users/demipixel/events{/privacy}",
        "followers_url": "https://api.github.com/users/demipixel/followers",
        "following_url": "https://api.github.com/users/demipixel/following{/other_user}",
        "gists_url": "https://api.github.com/users/demipixel/gists{/gist_id}",
        "gravatar_id": "",
        "html_url": "https://github.com/demipixel",
        "id": 7506359,
        "login": "demipixel",
        "node_id": "MDQ6VXNlcjc1MDYzNTk=",
        "organizations_url": "https://api.github.com/users/demipixel/orgs",
        "received_events_url": "https://api.github.com/users/demipixel/received_events",
        "repos_url": "https://api.github.com/users/demipixel/repos",
        "site_admin": false,
        "starred_url": "https://api.github.com/users/demipixel/starred{/owner}{/repo}",
        "subscriptions_url": "https://api.github.com/users/demipixel/subscriptions",
        "type": "User",
        "url": "https://api.github.com/users/demipixel"
    }
}