{
    "_links": {
        "comments": {
            "href": "https://api.github.com/repos/PrismarineJS/mineflayer/issues/3263/comments"
        },
        "commits": {
            "href": "https://api.github.com/repos/PrismarineJS/mineflayer/pulls/3263/commits"
        },
        "html": {
            "href": "https://github.com/PrismarineJS/mineflayer/pull/3263"
        },
        "issue": {
            "href": "https://api.github.com/repos/PrismarineJS/mineflayer/issues/3263"
        },
        "review_comment": {
            "href": "https://api.github.com/repos/PrismarineJS/mineflayer/pulls/comments{/number}"
        },
        "review_comments": {
            "href": "https://api.github.com/repos/PrismarineJS/mineflayer/pulls/3263/comments"
        },
        "self": {
            "href": "https://api.github.com/repos/PrismarineJS/mineflayer/pulls/3263"
        },
        "statuses": {
            "href": "https://api.github.com/repos/PrismarineJS/mineflayer/statuses/9ba3649cccb22f2a5e05fa24e9639d7fc976624d"
        }
    },
    "active_lock_reason": null,
    "additions": 18,
    "assignee": null,
    "assignees": [],
    "author_association": "NONE",
    "auto_merge": null,
    "base": {
        "label": "PrismarineJS:mc-1.20.2",
        "ref": "mc-1.20.2",
        "repo": {
            "allow_forking": true,
            "archive_url": "https://api.github.com/repos/PrismarineJS/mineflayer/{archive_format}{/ref}",
            "archived": false,
            "assignees_url": "https://api.github.com/repos/PrismarineJS/mineflayer/assignees{/user}",
            "blobs_url": "https://api.github.com/repos/PrismarineJS/mineflayer/git/blobs{/sha}",
            "branches_url": "https://api.github.com/repos/PrismarineJS/mineflayer/branches{/branch}",
            "clone_url": "https://github.com/PrismarineJS/mineflayer.git",
            "collaborators_url": "https://api.github.com/repos/PrismarineJS/mineflayer/collaborators{/collaborator}",
            "comments_url": "https://api.github.com/repos/PrismarineJS/mineflayer/comments{/number}",
            "commits_url": "https://api.github.com/repos/PrismarineJS/mineflayer/commits{/sha}",
            "compare_url": "https://api.github.com/repos/PrismarineJS/mineflayer/compare/{base}...{head}",
            "contents_url": "https://api.github.com/repos/PrismarineJS/mineflayer/contents/{+path}",
            "contributors_url": "https://api.github.com/repos/PrismarineJS/mineflayer/contributors",
            "created_at": "2011-01-23T09:41:55Z",
            "default_branch": "master",
            "deployments_url": "https://api.github.com/repos/PrismarineJS/mineflayer/deployments",
            "description": "Create Minecraft bots with a powerful, stable, and high level JavaScript API.",
            "disabled": false,
            "downloads_url": "https://api.github.com/repos/PrismarineJS/mineflayer/downloads",
            "events_url": "https://api.github.com/repos/PrismarineJS/mineflayer/events",
            "fork": false,
            "forks": 820,
            "forks_count": 820,
            "forks_url": "https://api.github.com/repos/PrismarineJS/mineflayer/forks",
            "full_name": "PrismarineJS/mineflayer",
            "git_commits_url": "https://api.github.com/repos/PrismarineJS/mineflayer/git/commits{/sha}",
            "git_refs_url": "https://api.github.com/repos/PrismarineJS/mineflayer/git/refs{/sha}",
            "git_tags_url": "https://api.github.com/repos/PrismarineJS/mineflayer/git/tags{/sha}",
            "git_url": "git://github.com/PrismarineJS/mineflayer.git",
            "has_discussions": true,
            "has_downloads": true,
            "has_issues": true,
            "has_pages": true,
            "has_projects": true,
            "has_wiki": true,
            "homepage": "https://prismarinejs.github.io/mineflayer/",
            "hooks_url": "https://api.github.com/repos/PrismarineJS/mineflayer/hooks",
            "html_url": "https://github.com/PrismarineJS/mineflayer",
            "id": 1284185,
            "is_template": false,
            "issue_comment_url": "https://api.github.com/repos/PrismarineJS/mineflayer/issues/comments{/number}",
            "issue_events_url": "https://api.github.com/repos/PrismarineJS/mineflayer/issues/events{/number}",
            "issues_url": "https://api.github.com/repos/PrismarineJS/mineflayer/issues{/number}",
            "keys_url": "https://api.github.com/repos/PrismarineJS/mineflayer/keys{/key_id}",
            "labels_url": "https://api.github.com/repos/PrismarineJS/mineflayer/labels{/name}",
            "language": "JavaScript",
            "languages_url": "https://api.github.com/repos/PrismarineJS/mineflayer/languages",
            "license": {
                "key": "mit",
                "name": "MIT License",
                "node_id": "MDc6TGljZW5zZTEz",
                "spdx_id": "MIT",
                "url": "https://api.github.com/licenses/mit"
            },
            "merges_url": "https://api.github.com/repos/PrismarineJS/mineflayer/merges",
            "milestones_url": "https://api.github.com/repos/PrismarineJS/mineflayer/milestones{/number}",
            "mirror_url": null,
            "name": "mineflayer",
            "node_id": "MDEwOlJlcG9zaXRvcnkxMjg0MTg1",
            "notifications_url": "https://api.github.com/repos/PrismarineJS/mineflayer/notifications{?since,all,participating}",
            "open_issues": 284,
            "open_issues_count": 284,
            "owner": {
                "avatar_url": "https://avatars.githubusercontent.com/u/11053411?v=4",
                "events_url": "https://api.github.com/users/PrismarineJS/events{/privacy}",
                "followers_url": "https://api.github.com/users/PrismarineJS/followers",
                "following_url": "https://api.github.com/users/PrismarineJS/following{/other_user}",
                "gists_url": "https://api.github.com/users/PrismarineJS/gists{/gist_id}",
                "gravatar_id": "",
                "html_url": "https://github.com/PrismarineJS",
                "id": 11053411,
                "login": "PrismarineJS",
                "node_id": "MDEyOk9yZ2FuaXphdGlvbjExMDUzNDEx",
                "organizations_url": "https://api.github.com/users/PrismarineJS/orgs",
                "received_events_url": "https://api.github.com/users/PrismarineJS/received_events",
                "repos_url": "https://api.github.com/users/PrismarineJS/repos",
                "site_admin": false,
                "starred_url": "https://api.github.com/users/PrismarineJS/starred{/owner}{/repo}",
                "subscriptions_url": "https://api.github.com/users/PrismarineJS/subscriptions",
                "type": "Organization",
                "url": "https://api.github.com/users/PrismarineJS"
            },
            "private": false,
            "pulls_url": "https://api.github.com/repos/PrismarineJS/mineflayer/pulls{/number}",
            "pushed_at": "2024-01-02T01:23:44Z",
            "releases_url": "https://api.github.com/repos/PrismarineJS/mineflayer/releases{/id}",
            "size": 12202,
            "ssh_url": "git@github.com:PrismarineJS/mineflayer.git",
            "stargazers_count": 4289,
            "stargazers_url": "https://api.github.com/repos/PrismarineJS/mineflayer/stargazers",
            "statuses_url": "https://api.github.com/repos/PrismarineJS/mineflayer/statuses/{sha}",
            "subscribers_url": "https://api.github.com/repos/PrismarineJS/mineflayer/subscribers",
            "subscription_url": "https://api.github.com/repos/PrismarineJS/mineflayer/subscription",
            "svn_url": "https://github.com/PrismarineJS/mineflayer",
            "tags_url": "https://api.github.com/repos/PrismarineJS/mineflayer/tags",
            "teams_url": "https://api.github.com/repos/PrismarineJS/mineflayer/teams",
            "topics": [
                "bot",
                "minecraft",
                "minecraft-api",
                "minecraft-bot",
                "network",
                "nodejs"
            ],
            "trees_url": "https://api.github.com/repos/PrismarineJS/mineflayer/git/trees{/sha}",
            "updated_at": "2024-01-01T05:38:57Z",
            "url": "https://api.github.com/repos/PrismarineJS/mineflayer",
            "visibility": "public",
            "watchers": 4289,
            "watchers_count": 4289,
            "web_commit_signoff_required": false
        },
        "sha": "8771e3d9f2c385a78ae8905794a1865ae6f4c74b",
        "user": {
            "avatar_url": "https://avatars.githubusercontent.com/u/11053411?v=4",
            "events_url": "https://api.github.com/users/PrismarineJS/events{/privacy}",
            "followers_url": "https://api.github.com/users/PrismarineJS/followers",
            "following_url": "https://api.github.com/users/PrismarineJS/following{/other_user}",
            "gists_url": "https://api.github.com/users/PrismarineJS/gists{/gist_id}",
            "gravatar_id": "",
            "html_url": "https://github.com/PrismarineJS",
            "id": 11053411,
            "login": "PrismarineJS",
            "node_id": "MDEyOk9yZ2FuaXphdGlvbjExMDUzNDEx",
            "organizations_url": "https://api.github.com/users/PrismarineJS/orgs",
            "received_events_url": "https://api.github.com/users/PrismarineJS/received_events",
            "repos_url": "https://api.github.com/users/PrismarineJS/repos",
            "site_admin": false,
            "starred_url": "https://api.github.com/users/PrismarineJS/starred{/owner}{/repo}",
            "subscriptions_url": "https://api.github.com/users/PrismarineJS/subscriptions",
            "type": "Organization",
            "url": "https://api.github.com/users/PrismarineJS"
        }
    },
    "body": "Adds support for 1.20.2 chunk batches.",
    "changed_files": 1,
    "closed_at": "2024-01-02T01:06:08Z",
    "comment_data": [
        {
            "_links": {
                "html": {
                    "href": "https://github.com/PrismarineJS/mineflayer/pull/3263#discussion_r1438740601"
                },
                "pull_request": {
                    "href": "https://api.github.com/repos/PrismarineJS/mineflayer/pulls/3263"
                },
                "self": {
                    "href": "https://api.github.com/repos/PrismarineJS/mineflayer/pulls/comments/1438740601"
                }
            },
            "author_association": "MEMBER",
            "body": "can you add a comment explaining what is the purpose of this system ?",
            "commit_id": "9ba3649cccb22f2a5e05fa24e9639d7fc976624d",
            "created_at": "2023-12-30T22:56:19Z",
            "diff_hunk": "@@ -268,6 +268,17 @@ function inject (bot, { version, storageBuilder, hideErrors }) {\n     }\n   })\n \n+  let chunkBatchStartTime = 0\n+  bot._client.on('chunk_batch_start', (packet) => {\n+    chunkBatchStartTime = Date.now()\n+  })\n+\n+  bot._client.on('chunk_batch_finished', (packet) => {",
            "html_url": "https://github.com/PrismarineJS/mineflayer/pull/3263#discussion_r1438740601",
            "id": 1438740601,
            "line": 280,
            "node_id": "PRRC_kwDOABOYWc5VwXB5",
            "original_commit_id": "17191973f0a14f35d6b59492e2a14f4576134882",
            "original_line": 276,
            "original_position": 9,
            "original_start_line": null,
            "path": "lib/plugins/blocks.js",
            "position": 13,
            "pull_request_review_id": 1799594419,
            "pull_request_url": "https://api.github.com/repos/PrismarineJS/mineflayer/pulls/3263",
            "reactions": {
                "+1": 0,
                "-1": 0,
                "confused": 0,
                "eyes": 0,
                "heart": 0,
                "hooray": 0,
                "laugh": 0,
                "rocket": 0,
                "total_count": 0,
                "url": "https://api.github.com/repos/PrismarineJS/mineflayer/pulls/comments/1438740601/reactions"
            },
            "side": "RIGHT",
            "start_line": null,
            "start_side": null,
            "subject_type": "line",
            "updated_at": "2023-12-30T22:56:19Z",
            "url": "https://api.github.com/repos/PrismarineJS/mineflayer/pulls/comments/1438740601",
            "user": {
                "avatar_url": "https://avatars.githubusercontent.com/u/2346494?v=4",
                "events_url": "https://api.github.com/users/rom1504/events{/privacy}",
                "followers_url": "https://api.github.com/users/rom1504/followers",
                "following_url": "https://api.github.com/users/rom1504/following{/other_user}",
                "gists_url": "https://api.github.com/users/rom1504/gists{/gist_id}",
                "gravatar_id": "",
                "html_url": "https://github.com/rom1504",
                "id": 2346494,
                "login": "rom1504",
                "node_id": "MDQ6VXNlcjIzNDY0OTQ=",
                "organizations_url": "https://api.github.com/users/rom1504/orgs",
                "received_events_url": "https://api.github.com/users/rom1504/received_events",
                "repos_url": "https://api.github.com/users/rom1504/repos",
                "site_admin": false,
                "starred_url": "https://api.github.com/users/rom1504/starred{/owner}{/repo}",
                "subscriptions_url": "https://api.github.com/users/rom1504/subscriptions",
                "type": "User",
                "url": "https://api.github.com/users/rom1504"
            }
        },
        {
            "_links": {
                "html": {
                    "href": "https://github.com/PrismarineJS/mineflayer/pull/3263#discussion_r1438742721"
                },
                "pull_request": {
                    "href": "https://api.github.com/repos/PrismarineJS/mineflayer/pulls/3263"
                },
                "self": {
                    "href": "https://api.github.com/repos/PrismarineJS/mineflayer/pulls/comments/1438742721"
                }
            },
            "author_association": "MEMBER",
            "body": "what is 25 ?",
            "commit_id": "9ba3649cccb22f2a5e05fa24e9639d7fc976624d",
            "created_at": "2023-12-30T23:06:19Z",
            "diff_hunk": "@@ -268,6 +268,19 @@ function inject (bot, { version, storageBuilder, hideErrors }) {\n     }\n   })\n \n+\n+  // Chunk batches are used by the server to throttle the chunks per tick for players based on their connection speed.\n+  let chunkBatchStartTime = 0\n+  bot._client.on('chunk_batch_start', (packet) => {\n+    chunkBatchStartTime = Date.now()\n+  })\n+\n+  bot._client.on('chunk_batch_finished', (packet) => {\n+    const chunkPerMill = packet.batchSize / (Date.now() - chunkBatchStartTime) // Get chunks per millisecond\n+    bot._client.write('chunk_batch_received', {\n+      chunksPerTick: 25 / chunkPerMill",
            "html_url": "https://github.com/PrismarineJS/mineflayer/pull/3263#discussion_r1438742721",
            "id": 1438742721,
            "line": null,
            "node_id": "PRRC_kwDOABOYWc5VwXjB",
            "original_commit_id": "92454dff3411fabcc6b1bb6a7d815c6ab80ee360",
            "original_line": 281,
            "original_position": 14,
            "original_start_line": null,
            "path": "lib/plugins/blocks.js",
            "position": null,
            "pull_request_review_id": 1799594869,
            "pull_request_url": "https://api.github.com/repos/PrismarineJS/mineflayer/pulls/3263",
            "reactions": {
                "+1": 0,
                "-1": 0,
                "confused": 0,
                "eyes": 0,
                "heart": 0,
                "hooray": 0,
                "laugh": 0,
                "rocket": 0,
                "total_count": 0,
                "url": "https://api.github.com/repos/PrismarineJS/mineflayer/pulls/comments/1438742721/reactions"
            },
            "side": "RIGHT",
            "start_line": null,
            "start_side": null,
            "subject_type": "line",
            "updated_at": "2023-12-30T23:06:20Z",
            "url": "https://api.github.com/repos/PrismarineJS/mineflayer/pulls/comments/1438742721",
            "user": {
                "avatar_url": "https://avatars.githubusercontent.com/u/2346494?v=4",
                "events_url": "https://api.github.com/users/rom1504/events{/privacy}",
                "followers_url": "https://api.github.com/users/rom1504/followers",
                "following_url": "https://api.github.com/users/rom1504/following{/other_user}",
                "gists_url": "https://api.github.com/users/rom1504/gists{/gist_id}",
                "gravatar_id": "",
                "html_url": "https://github.com/rom1504",
                "id": 2346494,
                "login": "rom1504",
                "node_id": "MDQ6VXNlcjIzNDY0OTQ=",
                "organizations_url": "https://api.github.com/users/rom1504/orgs",
                "received_events_url": "https://api.github.com/users/rom1504/received_events",
                "repos_url": "https://api.github.com/users/rom1504/repos",
                "site_admin": false,
                "starred_url": "https://api.github.com/users/rom1504/starred{/owner}{/repo}",
                "subscriptions_url": "https://api.github.com/users/rom1504/subscriptions",
                "type": "User",
                "url": "https://api.github.com/users/rom1504"
            }
        },
        {
            "_links": {
                "html": {
                    "href": "https://github.com/PrismarineJS/mineflayer/pull/3263#discussion_r1438742960"
                },
                "pull_request": {
                    "href": "https://api.github.com/repos/PrismarineJS/mineflayer/pulls/3263"
                },
                "self": {
                    "href": "https://api.github.com/repos/PrismarineJS/mineflayer/pulls/comments/1438742960"
                }
            },
            "author_association": "NONE",
            "body": "A constant the client uses in that calculation. ",
            "commit_id": "9ba3649cccb22f2a5e05fa24e9639d7fc976624d",
            "created_at": "2023-12-30T23:07:40Z",
            "diff_hunk": "@@ -268,6 +268,19 @@ function inject (bot, { version, storageBuilder, hideErrors }) {\n     }\n   })\n \n+\n+  // Chunk batches are used by the server to throttle the chunks per tick for players based on their connection speed.\n+  let chunkBatchStartTime = 0\n+  bot._client.on('chunk_batch_start', (packet) => {\n+    chunkBatchStartTime = Date.now()\n+  })\n+\n+  bot._client.on('chunk_batch_finished', (packet) => {\n+    const chunkPerMill = packet.batchSize / (Date.now() - chunkBatchStartTime) // Get chunks per millisecond\n+    bot._client.write('chunk_batch_received', {\n+      chunksPerTick: 25 / chunkPerMill",
            "html_url": "https://github.com/PrismarineJS/mineflayer/pull/3263#discussion_r1438742960",
            "id": 1438742960,
            "in_reply_to_id": 1438742721,
            "line": null,
            "node_id": "PRRC_kwDOABOYWc5VwXmw",
            "original_commit_id": "92454dff3411fabcc6b1bb6a7d815c6ab80ee360",
            "original_line": 281,
            "original_position": 14,
            "original_start_line": null,
            "path": "lib/plugins/blocks.js",
            "position": null,
            "pull_request_review_id": 1799594910,
            "pull_request_url": "https://api.github.com/repos/PrismarineJS/mineflayer/pulls/3263",
            "reactions": {
                "+1": 0,
                "-1": 0,
                "confused": 0,
                "eyes": 0,
                "heart": 0,
                "hooray": 0,
                "laugh": 0,
                "rocket": 0,
                "total_count": 0,
                "url": "https://api.github.com/repos/PrismarineJS/mineflayer/pulls/comments/1438742960/reactions"
            },
            "side": "RIGHT",
            "start_line": null,
            "start_side": null,
            "subject_type": "line",
            "updated_at": "2023-12-30T23:07:40Z",
            "url": "https://api.github.com/repos/PrismarineJS/mineflayer/pulls/comments/1438742960",
            "user": {
                "avatar_url": "https://avatars.githubusercontent.com/u/2133449?v=4",
                "events_url": "https://api.github.com/users/wgaylord/events{/privacy}",
                "followers_url": "https://api.github.com/users/wgaylord/followers",
                "following_url": "https://api.github.com/users/wgaylord/following{/other_user}",
                "gists_url": "https://api.github.com/users/wgaylord/gists{/gist_id}",
                "gravatar_id": "",
                "html_url": "https://github.com/wgaylord",
                "id": 2133449,
                "login": "wgaylord",
                "node_id": "MDQ6VXNlcjIxMzM0NDk=",
                "organizations_url": "https://api.github.com/users/wgaylord/orgs",
                "received_events_url": "https://api.github.com/users/wgaylord/received_events",
                "repos_url": "https://api.github.com/users/wgaylord/repos",
                "site_admin": false,
                "starred_url": "https://api.github.com/users/wgaylord/starred{/owner}{/repo}",
                "subscriptions_url": "https://api.github.com/users/wgaylord/subscriptions",
                "type": "User",
                "url": "https://api.github.com/users/wgaylord"
            }
        },
        {
            "_links": {
                "html": {
                    "href": "https://github.com/PrismarineJS/mineflayer/pull/3263#discussion_r1438743154"
                },
                "pull_request": {
                    "href": "https://api.github.com/repos/PrismarineJS/mineflayer/pulls/3263"
                },
                "self": {
                    "href": "https://api.github.com/repos/PrismarineJS/mineflayer/pulls/comments/1438743154"
                }
            },
            "author_association": "MEMBER",
            "body": "do you know why?",
            "commit_id": "9ba3649cccb22f2a5e05fa24e9639d7fc976624d",
            "created_at": "2023-12-30T23:08:56Z",
            "diff_hunk": "@@ -268,6 +268,19 @@ function inject (bot, { version, storageBuilder, hideErrors }) {\n     }\n   })\n \n+\n+  // Chunk batches are used by the server to throttle the chunks per tick for players based on their connection speed.\n+  let chunkBatchStartTime = 0\n+  bot._client.on('chunk_batch_start', (packet) => {\n+    chunkBatchStartTime = Date.now()\n+  })\n+\n+  bot._client.on('chunk_batch_finished', (packet) => {\n+    const chunkPerMill = packet.batchSize / (Date.now() - chunkBatchStartTime) // Get chunks per millisecond\n+    bot._client.write('chunk_batch_received', {\n+      chunksPerTick: 25 / chunkPerMill",
            "html_url": "https://github.com/PrismarineJS/mineflayer/pull/3263#discussion_r1438743154",
            "id": 1438743154,
            "in_reply_to_id": 1438742721,
            "line": null,
            "node_id": "PRRC_kwDOABOYWc5VwXpy",
            "original_commit_id": "92454dff3411fabcc6b1bb6a7d815c6ab80ee360",
            "original_line": 281,
            "original_position": 14,
            "original_start_line": null,
            "path": "lib/plugins/blocks.js",
            "position": null,
            "pull_request_review_id": 1799594950,
            "pull_request_url": "https://api.github.com/repos/PrismarineJS/mineflayer/pulls/3263",
            "reactions": {
                "+1": 0,
                "-1": 0,
                "confused": 0,
                "eyes": 0,
                "heart": 0,
                "hooray": 0,
                "laugh": 0,
                "rocket": 0,
                "total_count": 0,
                "url": "https://api.github.com/repos/PrismarineJS/mineflayer/pulls/comments/1438743154/reactions"
            },
            "side": "RIGHT",
            "start_line": null,
            "start_side": null,
            "subject_type": "line",
            "updated_at": "2023-12-30T23:08:57Z",
            "url": "https://api.github.com/repos/PrismarineJS/mineflayer/pulls/comments/1438743154",
            "user": {
                "avatar_url": "https://avatars.githubusercontent.com/u/2346494?v=4",
                "events_url": "https://api.github.com/users/rom1504/events{/privacy}",
                "followers_url": "https://api.github.com/users/rom1504/followers",
                "following_url": "https://api.github.com/users/rom1504/following{/other_user}",
                "gists_url": "https://api.github.com/users/rom1504/gists{/gist_id}",
                "gravatar_id": "",
                "html_url": "https://github.com/rom1504",
                "id": 2346494,
                "login": "rom1504",
                "node_id": "MDQ6VXNlcjIzNDY0OTQ=",
                "organizations_url": "https://api.github.com/users/rom1504/orgs",
                "received_events_url": "https://api.github.com/users/rom1504/received_events",
                "repos_url": "https://api.github.com/users/rom1504/repos",
                "site_admin": false,
                "starred_url": "https://api.github.com/users/rom1504/starred{/owner}{/repo}",
                "subscriptions_url": "https://api.github.com/users/rom1504/subscriptions",
                "type": "User",
                "url": "https://api.github.com/users/rom1504"
            }
        },
        {
            "_links": {
                "html": {
                    "href": "https://github.com/PrismarineJS/mineflayer/pull/3263#discussion_r1438743460"
                },
                "pull_request": {
                    "href": "https://api.github.com/repos/PrismarineJS/mineflayer/pulls/3263"
                },
                "self": {
                    "href": "https://api.github.com/repos/PrismarineJS/mineflayer/pulls/comments/1438743460"
                }
            },
            "author_association": "MEMBER",
            "body": " / what is the source of this ?",
            "commit_id": "9ba3649cccb22f2a5e05fa24e9639d7fc976624d",
            "created_at": "2023-12-30T23:10:27Z",
            "diff_hunk": "@@ -268,6 +268,19 @@ function inject (bot, { version, storageBuilder, hideErrors }) {\n     }\n   })\n \n+\n+  // Chunk batches are used by the server to throttle the chunks per tick for players based on their connection speed.\n+  let chunkBatchStartTime = 0\n+  bot._client.on('chunk_batch_start', (packet) => {\n+    chunkBatchStartTime = Date.now()\n+  })\n+\n+  bot._client.on('chunk_batch_finished', (packet) => {\n+    const chunkPerMill = packet.batchSize / (Date.now() - chunkBatchStartTime) // Get chunks per millisecond\n+    bot._client.write('chunk_batch_received', {\n+      chunksPerTick: 25 / chunkPerMill",
            "html_url": "https://github.com/PrismarineJS/mineflayer/pull/3263#discussion_r1438743460",
            "id": 1438743460,
            "in_reply_to_id": 1438742721,
            "line": null,
            "node_id": "PRRC_kwDOABOYWc5VwXuk",
            "original_commit_id": "92454dff3411fabcc6b1bb6a7d815c6ab80ee360",
            "original_line": 281,
            "original_position": 14,
            "original_start_line": null,
            "path": "lib/plugins/blocks.js",
            "position": null,
            "pull_request_review_id": 1799595009,
            "pull_request_url": "https://api.github.com/repos/PrismarineJS/mineflayer/pulls/3263",
            "reactions": {
                "+1": 0,
                "-1": 0,
                "confused": 0,
                "eyes": 0,
                "heart": 0,
                "hooray": 0,
                "laugh": 0,
                "rocket": 0,
                "total_count": 0,
                "url": "https://api.github.com/repos/PrismarineJS/mineflayer/pulls/comments/1438743460/reactions"
            },
            "side": "RIGHT",
            "start_line": null,
            "start_side": null,
            "subject_type": "line",
            "updated_at": "2023-12-30T23:10:28Z",
            "url": "https://api.github.com/repos/PrismarineJS/mineflayer/pulls/comments/1438743460",
            "user": {
                "avatar_url": "https://avatars.githubusercontent.com/u/2346494?v=4",
                "events_url": "https://api.github.com/users/rom1504/events{/privacy}",
                "followers_url": "https://api.github.com/users/rom1504/followers",
                "following_url": "https://api.github.com/users/rom1504/following{/other_user}",
                "gists_url": "https://api.github.com/users/rom1504/gists{/gist_id}",
                "gravatar_id": "",
                "html_url": "https://github.com/rom1504",
                "id": 2346494,
                "login": "rom1504",
                "node_id": "MDQ6VXNlcjIzNDY0OTQ=",
                "organizations_url": "https://api.github.com/users/rom1504/orgs",
                "received_events_url": "https://api.github.com/users/rom1504/received_events",
                "repos_url": "https://api.github.com/users/rom1504/repos",
                "site_admin": false,
                "starred_url": "https://api.github.com/users/rom1504/starred{/owner}{/repo}",
                "subscriptions_url": "https://api.github.com/users/rom1504/subscriptions",
                "type": "User",
                "url": "https://api.github.com/users/rom1504"
            }
        },
        {
            "_links": {
                "html": {
                    "href": "https://github.com/PrismarineJS/mineflayer/pull/3263#discussion_r1438762984"
                },
                "pull_request": {
                    "href": "https://api.github.com/repos/PrismarineJS/mineflayer/pulls/3263"
                },
                "self": {
                    "href": "https://api.github.com/repos/PrismarineJS/mineflayer/pulls/comments/1438762984"
                }
            },
            "author_association": "NONE",
            "body": "Well, now I feel dumb and have learned to always double check wiki.vg's info since there is a good chance it could be wrong or slightly incorrect. \r\n\r\nNormal client uses this insanity to get its chunksPerTick.  \r\n\r\nhttps://github.com/extremeheat/extracted_minecraft_data/blob/client1.20.2/client/net/minecraft/client/multiplayer/ChunkBatchSizeCalculator.java \r\n\r\nWhile the input to the onBatchFinished is the batchsize.  No sure where someone got the 25 from and put it on wiki.vg going to probably correct that information later. ",
            "commit_id": "9ba3649cccb22f2a5e05fa24e9639d7fc976624d",
            "created_at": "2023-12-31T00:50:56Z",
            "diff_hunk": "@@ -268,6 +268,19 @@ function inject (bot, { version, storageBuilder, hideErrors }) {\n     }\n   })\n \n+\n+  // Chunk batches are used by the server to throttle the chunks per tick for players based on their connection speed.\n+  let chunkBatchStartTime = 0\n+  bot._client.on('chunk_batch_start', (packet) => {\n+    chunkBatchStartTime = Date.now()\n+  })\n+\n+  bot._client.on('chunk_batch_finished', (packet) => {\n+    const chunkPerMill = packet.batchSize / (Date.now() - chunkBatchStartTime) // Get chunks per millisecond\n+    bot._client.write('chunk_batch_received', {\n+      chunksPerTick: 25 / chunkPerMill",
            "html_url": "https://github.com/PrismarineJS/mineflayer/pull/3263#discussion_r1438762984",
            "id": 1438762984,
            "in_reply_to_id": 1438742721,
            "line": null,
            "node_id": "PRRC_kwDOABOYWc5Vwcfo",
            "original_commit_id": "92454dff3411fabcc6b1bb6a7d815c6ab80ee360",
            "original_line": 281,
            "original_position": 14,
            "original_start_line": null,
            "path": "lib/plugins/blocks.js",
            "position": null,
            "pull_request_review_id": 1799599555,
            "pull_request_url": "https://api.github.com/repos/PrismarineJS/mineflayer/pulls/3263",
            "reactions": {
                "+1": 0,
                "-1": 0,
                "confused": 0,
                "eyes": 0,
                "heart": 0,
                "hooray": 0,
                "laugh": 0,
                "rocket": 0,
                "total_count": 0,
                "url": "https://api.github.com/repos/PrismarineJS/mineflayer/pulls/comments/1438762984/reactions"
            },
            "side": "RIGHT",
            "start_line": null,
            "start_side": null,
            "subject_type": "line",
            "updated_at": "2023-12-31T00:50:56Z",
            "url": "https://api.github.com/repos/PrismarineJS/mineflayer/pulls/comments/1438762984",
            "user": {
                "avatar_url": "https://avatars.githubusercontent.com/u/2133449?v=4",
                "events_url": "https://api.github.com/users/wgaylord/events{/privacy}",
                "followers_url": "https://api.github.com/users/wgaylord/followers",
                "following_url": "https://api.github.com/users/wgaylord/following{/other_user}",
                "gists_url": "https://api.github.com/users/wgaylord/gists{/gist_id}",
                "gravatar_id": "",
                "html_url": "https://github.com/wgaylord",
                "id": 2133449,
                "login": "wgaylord",
                "node_id": "MDQ6VXNlcjIxMzM0NDk=",
                "organizations_url": "https://api.github.com/users/wgaylord/orgs",
                "received_events_url": "https://api.github.com/users/wgaylord/received_events",
                "repos_url": "https://api.github.com/users/wgaylord/repos",
                "site_admin": false,
                "starred_url": "https://api.github.com/users/wgaylord/starred{/owner}{/repo}",
                "subscriptions_url": "https://api.github.com/users/wgaylord/subscriptions",
                "type": "User",
                "url": "https://api.github.com/users/wgaylord"
            }
        },
        {
            "_links": {
                "html": {
                    "href": "https://github.com/PrismarineJS/mineflayer/pull/3263#discussion_r1439081067"
                },
                "pull_request": {
                    "href": "https://api.github.com/repos/PrismarineJS/mineflayer/pulls/3263"
                },
                "self": {
                    "href": "https://api.github.com/repos/PrismarineJS/mineflayer/pulls/comments/1439081067"
                }
            },
            "author_association": "NONE",
            "body": "Added a comment and comments each part of the calculation now that I am doing it correctly.",
            "commit_id": "9ba3649cccb22f2a5e05fa24e9639d7fc976624d",
            "created_at": "2024-01-01T20:28:10Z",
            "diff_hunk": "@@ -268,6 +268,17 @@ function inject (bot, { version, storageBuilder, hideErrors }) {\n     }\n   })\n \n+  let chunkBatchStartTime = 0\n+  bot._client.on('chunk_batch_start', (packet) => {\n+    chunkBatchStartTime = Date.now()\n+  })\n+\n+  bot._client.on('chunk_batch_finished', (packet) => {",
            "html_url": "https://github.com/PrismarineJS/mineflayer/pull/3263#discussion_r1439081067",
            "id": 1439081067,
            "in_reply_to_id": 1438740601,
            "line": 280,
            "node_id": "PRRC_kwDOABOYWc5VxqJr",
            "original_commit_id": "17191973f0a14f35d6b59492e2a14f4576134882",
            "original_line": 276,
            "original_position": 9,
            "original_start_line": null,
            "path": "lib/plugins/blocks.js",
            "position": 13,
            "pull_request_review_id": 1799861585,
            "pull_request_url": "https://api.github.com/repos/PrismarineJS/mineflayer/pulls/3263",
            "reactions": {
                "+1": 0,
                "-1": 0,
                "confused": 0,
                "eyes": 0,
                "heart": 0,
                "hooray": 0,
                "laugh": 0,
                "rocket": 0,
                "total_count": 0,
                "url": "https://api.github.com/repos/PrismarineJS/mineflayer/pulls/comments/1439081067/reactions"
            },
            "side": "RIGHT",
            "start_line": null,
            "start_side": null,
            "subject_type": "line",
            "updated_at": "2024-01-01T20:28:10Z",
            "url": "https://api.github.com/repos/PrismarineJS/mineflayer/pulls/comments/1439081067",
            "user": {
                "avatar_url": "https://avatars.githubusercontent.com/u/2133449?v=4",
                "events_url": "https://api.github.com/users/wgaylord/events{/privacy}",
                "followers_url": "https://api.github.com/users/wgaylord/followers",
                "following_url": "https://api.github.com/users/wgaylord/following{/other_user}",
                "gists_url": "https://api.github.com/users/wgaylord/gists{/gist_id}",
                "gravatar_id": "",
                "html_url": "https://github.com/wgaylord",
                "id": 2133449,
                "login": "wgaylord",
                "node_id": "MDQ6VXNlcjIxMzM0NDk=",
                "organizations_url": "https://api.github.com/users/wgaylord/orgs",
                "received_events_url": "https://api.github.com/users/wgaylord/received_events",
                "repos_url": "https://api.github.com/users/wgaylord/repos",
                "site_admin": false,
                "starred_url": "https://api.github.com/users/wgaylord/starred{/owner}{/repo}",
                "subscriptions_url": "https://api.github.com/users/wgaylord/subscriptions",
                "type": "User",
                "url": "https://api.github.com/users/wgaylord"
            }
        },
        {
            "_links": {
                "html": {
                    "href": "https://github.com/PrismarineJS/mineflayer/pull/3263#discussion_r1439081123"
                },
                "pull_request": {
                    "href": "https://api.github.com/repos/PrismarineJS/mineflayer/pulls/3263"
                },
                "self": {
                    "href": "https://api.github.com/repos/PrismarineJS/mineflayer/pulls/comments/1439081123"
                }
            },
            "author_association": "NONE",
            "body": "Updated to used the same calculation as 1.20.2 Vanilla client uses.  (Although converted to millisecond instead of the nanoseconds they use.)",
            "commit_id": "9ba3649cccb22f2a5e05fa24e9639d7fc976624d",
            "created_at": "2024-01-01T20:28:59Z",
            "diff_hunk": "@@ -268,6 +268,19 @@ function inject (bot, { version, storageBuilder, hideErrors }) {\n     }\n   })\n \n+\n+  // Chunk batches are used by the server to throttle the chunks per tick for players based on their connection speed.\n+  let chunkBatchStartTime = 0\n+  bot._client.on('chunk_batch_start', (packet) => {\n+    chunkBatchStartTime = Date.now()\n+  })\n+\n+  bot._client.on('chunk_batch_finished', (packet) => {\n+    const chunkPerMill = packet.batchSize / (Date.now() - chunkBatchStartTime) // Get chunks per millisecond\n+    bot._client.write('chunk_batch_received', {\n+      chunksPerTick: 25 / chunkPerMill",
            "html_url": "https://github.com/PrismarineJS/mineflayer/pull/3263#discussion_r1439081123",
            "id": 1439081123,
            "in_reply_to_id": 1438742721,
            "line": null,
            "node_id": "PRRC_kwDOABOYWc5VxqKj",
            "original_commit_id": "92454dff3411fabcc6b1bb6a7d815c6ab80ee360",
            "original_line": 281,
            "original_position": 14,
            "original_start_line": null,
            "path": "lib/plugins/blocks.js",
            "position": null,
            "pull_request_review_id": 1799861654,
            "pull_request_url": "https://api.github.com/repos/PrismarineJS/mineflayer/pulls/3263",
            "reactions": {
                "+1": 0,
                "-1": 0,
                "confused": 0,
                "eyes": 0,
                "heart": 0,
                "hooray": 0,
                "laugh": 0,
                "rocket": 0,
                "total_count": 0,
                "url": "https://api.github.com/repos/PrismarineJS/mineflayer/pulls/comments/1439081123/reactions"
            },
            "side": "RIGHT",
            "start_line": null,
            "start_side": null,
            "subject_type": "line",
            "updated_at": "2024-01-01T20:28:59Z",
            "url": "https://api.github.com/repos/PrismarineJS/mineflayer/pulls/comments/1439081123",
            "user": {
                "avatar_url": "https://avatars.githubusercontent.com/u/2133449?v=4",
                "events_url": "https://api.github.com/users/wgaylord/events{/privacy}",
                "followers_url": "https://api.github.com/users/wgaylord/followers",
                "following_url": "https://api.github.com/users/wgaylord/following{/other_user}",
                "gists_url": "https://api.github.com/users/wgaylord/gists{/gist_id}",
                "gravatar_id": "",
                "html_url": "https://github.com/wgaylord",
                "id": 2133449,
                "login": "wgaylord",
                "node_id": "MDQ6VXNlcjIxMzM0NDk=",
                "organizations_url": "https://api.github.com/users/wgaylord/orgs",
                "received_events_url": "https://api.github.com/users/wgaylord/received_events",
                "repos_url": "https://api.github.com/users/wgaylord/repos",
                "site_admin": false,
                "starred_url": "https://api.github.com/users/wgaylord/starred{/owner}{/repo}",
                "subscriptions_url": "https://api.github.com/users/wgaylord/subscriptions",
                "type": "User",
                "url": "https://api.github.com/users/wgaylord"
            }
        },
        {
            "_links": {
                "html": {
                    "href": "https://github.com/PrismarineJS/mineflayer/pull/3263#discussion_r1439099510"
                },
                "pull_request": {
                    "href": "https://api.github.com/repos/PrismarineJS/mineflayer/pulls/3263"
                },
                "self": {
                    "href": "https://api.github.com/repos/PrismarineJS/mineflayer/pulls/comments/1439099510"
                }
            },
            "author_association": "MEMBER",
            "body": "Should start variable named with lower case ",
            "commit_id": "9ba3649cccb22f2a5e05fa24e9639d7fc976624d",
            "created_at": "2024-01-01T23:30:06Z",
            "diff_hunk": "@@ -268,6 +268,24 @@ function inject (bot, { version, storageBuilder, hideErrors }) {\n     }\n   })\n \n+  // Chunk batches are used by the server to throttle the chunks per tick for players based on their connection speed.\n+  let chunkBatchStartTime = 0\n+  let weightedAverage = 2 // The Vanilla client uses nano seconds with its weighted average starting at 2000000 converted to milliseconds that is 2\n+  let oldSampleWeight = 1 // This is used for keeping track of the weight of the old average when updating it.\n+\n+  bot._client.on('chunk_batch_start', (packet) => {\n+    chunkBatchStartTime = Date.now() // Get the time the chunk batch is starting.\n+  })\n+\n+  bot._client.on('chunk_batch_finished', (packet) => {\n+    const MilliPerChunk = (Date.now() - chunkBatchStartTime) / packet.batchSize // Gets millisecond per chunk",
            "html_url": "https://github.com/PrismarineJS/mineflayer/pull/3263#discussion_r1439099510",
            "id": 1439099510,
            "line": null,
            "node_id": "PRRC_kwDOABOYWc5Vxup2",
            "original_commit_id": "5f9089024b02af4374dfc2ee6b9457677fa20565",
            "original_line": 281,
            "original_position": 14,
            "original_start_line": null,
            "path": "lib/plugins/blocks.js",
            "position": null,
            "pull_request_review_id": 1799880836,
            "pull_request_url": "https://api.github.com/repos/PrismarineJS/mineflayer/pulls/3263",
            "reactions": {
                "+1": 0,
                "-1": 0,
                "confused": 0,
                "eyes": 0,
                "heart": 0,
                "hooray": 0,
                "laugh": 0,
                "rocket": 0,
                "total_count": 0,
                "url": "https://api.github.com/repos/PrismarineJS/mineflayer/pulls/comments/1439099510/reactions"
            },
            "side": "RIGHT",
            "start_line": null,
            "start_side": null,
            "subject_type": "line",
            "updated_at": "2024-01-01T23:30:06Z",
            "url": "https://api.github.com/repos/PrismarineJS/mineflayer/pulls/comments/1439099510",
            "user": {
                "avatar_url": "https://avatars.githubusercontent.com/u/2346494?v=4",
                "events_url": "https://api.github.com/users/rom1504/events{/privacy}",
                "followers_url": "https://api.github.com/users/rom1504/followers",
                "following_url": "https://api.github.com/users/rom1504/following{/other_user}",
                "gists_url": "https://api.github.com/users/rom1504/gists{/gist_id}",
                "gravatar_id": "",
                "html_url": "https://github.com/rom1504",
                "id": 2346494,
                "login": "rom1504",
                "node_id": "MDQ6VXNlcjIzNDY0OTQ=",
                "organizations_url": "https://api.github.com/users/rom1504/orgs",
                "received_events_url": "https://api.github.com/users/rom1504/received_events",
                "repos_url": "https://api.github.com/users/rom1504/repos",
                "site_admin": false,
                "starred_url": "https://api.github.com/users/rom1504/starred{/owner}{/repo}",
                "subscriptions_url": "https://api.github.com/users/rom1504/subscriptions",
                "type": "User",
                "url": "https://api.github.com/users/rom1504"
            }
        },
        {
            "_links": {
                "html": {
                    "href": "https://github.com/PrismarineJS/mineflayer/pull/3263#discussion_r1439100057"
                },
                "pull_request": {
                    "href": "https://api.github.com/repos/PrismarineJS/mineflayer/pulls/3263"
                },
                "self": {
                    "href": "https://api.github.com/repos/PrismarineJS/mineflayer/pulls/comments/1439100057"
                }
            },
            "author_association": "NONE",
            "body": "I will fix that when I get home, surprised the linter didnt carch that.",
            "commit_id": "9ba3649cccb22f2a5e05fa24e9639d7fc976624d",
            "created_at": "2024-01-01T23:34:28Z",
            "diff_hunk": "@@ -268,6 +268,24 @@ function inject (bot, { version, storageBuilder, hideErrors }) {\n     }\n   })\n \n+  // Chunk batches are used by the server to throttle the chunks per tick for players based on their connection speed.\n+  let chunkBatchStartTime = 0\n+  let weightedAverage = 2 // The Vanilla client uses nano seconds with its weighted average starting at 2000000 converted to milliseconds that is 2\n+  let oldSampleWeight = 1 // This is used for keeping track of the weight of the old average when updating it.\n+\n+  bot._client.on('chunk_batch_start', (packet) => {\n+    chunkBatchStartTime = Date.now() // Get the time the chunk batch is starting.\n+  })\n+\n+  bot._client.on('chunk_batch_finished', (packet) => {\n+    const MilliPerChunk = (Date.now() - chunkBatchStartTime) / packet.batchSize // Gets millisecond per chunk",
            "html_url": "https://github.com/PrismarineJS/mineflayer/pull/3263#discussion_r1439100057",
            "id": 1439100057,
            "in_reply_to_id": 1439099510,
            "line": null,
            "node_id": "PRRC_kwDOABOYWc5VxuyZ",
            "original_commit_id": "5f9089024b02af4374dfc2ee6b9457677fa20565",
            "original_line": 281,
            "original_position": 14,
            "original_start_line": null,
            "path": "lib/plugins/blocks.js",
            "position": null,
            "pull_request_review_id": 1799881316,
            "pull_request_url": "https://api.github.com/repos/PrismarineJS/mineflayer/pulls/3263",
            "reactions": {
                "+1": 0,
                "-1": 0,
                "confused": 0,
                "eyes": 0,
                "heart": 0,
                "hooray": 0,
                "laugh": 0,
                "rocket": 0,
                "total_count": 0,
                "url": "https://api.github.com/repos/PrismarineJS/mineflayer/pulls/comments/1439100057/reactions"
            },
            "side": "RIGHT",
            "start_line": null,
            "start_side": null,
            "subject_type": "line",
            "updated_at": "2024-01-01T23:34:28Z",
            "url": "https://api.github.com/repos/PrismarineJS/mineflayer/pulls/comments/1439100057",
            "user": {
                "avatar_url": "https://avatars.githubusercontent.com/u/2133449?v=4",
                "events_url": "https://api.github.com/users/wgaylord/events{/privacy}",
                "followers_url": "https://api.github.com/users/wgaylord/followers",
                "following_url": "https://api.github.com/users/wgaylord/following{/other_user}",
                "gists_url": "https://api.github.com/users/wgaylord/gists{/gist_id}",
                "gravatar_id": "",
                "html_url": "https://github.com/wgaylord",
                "id": 2133449,
                "login": "wgaylord",
                "node_id": "MDQ6VXNlcjIxMzM0NDk=",
                "organizations_url": "https://api.github.com/users/wgaylord/orgs",
                "received_events_url": "https://api.github.com/users/wgaylord/received_events",
                "repos_url": "https://api.github.com/users/wgaylord/repos",
                "site_admin": false,
                "starred_url": "https://api.github.com/users/wgaylord/starred{/owner}{/repo}",
                "subscriptions_url": "https://api.github.com/users/wgaylord/subscriptions",
                "type": "User",
                "url": "https://api.github.com/users/wgaylord"
            }
        },
        {
            "_links": {
                "html": {
                    "href": "https://github.com/PrismarineJS/mineflayer/pull/3263#discussion_r1439105635"
                },
                "pull_request": {
                    "href": "https://api.github.com/repos/PrismarineJS/mineflayer/pulls/3263"
                },
                "self": {
                    "href": "https://api.github.com/repos/PrismarineJS/mineflayer/pulls/comments/1439105635"
                }
            },
            "author_association": "NONE",
            "body": "Both now start with lower case",
            "commit_id": "9ba3649cccb22f2a5e05fa24e9639d7fc976624d",
            "created_at": "2024-01-02T00:22:50Z",
            "diff_hunk": "@@ -268,6 +268,24 @@ function inject (bot, { version, storageBuilder, hideErrors }) {\n     }\n   })\n \n+  // Chunk batches are used by the server to throttle the chunks per tick for players based on their connection speed.\n+  let chunkBatchStartTime = 0\n+  let weightedAverage = 2 // The Vanilla client uses nano seconds with its weighted average starting at 2000000 converted to milliseconds that is 2\n+  let oldSampleWeight = 1 // This is used for keeping track of the weight of the old average when updating it.\n+\n+  bot._client.on('chunk_batch_start', (packet) => {\n+    chunkBatchStartTime = Date.now() // Get the time the chunk batch is starting.\n+  })\n+\n+  bot._client.on('chunk_batch_finished', (packet) => {\n+    const MilliPerChunk = (Date.now() - chunkBatchStartTime) / packet.batchSize // Gets millisecond per chunk",
            "html_url": "https://github.com/PrismarineJS/mineflayer/pull/3263#discussion_r1439105635",
            "id": 1439105635,
            "in_reply_to_id": 1439099510,
            "line": null,
            "node_id": "PRRC_kwDOABOYWc5VxwJj",
            "original_commit_id": "5f9089024b02af4374dfc2ee6b9457677fa20565",
            "original_line": 281,
            "original_position": 14,
            "original_start_line": null,
            "path": "lib/plugins/blocks.js",
            "position": null,
            "pull_request_review_id": 1799887899,
            "pull_request_url": "https://api.github.com/repos/PrismarineJS/mineflayer/pulls/3263",
            "reactions": {
                "+1": 0,
                "-1": 0,
                "confused": 0,
                "eyes": 0,
                "heart": 0,
                "hooray": 0,
                "laugh": 0,
                "rocket": 0,
                "total_count": 0,
                "url": "https://api.github.com/repos/PrismarineJS/mineflayer/pulls/comments/1439105635/reactions"
            },
            "side": "RIGHT",
            "start_line": null,
            "start_side": null,
            "subject_type": "line",
            "updated_at": "2024-01-02T00:22:50Z",
            "url": "https://api.github.com/repos/PrismarineJS/mineflayer/pulls/comments/1439105635",
            "user": {
                "avatar_url": "https://avatars.githubusercontent.com/u/2133449?v=4",
                "events_url": "https://api.github.com/users/wgaylord/events{/privacy}",
                "followers_url": "https://api.github.com/users/wgaylord/followers",
                "following_url": "https://api.github.com/users/wgaylord/following{/other_user}",
                "gists_url": "https://api.github.com/users/wgaylord/gists{/gist_id}",
                "gravatar_id": "",
                "html_url": "https://github.com/wgaylord",
                "id": 2133449,
                "login": "wgaylord",
                "node_id": "MDQ6VXNlcjIxMzM0NDk=",
                "organizations_url": "https://api.github.com/users/wgaylord/orgs",
                "received_events_url": "https://api.github.com/users/wgaylord/received_events",
                "repos_url": "https://api.github.com/users/wgaylord/repos",
                "site_admin": false,
                "starred_url": "https://api.github.com/users/wgaylord/starred{/owner}{/repo}",
                "subscriptions_url": "https://api.github.com/users/wgaylord/subscriptions",
                "type": "User",
                "url": "https://api.github.com/users/wgaylord"
            }
        }
    ],
    "comment_regular_data": [],
    "comments": 0,
    "comments_url": "https://api.github.com/repos/PrismarineJS/mineflayer/issues/3263/comments",
    "commit_data": [
        {
            "author": {
                "avatar_url": "https://avatars.githubusercontent.com/u/2133449?v=4",
                "events_url": "https://api.github.com/users/wgaylord/events{/privacy}",
                "followers_url": "https://api.github.com/users/wgaylord/followers",
                "following_url": "https://api.github.com/users/wgaylord/following{/other_user}",
                "gists_url": "https://api.github.com/users/wgaylord/gists{/gist_id}",
                "gravatar_id": "",
                "html_url": "https://github.com/wgaylord",
                "id": 2133449,
                "login": "wgaylord",
                "node_id": "MDQ6VXNlcjIxMzM0NDk=",
                "organizations_url": "https://api.github.com/users/wgaylord/orgs",
                "received_events_url": "https://api.github.com/users/wgaylord/received_events",
                "repos_url": "https://api.github.com/users/wgaylord/repos",
                "site_admin": false,
                "starred_url": "https://api.github.com/users/wgaylord/starred{/owner}{/repo}",
                "subscriptions_url": "https://api.github.com/users/wgaylord/subscriptions",
                "type": "User",
                "url": "https://api.github.com/users/wgaylord"
            },
            "comments_url": "https://api.github.com/repos/PrismarineJS/mineflayer/commits/d72e5e943ed32432eb5640458bc118a5eb50e0b8/comments",
            "commit": {
                "author": {
                    "date": "2023-12-30T22:30:26Z",
                    "email": "chibill110@gmail.com",
                    "name": "William Gaylord"
                },
                "comment_count": 0,
                "committer": {
                    "date": "2023-12-30T22:30:26Z",
                    "email": "noreply@github.com",
                    "name": "GitHub"
                },
                "message": "Add Chunk Batch support",
                "tree": {
                    "sha": "bd68fd7327483c9b55c4c7aef64e6358f617dbfa",
                    "url": "https://api.github.com/repos/PrismarineJS/mineflayer/git/trees/bd68fd7327483c9b55c4c7aef64e6358f617dbfa"
                },
                "url": "https://api.github.com/repos/PrismarineJS/mineflayer/git/commits/d72e5e943ed32432eb5640458bc118a5eb50e0b8",
                "verification": {
                    "payload": "tree bd68fd7327483c9b55c4c7aef64e6358f617dbfa\nparent 8771e3d9f2c385a78ae8905794a1865ae6f4c74b\nauthor William Gaylord <chibill110@gmail.com> 1703975426 -0600\ncommitter GitHub <noreply@github.com> 1703975426 -0600\n\nAdd Chunk Batch support",
                    "reason": "valid",
                    "signature": "-----BEGIN PGP SIGNATURE-----\n\nwsBcBAABCAAQBQJlkJoCCRBK7hj4Ov3rIwAANPoIAAihqGsvq5Eew0PHSLzem9Bp\n1YqNYYi+lkjA7hZXdXl94jQYNKqgi/7tk5RbgnG+72iDiBfkiRBbDeTkvqozt/uE\nzprPP9Kv1F9l0x3ZIX2P12rnvJBLt4EDM1HqRvixc98tRfPq6134i+Pdlj0kMSGP\n66pqTeoLpqlGPzmf3iyGUhjvWm/aLqrdwjnmkDmMXqe5Xz4+/dnW5yfNxDFLD6cc\n6fWyJj23gPqqaBcyTT2EF4TTjpEMJ3ivsnBWeIOW9TbCEC1ANa5rLewE/v8zZcEY\nUvrQewJ9shq+7W7vu/fORHhIY6loovJkDH3Cr+fAKgPXRhEhLjWkBpyTXz/yh+o=\n=E57Z\n-----END PGP SIGNATURE-----\n",
                    "verified": true
                }
            },
            "committer": {
                "avatar_url": "https://avatars.githubusercontent.com/u/19864447?v=4",
                "events_url": "https://api.github.com/users/web-flow/events{/privacy}",
                "followers_url": "https://api.github.com/users/web-flow/followers",
                "following_url": "https://api.github.com/users/web-flow/following{/other_user}",
                "gists_url": "https://api.github.com/users/web-flow/gists{/gist_id}",
                "gravatar_id": "",
                "html_url": "https://github.com/web-flow",
                "id": 19864447,
                "login": "web-flow",
                "node_id": "MDQ6VXNlcjE5ODY0NDQ3",
                "organizations_url": "https://api.github.com/users/web-flow/orgs",
                "received_events_url": "https://api.github.com/users/web-flow/received_events",
                "repos_url": "https://api.github.com/users/web-flow/repos",
                "site_admin": false,
                "starred_url": "https://api.github.com/users/web-flow/starred{/owner}{/repo}",
                "subscriptions_url": "https://api.github.com/users/web-flow/subscriptions",
                "type": "User",
                "url": "https://api.github.com/users/web-flow"
            },
            "html_url": "https://github.com/PrismarineJS/mineflayer/commit/d72e5e943ed32432eb5640458bc118a5eb50e0b8",
            "node_id": "C_kwDOK_K9t9oAKGQ3MmU1ZTk0M2VkMzI0MzJlYjU2NDA0NThiYzExOGE1ZWI1MGUwYjg",
            "parents": [
                {
                    "html_url": "https://github.com/PrismarineJS/mineflayer/commit/8771e3d9f2c385a78ae8905794a1865ae6f4c74b",
                    "sha": "8771e3d9f2c385a78ae8905794a1865ae6f4c74b",
                    "url": "https://api.github.com/repos/PrismarineJS/mineflayer/commits/8771e3d9f2c385a78ae8905794a1865ae6f4c74b"
                }
            ],
            "sha": "d72e5e943ed32432eb5640458bc118a5eb50e0b8",
            "url": "https://api.github.com/repos/PrismarineJS/mineflayer/commits/d72e5e943ed32432eb5640458bc118a5eb50e0b8"
        },
        {
            "author": {
                "avatar_url": "https://avatars.githubusercontent.com/u/2133449?v=4",
                "events_url": "https://api.github.com/users/wgaylord/events{/privacy}",
                "followers_url": "https://api.github.com/users/wgaylord/followers",
                "following_url": "https://api.github.com/users/wgaylord/following{/other_user}",
                "gists_url": "https://api.github.com/users/wgaylord/gists{/gist_id}",
                "gravatar_id": "",
                "html_url": "https://github.com/wgaylord",
                "id": 2133449,
                "login": "wgaylord",
                "node_id": "MDQ6VXNlcjIxMzM0NDk=",
                "organizations_url": "https://api.github.com/users/wgaylord/orgs",
                "received_events_url": "https://api.github.com/users/wgaylord/received_events",
                "repos_url": "https://api.github.com/users/wgaylord/repos",
                "site_admin": false,
                "starred_url": "https://api.github.com/users/wgaylord/starred{/owner}{/repo}",
                "subscriptions_url": "https://api.github.com/users/wgaylord/subscriptions",
                "type": "User",
                "url": "https://api.github.com/users/wgaylord"
            },
            "comments_url": "https://api.github.com/repos/PrismarineJS/mineflayer/commits/57b478b3c187f8767b63bb11d1dc7fb277350d59/comments",
            "commit": {
                "author": {
                    "date": "2023-12-30T22:33:13Z",
                    "email": "chibill110@gmail.com",
                    "name": "William Gaylord"
                },
                "comment_count": 0,
                "committer": {
                    "date": "2023-12-30T22:33:13Z",
                    "email": "noreply@github.com",
                    "name": "GitHub"
                },
                "message": "Fix linting errors.",
                "tree": {
                    "sha": "73e4ccc4ed4d6918800ba779ec1898282cfab0b6",
                    "url": "https://api.github.com/repos/PrismarineJS/mineflayer/git/trees/73e4ccc4ed4d6918800ba779ec1898282cfab0b6"
                },
                "url": "https://api.github.com/repos/PrismarineJS/mineflayer/git/commits/57b478b3c187f8767b63bb11d1dc7fb277350d59",
                "verification": {
                    "payload": "tree 73e4ccc4ed4d6918800ba779ec1898282cfab0b6\nparent d72e5e943ed32432eb5640458bc118a5eb50e0b8\nauthor William Gaylord <chibill110@gmail.com> 1703975593 -0600\ncommitter GitHub <noreply@github.com> 1703975593 -0600\n\nFix linting errors.",
                    "reason": "valid",
                    "signature": "-----BEGIN PGP SIGNATURE-----\n\nwsBcBAABCAAQBQJlkJqpCRBK7hj4Ov3rIwAAeckIAHRHQ1mJW+1fgf4pYgCOeFax\nk3N0JZ3y/oenryJDzcLWe7pfkfgIVzpHFmP2TmwTY53HzQx2Q9JTqPyIREbjjF1I\nTw38w9l3nkLYQ48dd4zz68pzKFX/hIWzmzrJl06hszucXp7vG3v1rCrHhRRcP6lM\ngZwQeWE89YfBl4DLAng6WxfU6wcPjmNh98QgYMpk8/9Ud9T1XnBNThqzU2yBxk7H\n1APrPBZ74DsmovPnV3LsOIFiPR6/QcBmlUWfwQcmcwfUaliBgUUZs9lpNNIwsYUt\nC+3x8BR63gEd00bGYu39OJi71MRV3/FJfcac4nLaEqowJv+mxtD+5k/kKl746q4=\n=50Bd\n-----END PGP SIGNATURE-----\n",
                    "verified": true
                }
            },
            "committer": {
                "avatar_url": "https://avatars.githubusercontent.com/u/19864447?v=4",
                "events_url": "https://api.github.com/users/web-flow/events{/privacy}",
                "followers_url": "https://api.github.com/users/web-flow/followers",
                "following_url": "https://api.github.com/users/web-flow/following{/other_user}",
                "gists_url": "https://api.github.com/users/web-flow/gists{/gist_id}",
                "gravatar_id": "",
                "html_url": "https://github.com/web-flow",
                "id": 19864447,
                "login": "web-flow",
                "node_id": "MDQ6VXNlcjE5ODY0NDQ3",
                "organizations_url": "https://api.github.com/users/web-flow/orgs",
                "received_events_url": "https://api.github.com/users/web-flow/received_events",
                "repos_url": "https://api.github.com/users/web-flow/repos",
                "site_admin": false,
                "starred_url": "https://api.github.com/users/web-flow/starred{/owner}{/repo}",
                "subscriptions_url": "https://api.github.com/users/web-flow/subscriptions",
                "type": "User",
                "url": "https://api.github.com/users/web-flow"
            },
            "html_url": "https://github.com/PrismarineJS/mineflayer/commit/57b478b3c187f8767b63bb11d1dc7fb277350d59",
            "node_id": "C_kwDOK_K9t9oAKDU3YjQ3OGIzYzE4N2Y4NzY3YjYzYmIxMWQxZGM3ZmIyNzczNTBkNTk",
            "parents": [
                {
                    "html_url": "https://github.com/PrismarineJS/mineflayer/commit/d72e5e943ed32432eb5640458bc118a5eb50e0b8",
                    "sha": "d72e5e943ed32432eb5640458bc118a5eb50e0b8",
                    "url": "https://api.github.com/repos/PrismarineJS/mineflayer/commits/d72e5e943ed32432eb5640458bc118a5eb50e0b8"
                }
            ],
            "sha": "57b478b3c187f8767b63bb11d1dc7fb277350d59",
            "url": "https://api.github.com/repos/PrismarineJS/mineflayer/commits/57b478b3c187f8767b63bb11d1dc7fb277350d59"
        },
        {
            "author": {
                "avatar_url": "https://avatars.githubusercontent.com/u/2133449?v=4",
                "events_url": "https://api.github.com/users/wgaylord/events{/privacy}",
                "followers_url": "https://api.github.com/users/wgaylord/followers",
                "following_url": "https://api.github.com/users/wgaylord/following{/other_user}",
                "gists_url": "https://api.github.com/users/wgaylord/gists{/gist_id}",
                "gravatar_id": "",
                "html_url": "https://github.com/wgaylord",
                "id": 2133449,
                "login": "wgaylord",
                "node_id": "MDQ6VXNlcjIxMzM0NDk=",
                "organizations_url": "https://api.github.com/users/wgaylord/orgs",
                "received_events_url": "https://api.github.com/users/wgaylord/received_events",
                "repos_url": "https://api.github.com/users/wgaylord/repos",
                "site_admin": false,
                "starred_url": "https://api.github.com/users/wgaylord/starred{/owner}{/repo}",
                "subscriptions_url": "https://api.github.com/users/wgaylord/subscriptions",
                "type": "User",
                "url": "https://api.github.com/users/wgaylord"
            },
            "comments_url": "https://api.github.com/repos/PrismarineJS/mineflayer/commits/17191973f0a14f35d6b59492e2a14f4576134882/comments",
            "commit": {
                "author": {
                    "date": "2023-12-30T22:36:08Z",
                    "email": "chibill110@gmail.com",
                    "name": "William Gaylord"
                },
                "comment_count": 0,
                "committer": {
                    "date": "2023-12-30T22:36:08Z",
                    "email": "noreply@github.com",
                    "name": "GitHub"
                },
                "message": "I really hate the linter right now.",
                "tree": {
                    "sha": "f673d13450f016ba9f09a4baae44fae44792ddec",
                    "url": "https://api.github.com/repos/PrismarineJS/mineflayer/git/trees/f673d13450f016ba9f09a4baae44fae44792ddec"
                },
                "url": "https://api.github.com/repos/PrismarineJS/mineflayer/git/commits/17191973f0a14f35d6b59492e2a14f4576134882",
                "verification": {
                    "payload": "tree f673d13450f016ba9f09a4baae44fae44792ddec\nparent 57b478b3c187f8767b63bb11d1dc7fb277350d59\nauthor William Gaylord <chibill110@gmail.com> 1703975768 -0600\ncommitter GitHub <noreply@github.com> 1703975768 -0600\n\nI really hate the linter right now.",
                    "reason": "valid",
                    "signature": "-----BEGIN PGP SIGNATURE-----\n\nwsBcBAABCAAQBQJlkJtYCRBK7hj4Ov3rIwAAO/wIAIlx7f7NuRniVmo4uKJAwcHo\n2hTDBPTT3crfEeMDQzpe0TQvIwO58XHe5roynKn+C5tAcPhZg/sBhxRAeY8mmQuQ\nbX0SpI2Z2Q9P58n3qR1I0Cl46y2WmQ/f7BgA3U5WBHEjgqZ+Nn53Mhrq4i5uHt6B\nn/lQRp6fovYtrp4cr2mllxCDzib5Ym/VX+4JIEw7rPQ4+J5QD/RxbCfwVFGKM4Nk\nX88kqYonOUgH+lKiOBKqvqO3YxkpbcC9fdvD25EGkQx92vKiLPrrEWjRGGdwL5Ql\n1hWTFmRiS56XpDRgdiB3MQSp4WDIk1hR/5uwGnzZzdBIy6vKWN6BV+hIZaMsJo4=\n=eNm4\n-----END PGP SIGNATURE-----\n",
                    "verified": true
                }
            },
            "committer": {
                "avatar_url": "https://avatars.githubusercontent.com/u/19864447?v=4",
                "events_url": "https://api.github.com/users/web-flow/events{/privacy}",
                "followers_url": "https://api.github.com/users/web-flow/followers",
                "following_url": "https://api.github.com/users/web-flow/following{/other_user}",
                "gists_url": "https://api.github.com/users/web-flow/gists{/gist_id}",
                "gravatar_id": "",
                "html_url": "https://github.com/web-flow",
                "id": 19864447,
                "login": "web-flow",
                "node_id": "MDQ6VXNlcjE5ODY0NDQ3",
                "organizations_url": "https://api.github.com/users/web-flow/orgs",
                "received_events_url": "https://api.github.com/users/web-flow/received_events",
                "repos_url": "https://api.github.com/users/web-flow/repos",
                "site_admin": false,
                "starred_url": "https://api.github.com/users/web-flow/starred{/owner}{/repo}",
                "subscriptions_url": "https://api.github.com/users/web-flow/subscriptions",
                "type": "User",
                "url": "https://api.github.com/users/web-flow"
            },
            "html_url": "https://github.com/PrismarineJS/mineflayer/commit/17191973f0a14f35d6b59492e2a14f4576134882",
            "node_id": "C_kwDOK_K9t9oAKDE3MTkxOTczZjBhMTRmMzVkNmI1OTQ5MmUyYTE0ZjQ1NzYxMzQ4ODI",
            "parents": [
                {
                    "html_url": "https://github.com/PrismarineJS/mineflayer/commit/57b478b3c187f8767b63bb11d1dc7fb277350d59",
                    "sha": "57b478b3c187f8767b63bb11d1dc7fb277350d59",
                    "url": "https://api.github.com/repos/PrismarineJS/mineflayer/commits/57b478b3c187f8767b63bb11d1dc7fb277350d59"
                }
            ],
            "sha": "17191973f0a14f35d6b59492e2a14f4576134882",
            "url": "https://api.github.com/repos/PrismarineJS/mineflayer/commits/17191973f0a14f35d6b59492e2a14f4576134882"
        },
        {
            "author": {
                "avatar_url": "https://avatars.githubusercontent.com/u/2133449?v=4",
                "events_url": "https://api.github.com/users/wgaylord/events{/privacy}",
                "followers_url": "https://api.github.com/users/wgaylord/followers",
                "following_url": "https://api.github.com/users/wgaylord/following{/other_user}",
                "gists_url": "https://api.github.com/users/wgaylord/gists{/gist_id}",
                "gravatar_id": "",
                "html_url": "https://github.com/wgaylord",
                "id": 2133449,
                "login": "wgaylord",
                "node_id": "MDQ6VXNlcjIxMzM0NDk=",
                "organizations_url": "https://api.github.com/users/wgaylord/orgs",
                "received_events_url": "https://api.github.com/users/wgaylord/received_events",
                "repos_url": "https://api.github.com/users/wgaylord/repos",
                "site_admin": false,
                "starred_url": "https://api.github.com/users/wgaylord/starred{/owner}{/repo}",
                "subscriptions_url": "https://api.github.com/users/wgaylord/subscriptions",
                "type": "User",
                "url": "https://api.github.com/users/wgaylord"
            },
            "comments_url": "https://api.github.com/repos/PrismarineJS/mineflayer/commits/92454dff3411fabcc6b1bb6a7d815c6ab80ee360/comments",
            "commit": {
                "author": {
                    "date": "2023-12-30T23:00:07Z",
                    "email": "chibill110@gmail.com",
                    "name": "William Gaylord"
                },
                "comment_count": 0,
                "committer": {
                    "date": "2023-12-30T23:00:07Z",
                    "email": "noreply@github.com",
                    "name": "GitHub"
                },
                "message": "Comment what chunkbatches are for.",
                "tree": {
                    "sha": "cc95204253450ac5a6e9285655cdc6d77649c6d1",
                    "url": "https://api.github.com/repos/PrismarineJS/mineflayer/git/trees/cc95204253450ac5a6e9285655cdc6d77649c6d1"
                },
                "url": "https://api.github.com/repos/PrismarineJS/mineflayer/git/commits/92454dff3411fabcc6b1bb6a7d815c6ab80ee360",
                "verification": {
                    "payload": "tree cc95204253450ac5a6e9285655cdc6d77649c6d1\nparent 17191973f0a14f35d6b59492e2a14f4576134882\nauthor William Gaylord <chibill110@gmail.com> 1703977207 -0600\ncommitter GitHub <noreply@github.com> 1703977207 -0600\n\nComment what chunkbatches are for.",
                    "reason": "valid",
                    "signature": "-----BEGIN PGP SIGNATURE-----\n\nwsBcBAABCAAQBQJlkKD3CRBK7hj4Ov3rIwAA9I4IAEMoosNPFVjrYPPWZWm3Wg+z\nEMUunVuIqLx0I1FQFoxofDlHStjc/dPNLeZu9j3K+4BtVusRV5papDybxImHraUW\ndD+L9x98pRx8AshmfNoPrUvfY/4JWS5F4orV6dBKteUT0u90ROCjLRfYVVMMJMGn\nzVVD8fi8jrih6+1AWMw6Lp31gg8SG4D9Pl/8eem5GjWTvpRFjQ97BquNPUfUvxSm\nl26WsKJQEXZ0P3iNsfIrJB8ZzmWJv9zM7FPLDrB8MhHHZYm8XlwWo47IBGnWmecb\n+/r//ocJXubPl7tYoehoZYro/9F5OaMB6ug3jWcFeorS7vzndgNp+fK761thGsE=\n=QC/G\n-----END PGP SIGNATURE-----\n",
                    "verified": true
                }
            },
            "committer": {
                "avatar_url": "https://avatars.githubusercontent.com/u/19864447?v=4",
                "events_url": "https://api.github.com/users/web-flow/events{/privacy}",
                "followers_url": "https://api.github.com/users/web-flow/followers",
                "following_url": "https://api.github.com/users/web-flow/following{/other_user}",
                "gists_url": "https://api.github.com/users/web-flow/gists{/gist_id}",
                "gravatar_id": "",
                "html_url": "https://github.com/web-flow",
                "id": 19864447,
                "login": "web-flow",
                "node_id": "MDQ6VXNlcjE5ODY0NDQ3",
                "organizations_url": "https://api.github.com/users/web-flow/orgs",
                "received_events_url": "https://api.github.com/users/web-flow/received_events",
                "repos_url": "https://api.github.com/users/web-flow/repos",
                "site_admin": false,
                "starred_url": "https://api.github.com/users/web-flow/starred{/owner}{/repo}",
                "subscriptions_url": "https://api.github.com/users/web-flow/subscriptions",
                "type": "User",
                "url": "https://api.github.com/users/web-flow"
            },
            "html_url": "https://github.com/PrismarineJS/mineflayer/commit/92454dff3411fabcc6b1bb6a7d815c6ab80ee360",
            "node_id": "C_kwDOK_K9t9oAKDkyNDU0ZGZmMzQxMWZhYmNjNmIxYmI2YTdkODE1YzZhYjgwZWUzNjA",
            "parents": [
                {
                    "html_url": "https://github.com/PrismarineJS/mineflayer/commit/17191973f0a14f35d6b59492e2a14f4576134882",
                    "sha": "17191973f0a14f35d6b59492e2a14f4576134882",
                    "url": "https://api.github.com/repos/PrismarineJS/mineflayer/commits/17191973f0a14f35d6b59492e2a14f4576134882"
                }
            ],
            "sha": "92454dff3411fabcc6b1bb6a7d815c6ab80ee360",
            "url": "https://api.github.com/repos/PrismarineJS/mineflayer/commits/92454dff3411fabcc6b1bb6a7d815c6ab80ee360"
        },
        {
            "author": {
                "avatar_url": "https://avatars.githubusercontent.com/u/2133449?v=4",
                "events_url": "https://api.github.com/users/wgaylord/events{/privacy}",
                "followers_url": "https://api.github.com/users/wgaylord/followers",
                "following_url": "https://api.github.com/users/wgaylord/following{/other_user}",
                "gists_url": "https://api.github.com/users/wgaylord/gists{/gist_id}",
                "gravatar_id": "",
                "html_url": "https://github.com/wgaylord",
                "id": 2133449,
                "login": "wgaylord",
                "node_id": "MDQ6VXNlcjIxMzM0NDk=",
                "organizations_url": "https://api.github.com/users/wgaylord/orgs",
                "received_events_url": "https://api.github.com/users/wgaylord/received_events",
                "repos_url": "https://api.github.com/users/wgaylord/repos",
                "site_admin": false,
                "starred_url": "https://api.github.com/users/wgaylord/starred{/owner}{/repo}",
                "subscriptions_url": "https://api.github.com/users/wgaylord/subscriptions",
                "type": "User",
                "url": "https://api.github.com/users/wgaylord"
            },
            "comments_url": "https://api.github.com/repos/PrismarineJS/mineflayer/commits/5f9089024b02af4374dfc2ee6b9457677fa20565/comments",
            "commit": {
                "author": {
                    "date": "2024-01-01T20:26:35Z",
                    "email": "chibill110@gmail.com",
                    "name": "William Gaylord"
                },
                "comment_count": 0,
                "committer": {
                    "date": "2024-01-01T20:26:35Z",
                    "email": "chibill110@gmail.com",
                    "name": "William Gaylord"
                },
                "message": "Update chunk batch calculation to use Vanilla's calc but updated for Milliseconds vs Nanoseconds",
                "tree": {
                    "sha": "bbdfccd356764532bf06ac7949504bc71217a56f",
                    "url": "https://api.github.com/repos/PrismarineJS/mineflayer/git/trees/bbdfccd356764532bf06ac7949504bc71217a56f"
                },
                "url": "https://api.github.com/repos/PrismarineJS/mineflayer/git/commits/5f9089024b02af4374dfc2ee6b9457677fa20565",
                "verification": {
                    "payload": null,
                    "reason": "unsigned",
                    "signature": null,
                    "verified": false
                }
            },
            "committer": {
                "avatar_url": "https://avatars.githubusercontent.com/u/2133449?v=4",
                "events_url": "https://api.github.com/users/wgaylord/events{/privacy}",
                "followers_url": "https://api.github.com/users/wgaylord/followers",
                "following_url": "https://api.github.com/users/wgaylord/following{/other_user}",
                "gists_url": "https://api.github.com/users/wgaylord/gists{/gist_id}",
                "gravatar_id": "",
                "html_url": "https://github.com/wgaylord",
                "id": 2133449,
                "login": "wgaylord",
                "node_id": "MDQ6VXNlcjIxMzM0NDk=",
                "organizations_url": "https://api.github.com/users/wgaylord/orgs",
                "received_events_url": "https://api.github.com/users/wgaylord/received_events",
                "repos_url": "https://api.github.com/users/wgaylord/repos",
                "site_admin": false,
                "starred_url": "https://api.github.com/users/wgaylord/starred{/owner}{/repo}",
                "subscriptions_url": "https://api.github.com/users/wgaylord/subscriptions",
                "type": "User",
                "url": "https://api.github.com/users/wgaylord"
            },
            "html_url": "https://github.com/PrismarineJS/mineflayer/commit/5f9089024b02af4374dfc2ee6b9457677fa20565",
            "node_id": "C_kwDOK_K9t9oAKDVmOTA4OTAyNGIwMmFmNDM3NGRmYzJlZTZiOTQ1NzY3N2ZhMjA1NjU",
            "parents": [
                {
                    "html_url": "https://github.com/PrismarineJS/mineflayer/commit/92454dff3411fabcc6b1bb6a7d815c6ab80ee360",
                    "sha": "92454dff3411fabcc6b1bb6a7d815c6ab80ee360",
                    "url": "https://api.github.com/repos/PrismarineJS/mineflayer/commits/92454dff3411fabcc6b1bb6a7d815c6ab80ee360"
                }
            ],
            "sha": "5f9089024b02af4374dfc2ee6b9457677fa20565",
            "url": "https://api.github.com/repos/PrismarineJS/mineflayer/commits/5f9089024b02af4374dfc2ee6b9457677fa20565"
        },
        {
            "author": {
                "avatar_url": "https://avatars.githubusercontent.com/u/2133449?v=4",
                "events_url": "https://api.github.com/users/wgaylord/events{/privacy}",
                "followers_url": "https://api.github.com/users/wgaylord/followers",
                "following_url": "https://api.github.com/users/wgaylord/following{/other_user}",
                "gists_url": "https://api.github.com/users/wgaylord/gists{/gist_id}",
                "gravatar_id": "",
                "html_url": "https://github.com/wgaylord",
                "id": 2133449,
                "login": "wgaylord",
                "node_id": "MDQ6VXNlcjIxMzM0NDk=",
                "organizations_url": "https://api.github.com/users/wgaylord/orgs",
                "received_events_url": "https://api.github.com/users/wgaylord/received_events",
                "repos_url": "https://api.github.com/users/wgaylord/repos",
                "site_admin": false,
                "starred_url": "https://api.github.com/users/wgaylord/starred{/owner}{/repo}",
                "subscriptions_url": "https://api.github.com/users/wgaylord/subscriptions",
                "type": "User",
                "url": "https://api.github.com/users/wgaylord"
            },
            "comments_url": "https://api.github.com/repos/PrismarineJS/mineflayer/commits/9ba3649cccb22f2a5e05fa24e9639d7fc976624d/comments",
            "commit": {
                "author": {
                    "date": "2024-01-02T00:22:17Z",
                    "email": "chibill110@gmail.com",
                    "name": "William Gaylord"
                },
                "comment_count": 0,
                "committer": {
                    "date": "2024-01-02T00:22:17Z",
                    "email": "noreply@github.com",
                    "name": "GitHub"
                },
                "message": "Fix usage of variables starting with capital letters",
                "tree": {
                    "sha": "e60945907fa7290bf9676e82102f747c23bba854",
                    "url": "https://api.github.com/repos/PrismarineJS/mineflayer/git/trees/e60945907fa7290bf9676e82102f747c23bba854"
                },
                "url": "https://api.github.com/repos/PrismarineJS/mineflayer/git/commits/9ba3649cccb22f2a5e05fa24e9639d7fc976624d",
                "verification": {
                    "payload": "tree e60945907fa7290bf9676e82102f747c23bba854\nparent 5f9089024b02af4374dfc2ee6b9457677fa20565\nauthor William Gaylord <chibill110@gmail.com> 1704154937 -0600\ncommitter GitHub <noreply@github.com> 1704154937 -0600\n\nFix usage of variables starting with capital letters",
                    "reason": "valid",
                    "signature": "-----BEGIN PGP SIGNATURE-----\n\nwsBcBAABCAAQBQJlk1c5CRBK7hj4Ov3rIwAAxsMIACZ2ukFHwlHGfZooeoVngGOd\nDigdIJZ6pcL3O87QV8DC19J/JnS5+lTJ4PqasxJA4AF5NoTbMWqZUgetnH0Iycce\nVn6XWfXDf2C0PrTAJR+miD9GnAkZO3cexh27H47A8CoGEqhcXbm7lpvLgbGYg1Um\nhiBnV2b4u0n/IffaM8P3/IZcKDtiCKtBfn+um6oV/pcTbwaW0BaYPsLDpQrhihFN\nBl8fo/427TjkMk2Ozomxs0iVFvDKZog+5VQcxRlVonnr1VZOKabu/HM0w6ma673A\nYXxGTf6y5eebjllYkjTzr4Mo++jokD1c2rfzkziGdhEDT8gzPjgb7IdDnmlgp3I=\n=XSa5\n-----END PGP SIGNATURE-----\n",
                    "verified": true
                }
            },
            "committer": {
                "avatar_url": "https://avatars.githubusercontent.com/u/19864447?v=4",
                "events_url": "https://api.github.com/users/web-flow/events{/privacy}",
                "followers_url": "https://api.github.com/users/web-flow/followers",
                "following_url": "https://api.github.com/users/web-flow/following{/other_user}",
                "gists_url": "https://api.github.com/users/web-flow/gists{/gist_id}",
                "gravatar_id": "",
                "html_url": "https://github.com/web-flow",
                "id": 19864447,
                "login": "web-flow",
                "node_id": "MDQ6VXNlcjE5ODY0NDQ3",
                "organizations_url": "https://api.github.com/users/web-flow/orgs",
                "received_events_url": "https://api.github.com/users/web-flow/received_events",
                "repos_url": "https://api.github.com/users/web-flow/repos",
                "site_admin": false,
                "starred_url": "https://api.github.com/users/web-flow/starred{/owner}{/repo}",
                "subscriptions_url": "https://api.github.com/users/web-flow/subscriptions",
                "type": "User",
                "url": "https://api.github.com/users/web-flow"
            },
            "html_url": "https://github.com/PrismarineJS/mineflayer/commit/9ba3649cccb22f2a5e05fa24e9639d7fc976624d",
            "node_id": "C_kwDOK_K9t9oAKDliYTM2NDljY2NiMjJmMmE1ZTA1ZmEyNGU5NjM5ZDdmYzk3NjYyNGQ",
            "parents": [
                {
                    "html_url": "https://github.com/PrismarineJS/mineflayer/commit/5f9089024b02af4374dfc2ee6b9457677fa20565",
                    "sha": "5f9089024b02af4374dfc2ee6b9457677fa20565",
                    "url": "https://api.github.com/repos/PrismarineJS/mineflayer/commits/5f9089024b02af4374dfc2ee6b9457677fa20565"
                }
            ],
            "sha": "9ba3649cccb22f2a5e05fa24e9639d7fc976624d",
            "url": "https://api.github.com/repos/PrismarineJS/mineflayer/commits/9ba3649cccb22f2a5e05fa24e9639d7fc976624d"
        }
    ],
    "commits": 6,
    "commits_url": "https://api.github.com/repos/PrismarineJS/mineflayer/pulls/3263/commits",
    "created_at": "2023-12-30T22:30:59Z",
    "deletions": 0,
    "diff_url": "https://github.com/PrismarineJS/mineflayer/pull/3263.diff",
    "draft": false,
    "head": {
        "label": "wgaylord:mc-1.20.2-chunk_batch",
        "ref": "mc-1.20.2-chunk_batch",
        "repo": {
            "allow_forking": true,
            "archive_url": "https://api.github.com/repos/wgaylord/mineflayer/{archive_format}{/ref}",
            "archived": false,
            "assignees_url": "https://api.github.com/repos/wgaylord/mineflayer/assignees{/user}",
            "blobs_url": "https://api.github.com/repos/wgaylord/mineflayer/git/blobs{/sha}",
            "branches_url": "https://api.github.com/repos/wgaylord/mineflayer/branches{/branch}",
            "clone_url": "https://github.com/wgaylord/mineflayer.git",
            "collaborators_url": "https://api.github.com/repos/wgaylord/mineflayer/collaborators{/collaborator}",
            "comments_url": "https://api.github.com/repos/wgaylord/mineflayer/comments{/number}",
            "commits_url": "https://api.github.com/repos/wgaylord/mineflayer/commits{/sha}",
            "compare_url": "https://api.github.com/repos/wgaylord/mineflayer/compare/{base}...{head}",
            "contents_url": "https://api.github.com/repos/wgaylord/mineflayer/contents/{+path}",
            "contributors_url": "https://api.github.com/repos/wgaylord/mineflayer/contributors",
            "created_at": "2023-12-30T16:30:12Z",
            "default_branch": "master",
            "deployments_url": "https://api.github.com/repos/wgaylord/mineflayer/deployments",
            "description": "Create Minecraft bots with a powerful, stable, and high level JavaScript API.",
            "disabled": false,
            "downloads_url": "https://api.github.com/repos/wgaylord/mineflayer/downloads",
            "events_url": "https://api.github.com/repos/wgaylord/mineflayer/events",
            "fork": true,
            "forks": 0,
            "forks_count": 0,
            "forks_url": "https://api.github.com/repos/wgaylord/mineflayer/forks",
            "full_name": "wgaylord/mineflayer",
            "git_commits_url": "https://api.github.com/repos/wgaylord/mineflayer/git/commits{/sha}",
            "git_refs_url": "https://api.github.com/repos/wgaylord/mineflayer/git/refs{/sha}",
            "git_tags_url": "https://api.github.com/repos/wgaylord/mineflayer/git/tags{/sha}",
            "git_url": "git://github.com/wgaylord/mineflayer.git",
            "has_discussions": false,
            "has_downloads": true,
            "has_issues": false,
            "has_pages": false,
            "has_projects": true,
            "has_wiki": true,
            "homepage": "https://prismarinejs.github.io/mineflayer/",
            "hooks_url": "https://api.github.com/repos/wgaylord/mineflayer/hooks",
            "html_url": "https://github.com/wgaylord/mineflayer",
            "id": 737328567,
            "is_template": false,
            "issue_comment_url": "https://api.github.com/repos/wgaylord/mineflayer/issues/comments{/number}",
            "issue_events_url": "https://api.github.com/repos/wgaylord/mineflayer/issues/events{/number}",
            "issues_url": "https://api.github.com/repos/wgaylord/mineflayer/issues{/number}",
            "keys_url": "https://api.github.com/repos/wgaylord/mineflayer/keys{/key_id}",
            "labels_url": "https://api.github.com/repos/wgaylord/mineflayer/labels{/name}",
            "language": "JavaScript",
            "languages_url": "https://api.github.com/repos/wgaylord/mineflayer/languages",
            "license": {
                "key": "mit",
                "name": "MIT License",
                "node_id": "MDc6TGljZW5zZTEz",
                "spdx_id": "MIT",
                "url": "https://api.github.com/licenses/mit"
            },
            "merges_url": "https://api.github.com/repos/wgaylord/mineflayer/merges",
            "milestones_url": "https://api.github.com/repos/wgaylord/mineflayer/milestones{/number}",
            "mirror_url": null,
            "name": "mineflayer",
            "node_id": "R_kgDOK_K9tw",
            "notifications_url": "https://api.github.com/repos/wgaylord/mineflayer/notifications{?since,all,participating}",
            "open_issues": 0,
            "open_issues_count": 0,
            "owner": {
                "avatar_url": "https://avatars.githubusercontent.com/u/2133449?v=4",
                "events_url": "https://api.github.com/users/wgaylord/events{/privacy}",
                "followers_url": "https://api.github.com/users/wgaylord/followers",
                "following_url": "https://api.github.com/users/wgaylord/following{/other_user}",
                "gists_url": "https://api.github.com/users/wgaylord/gists{/gist_id}",
                "gravatar_id": "",
                "html_url": "https://github.com/wgaylord",
                "id": 2133449,
                "login": "wgaylord",
                "node_id": "MDQ6VXNlcjIxMzM0NDk=",
                "organizations_url": "https://api.github.com/users/wgaylord/orgs",
                "received_events_url": "https://api.github.com/users/wgaylord/received_events",
                "repos_url": "https://api.github.com/users/wgaylord/repos",
                "site_admin": false,
                "starred_url": "https://api.github.com/users/wgaylord/starred{/owner}{/repo}",
                "subscriptions_url": "https://api.github.com/users/wgaylord/subscriptions",
                "type": "User",
                "url": "https://api.github.com/users/wgaylord"
            },
            "private": false,
            "pulls_url": "https://api.github.com/repos/wgaylord/mineflayer/pulls{/number}",
            "pushed_at": "2024-01-02T00:22:17Z",
            "releases_url": "https://api.github.com/repos/wgaylord/mineflayer/releases{/id}",
            "size": 12094,
            "ssh_url": "git@github.com:wgaylord/mineflayer.git",
            "stargazers_count": 0,
            "stargazers_url": "https://api.github.com/repos/wgaylord/mineflayer/stargazers",
            "statuses_url": "https://api.github.com/repos/wgaylord/mineflayer/statuses/{sha}",
            "subscribers_url": "https://api.github.com/repos/wgaylord/mineflayer/subscribers",
            "subscription_url": "https://api.github.com/repos/wgaylord/mineflayer/subscription",
            "svn_url": "https://github.com/wgaylord/mineflayer",
            "tags_url": "https://api.github.com/repos/wgaylord/mineflayer/tags",
            "teams_url": "https://api.github.com/repos/wgaylord/mineflayer/teams",
            "topics": [],
            "trees_url": "https://api.github.com/repos/wgaylord/mineflayer/git/trees{/sha}",
            "updated_at": "2023-12-30T22:21:52Z",
            "url": "https://api.github.com/repos/wgaylord/mineflayer",
            "visibility": "public",
            "watchers": 0,
            "watchers_count": 0,
            "web_commit_signoff_required": false
        },
        "sha": "9ba3649cccb22f2a5e05fa24e9639d7fc976624d",
        "user": {
            "avatar_url": "https://avatars.githubusercontent.com/u/2133449?v=4",
            "events_url": "https://api.github.com/users/wgaylord/events{/privacy}",
            "followers_url": "https://api.github.com/users/wgaylord/followers",
            "following_url": "https://api.github.com/users/wgaylord/following{/other_user}",
            "gists_url": "https://api.github.com/users/wgaylord/gists{/gist_id}",
            "gravatar_id": "",
            "html_url": "https://github.com/wgaylord",
            "id": 2133449,
            "login": "wgaylord",
            "node_id": "MDQ6VXNlcjIxMzM0NDk=",
            "organizations_url": "https://api.github.com/users/wgaylord/orgs",
            "received_events_url": "https://api.github.com/users/wgaylord/received_events",
            "repos_url": "https://api.github.com/users/wgaylord/repos",
            "site_admin": false,
            "starred_url": "https://api.github.com/users/wgaylord/starred{/owner}{/repo}",
            "subscriptions_url": "https://api.github.com/users/wgaylord/subscriptions",
            "type": "User",
            "url": "https://api.github.com/users/wgaylord"
        }
    },
    "html_url": "https://github.com/PrismarineJS/mineflayer/pull/3263",
    "id": 1660516420,
    "issue_url": "https://api.github.com/repos/PrismarineJS/mineflayer/issues/3263",
    "labels": [],
    "locked": false,
    "maintainer_can_modify": false,
    "merge_commit_sha": "c5982bd2d378b37e275d218ed48ce9dad7fbb3d2",
    "mergeable": null,
    "mergeable_state": "unknown",
    "merged": true,
    "merged_at": "2024-01-02T01:06:08Z",
    "merged_by": {
        "avatar_url": "https://avatars.githubusercontent.com/u/2346494?v=4",
        "events_url": "https://api.github.com/users/rom1504/events{/privacy}",
        "followers_url": "https://api.github.com/users/rom1504/followers",
        "following_url": "https://api.github.com/users/rom1504/following{/other_user}",
        "gists_url": "https://api.github.com/users/rom1504/gists{/gist_id}",
        "gravatar_id": "",
        "html_url": "https://github.com/rom1504",
        "id": 2346494,
        "login": "rom1504",
        "node_id": "MDQ6VXNlcjIzNDY0OTQ=",
        "organizations_url": "https://api.github.com/users/rom1504/orgs",
        "received_events_url": "https://api.github.com/users/rom1504/received_events",
        "repos_url": "https://api.github.com/users/rom1504/repos",
        "site_admin": false,
        "starred_url": "https://api.github.com/users/rom1504/starred{/owner}{/repo}",
        "subscriptions_url": "https://api.github.com/users/rom1504/subscriptions",
        "type": "User",
        "url": "https://api.github.com/users/rom1504"
    },
    "milestone": null,
    "node_id": "PR_kwDOABOYWc5i-XhE",
    "number": 3263,
    "patch_url": "https://github.com/PrismarineJS/mineflayer/pull/3263.patch",
    "rebaseable": null,
    "requested_reviewers": [],
    "requested_teams": [],
    "review_comment_url": "https://api.github.com/repos/PrismarineJS/mineflayer/pulls/comments{/number}",
    "review_comments": 11,
    "review_comments_url": "https://api.github.com/repos/PrismarineJS/mineflayer/pulls/3263/comments",
    "state": "closed",
    "statuses_url": "https://api.github.com/repos/PrismarineJS/mineflayer/statuses/9ba3649cccb22f2a5e05fa24e9639d7fc976624d",
    "title": "Add Chunk Batch support",
    "updated_at": "2024-01-02T01:06:09Z",
    "url": "https://api.github.com/repos/PrismarineJS/mineflayer/pulls/3263",
    "user": {
        "avatar_url": "https://avatars.githubusercontent.com/u/2133449?v=4",
        "events_url": "https://api.github.com/users/wgaylord/events{/privacy}",
        "followers_url": "https://api.github.com/users/wgaylord/followers",
        "following_url": "https://api.github.com/users/wgaylord/following{/other_user}",
        "gists_url": "https://api.github.com/users/wgaylord/gists{/gist_id}",
        "gravatar_id": "",
        "html_url": "https://github.com/wgaylord",
        "id": 2133449,
        "login": "wgaylord",
        "node_id": "MDQ6VXNlcjIxMzM0NDk=",
        "organizations_url": "https://api.github.com/users/wgaylord/orgs",
        "received_events_url": "https://api.github.com/users/wgaylord/received_events",
        "repos_url": "https://api.github.com/users/wgaylord/repos",
        "site_admin": false,
        "starred_url": "https://api.github.com/users/wgaylord/starred{/owner}{/repo}",
        "subscriptions_url": "https://api.github.com/users/wgaylord/subscriptions",
        "type": "User",
        "url": "https://api.github.com/users/wgaylord"
    }
}