{
    "_links": {
        "comments": {
            "href": "https://api.github.com/repos/PrismarineJS/mineflayer/issues/3290/comments"
        },
        "commits": {
            "href": "https://api.github.com/repos/PrismarineJS/mineflayer/pulls/3290/commits"
        },
        "html": {
            "href": "https://github.com/PrismarineJS/mineflayer/pull/3290"
        },
        "issue": {
            "href": "https://api.github.com/repos/PrismarineJS/mineflayer/issues/3290"
        },
        "review_comment": {
            "href": "https://api.github.com/repos/PrismarineJS/mineflayer/pulls/comments{/number}"
        },
        "review_comments": {
            "href": "https://api.github.com/repos/PrismarineJS/mineflayer/pulls/3290/comments"
        },
        "self": {
            "href": "https://api.github.com/repos/PrismarineJS/mineflayer/pulls/3290"
        },
        "statuses": {
            "href": "https://api.github.com/repos/PrismarineJS/mineflayer/statuses/cb0c1fedb2478d958b3ae339b96be7fce5bdc907"
        }
    },
    "active_lock_reason": null,
    "additions": 20,
    "assignee": null,
    "assignees": [],
    "author_association": "CONTRIBUTOR",
    "auto_merge": null,
    "base": {
        "label": "PrismarineJS:master",
        "ref": "master",
        "repo": {
            "allow_forking": true,
            "archive_url": "https://api.github.com/repos/PrismarineJS/mineflayer/{archive_format}{/ref}",
            "archived": false,
            "assignees_url": "https://api.github.com/repos/PrismarineJS/mineflayer/assignees{/user}",
            "blobs_url": "https://api.github.com/repos/PrismarineJS/mineflayer/git/blobs{/sha}",
            "branches_url": "https://api.github.com/repos/PrismarineJS/mineflayer/branches{/branch}",
            "clone_url": "https://github.com/PrismarineJS/mineflayer.git",
            "collaborators_url": "https://api.github.com/repos/PrismarineJS/mineflayer/collaborators{/collaborator}",
            "comments_url": "https://api.github.com/repos/PrismarineJS/mineflayer/comments{/number}",
            "commits_url": "https://api.github.com/repos/PrismarineJS/mineflayer/commits{/sha}",
            "compare_url": "https://api.github.com/repos/PrismarineJS/mineflayer/compare/{base}...{head}",
            "contents_url": "https://api.github.com/repos/PrismarineJS/mineflayer/contents/{+path}",
            "contributors_url": "https://api.github.com/repos/PrismarineJS/mineflayer/contributors",
            "created_at": "2011-01-23T09:41:55Z",
            "default_branch": "master",
            "deployments_url": "https://api.github.com/repos/PrismarineJS/mineflayer/deployments",
            "description": "Create Minecraft bots with a powerful, stable, and high level JavaScript API.",
            "disabled": false,
            "downloads_url": "https://api.github.com/repos/PrismarineJS/mineflayer/downloads",
            "events_url": "https://api.github.com/repos/PrismarineJS/mineflayer/events",
            "fork": false,
            "forks": 830,
            "forks_count": 830,
            "forks_url": "https://api.github.com/repos/PrismarineJS/mineflayer/forks",
            "full_name": "PrismarineJS/mineflayer",
            "git_commits_url": "https://api.github.com/repos/PrismarineJS/mineflayer/git/commits{/sha}",
            "git_refs_url": "https://api.github.com/repos/PrismarineJS/mineflayer/git/refs{/sha}",
            "git_tags_url": "https://api.github.com/repos/PrismarineJS/mineflayer/git/tags{/sha}",
            "git_url": "git://github.com/PrismarineJS/mineflayer.git",
            "has_discussions": true,
            "has_downloads": true,
            "has_issues": true,
            "has_pages": true,
            "has_projects": true,
            "has_wiki": true,
            "homepage": "https://prismarinejs.github.io/mineflayer/",
            "hooks_url": "https://api.github.com/repos/PrismarineJS/mineflayer/hooks",
            "html_url": "https://github.com/PrismarineJS/mineflayer",
            "id": 1284185,
            "is_template": false,
            "issue_comment_url": "https://api.github.com/repos/PrismarineJS/mineflayer/issues/comments{/number}",
            "issue_events_url": "https://api.github.com/repos/PrismarineJS/mineflayer/issues/events{/number}",
            "issues_url": "https://api.github.com/repos/PrismarineJS/mineflayer/issues{/number}",
            "keys_url": "https://api.github.com/repos/PrismarineJS/mineflayer/keys{/key_id}",
            "labels_url": "https://api.github.com/repos/PrismarineJS/mineflayer/labels{/name}",
            "language": "JavaScript",
            "languages_url": "https://api.github.com/repos/PrismarineJS/mineflayer/languages",
            "license": {
                "key": "mit",
                "name": "MIT License",
                "node_id": "MDc6TGljZW5zZTEz",
                "spdx_id": "MIT",
                "url": "https://api.github.com/licenses/mit"
            },
            "merges_url": "https://api.github.com/repos/PrismarineJS/mineflayer/merges",
            "milestones_url": "https://api.github.com/repos/PrismarineJS/mineflayer/milestones{/number}",
            "mirror_url": null,
            "name": "mineflayer",
            "node_id": "MDEwOlJlcG9zaXRvcnkxMjg0MTg1",
            "notifications_url": "https://api.github.com/repos/PrismarineJS/mineflayer/notifications{?since,all,participating}",
            "open_issues": 290,
            "open_issues_count": 290,
            "owner": {
                "avatar_url": "https://avatars.githubusercontent.com/u/11053411?v=4",
                "events_url": "https://api.github.com/users/PrismarineJS/events{/privacy}",
                "followers_url": "https://api.github.com/users/PrismarineJS/followers",
                "following_url": "https://api.github.com/users/PrismarineJS/following{/other_user}",
                "gists_url": "https://api.github.com/users/PrismarineJS/gists{/gist_id}",
                "gravatar_id": "",
                "html_url": "https://github.com/PrismarineJS",
                "id": 11053411,
                "login": "PrismarineJS",
                "node_id": "MDEyOk9yZ2FuaXphdGlvbjExMDUzNDEx",
                "organizations_url": "https://api.github.com/users/PrismarineJS/orgs",
                "received_events_url": "https://api.github.com/users/PrismarineJS/received_events",
                "repos_url": "https://api.github.com/users/PrismarineJS/repos",
                "site_admin": false,
                "starred_url": "https://api.github.com/users/PrismarineJS/starred{/owner}{/repo}",
                "subscriptions_url": "https://api.github.com/users/PrismarineJS/subscriptions",
                "type": "Organization",
                "url": "https://api.github.com/users/PrismarineJS"
            },
            "private": false,
            "pulls_url": "https://api.github.com/repos/PrismarineJS/mineflayer/pulls{/number}",
            "pushed_at": "2024-01-25T21:57:29Z",
            "releases_url": "https://api.github.com/repos/PrismarineJS/mineflayer/releases{/id}",
            "size": 12284,
            "ssh_url": "git@github.com:PrismarineJS/mineflayer.git",
            "stargazers_count": 4356,
            "stargazers_url": "https://api.github.com/repos/PrismarineJS/mineflayer/stargazers",
            "statuses_url": "https://api.github.com/repos/PrismarineJS/mineflayer/statuses/{sha}",
            "subscribers_url": "https://api.github.com/repos/PrismarineJS/mineflayer/subscribers",
            "subscription_url": "https://api.github.com/repos/PrismarineJS/mineflayer/subscription",
            "svn_url": "https://github.com/PrismarineJS/mineflayer",
            "tags_url": "https://api.github.com/repos/PrismarineJS/mineflayer/tags",
            "teams_url": "https://api.github.com/repos/PrismarineJS/mineflayer/teams",
            "topics": [
                "bot",
                "minecraft",
                "minecraft-api",
                "minecraft-bot",
                "network",
                "nodejs"
            ],
            "trees_url": "https://api.github.com/repos/PrismarineJS/mineflayer/git/trees{/sha}",
            "updated_at": "2024-01-25T22:27:51Z",
            "url": "https://api.github.com/repos/PrismarineJS/mineflayer",
            "visibility": "public",
            "watchers": 4356,
            "watchers_count": 4356,
            "web_commit_signoff_required": false
        },
        "sha": "298d4425424f94907c5602bfd6011ee6030b5ae2",
        "user": {
            "avatar_url": "https://avatars.githubusercontent.com/u/11053411?v=4",
            "events_url": "https://api.github.com/users/PrismarineJS/events{/privacy}",
            "followers_url": "https://api.github.com/users/PrismarineJS/followers",
            "following_url": "https://api.github.com/users/PrismarineJS/following{/other_user}",
            "gists_url": "https://api.github.com/users/PrismarineJS/gists{/gist_id}",
            "gravatar_id": "",
            "html_url": "https://github.com/PrismarineJS",
            "id": 11053411,
            "login": "PrismarineJS",
            "node_id": "MDEyOk9yZ2FuaXphdGlvbjExMDUzNDEx",
            "organizations_url": "https://api.github.com/users/PrismarineJS/orgs",
            "received_events_url": "https://api.github.com/users/PrismarineJS/received_events",
            "repos_url": "https://api.github.com/users/PrismarineJS/repos",
            "site_admin": false,
            "starred_url": "https://api.github.com/users/PrismarineJS/starred{/owner}{/repo}",
            "subscriptions_url": "https://api.github.com/users/PrismarineJS/subscriptions",
            "type": "Organization",
            "url": "https://api.github.com/users/PrismarineJS"
        }
    },
    "body": null,
    "changed_files": 1,
    "closed_at": "2024-01-25T21:57:05Z",
    "comment_data": [],
    "comment_regular_data": [],
    "comments": 0,
    "comments_url": "https://api.github.com/repos/PrismarineJS/mineflayer/issues/3290/comments",
    "commit_data": [
        {
            "author": {
                "avatar_url": "https://avatars.githubusercontent.com/u/113701655?v=4",
                "events_url": "https://api.github.com/users/SilianZ/events{/privacy}",
                "followers_url": "https://api.github.com/users/SilianZ/followers",
                "following_url": "https://api.github.com/users/SilianZ/following{/other_user}",
                "gists_url": "https://api.github.com/users/SilianZ/gists{/gist_id}",
                "gravatar_id": "",
                "html_url": "https://github.com/SilianZ",
                "id": 113701655,
                "login": "SilianZ",
                "node_id": "U_kgDOBsbzFw",
                "organizations_url": "https://api.github.com/users/SilianZ/orgs",
                "received_events_url": "https://api.github.com/users/SilianZ/received_events",
                "repos_url": "https://api.github.com/users/SilianZ/repos",
                "site_admin": false,
                "starred_url": "https://api.github.com/users/SilianZ/starred{/owner}{/repo}",
                "subscriptions_url": "https://api.github.com/users/SilianZ/subscriptions",
                "type": "User",
                "url": "https://api.github.com/users/SilianZ"
            },
            "comments_url": "https://api.github.com/repos/PrismarineJS/mineflayer/commits/cb0c1fedb2478d958b3ae339b96be7fce5bdc907/comments",
            "commit": {
                "author": {
                    "date": "2024-01-22T14:10:26Z",
                    "email": "113701655+SilianZ@users.noreply.github.com",
                    "name": "SilianZ"
                },
                "comment_count": 0,
                "committer": {
                    "date": "2024-01-22T14:10:26Z",
                    "email": "noreply@github.com",
                    "name": "GitHub"
                },
                "message": "Fixed some typo",
                "tree": {
                    "sha": "40720fb9916730255a47eb3122c8fdbb5253fb8d",
                    "url": "https://api.github.com/repos/PrismarineJS/mineflayer/git/trees/40720fb9916730255a47eb3122c8fdbb5253fb8d"
                },
                "url": "https://api.github.com/repos/PrismarineJS/mineflayer/git/commits/cb0c1fedb2478d958b3ae339b96be7fce5bdc907",
                "verification": {
                    "payload": "tree 40720fb9916730255a47eb3122c8fdbb5253fb8d\nparent 298d4425424f94907c5602bfd6011ee6030b5ae2\nauthor SilianZ <113701655+SilianZ@users.noreply.github.com> 1705932626 +0800\ncommitter GitHub <noreply@github.com> 1705932626 +0800\n\nFixed some typo",
                    "reason": "valid",
                    "signature": "-----BEGIN PGP SIGNATURE-----\n\nwsFcBAABCAAQBQJlrndTCRC1aQ7uu5UhlAAA/toQADZSObVUhSYqRnc18kW6RjZm\nbjX9OWMpdaomQCGcteaVbSfvSsR4iL9jQK68Hp2uljgSHPXGAE/rqbcfqAUsLBI1\n1GTDEWAKfDyN/Xt3TUfxeTkH0p1yznmTPO726e8qp9NFfzEohgZB+QMDCoWZIZKp\ndeCyjdOP8B58Xl915uZ3KX4+AGBhljvRKGsMxFsiWffucOUo3QFq6yBkBI//Im/a\nNMnEm4Nv+5lghf9UsvyOsXmD42YxaoLZ68pa5YxwXMf/U8sUASDJW/Thqq6DPljd\nDCwrae+/ofzTjv5Ii9/CR30l1cIT8XHoYjdSInQdzKlu2+5LqKXGfCNzVI12ABe2\nfHr4ce3nsXj7r7hNvd9vYo5vL7k9Uta8ZCjl98C1QYXJD8ucJGEHWOaER7SdFbnA\nKNHME7lFwpFGy8xloLs8WoNkopugTfakPyliokGbioSAuD31lvg9N5Ebp6dNSeEl\nthebZ/OyJZ4B6QO4fzB6GF4B4/JwnY2V0BuvjxgGqoGBiZluVRtS0dHeLYOqln8Y\nIHwABxtuhnAt4th9c0K8FmxqmfPxRpQtVH/EMle11Jvwv+gfMrE0M5UTNbJkWBrz\nNLUUgqMqmrYE0kjvsrPW4ac4xxTwfUJtE8+/Nhy2dYemFOvIn2VnfRLQ4LBbboCf\n0s2CXrg5QAJ0RukdX4Wh\n=NHRT\n-----END PGP SIGNATURE-----\n",
                    "verified": true
                }
            },
            "committer": {
                "avatar_url": "https://avatars.githubusercontent.com/u/19864447?v=4",
                "events_url": "https://api.github.com/users/web-flow/events{/privacy}",
                "followers_url": "https://api.github.com/users/web-flow/followers",
                "following_url": "https://api.github.com/users/web-flow/following{/other_user}",
                "gists_url": "https://api.github.com/users/web-flow/gists{/gist_id}",
                "gravatar_id": "",
                "html_url": "https://github.com/web-flow",
                "id": 19864447,
                "login": "web-flow",
                "node_id": "MDQ6VXNlcjE5ODY0NDQ3",
                "organizations_url": "https://api.github.com/users/web-flow/orgs",
                "received_events_url": "https://api.github.com/users/web-flow/received_events",
                "repos_url": "https://api.github.com/users/web-flow/repos",
                "site_admin": false,
                "starred_url": "https://api.github.com/users/web-flow/starred{/owner}{/repo}",
                "subscriptions_url": "https://api.github.com/users/web-flow/subscriptions",
                "type": "User",
                "url": "https://api.github.com/users/web-flow"
            },
            "html_url": "https://github.com/PrismarineJS/mineflayer/commit/cb0c1fedb2478d958b3ae339b96be7fce5bdc907",
            "node_id": "C_kwDOLIG4NNoAKGNiMGMxZmVkYjI0NzhkOTU4YjNhZTMzOWI5NmJlN2ZjZTViZGM5MDc",
            "parents": [
                {
                    "html_url": "https://github.com/PrismarineJS/mineflayer/commit/298d4425424f94907c5602bfd6011ee6030b5ae2",
                    "sha": "298d4425424f94907c5602bfd6011ee6030b5ae2",
                    "url": "https://api.github.com/repos/PrismarineJS/mineflayer/commits/298d4425424f94907c5602bfd6011ee6030b5ae2"
                }
            ],
            "sha": "cb0c1fedb2478d958b3ae339b96be7fce5bdc907",
            "url": "https://api.github.com/repos/PrismarineJS/mineflayer/commits/cb0c1fedb2478d958b3ae339b96be7fce5bdc907"
        }
    ],
    "commits": 1,
    "commits_url": "https://api.github.com/repos/PrismarineJS/mineflayer/pulls/3290/commits",
    "created_at": "2024-01-22T14:11:11Z",
    "deletions": 19,
    "diff_url": "https://github.com/PrismarineJS/mineflayer/pull/3290.diff",
    "draft": false,
    "head": {
        "label": "SilianZ:patch-1",
        "ref": "patch-1",
        "repo": {
            "allow_forking": true,
            "archive_url": "https://api.github.com/repos/SilianZ/mineflayer/{archive_format}{/ref}",
            "archived": false,
            "assignees_url": "https://api.github.com/repos/SilianZ/mineflayer/assignees{/user}",
            "blobs_url": "https://api.github.com/repos/SilianZ/mineflayer/git/blobs{/sha}",
            "branches_url": "https://api.github.com/repos/SilianZ/mineflayer/branches{/branch}",
            "clone_url": "https://github.com/SilianZ/mineflayer.git",
            "collaborators_url": "https://api.github.com/repos/SilianZ/mineflayer/collaborators{/collaborator}",
            "comments_url": "https://api.github.com/repos/SilianZ/mineflayer/comments{/number}",
            "commits_url": "https://api.github.com/repos/SilianZ/mineflayer/commits{/sha}",
            "compare_url": "https://api.github.com/repos/SilianZ/mineflayer/compare/{base}...{head}",
            "contents_url": "https://api.github.com/repos/SilianZ/mineflayer/contents/{+path}",
            "contributors_url": "https://api.github.com/repos/SilianZ/mineflayer/contributors",
            "created_at": "2024-01-22T13:54:59Z",
            "default_branch": "master",
            "deployments_url": "https://api.github.com/repos/SilianZ/mineflayer/deployments",
            "description": "Create Minecraft bots with a powerful, stable, and high level JavaScript API.",
            "disabled": false,
            "downloads_url": "https://api.github.com/repos/SilianZ/mineflayer/downloads",
            "events_url": "https://api.github.com/repos/SilianZ/mineflayer/events",
            "fork": true,
            "forks": 0,
            "forks_count": 0,
            "forks_url": "https://api.github.com/repos/SilianZ/mineflayer/forks",
            "full_name": "SilianZ/mineflayer",
            "git_commits_url": "https://api.github.com/repos/SilianZ/mineflayer/git/commits{/sha}",
            "git_refs_url": "https://api.github.com/repos/SilianZ/mineflayer/git/refs{/sha}",
            "git_tags_url": "https://api.github.com/repos/SilianZ/mineflayer/git/tags{/sha}",
            "git_url": "git://github.com/SilianZ/mineflayer.git",
            "has_discussions": false,
            "has_downloads": true,
            "has_issues": false,
            "has_pages": false,
            "has_projects": true,
            "has_wiki": true,
            "homepage": "https://prismarinejs.github.io/mineflayer/",
            "hooks_url": "https://api.github.com/repos/SilianZ/mineflayer/hooks",
            "html_url": "https://github.com/SilianZ/mineflayer",
            "id": 746698804,
            "is_template": false,
            "issue_comment_url": "https://api.github.com/repos/SilianZ/mineflayer/issues/comments{/number}",
            "issue_events_url": "https://api.github.com/repos/SilianZ/mineflayer/issues/events{/number}",
            "issues_url": "https://api.github.com/repos/SilianZ/mineflayer/issues{/number}",
            "keys_url": "https://api.github.com/repos/SilianZ/mineflayer/keys{/key_id}",
            "labels_url": "https://api.github.com/repos/SilianZ/mineflayer/labels{/name}",
            "language": null,
            "languages_url": "https://api.github.com/repos/SilianZ/mineflayer/languages",
            "license": {
                "key": "mit",
                "name": "MIT License",
                "node_id": "MDc6TGljZW5zZTEz",
                "spdx_id": "MIT",
                "url": "https://api.github.com/licenses/mit"
            },
            "merges_url": "https://api.github.com/repos/SilianZ/mineflayer/merges",
            "milestones_url": "https://api.github.com/repos/SilianZ/mineflayer/milestones{/number}",
            "mirror_url": null,
            "name": "mineflayer",
            "node_id": "R_kgDOLIG4NA",
            "notifications_url": "https://api.github.com/repos/SilianZ/mineflayer/notifications{?since,all,participating}",
            "open_issues": 0,
            "open_issues_count": 0,
            "owner": {
                "avatar_url": "https://avatars.githubusercontent.com/u/113701655?v=4",
                "events_url": "https://api.github.com/users/SilianZ/events{/privacy}",
                "followers_url": "https://api.github.com/users/SilianZ/followers",
                "following_url": "https://api.github.com/users/SilianZ/following{/other_user}",
                "gists_url": "https://api.github.com/users/SilianZ/gists{/gist_id}",
                "gravatar_id": "",
                "html_url": "https://github.com/SilianZ",
                "id": 113701655,
                "login": "SilianZ",
                "node_id": "U_kgDOBsbzFw",
                "organizations_url": "https://api.github.com/users/SilianZ/orgs",
                "received_events_url": "https://api.github.com/users/SilianZ/received_events",
                "repos_url": "https://api.github.com/users/SilianZ/repos",
                "site_admin": false,
                "starred_url": "https://api.github.com/users/SilianZ/starred{/owner}{/repo}",
                "subscriptions_url": "https://api.github.com/users/SilianZ/subscriptions",
                "type": "User",
                "url": "https://api.github.com/users/SilianZ"
            },
            "private": false,
            "pulls_url": "https://api.github.com/repos/SilianZ/mineflayer/pulls{/number}",
            "pushed_at": "2024-01-22T14:10:27Z",
            "releases_url": "https://api.github.com/repos/SilianZ/mineflayer/releases{/id}",
            "size": 12292,
            "ssh_url": "git@github.com:SilianZ/mineflayer.git",
            "stargazers_count": 0,
            "stargazers_url": "https://api.github.com/repos/SilianZ/mineflayer/stargazers",
            "statuses_url": "https://api.github.com/repos/SilianZ/mineflayer/statuses/{sha}",
            "subscribers_url": "https://api.github.com/repos/SilianZ/mineflayer/subscribers",
            "subscription_url": "https://api.github.com/repos/SilianZ/mineflayer/subscription",
            "svn_url": "https://github.com/SilianZ/mineflayer",
            "tags_url": "https://api.github.com/repos/SilianZ/mineflayer/tags",
            "teams_url": "https://api.github.com/repos/SilianZ/mineflayer/teams",
            "topics": [],
            "trees_url": "https://api.github.com/repos/SilianZ/mineflayer/git/trees{/sha}",
            "updated_at": "2024-01-22T13:54:59Z",
            "url": "https://api.github.com/repos/SilianZ/mineflayer",
            "visibility": "public",
            "watchers": 0,
            "watchers_count": 0,
            "web_commit_signoff_required": false
        },
        "sha": "cb0c1fedb2478d958b3ae339b96be7fce5bdc907",
        "user": {
            "avatar_url": "https://avatars.githubusercontent.com/u/113701655?v=4",
            "events_url": "https://api.github.com/users/SilianZ/events{/privacy}",
            "followers_url": "https://api.github.com/users/SilianZ/followers",
            "following_url": "https://api.github.com/users/SilianZ/following{/other_user}",
            "gists_url": "https://api.github.com/users/SilianZ/gists{/gist_id}",
            "gravatar_id": "",
            "html_url": "https://github.com/SilianZ",
            "id": 113701655,
            "login": "SilianZ",
            "node_id": "U_kgDOBsbzFw",
            "organizations_url": "https://api.github.com/users/SilianZ/orgs",
            "received_events_url": "https://api.github.com/users/SilianZ/received_events",
            "repos_url": "https://api.github.com/users/SilianZ/repos",
            "site_admin": false,
            "starred_url": "https://api.github.com/users/SilianZ/starred{/owner}{/repo}",
            "subscriptions_url": "https://api.github.com/users/SilianZ/subscriptions",
            "type": "User",
            "url": "https://api.github.com/users/SilianZ"
        }
    },
    "html_url": "https://github.com/PrismarineJS/mineflayer/pull/3290",
    "id": 1689912304,
    "issue_url": "https://api.github.com/repos/PrismarineJS/mineflayer/issues/3290",
    "labels": [],
    "locked": false,
    "maintainer_can_modify": false,
    "merge_commit_sha": "ba53a953d03a6edb34aa5bf38bccde58e65d816d",
    "mergeable": null,
    "mergeable_state": "unknown",
    "merged": true,
    "merged_at": "2024-01-25T21:57:05Z",
    "merged_by": {
        "avatar_url": "https://avatars.githubusercontent.com/u/2346494?v=4",
        "events_url": "https://api.github.com/users/rom1504/events{/privacy}",
        "followers_url": "https://api.github.com/users/rom1504/followers",
        "following_url": "https://api.github.com/users/rom1504/following{/other_user}",
        "gists_url": "https://api.github.com/users/rom1504/gists{/gist_id}",
        "gravatar_id": "",
        "html_url": "https://github.com/rom1504",
        "id": 2346494,
        "login": "rom1504",
        "node_id": "MDQ6VXNlcjIzNDY0OTQ=",
        "organizations_url": "https://api.github.com/users/rom1504/orgs",
        "received_events_url": "https://api.github.com/users/rom1504/received_events",
        "repos_url": "https://api.github.com/users/rom1504/repos",
        "site_admin": false,
        "starred_url": "https://api.github.com/users/rom1504/starred{/owner}{/repo}",
        "subscriptions_url": "https://api.github.com/users/rom1504/subscriptions",
        "type": "User",
        "url": "https://api.github.com/users/rom1504"
    },
    "milestone": null,
    "node_id": "PR_kwDOABOYWc5kugPw",
    "number": 3290,
    "patch_url": "https://github.com/PrismarineJS/mineflayer/pull/3290.patch",
    "rebaseable": null,
    "requested_reviewers": [],
    "requested_teams": [],
    "review_comment_url": "https://api.github.com/repos/PrismarineJS/mineflayer/pulls/comments{/number}",
    "review_comments": 0,
    "review_comments_url": "https://api.github.com/repos/PrismarineJS/mineflayer/pulls/3290/comments",
    "state": "closed",
    "statuses_url": "https://api.github.com/repos/PrismarineJS/mineflayer/statuses/cb0c1fedb2478d958b3ae339b96be7fce5bdc907",
    "title": "Fixed some typo in docs/zh/README_ZH_CN.md",
    "updated_at": "2024-01-25T21:57:05Z",
    "url": "https://api.github.com/repos/PrismarineJS/mineflayer/pulls/3290",
    "user": {
        "avatar_url": "https://avatars.githubusercontent.com/u/113701655?v=4",
        "events_url": "https://api.github.com/users/SilianZ/events{/privacy}",
        "followers_url": "https://api.github.com/users/SilianZ/followers",
        "following_url": "https://api.github.com/users/SilianZ/following{/other_user}",
        "gists_url": "https://api.github.com/users/SilianZ/gists{/gist_id}",
        "gravatar_id": "",
        "html_url": "https://github.com/SilianZ",
        "id": 113701655,
        "login": "SilianZ",
        "node_id": "U_kgDOBsbzFw",
        "organizations_url": "https://api.github.com/users/SilianZ/orgs",
        "received_events_url": "https://api.github.com/users/SilianZ/received_events",
        "repos_url": "https://api.github.com/users/SilianZ/repos",
        "site_admin": false,
        "starred_url": "https://api.github.com/users/SilianZ/starred{/owner}{/repo}",
        "subscriptions_url": "https://api.github.com/users/SilianZ/subscriptions",
        "type": "User",
        "url": "https://api.github.com/users/SilianZ"
    }
}