{
    "_links": {
        "comments": {
            "href": "https://api.github.com/repos/PrismarineJS/mineflayer/issues/3420/comments"
        },
        "commits": {
            "href": "https://api.github.com/repos/PrismarineJS/mineflayer/pulls/3420/commits"
        },
        "html": {
            "href": "https://github.com/PrismarineJS/mineflayer/pull/3420"
        },
        "issue": {
            "href": "https://api.github.com/repos/PrismarineJS/mineflayer/issues/3420"
        },
        "review_comment": {
            "href": "https://api.github.com/repos/PrismarineJS/mineflayer/pulls/comments{/number}"
        },
        "review_comments": {
            "href": "https://api.github.com/repos/PrismarineJS/mineflayer/pulls/3420/comments"
        },
        "self": {
            "href": "https://api.github.com/repos/PrismarineJS/mineflayer/pulls/3420"
        },
        "statuses": {
            "href": "https://api.github.com/repos/PrismarineJS/mineflayer/statuses/0e47d9cb50cc43c2ec7894a39353073695a1b7a3"
        }
    },
    "active_lock_reason": null,
    "additions": 1,
    "assignee": null,
    "assignees": [],
    "author_association": "CONTRIBUTOR",
    "auto_merge": null,
    "base": {
        "label": "PrismarineJS:master",
        "ref": "master",
        "repo": {
            "allow_forking": true,
            "archive_url": "https://api.github.com/repos/PrismarineJS/mineflayer/{archive_format}{/ref}",
            "archived": false,
            "assignees_url": "https://api.github.com/repos/PrismarineJS/mineflayer/assignees{/user}",
            "blobs_url": "https://api.github.com/repos/PrismarineJS/mineflayer/git/blobs{/sha}",
            "branches_url": "https://api.github.com/repos/PrismarineJS/mineflayer/branches{/branch}",
            "clone_url": "https://github.com/PrismarineJS/mineflayer.git",
            "collaborators_url": "https://api.github.com/repos/PrismarineJS/mineflayer/collaborators{/collaborator}",
            "comments_url": "https://api.github.com/repos/PrismarineJS/mineflayer/comments{/number}",
            "commits_url": "https://api.github.com/repos/PrismarineJS/mineflayer/commits{/sha}",
            "compare_url": "https://api.github.com/repos/PrismarineJS/mineflayer/compare/{base}...{head}",
            "contents_url": "https://api.github.com/repos/PrismarineJS/mineflayer/contents/{+path}",
            "contributors_url": "https://api.github.com/repos/PrismarineJS/mineflayer/contributors",
            "created_at": "2011-01-23T09:41:55Z",
            "default_branch": "master",
            "deployments_url": "https://api.github.com/repos/PrismarineJS/mineflayer/deployments",
            "description": "Create Minecraft bots with a powerful, stable, and high level JavaScript API.",
            "disabled": false,
            "downloads_url": "https://api.github.com/repos/PrismarineJS/mineflayer/downloads",
            "events_url": "https://api.github.com/repos/PrismarineJS/mineflayer/events",
            "fork": false,
            "forks": 894,
            "forks_count": 894,
            "forks_url": "https://api.github.com/repos/PrismarineJS/mineflayer/forks",
            "full_name": "PrismarineJS/mineflayer",
            "git_commits_url": "https://api.github.com/repos/PrismarineJS/mineflayer/git/commits{/sha}",
            "git_refs_url": "https://api.github.com/repos/PrismarineJS/mineflayer/git/refs{/sha}",
            "git_tags_url": "https://api.github.com/repos/PrismarineJS/mineflayer/git/tags{/sha}",
            "git_url": "git://github.com/PrismarineJS/mineflayer.git",
            "has_discussions": true,
            "has_downloads": true,
            "has_issues": true,
            "has_pages": true,
            "has_projects": true,
            "has_wiki": true,
            "homepage": "https://prismarinejs.github.io/mineflayer/",
            "hooks_url": "https://api.github.com/repos/PrismarineJS/mineflayer/hooks",
            "html_url": "https://github.com/PrismarineJS/mineflayer",
            "id": 1284185,
            "is_template": false,
            "issue_comment_url": "https://api.github.com/repos/PrismarineJS/mineflayer/issues/comments{/number}",
            "issue_events_url": "https://api.github.com/repos/PrismarineJS/mineflayer/issues/events{/number}",
            "issues_url": "https://api.github.com/repos/PrismarineJS/mineflayer/issues{/number}",
            "keys_url": "https://api.github.com/repos/PrismarineJS/mineflayer/keys{/key_id}",
            "labels_url": "https://api.github.com/repos/PrismarineJS/mineflayer/labels{/name}",
            "language": "JavaScript",
            "languages_url": "https://api.github.com/repos/PrismarineJS/mineflayer/languages",
            "license": {
                "key": "mit",
                "name": "MIT License",
                "node_id": "MDc6TGljZW5zZTEz",
                "spdx_id": "MIT",
                "url": "https://api.github.com/licenses/mit"
            },
            "merges_url": "https://api.github.com/repos/PrismarineJS/mineflayer/merges",
            "milestones_url": "https://api.github.com/repos/PrismarineJS/mineflayer/milestones{/number}",
            "mirror_url": null,
            "name": "mineflayer",
            "node_id": "MDEwOlJlcG9zaXRvcnkxMjg0MTg1",
            "notifications_url": "https://api.github.com/repos/PrismarineJS/mineflayer/notifications{?since,all,participating}",
            "open_issues": 325,
            "open_issues_count": 325,
            "owner": {
                "avatar_url": "https://avatars.githubusercontent.com/u/11053411?v=4",
                "events_url": "https://api.github.com/users/PrismarineJS/events{/privacy}",
                "followers_url": "https://api.github.com/users/PrismarineJS/followers",
                "following_url": "https://api.github.com/users/PrismarineJS/following{/other_user}",
                "gists_url": "https://api.github.com/users/PrismarineJS/gists{/gist_id}",
                "gravatar_id": "",
                "html_url": "https://github.com/PrismarineJS",
                "id": 11053411,
                "login": "PrismarineJS",
                "node_id": "MDEyOk9yZ2FuaXphdGlvbjExMDUzNDEx",
                "organizations_url": "https://api.github.com/users/PrismarineJS/orgs",
                "received_events_url": "https://api.github.com/users/PrismarineJS/received_events",
                "repos_url": "https://api.github.com/users/PrismarineJS/repos",
                "site_admin": false,
                "starred_url": "https://api.github.com/users/PrismarineJS/starred{/owner}{/repo}",
                "subscriptions_url": "https://api.github.com/users/PrismarineJS/subscriptions",
                "type": "Organization",
                "url": "https://api.github.com/users/PrismarineJS"
            },
            "private": false,
            "pulls_url": "https://api.github.com/repos/PrismarineJS/mineflayer/pulls{/number}",
            "pushed_at": "2024-09-08T20:08:58Z",
            "releases_url": "https://api.github.com/repos/PrismarineJS/mineflayer/releases{/id}",
            "size": 12309,
            "ssh_url": "git@github.com:PrismarineJS/mineflayer.git",
            "stargazers_count": 4866,
            "stargazers_url": "https://api.github.com/repos/PrismarineJS/mineflayer/stargazers",
            "statuses_url": "https://api.github.com/repos/PrismarineJS/mineflayer/statuses/{sha}",
            "subscribers_url": "https://api.github.com/repos/PrismarineJS/mineflayer/subscribers",
            "subscription_url": "https://api.github.com/repos/PrismarineJS/mineflayer/subscription",
            "svn_url": "https://github.com/PrismarineJS/mineflayer",
            "tags_url": "https://api.github.com/repos/PrismarineJS/mineflayer/tags",
            "teams_url": "https://api.github.com/repos/PrismarineJS/mineflayer/teams",
            "topics": [
                "bot",
                "minecraft",
                "minecraft-api",
                "minecraft-bot",
                "network",
                "nodejs"
            ],
            "trees_url": "https://api.github.com/repos/PrismarineJS/mineflayer/git/trees{/sha}",
            "updated_at": "2024-09-08T20:09:02Z",
            "url": "https://api.github.com/repos/PrismarineJS/mineflayer",
            "visibility": "public",
            "watchers": 4866,
            "watchers_count": 4866,
            "web_commit_signoff_required": false
        },
        "sha": "78b4eccb4572a821b11c3124b7a593f3b91f1180",
        "user": {
            "avatar_url": "https://avatars.githubusercontent.com/u/11053411?v=4",
            "events_url": "https://api.github.com/users/PrismarineJS/events{/privacy}",
            "followers_url": "https://api.github.com/users/PrismarineJS/followers",
            "following_url": "https://api.github.com/users/PrismarineJS/following{/other_user}",
            "gists_url": "https://api.github.com/users/PrismarineJS/gists{/gist_id}",
            "gravatar_id": "",
            "html_url": "https://github.com/PrismarineJS",
            "id": 11053411,
            "login": "PrismarineJS",
            "node_id": "MDEyOk9yZ2FuaXphdGlvbjExMDUzNDEx",
            "organizations_url": "https://api.github.com/users/PrismarineJS/orgs",
            "received_events_url": "https://api.github.com/users/PrismarineJS/received_events",
            "repos_url": "https://api.github.com/users/PrismarineJS/repos",
            "site_admin": false,
            "starred_url": "https://api.github.com/users/PrismarineJS/starred{/owner}{/repo}",
            "subscriptions_url": "https://api.github.com/users/PrismarineJS/subscriptions",
            "type": "Organization",
            "url": "https://api.github.com/users/PrismarineJS"
        }
    },
    "body": "remove --depth flag as it no longer works.\r\n\r\nnpm warn update The --depth option no longer has any effect. See RFC0019. npm warn update https://github.com/npm/rfcs/blob/latest/implemented/0019-remove-update-depth-option.md",
    "changed_files": 1,
    "closed_at": "2024-09-08T20:08:58Z",
    "comment_data": [],
    "comment_regular_data": [],
    "comments": 0,
    "comments_url": "https://api.github.com/repos/PrismarineJS/mineflayer/issues/3420/comments",
    "commit_data": [
        {
            "author": {
                "avatar_url": "https://avatars.githubusercontent.com/u/64040187?v=4",
                "events_url": "https://api.github.com/users/SilkePilon/events{/privacy}",
                "followers_url": "https://api.github.com/users/SilkePilon/followers",
                "following_url": "https://api.github.com/users/SilkePilon/following{/other_user}",
                "gists_url": "https://api.github.com/users/SilkePilon/gists{/gist_id}",
                "gravatar_id": "",
                "html_url": "https://github.com/SilkePilon",
                "id": 64040187,
                "login": "SilkePilon",
                "node_id": "MDQ6VXNlcjY0MDQwMTg3",
                "organizations_url": "https://api.github.com/users/SilkePilon/orgs",
                "received_events_url": "https://api.github.com/users/SilkePilon/received_events",
                "repos_url": "https://api.github.com/users/SilkePilon/repos",
                "site_admin": false,
                "starred_url": "https://api.github.com/users/SilkePilon/starred{/owner}{/repo}",
                "subscriptions_url": "https://api.github.com/users/SilkePilon/subscriptions",
                "type": "User",
                "url": "https://api.github.com/users/SilkePilon"
            },
            "comments_url": "https://api.github.com/repos/PrismarineJS/mineflayer/commits/0e47d9cb50cc43c2ec7894a39353073695a1b7a3/comments",
            "commit": {
                "author": {
                    "date": "2024-07-20T12:17:56Z",
                    "email": "silkepilon2009@gmail.com",
                    "name": "Silke pilon"
                },
                "comment_count": 0,
                "committer": {
                    "date": "2024-07-20T12:17:56Z",
                    "email": "noreply@github.com",
                    "name": "GitHub"
                },
                "message": "Update README.md\n\nremove --depth flag as it no longer works.\r\n\r\nnpm warn update The --depth option no longer has any effect. See RFC0019.\r\nnpm warn update https://github.com/npm/rfcs/blob/latest/implemented/0019-remove-update-depth-option.md",
                "tree": {
                    "sha": "a3e6555b91e815028da8641a31689fe9ca726334",
                    "url": "https://api.github.com/repos/PrismarineJS/mineflayer/git/trees/a3e6555b91e815028da8641a31689fe9ca726334"
                },
                "url": "https://api.github.com/repos/PrismarineJS/mineflayer/git/commits/0e47d9cb50cc43c2ec7894a39353073695a1b7a3",
                "verification": {
                    "payload": "tree a3e6555b91e815028da8641a31689fe9ca726334\nparent 78b4eccb4572a821b11c3124b7a593f3b91f1180\nauthor Silke pilon <silkepilon2009@gmail.com> 1721477876 +0200\ncommitter GitHub <noreply@github.com> 1721477876 +0200\n\nUpdate README.md\n\nremove --depth flag as it no longer works.\r\n\r\nnpm warn update The --depth option no longer has any effect. See RFC0019.\r\nnpm warn update https://github.com/npm/rfcs/blob/latest/implemented/0019-remove-update-depth-option.md",
                    "reason": "valid",
                    "signature": "-----BEGIN PGP SIGNATURE-----\n\nwsFcBAABCAAQBQJmm6r1CRC1aQ7uu5UhlAAAsrgQAHhsJlVL9coANfEFEGS/ENg7\n4U84s+FMWFHBiXOPOtG584N742s3vUDR+SQuNfmAmugdpOwVE2CJI0+2auQYzfSc\n2LBnddMutEs5dJJQ6VwiLNqcO0L0yiKUHLGUd4BYla9BxmkdSQCikXI+CXa8W/Ri\ndbcMsPUIL8MGEWWqXsrZkVM6j6o1nuQPANnqnMMVVeRPyAxJCKLxAqpKsD3IlcCo\nV7vUFCiycrEp7Vx+I02pSSW7OZHlUlvMoJMXfJBSsvD1PyIWFXwgH3dqvv6LRJSa\nqif5yhx644/LfPs3fgytAp94m7GWiTEsX7ffNc5qStU2buXR8AfPQ/cBxMGEL6Aq\n/AkSZ7fmV4NX0hCkt6eaU9i45lc+bw4IkZN9PAnR4cJTCRXmGRMZ2/QtnVqFHvXv\n5T58XZC1u/zMCGZRvzNA2wjvYSC1oPozGTTu7YUwLQXmjv4k22GVgrsMItkVQPhP\ncaNHGv1FKmO0YKnUWs64JOnCbFwLuf5N6MIMBjcSY4AU4wtPpZwrnszP9nximmu3\nG2iDyBFFRb1TaygHt+8oG9S+UA+f+RiXEYFYWY/8WmyltOtdbS3MEbY+j5VjtFRX\nSsCvpJdaR4EhZrHNQ/kZ1I/jj32/O6LiEOm9i+/dIdI+DMf5XNV2x+zt0GWBaYhL\nPHfFT58nSn3CpMSOXa3Q\n=NKw3\n-----END PGP SIGNATURE-----\n",
                    "verified": true
                }
            },
            "committer": {
                "avatar_url": "https://avatars.githubusercontent.com/u/19864447?v=4",
                "events_url": "https://api.github.com/users/web-flow/events{/privacy}",
                "followers_url": "https://api.github.com/users/web-flow/followers",
                "following_url": "https://api.github.com/users/web-flow/following{/other_user}",
                "gists_url": "https://api.github.com/users/web-flow/gists{/gist_id}",
                "gravatar_id": "",
                "html_url": "https://github.com/web-flow",
                "id": 19864447,
                "login": "web-flow",
                "node_id": "MDQ6VXNlcjE5ODY0NDQ3",
                "organizations_url": "https://api.github.com/users/web-flow/orgs",
                "received_events_url": "https://api.github.com/users/web-flow/received_events",
                "repos_url": "https://api.github.com/users/web-flow/repos",
                "site_admin": false,
                "starred_url": "https://api.github.com/users/web-flow/starred{/owner}{/repo}",
                "subscriptions_url": "https://api.github.com/users/web-flow/subscriptions",
                "type": "User",
                "url": "https://api.github.com/users/web-flow"
            },
            "html_url": "https://github.com/PrismarineJS/mineflayer/commit/0e47d9cb50cc43c2ec7894a39353073695a1b7a3",
            "node_id": "C_kwDOKI_-OdoAKDBlNDdkOWNiNTBjYzQzYzJlYzc4OTRhMzkzNTMwNzM2OTVhMWI3YTM",
            "parents": [
                {
                    "html_url": "https://github.com/PrismarineJS/mineflayer/commit/78b4eccb4572a821b11c3124b7a593f3b91f1180",
                    "sha": "78b4eccb4572a821b11c3124b7a593f3b91f1180",
                    "url": "https://api.github.com/repos/PrismarineJS/mineflayer/commits/78b4eccb4572a821b11c3124b7a593f3b91f1180"
                }
            ],
            "sha": "0e47d9cb50cc43c2ec7894a39353073695a1b7a3",
            "url": "https://api.github.com/repos/PrismarineJS/mineflayer/commits/0e47d9cb50cc43c2ec7894a39353073695a1b7a3"
        }
    ],
    "commits": 1,
    "commits_url": "https://api.github.com/repos/PrismarineJS/mineflayer/pulls/3420/commits",
    "created_at": "2024-07-20T12:18:18Z",
    "deletions": 1,
    "diff_url": "https://github.com/PrismarineJS/mineflayer/pull/3420.diff",
    "draft": false,
    "head": {
        "label": "SilkePilon:master",
        "ref": "master",
        "repo": {
            "allow_forking": true,
            "archive_url": "https://api.github.com/repos/SilkePilon/mineflayer/{archive_format}{/ref}",
            "archived": false,
            "assignees_url": "https://api.github.com/repos/SilkePilon/mineflayer/assignees{/user}",
            "blobs_url": "https://api.github.com/repos/SilkePilon/mineflayer/git/blobs{/sha}",
            "branches_url": "https://api.github.com/repos/SilkePilon/mineflayer/branches{/branch}",
            "clone_url": "https://github.com/SilkePilon/mineflayer.git",
            "collaborators_url": "https://api.github.com/repos/SilkePilon/mineflayer/collaborators{/collaborator}",
            "comments_url": "https://api.github.com/repos/SilkePilon/mineflayer/comments{/number}",
            "commits_url": "https://api.github.com/repos/SilkePilon/mineflayer/commits{/sha}",
            "compare_url": "https://api.github.com/repos/SilkePilon/mineflayer/compare/{base}...{head}",
            "contents_url": "https://api.github.com/repos/SilkePilon/mineflayer/contents/{+path}",
            "contributors_url": "https://api.github.com/repos/SilkePilon/mineflayer/contributors",
            "created_at": "2023-08-19T14:27:36Z",
            "default_branch": "master",
            "deployments_url": "https://api.github.com/repos/SilkePilon/mineflayer/deployments",
            "description": "Create Minecraft bots with a powerful, stable, and high level JavaScript API.",
            "disabled": false,
            "downloads_url": "https://api.github.com/repos/SilkePilon/mineflayer/downloads",
            "events_url": "https://api.github.com/repos/SilkePilon/mineflayer/events",
            "fork": true,
            "forks": 0,
            "forks_count": 0,
            "forks_url": "https://api.github.com/repos/SilkePilon/mineflayer/forks",
            "full_name": "SilkePilon/mineflayer",
            "git_commits_url": "https://api.github.com/repos/SilkePilon/mineflayer/git/commits{/sha}",
            "git_refs_url": "https://api.github.com/repos/SilkePilon/mineflayer/git/refs{/sha}",
            "git_tags_url": "https://api.github.com/repos/SilkePilon/mineflayer/git/tags{/sha}",
            "git_url": "git://github.com/SilkePilon/mineflayer.git",
            "has_discussions": false,
            "has_downloads": true,
            "has_issues": false,
            "has_pages": false,
            "has_projects": true,
            "has_wiki": true,
            "homepage": "https://prismarinejs.github.io/mineflayer/",
            "hooks_url": "https://api.github.com/repos/SilkePilon/mineflayer/hooks",
            "html_url": "https://github.com/SilkePilon/mineflayer",
            "id": 680525369,
            "is_template": false,
            "issue_comment_url": "https://api.github.com/repos/SilkePilon/mineflayer/issues/comments{/number}",
            "issue_events_url": "https://api.github.com/repos/SilkePilon/mineflayer/issues/events{/number}",
            "issues_url": "https://api.github.com/repos/SilkePilon/mineflayer/issues{/number}",
            "keys_url": "https://api.github.com/repos/SilkePilon/mineflayer/keys{/key_id}",
            "labels_url": "https://api.github.com/repos/SilkePilon/mineflayer/labels{/name}",
            "language": "JavaScript",
            "languages_url": "https://api.github.com/repos/SilkePilon/mineflayer/languages",
            "license": {
                "key": "mit",
                "name": "MIT License",
                "node_id": "MDc6TGljZW5zZTEz",
                "spdx_id": "MIT",
                "url": "https://api.github.com/licenses/mit"
            },
            "merges_url": "https://api.github.com/repos/SilkePilon/mineflayer/merges",
            "milestones_url": "https://api.github.com/repos/SilkePilon/mineflayer/milestones{/number}",
            "mirror_url": null,
            "name": "mineflayer",
            "node_id": "R_kgDOKI_-OQ",
            "notifications_url": "https://api.github.com/repos/SilkePilon/mineflayer/notifications{?since,all,participating}",
            "open_issues": 0,
            "open_issues_count": 0,
            "owner": {
                "avatar_url": "https://avatars.githubusercontent.com/u/64040187?v=4",
                "events_url": "https://api.github.com/users/SilkePilon/events{/privacy}",
                "followers_url": "https://api.github.com/users/SilkePilon/followers",
                "following_url": "https://api.github.com/users/SilkePilon/following{/other_user}",
                "gists_url": "https://api.github.com/users/SilkePilon/gists{/gist_id}",
                "gravatar_id": "",
                "html_url": "https://github.com/SilkePilon",
                "id": 64040187,
                "login": "SilkePilon",
                "node_id": "MDQ6VXNlcjY0MDQwMTg3",
                "organizations_url": "https://api.github.com/users/SilkePilon/orgs",
                "received_events_url": "https://api.github.com/users/SilkePilon/received_events",
                "repos_url": "https://api.github.com/users/SilkePilon/repos",
                "site_admin": false,
                "starred_url": "https://api.github.com/users/SilkePilon/starred{/owner}{/repo}",
                "subscriptions_url": "https://api.github.com/users/SilkePilon/subscriptions",
                "type": "User",
                "url": "https://api.github.com/users/SilkePilon"
            },
            "private": false,
            "pulls_url": "https://api.github.com/repos/SilkePilon/mineflayer/pulls{/number}",
            "pushed_at": "2024-07-20T12:17:57Z",
            "releases_url": "https://api.github.com/repos/SilkePilon/mineflayer/releases{/id}",
            "size": 12218,
            "ssh_url": "git@github.com:SilkePilon/mineflayer.git",
            "stargazers_count": 0,
            "stargazers_url": "https://api.github.com/repos/SilkePilon/mineflayer/stargazers",
            "statuses_url": "https://api.github.com/repos/SilkePilon/mineflayer/statuses/{sha}",
            "subscribers_url": "https://api.github.com/repos/SilkePilon/mineflayer/subscribers",
            "subscription_url": "https://api.github.com/repos/SilkePilon/mineflayer/subscription",
            "svn_url": "https://github.com/SilkePilon/mineflayer",
            "tags_url": "https://api.github.com/repos/SilkePilon/mineflayer/tags",
            "teams_url": "https://api.github.com/repos/SilkePilon/mineflayer/teams",
            "topics": [],
            "trees_url": "https://api.github.com/repos/SilkePilon/mineflayer/git/trees{/sha}",
            "updated_at": "2024-07-20T12:18:00Z",
            "url": "https://api.github.com/repos/SilkePilon/mineflayer",
            "visibility": "public",
            "watchers": 0,
            "watchers_count": 0,
            "web_commit_signoff_required": false
        },
        "sha": "0e47d9cb50cc43c2ec7894a39353073695a1b7a3",
        "user": {
            "avatar_url": "https://avatars.githubusercontent.com/u/64040187?v=4",
            "events_url": "https://api.github.com/users/SilkePilon/events{/privacy}",
            "followers_url": "https://api.github.com/users/SilkePilon/followers",
            "following_url": "https://api.github.com/users/SilkePilon/following{/other_user}",
            "gists_url": "https://api.github.com/users/SilkePilon/gists{/gist_id}",
            "gravatar_id": "",
            "html_url": "https://github.com/SilkePilon",
            "id": 64040187,
            "login": "SilkePilon",
            "node_id": "MDQ6VXNlcjY0MDQwMTg3",
            "organizations_url": "https://api.github.com/users/SilkePilon/orgs",
            "received_events_url": "https://api.github.com/users/SilkePilon/received_events",
            "repos_url": "https://api.github.com/users/SilkePilon/repos",
            "site_admin": false,
            "starred_url": "https://api.github.com/users/SilkePilon/starred{/owner}{/repo}",
            "subscriptions_url": "https://api.github.com/users/SilkePilon/subscriptions",
            "type": "User",
            "url": "https://api.github.com/users/SilkePilon"
        }
    },
    "html_url": "https://github.com/PrismarineJS/mineflayer/pull/3420",
    "id": 1979489394,
    "issue_url": "https://api.github.com/repos/PrismarineJS/mineflayer/issues/3420",
    "labels": [],
    "locked": false,
    "maintainer_can_modify": false,
    "merge_commit_sha": "1c2a5c0fa78f74a63fabd7edde85c4a74db32dee",
    "mergeable": null,
    "mergeable_state": "unknown",
    "merged": true,
    "merged_at": "2024-09-08T20:08:58Z",
    "merged_by": {
        "avatar_url": "https://avatars.githubusercontent.com/u/2346494?v=4",
        "events_url": "https://api.github.com/users/rom1504/events{/privacy}",
        "followers_url": "https://api.github.com/users/rom1504/followers",
        "following_url": "https://api.github.com/users/rom1504/following{/other_user}",
        "gists_url": "https://api.github.com/users/rom1504/gists{/gist_id}",
        "gravatar_id": "",
        "html_url": "https://github.com/rom1504",
        "id": 2346494,
        "login": "rom1504",
        "node_id": "MDQ6VXNlcjIzNDY0OTQ=",
        "organizations_url": "https://api.github.com/users/rom1504/orgs",
        "received_events_url": "https://api.github.com/users/rom1504/received_events",
        "repos_url": "https://api.github.com/users/rom1504/repos",
        "site_admin": false,
        "starred_url": "https://api.github.com/users/rom1504/starred{/owner}{/repo}",
        "subscriptions_url": "https://api.github.com/users/rom1504/subscriptions",
        "type": "User",
        "url": "https://api.github.com/users/rom1504"
    },
    "milestone": null,
    "node_id": "PR_kwDOABOYWc51_Jxy",
    "number": 3420,
    "patch_url": "https://github.com/PrismarineJS/mineflayer/pull/3420.patch",
    "rebaseable": null,
    "requested_reviewers": [],
    "requested_teams": [],
    "review_comment_url": "https://api.github.com/repos/PrismarineJS/mineflayer/pulls/comments{/number}",
    "review_comments": 0,
    "review_comments_url": "https://api.github.com/repos/PrismarineJS/mineflayer/pulls/3420/comments",
    "state": "closed",
    "statuses_url": "https://api.github.com/repos/PrismarineJS/mineflayer/statuses/0e47d9cb50cc43c2ec7894a39353073695a1b7a3",
    "title": "Remove --depth flag",
    "updated_at": "2024-09-08T20:08:58Z",
    "url": "https://api.github.com/repos/PrismarineJS/mineflayer/pulls/3420",
    "user": {
        "avatar_url": "https://avatars.githubusercontent.com/u/64040187?v=4",
        "events_url": "https://api.github.com/users/SilkePilon/events{/privacy}",
        "followers_url": "https://api.github.com/users/SilkePilon/followers",
        "following_url": "https://api.github.com/users/SilkePilon/following{/other_user}",
        "gists_url": "https://api.github.com/users/SilkePilon/gists{/gist_id}",
        "gravatar_id": "",
        "html_url": "https://github.com/SilkePilon",
        "id": 64040187,
        "login": "SilkePilon",
        "node_id": "MDQ6VXNlcjY0MDQwMTg3",
        "organizations_url": "https://api.github.com/users/SilkePilon/orgs",
        "received_events_url": "https://api.github.com/users/SilkePilon/received_events",
        "repos_url": "https://api.github.com/users/SilkePilon/repos",
        "site_admin": false,
        "starred_url": "https://api.github.com/users/SilkePilon/starred{/owner}{/repo}",
        "subscriptions_url": "https://api.github.com/users/SilkePilon/subscriptions",
        "type": "User",
        "url": "https://api.github.com/users/SilkePilon"
    }
}