{
    "_links": {
        "comments": {
            "href": "https://api.github.com/repos/PrismarineJS/mineflayer/issues/3496/comments"
        },
        "commits": {
            "href": "https://api.github.com/repos/PrismarineJS/mineflayer/pulls/3496/commits"
        },
        "html": {
            "href": "https://github.com/PrismarineJS/mineflayer/pull/3496"
        },
        "issue": {
            "href": "https://api.github.com/repos/PrismarineJS/mineflayer/issues/3496"
        },
        "review_comment": {
            "href": "https://api.github.com/repos/PrismarineJS/mineflayer/pulls/comments{/number}"
        },
        "review_comments": {
            "href": "https://api.github.com/repos/PrismarineJS/mineflayer/pulls/3496/comments"
        },
        "self": {
            "href": "https://api.github.com/repos/PrismarineJS/mineflayer/pulls/3496"
        },
        "statuses": {
            "href": "https://api.github.com/repos/PrismarineJS/mineflayer/statuses/ab9e6a09344c4e3746299c4cf0c8a9af260102a4"
        }
    },
    "active_lock_reason": null,
    "additions": 42,
    "assignee": null,
    "assignees": [],
    "author_association": "MEMBER",
    "auto_merge": null,
    "base": {
        "label": "PrismarineJS:master",
        "ref": "master",
        "repo": {
            "allow_forking": true,
            "archive_url": "https://api.github.com/repos/PrismarineJS/mineflayer/{archive_format}{/ref}",
            "archived": false,
            "assignees_url": "https://api.github.com/repos/PrismarineJS/mineflayer/assignees{/user}",
            "blobs_url": "https://api.github.com/repos/PrismarineJS/mineflayer/git/blobs{/sha}",
            "branches_url": "https://api.github.com/repos/PrismarineJS/mineflayer/branches{/branch}",
            "clone_url": "https://github.com/PrismarineJS/mineflayer.git",
            "collaborators_url": "https://api.github.com/repos/PrismarineJS/mineflayer/collaborators{/collaborator}",
            "comments_url": "https://api.github.com/repos/PrismarineJS/mineflayer/comments{/number}",
            "commits_url": "https://api.github.com/repos/PrismarineJS/mineflayer/commits{/sha}",
            "compare_url": "https://api.github.com/repos/PrismarineJS/mineflayer/compare/{base}...{head}",
            "contents_url": "https://api.github.com/repos/PrismarineJS/mineflayer/contents/{+path}",
            "contributors_url": "https://api.github.com/repos/PrismarineJS/mineflayer/contributors",
            "created_at": "2011-01-23T09:41:55Z",
            "default_branch": "master",
            "deployments_url": "https://api.github.com/repos/PrismarineJS/mineflayer/deployments",
            "description": "Create Minecraft bots with a powerful, stable, and high level JavaScript API.",
            "disabled": false,
            "downloads_url": "https://api.github.com/repos/PrismarineJS/mineflayer/downloads",
            "events_url": "https://api.github.com/repos/PrismarineJS/mineflayer/events",
            "fork": false,
            "forks": 951,
            "forks_count": 951,
            "forks_url": "https://api.github.com/repos/PrismarineJS/mineflayer/forks",
            "full_name": "PrismarineJS/mineflayer",
            "git_commits_url": "https://api.github.com/repos/PrismarineJS/mineflayer/git/commits{/sha}",
            "git_refs_url": "https://api.github.com/repos/PrismarineJS/mineflayer/git/refs{/sha}",
            "git_tags_url": "https://api.github.com/repos/PrismarineJS/mineflayer/git/tags{/sha}",
            "git_url": "git://github.com/PrismarineJS/mineflayer.git",
            "has_discussions": true,
            "has_downloads": true,
            "has_issues": true,
            "has_pages": true,
            "has_projects": true,
            "has_wiki": true,
            "homepage": "https://prismarinejs.github.io/mineflayer/",
            "hooks_url": "https://api.github.com/repos/PrismarineJS/mineflayer/hooks",
            "html_url": "https://github.com/PrismarineJS/mineflayer",
            "id": 1284185,
            "is_template": false,
            "issue_comment_url": "https://api.github.com/repos/PrismarineJS/mineflayer/issues/comments{/number}",
            "issue_events_url": "https://api.github.com/repos/PrismarineJS/mineflayer/issues/events{/number}",
            "issues_url": "https://api.github.com/repos/PrismarineJS/mineflayer/issues{/number}",
            "keys_url": "https://api.github.com/repos/PrismarineJS/mineflayer/keys{/key_id}",
            "labels_url": "https://api.github.com/repos/PrismarineJS/mineflayer/labels{/name}",
            "language": "JavaScript",
            "languages_url": "https://api.github.com/repos/PrismarineJS/mineflayer/languages",
            "license": {
                "key": "mit",
                "name": "MIT License",
                "node_id": "MDc6TGljZW5zZTEz",
                "spdx_id": "MIT",
                "url": "https://api.github.com/licenses/mit"
            },
            "merges_url": "https://api.github.com/repos/PrismarineJS/mineflayer/merges",
            "milestones_url": "https://api.github.com/repos/PrismarineJS/mineflayer/milestones{/number}",
            "mirror_url": null,
            "name": "mineflayer",
            "node_id": "MDEwOlJlcG9zaXRvcnkxMjg0MTg1",
            "notifications_url": "https://api.github.com/repos/PrismarineJS/mineflayer/notifications{?since,all,participating}",
            "open_issues": 335,
            "open_issues_count": 335,
            "owner": {
                "avatar_url": "https://avatars.githubusercontent.com/u/11053411?v=4",
                "events_url": "https://api.github.com/users/PrismarineJS/events{/privacy}",
                "followers_url": "https://api.github.com/users/PrismarineJS/followers",
                "following_url": "https://api.github.com/users/PrismarineJS/following{/other_user}",
                "gists_url": "https://api.github.com/users/PrismarineJS/gists{/gist_id}",
                "gravatar_id": "",
                "html_url": "https://github.com/PrismarineJS",
                "id": 11053411,
                "login": "PrismarineJS",
                "node_id": "MDEyOk9yZ2FuaXphdGlvbjExMDUzNDEx",
                "organizations_url": "https://api.github.com/users/PrismarineJS/orgs",
                "received_events_url": "https://api.github.com/users/PrismarineJS/received_events",
                "repos_url": "https://api.github.com/users/PrismarineJS/repos",
                "site_admin": false,
                "starred_url": "https://api.github.com/users/PrismarineJS/starred{/owner}{/repo}",
                "subscriptions_url": "https://api.github.com/users/PrismarineJS/subscriptions",
                "type": "Organization",
                "url": "https://api.github.com/users/PrismarineJS",
                "user_view_type": "public"
            },
            "private": false,
            "pulls_url": "https://api.github.com/repos/PrismarineJS/mineflayer/pulls{/number}",
            "pushed_at": "2025-01-21T18:33:32Z",
            "releases_url": "https://api.github.com/repos/PrismarineJS/mineflayer/releases{/id}",
            "size": 12401,
            "ssh_url": "git@github.com:PrismarineJS/mineflayer.git",
            "stargazers_count": 5327,
            "stargazers_url": "https://api.github.com/repos/PrismarineJS/mineflayer/stargazers",
            "statuses_url": "https://api.github.com/repos/PrismarineJS/mineflayer/statuses/{sha}",
            "subscribers_url": "https://api.github.com/repos/PrismarineJS/mineflayer/subscribers",
            "subscription_url": "https://api.github.com/repos/PrismarineJS/mineflayer/subscription",
            "svn_url": "https://github.com/PrismarineJS/mineflayer",
            "tags_url": "https://api.github.com/repos/PrismarineJS/mineflayer/tags",
            "teams_url": "https://api.github.com/repos/PrismarineJS/mineflayer/teams",
            "topics": [
                "bot",
                "minecraft",
                "minecraft-api",
                "minecraft-bot",
                "network",
                "nodejs"
            ],
            "trees_url": "https://api.github.com/repos/PrismarineJS/mineflayer/git/trees{/sha}",
            "updated_at": "2025-01-24T20:38:17Z",
            "url": "https://api.github.com/repos/PrismarineJS/mineflayer",
            "visibility": "public",
            "watchers": 5327,
            "watchers_count": 5327,
            "web_commit_signoff_required": false
        },
        "sha": "3d6e2344751c38428701dc52e9f29dda73f7f782",
        "user": {
            "avatar_url": "https://avatars.githubusercontent.com/u/11053411?v=4",
            "events_url": "https://api.github.com/users/PrismarineJS/events{/privacy}",
            "followers_url": "https://api.github.com/users/PrismarineJS/followers",
            "following_url": "https://api.github.com/users/PrismarineJS/following{/other_user}",
            "gists_url": "https://api.github.com/users/PrismarineJS/gists{/gist_id}",
            "gravatar_id": "",
            "html_url": "https://github.com/PrismarineJS",
            "id": 11053411,
            "login": "PrismarineJS",
            "node_id": "MDEyOk9yZ2FuaXphdGlvbjExMDUzNDEx",
            "organizations_url": "https://api.github.com/users/PrismarineJS/orgs",
            "received_events_url": "https://api.github.com/users/PrismarineJS/received_events",
            "repos_url": "https://api.github.com/users/PrismarineJS/repos",
            "site_admin": false,
            "starred_url": "https://api.github.com/users/PrismarineJS/starred{/owner}{/repo}",
            "subscriptions_url": "https://api.github.com/users/PrismarineJS/subscriptions",
            "type": "Organization",
            "url": "https://api.github.com/users/PrismarineJS",
            "user_view_type": "public"
        }
    },
    "body": "requires https://github.com/PrismarineJS/minecraft-data/pull/938",
    "changed_files": 1,
    "closed_at": "2025-01-24T21:57:28Z",
    "comment_data": [],
    "comment_regular_data": [
        {
            "author_association": "MEMBER",
            "body": "closes https://github.com/PrismarineJS/mineflayer/issues/3495",
            "created_at": "2024-11-08T14:46:21Z",
            "html_url": "https://github.com/PrismarineJS/mineflayer/pull/3496#issuecomment-2464940738",
            "id": 2464940738,
            "issue_url": "https://api.github.com/repos/PrismarineJS/mineflayer/issues/3496",
            "node_id": "IC_kwDOABOYWc6S7ALC",
            "performed_via_github_app": null,
            "reactions": {
                "+1": 0,
                "-1": 0,
                "confused": 0,
                "eyes": 0,
                "heart": 0,
                "hooray": 0,
                "laugh": 0,
                "rocket": 0,
                "total_count": 0,
                "url": "https://api.github.com/repos/PrismarineJS/mineflayer/issues/comments/2464940738/reactions"
            },
            "updated_at": "2024-11-08T14:46:21Z",
            "url": "https://api.github.com/repos/PrismarineJS/mineflayer/issues/comments/2464940738",
            "user": {
                "avatar_url": "https://avatars.githubusercontent.com/u/43508353?v=4",
                "events_url": "https://api.github.com/users/u9g/events{/privacy}",
                "followers_url": "https://api.github.com/users/u9g/followers",
                "following_url": "https://api.github.com/users/u9g/following{/other_user}",
                "gists_url": "https://api.github.com/users/u9g/gists{/gist_id}",
                "gravatar_id": "",
                "html_url": "https://github.com/u9g",
                "id": 43508353,
                "login": "u9g",
                "node_id": "MDQ6VXNlcjQzNTA4MzUz",
                "organizations_url": "https://api.github.com/users/u9g/orgs",
                "received_events_url": "https://api.github.com/users/u9g/received_events",
                "repos_url": "https://api.github.com/users/u9g/repos",
                "site_admin": false,
                "starred_url": "https://api.github.com/users/u9g/starred{/owner}{/repo}",
                "subscriptions_url": "https://api.github.com/users/u9g/subscriptions",
                "type": "User",
                "url": "https://api.github.com/users/u9g",
                "user_view_type": "public"
            }
        },
        {
            "author_association": "MEMBER",
            "body": "/fixlint",
            "created_at": "2024-11-11T17:04:31Z",
            "html_url": "https://github.com/PrismarineJS/mineflayer/pull/3496#issuecomment-2468649390",
            "id": 2468649390,
            "issue_url": "https://api.github.com/repos/PrismarineJS/mineflayer/issues/3496",
            "node_id": "IC_kwDOABOYWc6TJJmu",
            "performed_via_github_app": null,
            "reactions": {
                "+1": 0,
                "-1": 0,
                "confused": 0,
                "eyes": 1,
                "heart": 0,
                "hooray": 0,
                "laugh": 0,
                "rocket": 0,
                "total_count": 1,
                "url": "https://api.github.com/repos/PrismarineJS/mineflayer/issues/comments/2468649390/reactions"
            },
            "updated_at": "2024-11-11T17:04:31Z",
            "url": "https://api.github.com/repos/PrismarineJS/mineflayer/issues/comments/2468649390",
            "user": {
                "avatar_url": "https://avatars.githubusercontent.com/u/43508353?v=4",
                "events_url": "https://api.github.com/users/u9g/events{/privacy}",
                "followers_url": "https://api.github.com/users/u9g/followers",
                "following_url": "https://api.github.com/users/u9g/following{/other_user}",
                "gists_url": "https://api.github.com/users/u9g/gists{/gist_id}",
                "gravatar_id": "",
                "html_url": "https://github.com/u9g",
                "id": 43508353,
                "login": "u9g",
                "node_id": "MDQ6VXNlcjQzNTA4MzUz",
                "organizations_url": "https://api.github.com/users/u9g/orgs",
                "received_events_url": "https://api.github.com/users/u9g/received_events",
                "repos_url": "https://api.github.com/users/u9g/repos",
                "site_admin": false,
                "starred_url": "https://api.github.com/users/u9g/starred{/owner}{/repo}",
                "subscriptions_url": "https://api.github.com/users/u9g/subscriptions",
                "type": "User",
                "url": "https://api.github.com/users/u9g",
                "user_view_type": "public"
            }
        },
        {
            "author_association": "MEMBER",
            "body": "I ran <code>npm run fix</code> which fixed the lint errors, but I couldn't push the changes to this branch as the PR author didn't grant write permissions to the maintainers. The PR author must manually run <code>npm run fix</code> and push the changes.",
            "created_at": "2024-11-11T17:05:09Z",
            "html_url": "https://github.com/PrismarineJS/mineflayer/pull/3496#issuecomment-2468650631",
            "id": 2468650631,
            "issue_url": "https://api.github.com/repos/PrismarineJS/mineflayer/issues/3496",
            "node_id": "IC_kwDOABOYWc6TJJ6H",
            "performed_via_github_app": null,
            "reactions": {
                "+1": 0,
                "-1": 0,
                "confused": 0,
                "eyes": 0,
                "heart": 0,
                "hooray": 0,
                "laugh": 0,
                "rocket": 0,
                "total_count": 0,
                "url": "https://api.github.com/repos/PrismarineJS/mineflayer/issues/comments/2468650631/reactions"
            },
            "updated_at": "2024-11-11T17:05:09Z",
            "url": "https://api.github.com/repos/PrismarineJS/mineflayer/issues/comments/2468650631",
            "user": {
                "avatar_url": "https://avatars.githubusercontent.com/u/15970751?v=4",
                "events_url": "https://api.github.com/users/rom1504bot/events{/privacy}",
                "followers_url": "https://api.github.com/users/rom1504bot/followers",
                "following_url": "https://api.github.com/users/rom1504bot/following{/other_user}",
                "gists_url": "https://api.github.com/users/rom1504bot/gists{/gist_id}",
                "gravatar_id": "",
                "html_url": "https://github.com/rom1504bot",
                "id": 15970751,
                "login": "rom1504bot",
                "node_id": "MDQ6VXNlcjE1OTcwNzUx",
                "organizations_url": "https://api.github.com/users/rom1504bot/orgs",
                "received_events_url": "https://api.github.com/users/rom1504bot/received_events",
                "repos_url": "https://api.github.com/users/rom1504bot/repos",
                "site_admin": false,
                "starred_url": "https://api.github.com/users/rom1504bot/starred{/owner}{/repo}",
                "subscriptions_url": "https://api.github.com/users/rom1504bot/subscriptions",
                "type": "User",
                "url": "https://api.github.com/users/rom1504bot",
                "user_view_type": "public"
            }
        },
        {
            "author_association": "NONE",
            "body": "I've tested this locally and seems to work great. @u9g is there any chance for you to commit lint fixes?",
            "created_at": "2024-11-23T18:16:26Z",
            "html_url": "https://github.com/PrismarineJS/mineflayer/pull/3496#issuecomment-2495575981",
            "id": 2495575981,
            "issue_url": "https://api.github.com/repos/PrismarineJS/mineflayer/issues/3496",
            "node_id": "IC_kwDOABOYWc6Uv3et",
            "performed_via_github_app": null,
            "reactions": {
                "+1": 0,
                "-1": 0,
                "confused": 0,
                "eyes": 0,
                "heart": 0,
                "hooray": 0,
                "laugh": 0,
                "rocket": 0,
                "total_count": 0,
                "url": "https://api.github.com/repos/PrismarineJS/mineflayer/issues/comments/2495575981/reactions"
            },
            "updated_at": "2024-11-23T18:16:26Z",
            "url": "https://api.github.com/repos/PrismarineJS/mineflayer/issues/comments/2495575981",
            "user": {
                "avatar_url": "https://avatars.githubusercontent.com/u/184165409?v=4",
                "events_url": "https://api.github.com/users/inforocket/events{/privacy}",
                "followers_url": "https://api.github.com/users/inforocket/followers",
                "following_url": "https://api.github.com/users/inforocket/following{/other_user}",
                "gists_url": "https://api.github.com/users/inforocket/gists{/gist_id}",
                "gravatar_id": "",
                "html_url": "https://github.com/inforocket",
                "id": 184165409,
                "login": "inforocket",
                "node_id": "U_kgDOCvokIQ",
                "organizations_url": "https://api.github.com/users/inforocket/orgs",
                "received_events_url": "https://api.github.com/users/inforocket/received_events",
                "repos_url": "https://api.github.com/users/inforocket/repos",
                "site_admin": false,
                "starred_url": "https://api.github.com/users/inforocket/starred{/owner}{/repo}",
                "subscriptions_url": "https://api.github.com/users/inforocket/subscriptions",
                "type": "User",
                "url": "https://api.github.com/users/inforocket",
                "user_view_type": "public"
            }
        },
        {
            "author_association": "MEMBER",
            "body": "/fixlint",
            "created_at": "2024-12-23T22:49:59Z",
            "html_url": "https://github.com/PrismarineJS/mineflayer/pull/3496#issuecomment-2560399796",
            "id": 2560399796,
            "issue_url": "https://api.github.com/repos/PrismarineJS/mineflayer/issues/3496",
            "node_id": "IC_kwDOABOYWc6YnJm0",
            "performed_via_github_app": null,
            "reactions": {
                "+1": 0,
                "-1": 0,
                "confused": 0,
                "eyes": 1,
                "heart": 0,
                "hooray": 0,
                "laugh": 0,
                "rocket": 0,
                "total_count": 1,
                "url": "https://api.github.com/repos/PrismarineJS/mineflayer/issues/comments/2560399796/reactions"
            },
            "updated_at": "2024-12-23T22:49:59Z",
            "url": "https://api.github.com/repos/PrismarineJS/mineflayer/issues/comments/2560399796",
            "user": {
                "avatar_url": "https://avatars.githubusercontent.com/u/2346494?v=4",
                "events_url": "https://api.github.com/users/rom1504/events{/privacy}",
                "followers_url": "https://api.github.com/users/rom1504/followers",
                "following_url": "https://api.github.com/users/rom1504/following{/other_user}",
                "gists_url": "https://api.github.com/users/rom1504/gists{/gist_id}",
                "gravatar_id": "",
                "html_url": "https://github.com/rom1504",
                "id": 2346494,
                "login": "rom1504",
                "node_id": "MDQ6VXNlcjIzNDY0OTQ=",
                "organizations_url": "https://api.github.com/users/rom1504/orgs",
                "received_events_url": "https://api.github.com/users/rom1504/received_events",
                "repos_url": "https://api.github.com/users/rom1504/repos",
                "site_admin": false,
                "starred_url": "https://api.github.com/users/rom1504/starred{/owner}{/repo}",
                "subscriptions_url": "https://api.github.com/users/rom1504/subscriptions",
                "type": "User",
                "url": "https://api.github.com/users/rom1504",
                "user_view_type": "public"
            }
        },
        {
            "author_association": "MEMBER",
            "body": "I ran <code>npm run fix</code> which fixed the lint errors, but I couldn't push the changes to this branch as the PR author didn't grant write permissions to the maintainers. The PR author must manually run <code>npm run fix</code> and push the changes.",
            "created_at": "2024-12-23T22:52:40Z",
            "html_url": "https://github.com/PrismarineJS/mineflayer/pull/3496#issuecomment-2560401553",
            "id": 2560401553,
            "issue_url": "https://api.github.com/repos/PrismarineJS/mineflayer/issues/3496",
            "node_id": "IC_kwDOABOYWc6YnKCR",
            "performed_via_github_app": null,
            "reactions": {
                "+1": 0,
                "-1": 0,
                "confused": 0,
                "eyes": 0,
                "heart": 0,
                "hooray": 0,
                "laugh": 0,
                "rocket": 0,
                "total_count": 0,
                "url": "https://api.github.com/repos/PrismarineJS/mineflayer/issues/comments/2560401553/reactions"
            },
            "updated_at": "2024-12-23T22:52:40Z",
            "url": "https://api.github.com/repos/PrismarineJS/mineflayer/issues/comments/2560401553",
            "user": {
                "avatar_url": "https://avatars.githubusercontent.com/u/15970751?v=4",
                "events_url": "https://api.github.com/users/rom1504bot/events{/privacy}",
                "followers_url": "https://api.github.com/users/rom1504bot/followers",
                "following_url": "https://api.github.com/users/rom1504bot/following{/other_user}",
                "gists_url": "https://api.github.com/users/rom1504bot/gists{/gist_id}",
                "gravatar_id": "",
                "html_url": "https://github.com/rom1504bot",
                "id": 15970751,
                "login": "rom1504bot",
                "node_id": "MDQ6VXNlcjE1OTcwNzUx",
                "organizations_url": "https://api.github.com/users/rom1504bot/orgs",
                "received_events_url": "https://api.github.com/users/rom1504bot/received_events",
                "repos_url": "https://api.github.com/users/rom1504bot/repos",
                "site_admin": false,
                "starred_url": "https://api.github.com/users/rom1504bot/starred{/owner}{/repo}",
                "subscriptions_url": "https://api.github.com/users/rom1504bot/subscriptions",
                "type": "User",
                "url": "https://api.github.com/users/rom1504bot",
                "user_view_type": "public"
            }
        },
        {
            "author_association": "MEMBER",
            "body": "Not sure this is better ",
            "created_at": "2025-01-21T18:30:24Z",
            "html_url": "https://github.com/PrismarineJS/mineflayer/pull/3496#issuecomment-2605462272",
            "id": 2605462272,
            "issue_url": "https://api.github.com/repos/PrismarineJS/mineflayer/issues/3496",
            "node_id": "IC_kwDOABOYWc6bTDMA",
            "performed_via_github_app": null,
            "reactions": {
                "+1": 0,
                "-1": 0,
                "confused": 0,
                "eyes": 0,
                "heart": 0,
                "hooray": 0,
                "laugh": 0,
                "rocket": 0,
                "total_count": 0,
                "url": "https://api.github.com/repos/PrismarineJS/mineflayer/issues/comments/2605462272/reactions"
            },
            "updated_at": "2025-01-21T18:30:24Z",
            "url": "https://api.github.com/repos/PrismarineJS/mineflayer/issues/comments/2605462272",
            "user": {
                "avatar_url": "https://avatars.githubusercontent.com/u/2346494?v=4",
                "events_url": "https://api.github.com/users/rom1504/events{/privacy}",
                "followers_url": "https://api.github.com/users/rom1504/followers",
                "following_url": "https://api.github.com/users/rom1504/following{/other_user}",
                "gists_url": "https://api.github.com/users/rom1504/gists{/gist_id}",
                "gravatar_id": "",
                "html_url": "https://github.com/rom1504",
                "id": 2346494,
                "login": "rom1504",
                "node_id": "MDQ6VXNlcjIzNDY0OTQ=",
                "organizations_url": "https://api.github.com/users/rom1504/orgs",
                "received_events_url": "https://api.github.com/users/rom1504/received_events",
                "repos_url": "https://api.github.com/users/rom1504/repos",
                "site_admin": false,
                "starred_url": "https://api.github.com/users/rom1504/starred{/owner}{/repo}",
                "subscriptions_url": "https://api.github.com/users/rom1504/subscriptions",
                "type": "User",
                "url": "https://api.github.com/users/rom1504",
                "user_view_type": "public"
            }
        },
        {
            "author_association": "MEMBER",
            "body": "let's not",
            "created_at": "2025-01-24T21:57:28Z",
            "html_url": "https://github.com/PrismarineJS/mineflayer/pull/3496#issuecomment-2613448389",
            "id": 2613448389,
            "issue_url": "https://api.github.com/repos/PrismarineJS/mineflayer/issues/3496",
            "node_id": "IC_kwDOABOYWc6bxg7F",
            "performed_via_github_app": null,
            "reactions": {
                "+1": 0,
                "-1": 0,
                "confused": 0,
                "eyes": 0,
                "heart": 0,
                "hooray": 0,
                "laugh": 0,
                "rocket": 0,
                "total_count": 0,
                "url": "https://api.github.com/repos/PrismarineJS/mineflayer/issues/comments/2613448389/reactions"
            },
            "updated_at": "2025-01-24T21:57:28Z",
            "url": "https://api.github.com/repos/PrismarineJS/mineflayer/issues/comments/2613448389",
            "user": {
                "avatar_url": "https://avatars.githubusercontent.com/u/2346494?v=4",
                "events_url": "https://api.github.com/users/rom1504/events{/privacy}",
                "followers_url": "https://api.github.com/users/rom1504/followers",
                "following_url": "https://api.github.com/users/rom1504/following{/other_user}",
                "gists_url": "https://api.github.com/users/rom1504/gists{/gist_id}",
                "gravatar_id": "",
                "html_url": "https://github.com/rom1504",
                "id": 2346494,
                "login": "rom1504",
                "node_id": "MDQ6VXNlcjIzNDY0OTQ=",
                "organizations_url": "https://api.github.com/users/rom1504/orgs",
                "received_events_url": "https://api.github.com/users/rom1504/received_events",
                "repos_url": "https://api.github.com/users/rom1504/repos",
                "site_admin": false,
                "starred_url": "https://api.github.com/users/rom1504/starred{/owner}{/repo}",
                "subscriptions_url": "https://api.github.com/users/rom1504/subscriptions",
                "type": "User",
                "url": "https://api.github.com/users/rom1504",
                "user_view_type": "public"
            }
        }
    ],
    "comments": 8,
    "comments_url": "https://api.github.com/repos/PrismarineJS/mineflayer/issues/3496/comments",
    "commit_data": [
        {
            "author": {
                "avatar_url": "https://avatars.githubusercontent.com/u/43508353?v=4",
                "events_url": "https://api.github.com/users/u9g/events{/privacy}",
                "followers_url": "https://api.github.com/users/u9g/followers",
                "following_url": "https://api.github.com/users/u9g/following{/other_user}",
                "gists_url": "https://api.github.com/users/u9g/gists{/gist_id}",
                "gravatar_id": "",
                "html_url": "https://github.com/u9g",
                "id": 43508353,
                "login": "u9g",
                "node_id": "MDQ6VXNlcjQzNTA4MzUz",
                "organizations_url": "https://api.github.com/users/u9g/orgs",
                "received_events_url": "https://api.github.com/users/u9g/received_events",
                "repos_url": "https://api.github.com/users/u9g/repos",
                "site_admin": false,
                "starred_url": "https://api.github.com/users/u9g/starred{/owner}{/repo}",
                "subscriptions_url": "https://api.github.com/users/u9g/subscriptions",
                "type": "User",
                "url": "https://api.github.com/users/u9g",
                "user_view_type": "public"
            },
            "comments_url": "https://api.github.com/repos/PrismarineJS/mineflayer/commits/ab9e6a09344c4e3746299c4cf0c8a9af260102a4/comments",
            "commit": {
                "author": {
                    "date": "2024-11-07T19:50:38Z",
                    "email": "git@u9g.dev",
                    "name": "u9g"
                },
                "comment_count": 0,
                "committer": {
                    "date": "2024-11-07T19:50:38Z",
                    "email": "noreply@github.com",
                    "name": "GitHub"
                },
                "message": "Make edit book function use a single feature enum",
                "tree": {
                    "sha": "4ff5daa0589d5f30c7e1a882a9ad8eae1a2a65ef",
                    "url": "https://api.github.com/repos/PrismarineJS/mineflayer/git/trees/4ff5daa0589d5f30c7e1a882a9ad8eae1a2a65ef"
                },
                "url": "https://api.github.com/repos/PrismarineJS/mineflayer/git/commits/ab9e6a09344c4e3746299c4cf0c8a9af260102a4",
                "verification": {
                    "payload": "tree 4ff5daa0589d5f30c7e1a882a9ad8eae1a2a65ef\nparent 3d6e2344751c38428701dc52e9f29dda73f7f782\nauthor u9g <git@u9g.dev> 1731009038 -0500\ncommitter GitHub <noreply@github.com> 1731009038 -0500\n\nMake edit book function use a single feature enum",
                    "reason": "valid",
                    "signature": "-----BEGIN PGP SIGNATURE-----\n\nwsFcBAABCAAQBQJnLRoOCRC1aQ7uu5UhlAAAVMQQAH1YTKje0GGh1Xa/yNd+VkEu\nIN7J33e4bUptjL1qUM8ordJwdMGp97yasDLWq1gABJ1szIQRbis+sv0OJP0GGdXO\nP2vlTzhQJiJBWhjzARz9Dj5u6Rk+5u0vEc/Ia8GRJNhbdocR4qNphGyr7vdi4eqA\nUV6nJud8X2Xfo3yKohzMTJ2166ZKtD3AEG/d3YOXUbNrtwIyVw2n8C0vxoMWxH6t\nHn6+92ZQAan719mjzd78g+AzkcZqNmZiSJuqzuHNX6xdM8fGrygJCqGR3yY8R5p7\nPoXBXUBm543K/u/uPh+XoFbY6fxWVL956YN7Kq2vhoCLPw25FZYCPn0FlRt+Y9jX\nemmDVxvvUPlY2PIxsbmwlAqUifF0dq4pn2qHDgm5tDdbcEfOylRkSzQ9mFvMa55t\ns9WnShJMczDFkaHwPJoIbr9dgwsoHPr4B0rGMxuUKjSF1rnUvo1IyDyp30+F5i99\nUOjz+K/eGOPBW4KoCpLGLYePkAkAeP+wFLj0BQhmOGt1nakf7lPnNzMcYTWUe9yn\nD/PSj2zRG8zTI1nE3kKyyYkMqv8xJDd3aulwTKqFCZi1AO7XifabJ84sXAC2LCNx\nU3lv0/tF8Q83Eo7XazrvenfLKwcJ2QxCvB63zlHNtwN0tx3aWfba+PLaMpDVOEcQ\nBDdqz7pgePgg8DhEGOPu\n=gYXV\n-----END PGP SIGNATURE-----\n",
                    "verified": true,
                    "verified_at": "2024-11-12T22:54:43Z"
                }
            },
            "committer": {
                "avatar_url": "https://avatars.githubusercontent.com/u/19864447?v=4",
                "events_url": "https://api.github.com/users/web-flow/events{/privacy}",
                "followers_url": "https://api.github.com/users/web-flow/followers",
                "following_url": "https://api.github.com/users/web-flow/following{/other_user}",
                "gists_url": "https://api.github.com/users/web-flow/gists{/gist_id}",
                "gravatar_id": "",
                "html_url": "https://github.com/web-flow",
                "id": 19864447,
                "login": "web-flow",
                "node_id": "MDQ6VXNlcjE5ODY0NDQ3",
                "organizations_url": "https://api.github.com/users/web-flow/orgs",
                "received_events_url": "https://api.github.com/users/web-flow/received_events",
                "repos_url": "https://api.github.com/users/web-flow/repos",
                "site_admin": false,
                "starred_url": "https://api.github.com/users/web-flow/starred{/owner}{/repo}",
                "subscriptions_url": "https://api.github.com/users/web-flow/subscriptions",
                "type": "User",
                "url": "https://api.github.com/users/web-flow",
                "user_view_type": "public"
            },
            "html_url": "https://github.com/PrismarineJS/mineflayer/commit/ab9e6a09344c4e3746299c4cf0c8a9af260102a4",
            "node_id": "C_kwDOABOYWdoAKGFiOWU2YTA5MzQ0YzRlMzc0NjI5OWM0Y2YwYzhhOWFmMjYwMTAyYTQ",
            "parents": [
                {
                    "html_url": "https://github.com/PrismarineJS/mineflayer/commit/3d6e2344751c38428701dc52e9f29dda73f7f782",
                    "sha": "3d6e2344751c38428701dc52e9f29dda73f7f782",
                    "url": "https://api.github.com/repos/PrismarineJS/mineflayer/commits/3d6e2344751c38428701dc52e9f29dda73f7f782"
                }
            ],
            "sha": "ab9e6a09344c4e3746299c4cf0c8a9af260102a4",
            "url": "https://api.github.com/repos/PrismarineJS/mineflayer/commits/ab9e6a09344c4e3746299c4cf0c8a9af260102a4"
        }
    ],
    "commits": 1,
    "commits_url": "https://api.github.com/repos/PrismarineJS/mineflayer/pulls/3496/commits",
    "created_at": "2024-11-07T19:50:43Z",
    "deletions": 23,
    "diff_url": "https://github.com/PrismarineJS/mineflayer/pull/3496.diff",
    "draft": false,
    "head": {
        "label": "PrismarineJS:change-edit-book-function",
        "ref": "change-edit-book-function",
        "repo": {
            "allow_forking": true,
            "archive_url": "https://api.github.com/repos/PrismarineJS/mineflayer/{archive_format}{/ref}",
            "archived": false,
            "assignees_url": "https://api.github.com/repos/PrismarineJS/mineflayer/assignees{/user}",
            "blobs_url": "https://api.github.com/repos/PrismarineJS/mineflayer/git/blobs{/sha}",
            "branches_url": "https://api.github.com/repos/PrismarineJS/mineflayer/branches{/branch}",
            "clone_url": "https://github.com/PrismarineJS/mineflayer.git",
            "collaborators_url": "https://api.github.com/repos/PrismarineJS/mineflayer/collaborators{/collaborator}",
            "comments_url": "https://api.github.com/repos/PrismarineJS/mineflayer/comments{/number}",
            "commits_url": "https://api.github.com/repos/PrismarineJS/mineflayer/commits{/sha}",
            "compare_url": "https://api.github.com/repos/PrismarineJS/mineflayer/compare/{base}...{head}",
            "contents_url": "https://api.github.com/repos/PrismarineJS/mineflayer/contents/{+path}",
            "contributors_url": "https://api.github.com/repos/PrismarineJS/mineflayer/contributors",
            "created_at": "2011-01-23T09:41:55Z",
            "default_branch": "master",
            "deployments_url": "https://api.github.com/repos/PrismarineJS/mineflayer/deployments",
            "description": "Create Minecraft bots with a powerful, stable, and high level JavaScript API.",
            "disabled": false,
            "downloads_url": "https://api.github.com/repos/PrismarineJS/mineflayer/downloads",
            "events_url": "https://api.github.com/repos/PrismarineJS/mineflayer/events",
            "fork": false,
            "forks": 951,
            "forks_count": 951,
            "forks_url": "https://api.github.com/repos/PrismarineJS/mineflayer/forks",
            "full_name": "PrismarineJS/mineflayer",
            "git_commits_url": "https://api.github.com/repos/PrismarineJS/mineflayer/git/commits{/sha}",
            "git_refs_url": "https://api.github.com/repos/PrismarineJS/mineflayer/git/refs{/sha}",
            "git_tags_url": "https://api.github.com/repos/PrismarineJS/mineflayer/git/tags{/sha}",
            "git_url": "git://github.com/PrismarineJS/mineflayer.git",
            "has_discussions": true,
            "has_downloads": true,
            "has_issues": true,
            "has_pages": true,
            "has_projects": true,
            "has_wiki": true,
            "homepage": "https://prismarinejs.github.io/mineflayer/",
            "hooks_url": "https://api.github.com/repos/PrismarineJS/mineflayer/hooks",
            "html_url": "https://github.com/PrismarineJS/mineflayer",
            "id": 1284185,
            "is_template": false,
            "issue_comment_url": "https://api.github.com/repos/PrismarineJS/mineflayer/issues/comments{/number}",
            "issue_events_url": "https://api.github.com/repos/PrismarineJS/mineflayer/issues/events{/number}",
            "issues_url": "https://api.github.com/repos/PrismarineJS/mineflayer/issues{/number}",
            "keys_url": "https://api.github.com/repos/PrismarineJS/mineflayer/keys{/key_id}",
            "labels_url": "https://api.github.com/repos/PrismarineJS/mineflayer/labels{/name}",
            "language": "JavaScript",
            "languages_url": "https://api.github.com/repos/PrismarineJS/mineflayer/languages",
            "license": {
                "key": "mit",
                "name": "MIT License",
                "node_id": "MDc6TGljZW5zZTEz",
                "spdx_id": "MIT",
                "url": "https://api.github.com/licenses/mit"
            },
            "merges_url": "https://api.github.com/repos/PrismarineJS/mineflayer/merges",
            "milestones_url": "https://api.github.com/repos/PrismarineJS/mineflayer/milestones{/number}",
            "mirror_url": null,
            "name": "mineflayer",
            "node_id": "MDEwOlJlcG9zaXRvcnkxMjg0MTg1",
            "notifications_url": "https://api.github.com/repos/PrismarineJS/mineflayer/notifications{?since,all,participating}",
            "open_issues": 335,
            "open_issues_count": 335,
            "owner": {
                "avatar_url": "https://avatars.githubusercontent.com/u/11053411?v=4",
                "events_url": "https://api.github.com/users/PrismarineJS/events{/privacy}",
                "followers_url": "https://api.github.com/users/PrismarineJS/followers",
                "following_url": "https://api.github.com/users/PrismarineJS/following{/other_user}",
                "gists_url": "https://api.github.com/users/PrismarineJS/gists{/gist_id}",
                "gravatar_id": "",
                "html_url": "https://github.com/PrismarineJS",
                "id": 11053411,
                "login": "PrismarineJS",
                "node_id": "MDEyOk9yZ2FuaXphdGlvbjExMDUzNDEx",
                "organizations_url": "https://api.github.com/users/PrismarineJS/orgs",
                "received_events_url": "https://api.github.com/users/PrismarineJS/received_events",
                "repos_url": "https://api.github.com/users/PrismarineJS/repos",
                "site_admin": false,
                "starred_url": "https://api.github.com/users/PrismarineJS/starred{/owner}{/repo}",
                "subscriptions_url": "https://api.github.com/users/PrismarineJS/subscriptions",
                "type": "Organization",
                "url": "https://api.github.com/users/PrismarineJS",
                "user_view_type": "public"
            },
            "private": false,
            "pulls_url": "https://api.github.com/repos/PrismarineJS/mineflayer/pulls{/number}",
            "pushed_at": "2025-01-21T18:33:32Z",
            "releases_url": "https://api.github.com/repos/PrismarineJS/mineflayer/releases{/id}",
            "size": 12401,
            "ssh_url": "git@github.com:PrismarineJS/mineflayer.git",
            "stargazers_count": 5327,
            "stargazers_url": "https://api.github.com/repos/PrismarineJS/mineflayer/stargazers",
            "statuses_url": "https://api.github.com/repos/PrismarineJS/mineflayer/statuses/{sha}",
            "subscribers_url": "https://api.github.com/repos/PrismarineJS/mineflayer/subscribers",
            "subscription_url": "https://api.github.com/repos/PrismarineJS/mineflayer/subscription",
            "svn_url": "https://github.com/PrismarineJS/mineflayer",
            "tags_url": "https://api.github.com/repos/PrismarineJS/mineflayer/tags",
            "teams_url": "https://api.github.com/repos/PrismarineJS/mineflayer/teams",
            "topics": [
                "bot",
                "minecraft",
                "minecraft-api",
                "minecraft-bot",
                "network",
                "nodejs"
            ],
            "trees_url": "https://api.github.com/repos/PrismarineJS/mineflayer/git/trees{/sha}",
            "updated_at": "2025-01-24T20:38:17Z",
            "url": "https://api.github.com/repos/PrismarineJS/mineflayer",
            "visibility": "public",
            "watchers": 5327,
            "watchers_count": 5327,
            "web_commit_signoff_required": false
        },
        "sha": "ab9e6a09344c4e3746299c4cf0c8a9af260102a4",
        "user": {
            "avatar_url": "https://avatars.githubusercontent.com/u/11053411?v=4",
            "events_url": "https://api.github.com/users/PrismarineJS/events{/privacy}",
            "followers_url": "https://api.github.com/users/PrismarineJS/followers",
            "following_url": "https://api.github.com/users/PrismarineJS/following{/other_user}",
            "gists_url": "https://api.github.com/users/PrismarineJS/gists{/gist_id}",
            "gravatar_id": "",
            "html_url": "https://github.com/PrismarineJS",
            "id": 11053411,
            "login": "PrismarineJS",
            "node_id": "MDEyOk9yZ2FuaXphdGlvbjExMDUzNDEx",
            "organizations_url": "https://api.github.com/users/PrismarineJS/orgs",
            "received_events_url": "https://api.github.com/users/PrismarineJS/received_events",
            "repos_url": "https://api.github.com/users/PrismarineJS/repos",
            "site_admin": false,
            "starred_url": "https://api.github.com/users/PrismarineJS/starred{/owner}{/repo}",
            "subscriptions_url": "https://api.github.com/users/PrismarineJS/subscriptions",
            "type": "Organization",
            "url": "https://api.github.com/users/PrismarineJS",
            "user_view_type": "public"
        }
    },
    "html_url": "https://github.com/PrismarineJS/mineflayer/pull/3496",
    "id": 2168168568,
    "issue_url": "https://api.github.com/repos/PrismarineJS/mineflayer/issues/3496",
    "labels": [],
    "locked": false,
    "maintainer_can_modify": false,
    "merge_commit_sha": "3c56c4db985241ac3b6e23d2ce5ef0fb7de1b162",
    "mergeable": true,
    "mergeable_state": "blocked",
    "merged": false,
    "merged_at": null,
    "merged_by": null,
    "milestone": null,
    "node_id": "PR_kwDOABOYWc6BO6B4",
    "number": 3496,
    "patch_url": "https://github.com/PrismarineJS/mineflayer/pull/3496.patch",
    "rebaseable": false,
    "requested_reviewers": [],
    "requested_teams": [],
    "review_comment_url": "https://api.github.com/repos/PrismarineJS/mineflayer/pulls/comments{/number}",
    "review_comments": 0,
    "review_comments_url": "https://api.github.com/repos/PrismarineJS/mineflayer/pulls/3496/comments",
    "state": "closed",
    "statuses_url": "https://api.github.com/repos/PrismarineJS/mineflayer/statuses/ab9e6a09344c4e3746299c4cf0c8a9af260102a4",
    "title": "Make edit book function use a single feature enum",
    "updated_at": "2025-01-24T21:57:28Z",
    "url": "https://api.github.com/repos/PrismarineJS/mineflayer/pulls/3496",
    "user": {
        "avatar_url": "https://avatars.githubusercontent.com/u/43508353?v=4",
        "events_url": "https://api.github.com/users/u9g/events{/privacy}",
        "followers_url": "https://api.github.com/users/u9g/followers",
        "following_url": "https://api.github.com/users/u9g/following{/other_user}",
        "gists_url": "https://api.github.com/users/u9g/gists{/gist_id}",
        "gravatar_id": "",
        "html_url": "https://github.com/u9g",
        "id": 43508353,
        "login": "u9g",
        "node_id": "MDQ6VXNlcjQzNTA4MzUz",
        "organizations_url": "https://api.github.com/users/u9g/orgs",
        "received_events_url": "https://api.github.com/users/u9g/received_events",
        "repos_url": "https://api.github.com/users/u9g/repos",
        "site_admin": false,
        "starred_url": "https://api.github.com/users/u9g/starred{/owner}{/repo}",
        "subscriptions_url": "https://api.github.com/users/u9g/subscriptions",
        "type": "User",
        "url": "https://api.github.com/users/u9g",
        "user_view_type": "public"
    }
}