{
    "_links": {
        "comments": {
            "href": "https://api.github.com/repos/PrismarineJS/mineflayer/issues/442/comments"
        },
        "commits": {
            "href": "https://api.github.com/repos/PrismarineJS/mineflayer/pulls/442/commits"
        },
        "html": {
            "href": "https://github.com/PrismarineJS/mineflayer/pull/442"
        },
        "issue": {
            "href": "https://api.github.com/repos/PrismarineJS/mineflayer/issues/442"
        },
        "review_comment": {
            "href": "https://api.github.com/repos/PrismarineJS/mineflayer/pulls/comments{/number}"
        },
        "review_comments": {
            "href": "https://api.github.com/repos/PrismarineJS/mineflayer/pulls/442/comments"
        },
        "self": {
            "href": "https://api.github.com/repos/PrismarineJS/mineflayer/pulls/442"
        },
        "statuses": {
            "href": "https://api.github.com/repos/PrismarineJS/mineflayer/statuses/2d383ff249008b7d8b7fe2713a5a04f99a074ae4"
        }
    },
    "active_lock_reason": null,
    "additions": 1,
    "assignee": null,
    "assignees": [],
    "author_association": "CONTRIBUTOR",
    "auto_merge": null,
    "base": {
        "label": "PrismarineJS:master",
        "ref": "master",
        "repo": {
            "allow_forking": true,
            "archive_url": "https://api.github.com/repos/PrismarineJS/mineflayer/{archive_format}{/ref}",
            "archived": false,
            "assignees_url": "https://api.github.com/repos/PrismarineJS/mineflayer/assignees{/user}",
            "blobs_url": "https://api.github.com/repos/PrismarineJS/mineflayer/git/blobs{/sha}",
            "branches_url": "https://api.github.com/repos/PrismarineJS/mineflayer/branches{/branch}",
            "clone_url": "https://github.com/PrismarineJS/mineflayer.git",
            "collaborators_url": "https://api.github.com/repos/PrismarineJS/mineflayer/collaborators{/collaborator}",
            "comments_url": "https://api.github.com/repos/PrismarineJS/mineflayer/comments{/number}",
            "commits_url": "https://api.github.com/repos/PrismarineJS/mineflayer/commits{/sha}",
            "compare_url": "https://api.github.com/repos/PrismarineJS/mineflayer/compare/{base}...{head}",
            "contents_url": "https://api.github.com/repos/PrismarineJS/mineflayer/contents/{+path}",
            "contributors_url": "https://api.github.com/repos/PrismarineJS/mineflayer/contributors",
            "created_at": "2011-01-23T09:41:55Z",
            "default_branch": "master",
            "deployments_url": "https://api.github.com/repos/PrismarineJS/mineflayer/deployments",
            "description": "Create Minecraft bots with a powerful, stable, and high level JavaScript API.",
            "disabled": false,
            "downloads_url": "https://api.github.com/repos/PrismarineJS/mineflayer/downloads",
            "events_url": "https://api.github.com/repos/PrismarineJS/mineflayer/events",
            "fork": false,
            "forks": 748,
            "forks_count": 748,
            "forks_url": "https://api.github.com/repos/PrismarineJS/mineflayer/forks",
            "full_name": "PrismarineJS/mineflayer",
            "git_commits_url": "https://api.github.com/repos/PrismarineJS/mineflayer/git/commits{/sha}",
            "git_refs_url": "https://api.github.com/repos/PrismarineJS/mineflayer/git/refs{/sha}",
            "git_tags_url": "https://api.github.com/repos/PrismarineJS/mineflayer/git/tags{/sha}",
            "git_url": "git://github.com/PrismarineJS/mineflayer.git",
            "has_discussions": true,
            "has_downloads": true,
            "has_issues": true,
            "has_pages": true,
            "has_projects": true,
            "has_wiki": true,
            "homepage": "https://prismarinejs.github.io/mineflayer/",
            "hooks_url": "https://api.github.com/repos/PrismarineJS/mineflayer/hooks",
            "html_url": "https://github.com/PrismarineJS/mineflayer",
            "id": 1284185,
            "is_template": false,
            "issue_comment_url": "https://api.github.com/repos/PrismarineJS/mineflayer/issues/comments{/number}",
            "issue_events_url": "https://api.github.com/repos/PrismarineJS/mineflayer/issues/events{/number}",
            "issues_url": "https://api.github.com/repos/PrismarineJS/mineflayer/issues{/number}",
            "keys_url": "https://api.github.com/repos/PrismarineJS/mineflayer/keys{/key_id}",
            "labels_url": "https://api.github.com/repos/PrismarineJS/mineflayer/labels{/name}",
            "language": "JavaScript",
            "languages_url": "https://api.github.com/repos/PrismarineJS/mineflayer/languages",
            "license": {
                "key": "mit",
                "name": "MIT License",
                "node_id": "MDc6TGljZW5zZTEz",
                "spdx_id": "MIT",
                "url": "https://api.github.com/licenses/mit"
            },
            "merges_url": "https://api.github.com/repos/PrismarineJS/mineflayer/merges",
            "milestones_url": "https://api.github.com/repos/PrismarineJS/mineflayer/milestones{/number}",
            "mirror_url": null,
            "name": "mineflayer",
            "node_id": "MDEwOlJlcG9zaXRvcnkxMjg0MTg1",
            "notifications_url": "https://api.github.com/repos/PrismarineJS/mineflayer/notifications{?since,all,participating}",
            "open_issues": 269,
            "open_issues_count": 269,
            "owner": {
                "avatar_url": "https://avatars.githubusercontent.com/u/11053411?v=4",
                "events_url": "https://api.github.com/users/PrismarineJS/events{/privacy}",
                "followers_url": "https://api.github.com/users/PrismarineJS/followers",
                "following_url": "https://api.github.com/users/PrismarineJS/following{/other_user}",
                "gists_url": "https://api.github.com/users/PrismarineJS/gists{/gist_id}",
                "gravatar_id": "",
                "html_url": "https://github.com/PrismarineJS",
                "id": 11053411,
                "login": "PrismarineJS",
                "node_id": "MDEyOk9yZ2FuaXphdGlvbjExMDUzNDEx",
                "organizations_url": "https://api.github.com/users/PrismarineJS/orgs",
                "received_events_url": "https://api.github.com/users/PrismarineJS/received_events",
                "repos_url": "https://api.github.com/users/PrismarineJS/repos",
                "site_admin": false,
                "starred_url": "https://api.github.com/users/PrismarineJS/starred{/owner}{/repo}",
                "subscriptions_url": "https://api.github.com/users/PrismarineJS/subscriptions",
                "type": "Organization",
                "url": "https://api.github.com/users/PrismarineJS"
            },
            "private": false,
            "pulls_url": "https://api.github.com/repos/PrismarineJS/mineflayer/pulls{/number}",
            "pushed_at": "2023-04-25T00:44:52Z",
            "releases_url": "https://api.github.com/repos/PrismarineJS/mineflayer/releases{/id}",
            "size": 12493,
            "ssh_url": "git@github.com:PrismarineJS/mineflayer.git",
            "stargazers_count": 3698,
            "stargazers_url": "https://api.github.com/repos/PrismarineJS/mineflayer/stargazers",
            "statuses_url": "https://api.github.com/repos/PrismarineJS/mineflayer/statuses/{sha}",
            "subscribers_url": "https://api.github.com/repos/PrismarineJS/mineflayer/subscribers",
            "subscription_url": "https://api.github.com/repos/PrismarineJS/mineflayer/subscription",
            "svn_url": "https://github.com/PrismarineJS/mineflayer",
            "tags_url": "https://api.github.com/repos/PrismarineJS/mineflayer/tags",
            "teams_url": "https://api.github.com/repos/PrismarineJS/mineflayer/teams",
            "topics": [
                "bot",
                "minecraft",
                "minecraft-api",
                "minecraft-bot",
                "network",
                "nodejs"
            ],
            "trees_url": "https://api.github.com/repos/PrismarineJS/mineflayer/git/trees{/sha}",
            "updated_at": "2023-04-25T14:07:03Z",
            "url": "https://api.github.com/repos/PrismarineJS/mineflayer",
            "visibility": "public",
            "watchers": 3698,
            "watchers_count": 3698,
            "web_commit_signoff_required": false
        },
        "sha": "4ad5a711f6f4e58d79419df37fe98d1a6de571f5",
        "user": {
            "avatar_url": "https://avatars.githubusercontent.com/u/11053411?v=4",
            "events_url": "https://api.github.com/users/PrismarineJS/events{/privacy}",
            "followers_url": "https://api.github.com/users/PrismarineJS/followers",
            "following_url": "https://api.github.com/users/PrismarineJS/following{/other_user}",
            "gists_url": "https://api.github.com/users/PrismarineJS/gists{/gist_id}",
            "gravatar_id": "",
            "html_url": "https://github.com/PrismarineJS",
            "id": 11053411,
            "login": "PrismarineJS",
            "node_id": "MDEyOk9yZ2FuaXphdGlvbjExMDUzNDEx",
            "organizations_url": "https://api.github.com/users/PrismarineJS/orgs",
            "received_events_url": "https://api.github.com/users/PrismarineJS/received_events",
            "repos_url": "https://api.github.com/users/PrismarineJS/repos",
            "site_admin": false,
            "starred_url": "https://api.github.com/users/PrismarineJS/starred{/owner}{/repo}",
            "subscriptions_url": "https://api.github.com/users/PrismarineJS/subscriptions",
            "type": "Organization",
            "url": "https://api.github.com/users/PrismarineJS"
        }
    },
    "body": "\"a Block instance, the block at emitted the noise\"\nbecame\n\"a Block instance, the block that emitted the noise\"\n",
    "changed_files": 1,
    "closed_at": "2016-07-22T18:51:33Z",
    "comment_data": [],
    "comment_regular_data": [
        {
            "author_association": "MEMBER",
            "body": "Thanks !\n",
            "created_at": "2016-07-22T18:51:08Z",
            "html_url": "https://github.com/PrismarineJS/mineflayer/pull/442#issuecomment-234625776",
            "id": 234625776,
            "issue_url": "https://api.github.com/repos/PrismarineJS/mineflayer/issues/442",
            "node_id": "MDEyOklzc3VlQ29tbWVudDIzNDYyNTc3Ng==",
            "performed_via_github_app": null,
            "reactions": {
                "+1": 0,
                "-1": 0,
                "confused": 0,
                "eyes": 0,
                "heart": 0,
                "hooray": 0,
                "laugh": 0,
                "rocket": 0,
                "total_count": 0,
                "url": "https://api.github.com/repos/PrismarineJS/mineflayer/issues/comments/234625776/reactions"
            },
            "updated_at": "2016-07-22T18:51:08Z",
            "url": "https://api.github.com/repos/PrismarineJS/mineflayer/issues/comments/234625776",
            "user": {
                "avatar_url": "https://avatars.githubusercontent.com/u/2346494?v=4",
                "events_url": "https://api.github.com/users/rom1504/events{/privacy}",
                "followers_url": "https://api.github.com/users/rom1504/followers",
                "following_url": "https://api.github.com/users/rom1504/following{/other_user}",
                "gists_url": "https://api.github.com/users/rom1504/gists{/gist_id}",
                "gravatar_id": "",
                "html_url": "https://github.com/rom1504",
                "id": 2346494,
                "login": "rom1504",
                "node_id": "MDQ6VXNlcjIzNDY0OTQ=",
                "organizations_url": "https://api.github.com/users/rom1504/orgs",
                "received_events_url": "https://api.github.com/users/rom1504/received_events",
                "repos_url": "https://api.github.com/users/rom1504/repos",
                "site_admin": false,
                "starred_url": "https://api.github.com/users/rom1504/starred{/owner}{/repo}",
                "subscriptions_url": "https://api.github.com/users/rom1504/subscriptions",
                "type": "User",
                "url": "https://api.github.com/users/rom1504"
            }
        },
        {
            "author_association": "CONTRIBUTOR",
            "body": "You're welcome! :smile:\n",
            "created_at": "2016-07-22T21:46:14Z",
            "html_url": "https://github.com/PrismarineJS/mineflayer/pull/442#issuecomment-234664978",
            "id": 234664978,
            "issue_url": "https://api.github.com/repos/PrismarineJS/mineflayer/issues/442",
            "node_id": "MDEyOklzc3VlQ29tbWVudDIzNDY2NDk3OA==",
            "performed_via_github_app": null,
            "reactions": {
                "+1": 0,
                "-1": 0,
                "confused": 0,
                "eyes": 0,
                "heart": 0,
                "hooray": 0,
                "laugh": 0,
                "rocket": 0,
                "total_count": 0,
                "url": "https://api.github.com/repos/PrismarineJS/mineflayer/issues/comments/234664978/reactions"
            },
            "updated_at": "2016-07-22T21:46:14Z",
            "url": "https://api.github.com/repos/PrismarineJS/mineflayer/issues/comments/234664978",
            "user": {
                "avatar_url": "https://avatars.githubusercontent.com/u/8008674?v=4",
                "events_url": "https://api.github.com/users/Atmatm6/events{/privacy}",
                "followers_url": "https://api.github.com/users/Atmatm6/followers",
                "following_url": "https://api.github.com/users/Atmatm6/following{/other_user}",
                "gists_url": "https://api.github.com/users/Atmatm6/gists{/gist_id}",
                "gravatar_id": "",
                "html_url": "https://github.com/Atmatm6",
                "id": 8008674,
                "login": "Atmatm6",
                "node_id": "MDQ6VXNlcjgwMDg2NzQ=",
                "organizations_url": "https://api.github.com/users/Atmatm6/orgs",
                "received_events_url": "https://api.github.com/users/Atmatm6/received_events",
                "repos_url": "https://api.github.com/users/Atmatm6/repos",
                "site_admin": false,
                "starred_url": "https://api.github.com/users/Atmatm6/starred{/owner}{/repo}",
                "subscriptions_url": "https://api.github.com/users/Atmatm6/subscriptions",
                "type": "User",
                "url": "https://api.github.com/users/Atmatm6"
            }
        }
    ],
    "comments": 2,
    "comments_url": "https://api.github.com/repos/PrismarineJS/mineflayer/issues/442/comments",
    "commit_data": [
        {
            "author": {
                "avatar_url": "https://avatars.githubusercontent.com/u/8008674?v=4",
                "events_url": "https://api.github.com/users/Atmatm6/events{/privacy}",
                "followers_url": "https://api.github.com/users/Atmatm6/followers",
                "following_url": "https://api.github.com/users/Atmatm6/following{/other_user}",
                "gists_url": "https://api.github.com/users/Atmatm6/gists{/gist_id}",
                "gravatar_id": "",
                "html_url": "https://github.com/Atmatm6",
                "id": 8008674,
                "login": "Atmatm6",
                "node_id": "MDQ6VXNlcjgwMDg2NzQ=",
                "organizations_url": "https://api.github.com/users/Atmatm6/orgs",
                "received_events_url": "https://api.github.com/users/Atmatm6/received_events",
                "repos_url": "https://api.github.com/users/Atmatm6/repos",
                "site_admin": false,
                "starred_url": "https://api.github.com/users/Atmatm6/starred{/owner}{/repo}",
                "subscriptions_url": "https://api.github.com/users/Atmatm6/subscriptions",
                "type": "User",
                "url": "https://api.github.com/users/Atmatm6"
            },
            "comments_url": "https://api.github.com/repos/PrismarineJS/mineflayer/commits/2d383ff249008b7d8b7fe2713a5a04f99a074ae4/comments",
            "commit": {
                "author": {
                    "date": "2016-07-22T18:02:29Z",
                    "email": "Atmatm6@users.noreply.github.com",
                    "name": "Atmatm6 Yolo"
                },
                "comment_count": 0,
                "committer": {
                    "date": "2016-07-22T18:02:29Z",
                    "email": "noreply@github.com",
                    "name": "GitHub"
                },
                "message": "fix tiny typo at \"noteHeard\"\n\n\"a Block instance, the block at emitted the noise\"\r\nbecame\r\n\"a Block instance, the block that emitted the noise\"",
                "tree": {
                    "sha": "46a704df54be86feebebc19d66e3c4413f7dc660",
                    "url": "https://api.github.com/repos/PrismarineJS/mineflayer/git/trees/46a704df54be86feebebc19d66e3c4413f7dc660"
                },
                "url": "https://api.github.com/repos/PrismarineJS/mineflayer/git/commits/2d383ff249008b7d8b7fe2713a5a04f99a074ae4",
                "verification": {
                    "payload": null,
                    "reason": "unsigned",
                    "signature": null,
                    "verified": false
                }
            },
            "committer": {
                "avatar_url": "https://avatars.githubusercontent.com/u/19864447?v=4",
                "events_url": "https://api.github.com/users/web-flow/events{/privacy}",
                "followers_url": "https://api.github.com/users/web-flow/followers",
                "following_url": "https://api.github.com/users/web-flow/following{/other_user}",
                "gists_url": "https://api.github.com/users/web-flow/gists{/gist_id}",
                "gravatar_id": "",
                "html_url": "https://github.com/web-flow",
                "id": 19864447,
                "login": "web-flow",
                "node_id": "MDQ6VXNlcjE5ODY0NDQ3",
                "organizations_url": "https://api.github.com/users/web-flow/orgs",
                "received_events_url": "https://api.github.com/users/web-flow/received_events",
                "repos_url": "https://api.github.com/users/web-flow/repos",
                "site_admin": false,
                "starred_url": "https://api.github.com/users/web-flow/starred{/owner}{/repo}",
                "subscriptions_url": "https://api.github.com/users/web-flow/subscriptions",
                "type": "User",
                "url": "https://api.github.com/users/web-flow"
            },
            "html_url": "https://github.com/PrismarineJS/mineflayer/commit/2d383ff249008b7d8b7fe2713a5a04f99a074ae4",
            "node_id": "MDY6Q29tbWl0NjM5NzMxNjI6MmQzODNmZjI0OTAwOGI3ZDhiN2ZlMjcxM2E1YTA0Zjk5YTA3NGFlNA==",
            "parents": [
                {
                    "html_url": "https://github.com/PrismarineJS/mineflayer/commit/4ad5a711f6f4e58d79419df37fe98d1a6de571f5",
                    "sha": "4ad5a711f6f4e58d79419df37fe98d1a6de571f5",
                    "url": "https://api.github.com/repos/PrismarineJS/mineflayer/commits/4ad5a711f6f4e58d79419df37fe98d1a6de571f5"
                }
            ],
            "sha": "2d383ff249008b7d8b7fe2713a5a04f99a074ae4",
            "url": "https://api.github.com/repos/PrismarineJS/mineflayer/commits/2d383ff249008b7d8b7fe2713a5a04f99a074ae4"
        }
    ],
    "commits": 1,
    "commits_url": "https://api.github.com/repos/PrismarineJS/mineflayer/pulls/442/commits",
    "created_at": "2016-07-22T18:03:36Z",
    "deletions": 1,
    "diff_url": "https://github.com/PrismarineJS/mineflayer/pull/442.diff",
    "draft": false,
    "head": {
        "label": "Atmatm6:patch-1",
        "ref": "patch-1",
        "repo": {
            "allow_forking": true,
            "archive_url": "https://api.github.com/repos/Atmatm6/mineflayer/{archive_format}{/ref}",
            "archived": false,
            "assignees_url": "https://api.github.com/repos/Atmatm6/mineflayer/assignees{/user}",
            "blobs_url": "https://api.github.com/repos/Atmatm6/mineflayer/git/blobs{/sha}",
            "branches_url": "https://api.github.com/repos/Atmatm6/mineflayer/branches{/branch}",
            "clone_url": "https://github.com/Atmatm6/mineflayer.git",
            "collaborators_url": "https://api.github.com/repos/Atmatm6/mineflayer/collaborators{/collaborator}",
            "comments_url": "https://api.github.com/repos/Atmatm6/mineflayer/comments{/number}",
            "commits_url": "https://api.github.com/repos/Atmatm6/mineflayer/commits{/sha}",
            "compare_url": "https://api.github.com/repos/Atmatm6/mineflayer/compare/{base}...{head}",
            "contents_url": "https://api.github.com/repos/Atmatm6/mineflayer/contents/{+path}",
            "contributors_url": "https://api.github.com/repos/Atmatm6/mineflayer/contributors",
            "created_at": "2016-07-22T18:00:22Z",
            "default_branch": "master",
            "deployments_url": "https://api.github.com/repos/Atmatm6/mineflayer/deployments",
            "description": "Create Minecraft bots with a powerful, stable, and high level JavaScript API.",
            "disabled": false,
            "downloads_url": "https://api.github.com/repos/Atmatm6/mineflayer/downloads",
            "events_url": "https://api.github.com/repos/Atmatm6/mineflayer/events",
            "fork": true,
            "forks": 0,
            "forks_count": 0,
            "forks_url": "https://api.github.com/repos/Atmatm6/mineflayer/forks",
            "full_name": "Atmatm6/mineflayer",
            "git_commits_url": "https://api.github.com/repos/Atmatm6/mineflayer/git/commits{/sha}",
            "git_refs_url": "https://api.github.com/repos/Atmatm6/mineflayer/git/refs{/sha}",
            "git_tags_url": "https://api.github.com/repos/Atmatm6/mineflayer/git/tags{/sha}",
            "git_url": "git://github.com/Atmatm6/mineflayer.git",
            "has_discussions": false,
            "has_downloads": true,
            "has_issues": false,
            "has_pages": false,
            "has_projects": true,
            "has_wiki": true,
            "homepage": "",
            "hooks_url": "https://api.github.com/repos/Atmatm6/mineflayer/hooks",
            "html_url": "https://github.com/Atmatm6/mineflayer",
            "id": 63973162,
            "is_template": false,
            "issue_comment_url": "https://api.github.com/repos/Atmatm6/mineflayer/issues/comments{/number}",
            "issue_events_url": "https://api.github.com/repos/Atmatm6/mineflayer/issues/events{/number}",
            "issues_url": "https://api.github.com/repos/Atmatm6/mineflayer/issues{/number}",
            "keys_url": "https://api.github.com/repos/Atmatm6/mineflayer/keys{/key_id}",
            "labels_url": "https://api.github.com/repos/Atmatm6/mineflayer/labels{/name}",
            "language": "JavaScript",
            "languages_url": "https://api.github.com/repos/Atmatm6/mineflayer/languages",
            "license": {
                "key": "mit",
                "name": "MIT License",
                "node_id": "MDc6TGljZW5zZTEz",
                "spdx_id": "MIT",
                "url": "https://api.github.com/licenses/mit"
            },
            "merges_url": "https://api.github.com/repos/Atmatm6/mineflayer/merges",
            "milestones_url": "https://api.github.com/repos/Atmatm6/mineflayer/milestones{/number}",
            "mirror_url": null,
            "name": "mineflayer",
            "node_id": "MDEwOlJlcG9zaXRvcnk2Mzk3MzE2Mg==",
            "notifications_url": "https://api.github.com/repos/Atmatm6/mineflayer/notifications{?since,all,participating}",
            "open_issues": 0,
            "open_issues_count": 0,
            "owner": {
                "avatar_url": "https://avatars.githubusercontent.com/u/8008674?v=4",
                "events_url": "https://api.github.com/users/Atmatm6/events{/privacy}",
                "followers_url": "https://api.github.com/users/Atmatm6/followers",
                "following_url": "https://api.github.com/users/Atmatm6/following{/other_user}",
                "gists_url": "https://api.github.com/users/Atmatm6/gists{/gist_id}",
                "gravatar_id": "",
                "html_url": "https://github.com/Atmatm6",
                "id": 8008674,
                "login": "Atmatm6",
                "node_id": "MDQ6VXNlcjgwMDg2NzQ=",
                "organizations_url": "https://api.github.com/users/Atmatm6/orgs",
                "received_events_url": "https://api.github.com/users/Atmatm6/received_events",
                "repos_url": "https://api.github.com/users/Atmatm6/repos",
                "site_admin": false,
                "starred_url": "https://api.github.com/users/Atmatm6/starred{/owner}{/repo}",
                "subscriptions_url": "https://api.github.com/users/Atmatm6/subscriptions",
                "type": "User",
                "url": "https://api.github.com/users/Atmatm6"
            },
            "private": false,
            "pulls_url": "https://api.github.com/repos/Atmatm6/mineflayer/pulls{/number}",
            "pushed_at": "2016-07-22T21:46:29Z",
            "releases_url": "https://api.github.com/repos/Atmatm6/mineflayer/releases{/id}",
            "size": 10271,
            "ssh_url": "git@github.com:Atmatm6/mineflayer.git",
            "stargazers_count": 0,
            "stargazers_url": "https://api.github.com/repos/Atmatm6/mineflayer/stargazers",
            "statuses_url": "https://api.github.com/repos/Atmatm6/mineflayer/statuses/{sha}",
            "subscribers_url": "https://api.github.com/repos/Atmatm6/mineflayer/subscribers",
            "subscription_url": "https://api.github.com/repos/Atmatm6/mineflayer/subscription",
            "svn_url": "https://github.com/Atmatm6/mineflayer",
            "tags_url": "https://api.github.com/repos/Atmatm6/mineflayer/tags",
            "teams_url": "https://api.github.com/repos/Atmatm6/mineflayer/teams",
            "topics": [],
            "trees_url": "https://api.github.com/repos/Atmatm6/mineflayer/git/trees{/sha}",
            "updated_at": "2016-07-22T18:00:23Z",
            "url": "https://api.github.com/repos/Atmatm6/mineflayer",
            "visibility": "public",
            "watchers": 0,
            "watchers_count": 0,
            "web_commit_signoff_required": false
        },
        "sha": "2d383ff249008b7d8b7fe2713a5a04f99a074ae4",
        "user": {
            "avatar_url": "https://avatars.githubusercontent.com/u/8008674?v=4",
            "events_url": "https://api.github.com/users/Atmatm6/events{/privacy}",
            "followers_url": "https://api.github.com/users/Atmatm6/followers",
            "following_url": "https://api.github.com/users/Atmatm6/following{/other_user}",
            "gists_url": "https://api.github.com/users/Atmatm6/gists{/gist_id}",
            "gravatar_id": "",
            "html_url": "https://github.com/Atmatm6",
            "id": 8008674,
            "login": "Atmatm6",
            "node_id": "MDQ6VXNlcjgwMDg2NzQ=",
            "organizations_url": "https://api.github.com/users/Atmatm6/orgs",
            "received_events_url": "https://api.github.com/users/Atmatm6/received_events",
            "repos_url": "https://api.github.com/users/Atmatm6/repos",
            "site_admin": false,
            "starred_url": "https://api.github.com/users/Atmatm6/starred{/owner}{/repo}",
            "subscriptions_url": "https://api.github.com/users/Atmatm6/subscriptions",
            "type": "User",
            "url": "https://api.github.com/users/Atmatm6"
        }
    },
    "html_url": "https://github.com/PrismarineJS/mineflayer/pull/442",
    "id": 78516754,
    "issue_url": "https://api.github.com/repos/PrismarineJS/mineflayer/issues/442",
    "labels": [],
    "locked": false,
    "maintainer_can_modify": false,
    "merge_commit_sha": "b172d7d111063191c4bb04822a21cca85bc1809a",
    "mergeable": null,
    "mergeable_state": "unknown",
    "merged": true,
    "merged_at": "2016-07-22T18:51:33Z",
    "merged_by": {
        "avatar_url": "https://avatars.githubusercontent.com/u/2346494?v=4",
        "events_url": "https://api.github.com/users/rom1504/events{/privacy}",
        "followers_url": "https://api.github.com/users/rom1504/followers",
        "following_url": "https://api.github.com/users/rom1504/following{/other_user}",
        "gists_url": "https://api.github.com/users/rom1504/gists{/gist_id}",
        "gravatar_id": "",
        "html_url": "https://github.com/rom1504",
        "id": 2346494,
        "login": "rom1504",
        "node_id": "MDQ6VXNlcjIzNDY0OTQ=",
        "organizations_url": "https://api.github.com/users/rom1504/orgs",
        "received_events_url": "https://api.github.com/users/rom1504/received_events",
        "repos_url": "https://api.github.com/users/rom1504/repos",
        "site_admin": false,
        "starred_url": "https://api.github.com/users/rom1504/starred{/owner}{/repo}",
        "subscriptions_url": "https://api.github.com/users/rom1504/subscriptions",
        "type": "User",
        "url": "https://api.github.com/users/rom1504"
    },
    "milestone": null,
    "node_id": "MDExOlB1bGxSZXF1ZXN0Nzg1MTY3NTQ=",
    "number": 442,
    "patch_url": "https://github.com/PrismarineJS/mineflayer/pull/442.patch",
    "rebaseable": null,
    "requested_reviewers": [],
    "requested_teams": [],
    "review_comment_url": "https://api.github.com/repos/PrismarineJS/mineflayer/pulls/comments{/number}",
    "review_comments": 0,
    "review_comments_url": "https://api.github.com/repos/PrismarineJS/mineflayer/pulls/442/comments",
    "state": "closed",
    "statuses_url": "https://api.github.com/repos/PrismarineJS/mineflayer/statuses/2d383ff249008b7d8b7fe2713a5a04f99a074ae4",
    "title": "fix tiny typo at \"noteHeard\"",
    "updated_at": "2016-07-22T21:46:29Z",
    "url": "https://api.github.com/repos/PrismarineJS/mineflayer/pulls/442",
    "user": {
        "avatar_url": "https://avatars.githubusercontent.com/u/8008674?v=4",
        "events_url": "https://api.github.com/users/Atmatm6/events{/privacy}",
        "followers_url": "https://api.github.com/users/Atmatm6/followers",
        "following_url": "https://api.github.com/users/Atmatm6/following{/other_user}",
        "gists_url": "https://api.github.com/users/Atmatm6/gists{/gist_id}",
        "gravatar_id": "",
        "html_url": "https://github.com/Atmatm6",
        "id": 8008674,
        "login": "Atmatm6",
        "node_id": "MDQ6VXNlcjgwMDg2NzQ=",
        "organizations_url": "https://api.github.com/users/Atmatm6/orgs",
        "received_events_url": "https://api.github.com/users/Atmatm6/received_events",
        "repos_url": "https://api.github.com/users/Atmatm6/repos",
        "site_admin": false,
        "starred_url": "https://api.github.com/users/Atmatm6/starred{/owner}{/repo}",
        "subscriptions_url": "https://api.github.com/users/Atmatm6/subscriptions",
        "type": "User",
        "url": "https://api.github.com/users/Atmatm6"
    }
}