{
    "_links": {
        "comments": {
            "href": "https://api.github.com/repos/PrismarineJS/mineflayer/issues/698/comments"
        },
        "commits": {
            "href": "https://api.github.com/repos/PrismarineJS/mineflayer/pulls/698/commits"
        },
        "html": {
            "href": "https://github.com/PrismarineJS/mineflayer/pull/698"
        },
        "issue": {
            "href": "https://api.github.com/repos/PrismarineJS/mineflayer/issues/698"
        },
        "review_comment": {
            "href": "https://api.github.com/repos/PrismarineJS/mineflayer/pulls/comments{/number}"
        },
        "review_comments": {
            "href": "https://api.github.com/repos/PrismarineJS/mineflayer/pulls/698/comments"
        },
        "self": {
            "href": "https://api.github.com/repos/PrismarineJS/mineflayer/pulls/698"
        },
        "statuses": {
            "href": "https://api.github.com/repos/PrismarineJS/mineflayer/statuses/a17147bda08f4f9e1cd52fe306f6d60dde6ec8da"
        }
    },
    "active_lock_reason": null,
    "additions": 25,
    "assignee": null,
    "assignees": [],
    "author_association": "NONE",
    "auto_merge": null,
    "base": {
        "label": "PrismarineJS:master",
        "ref": "master",
        "repo": {
            "allow_forking": true,
            "archive_url": "https://api.github.com/repos/PrismarineJS/mineflayer/{archive_format}{/ref}",
            "archived": false,
            "assignees_url": "https://api.github.com/repos/PrismarineJS/mineflayer/assignees{/user}",
            "blobs_url": "https://api.github.com/repos/PrismarineJS/mineflayer/git/blobs{/sha}",
            "branches_url": "https://api.github.com/repos/PrismarineJS/mineflayer/branches{/branch}",
            "clone_url": "https://github.com/PrismarineJS/mineflayer.git",
            "collaborators_url": "https://api.github.com/repos/PrismarineJS/mineflayer/collaborators{/collaborator}",
            "comments_url": "https://api.github.com/repos/PrismarineJS/mineflayer/comments{/number}",
            "commits_url": "https://api.github.com/repos/PrismarineJS/mineflayer/commits{/sha}",
            "compare_url": "https://api.github.com/repos/PrismarineJS/mineflayer/compare/{base}...{head}",
            "contents_url": "https://api.github.com/repos/PrismarineJS/mineflayer/contents/{+path}",
            "contributors_url": "https://api.github.com/repos/PrismarineJS/mineflayer/contributors",
            "created_at": "2011-01-23T09:41:55Z",
            "default_branch": "master",
            "deployments_url": "https://api.github.com/repos/PrismarineJS/mineflayer/deployments",
            "description": "Create Minecraft bots with a powerful, stable, and high level JavaScript API.",
            "disabled": false,
            "downloads_url": "https://api.github.com/repos/PrismarineJS/mineflayer/downloads",
            "events_url": "https://api.github.com/repos/PrismarineJS/mineflayer/events",
            "fork": false,
            "forks": 748,
            "forks_count": 748,
            "forks_url": "https://api.github.com/repos/PrismarineJS/mineflayer/forks",
            "full_name": "PrismarineJS/mineflayer",
            "git_commits_url": "https://api.github.com/repos/PrismarineJS/mineflayer/git/commits{/sha}",
            "git_refs_url": "https://api.github.com/repos/PrismarineJS/mineflayer/git/refs{/sha}",
            "git_tags_url": "https://api.github.com/repos/PrismarineJS/mineflayer/git/tags{/sha}",
            "git_url": "git://github.com/PrismarineJS/mineflayer.git",
            "has_discussions": true,
            "has_downloads": true,
            "has_issues": true,
            "has_pages": true,
            "has_projects": true,
            "has_wiki": true,
            "homepage": "https://prismarinejs.github.io/mineflayer/",
            "hooks_url": "https://api.github.com/repos/PrismarineJS/mineflayer/hooks",
            "html_url": "https://github.com/PrismarineJS/mineflayer",
            "id": 1284185,
            "is_template": false,
            "issue_comment_url": "https://api.github.com/repos/PrismarineJS/mineflayer/issues/comments{/number}",
            "issue_events_url": "https://api.github.com/repos/PrismarineJS/mineflayer/issues/events{/number}",
            "issues_url": "https://api.github.com/repos/PrismarineJS/mineflayer/issues{/number}",
            "keys_url": "https://api.github.com/repos/PrismarineJS/mineflayer/keys{/key_id}",
            "labels_url": "https://api.github.com/repos/PrismarineJS/mineflayer/labels{/name}",
            "language": "JavaScript",
            "languages_url": "https://api.github.com/repos/PrismarineJS/mineflayer/languages",
            "license": {
                "key": "mit",
                "name": "MIT License",
                "node_id": "MDc6TGljZW5zZTEz",
                "spdx_id": "MIT",
                "url": "https://api.github.com/licenses/mit"
            },
            "merges_url": "https://api.github.com/repos/PrismarineJS/mineflayer/merges",
            "milestones_url": "https://api.github.com/repos/PrismarineJS/mineflayer/milestones{/number}",
            "mirror_url": null,
            "name": "mineflayer",
            "node_id": "MDEwOlJlcG9zaXRvcnkxMjg0MTg1",
            "notifications_url": "https://api.github.com/repos/PrismarineJS/mineflayer/notifications{?since,all,participating}",
            "open_issues": 269,
            "open_issues_count": 269,
            "owner": {
                "avatar_url": "https://avatars.githubusercontent.com/u/11053411?v=4",
                "events_url": "https://api.github.com/users/PrismarineJS/events{/privacy}",
                "followers_url": "https://api.github.com/users/PrismarineJS/followers",
                "following_url": "https://api.github.com/users/PrismarineJS/following{/other_user}",
                "gists_url": "https://api.github.com/users/PrismarineJS/gists{/gist_id}",
                "gravatar_id": "",
                "html_url": "https://github.com/PrismarineJS",
                "id": 11053411,
                "login": "PrismarineJS",
                "node_id": "MDEyOk9yZ2FuaXphdGlvbjExMDUzNDEx",
                "organizations_url": "https://api.github.com/users/PrismarineJS/orgs",
                "received_events_url": "https://api.github.com/users/PrismarineJS/received_events",
                "repos_url": "https://api.github.com/users/PrismarineJS/repos",
                "site_admin": false,
                "starred_url": "https://api.github.com/users/PrismarineJS/starred{/owner}{/repo}",
                "subscriptions_url": "https://api.github.com/users/PrismarineJS/subscriptions",
                "type": "Organization",
                "url": "https://api.github.com/users/PrismarineJS"
            },
            "private": false,
            "pulls_url": "https://api.github.com/repos/PrismarineJS/mineflayer/pulls{/number}",
            "pushed_at": "2023-04-25T00:44:52Z",
            "releases_url": "https://api.github.com/repos/PrismarineJS/mineflayer/releases{/id}",
            "size": 12493,
            "ssh_url": "git@github.com:PrismarineJS/mineflayer.git",
            "stargazers_count": 3698,
            "stargazers_url": "https://api.github.com/repos/PrismarineJS/mineflayer/stargazers",
            "statuses_url": "https://api.github.com/repos/PrismarineJS/mineflayer/statuses/{sha}",
            "subscribers_url": "https://api.github.com/repos/PrismarineJS/mineflayer/subscribers",
            "subscription_url": "https://api.github.com/repos/PrismarineJS/mineflayer/subscription",
            "svn_url": "https://github.com/PrismarineJS/mineflayer",
            "tags_url": "https://api.github.com/repos/PrismarineJS/mineflayer/tags",
            "teams_url": "https://api.github.com/repos/PrismarineJS/mineflayer/teams",
            "topics": [
                "bot",
                "minecraft",
                "minecraft-api",
                "minecraft-bot",
                "network",
                "nodejs"
            ],
            "trees_url": "https://api.github.com/repos/PrismarineJS/mineflayer/git/trees{/sha}",
            "updated_at": "2023-04-25T14:07:03Z",
            "url": "https://api.github.com/repos/PrismarineJS/mineflayer",
            "visibility": "public",
            "watchers": 3698,
            "watchers_count": 3698,
            "web_commit_signoff_required": false
        },
        "sha": "3198516993387d6108255a1e6fdeb9f8e7e76cfe",
        "user": {
            "avatar_url": "https://avatars.githubusercontent.com/u/11053411?v=4",
            "events_url": "https://api.github.com/users/PrismarineJS/events{/privacy}",
            "followers_url": "https://api.github.com/users/PrismarineJS/followers",
            "following_url": "https://api.github.com/users/PrismarineJS/following{/other_user}",
            "gists_url": "https://api.github.com/users/PrismarineJS/gists{/gist_id}",
            "gravatar_id": "",
            "html_url": "https://github.com/PrismarineJS",
            "id": 11053411,
            "login": "PrismarineJS",
            "node_id": "MDEyOk9yZ2FuaXphdGlvbjExMDUzNDEx",
            "organizations_url": "https://api.github.com/users/PrismarineJS/orgs",
            "received_events_url": "https://api.github.com/users/PrismarineJS/received_events",
            "repos_url": "https://api.github.com/users/PrismarineJS/repos",
            "site_admin": false,
            "starred_url": "https://api.github.com/users/PrismarineJS/starred{/owner}{/repo}",
            "subscriptions_url": "https://api.github.com/users/PrismarineJS/subscriptions",
            "type": "Organization",
            "url": "https://api.github.com/users/PrismarineJS"
        }
    },
    "body": "The provided multiple.js hardly works and no parent object for the bots, meaning they can't do anything.\r\nMy code allows for modular usernames, quantity and password field if needed.\r\nUses a loop instead of an interval so crashing probability is lower.",
    "changed_files": 1,
    "closed_at": "2018-08-25T23:47:12Z",
    "comment_data": [],
    "comment_regular_data": [
        {
            "author_association": "MEMBER",
            "body": "Why do you think a loop is better than an interval ?\r\nThe interval prevent bots to all start exactly at the same time, overloading the CPU and preventing the bots to start.\r\n\r\nDidn't you notice that when starting many bots ?",
            "created_at": "2018-08-03T06:29:24Z",
            "html_url": "https://github.com/PrismarineJS/mineflayer/pull/698#issuecomment-410158031",
            "id": 410158031,
            "issue_url": "https://api.github.com/repos/PrismarineJS/mineflayer/issues/698",
            "node_id": "MDEyOklzc3VlQ29tbWVudDQxMDE1ODAzMQ==",
            "performed_via_github_app": null,
            "reactions": {
                "+1": 0,
                "-1": 0,
                "confused": 0,
                "eyes": 0,
                "heart": 0,
                "hooray": 0,
                "laugh": 0,
                "rocket": 0,
                "total_count": 0,
                "url": "https://api.github.com/repos/PrismarineJS/mineflayer/issues/comments/410158031/reactions"
            },
            "updated_at": "2018-08-03T06:29:24Z",
            "url": "https://api.github.com/repos/PrismarineJS/mineflayer/issues/comments/410158031",
            "user": {
                "avatar_url": "https://avatars.githubusercontent.com/u/2346494?v=4",
                "events_url": "https://api.github.com/users/rom1504/events{/privacy}",
                "followers_url": "https://api.github.com/users/rom1504/followers",
                "following_url": "https://api.github.com/users/rom1504/following{/other_user}",
                "gists_url": "https://api.github.com/users/rom1504/gists{/gist_id}",
                "gravatar_id": "",
                "html_url": "https://github.com/rom1504",
                "id": 2346494,
                "login": "rom1504",
                "node_id": "MDQ6VXNlcjIzNDY0OTQ=",
                "organizations_url": "https://api.github.com/users/rom1504/orgs",
                "received_events_url": "https://api.github.com/users/rom1504/received_events",
                "repos_url": "https://api.github.com/users/rom1504/repos",
                "site_admin": false,
                "starred_url": "https://api.github.com/users/rom1504/starred{/owner}{/repo}",
                "subscriptions_url": "https://api.github.com/users/rom1504/subscriptions",
                "type": "User",
                "url": "https://api.github.com/users/rom1504"
            }
        },
        {
            "author_association": "NONE",
            "body": "Personally, I had no CPU load issues. However, if this is what should be done, then I can change it to use a timeout and interval. I just don't like how the current example doesn't allow for a usable multi-client object.",
            "created_at": "2018-08-03T06:34:59Z",
            "html_url": "https://github.com/PrismarineJS/mineflayer/pull/698#issuecomment-410159045",
            "id": 410159045,
            "issue_url": "https://api.github.com/repos/PrismarineJS/mineflayer/issues/698",
            "node_id": "MDEyOklzc3VlQ29tbWVudDQxMDE1OTA0NQ==",
            "performed_via_github_app": null,
            "reactions": {
                "+1": 0,
                "-1": 0,
                "confused": 0,
                "eyes": 0,
                "heart": 0,
                "hooray": 0,
                "laugh": 0,
                "rocket": 0,
                "total_count": 0,
                "url": "https://api.github.com/repos/PrismarineJS/mineflayer/issues/comments/410159045/reactions"
            },
            "updated_at": "2018-08-03T06:34:59Z",
            "url": "https://api.github.com/repos/PrismarineJS/mineflayer/issues/comments/410159045",
            "user": {
                "avatar_url": "https://avatars.githubusercontent.com/u/38549907?v=4",
                "events_url": "https://api.github.com/users/Vistril/events{/privacy}",
                "followers_url": "https://api.github.com/users/Vistril/followers",
                "following_url": "https://api.github.com/users/Vistril/following{/other_user}",
                "gists_url": "https://api.github.com/users/Vistril/gists{/gist_id}",
                "gravatar_id": "",
                "html_url": "https://github.com/Vistril",
                "id": 38549907,
                "login": "Vistril",
                "node_id": "MDQ6VXNlcjM4NTQ5OTA3",
                "organizations_url": "https://api.github.com/users/Vistril/orgs",
                "received_events_url": "https://api.github.com/users/Vistril/received_events",
                "repos_url": "https://api.github.com/users/Vistril/repos",
                "site_admin": false,
                "starred_url": "https://api.github.com/users/Vistril/starred{/owner}{/repo}",
                "subscriptions_url": "https://api.github.com/users/Vistril/subscriptions",
                "type": "User",
                "url": "https://api.github.com/users/Vistril"
            }
        },
        {
            "author_association": "MEMBER",
            "body": "Try to connect 50 bots, you'll see it.\n\nOn Fri, Aug 3, 2018, 08:34 Vistril <notifications@github.com> wrote:\n\n> Personally, I had no CPU load issues. However, if this is what should be\n> done, then I can change it to use a timeout and interval. I just don't like\n> how the current example doesn't allow for a usable multi-client object.\n>\n> —\n> You are receiving this because you commented.\n>\n>\n> Reply to this email directly, view it on GitHub\n> <https://github.com/PrismarineJS/mineflayer/pull/698#issuecomment-410159045>,\n> or mute the thread\n> <https://github.com/notifications/unsubscribe-auth/ACPN_s_-4dzwPim8qzS0UaA-f4AreBrHks5uM-8TgaJpZM4VtSku>\n> .\n>\n",
            "created_at": "2018-08-03T07:11:03Z",
            "html_url": "https://github.com/PrismarineJS/mineflayer/pull/698#issuecomment-410165919",
            "id": 410165919,
            "issue_url": "https://api.github.com/repos/PrismarineJS/mineflayer/issues/698",
            "node_id": "MDEyOklzc3VlQ29tbWVudDQxMDE2NTkxOQ==",
            "performed_via_github_app": null,
            "reactions": {
                "+1": 0,
                "-1": 0,
                "confused": 0,
                "eyes": 0,
                "heart": 0,
                "hooray": 0,
                "laugh": 0,
                "rocket": 0,
                "total_count": 0,
                "url": "https://api.github.com/repos/PrismarineJS/mineflayer/issues/comments/410165919/reactions"
            },
            "updated_at": "2018-08-03T07:11:03Z",
            "url": "https://api.github.com/repos/PrismarineJS/mineflayer/issues/comments/410165919",
            "user": {
                "avatar_url": "https://avatars.githubusercontent.com/u/2346494?v=4",
                "events_url": "https://api.github.com/users/rom1504/events{/privacy}",
                "followers_url": "https://api.github.com/users/rom1504/followers",
                "following_url": "https://api.github.com/users/rom1504/following{/other_user}",
                "gists_url": "https://api.github.com/users/rom1504/gists{/gist_id}",
                "gravatar_id": "",
                "html_url": "https://github.com/rom1504",
                "id": 2346494,
                "login": "rom1504",
                "node_id": "MDQ6VXNlcjIzNDY0OTQ=",
                "organizations_url": "https://api.github.com/users/rom1504/orgs",
                "received_events_url": "https://api.github.com/users/rom1504/received_events",
                "repos_url": "https://api.github.com/users/rom1504/repos",
                "site_admin": false,
                "starred_url": "https://api.github.com/users/rom1504/starred{/owner}{/repo}",
                "subscriptions_url": "https://api.github.com/users/rom1504/subscriptions",
                "type": "User",
                "url": "https://api.github.com/users/rom1504"
            }
        },
        {
            "author_association": "NONE",
            "body": "I've connected more than 50",
            "created_at": "2018-08-03T07:11:37Z",
            "html_url": "https://github.com/PrismarineJS/mineflayer/pull/698#issuecomment-410166025",
            "id": 410166025,
            "issue_url": "https://api.github.com/repos/PrismarineJS/mineflayer/issues/698",
            "node_id": "MDEyOklzc3VlQ29tbWVudDQxMDE2NjAyNQ==",
            "performed_via_github_app": null,
            "reactions": {
                "+1": 0,
                "-1": 0,
                "confused": 0,
                "eyes": 0,
                "heart": 0,
                "hooray": 0,
                "laugh": 0,
                "rocket": 0,
                "total_count": 0,
                "url": "https://api.github.com/repos/PrismarineJS/mineflayer/issues/comments/410166025/reactions"
            },
            "updated_at": "2018-08-03T07:11:37Z",
            "url": "https://api.github.com/repos/PrismarineJS/mineflayer/issues/comments/410166025",
            "user": {
                "avatar_url": "https://avatars.githubusercontent.com/u/38549907?v=4",
                "events_url": "https://api.github.com/users/Vistril/events{/privacy}",
                "followers_url": "https://api.github.com/users/Vistril/followers",
                "following_url": "https://api.github.com/users/Vistril/following{/other_user}",
                "gists_url": "https://api.github.com/users/Vistril/gists{/gist_id}",
                "gravatar_id": "",
                "html_url": "https://github.com/Vistril",
                "id": 38549907,
                "login": "Vistril",
                "node_id": "MDQ6VXNlcjM4NTQ5OTA3",
                "organizations_url": "https://api.github.com/users/Vistril/orgs",
                "received_events_url": "https://api.github.com/users/Vistril/received_events",
                "repos_url": "https://api.github.com/users/Vistril/repos",
                "site_admin": false,
                "starred_url": "https://api.github.com/users/Vistril/starred{/owner}{/repo}",
                "subscriptions_url": "https://api.github.com/users/Vistril/subscriptions",
                "type": "User",
                "url": "https://api.github.com/users/Vistril"
            }
        },
        {
            "author_association": "MEMBER",
            "body": "https://github.com/PrismarineJS/mineflayer/issues/710 shows the interval is required",
            "created_at": "2018-08-25T23:47:12Z",
            "html_url": "https://github.com/PrismarineJS/mineflayer/pull/698#issuecomment-416003662",
            "id": 416003662,
            "issue_url": "https://api.github.com/repos/PrismarineJS/mineflayer/issues/698",
            "node_id": "MDEyOklzc3VlQ29tbWVudDQxNjAwMzY2Mg==",
            "performed_via_github_app": null,
            "reactions": {
                "+1": 0,
                "-1": 0,
                "confused": 0,
                "eyes": 0,
                "heart": 0,
                "hooray": 0,
                "laugh": 0,
                "rocket": 0,
                "total_count": 0,
                "url": "https://api.github.com/repos/PrismarineJS/mineflayer/issues/comments/416003662/reactions"
            },
            "updated_at": "2018-08-25T23:47:12Z",
            "url": "https://api.github.com/repos/PrismarineJS/mineflayer/issues/comments/416003662",
            "user": {
                "avatar_url": "https://avatars.githubusercontent.com/u/2346494?v=4",
                "events_url": "https://api.github.com/users/rom1504/events{/privacy}",
                "followers_url": "https://api.github.com/users/rom1504/followers",
                "following_url": "https://api.github.com/users/rom1504/following{/other_user}",
                "gists_url": "https://api.github.com/users/rom1504/gists{/gist_id}",
                "gravatar_id": "",
                "html_url": "https://github.com/rom1504",
                "id": 2346494,
                "login": "rom1504",
                "node_id": "MDQ6VXNlcjIzNDY0OTQ=",
                "organizations_url": "https://api.github.com/users/rom1504/orgs",
                "received_events_url": "https://api.github.com/users/rom1504/received_events",
                "repos_url": "https://api.github.com/users/rom1504/repos",
                "site_admin": false,
                "starred_url": "https://api.github.com/users/rom1504/starred{/owner}{/repo}",
                "subscriptions_url": "https://api.github.com/users/rom1504/subscriptions",
                "type": "User",
                "url": "https://api.github.com/users/rom1504"
            }
        }
    ],
    "comments": 5,
    "comments_url": "https://api.github.com/repos/PrismarineJS/mineflayer/issues/698/comments",
    "commit_data": [
        {
            "author": {
                "avatar_url": "https://avatars.githubusercontent.com/u/38549907?v=4",
                "events_url": "https://api.github.com/users/Vistril/events{/privacy}",
                "followers_url": "https://api.github.com/users/Vistril/followers",
                "following_url": "https://api.github.com/users/Vistril/following{/other_user}",
                "gists_url": "https://api.github.com/users/Vistril/gists{/gist_id}",
                "gravatar_id": "",
                "html_url": "https://github.com/Vistril",
                "id": 38549907,
                "login": "Vistril",
                "node_id": "MDQ6VXNlcjM4NTQ5OTA3",
                "organizations_url": "https://api.github.com/users/Vistril/orgs",
                "received_events_url": "https://api.github.com/users/Vistril/received_events",
                "repos_url": "https://api.github.com/users/Vistril/repos",
                "site_admin": false,
                "starred_url": "https://api.github.com/users/Vistril/starred{/owner}{/repo}",
                "subscriptions_url": "https://api.github.com/users/Vistril/subscriptions",
                "type": "User",
                "url": "https://api.github.com/users/Vistril"
            },
            "comments_url": "https://api.github.com/repos/PrismarineJS/mineflayer/commits/3bdfbeee1419de53eb4e0dfeff9f0d9b86144c7b/comments",
            "commit": {
                "author": {
                    "date": "2018-08-03T02:39:58Z",
                    "email": "38549907+Vistril@users.noreply.github.com",
                    "name": "Vistril"
                },
                "comment_count": 0,
                "committer": {
                    "date": "2018-08-03T02:39:58Z",
                    "email": "noreply@github.com",
                    "name": "GitHub"
                },
                "message": "better",
                "tree": {
                    "sha": "decfaf207465e9a4e8c84e22e3319d2ffc105835",
                    "url": "https://api.github.com/repos/PrismarineJS/mineflayer/git/trees/decfaf207465e9a4e8c84e22e3319d2ffc105835"
                },
                "url": "https://api.github.com/repos/PrismarineJS/mineflayer/git/commits/3bdfbeee1419de53eb4e0dfeff9f0d9b86144c7b",
                "verification": {
                    "payload": "tree decfaf207465e9a4e8c84e22e3319d2ffc105835\nparent 7e3da452d6c75b44b612f8c174700699687d7495\nauthor Vistril <38549907+Vistril@users.noreply.github.com> 1533263998 -0600\ncommitter GitHub <noreply@github.com> 1533263998 -0600\n\nbetter",
                    "reason": "valid",
                    "signature": "-----BEGIN PGP SIGNATURE-----\n\nwsBcBAABCAAQBQJbY8B+CRBK7hj4Ov3rIwAAdHIIAC+ljgvsdEsR0F54w0VYXb47\nrmllpTuGGGNp1Xh23zbEPWCe5U/l3PCq1rpDIFdk2w0LrDshP8JY/a94FhTcTMhw\ny4WnmN3j6CXu4bZM8kcu1TSUt8i5Yr+xCov+s2mtUR74c5huRvZIUEMUWO8YUFXo\nd0TEO/cxRxQ3ydSEIUih816WV9alayPljCuJlV1jYpgRL5R8NIlWH2EHG7WAWEfP\ni78Dj7sN77LHqORUf+mkNqkv5FRlvMGoweRNTK9V3h0uCFc84CnHcm7j7p8G38SM\nE/NgQJ9lxzvVXNhUipsiMaut29iuGND2Eu9mmUvKkMnJyLplQT/rwsbvW8Ffjug=\n=x66n\n-----END PGP SIGNATURE-----\n",
                    "verified": true
                }
            },
            "committer": {
                "avatar_url": "https://avatars.githubusercontent.com/u/19864447?v=4",
                "events_url": "https://api.github.com/users/web-flow/events{/privacy}",
                "followers_url": "https://api.github.com/users/web-flow/followers",
                "following_url": "https://api.github.com/users/web-flow/following{/other_user}",
                "gists_url": "https://api.github.com/users/web-flow/gists{/gist_id}",
                "gravatar_id": "",
                "html_url": "https://github.com/web-flow",
                "id": 19864447,
                "login": "web-flow",
                "node_id": "MDQ6VXNlcjE5ODY0NDQ3",
                "organizations_url": "https://api.github.com/users/web-flow/orgs",
                "received_events_url": "https://api.github.com/users/web-flow/received_events",
                "repos_url": "https://api.github.com/users/web-flow/repos",
                "site_admin": false,
                "starred_url": "https://api.github.com/users/web-flow/starred{/owner}{/repo}",
                "subscriptions_url": "https://api.github.com/users/web-flow/subscriptions",
                "type": "User",
                "url": "https://api.github.com/users/web-flow"
            },
            "html_url": "https://github.com/PrismarineJS/mineflayer/commit/3bdfbeee1419de53eb4e0dfeff9f0d9b86144c7b",
            "node_id": "MDY6Q29tbWl0MTM3NjI1Mzg1OjNiZGZiZWVlMTQxOWRlNTNlYjRlMGRmZWZmOWYwZDliODYxNDRjN2I=",
            "parents": [
                {
                    "html_url": "https://github.com/PrismarineJS/mineflayer/commit/7e3da452d6c75b44b612f8c174700699687d7495",
                    "sha": "7e3da452d6c75b44b612f8c174700699687d7495",
                    "url": "https://api.github.com/repos/PrismarineJS/mineflayer/commits/7e3da452d6c75b44b612f8c174700699687d7495"
                }
            ],
            "sha": "3bdfbeee1419de53eb4e0dfeff9f0d9b86144c7b",
            "url": "https://api.github.com/repos/PrismarineJS/mineflayer/commits/3bdfbeee1419de53eb4e0dfeff9f0d9b86144c7b"
        },
        {
            "author": {
                "avatar_url": "https://avatars.githubusercontent.com/u/38549907?v=4",
                "events_url": "https://api.github.com/users/Vistril/events{/privacy}",
                "followers_url": "https://api.github.com/users/Vistril/followers",
                "following_url": "https://api.github.com/users/Vistril/following{/other_user}",
                "gists_url": "https://api.github.com/users/Vistril/gists{/gist_id}",
                "gravatar_id": "",
                "html_url": "https://github.com/Vistril",
                "id": 38549907,
                "login": "Vistril",
                "node_id": "MDQ6VXNlcjM4NTQ5OTA3",
                "organizations_url": "https://api.github.com/users/Vistril/orgs",
                "received_events_url": "https://api.github.com/users/Vistril/received_events",
                "repos_url": "https://api.github.com/users/Vistril/repos",
                "site_admin": false,
                "starred_url": "https://api.github.com/users/Vistril/starred{/owner}{/repo}",
                "subscriptions_url": "https://api.github.com/users/Vistril/subscriptions",
                "type": "User",
                "url": "https://api.github.com/users/Vistril"
            },
            "comments_url": "https://api.github.com/repos/PrismarineJS/mineflayer/commits/dd8ef323e62b2a66ef9d39e19d89738e0ca5f5c2/comments",
            "commit": {
                "author": {
                    "date": "2018-08-03T02:42:43Z",
                    "email": "38549907+Vistril@users.noreply.github.com",
                    "name": "Vistril"
                },
                "comment_count": 0,
                "committer": {
                    "date": "2018-08-03T02:42:43Z",
                    "email": "noreply@github.com",
                    "name": "GitHub"
                },
                "message": "modular name, quantity and password fields\n\nold one sucked",
                "tree": {
                    "sha": "e3bb2969bd1053f0712214f414ac0aad4d3e5fbf",
                    "url": "https://api.github.com/repos/PrismarineJS/mineflayer/git/trees/e3bb2969bd1053f0712214f414ac0aad4d3e5fbf"
                },
                "url": "https://api.github.com/repos/PrismarineJS/mineflayer/git/commits/dd8ef323e62b2a66ef9d39e19d89738e0ca5f5c2",
                "verification": {
                    "payload": "tree e3bb2969bd1053f0712214f414ac0aad4d3e5fbf\nparent 3bdfbeee1419de53eb4e0dfeff9f0d9b86144c7b\nauthor Vistril <38549907+Vistril@users.noreply.github.com> 1533264163 -0600\ncommitter GitHub <noreply@github.com> 1533264163 -0600\n\nmodular name, quantity and password fields\n\nold one sucked",
                    "reason": "valid",
                    "signature": "-----BEGIN PGP SIGNATURE-----\n\nwsBcBAABCAAQBQJbY8EjCRBK7hj4Ov3rIwAAdHIIADYqKf4hTfQWHOH5Sjmk8V4O\nbiGnccwqdhtMIFvLbvAUE5/etbKLoIvYcd9XdFxpt2krRBmFG9+TC2/K6iNTyQDd\nHh4cOkTwav2lb2BBjCkmofdibor6k6BHsQEQNvumoRUw4w2Q5ygpZWdtRDSk0B03\nEASCf268a4vx9z+Tso9Zn73XBqG2vptmrfRK5u4GCER5UlJHR0M4OGelDj8PwSL0\nUin9AAv0GwLwkquFuuUjQaF6DAtuA1r76UkTwqF+Er0UGHhmfwOISJYIsfif1DBH\nmAI9xWrnm82aftk3cV9TZIGFK33qpCXNnkconRGehtpOa1TDsgJ47JvPWuMLRB0=\n=Sk1r\n-----END PGP SIGNATURE-----\n",
                    "verified": true
                }
            },
            "committer": {
                "avatar_url": "https://avatars.githubusercontent.com/u/19864447?v=4",
                "events_url": "https://api.github.com/users/web-flow/events{/privacy}",
                "followers_url": "https://api.github.com/users/web-flow/followers",
                "following_url": "https://api.github.com/users/web-flow/following{/other_user}",
                "gists_url": "https://api.github.com/users/web-flow/gists{/gist_id}",
                "gravatar_id": "",
                "html_url": "https://github.com/web-flow",
                "id": 19864447,
                "login": "web-flow",
                "node_id": "MDQ6VXNlcjE5ODY0NDQ3",
                "organizations_url": "https://api.github.com/users/web-flow/orgs",
                "received_events_url": "https://api.github.com/users/web-flow/received_events",
                "repos_url": "https://api.github.com/users/web-flow/repos",
                "site_admin": false,
                "starred_url": "https://api.github.com/users/web-flow/starred{/owner}{/repo}",
                "subscriptions_url": "https://api.github.com/users/web-flow/subscriptions",
                "type": "User",
                "url": "https://api.github.com/users/web-flow"
            },
            "html_url": "https://github.com/PrismarineJS/mineflayer/commit/dd8ef323e62b2a66ef9d39e19d89738e0ca5f5c2",
            "node_id": "MDY6Q29tbWl0MTM3NjI1Mzg1OmRkOGVmMzIzZTYyYjJhNjZlZjlkMzllMTlkODk3MzhlMGNhNWY1YzI=",
            "parents": [
                {
                    "html_url": "https://github.com/PrismarineJS/mineflayer/commit/3bdfbeee1419de53eb4e0dfeff9f0d9b86144c7b",
                    "sha": "3bdfbeee1419de53eb4e0dfeff9f0d9b86144c7b",
                    "url": "https://api.github.com/repos/PrismarineJS/mineflayer/commits/3bdfbeee1419de53eb4e0dfeff9f0d9b86144c7b"
                }
            ],
            "sha": "dd8ef323e62b2a66ef9d39e19d89738e0ca5f5c2",
            "url": "https://api.github.com/repos/PrismarineJS/mineflayer/commits/dd8ef323e62b2a66ef9d39e19d89738e0ca5f5c2"
        },
        {
            "author": {
                "avatar_url": "https://avatars.githubusercontent.com/u/38549907?v=4",
                "events_url": "https://api.github.com/users/Vistril/events{/privacy}",
                "followers_url": "https://api.github.com/users/Vistril/followers",
                "following_url": "https://api.github.com/users/Vistril/following{/other_user}",
                "gists_url": "https://api.github.com/users/Vistril/gists{/gist_id}",
                "gravatar_id": "",
                "html_url": "https://github.com/Vistril",
                "id": 38549907,
                "login": "Vistril",
                "node_id": "MDQ6VXNlcjM4NTQ5OTA3",
                "organizations_url": "https://api.github.com/users/Vistril/orgs",
                "received_events_url": "https://api.github.com/users/Vistril/received_events",
                "repos_url": "https://api.github.com/users/Vistril/repos",
                "site_admin": false,
                "starred_url": "https://api.github.com/users/Vistril/starred{/owner}{/repo}",
                "subscriptions_url": "https://api.github.com/users/Vistril/subscriptions",
                "type": "User",
                "url": "https://api.github.com/users/Vistril"
            },
            "comments_url": "https://api.github.com/repos/PrismarineJS/mineflayer/commits/2cffd41d1d6b51cf60f07de536611f18d09ff4ac/comments",
            "commit": {
                "author": {
                    "date": "2018-08-03T02:48:01Z",
                    "email": "38549907+Vistril@users.noreply.github.com",
                    "name": "Vistril"
                },
                "comment_count": 0,
                "committer": {
                    "date": "2018-08-03T02:48:01Z",
                    "email": "noreply@github.com",
                    "name": "GitHub"
                },
                "message": "oops",
                "tree": {
                    "sha": "503b8daf1c78e512438dcd8378028be699a2b258",
                    "url": "https://api.github.com/repos/PrismarineJS/mineflayer/git/trees/503b8daf1c78e512438dcd8378028be699a2b258"
                },
                "url": "https://api.github.com/repos/PrismarineJS/mineflayer/git/commits/2cffd41d1d6b51cf60f07de536611f18d09ff4ac",
                "verification": {
                    "payload": "tree 503b8daf1c78e512438dcd8378028be699a2b258\nparent dd8ef323e62b2a66ef9d39e19d89738e0ca5f5c2\nauthor Vistril <38549907+Vistril@users.noreply.github.com> 1533264481 -0600\ncommitter GitHub <noreply@github.com> 1533264481 -0600\n\noops",
                    "reason": "valid",
                    "signature": "-----BEGIN PGP SIGNATURE-----\n\nwsBcBAABCAAQBQJbY8JhCRBK7hj4Ov3rIwAAdHIIADD6kcmkPDSdA/jPHQkLd00l\nJA+ujP41exNWV6JE1p63Zl/Pf6qaVunrpYEikQTcTTyKre2bOpi7r41ESY+aCytc\n9BAH5w0Cdw+yVneS4+bRw3FIxg7BFZbHCHknUN1ivQuCrDp2RuC0TwE3M/pgOJxT\n5qB9RgBIKkDVeoWV3uR6CryuMVHqz50rRXsoDv8iEeB99Dphx16ptSP1sxixborn\nZyi5WAuydlTH/BQRdB+IUA0hIcPMcfZVmwaKShYESHFRZw7lep4J/SSlRCwd2GLS\npKYTaLVLiolSYJSnWmo23ooOVGUA81bGZI3YB3F2twYK6IUt+1dgxw1Of4PPGcA=\n=TYEW\n-----END PGP SIGNATURE-----\n",
                    "verified": true
                }
            },
            "committer": {
                "avatar_url": "https://avatars.githubusercontent.com/u/19864447?v=4",
                "events_url": "https://api.github.com/users/web-flow/events{/privacy}",
                "followers_url": "https://api.github.com/users/web-flow/followers",
                "following_url": "https://api.github.com/users/web-flow/following{/other_user}",
                "gists_url": "https://api.github.com/users/web-flow/gists{/gist_id}",
                "gravatar_id": "",
                "html_url": "https://github.com/web-flow",
                "id": 19864447,
                "login": "web-flow",
                "node_id": "MDQ6VXNlcjE5ODY0NDQ3",
                "organizations_url": "https://api.github.com/users/web-flow/orgs",
                "received_events_url": "https://api.github.com/users/web-flow/received_events",
                "repos_url": "https://api.github.com/users/web-flow/repos",
                "site_admin": false,
                "starred_url": "https://api.github.com/users/web-flow/starred{/owner}{/repo}",
                "subscriptions_url": "https://api.github.com/users/web-flow/subscriptions",
                "type": "User",
                "url": "https://api.github.com/users/web-flow"
            },
            "html_url": "https://github.com/PrismarineJS/mineflayer/commit/2cffd41d1d6b51cf60f07de536611f18d09ff4ac",
            "node_id": "MDY6Q29tbWl0MTM3NjI1Mzg1OjJjZmZkNDFkMWQ2YjUxY2Y2MGYwN2RlNTM2NjExZjE4ZDA5ZmY0YWM=",
            "parents": [
                {
                    "html_url": "https://github.com/PrismarineJS/mineflayer/commit/dd8ef323e62b2a66ef9d39e19d89738e0ca5f5c2",
                    "sha": "dd8ef323e62b2a66ef9d39e19d89738e0ca5f5c2",
                    "url": "https://api.github.com/repos/PrismarineJS/mineflayer/commits/dd8ef323e62b2a66ef9d39e19d89738e0ca5f5c2"
                }
            ],
            "sha": "2cffd41d1d6b51cf60f07de536611f18d09ff4ac",
            "url": "https://api.github.com/repos/PrismarineJS/mineflayer/commits/2cffd41d1d6b51cf60f07de536611f18d09ff4ac"
        },
        {
            "author": {
                "avatar_url": "https://avatars.githubusercontent.com/u/38549907?v=4",
                "events_url": "https://api.github.com/users/Vistril/events{/privacy}",
                "followers_url": "https://api.github.com/users/Vistril/followers",
                "following_url": "https://api.github.com/users/Vistril/following{/other_user}",
                "gists_url": "https://api.github.com/users/Vistril/gists{/gist_id}",
                "gravatar_id": "",
                "html_url": "https://github.com/Vistril",
                "id": 38549907,
                "login": "Vistril",
                "node_id": "MDQ6VXNlcjM4NTQ5OTA3",
                "organizations_url": "https://api.github.com/users/Vistril/orgs",
                "received_events_url": "https://api.github.com/users/Vistril/received_events",
                "repos_url": "https://api.github.com/users/Vistril/repos",
                "site_admin": false,
                "starred_url": "https://api.github.com/users/Vistril/starred{/owner}{/repo}",
                "subscriptions_url": "https://api.github.com/users/Vistril/subscriptions",
                "type": "User",
                "url": "https://api.github.com/users/Vistril"
            },
            "comments_url": "https://api.github.com/repos/PrismarineJS/mineflayer/commits/9aedabc460277e5792d8a1b68bb26438ccee11a6/comments",
            "commit": {
                "author": {
                    "date": "2018-08-03T02:48:27Z",
                    "email": "38549907+Vistril@users.noreply.github.com",
                    "name": "Vistril"
                },
                "comment_count": 0,
                "committer": {
                    "date": "2018-08-03T02:48:27Z",
                    "email": "noreply@github.com",
                    "name": "GitHub"
                },
                "message": "oops 2",
                "tree": {
                    "sha": "3dd102bd5badd1a03e099b8c631c41c6b3bc2282",
                    "url": "https://api.github.com/repos/PrismarineJS/mineflayer/git/trees/3dd102bd5badd1a03e099b8c631c41c6b3bc2282"
                },
                "url": "https://api.github.com/repos/PrismarineJS/mineflayer/git/commits/9aedabc460277e5792d8a1b68bb26438ccee11a6",
                "verification": {
                    "payload": "tree 3dd102bd5badd1a03e099b8c631c41c6b3bc2282\nparent 2cffd41d1d6b51cf60f07de536611f18d09ff4ac\nauthor Vistril <38549907+Vistril@users.noreply.github.com> 1533264507 -0600\ncommitter GitHub <noreply@github.com> 1533264507 -0600\n\noops 2",
                    "reason": "valid",
                    "signature": "-----BEGIN PGP SIGNATURE-----\n\nwsBcBAABCAAQBQJbY8J7CRBK7hj4Ov3rIwAAdHIIABpGIT6PvXuPWOVGc/rCkyeH\nzeYGDTdTNTWrcj4laETyT4+dNslKL9PynrUepFrY+SV4JYjyIyN2jcEm6tfNHAZQ\nwyuFC2Gvbr5X+QvVrWFJdRjlrxUacpYvNghlr9JIYBG0Jeb6s+6H282fdJymm9p+\n1dMue4jHQYbZEm/fN/y+QtxFKB9fIlxtdrPnCYCJSB6UwBG2A2k6T5ICFF9SR9lv\nd2Ljt9cmoIBPxW+rCbUpX6C8/4Ds2Uw+tGkHMxlbgi2sBDRUaTu7851ocbTSLbp/\nuptBySrJ+18sn3sO1sFqq35lfxAPIBbf6wMeQILT/yn1SvdezXcjGhs6mYq6ick=\n=XeN2\n-----END PGP SIGNATURE-----\n",
                    "verified": true
                }
            },
            "committer": {
                "avatar_url": "https://avatars.githubusercontent.com/u/19864447?v=4",
                "events_url": "https://api.github.com/users/web-flow/events{/privacy}",
                "followers_url": "https://api.github.com/users/web-flow/followers",
                "following_url": "https://api.github.com/users/web-flow/following{/other_user}",
                "gists_url": "https://api.github.com/users/web-flow/gists{/gist_id}",
                "gravatar_id": "",
                "html_url": "https://github.com/web-flow",
                "id": 19864447,
                "login": "web-flow",
                "node_id": "MDQ6VXNlcjE5ODY0NDQ3",
                "organizations_url": "https://api.github.com/users/web-flow/orgs",
                "received_events_url": "https://api.github.com/users/web-flow/received_events",
                "repos_url": "https://api.github.com/users/web-flow/repos",
                "site_admin": false,
                "starred_url": "https://api.github.com/users/web-flow/starred{/owner}{/repo}",
                "subscriptions_url": "https://api.github.com/users/web-flow/subscriptions",
                "type": "User",
                "url": "https://api.github.com/users/web-flow"
            },
            "html_url": "https://github.com/PrismarineJS/mineflayer/commit/9aedabc460277e5792d8a1b68bb26438ccee11a6",
            "node_id": "MDY6Q29tbWl0MTM3NjI1Mzg1OjlhZWRhYmM0NjAyNzdlNTc5MmQ4YTFiNjhiYjI2NDM4Y2NlZTExYTY=",
            "parents": [
                {
                    "html_url": "https://github.com/PrismarineJS/mineflayer/commit/2cffd41d1d6b51cf60f07de536611f18d09ff4ac",
                    "sha": "2cffd41d1d6b51cf60f07de536611f18d09ff4ac",
                    "url": "https://api.github.com/repos/PrismarineJS/mineflayer/commits/2cffd41d1d6b51cf60f07de536611f18d09ff4ac"
                }
            ],
            "sha": "9aedabc460277e5792d8a1b68bb26438ccee11a6",
            "url": "https://api.github.com/repos/PrismarineJS/mineflayer/commits/9aedabc460277e5792d8a1b68bb26438ccee11a6"
        },
        {
            "author": {
                "avatar_url": "https://avatars.githubusercontent.com/u/38549907?v=4",
                "events_url": "https://api.github.com/users/Vistril/events{/privacy}",
                "followers_url": "https://api.github.com/users/Vistril/followers",
                "following_url": "https://api.github.com/users/Vistril/following{/other_user}",
                "gists_url": "https://api.github.com/users/Vistril/gists{/gist_id}",
                "gravatar_id": "",
                "html_url": "https://github.com/Vistril",
                "id": 38549907,
                "login": "Vistril",
                "node_id": "MDQ6VXNlcjM4NTQ5OTA3",
                "organizations_url": "https://api.github.com/users/Vistril/orgs",
                "received_events_url": "https://api.github.com/users/Vistril/received_events",
                "repos_url": "https://api.github.com/users/Vistril/repos",
                "site_admin": false,
                "starred_url": "https://api.github.com/users/Vistril/starred{/owner}{/repo}",
                "subscriptions_url": "https://api.github.com/users/Vistril/subscriptions",
                "type": "User",
                "url": "https://api.github.com/users/Vistril"
            },
            "comments_url": "https://api.github.com/repos/PrismarineJS/mineflayer/commits/a17147bda08f4f9e1cd52fe306f6d60dde6ec8da/comments",
            "commit": {
                "author": {
                    "date": "2018-08-03T02:53:24Z",
                    "email": "38549907+Vistril@users.noreply.github.com",
                    "name": "Vistril"
                },
                "comment_count": 0,
                "committer": {
                    "date": "2018-08-03T02:53:24Z",
                    "email": "noreply@github.com",
                    "name": "GitHub"
                },
                "message": "Update multiple.js",
                "tree": {
                    "sha": "b1d35e9d827785ffdd1e62f22b4e6f3293151b82",
                    "url": "https://api.github.com/repos/PrismarineJS/mineflayer/git/trees/b1d35e9d827785ffdd1e62f22b4e6f3293151b82"
                },
                "url": "https://api.github.com/repos/PrismarineJS/mineflayer/git/commits/a17147bda08f4f9e1cd52fe306f6d60dde6ec8da",
                "verification": {
                    "payload": "tree b1d35e9d827785ffdd1e62f22b4e6f3293151b82\nparent 9aedabc460277e5792d8a1b68bb26438ccee11a6\nauthor Vistril <38549907+Vistril@users.noreply.github.com> 1533264804 -0600\ncommitter GitHub <noreply@github.com> 1533264804 -0600\n\nUpdate multiple.js",
                    "reason": "valid",
                    "signature": "-----BEGIN PGP SIGNATURE-----\n\nwsBcBAABCAAQBQJbY8OkCRBK7hj4Ov3rIwAAdHIIADpDl4nGixAf2/uyabbeJxDz\n6NKc9f92d3sjLluu043nPYxCzjESYXyg8+ALsyNsuxpsXxV+tczzfi0od1jA9v3v\n1Bw4LL7Vq132ofV0fEdFKbdtHbo+mIWNVvGDtrW/wuLyo4znc5wdJ6/jEtSORzhs\nqP04o2CYknCL9bOezRzPS5sM7XA8Hc7WfDHSq1PlRxj5KwJ71/fHF0DQSJ7RmqRY\nXjo3i4OibtvCBKWaOnukVPRkIBNJoYeCV3jJ4sc5gtdkAXaStyePpb25d9zkWVLY\naQLjqY+QdO2NDF/PZUR/v5XEGyQlfUi2DGzJMdwVTtIXSitBKUWEVnqSNK/OxbQ=\n=R9ge\n-----END PGP SIGNATURE-----\n",
                    "verified": true
                }
            },
            "committer": {
                "avatar_url": "https://avatars.githubusercontent.com/u/19864447?v=4",
                "events_url": "https://api.github.com/users/web-flow/events{/privacy}",
                "followers_url": "https://api.github.com/users/web-flow/followers",
                "following_url": "https://api.github.com/users/web-flow/following{/other_user}",
                "gists_url": "https://api.github.com/users/web-flow/gists{/gist_id}",
                "gravatar_id": "",
                "html_url": "https://github.com/web-flow",
                "id": 19864447,
                "login": "web-flow",
                "node_id": "MDQ6VXNlcjE5ODY0NDQ3",
                "organizations_url": "https://api.github.com/users/web-flow/orgs",
                "received_events_url": "https://api.github.com/users/web-flow/received_events",
                "repos_url": "https://api.github.com/users/web-flow/repos",
                "site_admin": false,
                "starred_url": "https://api.github.com/users/web-flow/starred{/owner}{/repo}",
                "subscriptions_url": "https://api.github.com/users/web-flow/subscriptions",
                "type": "User",
                "url": "https://api.github.com/users/web-flow"
            },
            "html_url": "https://github.com/PrismarineJS/mineflayer/commit/a17147bda08f4f9e1cd52fe306f6d60dde6ec8da",
            "node_id": "MDY6Q29tbWl0MTM3NjI1Mzg1OmExNzE0N2JkYTA4ZjRmOWUxY2Q1MmZlMzA2ZjZkNjBkZGU2ZWM4ZGE=",
            "parents": [
                {
                    "html_url": "https://github.com/PrismarineJS/mineflayer/commit/9aedabc460277e5792d8a1b68bb26438ccee11a6",
                    "sha": "9aedabc460277e5792d8a1b68bb26438ccee11a6",
                    "url": "https://api.github.com/repos/PrismarineJS/mineflayer/commits/9aedabc460277e5792d8a1b68bb26438ccee11a6"
                }
            ],
            "sha": "a17147bda08f4f9e1cd52fe306f6d60dde6ec8da",
            "url": "https://api.github.com/repos/PrismarineJS/mineflayer/commits/a17147bda08f4f9e1cd52fe306f6d60dde6ec8da"
        }
    ],
    "commits": 5,
    "commits_url": "https://api.github.com/repos/PrismarineJS/mineflayer/pulls/698/commits",
    "created_at": "2018-08-03T02:44:47Z",
    "deletions": 19,
    "diff_url": "https://github.com/PrismarineJS/mineflayer/pull/698.diff",
    "draft": false,
    "head": {
        "label": "Vistril:master",
        "ref": "master",
        "repo": {
            "allow_forking": true,
            "archive_url": "https://api.github.com/repos/Vistril/mineflayer/{archive_format}{/ref}",
            "archived": false,
            "assignees_url": "https://api.github.com/repos/Vistril/mineflayer/assignees{/user}",
            "blobs_url": "https://api.github.com/repos/Vistril/mineflayer/git/blobs{/sha}",
            "branches_url": "https://api.github.com/repos/Vistril/mineflayer/branches{/branch}",
            "clone_url": "https://github.com/Vistril/mineflayer.git",
            "collaborators_url": "https://api.github.com/repos/Vistril/mineflayer/collaborators{/collaborator}",
            "comments_url": "https://api.github.com/repos/Vistril/mineflayer/comments{/number}",
            "commits_url": "https://api.github.com/repos/Vistril/mineflayer/commits{/sha}",
            "compare_url": "https://api.github.com/repos/Vistril/mineflayer/compare/{base}...{head}",
            "contents_url": "https://api.github.com/repos/Vistril/mineflayer/contents/{+path}",
            "contributors_url": "https://api.github.com/repos/Vistril/mineflayer/contributors",
            "created_at": "2018-06-17T03:11:02Z",
            "default_branch": "master",
            "deployments_url": "https://api.github.com/repos/Vistril/mineflayer/deployments",
            "description": "Create Minecraft bots with a powerful, stable, and high level JavaScript API.",
            "disabled": false,
            "downloads_url": "https://api.github.com/repos/Vistril/mineflayer/downloads",
            "events_url": "https://api.github.com/repos/Vistril/mineflayer/events",
            "fork": true,
            "forks": 0,
            "forks_count": 0,
            "forks_url": "https://api.github.com/repos/Vistril/mineflayer/forks",
            "full_name": "Vistril/mineflayer",
            "git_commits_url": "https://api.github.com/repos/Vistril/mineflayer/git/commits{/sha}",
            "git_refs_url": "https://api.github.com/repos/Vistril/mineflayer/git/refs{/sha}",
            "git_tags_url": "https://api.github.com/repos/Vistril/mineflayer/git/tags{/sha}",
            "git_url": "git://github.com/Vistril/mineflayer.git",
            "has_discussions": false,
            "has_downloads": true,
            "has_issues": false,
            "has_pages": false,
            "has_projects": true,
            "has_wiki": true,
            "homepage": "http://mineflayer.prismarine.js.org",
            "hooks_url": "https://api.github.com/repos/Vistril/mineflayer/hooks",
            "html_url": "https://github.com/Vistril/mineflayer",
            "id": 137625385,
            "is_template": false,
            "issue_comment_url": "https://api.github.com/repos/Vistril/mineflayer/issues/comments{/number}",
            "issue_events_url": "https://api.github.com/repos/Vistril/mineflayer/issues/events{/number}",
            "issues_url": "https://api.github.com/repos/Vistril/mineflayer/issues{/number}",
            "keys_url": "https://api.github.com/repos/Vistril/mineflayer/keys{/key_id}",
            "labels_url": "https://api.github.com/repos/Vistril/mineflayer/labels{/name}",
            "language": "JavaScript",
            "languages_url": "https://api.github.com/repos/Vistril/mineflayer/languages",
            "license": {
                "key": "mit",
                "name": "MIT License",
                "node_id": "MDc6TGljZW5zZTEz",
                "spdx_id": "MIT",
                "url": "https://api.github.com/licenses/mit"
            },
            "merges_url": "https://api.github.com/repos/Vistril/mineflayer/merges",
            "milestones_url": "https://api.github.com/repos/Vistril/mineflayer/milestones{/number}",
            "mirror_url": null,
            "name": "mineflayer",
            "node_id": "MDEwOlJlcG9zaXRvcnkxMzc2MjUzODU=",
            "notifications_url": "https://api.github.com/repos/Vistril/mineflayer/notifications{?since,all,participating}",
            "open_issues": 0,
            "open_issues_count": 0,
            "owner": {
                "avatar_url": "https://avatars.githubusercontent.com/u/38549907?v=4",
                "events_url": "https://api.github.com/users/Vistril/events{/privacy}",
                "followers_url": "https://api.github.com/users/Vistril/followers",
                "following_url": "https://api.github.com/users/Vistril/following{/other_user}",
                "gists_url": "https://api.github.com/users/Vistril/gists{/gist_id}",
                "gravatar_id": "",
                "html_url": "https://github.com/Vistril",
                "id": 38549907,
                "login": "Vistril",
                "node_id": "MDQ6VXNlcjM4NTQ5OTA3",
                "organizations_url": "https://api.github.com/users/Vistril/orgs",
                "received_events_url": "https://api.github.com/users/Vistril/received_events",
                "repos_url": "https://api.github.com/users/Vistril/repos",
                "site_admin": false,
                "starred_url": "https://api.github.com/users/Vistril/starred{/owner}{/repo}",
                "subscriptions_url": "https://api.github.com/users/Vistril/subscriptions",
                "type": "User",
                "url": "https://api.github.com/users/Vistril"
            },
            "private": false,
            "pulls_url": "https://api.github.com/repos/Vistril/mineflayer/pulls{/number}",
            "pushed_at": "2018-08-03T02:53:25Z",
            "releases_url": "https://api.github.com/repos/Vistril/mineflayer/releases{/id}",
            "size": 10413,
            "ssh_url": "git@github.com:Vistril/mineflayer.git",
            "stargazers_count": 0,
            "stargazers_url": "https://api.github.com/repos/Vistril/mineflayer/stargazers",
            "statuses_url": "https://api.github.com/repos/Vistril/mineflayer/statuses/{sha}",
            "subscribers_url": "https://api.github.com/repos/Vistril/mineflayer/subscribers",
            "subscription_url": "https://api.github.com/repos/Vistril/mineflayer/subscription",
            "svn_url": "https://github.com/Vistril/mineflayer",
            "tags_url": "https://api.github.com/repos/Vistril/mineflayer/tags",
            "teams_url": "https://api.github.com/repos/Vistril/mineflayer/teams",
            "topics": [],
            "trees_url": "https://api.github.com/repos/Vistril/mineflayer/git/trees{/sha}",
            "updated_at": "2018-08-03T02:53:27Z",
            "url": "https://api.github.com/repos/Vistril/mineflayer",
            "visibility": "public",
            "watchers": 0,
            "watchers_count": 0,
            "web_commit_signoff_required": false
        },
        "sha": "a17147bda08f4f9e1cd52fe306f6d60dde6ec8da",
        "user": {
            "avatar_url": "https://avatars.githubusercontent.com/u/38549907?v=4",
            "events_url": "https://api.github.com/users/Vistril/events{/privacy}",
            "followers_url": "https://api.github.com/users/Vistril/followers",
            "following_url": "https://api.github.com/users/Vistril/following{/other_user}",
            "gists_url": "https://api.github.com/users/Vistril/gists{/gist_id}",
            "gravatar_id": "",
            "html_url": "https://github.com/Vistril",
            "id": 38549907,
            "login": "Vistril",
            "node_id": "MDQ6VXNlcjM4NTQ5OTA3",
            "organizations_url": "https://api.github.com/users/Vistril/orgs",
            "received_events_url": "https://api.github.com/users/Vistril/received_events",
            "repos_url": "https://api.github.com/users/Vistril/repos",
            "site_admin": false,
            "starred_url": "https://api.github.com/users/Vistril/starred{/owner}{/repo}",
            "subscriptions_url": "https://api.github.com/users/Vistril/subscriptions",
            "type": "User",
            "url": "https://api.github.com/users/Vistril"
        }
    },
    "html_url": "https://github.com/PrismarineJS/mineflayer/pull/698",
    "id": 205911045,
    "issue_url": "https://api.github.com/repos/PrismarineJS/mineflayer/issues/698",
    "labels": [],
    "locked": false,
    "maintainer_can_modify": false,
    "merge_commit_sha": "07ec62c78acc7a4e6da432e437ae0bec94b41812",
    "mergeable": null,
    "mergeable_state": "unknown",
    "merged": false,
    "merged_at": null,
    "merged_by": null,
    "milestone": null,
    "node_id": "MDExOlB1bGxSZXF1ZXN0MjA1OTExMDQ1",
    "number": 698,
    "patch_url": "https://github.com/PrismarineJS/mineflayer/pull/698.patch",
    "rebaseable": null,
    "requested_reviewers": [],
    "requested_teams": [],
    "review_comment_url": "https://api.github.com/repos/PrismarineJS/mineflayer/pulls/comments{/number}",
    "review_comments": 0,
    "review_comments_url": "https://api.github.com/repos/PrismarineJS/mineflayer/pulls/698/comments",
    "state": "closed",
    "statuses_url": "https://api.github.com/repos/PrismarineJS/mineflayer/statuses/a17147bda08f4f9e1cd52fe306f6d60dde6ec8da",
    "title": "Multiple.js example improved",
    "updated_at": "2018-08-25T23:47:12Z",
    "url": "https://api.github.com/repos/PrismarineJS/mineflayer/pulls/698",
    "user": {
        "avatar_url": "https://avatars.githubusercontent.com/u/38549907?v=4",
        "events_url": "https://api.github.com/users/Vistril/events{/privacy}",
        "followers_url": "https://api.github.com/users/Vistril/followers",
        "following_url": "https://api.github.com/users/Vistril/following{/other_user}",
        "gists_url": "https://api.github.com/users/Vistril/gists{/gist_id}",
        "gravatar_id": "",
        "html_url": "https://github.com/Vistril",
        "id": 38549907,
        "login": "Vistril",
        "node_id": "MDQ6VXNlcjM4NTQ5OTA3",
        "organizations_url": "https://api.github.com/users/Vistril/orgs",
        "received_events_url": "https://api.github.com/users/Vistril/received_events",
        "repos_url": "https://api.github.com/users/Vistril/repos",
        "site_admin": false,
        "starred_url": "https://api.github.com/users/Vistril/starred{/owner}{/repo}",
        "subscriptions_url": "https://api.github.com/users/Vistril/subscriptions",
        "type": "User",
        "url": "https://api.github.com/users/Vistril"
    }
}