{
    "_links": {
        "comments": {
            "href": "https://api.github.com/repos/PrismarineJS/mineflayer/issues/972/comments"
        },
        "commits": {
            "href": "https://api.github.com/repos/PrismarineJS/mineflayer/pulls/972/commits"
        },
        "html": {
            "href": "https://github.com/PrismarineJS/mineflayer/pull/972"
        },
        "issue": {
            "href": "https://api.github.com/repos/PrismarineJS/mineflayer/issues/972"
        },
        "review_comment": {
            "href": "https://api.github.com/repos/PrismarineJS/mineflayer/pulls/comments{/number}"
        },
        "review_comments": {
            "href": "https://api.github.com/repos/PrismarineJS/mineflayer/pulls/972/comments"
        },
        "self": {
            "href": "https://api.github.com/repos/PrismarineJS/mineflayer/pulls/972"
        },
        "statuses": {
            "href": "https://api.github.com/repos/PrismarineJS/mineflayer/statuses/07096de6b57cff4e121cebbe3e1d950f6b1b3c35"
        }
    },
    "active_lock_reason": null,
    "additions": 19,
    "assignee": null,
    "assignees": [],
    "author_association": "NONE",
    "auto_merge": null,
    "base": {
        "label": "PrismarineJS:1.14",
        "ref": "1.14",
        "repo": {
            "allow_forking": true,
            "archive_url": "https://api.github.com/repos/PrismarineJS/mineflayer/{archive_format}{/ref}",
            "archived": false,
            "assignees_url": "https://api.github.com/repos/PrismarineJS/mineflayer/assignees{/user}",
            "blobs_url": "https://api.github.com/repos/PrismarineJS/mineflayer/git/blobs{/sha}",
            "branches_url": "https://api.github.com/repos/PrismarineJS/mineflayer/branches{/branch}",
            "clone_url": "https://github.com/PrismarineJS/mineflayer.git",
            "collaborators_url": "https://api.github.com/repos/PrismarineJS/mineflayer/collaborators{/collaborator}",
            "comments_url": "https://api.github.com/repos/PrismarineJS/mineflayer/comments{/number}",
            "commits_url": "https://api.github.com/repos/PrismarineJS/mineflayer/commits{/sha}",
            "compare_url": "https://api.github.com/repos/PrismarineJS/mineflayer/compare/{base}...{head}",
            "contents_url": "https://api.github.com/repos/PrismarineJS/mineflayer/contents/{+path}",
            "contributors_url": "https://api.github.com/repos/PrismarineJS/mineflayer/contributors",
            "created_at": "2011-01-23T09:41:55Z",
            "default_branch": "master",
            "deployments_url": "https://api.github.com/repos/PrismarineJS/mineflayer/deployments",
            "description": "Create Minecraft bots with a powerful, stable, and high level JavaScript API.",
            "disabled": false,
            "downloads_url": "https://api.github.com/repos/PrismarineJS/mineflayer/downloads",
            "events_url": "https://api.github.com/repos/PrismarineJS/mineflayer/events",
            "fork": false,
            "forks": 748,
            "forks_count": 748,
            "forks_url": "https://api.github.com/repos/PrismarineJS/mineflayer/forks",
            "full_name": "PrismarineJS/mineflayer",
            "git_commits_url": "https://api.github.com/repos/PrismarineJS/mineflayer/git/commits{/sha}",
            "git_refs_url": "https://api.github.com/repos/PrismarineJS/mineflayer/git/refs{/sha}",
            "git_tags_url": "https://api.github.com/repos/PrismarineJS/mineflayer/git/tags{/sha}",
            "git_url": "git://github.com/PrismarineJS/mineflayer.git",
            "has_discussions": true,
            "has_downloads": true,
            "has_issues": true,
            "has_pages": true,
            "has_projects": true,
            "has_wiki": true,
            "homepage": "https://prismarinejs.github.io/mineflayer/",
            "hooks_url": "https://api.github.com/repos/PrismarineJS/mineflayer/hooks",
            "html_url": "https://github.com/PrismarineJS/mineflayer",
            "id": 1284185,
            "is_template": false,
            "issue_comment_url": "https://api.github.com/repos/PrismarineJS/mineflayer/issues/comments{/number}",
            "issue_events_url": "https://api.github.com/repos/PrismarineJS/mineflayer/issues/events{/number}",
            "issues_url": "https://api.github.com/repos/PrismarineJS/mineflayer/issues{/number}",
            "keys_url": "https://api.github.com/repos/PrismarineJS/mineflayer/keys{/key_id}",
            "labels_url": "https://api.github.com/repos/PrismarineJS/mineflayer/labels{/name}",
            "language": "JavaScript",
            "languages_url": "https://api.github.com/repos/PrismarineJS/mineflayer/languages",
            "license": {
                "key": "mit",
                "name": "MIT License",
                "node_id": "MDc6TGljZW5zZTEz",
                "spdx_id": "MIT",
                "url": "https://api.github.com/licenses/mit"
            },
            "merges_url": "https://api.github.com/repos/PrismarineJS/mineflayer/merges",
            "milestones_url": "https://api.github.com/repos/PrismarineJS/mineflayer/milestones{/number}",
            "mirror_url": null,
            "name": "mineflayer",
            "node_id": "MDEwOlJlcG9zaXRvcnkxMjg0MTg1",
            "notifications_url": "https://api.github.com/repos/PrismarineJS/mineflayer/notifications{?since,all,participating}",
            "open_issues": 269,
            "open_issues_count": 269,
            "owner": {
                "avatar_url": "https://avatars.githubusercontent.com/u/11053411?v=4",
                "events_url": "https://api.github.com/users/PrismarineJS/events{/privacy}",
                "followers_url": "https://api.github.com/users/PrismarineJS/followers",
                "following_url": "https://api.github.com/users/PrismarineJS/following{/other_user}",
                "gists_url": "https://api.github.com/users/PrismarineJS/gists{/gist_id}",
                "gravatar_id": "",
                "html_url": "https://github.com/PrismarineJS",
                "id": 11053411,
                "login": "PrismarineJS",
                "node_id": "MDEyOk9yZ2FuaXphdGlvbjExMDUzNDEx",
                "organizations_url": "https://api.github.com/users/PrismarineJS/orgs",
                "received_events_url": "https://api.github.com/users/PrismarineJS/received_events",
                "repos_url": "https://api.github.com/users/PrismarineJS/repos",
                "site_admin": false,
                "starred_url": "https://api.github.com/users/PrismarineJS/starred{/owner}{/repo}",
                "subscriptions_url": "https://api.github.com/users/PrismarineJS/subscriptions",
                "type": "Organization",
                "url": "https://api.github.com/users/PrismarineJS"
            },
            "private": false,
            "pulls_url": "https://api.github.com/repos/PrismarineJS/mineflayer/pulls{/number}",
            "pushed_at": "2023-04-25T00:44:52Z",
            "releases_url": "https://api.github.com/repos/PrismarineJS/mineflayer/releases{/id}",
            "size": 12493,
            "ssh_url": "git@github.com:PrismarineJS/mineflayer.git",
            "stargazers_count": 3698,
            "stargazers_url": "https://api.github.com/repos/PrismarineJS/mineflayer/stargazers",
            "statuses_url": "https://api.github.com/repos/PrismarineJS/mineflayer/statuses/{sha}",
            "subscribers_url": "https://api.github.com/repos/PrismarineJS/mineflayer/subscribers",
            "subscription_url": "https://api.github.com/repos/PrismarineJS/mineflayer/subscription",
            "svn_url": "https://github.com/PrismarineJS/mineflayer",
            "tags_url": "https://api.github.com/repos/PrismarineJS/mineflayer/tags",
            "teams_url": "https://api.github.com/repos/PrismarineJS/mineflayer/teams",
            "topics": [
                "bot",
                "minecraft",
                "minecraft-api",
                "minecraft-bot",
                "network",
                "nodejs"
            ],
            "trees_url": "https://api.github.com/repos/PrismarineJS/mineflayer/git/trees{/sha}",
            "updated_at": "2023-04-25T14:07:03Z",
            "url": "https://api.github.com/repos/PrismarineJS/mineflayer",
            "visibility": "public",
            "watchers": 3698,
            "watchers_count": 3698,
            "web_commit_signoff_required": false
        },
        "sha": "4990c046d8f852d7683c436d60c2618e7619089a",
        "user": {
            "avatar_url": "https://avatars.githubusercontent.com/u/11053411?v=4",
            "events_url": "https://api.github.com/users/PrismarineJS/events{/privacy}",
            "followers_url": "https://api.github.com/users/PrismarineJS/followers",
            "following_url": "https://api.github.com/users/PrismarineJS/following{/other_user}",
            "gists_url": "https://api.github.com/users/PrismarineJS/gists{/gist_id}",
            "gravatar_id": "",
            "html_url": "https://github.com/PrismarineJS",
            "id": 11053411,
            "login": "PrismarineJS",
            "node_id": "MDEyOk9yZ2FuaXphdGlvbjExMDUzNDEx",
            "organizations_url": "https://api.github.com/users/PrismarineJS/orgs",
            "received_events_url": "https://api.github.com/users/PrismarineJS/received_events",
            "repos_url": "https://api.github.com/users/PrismarineJS/repos",
            "site_admin": false,
            "starred_url": "https://api.github.com/users/PrismarineJS/starred{/owner}{/repo}",
            "subscriptions_url": "https://api.github.com/users/PrismarineJS/subscriptions",
            "type": "Organization",
            "url": "https://api.github.com/users/PrismarineJS"
        }
    },
    "body": "Please close freely",
    "changed_files": 2,
    "closed_at": "2020-05-07T17:08:32Z",
    "comment_data": [
        {
            "_links": {
                "html": {
                    "href": "https://github.com/PrismarineJS/mineflayer/pull/972#discussion_r421346389"
                },
                "pull_request": {
                    "href": "https://api.github.com/repos/PrismarineJS/mineflayer/pulls/972"
                },
                "self": {
                    "href": "https://api.github.com/repos/PrismarineJS/mineflayer/pulls/comments/421346389"
                }
            },
            "author_association": "MEMBER",
            "body": "According to the wiki, these versions were already using `doublePositionTeleport`:\r\n* 1.13: https://wiki.vg/index.php?title=Protocol&oldid=14889#Entity_Teleport\r\n* 1.12: https://wiki.vg/index.php?title=Protocol&oldid=14204#Entity_Teleport\r\n* 1.11: https://wiki.vg/index.php?title=Protocol&oldid=8543#Entity_Teleport\r\n* 1.10: https://wiki.vg/index.php?title=Protocol&oldid=8235#Entity_Teleport\r\n* 1.9: https://wiki.vg/index.php?title=Protocol&oldid=7959#Entity_Teleport\r\n\r\nLast version to not use it seems to be 1.8:\r\n* https://wiki.vg/index.php?title=Protocol&oldid=7368#Entity_Teleport",
            "commit_id": "07096de6b57cff4e121cebbe3e1d950f6b1b3c35",
            "created_at": "2020-05-07T08:54:41Z",
            "diff_hunk": "@@ -44,6 +44,21 @@\n       \"description\": \"Delta of position are represented with fixed point numbers times 128\",\n       \"versions\": [\"1.9\", \"1.10\", \"1.11\", \"1.12\", \"1.13\", \"1.14\"]\n     },\n+    {\n+      \"name\": \"fixedPointDeltaTeleport\",\n+      \"description\": \"Delta of entity teleport position are represented with fixed point numbers\",\n+      \"versions\": [\"1.8\"]\n+    },\n+    {\n+      \"name\": \"fixedPointDelta128Teleport\",\n+      \"description\": \"Delta of entity teleport position are represented with fixed point numbers times 128\",\n+      \"versions\": [\"1.9\", \"1.10\", \"1.11\", \"1.12\", \"1.13\"]",
            "html_url": "https://github.com/PrismarineJS/mineflayer/pull/972#discussion_r421346389",
            "id": 421346389,
            "line": 55,
            "node_id": "MDI0OlB1bGxSZXF1ZXN0UmV2aWV3Q29tbWVudDQyMTM0NjM4OQ==",
            "original_commit_id": "07096de6b57cff4e121cebbe3e1d950f6b1b3c35",
            "original_line": 55,
            "original_position": 12,
            "original_start_line": null,
            "path": "lib/features.json",
            "position": 12,
            "pull_request_review_id": 407275836,
            "pull_request_url": "https://api.github.com/repos/PrismarineJS/mineflayer/pulls/972",
            "reactions": {
                "+1": 0,
                "-1": 0,
                "confused": 0,
                "eyes": 0,
                "heart": 0,
                "hooray": 0,
                "laugh": 0,
                "rocket": 0,
                "total_count": 0,
                "url": "https://api.github.com/repos/PrismarineJS/mineflayer/pulls/comments/421346389/reactions"
            },
            "side": "RIGHT",
            "start_line": null,
            "start_side": null,
            "subject_type": "line",
            "updated_at": "2020-05-07T15:28:50Z",
            "url": "https://api.github.com/repos/PrismarineJS/mineflayer/pulls/comments/421346389",
            "user": {
                "avatar_url": "https://avatars.githubusercontent.com/u/1977472?v=4",
                "events_url": "https://api.github.com/users/Karang/events{/privacy}",
                "followers_url": "https://api.github.com/users/Karang/followers",
                "following_url": "https://api.github.com/users/Karang/following{/other_user}",
                "gists_url": "https://api.github.com/users/Karang/gists{/gist_id}",
                "gravatar_id": "",
                "html_url": "https://github.com/Karang",
                "id": 1977472,
                "login": "Karang",
                "node_id": "MDQ6VXNlcjE5Nzc0NzI=",
                "organizations_url": "https://api.github.com/users/Karang/orgs",
                "received_events_url": "https://api.github.com/users/Karang/received_events",
                "repos_url": "https://api.github.com/users/Karang/repos",
                "site_admin": false,
                "starred_url": "https://api.github.com/users/Karang/starred{/owner}{/repo}",
                "subscriptions_url": "https://api.github.com/users/Karang/subscriptions",
                "type": "User",
                "url": "https://api.github.com/users/Karang"
            }
        },
        {
            "_links": {
                "html": {
                    "href": "https://github.com/PrismarineJS/mineflayer/pull/972#discussion_r421353542"
                },
                "pull_request": {
                    "href": "https://api.github.com/repos/PrismarineJS/mineflayer/pulls/972"
                },
                "self": {
                    "href": "https://api.github.com/repos/PrismarineJS/mineflayer/pulls/comments/421353542"
                }
            },
            "author_association": "MEMBER",
            "body": "It seems a mistake was introduced here in the last commit, when introducing the `supportFeature`, the code was before:\r\n```javascript\r\nbot._client.on('entity_teleport', (packet) => {\r\n    // entity teleport\r\n    const entity = fetchEntity(packet.entityId)\r\n    if (bot.majorVersion === '1.8') {\r\n      entity.position.set(packet.x / 32, packet.y / 32, packet.z / 32)\r\n    }\r\n    if (bot.majorVersion === '1.9' || bot.majorVersion === '1.10' || bot.majorVersion === '1.11' || bot.majorVersion === '1.12' || bot.majorVersion === '1.13') {\r\n      entity.position.set(packet.x, packet.y, packet.z)\r\n    }\r\n    entity.yaw = conv.fromNotchianYawByte(packet.yaw)\r\n    entity.pitch = conv.fromNotchianPitchByte(packet.pitch)\r\n    bot.emit('entityMoved', entity)\r\n  })\r\n```\r\nhttps://github.com/PrismarineJS/mineflayer/blob/a7746c7608f13b3ce6b4107122ddce3e4e9b22b6/lib/plugins/entities.js#L293\r\n",
            "commit_id": "07096de6b57cff4e121cebbe3e1d950f6b1b3c35",
            "created_at": "2020-05-07T09:06:18Z",
            "diff_hunk": "@@ -284,10 +284,12 @@ function inject (bot, { version }) {\n   bot._client.on('entity_teleport', (packet) => {\n     // entity teleport\n     const entity = fetchEntity(packet.entityId)\n-    if (bot.supportFeature('fixedPointDelta')) {\n+    if (bot.supportFeature('fixedPointDeltaTeleport')) {\n       entity.position.translate(packet.dX / 32, packet.dY / 32, packet.dZ / 32)",
            "html_url": "https://github.com/PrismarineJS/mineflayer/pull/972#discussion_r421353542",
            "id": 421353542,
            "line": 288,
            "node_id": "MDI0OlB1bGxSZXF1ZXN0UmV2aWV3Q29tbWVudDQyMTM1MzU0Mg==",
            "original_commit_id": "07096de6b57cff4e121cebbe3e1d950f6b1b3c35",
            "original_line": 288,
            "original_position": 6,
            "original_start_line": null,
            "path": "lib/plugins/entities.js",
            "position": 6,
            "pull_request_review_id": 407275836,
            "pull_request_url": "https://api.github.com/repos/PrismarineJS/mineflayer/pulls/972",
            "reactions": {
                "+1": 0,
                "-1": 0,
                "confused": 0,
                "eyes": 0,
                "heart": 0,
                "hooray": 0,
                "laugh": 0,
                "rocket": 0,
                "total_count": 0,
                "url": "https://api.github.com/repos/PrismarineJS/mineflayer/pulls/comments/421353542/reactions"
            },
            "side": "RIGHT",
            "start_line": null,
            "start_side": null,
            "subject_type": "line",
            "updated_at": "2020-05-07T15:28:50Z",
            "url": "https://api.github.com/repos/PrismarineJS/mineflayer/pulls/comments/421353542",
            "user": {
                "avatar_url": "https://avatars.githubusercontent.com/u/1977472?v=4",
                "events_url": "https://api.github.com/users/Karang/events{/privacy}",
                "followers_url": "https://api.github.com/users/Karang/followers",
                "following_url": "https://api.github.com/users/Karang/following{/other_user}",
                "gists_url": "https://api.github.com/users/Karang/gists{/gist_id}",
                "gravatar_id": "",
                "html_url": "https://github.com/Karang",
                "id": 1977472,
                "login": "Karang",
                "node_id": "MDQ6VXNlcjE5Nzc0NzI=",
                "organizations_url": "https://api.github.com/users/Karang/orgs",
                "received_events_url": "https://api.github.com/users/Karang/received_events",
                "repos_url": "https://api.github.com/users/Karang/repos",
                "site_admin": false,
                "starred_url": "https://api.github.com/users/Karang/starred{/owner}{/repo}",
                "subscriptions_url": "https://api.github.com/users/Karang/subscriptions",
                "type": "User",
                "url": "https://api.github.com/users/Karang"
            }
        }
    ],
    "comment_regular_data": [
        {
            "author_association": "NONE",
            "body": "Thanks for the checking well and fix.\r\nNext time I'll check the old protocol.",
            "created_at": "2020-05-07T17:08:32Z",
            "html_url": "https://github.com/PrismarineJS/mineflayer/pull/972#issuecomment-625382241",
            "id": 625382241,
            "issue_url": "https://api.github.com/repos/PrismarineJS/mineflayer/issues/972",
            "node_id": "MDEyOklzc3VlQ29tbWVudDYyNTM4MjI0MQ==",
            "performed_via_github_app": null,
            "reactions": {
                "+1": 0,
                "-1": 0,
                "confused": 0,
                "eyes": 0,
                "heart": 0,
                "hooray": 0,
                "laugh": 0,
                "rocket": 0,
                "total_count": 0,
                "url": "https://api.github.com/repos/PrismarineJS/mineflayer/issues/comments/625382241/reactions"
            },
            "updated_at": "2020-05-07T17:08:32Z",
            "url": "https://api.github.com/repos/PrismarineJS/mineflayer/issues/comments/625382241",
            "user": {
                "avatar_url": "https://avatars.githubusercontent.com/u/35834522?v=4",
                "events_url": "https://api.github.com/users/kamesa7/events{/privacy}",
                "followers_url": "https://api.github.com/users/kamesa7/followers",
                "following_url": "https://api.github.com/users/kamesa7/following{/other_user}",
                "gists_url": "https://api.github.com/users/kamesa7/gists{/gist_id}",
                "gravatar_id": "",
                "html_url": "https://github.com/kamesa7",
                "id": 35834522,
                "login": "kamesa7",
                "node_id": "MDQ6VXNlcjM1ODM0NTIy",
                "organizations_url": "https://api.github.com/users/kamesa7/orgs",
                "received_events_url": "https://api.github.com/users/kamesa7/received_events",
                "repos_url": "https://api.github.com/users/kamesa7/repos",
                "site_admin": false,
                "starred_url": "https://api.github.com/users/kamesa7/starred{/owner}{/repo}",
                "subscriptions_url": "https://api.github.com/users/kamesa7/subscriptions",
                "type": "User",
                "url": "https://api.github.com/users/kamesa7"
            }
        }
    ],
    "comments": 1,
    "comments_url": "https://api.github.com/repos/PrismarineJS/mineflayer/issues/972/comments",
    "commit_data": [
        {
            "author": {
                "avatar_url": "https://avatars.githubusercontent.com/u/35834522?v=4",
                "events_url": "https://api.github.com/users/kamesa7/events{/privacy}",
                "followers_url": "https://api.github.com/users/kamesa7/followers",
                "following_url": "https://api.github.com/users/kamesa7/following{/other_user}",
                "gists_url": "https://api.github.com/users/kamesa7/gists{/gist_id}",
                "gravatar_id": "",
                "html_url": "https://github.com/kamesa7",
                "id": 35834522,
                "login": "kamesa7",
                "node_id": "MDQ6VXNlcjM1ODM0NTIy",
                "organizations_url": "https://api.github.com/users/kamesa7/orgs",
                "received_events_url": "https://api.github.com/users/kamesa7/received_events",
                "repos_url": "https://api.github.com/users/kamesa7/repos",
                "site_admin": false,
                "starred_url": "https://api.github.com/users/kamesa7/starred{/owner}{/repo}",
                "subscriptions_url": "https://api.github.com/users/kamesa7/subscriptions",
                "type": "User",
                "url": "https://api.github.com/users/kamesa7"
            },
            "comments_url": "https://api.github.com/repos/PrismarineJS/mineflayer/commits/ed4a7707ae4ebe46f779d1895c28c5ae25b93e19/comments",
            "commit": {
                "author": {
                    "date": "2020-05-06T18:18:05Z",
                    "email": "35834522+kamesa7@users.noreply.github.com",
                    "name": "kamesa7"
                },
                "comment_count": 0,
                "committer": {
                    "date": "2020-05-06T18:18:05Z",
                    "email": "35834522+kamesa7@users.noreply.github.com",
                    "name": "kamesa7"
                },
                "message": "update entity_teleport for 1.14",
                "tree": {
                    "sha": "a8892495f4614ca99ebdfc1fac88e5485b46e5a8",
                    "url": "https://api.github.com/repos/PrismarineJS/mineflayer/git/trees/a8892495f4614ca99ebdfc1fac88e5485b46e5a8"
                },
                "url": "https://api.github.com/repos/PrismarineJS/mineflayer/git/commits/ed4a7707ae4ebe46f779d1895c28c5ae25b93e19",
                "verification": {
                    "payload": null,
                    "reason": "unsigned",
                    "signature": null,
                    "verified": false
                }
            },
            "committer": {
                "avatar_url": "https://avatars.githubusercontent.com/u/35834522?v=4",
                "events_url": "https://api.github.com/users/kamesa7/events{/privacy}",
                "followers_url": "https://api.github.com/users/kamesa7/followers",
                "following_url": "https://api.github.com/users/kamesa7/following{/other_user}",
                "gists_url": "https://api.github.com/users/kamesa7/gists{/gist_id}",
                "gravatar_id": "",
                "html_url": "https://github.com/kamesa7",
                "id": 35834522,
                "login": "kamesa7",
                "node_id": "MDQ6VXNlcjM1ODM0NTIy",
                "organizations_url": "https://api.github.com/users/kamesa7/orgs",
                "received_events_url": "https://api.github.com/users/kamesa7/received_events",
                "repos_url": "https://api.github.com/users/kamesa7/repos",
                "site_admin": false,
                "starred_url": "https://api.github.com/users/kamesa7/starred{/owner}{/repo}",
                "subscriptions_url": "https://api.github.com/users/kamesa7/subscriptions",
                "type": "User",
                "url": "https://api.github.com/users/kamesa7"
            },
            "html_url": "https://github.com/PrismarineJS/mineflayer/commit/ed4a7707ae4ebe46f779d1895c28c5ae25b93e19",
            "node_id": "MDY6Q29tbWl0MjA4NzkyMTgyOmVkNGE3NzA3YWU0ZWJlNDZmNzc5ZDE4OTVjMjhjNWFlMjViOTNlMTk=",
            "parents": [
                {
                    "html_url": "https://github.com/PrismarineJS/mineflayer/commit/47323ff7b506bbe1593574e8a1cca86ace1847e7",
                    "sha": "47323ff7b506bbe1593574e8a1cca86ace1847e7",
                    "url": "https://api.github.com/repos/PrismarineJS/mineflayer/commits/47323ff7b506bbe1593574e8a1cca86ace1847e7"
                }
            ],
            "sha": "ed4a7707ae4ebe46f779d1895c28c5ae25b93e19",
            "url": "https://api.github.com/repos/PrismarineJS/mineflayer/commits/ed4a7707ae4ebe46f779d1895c28c5ae25b93e19"
        },
        {
            "author": {
                "avatar_url": "https://avatars.githubusercontent.com/u/35834522?v=4",
                "events_url": "https://api.github.com/users/kamesa7/events{/privacy}",
                "followers_url": "https://api.github.com/users/kamesa7/followers",
                "following_url": "https://api.github.com/users/kamesa7/following{/other_user}",
                "gists_url": "https://api.github.com/users/kamesa7/gists{/gist_id}",
                "gravatar_id": "",
                "html_url": "https://github.com/kamesa7",
                "id": 35834522,
                "login": "kamesa7",
                "node_id": "MDQ6VXNlcjM1ODM0NTIy",
                "organizations_url": "https://api.github.com/users/kamesa7/orgs",
                "received_events_url": "https://api.github.com/users/kamesa7/received_events",
                "repos_url": "https://api.github.com/users/kamesa7/repos",
                "site_admin": false,
                "starred_url": "https://api.github.com/users/kamesa7/starred{/owner}{/repo}",
                "subscriptions_url": "https://api.github.com/users/kamesa7/subscriptions",
                "type": "User",
                "url": "https://api.github.com/users/kamesa7"
            },
            "comments_url": "https://api.github.com/repos/PrismarineJS/mineflayer/commits/07096de6b57cff4e121cebbe3e1d950f6b1b3c35/comments",
            "commit": {
                "author": {
                    "date": "2020-05-07T07:45:57Z",
                    "email": "35834522+kamesa7@users.noreply.github.com",
                    "name": "kamesa7"
                },
                "comment_count": 0,
                "committer": {
                    "date": "2020-05-07T07:45:57Z",
                    "email": "35834522+kamesa7@users.noreply.github.com",
                    "name": "kamesa7"
                },
                "message": "Merge branch '1.14' of https://github.com/PrismarineJS/mineflayer into 1.14",
                "tree": {
                    "sha": "f69c5fa4e6245ae16d53ae217293d2d5abe2cc4f",
                    "url": "https://api.github.com/repos/PrismarineJS/mineflayer/git/trees/f69c5fa4e6245ae16d53ae217293d2d5abe2cc4f"
                },
                "url": "https://api.github.com/repos/PrismarineJS/mineflayer/git/commits/07096de6b57cff4e121cebbe3e1d950f6b1b3c35",
                "verification": {
                    "payload": null,
                    "reason": "unsigned",
                    "signature": null,
                    "verified": false
                }
            },
            "committer": {
                "avatar_url": "https://avatars.githubusercontent.com/u/35834522?v=4",
                "events_url": "https://api.github.com/users/kamesa7/events{/privacy}",
                "followers_url": "https://api.github.com/users/kamesa7/followers",
                "following_url": "https://api.github.com/users/kamesa7/following{/other_user}",
                "gists_url": "https://api.github.com/users/kamesa7/gists{/gist_id}",
                "gravatar_id": "",
                "html_url": "https://github.com/kamesa7",
                "id": 35834522,
                "login": "kamesa7",
                "node_id": "MDQ6VXNlcjM1ODM0NTIy",
                "organizations_url": "https://api.github.com/users/kamesa7/orgs",
                "received_events_url": "https://api.github.com/users/kamesa7/received_events",
                "repos_url": "https://api.github.com/users/kamesa7/repos",
                "site_admin": false,
                "starred_url": "https://api.github.com/users/kamesa7/starred{/owner}{/repo}",
                "subscriptions_url": "https://api.github.com/users/kamesa7/subscriptions",
                "type": "User",
                "url": "https://api.github.com/users/kamesa7"
            },
            "html_url": "https://github.com/PrismarineJS/mineflayer/commit/07096de6b57cff4e121cebbe3e1d950f6b1b3c35",
            "node_id": "MDY6Q29tbWl0MjA4NzkyMTgyOjA3MDk2ZGU2YjU3Y2ZmNGUxMjFjZWJiZTNlMWQ5NTBmNmIxYjNjMzU=",
            "parents": [
                {
                    "html_url": "https://github.com/PrismarineJS/mineflayer/commit/ed4a7707ae4ebe46f779d1895c28c5ae25b93e19",
                    "sha": "ed4a7707ae4ebe46f779d1895c28c5ae25b93e19",
                    "url": "https://api.github.com/repos/PrismarineJS/mineflayer/commits/ed4a7707ae4ebe46f779d1895c28c5ae25b93e19"
                },
                {
                    "html_url": "https://github.com/PrismarineJS/mineflayer/commit/4990c046d8f852d7683c436d60c2618e7619089a",
                    "sha": "4990c046d8f852d7683c436d60c2618e7619089a",
                    "url": "https://api.github.com/repos/PrismarineJS/mineflayer/commits/4990c046d8f852d7683c436d60c2618e7619089a"
                }
            ],
            "sha": "07096de6b57cff4e121cebbe3e1d950f6b1b3c35",
            "url": "https://api.github.com/repos/PrismarineJS/mineflayer/commits/07096de6b57cff4e121cebbe3e1d950f6b1b3c35"
        }
    ],
    "commits": 2,
    "commits_url": "https://api.github.com/repos/PrismarineJS/mineflayer/pulls/972/commits",
    "created_at": "2020-05-07T08:40:10Z",
    "deletions": 2,
    "diff_url": "https://github.com/PrismarineJS/mineflayer/pull/972.diff",
    "draft": false,
    "head": {
        "label": "kamesa7:my1.14",
        "ref": "my1.14",
        "repo": {
            "allow_forking": true,
            "archive_url": "https://api.github.com/repos/kamesa7/mineflayer/{archive_format}{/ref}",
            "archived": false,
            "assignees_url": "https://api.github.com/repos/kamesa7/mineflayer/assignees{/user}",
            "blobs_url": "https://api.github.com/repos/kamesa7/mineflayer/git/blobs{/sha}",
            "branches_url": "https://api.github.com/repos/kamesa7/mineflayer/branches{/branch}",
            "clone_url": "https://github.com/kamesa7/mineflayer.git",
            "collaborators_url": "https://api.github.com/repos/kamesa7/mineflayer/collaborators{/collaborator}",
            "comments_url": "https://api.github.com/repos/kamesa7/mineflayer/comments{/number}",
            "commits_url": "https://api.github.com/repos/kamesa7/mineflayer/commits{/sha}",
            "compare_url": "https://api.github.com/repos/kamesa7/mineflayer/compare/{base}...{head}",
            "contents_url": "https://api.github.com/repos/kamesa7/mineflayer/contents/{+path}",
            "contributors_url": "https://api.github.com/repos/kamesa7/mineflayer/contributors",
            "created_at": "2019-09-16T12:17:58Z",
            "default_branch": "master",
            "deployments_url": "https://api.github.com/repos/kamesa7/mineflayer/deployments",
            "description": "Create Minecraft bots with a powerful, stable, and high level JavaScript API.",
            "disabled": false,
            "downloads_url": "https://api.github.com/repos/kamesa7/mineflayer/downloads",
            "events_url": "https://api.github.com/repos/kamesa7/mineflayer/events",
            "fork": true,
            "forks": 0,
            "forks_count": 0,
            "forks_url": "https://api.github.com/repos/kamesa7/mineflayer/forks",
            "full_name": "kamesa7/mineflayer",
            "git_commits_url": "https://api.github.com/repos/kamesa7/mineflayer/git/commits{/sha}",
            "git_refs_url": "https://api.github.com/repos/kamesa7/mineflayer/git/refs{/sha}",
            "git_tags_url": "https://api.github.com/repos/kamesa7/mineflayer/git/tags{/sha}",
            "git_url": "git://github.com/kamesa7/mineflayer.git",
            "has_discussions": false,
            "has_downloads": true,
            "has_issues": false,
            "has_pages": false,
            "has_projects": true,
            "has_wiki": true,
            "homepage": "http://mineflayer.prismarine.js.org",
            "hooks_url": "https://api.github.com/repos/kamesa7/mineflayer/hooks",
            "html_url": "https://github.com/kamesa7/mineflayer",
            "id": 208792182,
            "is_template": false,
            "issue_comment_url": "https://api.github.com/repos/kamesa7/mineflayer/issues/comments{/number}",
            "issue_events_url": "https://api.github.com/repos/kamesa7/mineflayer/issues/events{/number}",
            "issues_url": "https://api.github.com/repos/kamesa7/mineflayer/issues{/number}",
            "keys_url": "https://api.github.com/repos/kamesa7/mineflayer/keys{/key_id}",
            "labels_url": "https://api.github.com/repos/kamesa7/mineflayer/labels{/name}",
            "language": "JavaScript",
            "languages_url": "https://api.github.com/repos/kamesa7/mineflayer/languages",
            "license": {
                "key": "mit",
                "name": "MIT License",
                "node_id": "MDc6TGljZW5zZTEz",
                "spdx_id": "MIT",
                "url": "https://api.github.com/licenses/mit"
            },
            "merges_url": "https://api.github.com/repos/kamesa7/mineflayer/merges",
            "milestones_url": "https://api.github.com/repos/kamesa7/mineflayer/milestones{/number}",
            "mirror_url": null,
            "name": "mineflayer",
            "node_id": "MDEwOlJlcG9zaXRvcnkyMDg3OTIxODI=",
            "notifications_url": "https://api.github.com/repos/kamesa7/mineflayer/notifications{?since,all,participating}",
            "open_issues": 0,
            "open_issues_count": 0,
            "owner": {
                "avatar_url": "https://avatars.githubusercontent.com/u/35834522?v=4",
                "events_url": "https://api.github.com/users/kamesa7/events{/privacy}",
                "followers_url": "https://api.github.com/users/kamesa7/followers",
                "following_url": "https://api.github.com/users/kamesa7/following{/other_user}",
                "gists_url": "https://api.github.com/users/kamesa7/gists{/gist_id}",
                "gravatar_id": "",
                "html_url": "https://github.com/kamesa7",
                "id": 35834522,
                "login": "kamesa7",
                "node_id": "MDQ6VXNlcjM1ODM0NTIy",
                "organizations_url": "https://api.github.com/users/kamesa7/orgs",
                "received_events_url": "https://api.github.com/users/kamesa7/received_events",
                "repos_url": "https://api.github.com/users/kamesa7/repos",
                "site_admin": false,
                "starred_url": "https://api.github.com/users/kamesa7/starred{/owner}{/repo}",
                "subscriptions_url": "https://api.github.com/users/kamesa7/subscriptions",
                "type": "User",
                "url": "https://api.github.com/users/kamesa7"
            },
            "private": false,
            "pulls_url": "https://api.github.com/repos/kamesa7/mineflayer/pulls{/number}",
            "pushed_at": "2020-05-07T08:07:16Z",
            "releases_url": "https://api.github.com/repos/kamesa7/mineflayer/releases{/id}",
            "size": 10746,
            "ssh_url": "git@github.com:kamesa7/mineflayer.git",
            "stargazers_count": 0,
            "stargazers_url": "https://api.github.com/repos/kamesa7/mineflayer/stargazers",
            "statuses_url": "https://api.github.com/repos/kamesa7/mineflayer/statuses/{sha}",
            "subscribers_url": "https://api.github.com/repos/kamesa7/mineflayer/subscribers",
            "subscription_url": "https://api.github.com/repos/kamesa7/mineflayer/subscription",
            "svn_url": "https://github.com/kamesa7/mineflayer",
            "tags_url": "https://api.github.com/repos/kamesa7/mineflayer/tags",
            "teams_url": "https://api.github.com/repos/kamesa7/mineflayer/teams",
            "topics": [],
            "trees_url": "https://api.github.com/repos/kamesa7/mineflayer/git/trees{/sha}",
            "updated_at": "2020-04-14T15:43:22Z",
            "url": "https://api.github.com/repos/kamesa7/mineflayer",
            "visibility": "public",
            "watchers": 0,
            "watchers_count": 0,
            "web_commit_signoff_required": false
        },
        "sha": "07096de6b57cff4e121cebbe3e1d950f6b1b3c35",
        "user": {
            "avatar_url": "https://avatars.githubusercontent.com/u/35834522?v=4",
            "events_url": "https://api.github.com/users/kamesa7/events{/privacy}",
            "followers_url": "https://api.github.com/users/kamesa7/followers",
            "following_url": "https://api.github.com/users/kamesa7/following{/other_user}",
            "gists_url": "https://api.github.com/users/kamesa7/gists{/gist_id}",
            "gravatar_id": "",
            "html_url": "https://github.com/kamesa7",
            "id": 35834522,
            "login": "kamesa7",
            "node_id": "MDQ6VXNlcjM1ODM0NTIy",
            "organizations_url": "https://api.github.com/users/kamesa7/orgs",
            "received_events_url": "https://api.github.com/users/kamesa7/received_events",
            "repos_url": "https://api.github.com/users/kamesa7/repos",
            "site_admin": false,
            "starred_url": "https://api.github.com/users/kamesa7/starred{/owner}{/repo}",
            "subscriptions_url": "https://api.github.com/users/kamesa7/subscriptions",
            "type": "User",
            "url": "https://api.github.com/users/kamesa7"
        }
    },
    "html_url": "https://github.com/PrismarineJS/mineflayer/pull/972",
    "id": 414543319,
    "issue_url": "https://api.github.com/repos/PrismarineJS/mineflayer/issues/972",
    "labels": [],
    "locked": false,
    "maintainer_can_modify": false,
    "merge_commit_sha": "245ea91017a7b884853978f03a08a69090738857",
    "mergeable": false,
    "mergeable_state": "dirty",
    "merged": false,
    "merged_at": null,
    "merged_by": null,
    "milestone": null,
    "node_id": "MDExOlB1bGxSZXF1ZXN0NDE0NTQzMzE5",
    "number": 972,
    "patch_url": "https://github.com/PrismarineJS/mineflayer/pull/972.patch",
    "rebaseable": false,
    "requested_reviewers": [],
    "requested_teams": [],
    "review_comment_url": "https://api.github.com/repos/PrismarineJS/mineflayer/pulls/comments{/number}",
    "review_comments": 2,
    "review_comments_url": "https://api.github.com/repos/PrismarineJS/mineflayer/pulls/972/comments",
    "state": "closed",
    "statuses_url": "https://api.github.com/repos/PrismarineJS/mineflayer/statuses/07096de6b57cff4e121cebbe3e1d950f6b1b3c35",
    "title": "just fix entity_teleport for 1.14",
    "updated_at": "2020-05-07T17:08:32Z",
    "url": "https://api.github.com/repos/PrismarineJS/mineflayer/pulls/972",
    "user": {
        "avatar_url": "https://avatars.githubusercontent.com/u/35834522?v=4",
        "events_url": "https://api.github.com/users/kamesa7/events{/privacy}",
        "followers_url": "https://api.github.com/users/kamesa7/followers",
        "following_url": "https://api.github.com/users/kamesa7/following{/other_user}",
        "gists_url": "https://api.github.com/users/kamesa7/gists{/gist_id}",
        "gravatar_id": "",
        "html_url": "https://github.com/kamesa7",
        "id": 35834522,
        "login": "kamesa7",
        "node_id": "MDQ6VXNlcjM1ODM0NTIy",
        "organizations_url": "https://api.github.com/users/kamesa7/orgs",
        "received_events_url": "https://api.github.com/users/kamesa7/received_events",
        "repos_url": "https://api.github.com/users/kamesa7/repos",
        "site_admin": false,
        "starred_url": "https://api.github.com/users/kamesa7/starred{/owner}{/repo}",
        "subscriptions_url": "https://api.github.com/users/kamesa7/subscriptions",
        "type": "User",
        "url": "https://api.github.com/users/kamesa7"
    }
}