{
    "_links": {
        "comments": {
            "href": "https://api.github.com/repos/PrismarineJS/mineflayer/issues/991/comments"
        },
        "commits": {
            "href": "https://api.github.com/repos/PrismarineJS/mineflayer/pulls/991/commits"
        },
        "html": {
            "href": "https://github.com/PrismarineJS/mineflayer/pull/991"
        },
        "issue": {
            "href": "https://api.github.com/repos/PrismarineJS/mineflayer/issues/991"
        },
        "review_comment": {
            "href": "https://api.github.com/repos/PrismarineJS/mineflayer/pulls/comments{/number}"
        },
        "review_comments": {
            "href": "https://api.github.com/repos/PrismarineJS/mineflayer/pulls/991/comments"
        },
        "self": {
            "href": "https://api.github.com/repos/PrismarineJS/mineflayer/pulls/991"
        },
        "statuses": {
            "href": "https://api.github.com/repos/PrismarineJS/mineflayer/statuses/95e4d94b45f2905ff6d5fff56d0bf0d2b4dfe184"
        }
    },
    "active_lock_reason": null,
    "additions": 7,
    "assignee": null,
    "assignees": [],
    "author_association": "MEMBER",
    "auto_merge": null,
    "base": {
        "label": "PrismarineJS:master",
        "ref": "master",
        "repo": {
            "allow_forking": true,
            "archive_url": "https://api.github.com/repos/PrismarineJS/mineflayer/{archive_format}{/ref}",
            "archived": false,
            "assignees_url": "https://api.github.com/repos/PrismarineJS/mineflayer/assignees{/user}",
            "blobs_url": "https://api.github.com/repos/PrismarineJS/mineflayer/git/blobs{/sha}",
            "branches_url": "https://api.github.com/repos/PrismarineJS/mineflayer/branches{/branch}",
            "clone_url": "https://github.com/PrismarineJS/mineflayer.git",
            "collaborators_url": "https://api.github.com/repos/PrismarineJS/mineflayer/collaborators{/collaborator}",
            "comments_url": "https://api.github.com/repos/PrismarineJS/mineflayer/comments{/number}",
            "commits_url": "https://api.github.com/repos/PrismarineJS/mineflayer/commits{/sha}",
            "compare_url": "https://api.github.com/repos/PrismarineJS/mineflayer/compare/{base}...{head}",
            "contents_url": "https://api.github.com/repos/PrismarineJS/mineflayer/contents/{+path}",
            "contributors_url": "https://api.github.com/repos/PrismarineJS/mineflayer/contributors",
            "created_at": "2011-01-23T09:41:55Z",
            "default_branch": "master",
            "deployments_url": "https://api.github.com/repos/PrismarineJS/mineflayer/deployments",
            "description": "Create Minecraft bots with a powerful, stable, and high level JavaScript API.",
            "disabled": false,
            "downloads_url": "https://api.github.com/repos/PrismarineJS/mineflayer/downloads",
            "events_url": "https://api.github.com/repos/PrismarineJS/mineflayer/events",
            "fork": false,
            "forks": 748,
            "forks_count": 748,
            "forks_url": "https://api.github.com/repos/PrismarineJS/mineflayer/forks",
            "full_name": "PrismarineJS/mineflayer",
            "git_commits_url": "https://api.github.com/repos/PrismarineJS/mineflayer/git/commits{/sha}",
            "git_refs_url": "https://api.github.com/repos/PrismarineJS/mineflayer/git/refs{/sha}",
            "git_tags_url": "https://api.github.com/repos/PrismarineJS/mineflayer/git/tags{/sha}",
            "git_url": "git://github.com/PrismarineJS/mineflayer.git",
            "has_discussions": true,
            "has_downloads": true,
            "has_issues": true,
            "has_pages": true,
            "has_projects": true,
            "has_wiki": true,
            "homepage": "https://prismarinejs.github.io/mineflayer/",
            "hooks_url": "https://api.github.com/repos/PrismarineJS/mineflayer/hooks",
            "html_url": "https://github.com/PrismarineJS/mineflayer",
            "id": 1284185,
            "is_template": false,
            "issue_comment_url": "https://api.github.com/repos/PrismarineJS/mineflayer/issues/comments{/number}",
            "issue_events_url": "https://api.github.com/repos/PrismarineJS/mineflayer/issues/events{/number}",
            "issues_url": "https://api.github.com/repos/PrismarineJS/mineflayer/issues{/number}",
            "keys_url": "https://api.github.com/repos/PrismarineJS/mineflayer/keys{/key_id}",
            "labels_url": "https://api.github.com/repos/PrismarineJS/mineflayer/labels{/name}",
            "language": "JavaScript",
            "languages_url": "https://api.github.com/repos/PrismarineJS/mineflayer/languages",
            "license": {
                "key": "mit",
                "name": "MIT License",
                "node_id": "MDc6TGljZW5zZTEz",
                "spdx_id": "MIT",
                "url": "https://api.github.com/licenses/mit"
            },
            "merges_url": "https://api.github.com/repos/PrismarineJS/mineflayer/merges",
            "milestones_url": "https://api.github.com/repos/PrismarineJS/mineflayer/milestones{/number}",
            "mirror_url": null,
            "name": "mineflayer",
            "node_id": "MDEwOlJlcG9zaXRvcnkxMjg0MTg1",
            "notifications_url": "https://api.github.com/repos/PrismarineJS/mineflayer/notifications{?since,all,participating}",
            "open_issues": 269,
            "open_issues_count": 269,
            "owner": {
                "avatar_url": "https://avatars.githubusercontent.com/u/11053411?v=4",
                "events_url": "https://api.github.com/users/PrismarineJS/events{/privacy}",
                "followers_url": "https://api.github.com/users/PrismarineJS/followers",
                "following_url": "https://api.github.com/users/PrismarineJS/following{/other_user}",
                "gists_url": "https://api.github.com/users/PrismarineJS/gists{/gist_id}",
                "gravatar_id": "",
                "html_url": "https://github.com/PrismarineJS",
                "id": 11053411,
                "login": "PrismarineJS",
                "node_id": "MDEyOk9yZ2FuaXphdGlvbjExMDUzNDEx",
                "organizations_url": "https://api.github.com/users/PrismarineJS/orgs",
                "received_events_url": "https://api.github.com/users/PrismarineJS/received_events",
                "repos_url": "https://api.github.com/users/PrismarineJS/repos",
                "site_admin": false,
                "starred_url": "https://api.github.com/users/PrismarineJS/starred{/owner}{/repo}",
                "subscriptions_url": "https://api.github.com/users/PrismarineJS/subscriptions",
                "type": "Organization",
                "url": "https://api.github.com/users/PrismarineJS"
            },
            "private": false,
            "pulls_url": "https://api.github.com/repos/PrismarineJS/mineflayer/pulls{/number}",
            "pushed_at": "2023-04-25T00:44:52Z",
            "releases_url": "https://api.github.com/repos/PrismarineJS/mineflayer/releases{/id}",
            "size": 12493,
            "ssh_url": "git@github.com:PrismarineJS/mineflayer.git",
            "stargazers_count": 3698,
            "stargazers_url": "https://api.github.com/repos/PrismarineJS/mineflayer/stargazers",
            "statuses_url": "https://api.github.com/repos/PrismarineJS/mineflayer/statuses/{sha}",
            "subscribers_url": "https://api.github.com/repos/PrismarineJS/mineflayer/subscribers",
            "subscription_url": "https://api.github.com/repos/PrismarineJS/mineflayer/subscription",
            "svn_url": "https://github.com/PrismarineJS/mineflayer",
            "tags_url": "https://api.github.com/repos/PrismarineJS/mineflayer/tags",
            "teams_url": "https://api.github.com/repos/PrismarineJS/mineflayer/teams",
            "topics": [
                "bot",
                "minecraft",
                "minecraft-api",
                "minecraft-bot",
                "network",
                "nodejs"
            ],
            "trees_url": "https://api.github.com/repos/PrismarineJS/mineflayer/git/trees{/sha}",
            "updated_at": "2023-04-25T14:07:03Z",
            "url": "https://api.github.com/repos/PrismarineJS/mineflayer",
            "visibility": "public",
            "watchers": 3698,
            "watchers_count": 3698,
            "web_commit_signoff_required": false
        },
        "sha": "da3b8def52ba504e2d8b86e24e6117894b9e23b6",
        "user": {
            "avatar_url": "https://avatars.githubusercontent.com/u/11053411?v=4",
            "events_url": "https://api.github.com/users/PrismarineJS/events{/privacy}",
            "followers_url": "https://api.github.com/users/PrismarineJS/followers",
            "following_url": "https://api.github.com/users/PrismarineJS/following{/other_user}",
            "gists_url": "https://api.github.com/users/PrismarineJS/gists{/gist_id}",
            "gravatar_id": "",
            "html_url": "https://github.com/PrismarineJS",
            "id": 11053411,
            "login": "PrismarineJS",
            "node_id": "MDEyOk9yZ2FuaXphdGlvbjExMDUzNDEx",
            "organizations_url": "https://api.github.com/users/PrismarineJS/orgs",
            "received_events_url": "https://api.github.com/users/PrismarineJS/received_events",
            "repos_url": "https://api.github.com/users/PrismarineJS/repos",
            "site_admin": false,
            "starred_url": "https://api.github.com/users/PrismarineJS/starred{/owner}{/repo}",
            "subscriptions_url": "https://api.github.com/users/PrismarineJS/subscriptions",
            "type": "Organization",
            "url": "https://api.github.com/users/PrismarineJS"
        }
    },
    "body": "Info about testing specific version/test",
    "changed_files": 1,
    "closed_at": "2020-05-11T17:16:53Z",
    "comment_data": [],
    "comment_regular_data": [],
    "comments": 0,
    "comments_url": "https://api.github.com/repos/PrismarineJS/mineflayer/issues/991/comments",
    "commit_data": [
        {
            "author": {
                "avatar_url": "https://avatars.githubusercontent.com/u/13330620?v=4",
                "events_url": "https://api.github.com/users/wvffle/events{/privacy}",
                "followers_url": "https://api.github.com/users/wvffle/followers",
                "following_url": "https://api.github.com/users/wvffle/following{/other_user}",
                "gists_url": "https://api.github.com/users/wvffle/gists{/gist_id}",
                "gravatar_id": "",
                "html_url": "https://github.com/wvffle",
                "id": 13330620,
                "login": "wvffle",
                "node_id": "MDQ6VXNlcjEzMzMwNjIw",
                "organizations_url": "https://api.github.com/users/wvffle/orgs",
                "received_events_url": "https://api.github.com/users/wvffle/received_events",
                "repos_url": "https://api.github.com/users/wvffle/repos",
                "site_admin": false,
                "starred_url": "https://api.github.com/users/wvffle/starred{/owner}{/repo}",
                "subscriptions_url": "https://api.github.com/users/wvffle/subscriptions",
                "type": "User",
                "url": "https://api.github.com/users/wvffle"
            },
            "comments_url": "https://api.github.com/repos/PrismarineJS/mineflayer/commits/95e4d94b45f2905ff6d5fff56d0bf0d2b4dfe184/comments",
            "commit": {
                "author": {
                    "date": "2020-05-11T16:20:46Z",
                    "email": "github@wvffle.net",
                    "name": "Kasper Seweryn"
                },
                "comment_count": 0,
                "committer": {
                    "date": "2020-05-11T16:20:46Z",
                    "email": "noreply@github.com",
                    "name": "GitHub"
                },
                "message": "Add more testing info",
                "tree": {
                    "sha": "b722b6635efce10571ab08544791e8b464944525",
                    "url": "https://api.github.com/repos/PrismarineJS/mineflayer/git/trees/b722b6635efce10571ab08544791e8b464944525"
                },
                "url": "https://api.github.com/repos/PrismarineJS/mineflayer/git/commits/95e4d94b45f2905ff6d5fff56d0bf0d2b4dfe184",
                "verification": {
                    "payload": "tree b722b6635efce10571ab08544791e8b464944525\nparent da3b8def52ba504e2d8b86e24e6117894b9e23b6\nauthor Kasper Seweryn <github@wvffle.net> 1589214046 +0000\ncommitter GitHub <noreply@github.com> 1589214046 +0000\n\nAdd more testing info",
                    "reason": "valid",
                    "signature": "-----BEGIN PGP SIGNATURE-----\n\nwsBcBAABCAAQBQJeuXteCRBK7hj4Ov3rIwAAdHIIAAhs3xpFH7axr4m+akJUGR9O\nVaFMAWvtCOyRTK7C6GLyha6EZTThlLkKTpgsq/lAv2xpmVbVJD2jF8sROwrm//1k\niqJlm9Mgvb+k8ulMLm1OIYCHv/06kYvLXyffmBSGZwF5ob0D0ABpLRAWebU/NKTJ\nzzUiENFskBWCIb+jzxU82i8wPT8MN/EY3Zvg6Vy5oab2yMBg9pNdPx6FqgIMkF+d\n9/4WLDOfa58S8IZdccfNnL9/vICTXomK0ag/Isuetq9gGwAkk+M++hAWIIt+2ZYX\nDAO3WWepZ3xAv7Qk8VSTjoGCRrNsi91MR1Q3f+/+o+9dzIm7aXis5cQnajWlzek=\n=DiAx\n-----END PGP SIGNATURE-----\n",
                    "verified": true
                }
            },
            "committer": {
                "avatar_url": "https://avatars.githubusercontent.com/u/19864447?v=4",
                "events_url": "https://api.github.com/users/web-flow/events{/privacy}",
                "followers_url": "https://api.github.com/users/web-flow/followers",
                "following_url": "https://api.github.com/users/web-flow/following{/other_user}",
                "gists_url": "https://api.github.com/users/web-flow/gists{/gist_id}",
                "gravatar_id": "",
                "html_url": "https://github.com/web-flow",
                "id": 19864447,
                "login": "web-flow",
                "node_id": "MDQ6VXNlcjE5ODY0NDQ3",
                "organizations_url": "https://api.github.com/users/web-flow/orgs",
                "received_events_url": "https://api.github.com/users/web-flow/received_events",
                "repos_url": "https://api.github.com/users/web-flow/repos",
                "site_admin": false,
                "starred_url": "https://api.github.com/users/web-flow/starred{/owner}{/repo}",
                "subscriptions_url": "https://api.github.com/users/web-flow/subscriptions",
                "type": "User",
                "url": "https://api.github.com/users/web-flow"
            },
            "html_url": "https://github.com/PrismarineJS/mineflayer/commit/95e4d94b45f2905ff6d5fff56d0bf0d2b4dfe184",
            "node_id": "MDY6Q29tbWl0MTI4NDE4NTo5NWU0ZDk0YjQ1ZjI5MDVmZjZkNWZmZjU2ZDBiZjBkMmI0ZGZlMTg0",
            "parents": [
                {
                    "html_url": "https://github.com/PrismarineJS/mineflayer/commit/da3b8def52ba504e2d8b86e24e6117894b9e23b6",
                    "sha": "da3b8def52ba504e2d8b86e24e6117894b9e23b6",
                    "url": "https://api.github.com/repos/PrismarineJS/mineflayer/commits/da3b8def52ba504e2d8b86e24e6117894b9e23b6"
                }
            ],
            "sha": "95e4d94b45f2905ff6d5fff56d0bf0d2b4dfe184",
            "url": "https://api.github.com/repos/PrismarineJS/mineflayer/commits/95e4d94b45f2905ff6d5fff56d0bf0d2b4dfe184"
        }
    ],
    "commits": 1,
    "commits_url": "https://api.github.com/repos/PrismarineJS/mineflayer/pulls/991/commits",
    "created_at": "2020-05-11T16:21:22Z",
    "deletions": 1,
    "diff_url": "https://github.com/PrismarineJS/mineflayer/pull/991.diff",
    "draft": false,
    "head": {
        "label": "PrismarineJS:wvffle/readme-testing",
        "ref": "wvffle/readme-testing",
        "repo": {
            "allow_forking": true,
            "archive_url": "https://api.github.com/repos/PrismarineJS/mineflayer/{archive_format}{/ref}",
            "archived": false,
            "assignees_url": "https://api.github.com/repos/PrismarineJS/mineflayer/assignees{/user}",
            "blobs_url": "https://api.github.com/repos/PrismarineJS/mineflayer/git/blobs{/sha}",
            "branches_url": "https://api.github.com/repos/PrismarineJS/mineflayer/branches{/branch}",
            "clone_url": "https://github.com/PrismarineJS/mineflayer.git",
            "collaborators_url": "https://api.github.com/repos/PrismarineJS/mineflayer/collaborators{/collaborator}",
            "comments_url": "https://api.github.com/repos/PrismarineJS/mineflayer/comments{/number}",
            "commits_url": "https://api.github.com/repos/PrismarineJS/mineflayer/commits{/sha}",
            "compare_url": "https://api.github.com/repos/PrismarineJS/mineflayer/compare/{base}...{head}",
            "contents_url": "https://api.github.com/repos/PrismarineJS/mineflayer/contents/{+path}",
            "contributors_url": "https://api.github.com/repos/PrismarineJS/mineflayer/contributors",
            "created_at": "2011-01-23T09:41:55Z",
            "default_branch": "master",
            "deployments_url": "https://api.github.com/repos/PrismarineJS/mineflayer/deployments",
            "description": "Create Minecraft bots with a powerful, stable, and high level JavaScript API.",
            "disabled": false,
            "downloads_url": "https://api.github.com/repos/PrismarineJS/mineflayer/downloads",
            "events_url": "https://api.github.com/repos/PrismarineJS/mineflayer/events",
            "fork": false,
            "forks": 748,
            "forks_count": 748,
            "forks_url": "https://api.github.com/repos/PrismarineJS/mineflayer/forks",
            "full_name": "PrismarineJS/mineflayer",
            "git_commits_url": "https://api.github.com/repos/PrismarineJS/mineflayer/git/commits{/sha}",
            "git_refs_url": "https://api.github.com/repos/PrismarineJS/mineflayer/git/refs{/sha}",
            "git_tags_url": "https://api.github.com/repos/PrismarineJS/mineflayer/git/tags{/sha}",
            "git_url": "git://github.com/PrismarineJS/mineflayer.git",
            "has_discussions": true,
            "has_downloads": true,
            "has_issues": true,
            "has_pages": true,
            "has_projects": true,
            "has_wiki": true,
            "homepage": "https://prismarinejs.github.io/mineflayer/",
            "hooks_url": "https://api.github.com/repos/PrismarineJS/mineflayer/hooks",
            "html_url": "https://github.com/PrismarineJS/mineflayer",
            "id": 1284185,
            "is_template": false,
            "issue_comment_url": "https://api.github.com/repos/PrismarineJS/mineflayer/issues/comments{/number}",
            "issue_events_url": "https://api.github.com/repos/PrismarineJS/mineflayer/issues/events{/number}",
            "issues_url": "https://api.github.com/repos/PrismarineJS/mineflayer/issues{/number}",
            "keys_url": "https://api.github.com/repos/PrismarineJS/mineflayer/keys{/key_id}",
            "labels_url": "https://api.github.com/repos/PrismarineJS/mineflayer/labels{/name}",
            "language": "JavaScript",
            "languages_url": "https://api.github.com/repos/PrismarineJS/mineflayer/languages",
            "license": {
                "key": "mit",
                "name": "MIT License",
                "node_id": "MDc6TGljZW5zZTEz",
                "spdx_id": "MIT",
                "url": "https://api.github.com/licenses/mit"
            },
            "merges_url": "https://api.github.com/repos/PrismarineJS/mineflayer/merges",
            "milestones_url": "https://api.github.com/repos/PrismarineJS/mineflayer/milestones{/number}",
            "mirror_url": null,
            "name": "mineflayer",
            "node_id": "MDEwOlJlcG9zaXRvcnkxMjg0MTg1",
            "notifications_url": "https://api.github.com/repos/PrismarineJS/mineflayer/notifications{?since,all,participating}",
            "open_issues": 269,
            "open_issues_count": 269,
            "owner": {
                "avatar_url": "https://avatars.githubusercontent.com/u/11053411?v=4",
                "events_url": "https://api.github.com/users/PrismarineJS/events{/privacy}",
                "followers_url": "https://api.github.com/users/PrismarineJS/followers",
                "following_url": "https://api.github.com/users/PrismarineJS/following{/other_user}",
                "gists_url": "https://api.github.com/users/PrismarineJS/gists{/gist_id}",
                "gravatar_id": "",
                "html_url": "https://github.com/PrismarineJS",
                "id": 11053411,
                "login": "PrismarineJS",
                "node_id": "MDEyOk9yZ2FuaXphdGlvbjExMDUzNDEx",
                "organizations_url": "https://api.github.com/users/PrismarineJS/orgs",
                "received_events_url": "https://api.github.com/users/PrismarineJS/received_events",
                "repos_url": "https://api.github.com/users/PrismarineJS/repos",
                "site_admin": false,
                "starred_url": "https://api.github.com/users/PrismarineJS/starred{/owner}{/repo}",
                "subscriptions_url": "https://api.github.com/users/PrismarineJS/subscriptions",
                "type": "Organization",
                "url": "https://api.github.com/users/PrismarineJS"
            },
            "private": false,
            "pulls_url": "https://api.github.com/repos/PrismarineJS/mineflayer/pulls{/number}",
            "pushed_at": "2023-04-25T00:44:52Z",
            "releases_url": "https://api.github.com/repos/PrismarineJS/mineflayer/releases{/id}",
            "size": 12493,
            "ssh_url": "git@github.com:PrismarineJS/mineflayer.git",
            "stargazers_count": 3698,
            "stargazers_url": "https://api.github.com/repos/PrismarineJS/mineflayer/stargazers",
            "statuses_url": "https://api.github.com/repos/PrismarineJS/mineflayer/statuses/{sha}",
            "subscribers_url": "https://api.github.com/repos/PrismarineJS/mineflayer/subscribers",
            "subscription_url": "https://api.github.com/repos/PrismarineJS/mineflayer/subscription",
            "svn_url": "https://github.com/PrismarineJS/mineflayer",
            "tags_url": "https://api.github.com/repos/PrismarineJS/mineflayer/tags",
            "teams_url": "https://api.github.com/repos/PrismarineJS/mineflayer/teams",
            "topics": [
                "bot",
                "minecraft",
                "minecraft-api",
                "minecraft-bot",
                "network",
                "nodejs"
            ],
            "trees_url": "https://api.github.com/repos/PrismarineJS/mineflayer/git/trees{/sha}",
            "updated_at": "2023-04-25T14:07:03Z",
            "url": "https://api.github.com/repos/PrismarineJS/mineflayer",
            "visibility": "public",
            "watchers": 3698,
            "watchers_count": 3698,
            "web_commit_signoff_required": false
        },
        "sha": "95e4d94b45f2905ff6d5fff56d0bf0d2b4dfe184",
        "user": {
            "avatar_url": "https://avatars.githubusercontent.com/u/11053411?v=4",
            "events_url": "https://api.github.com/users/PrismarineJS/events{/privacy}",
            "followers_url": "https://api.github.com/users/PrismarineJS/followers",
            "following_url": "https://api.github.com/users/PrismarineJS/following{/other_user}",
            "gists_url": "https://api.github.com/users/PrismarineJS/gists{/gist_id}",
            "gravatar_id": "",
            "html_url": "https://github.com/PrismarineJS",
            "id": 11053411,
            "login": "PrismarineJS",
            "node_id": "MDEyOk9yZ2FuaXphdGlvbjExMDUzNDEx",
            "organizations_url": "https://api.github.com/users/PrismarineJS/orgs",
            "received_events_url": "https://api.github.com/users/PrismarineJS/received_events",
            "repos_url": "https://api.github.com/users/PrismarineJS/repos",
            "site_admin": false,
            "starred_url": "https://api.github.com/users/PrismarineJS/starred{/owner}{/repo}",
            "subscriptions_url": "https://api.github.com/users/PrismarineJS/subscriptions",
            "type": "Organization",
            "url": "https://api.github.com/users/PrismarineJS"
        }
    },
    "html_url": "https://github.com/PrismarineJS/mineflayer/pull/991",
    "id": 416207746,
    "issue_url": "https://api.github.com/repos/PrismarineJS/mineflayer/issues/991",
    "labels": [
        {
            "color": "d4c5f9",
            "default": true,
            "description": null,
            "id": 194380998,
            "name": "documentation",
            "node_id": "MDU6TGFiZWwxOTQzODA5OTg=",
            "url": "https://api.github.com/repos/PrismarineJS/mineflayer/labels/documentation"
        }
    ],
    "locked": false,
    "maintainer_can_modify": false,
    "merge_commit_sha": "4fdde4e15bac5cf22d888aabe9b20cd13f33a871",
    "mergeable": null,
    "mergeable_state": "unknown",
    "merged": true,
    "merged_at": "2020-05-11T17:16:53Z",
    "merged_by": {
        "avatar_url": "https://avatars.githubusercontent.com/u/2346494?v=4",
        "events_url": "https://api.github.com/users/rom1504/events{/privacy}",
        "followers_url": "https://api.github.com/users/rom1504/followers",
        "following_url": "https://api.github.com/users/rom1504/following{/other_user}",
        "gists_url": "https://api.github.com/users/rom1504/gists{/gist_id}",
        "gravatar_id": "",
        "html_url": "https://github.com/rom1504",
        "id": 2346494,
        "login": "rom1504",
        "node_id": "MDQ6VXNlcjIzNDY0OTQ=",
        "organizations_url": "https://api.github.com/users/rom1504/orgs",
        "received_events_url": "https://api.github.com/users/rom1504/received_events",
        "repos_url": "https://api.github.com/users/rom1504/repos",
        "site_admin": false,
        "starred_url": "https://api.github.com/users/rom1504/starred{/owner}{/repo}",
        "subscriptions_url": "https://api.github.com/users/rom1504/subscriptions",
        "type": "User",
        "url": "https://api.github.com/users/rom1504"
    },
    "milestone": null,
    "node_id": "MDExOlB1bGxSZXF1ZXN0NDE2MjA3NzQ2",
    "number": 991,
    "patch_url": "https://github.com/PrismarineJS/mineflayer/pull/991.patch",
    "rebaseable": null,
    "requested_reviewers": [],
    "requested_teams": [],
    "review_comment_url": "https://api.github.com/repos/PrismarineJS/mineflayer/pulls/comments{/number}",
    "review_comments": 0,
    "review_comments_url": "https://api.github.com/repos/PrismarineJS/mineflayer/pulls/991/comments",
    "state": "closed",
    "statuses_url": "https://api.github.com/repos/PrismarineJS/mineflayer/statuses/95e4d94b45f2905ff6d5fff56d0bf0d2b4dfe184",
    "title": "Add more testing info",
    "updated_at": "2020-05-30T21:15:50Z",
    "url": "https://api.github.com/repos/PrismarineJS/mineflayer/pulls/991",
    "user": {
        "avatar_url": "https://avatars.githubusercontent.com/u/13330620?v=4",
        "events_url": "https://api.github.com/users/wvffle/events{/privacy}",
        "followers_url": "https://api.github.com/users/wvffle/followers",
        "following_url": "https://api.github.com/users/wvffle/following{/other_user}",
        "gists_url": "https://api.github.com/users/wvffle/gists{/gist_id}",
        "gravatar_id": "",
        "html_url": "https://github.com/wvffle",
        "id": 13330620,
        "login": "wvffle",
        "node_id": "MDQ6VXNlcjEzMzMwNjIw",
        "organizations_url": "https://api.github.com/users/wvffle/orgs",
        "received_events_url": "https://api.github.com/users/wvffle/received_events",
        "repos_url": "https://api.github.com/users/wvffle/repos",
        "site_admin": false,
        "starred_url": "https://api.github.com/users/wvffle/starred{/owner}{/repo}",
        "subscriptions_url": "https://api.github.com/users/wvffle/subscriptions",
        "type": "User",
        "url": "https://api.github.com/users/wvffle"
    }
}