{
    "_links": {
        "comments": {
            "href": "https://api.github.com/repos/PrismarineJS/flying-squid/issues/195/comments"
        },
        "commits": {
            "href": "https://api.github.com/repos/PrismarineJS/flying-squid/pulls/195/commits"
        },
        "html": {
            "href": "https://github.com/PrismarineJS/flying-squid/pull/195"
        },
        "issue": {
            "href": "https://api.github.com/repos/PrismarineJS/flying-squid/issues/195"
        },
        "review_comment": {
            "href": "https://api.github.com/repos/PrismarineJS/flying-squid/pulls/comments{/number}"
        },
        "review_comments": {
            "href": "https://api.github.com/repos/PrismarineJS/flying-squid/pulls/195/comments"
        },
        "self": {
            "href": "https://api.github.com/repos/PrismarineJS/flying-squid/pulls/195"
        },
        "statuses": {
            "href": "https://api.github.com/repos/PrismarineJS/flying-squid/statuses/ef41a04efb9da1528ac51a589477c92a8e90cd57"
        }
    },
    "active_lock_reason": null,
    "additions": 1,
    "assignee": null,
    "assignees": [],
    "author_association": "CONTRIBUTOR",
    "auto_merge": null,
    "base": {
        "label": "PrismarineJS:master",
        "ref": "master",
        "repo": {
            "allow_forking": true,
            "archive_url": "https://api.github.com/repos/PrismarineJS/flying-squid/{archive_format}{/ref}",
            "archived": false,
            "assignees_url": "https://api.github.com/repos/PrismarineJS/flying-squid/assignees{/user}",
            "blobs_url": "https://api.github.com/repos/PrismarineJS/flying-squid/git/blobs{/sha}",
            "branches_url": "https://api.github.com/repos/PrismarineJS/flying-squid/branches{/branch}",
            "clone_url": "https://github.com/PrismarineJS/flying-squid.git",
            "collaborators_url": "https://api.github.com/repos/PrismarineJS/flying-squid/collaborators{/collaborator}",
            "comments_url": "https://api.github.com/repos/PrismarineJS/flying-squid/comments{/number}",
            "commits_url": "https://api.github.com/repos/PrismarineJS/flying-squid/commits{/sha}",
            "compare_url": "https://api.github.com/repos/PrismarineJS/flying-squid/compare/{base}...{head}",
            "contents_url": "https://api.github.com/repos/PrismarineJS/flying-squid/contents/{+path}",
            "contributors_url": "https://api.github.com/repos/PrismarineJS/flying-squid/contributors",
            "created_at": "2015-08-25T23:30:19Z",
            "default_branch": "master",
            "deployments_url": "https://api.github.com/repos/PrismarineJS/flying-squid/deployments",
            "description": "Create Minecraft servers with a powerful, stable, and high level JavaScript API.",
            "disabled": false,
            "downloads_url": "https://api.github.com/repos/PrismarineJS/flying-squid/downloads",
            "events_url": "https://api.github.com/repos/PrismarineJS/flying-squid/events",
            "fork": false,
            "forks": 86,
            "forks_count": 86,
            "forks_url": "https://api.github.com/repos/PrismarineJS/flying-squid/forks",
            "full_name": "PrismarineJS/flying-squid",
            "git_commits_url": "https://api.github.com/repos/PrismarineJS/flying-squid/git/commits{/sha}",
            "git_refs_url": "https://api.github.com/repos/PrismarineJS/flying-squid/git/refs{/sha}",
            "git_tags_url": "https://api.github.com/repos/PrismarineJS/flying-squid/git/tags{/sha}",
            "git_url": "git://github.com/PrismarineJS/flying-squid.git",
            "has_discussions": false,
            "has_downloads": true,
            "has_issues": true,
            "has_pages": true,
            "has_projects": true,
            "has_wiki": true,
            "homepage": "https://prismarinejs.github.io/flying-squid/",
            "hooks_url": "https://api.github.com/repos/PrismarineJS/flying-squid/hooks",
            "html_url": "https://github.com/PrismarineJS/flying-squid",
            "id": 41393164,
            "is_template": false,
            "issue_comment_url": "https://api.github.com/repos/PrismarineJS/flying-squid/issues/comments{/number}",
            "issue_events_url": "https://api.github.com/repos/PrismarineJS/flying-squid/issues/events{/number}",
            "issues_url": "https://api.github.com/repos/PrismarineJS/flying-squid/issues{/number}",
            "keys_url": "https://api.github.com/repos/PrismarineJS/flying-squid/keys{/key_id}",
            "labels_url": "https://api.github.com/repos/PrismarineJS/flying-squid/labels{/name}",
            "language": "JavaScript",
            "languages_url": "https://api.github.com/repos/PrismarineJS/flying-squid/languages",
            "license": {
                "key": "mit",
                "name": "MIT License",
                "node_id": "MDc6TGljZW5zZTEz",
                "spdx_id": "MIT",
                "url": "https://api.github.com/licenses/mit"
            },
            "merges_url": "https://api.github.com/repos/PrismarineJS/flying-squid/merges",
            "milestones_url": "https://api.github.com/repos/PrismarineJS/flying-squid/milestones{/number}",
            "mirror_url": null,
            "name": "flying-squid",
            "node_id": "MDEwOlJlcG9zaXRvcnk0MTM5MzE2NA==",
            "notifications_url": "https://api.github.com/repos/PrismarineJS/flying-squid/notifications{?since,all,participating}",
            "open_issues": 105,
            "open_issues_count": 105,
            "owner": {
                "avatar_url": "https://avatars.githubusercontent.com/u/11053411?v=4",
                "events_url": "https://api.github.com/users/PrismarineJS/events{/privacy}",
                "followers_url": "https://api.github.com/users/PrismarineJS/followers",
                "following_url": "https://api.github.com/users/PrismarineJS/following{/other_user}",
                "gists_url": "https://api.github.com/users/PrismarineJS/gists{/gist_id}",
                "gravatar_id": "",
                "html_url": "https://github.com/PrismarineJS",
                "id": 11053411,
                "login": "PrismarineJS",
                "node_id": "MDEyOk9yZ2FuaXphdGlvbjExMDUzNDEx",
                "organizations_url": "https://api.github.com/users/PrismarineJS/orgs",
                "received_events_url": "https://api.github.com/users/PrismarineJS/received_events",
                "repos_url": "https://api.github.com/users/PrismarineJS/repos",
                "site_admin": false,
                "starred_url": "https://api.github.com/users/PrismarineJS/starred{/owner}{/repo}",
                "subscriptions_url": "https://api.github.com/users/PrismarineJS/subscriptions",
                "type": "Organization",
                "url": "https://api.github.com/users/PrismarineJS"
            },
            "private": false,
            "pulls_url": "https://api.github.com/repos/PrismarineJS/flying-squid/pulls{/number}",
            "pushed_at": "2023-04-25T07:58:15Z",
            "releases_url": "https://api.github.com/repos/PrismarineJS/flying-squid/releases{/id}",
            "size": 1044,
            "ssh_url": "git@github.com:PrismarineJS/flying-squid.git",
            "stargazers_count": 471,
            "stargazers_url": "https://api.github.com/repos/PrismarineJS/flying-squid/stargazers",
            "statuses_url": "https://api.github.com/repos/PrismarineJS/flying-squid/statuses/{sha}",
            "subscribers_url": "https://api.github.com/repos/PrismarineJS/flying-squid/subscribers",
            "subscription_url": "https://api.github.com/repos/PrismarineJS/flying-squid/subscription",
            "svn_url": "https://github.com/PrismarineJS/flying-squid",
            "tags_url": "https://api.github.com/repos/PrismarineJS/flying-squid/tags",
            "teams_url": "https://api.github.com/repos/PrismarineJS/flying-squid/teams",
            "topics": [
                "game",
                "minecraft",
                "minecraft-server",
                "protocol",
                "server",
                "voxel"
            ],
            "trees_url": "https://api.github.com/repos/PrismarineJS/flying-squid/git/trees{/sha}",
            "updated_at": "2023-04-20T15:15:59Z",
            "url": "https://api.github.com/repos/PrismarineJS/flying-squid",
            "visibility": "public",
            "watchers": 471,
            "watchers_count": 471,
            "web_commit_signoff_required": false
        },
        "sha": "ff0e7e7786101059221c08fba81aec4e7aef82b2",
        "user": {
            "avatar_url": "https://avatars.githubusercontent.com/u/11053411?v=4",
            "events_url": "https://api.github.com/users/PrismarineJS/events{/privacy}",
            "followers_url": "https://api.github.com/users/PrismarineJS/followers",
            "following_url": "https://api.github.com/users/PrismarineJS/following{/other_user}",
            "gists_url": "https://api.github.com/users/PrismarineJS/gists{/gist_id}",
            "gravatar_id": "",
            "html_url": "https://github.com/PrismarineJS",
            "id": 11053411,
            "login": "PrismarineJS",
            "node_id": "MDEyOk9yZ2FuaXphdGlvbjExMDUzNDEx",
            "organizations_url": "https://api.github.com/users/PrismarineJS/orgs",
            "received_events_url": "https://api.github.com/users/PrismarineJS/received_events",
            "repos_url": "https://api.github.com/users/PrismarineJS/repos",
            "site_admin": false,
            "starred_url": "https://api.github.com/users/PrismarineJS/starred{/owner}{/repo}",
            "subscriptions_url": "https://api.github.com/users/PrismarineJS/subscriptions",
            "type": "Organization",
            "url": "https://api.github.com/users/PrismarineJS"
        }
    },
    "body": "Hello :wave:\n\n:rocket::rocket::rocket:\n\n[minecraft-data](https://www.npmjs.com/package/minecraft-data) just published its new version 0.20.2, which **is not covered by your current version range**.\n\nIf this pull request passes your tests you can publish your software with the latest version of minecraft-data – otherwise use this branch to work on adaptions and fixes.\n\nHappy fixing and merging :palm_tree:\n\n---\n\nThe new version differs by 12 commits .\n- [`731f1e5`](https://github.com/PrismarineJS/node-minecraft-data/commit/731f1e5d2720361de274dbbce0bb114b274aee6a) `Release 0.20.2`\n- [`2a061be`](https://github.com/PrismarineJS/node-minecraft-data/commit/2a061be0ea5dcde55927e24074bf90ef26cfce0d) `update minecraft-data : a fix in the key of 1.7 protocol`\n- [`2d4406c`](https://github.com/PrismarineJS/node-minecraft-data/commit/2d4406c4dc2c422bbd56f5733121f4652c258efe) `Release 0.20.1`\n- [`c7e05ec`](https://github.com/PrismarineJS/node-minecraft-data/commit/c7e05ec1c42dbbeb09aa4d2e0cc74aaf226003e8) `Release 0.20.0`\n- [`8ba3ce5`](https://github.com/PrismarineJS/node-minecraft-data/commit/8ba3ce5bbc9dee928f689c0f8d7dc50c101a0ffa) `Merge pull request #18 from deathcap/loadver`\n- [`22f1f12`](https://github.com/PrismarineJS/node-minecraft-data/commit/22f1f1267e46d1fc5a9d67b0eb70148a52ad146d) `Merge pull request #19 from deathcap/mc17`\n- [`b5ff0e6`](https://github.com/PrismarineJS/node-minecraft-data/commit/b5ff0e68f3d0f8378ad034861189cd2f3f5f0ad9) `Add 1.7 data`\n- [`25e35e2`](https://github.com/PrismarineJS/node-minecraft-data/commit/25e35e27014f70410b8d0efa261b0cdb10b90bed) `Add 1.7 protocol support`\n- [`50e900b`](https://github.com/PrismarineJS/node-minecraft-data/commit/50e900bd31ba83d0f9574a353e5dc20483b4c633) `Fix loading data by protocol version (1.9 snapshots ambiguity)`\n- [`c4acd0a`](https://github.com/PrismarineJS/node-minecraft-data/commit/c4acd0acf944da2e0b7034c7d575667a5652d597) `Merge pull request #17 from deathcap/15w40b`\n- [`2371b39`](https://github.com/PrismarineJS/node-minecraft-data/commit/2371b397517cc6b30bc1495a4def0b5a8ed4ea9a) `Update minecraft-data submodule for 15w40b`\n- [`f1d1992`](https://github.com/PrismarineJS/node-minecraft-data/commit/f1d19921637b814042db021012f52095a1b0d8a1) `Restore support for 15w40b`\n\nSee the [full diff](https://github.com/PrismarineJS/node-minecraft-data/compare/3050ed43178cfc6972d6fe12f067981ba82a137a...731f1e5d2720361de274dbbce0bb114b274aee6a).\n\n---\n\nThis pull request was created by [greenkeeper.io](http://greenkeeper.io/).\nIt keeps your software, up to date, all the time.\n\n<sub>\nTired of seeing this sponsor message? Upgrade to the supporter plan!\nYou'll also get your pull requests faster :zap:\n</sub>\n",
    "changed_files": 1,
    "closed_at": "2016-02-19T11:45:19Z",
    "comment_data": [],
    "comment_regular_data": [],
    "comments": 0,
    "comments_url": "https://api.github.com/repos/PrismarineJS/flying-squid/issues/195/comments",
    "commit_data": [
        {
            "author": {
                "avatar_url": "https://avatars.githubusercontent.com/u/14790466?v=4",
                "events_url": "https://api.github.com/users/greenkeeperio-bot/events{/privacy}",
                "followers_url": "https://api.github.com/users/greenkeeperio-bot/followers",
                "following_url": "https://api.github.com/users/greenkeeperio-bot/following{/other_user}",
                "gists_url": "https://api.github.com/users/greenkeeperio-bot/gists{/gist_id}",
                "gravatar_id": "",
                "html_url": "https://github.com/greenkeeperio-bot",
                "id": 14790466,
                "login": "greenkeeperio-bot",
                "node_id": "MDQ6VXNlcjE0NzkwNDY2",
                "organizations_url": "https://api.github.com/users/greenkeeperio-bot/orgs",
                "received_events_url": "https://api.github.com/users/greenkeeperio-bot/received_events",
                "repos_url": "https://api.github.com/users/greenkeeperio-bot/repos",
                "site_admin": false,
                "starred_url": "https://api.github.com/users/greenkeeperio-bot/starred{/owner}{/repo}",
                "subscriptions_url": "https://api.github.com/users/greenkeeperio-bot/subscriptions",
                "type": "User",
                "url": "https://api.github.com/users/greenkeeperio-bot"
            },
            "comments_url": "https://api.github.com/repos/PrismarineJS/flying-squid/commits/ef41a04efb9da1528ac51a589477c92a8e90cd57/comments",
            "commit": {
                "author": {
                    "date": "2016-02-19T00:53:37Z",
                    "email": "support@greenkeeper.io",
                    "name": "greenkeeperio-bot"
                },
                "comment_count": 0,
                "committer": {
                    "date": "2016-02-19T00:53:37Z",
                    "email": "support@greenkeeper.io",
                    "name": "greenkeeperio-bot"
                },
                "message": "chore(package): update minecraft-data to version 0.20.2\n\nhttp://greenkeeper.io/",
                "tree": {
                    "sha": "fb68b78ae8b5f5fcc80dfd20a4bba597d25e27b5",
                    "url": "https://api.github.com/repos/PrismarineJS/flying-squid/git/trees/fb68b78ae8b5f5fcc80dfd20a4bba597d25e27b5"
                },
                "url": "https://api.github.com/repos/PrismarineJS/flying-squid/git/commits/ef41a04efb9da1528ac51a589477c92a8e90cd57",
                "verification": {
                    "payload": null,
                    "reason": "unsigned",
                    "signature": null,
                    "verified": false
                }
            },
            "committer": {
                "avatar_url": "https://avatars.githubusercontent.com/u/14790466?v=4",
                "events_url": "https://api.github.com/users/greenkeeperio-bot/events{/privacy}",
                "followers_url": "https://api.github.com/users/greenkeeperio-bot/followers",
                "following_url": "https://api.github.com/users/greenkeeperio-bot/following{/other_user}",
                "gists_url": "https://api.github.com/users/greenkeeperio-bot/gists{/gist_id}",
                "gravatar_id": "",
                "html_url": "https://github.com/greenkeeperio-bot",
                "id": 14790466,
                "login": "greenkeeperio-bot",
                "node_id": "MDQ6VXNlcjE0NzkwNDY2",
                "organizations_url": "https://api.github.com/users/greenkeeperio-bot/orgs",
                "received_events_url": "https://api.github.com/users/greenkeeperio-bot/received_events",
                "repos_url": "https://api.github.com/users/greenkeeperio-bot/repos",
                "site_admin": false,
                "starred_url": "https://api.github.com/users/greenkeeperio-bot/starred{/owner}{/repo}",
                "subscriptions_url": "https://api.github.com/users/greenkeeperio-bot/subscriptions",
                "type": "User",
                "url": "https://api.github.com/users/greenkeeperio-bot"
            },
            "html_url": "https://github.com/PrismarineJS/flying-squid/commit/ef41a04efb9da1528ac51a589477c92a8e90cd57",
            "node_id": "MDY6Q29tbWl0NDEzOTMxNjQ6ZWY0MWEwNGVmYjlkYTE1MjhhYzUxYTU4OTQ3N2M5MmE4ZTkwY2Q1Nw==",
            "parents": [
                {
                    "html_url": "https://github.com/PrismarineJS/flying-squid/commit/ff0e7e7786101059221c08fba81aec4e7aef82b2",
                    "sha": "ff0e7e7786101059221c08fba81aec4e7aef82b2",
                    "url": "https://api.github.com/repos/PrismarineJS/flying-squid/commits/ff0e7e7786101059221c08fba81aec4e7aef82b2"
                }
            ],
            "sha": "ef41a04efb9da1528ac51a589477c92a8e90cd57",
            "url": "https://api.github.com/repos/PrismarineJS/flying-squid/commits/ef41a04efb9da1528ac51a589477c92a8e90cd57"
        }
    ],
    "commits": 1,
    "commits_url": "https://api.github.com/repos/PrismarineJS/flying-squid/pulls/195/commits",
    "created_at": "2016-02-19T00:53:39Z",
    "deletions": 1,
    "diff_url": "https://github.com/PrismarineJS/flying-squid/pull/195.diff",
    "draft": false,
    "head": {
        "label": "PrismarineJS:greenkeeper-minecraft-data-0.20.2",
        "ref": "greenkeeper-minecraft-data-0.20.2",
        "repo": {
            "allow_forking": true,
            "archive_url": "https://api.github.com/repos/PrismarineJS/flying-squid/{archive_format}{/ref}",
            "archived": false,
            "assignees_url": "https://api.github.com/repos/PrismarineJS/flying-squid/assignees{/user}",
            "blobs_url": "https://api.github.com/repos/PrismarineJS/flying-squid/git/blobs{/sha}",
            "branches_url": "https://api.github.com/repos/PrismarineJS/flying-squid/branches{/branch}",
            "clone_url": "https://github.com/PrismarineJS/flying-squid.git",
            "collaborators_url": "https://api.github.com/repos/PrismarineJS/flying-squid/collaborators{/collaborator}",
            "comments_url": "https://api.github.com/repos/PrismarineJS/flying-squid/comments{/number}",
            "commits_url": "https://api.github.com/repos/PrismarineJS/flying-squid/commits{/sha}",
            "compare_url": "https://api.github.com/repos/PrismarineJS/flying-squid/compare/{base}...{head}",
            "contents_url": "https://api.github.com/repos/PrismarineJS/flying-squid/contents/{+path}",
            "contributors_url": "https://api.github.com/repos/PrismarineJS/flying-squid/contributors",
            "created_at": "2015-08-25T23:30:19Z",
            "default_branch": "master",
            "deployments_url": "https://api.github.com/repos/PrismarineJS/flying-squid/deployments",
            "description": "Create Minecraft servers with a powerful, stable, and high level JavaScript API.",
            "disabled": false,
            "downloads_url": "https://api.github.com/repos/PrismarineJS/flying-squid/downloads",
            "events_url": "https://api.github.com/repos/PrismarineJS/flying-squid/events",
            "fork": false,
            "forks": 86,
            "forks_count": 86,
            "forks_url": "https://api.github.com/repos/PrismarineJS/flying-squid/forks",
            "full_name": "PrismarineJS/flying-squid",
            "git_commits_url": "https://api.github.com/repos/PrismarineJS/flying-squid/git/commits{/sha}",
            "git_refs_url": "https://api.github.com/repos/PrismarineJS/flying-squid/git/refs{/sha}",
            "git_tags_url": "https://api.github.com/repos/PrismarineJS/flying-squid/git/tags{/sha}",
            "git_url": "git://github.com/PrismarineJS/flying-squid.git",
            "has_discussions": false,
            "has_downloads": true,
            "has_issues": true,
            "has_pages": true,
            "has_projects": true,
            "has_wiki": true,
            "homepage": "https://prismarinejs.github.io/flying-squid/",
            "hooks_url": "https://api.github.com/repos/PrismarineJS/flying-squid/hooks",
            "html_url": "https://github.com/PrismarineJS/flying-squid",
            "id": 41393164,
            "is_template": false,
            "issue_comment_url": "https://api.github.com/repos/PrismarineJS/flying-squid/issues/comments{/number}",
            "issue_events_url": "https://api.github.com/repos/PrismarineJS/flying-squid/issues/events{/number}",
            "issues_url": "https://api.github.com/repos/PrismarineJS/flying-squid/issues{/number}",
            "keys_url": "https://api.github.com/repos/PrismarineJS/flying-squid/keys{/key_id}",
            "labels_url": "https://api.github.com/repos/PrismarineJS/flying-squid/labels{/name}",
            "language": "JavaScript",
            "languages_url": "https://api.github.com/repos/PrismarineJS/flying-squid/languages",
            "license": {
                "key": "mit",
                "name": "MIT License",
                "node_id": "MDc6TGljZW5zZTEz",
                "spdx_id": "MIT",
                "url": "https://api.github.com/licenses/mit"
            },
            "merges_url": "https://api.github.com/repos/PrismarineJS/flying-squid/merges",
            "milestones_url": "https://api.github.com/repos/PrismarineJS/flying-squid/milestones{/number}",
            "mirror_url": null,
            "name": "flying-squid",
            "node_id": "MDEwOlJlcG9zaXRvcnk0MTM5MzE2NA==",
            "notifications_url": "https://api.github.com/repos/PrismarineJS/flying-squid/notifications{?since,all,participating}",
            "open_issues": 105,
            "open_issues_count": 105,
            "owner": {
                "avatar_url": "https://avatars.githubusercontent.com/u/11053411?v=4",
                "events_url": "https://api.github.com/users/PrismarineJS/events{/privacy}",
                "followers_url": "https://api.github.com/users/PrismarineJS/followers",
                "following_url": "https://api.github.com/users/PrismarineJS/following{/other_user}",
                "gists_url": "https://api.github.com/users/PrismarineJS/gists{/gist_id}",
                "gravatar_id": "",
                "html_url": "https://github.com/PrismarineJS",
                "id": 11053411,
                "login": "PrismarineJS",
                "node_id": "MDEyOk9yZ2FuaXphdGlvbjExMDUzNDEx",
                "organizations_url": "https://api.github.com/users/PrismarineJS/orgs",
                "received_events_url": "https://api.github.com/users/PrismarineJS/received_events",
                "repos_url": "https://api.github.com/users/PrismarineJS/repos",
                "site_admin": false,
                "starred_url": "https://api.github.com/users/PrismarineJS/starred{/owner}{/repo}",
                "subscriptions_url": "https://api.github.com/users/PrismarineJS/subscriptions",
                "type": "Organization",
                "url": "https://api.github.com/users/PrismarineJS"
            },
            "private": false,
            "pulls_url": "https://api.github.com/repos/PrismarineJS/flying-squid/pulls{/number}",
            "pushed_at": "2023-04-25T07:58:15Z",
            "releases_url": "https://api.github.com/repos/PrismarineJS/flying-squid/releases{/id}",
            "size": 1044,
            "ssh_url": "git@github.com:PrismarineJS/flying-squid.git",
            "stargazers_count": 471,
            "stargazers_url": "https://api.github.com/repos/PrismarineJS/flying-squid/stargazers",
            "statuses_url": "https://api.github.com/repos/PrismarineJS/flying-squid/statuses/{sha}",
            "subscribers_url": "https://api.github.com/repos/PrismarineJS/flying-squid/subscribers",
            "subscription_url": "https://api.github.com/repos/PrismarineJS/flying-squid/subscription",
            "svn_url": "https://github.com/PrismarineJS/flying-squid",
            "tags_url": "https://api.github.com/repos/PrismarineJS/flying-squid/tags",
            "teams_url": "https://api.github.com/repos/PrismarineJS/flying-squid/teams",
            "topics": [
                "game",
                "minecraft",
                "minecraft-server",
                "protocol",
                "server",
                "voxel"
            ],
            "trees_url": "https://api.github.com/repos/PrismarineJS/flying-squid/git/trees{/sha}",
            "updated_at": "2023-04-20T15:15:59Z",
            "url": "https://api.github.com/repos/PrismarineJS/flying-squid",
            "visibility": "public",
            "watchers": 471,
            "watchers_count": 471,
            "web_commit_signoff_required": false
        },
        "sha": "ef41a04efb9da1528ac51a589477c92a8e90cd57",
        "user": {
            "avatar_url": "https://avatars.githubusercontent.com/u/11053411?v=4",
            "events_url": "https://api.github.com/users/PrismarineJS/events{/privacy}",
            "followers_url": "https://api.github.com/users/PrismarineJS/followers",
            "following_url": "https://api.github.com/users/PrismarineJS/following{/other_user}",
            "gists_url": "https://api.github.com/users/PrismarineJS/gists{/gist_id}",
            "gravatar_id": "",
            "html_url": "https://github.com/PrismarineJS",
            "id": 11053411,
            "login": "PrismarineJS",
            "node_id": "MDEyOk9yZ2FuaXphdGlvbjExMDUzNDEx",
            "organizations_url": "https://api.github.com/users/PrismarineJS/orgs",
            "received_events_url": "https://api.github.com/users/PrismarineJS/received_events",
            "repos_url": "https://api.github.com/users/PrismarineJS/repos",
            "site_admin": false,
            "starred_url": "https://api.github.com/users/PrismarineJS/starred{/owner}{/repo}",
            "subscriptions_url": "https://api.github.com/users/PrismarineJS/subscriptions",
            "type": "Organization",
            "url": "https://api.github.com/users/PrismarineJS"
        }
    },
    "html_url": "https://github.com/PrismarineJS/flying-squid/pull/195",
    "id": 59889039,
    "issue_url": "https://api.github.com/repos/PrismarineJS/flying-squid/issues/195",
    "labels": [],
    "locked": false,
    "maintainer_can_modify": false,
    "merge_commit_sha": "c0c8ce3e54ed5a0685371f2ca7208f0e2efbff70",
    "mergeable": false,
    "mergeable_state": "dirty",
    "merged": false,
    "merged_at": null,
    "merged_by": null,
    "milestone": null,
    "node_id": "MDExOlB1bGxSZXF1ZXN0NTk4ODkwMzk=",
    "number": 195,
    "patch_url": "https://github.com/PrismarineJS/flying-squid/pull/195.patch",
    "rebaseable": false,
    "requested_reviewers": [],
    "requested_teams": [],
    "review_comment_url": "https://api.github.com/repos/PrismarineJS/flying-squid/pulls/comments{/number}",
    "review_comments": 0,
    "review_comments_url": "https://api.github.com/repos/PrismarineJS/flying-squid/pulls/195/comments",
    "state": "closed",
    "statuses_url": "https://api.github.com/repos/PrismarineJS/flying-squid/statuses/ef41a04efb9da1528ac51a589477c92a8e90cd57",
    "title": "Update minecraft-data to version 0.20.2 🚀",
    "updated_at": "2016-02-19T11:45:20Z",
    "url": "https://api.github.com/repos/PrismarineJS/flying-squid/pulls/195",
    "user": {
        "avatar_url": "https://avatars.githubusercontent.com/u/14790466?v=4",
        "events_url": "https://api.github.com/users/greenkeeperio-bot/events{/privacy}",
        "followers_url": "https://api.github.com/users/greenkeeperio-bot/followers",
        "following_url": "https://api.github.com/users/greenkeeperio-bot/following{/other_user}",
        "gists_url": "https://api.github.com/users/greenkeeperio-bot/gists{/gist_id}",
        "gravatar_id": "",
        "html_url": "https://github.com/greenkeeperio-bot",
        "id": 14790466,
        "login": "greenkeeperio-bot",
        "node_id": "MDQ6VXNlcjE0NzkwNDY2",
        "organizations_url": "https://api.github.com/users/greenkeeperio-bot/orgs",
        "received_events_url": "https://api.github.com/users/greenkeeperio-bot/received_events",
        "repos_url": "https://api.github.com/users/greenkeeperio-bot/repos",
        "site_admin": false,
        "starred_url": "https://api.github.com/users/greenkeeperio-bot/starred{/owner}{/repo}",
        "subscriptions_url": "https://api.github.com/users/greenkeeperio-bot/subscriptions",
        "type": "User",
        "url": "https://api.github.com/users/greenkeeperio-bot"
    }
}