{
    "_links": {
        "comments": {
            "href": "https://api.github.com/repos/PrismarineJS/flying-squid/issues/289/comments"
        },
        "commits": {
            "href": "https://api.github.com/repos/PrismarineJS/flying-squid/pulls/289/commits"
        },
        "html": {
            "href": "https://github.com/PrismarineJS/flying-squid/pull/289"
        },
        "issue": {
            "href": "https://api.github.com/repos/PrismarineJS/flying-squid/issues/289"
        },
        "review_comment": {
            "href": "https://api.github.com/repos/PrismarineJS/flying-squid/pulls/comments{/number}"
        },
        "review_comments": {
            "href": "https://api.github.com/repos/PrismarineJS/flying-squid/pulls/289/comments"
        },
        "self": {
            "href": "https://api.github.com/repos/PrismarineJS/flying-squid/pulls/289"
        },
        "statuses": {
            "href": "https://api.github.com/repos/PrismarineJS/flying-squid/statuses/a1a2a7b3ed9bfa68ca0fb13aa5758e23508ae790"
        }
    },
    "active_lock_reason": null,
    "additions": 1,
    "assignee": null,
    "assignees": [],
    "author_association": "CONTRIBUTOR",
    "auto_merge": null,
    "base": {
        "label": "PrismarineJS:master",
        "ref": "master",
        "repo": {
            "allow_forking": true,
            "archive_url": "https://api.github.com/repos/PrismarineJS/flying-squid/{archive_format}{/ref}",
            "archived": false,
            "assignees_url": "https://api.github.com/repos/PrismarineJS/flying-squid/assignees{/user}",
            "blobs_url": "https://api.github.com/repos/PrismarineJS/flying-squid/git/blobs{/sha}",
            "branches_url": "https://api.github.com/repos/PrismarineJS/flying-squid/branches{/branch}",
            "clone_url": "https://github.com/PrismarineJS/flying-squid.git",
            "collaborators_url": "https://api.github.com/repos/PrismarineJS/flying-squid/collaborators{/collaborator}",
            "comments_url": "https://api.github.com/repos/PrismarineJS/flying-squid/comments{/number}",
            "commits_url": "https://api.github.com/repos/PrismarineJS/flying-squid/commits{/sha}",
            "compare_url": "https://api.github.com/repos/PrismarineJS/flying-squid/compare/{base}...{head}",
            "contents_url": "https://api.github.com/repos/PrismarineJS/flying-squid/contents/{+path}",
            "contributors_url": "https://api.github.com/repos/PrismarineJS/flying-squid/contributors",
            "created_at": "2015-08-25T23:30:19Z",
            "default_branch": "master",
            "deployments_url": "https://api.github.com/repos/PrismarineJS/flying-squid/deployments",
            "description": "Create Minecraft servers with a powerful, stable, and high level JavaScript API.",
            "disabled": false,
            "downloads_url": "https://api.github.com/repos/PrismarineJS/flying-squid/downloads",
            "events_url": "https://api.github.com/repos/PrismarineJS/flying-squid/events",
            "fork": false,
            "forks": 86,
            "forks_count": 86,
            "forks_url": "https://api.github.com/repos/PrismarineJS/flying-squid/forks",
            "full_name": "PrismarineJS/flying-squid",
            "git_commits_url": "https://api.github.com/repos/PrismarineJS/flying-squid/git/commits{/sha}",
            "git_refs_url": "https://api.github.com/repos/PrismarineJS/flying-squid/git/refs{/sha}",
            "git_tags_url": "https://api.github.com/repos/PrismarineJS/flying-squid/git/tags{/sha}",
            "git_url": "git://github.com/PrismarineJS/flying-squid.git",
            "has_discussions": false,
            "has_downloads": true,
            "has_issues": true,
            "has_pages": true,
            "has_projects": true,
            "has_wiki": true,
            "homepage": "https://prismarinejs.github.io/flying-squid/",
            "hooks_url": "https://api.github.com/repos/PrismarineJS/flying-squid/hooks",
            "html_url": "https://github.com/PrismarineJS/flying-squid",
            "id": 41393164,
            "is_template": false,
            "issue_comment_url": "https://api.github.com/repos/PrismarineJS/flying-squid/issues/comments{/number}",
            "issue_events_url": "https://api.github.com/repos/PrismarineJS/flying-squid/issues/events{/number}",
            "issues_url": "https://api.github.com/repos/PrismarineJS/flying-squid/issues{/number}",
            "keys_url": "https://api.github.com/repos/PrismarineJS/flying-squid/keys{/key_id}",
            "labels_url": "https://api.github.com/repos/PrismarineJS/flying-squid/labels{/name}",
            "language": "JavaScript",
            "languages_url": "https://api.github.com/repos/PrismarineJS/flying-squid/languages",
            "license": {
                "key": "mit",
                "name": "MIT License",
                "node_id": "MDc6TGljZW5zZTEz",
                "spdx_id": "MIT",
                "url": "https://api.github.com/licenses/mit"
            },
            "merges_url": "https://api.github.com/repos/PrismarineJS/flying-squid/merges",
            "milestones_url": "https://api.github.com/repos/PrismarineJS/flying-squid/milestones{/number}",
            "mirror_url": null,
            "name": "flying-squid",
            "node_id": "MDEwOlJlcG9zaXRvcnk0MTM5MzE2NA==",
            "notifications_url": "https://api.github.com/repos/PrismarineJS/flying-squid/notifications{?since,all,participating}",
            "open_issues": 105,
            "open_issues_count": 105,
            "owner": {
                "avatar_url": "https://avatars.githubusercontent.com/u/11053411?v=4",
                "events_url": "https://api.github.com/users/PrismarineJS/events{/privacy}",
                "followers_url": "https://api.github.com/users/PrismarineJS/followers",
                "following_url": "https://api.github.com/users/PrismarineJS/following{/other_user}",
                "gists_url": "https://api.github.com/users/PrismarineJS/gists{/gist_id}",
                "gravatar_id": "",
                "html_url": "https://github.com/PrismarineJS",
                "id": 11053411,
                "login": "PrismarineJS",
                "node_id": "MDEyOk9yZ2FuaXphdGlvbjExMDUzNDEx",
                "organizations_url": "https://api.github.com/users/PrismarineJS/orgs",
                "received_events_url": "https://api.github.com/users/PrismarineJS/received_events",
                "repos_url": "https://api.github.com/users/PrismarineJS/repos",
                "site_admin": false,
                "starred_url": "https://api.github.com/users/PrismarineJS/starred{/owner}{/repo}",
                "subscriptions_url": "https://api.github.com/users/PrismarineJS/subscriptions",
                "type": "Organization",
                "url": "https://api.github.com/users/PrismarineJS"
            },
            "private": false,
            "pulls_url": "https://api.github.com/repos/PrismarineJS/flying-squid/pulls{/number}",
            "pushed_at": "2023-04-25T07:58:15Z",
            "releases_url": "https://api.github.com/repos/PrismarineJS/flying-squid/releases{/id}",
            "size": 1044,
            "ssh_url": "git@github.com:PrismarineJS/flying-squid.git",
            "stargazers_count": 471,
            "stargazers_url": "https://api.github.com/repos/PrismarineJS/flying-squid/stargazers",
            "statuses_url": "https://api.github.com/repos/PrismarineJS/flying-squid/statuses/{sha}",
            "subscribers_url": "https://api.github.com/repos/PrismarineJS/flying-squid/subscribers",
            "subscription_url": "https://api.github.com/repos/PrismarineJS/flying-squid/subscription",
            "svn_url": "https://github.com/PrismarineJS/flying-squid",
            "tags_url": "https://api.github.com/repos/PrismarineJS/flying-squid/tags",
            "teams_url": "https://api.github.com/repos/PrismarineJS/flying-squid/teams",
            "topics": [
                "game",
                "minecraft",
                "minecraft-server",
                "protocol",
                "server",
                "voxel"
            ],
            "trees_url": "https://api.github.com/repos/PrismarineJS/flying-squid/git/trees{/sha}",
            "updated_at": "2023-04-20T15:15:59Z",
            "url": "https://api.github.com/repos/PrismarineJS/flying-squid",
            "visibility": "public",
            "watchers": 471,
            "watchers_count": 471,
            "web_commit_signoff_required": false
        },
        "sha": "4cecd70cc642fb7a1c7d676495878346307efc4e",
        "user": {
            "avatar_url": "https://avatars.githubusercontent.com/u/11053411?v=4",
            "events_url": "https://api.github.com/users/PrismarineJS/events{/privacy}",
            "followers_url": "https://api.github.com/users/PrismarineJS/followers",
            "following_url": "https://api.github.com/users/PrismarineJS/following{/other_user}",
            "gists_url": "https://api.github.com/users/PrismarineJS/gists{/gist_id}",
            "gravatar_id": "",
            "html_url": "https://github.com/PrismarineJS",
            "id": 11053411,
            "login": "PrismarineJS",
            "node_id": "MDEyOk9yZ2FuaXphdGlvbjExMDUzNDEx",
            "organizations_url": "https://api.github.com/users/PrismarineJS/orgs",
            "received_events_url": "https://api.github.com/users/PrismarineJS/received_events",
            "repos_url": "https://api.github.com/users/PrismarineJS/repos",
            "site_admin": false,
            "starred_url": "https://api.github.com/users/PrismarineJS/starred{/owner}{/repo}",
            "subscriptions_url": "https://api.github.com/users/PrismarineJS/subscriptions",
            "type": "Organization",
            "url": "https://api.github.com/users/PrismarineJS"
        }
    },
    "body": "Hello lovely humans,\n\n[longjohn](https://www.npmjs.com/package/longjohn) just published its new version 0.2.12.\n\n<table>\n  <tr>\n    <th align=left>\n      State\n    </th>\n    <td>\n      Failing tests :rotating_light:\n    </td>\n  </tr>\n  <tr>\n    <th align=left>\n      Dependency\n    </td>\n    <td>\n      longjohn\n    </td>\n  </tr>\n  <tr>\n    <th align=left>\n      New version\n    </td>\n    <td>\n      0.2.12\n    </td>\n  </tr>\n  <tr>\n    <th align=left>\n      Type\n    </td>\n    <td>\n      devDependency\n    </td>\n  </tr>\n</table>\n\nThis version is **covered** by your **current version range** and after updating it in your project **the build went from success to failure**.\n\nAs longjohn is “only” a devDependency of this project it **might not break production or downstream projects**, but “only” your build or test tools – **preventing new deploys or publishes**.\n\nI recommend you give this issue a high priority. I’m sure you can resolve this :muscle:\n\n\nOf course this could just be a false positive, caused by a flaky test suite, or third parties that are currently broken or unavailable, but that would be another problem I’d recommend working on.\n\n\nDo you have any ideas how I could improve these pull requests? Did I report anything you think isn’t right?\nAre you unsure about how things are supposed to work?\n\nThere is a collection of [frequently asked questions](https://greenkeeper.io/faq.html) and while I’m just a bot, there is a group of people who are happy to teach me new things. [Let them know](https://github.com/greenkeeperio/greenkeeper/issues/new).\n\nGood luck with your project :sparkles:\n\nYou rock!\n\n:palm_tree:\n\n---\nThe new version differs by 17 commits .\n\n- [`5c7a479`](https://github.com/mattinsler/longjohn/commit/5c7a47963cd042253fff578cbb2d26555870f48c) <code>bumped version to 0.2.12</code>\n- [`f69979a`](https://github.com/mattinsler/longjohn/commit/f69979a9bf23caaa6f9b88d9e2f567247ebed130) <code>Merge pull request #67 from nodo-digital/fix-stream-support</code>\n- [`5eef328`](https://github.com/mattinsler/longjohn/commit/5eef3287348aa7e9728953f3d36da8bb8edce34b) <code>locked package versions</code>\n- [`297662d`](https://github.com/mattinsler/longjohn/commit/297662d8069ec4a24e4731695ad223db4ccdfa8d) <code>Merge pull request #66 from alloy/update-source-map-support</code>\n- [`42fcae8`](https://github.com/mattinsler/longjohn/commit/42fcae8e7f6b616ae551252c7ec4cc06d6c6f52f) <code>update dist</code>\n- [`cfd46e0`](https://github.com/mattinsler/longjohn/commit/cfd46e09b3fe944c07cf2f644a55696db9215a5a) <code>fix `.once` to work with overriden `.on`</code>\n- [`cb64db6`](https://github.com/mattinsler/longjohn/commit/cb64db641a7597eeea8377e378cab4c9cbae8871) <code>add test to check if `.once` works with overriden `.on`</code>\n- [`6043660`](https://github.com/mattinsler/longjohn/commit/60436603f90e26d173cd876b6e204d9cde976a01) <code>[package] Allow newer versions of source-map-support.</code>\n- [`725ec90`](https://github.com/mattinsler/longjohn/commit/725ec904d9f1617376ed1186154c100dc38603cd) <code>bumped version</code>\n- [`afaf81d`](https://github.com/mattinsler/longjohn/commit/afaf81d606ced15ef8b2da91cf13c9d42e543ccb) <code>Merge pull request #56 from drauggres/master</code>\n- [`0fdefd1`](https://github.com/mattinsler/longjohn/commit/0fdefd13cef24b55a067c1772a9eb4041d69f54e) <code>bump node engine version</code>\n- [`7f74f68`](https://github.com/mattinsler/longjohn/commit/7f74f68e56515f118322d757a3c964c34c416ccb) <code>refs #55 remove util.isFunction</code>\n- [`caa4f0a`](https://github.com/mattinsler/longjohn/commit/caa4f0ae8a4f98a1743568fe75d2c375072b0edb) <code>bump version</code>\n- [`958d1af`](https://github.com/mattinsler/longjohn/commit/958d1af76d99d9e30394b316af7e58c058f3a541) <code>fixed test for node v4</code>\n- [`cb7bafd`](https://github.com/mattinsler/longjohn/commit/cb7bafd7f3e8560011210b760965f0b3852028bb) <code>Merge pull request #53 from drauggres/master</code>\n\n\nThere are 17 commits in total. See the [full diff](https://github.com/mattinsler/longjohn/compare/d5d54f1351a4ad81d6e20daa8427e26a2f3c04b0...5c7a47963cd042253fff578cbb2d26555870f48c).\n\n---\nThis pull request was created by [greenkeeper.io](https://greenkeeper.io/).\n\n<sub>Tired of seeing this sponsor message? :zap: `greenkeeper upgrade`</sub>",
    "changed_files": 1,
    "closed_at": "2017-02-26T23:05:09Z",
    "comment_data": [],
    "comment_regular_data": [],
    "comments": 0,
    "comments_url": "https://api.github.com/repos/PrismarineJS/flying-squid/issues/289/comments",
    "commit_data": [
        {
            "author": {
                "avatar_url": "https://avatars.githubusercontent.com/u/14790466?v=4",
                "events_url": "https://api.github.com/users/greenkeeperio-bot/events{/privacy}",
                "followers_url": "https://api.github.com/users/greenkeeperio-bot/followers",
                "following_url": "https://api.github.com/users/greenkeeperio-bot/following{/other_user}",
                "gists_url": "https://api.github.com/users/greenkeeperio-bot/gists{/gist_id}",
                "gravatar_id": "",
                "html_url": "https://github.com/greenkeeperio-bot",
                "id": 14790466,
                "login": "greenkeeperio-bot",
                "node_id": "MDQ6VXNlcjE0NzkwNDY2",
                "organizations_url": "https://api.github.com/users/greenkeeperio-bot/orgs",
                "received_events_url": "https://api.github.com/users/greenkeeperio-bot/received_events",
                "repos_url": "https://api.github.com/users/greenkeeperio-bot/repos",
                "site_admin": false,
                "starred_url": "https://api.github.com/users/greenkeeperio-bot/starred{/owner}{/repo}",
                "subscriptions_url": "https://api.github.com/users/greenkeeperio-bot/subscriptions",
                "type": "User",
                "url": "https://api.github.com/users/greenkeeperio-bot"
            },
            "comments_url": "https://api.github.com/repos/PrismarineJS/flying-squid/commits/a1a2a7b3ed9bfa68ca0fb13aa5758e23508ae790/comments",
            "commit": {
                "author": {
                    "date": "2017-01-18T20:49:24Z",
                    "email": "support@greenkeeper.io",
                    "name": "greenkeeperio-bot"
                },
                "comment_count": 0,
                "committer": {
                    "date": "2017-01-18T20:49:24Z",
                    "email": "support@greenkeeper.io",
                    "name": "greenkeeperio-bot"
                },
                "message": "chore(package): update longjohn to version 0.2.12\n\nhttps://greenkeeper.io/",
                "tree": {
                    "sha": "8c56ffe6709934e8c871f3a7156b6a0a82e9c59e",
                    "url": "https://api.github.com/repos/PrismarineJS/flying-squid/git/trees/8c56ffe6709934e8c871f3a7156b6a0a82e9c59e"
                },
                "url": "https://api.github.com/repos/PrismarineJS/flying-squid/git/commits/a1a2a7b3ed9bfa68ca0fb13aa5758e23508ae790",
                "verification": {
                    "payload": null,
                    "reason": "unsigned",
                    "signature": null,
                    "verified": false
                }
            },
            "committer": {
                "avatar_url": "https://avatars.githubusercontent.com/u/14790466?v=4",
                "events_url": "https://api.github.com/users/greenkeeperio-bot/events{/privacy}",
                "followers_url": "https://api.github.com/users/greenkeeperio-bot/followers",
                "following_url": "https://api.github.com/users/greenkeeperio-bot/following{/other_user}",
                "gists_url": "https://api.github.com/users/greenkeeperio-bot/gists{/gist_id}",
                "gravatar_id": "",
                "html_url": "https://github.com/greenkeeperio-bot",
                "id": 14790466,
                "login": "greenkeeperio-bot",
                "node_id": "MDQ6VXNlcjE0NzkwNDY2",
                "organizations_url": "https://api.github.com/users/greenkeeperio-bot/orgs",
                "received_events_url": "https://api.github.com/users/greenkeeperio-bot/received_events",
                "repos_url": "https://api.github.com/users/greenkeeperio-bot/repos",
                "site_admin": false,
                "starred_url": "https://api.github.com/users/greenkeeperio-bot/starred{/owner}{/repo}",
                "subscriptions_url": "https://api.github.com/users/greenkeeperio-bot/subscriptions",
                "type": "User",
                "url": "https://api.github.com/users/greenkeeperio-bot"
            },
            "html_url": "https://github.com/PrismarineJS/flying-squid/commit/a1a2a7b3ed9bfa68ca0fb13aa5758e23508ae790",
            "node_id": "MDY6Q29tbWl0NDEzOTMxNjQ6YTFhMmE3YjNlZDliZmE2OGNhMGZiMTNhYTU3NThlMjM1MDhhZTc5MA==",
            "parents": [
                {
                    "html_url": "https://github.com/PrismarineJS/flying-squid/commit/4cecd70cc642fb7a1c7d676495878346307efc4e",
                    "sha": "4cecd70cc642fb7a1c7d676495878346307efc4e",
                    "url": "https://api.github.com/repos/PrismarineJS/flying-squid/commits/4cecd70cc642fb7a1c7d676495878346307efc4e"
                }
            ],
            "sha": "a1a2a7b3ed9bfa68ca0fb13aa5758e23508ae790",
            "url": "https://api.github.com/repos/PrismarineJS/flying-squid/commits/a1a2a7b3ed9bfa68ca0fb13aa5758e23508ae790"
        }
    ],
    "commits": 1,
    "commits_url": "https://api.github.com/repos/PrismarineJS/flying-squid/pulls/289/commits",
    "created_at": "2017-01-18T21:00:53Z",
    "deletions": 1,
    "diff_url": "https://github.com/PrismarineJS/flying-squid/pull/289.diff",
    "draft": false,
    "head": {
        "label": "PrismarineJS:greenkeeper-longjohn-0.2.12",
        "ref": "greenkeeper-longjohn-0.2.12",
        "repo": {
            "allow_forking": true,
            "archive_url": "https://api.github.com/repos/PrismarineJS/flying-squid/{archive_format}{/ref}",
            "archived": false,
            "assignees_url": "https://api.github.com/repos/PrismarineJS/flying-squid/assignees{/user}",
            "blobs_url": "https://api.github.com/repos/PrismarineJS/flying-squid/git/blobs{/sha}",
            "branches_url": "https://api.github.com/repos/PrismarineJS/flying-squid/branches{/branch}",
            "clone_url": "https://github.com/PrismarineJS/flying-squid.git",
            "collaborators_url": "https://api.github.com/repos/PrismarineJS/flying-squid/collaborators{/collaborator}",
            "comments_url": "https://api.github.com/repos/PrismarineJS/flying-squid/comments{/number}",
            "commits_url": "https://api.github.com/repos/PrismarineJS/flying-squid/commits{/sha}",
            "compare_url": "https://api.github.com/repos/PrismarineJS/flying-squid/compare/{base}...{head}",
            "contents_url": "https://api.github.com/repos/PrismarineJS/flying-squid/contents/{+path}",
            "contributors_url": "https://api.github.com/repos/PrismarineJS/flying-squid/contributors",
            "created_at": "2015-08-25T23:30:19Z",
            "default_branch": "master",
            "deployments_url": "https://api.github.com/repos/PrismarineJS/flying-squid/deployments",
            "description": "Create Minecraft servers with a powerful, stable, and high level JavaScript API.",
            "disabled": false,
            "downloads_url": "https://api.github.com/repos/PrismarineJS/flying-squid/downloads",
            "events_url": "https://api.github.com/repos/PrismarineJS/flying-squid/events",
            "fork": false,
            "forks": 86,
            "forks_count": 86,
            "forks_url": "https://api.github.com/repos/PrismarineJS/flying-squid/forks",
            "full_name": "PrismarineJS/flying-squid",
            "git_commits_url": "https://api.github.com/repos/PrismarineJS/flying-squid/git/commits{/sha}",
            "git_refs_url": "https://api.github.com/repos/PrismarineJS/flying-squid/git/refs{/sha}",
            "git_tags_url": "https://api.github.com/repos/PrismarineJS/flying-squid/git/tags{/sha}",
            "git_url": "git://github.com/PrismarineJS/flying-squid.git",
            "has_discussions": false,
            "has_downloads": true,
            "has_issues": true,
            "has_pages": true,
            "has_projects": true,
            "has_wiki": true,
            "homepage": "https://prismarinejs.github.io/flying-squid/",
            "hooks_url": "https://api.github.com/repos/PrismarineJS/flying-squid/hooks",
            "html_url": "https://github.com/PrismarineJS/flying-squid",
            "id": 41393164,
            "is_template": false,
            "issue_comment_url": "https://api.github.com/repos/PrismarineJS/flying-squid/issues/comments{/number}",
            "issue_events_url": "https://api.github.com/repos/PrismarineJS/flying-squid/issues/events{/number}",
            "issues_url": "https://api.github.com/repos/PrismarineJS/flying-squid/issues{/number}",
            "keys_url": "https://api.github.com/repos/PrismarineJS/flying-squid/keys{/key_id}",
            "labels_url": "https://api.github.com/repos/PrismarineJS/flying-squid/labels{/name}",
            "language": "JavaScript",
            "languages_url": "https://api.github.com/repos/PrismarineJS/flying-squid/languages",
            "license": {
                "key": "mit",
                "name": "MIT License",
                "node_id": "MDc6TGljZW5zZTEz",
                "spdx_id": "MIT",
                "url": "https://api.github.com/licenses/mit"
            },
            "merges_url": "https://api.github.com/repos/PrismarineJS/flying-squid/merges",
            "milestones_url": "https://api.github.com/repos/PrismarineJS/flying-squid/milestones{/number}",
            "mirror_url": null,
            "name": "flying-squid",
            "node_id": "MDEwOlJlcG9zaXRvcnk0MTM5MzE2NA==",
            "notifications_url": "https://api.github.com/repos/PrismarineJS/flying-squid/notifications{?since,all,participating}",
            "open_issues": 105,
            "open_issues_count": 105,
            "owner": {
                "avatar_url": "https://avatars.githubusercontent.com/u/11053411?v=4",
                "events_url": "https://api.github.com/users/PrismarineJS/events{/privacy}",
                "followers_url": "https://api.github.com/users/PrismarineJS/followers",
                "following_url": "https://api.github.com/users/PrismarineJS/following{/other_user}",
                "gists_url": "https://api.github.com/users/PrismarineJS/gists{/gist_id}",
                "gravatar_id": "",
                "html_url": "https://github.com/PrismarineJS",
                "id": 11053411,
                "login": "PrismarineJS",
                "node_id": "MDEyOk9yZ2FuaXphdGlvbjExMDUzNDEx",
                "organizations_url": "https://api.github.com/users/PrismarineJS/orgs",
                "received_events_url": "https://api.github.com/users/PrismarineJS/received_events",
                "repos_url": "https://api.github.com/users/PrismarineJS/repos",
                "site_admin": false,
                "starred_url": "https://api.github.com/users/PrismarineJS/starred{/owner}{/repo}",
                "subscriptions_url": "https://api.github.com/users/PrismarineJS/subscriptions",
                "type": "Organization",
                "url": "https://api.github.com/users/PrismarineJS"
            },
            "private": false,
            "pulls_url": "https://api.github.com/repos/PrismarineJS/flying-squid/pulls{/number}",
            "pushed_at": "2023-04-25T07:58:15Z",
            "releases_url": "https://api.github.com/repos/PrismarineJS/flying-squid/releases{/id}",
            "size": 1044,
            "ssh_url": "git@github.com:PrismarineJS/flying-squid.git",
            "stargazers_count": 471,
            "stargazers_url": "https://api.github.com/repos/PrismarineJS/flying-squid/stargazers",
            "statuses_url": "https://api.github.com/repos/PrismarineJS/flying-squid/statuses/{sha}",
            "subscribers_url": "https://api.github.com/repos/PrismarineJS/flying-squid/subscribers",
            "subscription_url": "https://api.github.com/repos/PrismarineJS/flying-squid/subscription",
            "svn_url": "https://github.com/PrismarineJS/flying-squid",
            "tags_url": "https://api.github.com/repos/PrismarineJS/flying-squid/tags",
            "teams_url": "https://api.github.com/repos/PrismarineJS/flying-squid/teams",
            "topics": [
                "game",
                "minecraft",
                "minecraft-server",
                "protocol",
                "server",
                "voxel"
            ],
            "trees_url": "https://api.github.com/repos/PrismarineJS/flying-squid/git/trees{/sha}",
            "updated_at": "2023-04-20T15:15:59Z",
            "url": "https://api.github.com/repos/PrismarineJS/flying-squid",
            "visibility": "public",
            "watchers": 471,
            "watchers_count": 471,
            "web_commit_signoff_required": false
        },
        "sha": "a1a2a7b3ed9bfa68ca0fb13aa5758e23508ae790",
        "user": {
            "avatar_url": "https://avatars.githubusercontent.com/u/11053411?v=4",
            "events_url": "https://api.github.com/users/PrismarineJS/events{/privacy}",
            "followers_url": "https://api.github.com/users/PrismarineJS/followers",
            "following_url": "https://api.github.com/users/PrismarineJS/following{/other_user}",
            "gists_url": "https://api.github.com/users/PrismarineJS/gists{/gist_id}",
            "gravatar_id": "",
            "html_url": "https://github.com/PrismarineJS",
            "id": 11053411,
            "login": "PrismarineJS",
            "node_id": "MDEyOk9yZ2FuaXphdGlvbjExMDUzNDEx",
            "organizations_url": "https://api.github.com/users/PrismarineJS/orgs",
            "received_events_url": "https://api.github.com/users/PrismarineJS/received_events",
            "repos_url": "https://api.github.com/users/PrismarineJS/repos",
            "site_admin": false,
            "starred_url": "https://api.github.com/users/PrismarineJS/starred{/owner}{/repo}",
            "subscriptions_url": "https://api.github.com/users/PrismarineJS/subscriptions",
            "type": "Organization",
            "url": "https://api.github.com/users/PrismarineJS"
        }
    },
    "html_url": "https://github.com/PrismarineJS/flying-squid/pull/289",
    "id": 102148558,
    "issue_url": "https://api.github.com/repos/PrismarineJS/flying-squid/issues/289",
    "labels": [
        {
            "color": "ededed",
            "default": false,
            "description": null,
            "id": 351380055,
            "name": "greenkeeper",
            "node_id": "MDU6TGFiZWwzNTEzODAwNTU=",
            "url": "https://api.github.com/repos/PrismarineJS/flying-squid/labels/greenkeeper"
        }
    ],
    "locked": false,
    "maintainer_can_modify": false,
    "merge_commit_sha": "17b94ad7ab4fcaa72665aa371246ee608a7ce176",
    "mergeable": null,
    "mergeable_state": "unknown",
    "merged": false,
    "merged_at": null,
    "merged_by": null,
    "milestone": null,
    "node_id": "MDExOlB1bGxSZXF1ZXN0MTAyMTQ4NTU4",
    "number": 289,
    "patch_url": "https://github.com/PrismarineJS/flying-squid/pull/289.patch",
    "rebaseable": null,
    "requested_reviewers": [],
    "requested_teams": [],
    "review_comment_url": "https://api.github.com/repos/PrismarineJS/flying-squid/pulls/comments{/number}",
    "review_comments": 0,
    "review_comments_url": "https://api.github.com/repos/PrismarineJS/flying-squid/pulls/289/comments",
    "state": "closed",
    "statuses_url": "https://api.github.com/repos/PrismarineJS/flying-squid/statuses/a1a2a7b3ed9bfa68ca0fb13aa5758e23508ae790",
    "title": "longjohn@0.2.12 breaks build 🚨",
    "updated_at": "2017-02-26T23:05:10Z",
    "url": "https://api.github.com/repos/PrismarineJS/flying-squid/pulls/289",
    "user": {
        "avatar_url": "https://avatars.githubusercontent.com/u/14790466?v=4",
        "events_url": "https://api.github.com/users/greenkeeperio-bot/events{/privacy}",
        "followers_url": "https://api.github.com/users/greenkeeperio-bot/followers",
        "following_url": "https://api.github.com/users/greenkeeperio-bot/following{/other_user}",
        "gists_url": "https://api.github.com/users/greenkeeperio-bot/gists{/gist_id}",
        "gravatar_id": "",
        "html_url": "https://github.com/greenkeeperio-bot",
        "id": 14790466,
        "login": "greenkeeperio-bot",
        "node_id": "MDQ6VXNlcjE0NzkwNDY2",
        "organizations_url": "https://api.github.com/users/greenkeeperio-bot/orgs",
        "received_events_url": "https://api.github.com/users/greenkeeperio-bot/received_events",
        "repos_url": "https://api.github.com/users/greenkeeperio-bot/repos",
        "site_admin": false,
        "starred_url": "https://api.github.com/users/greenkeeperio-bot/starred{/owner}{/repo}",
        "subscriptions_url": "https://api.github.com/users/greenkeeperio-bot/subscriptions",
        "type": "User",
        "url": "https://api.github.com/users/greenkeeperio-bot"
    }
}