{
    "_links": {
        "comments": {
            "href": "https://api.github.com/repos/PrismarineJS/flying-squid/issues/638/comments"
        },
        "commits": {
            "href": "https://api.github.com/repos/PrismarineJS/flying-squid/pulls/638/commits"
        },
        "html": {
            "href": "https://github.com/PrismarineJS/flying-squid/pull/638"
        },
        "issue": {
            "href": "https://api.github.com/repos/PrismarineJS/flying-squid/issues/638"
        },
        "review_comment": {
            "href": "https://api.github.com/repos/PrismarineJS/flying-squid/pulls/comments{/number}"
        },
        "review_comments": {
            "href": "https://api.github.com/repos/PrismarineJS/flying-squid/pulls/638/comments"
        },
        "self": {
            "href": "https://api.github.com/repos/PrismarineJS/flying-squid/pulls/638"
        },
        "statuses": {
            "href": "https://api.github.com/repos/PrismarineJS/flying-squid/statuses/994399a4b2be097dee9b60a27e0fc73ed3288a6d"
        }
    },
    "active_lock_reason": null,
    "additions": 7,
    "assignee": null,
    "assignees": [],
    "author_association": "CONTRIBUTOR",
    "auto_merge": null,
    "base": {
        "label": "PrismarineJS:master",
        "ref": "master",
        "repo": {
            "allow_forking": true,
            "archive_url": "https://api.github.com/repos/PrismarineJS/flying-squid/{archive_format}{/ref}",
            "archived": false,
            "assignees_url": "https://api.github.com/repos/PrismarineJS/flying-squid/assignees{/user}",
            "blobs_url": "https://api.github.com/repos/PrismarineJS/flying-squid/git/blobs{/sha}",
            "branches_url": "https://api.github.com/repos/PrismarineJS/flying-squid/branches{/branch}",
            "clone_url": "https://github.com/PrismarineJS/flying-squid.git",
            "collaborators_url": "https://api.github.com/repos/PrismarineJS/flying-squid/collaborators{/collaborator}",
            "comments_url": "https://api.github.com/repos/PrismarineJS/flying-squid/comments{/number}",
            "commits_url": "https://api.github.com/repos/PrismarineJS/flying-squid/commits{/sha}",
            "compare_url": "https://api.github.com/repos/PrismarineJS/flying-squid/compare/{base}...{head}",
            "contents_url": "https://api.github.com/repos/PrismarineJS/flying-squid/contents/{+path}",
            "contributors_url": "https://api.github.com/repos/PrismarineJS/flying-squid/contributors",
            "created_at": "2015-08-25T23:30:19Z",
            "default_branch": "master",
            "deployments_url": "https://api.github.com/repos/PrismarineJS/flying-squid/deployments",
            "description": "Create Minecraft servers with a powerful, stable, and high level JavaScript API.",
            "disabled": false,
            "downloads_url": "https://api.github.com/repos/PrismarineJS/flying-squid/downloads",
            "events_url": "https://api.github.com/repos/PrismarineJS/flying-squid/events",
            "fork": false,
            "forks": 96,
            "forks_count": 96,
            "forks_url": "https://api.github.com/repos/PrismarineJS/flying-squid/forks",
            "full_name": "PrismarineJS/flying-squid",
            "git_commits_url": "https://api.github.com/repos/PrismarineJS/flying-squid/git/commits{/sha}",
            "git_refs_url": "https://api.github.com/repos/PrismarineJS/flying-squid/git/refs{/sha}",
            "git_tags_url": "https://api.github.com/repos/PrismarineJS/flying-squid/git/tags{/sha}",
            "git_url": "git://github.com/PrismarineJS/flying-squid.git",
            "has_discussions": false,
            "has_downloads": true,
            "has_issues": true,
            "has_pages": true,
            "has_projects": true,
            "has_wiki": true,
            "homepage": "https://prismarinejs.github.io/flying-squid/",
            "hooks_url": "https://api.github.com/repos/PrismarineJS/flying-squid/hooks",
            "html_url": "https://github.com/PrismarineJS/flying-squid",
            "id": 41393164,
            "is_template": false,
            "issue_comment_url": "https://api.github.com/repos/PrismarineJS/flying-squid/issues/comments{/number}",
            "issue_events_url": "https://api.github.com/repos/PrismarineJS/flying-squid/issues/events{/number}",
            "issues_url": "https://api.github.com/repos/PrismarineJS/flying-squid/issues{/number}",
            "keys_url": "https://api.github.com/repos/PrismarineJS/flying-squid/keys{/key_id}",
            "labels_url": "https://api.github.com/repos/PrismarineJS/flying-squid/labels{/name}",
            "language": "JavaScript",
            "languages_url": "https://api.github.com/repos/PrismarineJS/flying-squid/languages",
            "license": {
                "key": "mit",
                "name": "MIT License",
                "node_id": "MDc6TGljZW5zZTEz",
                "spdx_id": "MIT",
                "url": "https://api.github.com/licenses/mit"
            },
            "merges_url": "https://api.github.com/repos/PrismarineJS/flying-squid/merges",
            "milestones_url": "https://api.github.com/repos/PrismarineJS/flying-squid/milestones{/number}",
            "mirror_url": null,
            "name": "flying-squid",
            "node_id": "MDEwOlJlcG9zaXRvcnk0MTM5MzE2NA==",
            "notifications_url": "https://api.github.com/repos/PrismarineJS/flying-squid/notifications{?since,all,participating}",
            "open_issues": 111,
            "open_issues_count": 111,
            "owner": {
                "avatar_url": "https://avatars.githubusercontent.com/u/11053411?v=4",
                "events_url": "https://api.github.com/users/PrismarineJS/events{/privacy}",
                "followers_url": "https://api.github.com/users/PrismarineJS/followers",
                "following_url": "https://api.github.com/users/PrismarineJS/following{/other_user}",
                "gists_url": "https://api.github.com/users/PrismarineJS/gists{/gist_id}",
                "gravatar_id": "",
                "html_url": "https://github.com/PrismarineJS",
                "id": 11053411,
                "login": "PrismarineJS",
                "node_id": "MDEyOk9yZ2FuaXphdGlvbjExMDUzNDEx",
                "organizations_url": "https://api.github.com/users/PrismarineJS/orgs",
                "received_events_url": "https://api.github.com/users/PrismarineJS/received_events",
                "repos_url": "https://api.github.com/users/PrismarineJS/repos",
                "site_admin": false,
                "starred_url": "https://api.github.com/users/PrismarineJS/starred{/owner}{/repo}",
                "subscriptions_url": "https://api.github.com/users/PrismarineJS/subscriptions",
                "type": "Organization",
                "url": "https://api.github.com/users/PrismarineJS"
            },
            "private": false,
            "pulls_url": "https://api.github.com/repos/PrismarineJS/flying-squid/pulls{/number}",
            "pushed_at": "2023-12-17T16:56:45Z",
            "releases_url": "https://api.github.com/repos/PrismarineJS/flying-squid/releases{/id}",
            "size": 1048,
            "ssh_url": "git@github.com:PrismarineJS/flying-squid.git",
            "stargazers_count": 497,
            "stargazers_url": "https://api.github.com/repos/PrismarineJS/flying-squid/stargazers",
            "statuses_url": "https://api.github.com/repos/PrismarineJS/flying-squid/statuses/{sha}",
            "subscribers_url": "https://api.github.com/repos/PrismarineJS/flying-squid/subscribers",
            "subscription_url": "https://api.github.com/repos/PrismarineJS/flying-squid/subscription",
            "svn_url": "https://github.com/PrismarineJS/flying-squid",
            "tags_url": "https://api.github.com/repos/PrismarineJS/flying-squid/tags",
            "teams_url": "https://api.github.com/repos/PrismarineJS/flying-squid/teams",
            "topics": [
                "game",
                "minecraft",
                "minecraft-server",
                "protocol",
                "server",
                "voxel"
            ],
            "trees_url": "https://api.github.com/repos/PrismarineJS/flying-squid/git/trees{/sha}",
            "updated_at": "2023-12-17T07:51:51Z",
            "url": "https://api.github.com/repos/PrismarineJS/flying-squid",
            "visibility": "public",
            "watchers": 497,
            "watchers_count": 497,
            "web_commit_signoff_required": false
        },
        "sha": "2113acf3129bee44e68e0ad3b0014a8fb4325745",
        "user": {
            "avatar_url": "https://avatars.githubusercontent.com/u/11053411?v=4",
            "events_url": "https://api.github.com/users/PrismarineJS/events{/privacy}",
            "followers_url": "https://api.github.com/users/PrismarineJS/followers",
            "following_url": "https://api.github.com/users/PrismarineJS/following{/other_user}",
            "gists_url": "https://api.github.com/users/PrismarineJS/gists{/gist_id}",
            "gravatar_id": "",
            "html_url": "https://github.com/PrismarineJS",
            "id": 11053411,
            "login": "PrismarineJS",
            "node_id": "MDEyOk9yZ2FuaXphdGlvbjExMDUzNDEx",
            "organizations_url": "https://api.github.com/users/PrismarineJS/orgs",
            "received_events_url": "https://api.github.com/users/PrismarineJS/received_events",
            "repos_url": "https://api.github.com/users/PrismarineJS/repos",
            "site_admin": false,
            "starred_url": "https://api.github.com/users/PrismarineJS/starred{/owner}{/repo}",
            "subscriptions_url": "https://api.github.com/users/PrismarineJS/subscriptions",
            "type": "Organization",
            "url": "https://api.github.com/users/PrismarineJS"
        }
    },
    "body": "Depends on https://github.com/PrismarineJS/prismarine-provider-anvil/pull/71",
    "changed_files": 1,
    "closed_at": "2023-12-17T16:44:25Z",
    "comment_data": [],
    "comment_regular_data": [],
    "comments": 0,
    "comments_url": "https://api.github.com/repos/PrismarineJS/flying-squid/issues/638/comments",
    "commit_data": [
        {
            "author": {
                "avatar_url": "https://avatars.githubusercontent.com/u/46503702?v=4",
                "events_url": "https://api.github.com/users/zardoy/events{/privacy}",
                "followers_url": "https://api.github.com/users/zardoy/followers",
                "following_url": "https://api.github.com/users/zardoy/following{/other_user}",
                "gists_url": "https://api.github.com/users/zardoy/gists{/gist_id}",
                "gravatar_id": "",
                "html_url": "https://github.com/zardoy",
                "id": 46503702,
                "login": "zardoy",
                "node_id": "MDQ6VXNlcjQ2NTAzNzAy",
                "organizations_url": "https://api.github.com/users/zardoy/orgs",
                "received_events_url": "https://api.github.com/users/zardoy/received_events",
                "repos_url": "https://api.github.com/users/zardoy/repos",
                "site_admin": false,
                "starred_url": "https://api.github.com/users/zardoy/starred{/owner}{/repo}",
                "subscriptions_url": "https://api.github.com/users/zardoy/subscriptions",
                "type": "User",
                "url": "https://api.github.com/users/zardoy"
            },
            "comments_url": "https://api.github.com/repos/PrismarineJS/flying-squid/commits/994399a4b2be097dee9b60a27e0fc73ed3288a6d/comments",
            "commit": {
                "author": {
                    "date": "2023-09-08T12:55:26Z",
                    "email": "vital2580@icloud.com",
                    "name": "Vitaly"
                },
                "comment_count": 0,
                "committer": {
                    "date": "2023-09-08T12:55:26Z",
                    "email": "vital2580@icloud.com",
                    "name": "Vitaly"
                },
                "message": "Make created world loadable in singleplayer",
                "tree": {
                    "sha": "169c8760931aaf8c226d9c6e6b34fc9f5a9667fb",
                    "url": "https://api.github.com/repos/PrismarineJS/flying-squid/git/trees/169c8760931aaf8c226d9c6e6b34fc9f5a9667fb"
                },
                "url": "https://api.github.com/repos/PrismarineJS/flying-squid/git/commits/994399a4b2be097dee9b60a27e0fc73ed3288a6d",
                "verification": {
                    "payload": null,
                    "reason": "unsigned",
                    "signature": null,
                    "verified": false
                }
            },
            "committer": {
                "avatar_url": "https://avatars.githubusercontent.com/u/46503702?v=4",
                "events_url": "https://api.github.com/users/zardoy/events{/privacy}",
                "followers_url": "https://api.github.com/users/zardoy/followers",
                "following_url": "https://api.github.com/users/zardoy/following{/other_user}",
                "gists_url": "https://api.github.com/users/zardoy/gists{/gist_id}",
                "gravatar_id": "",
                "html_url": "https://github.com/zardoy",
                "id": 46503702,
                "login": "zardoy",
                "node_id": "MDQ6VXNlcjQ2NTAzNzAy",
                "organizations_url": "https://api.github.com/users/zardoy/orgs",
                "received_events_url": "https://api.github.com/users/zardoy/received_events",
                "repos_url": "https://api.github.com/users/zardoy/repos",
                "site_admin": false,
                "starred_url": "https://api.github.com/users/zardoy/starred{/owner}{/repo}",
                "subscriptions_url": "https://api.github.com/users/zardoy/subscriptions",
                "type": "User",
                "url": "https://api.github.com/users/zardoy"
            },
            "html_url": "https://github.com/PrismarineJS/flying-squid/commit/994399a4b2be097dee9b60a27e0fc73ed3288a6d",
            "node_id": "C_kwDOKH9yANoAKDk5NDM5OWE0YjJiZTA5N2RlZTliNjBhMjdlMGZjNzNlZDMyODhhNmQ",
            "parents": [
                {
                    "html_url": "https://github.com/PrismarineJS/flying-squid/commit/2113acf3129bee44e68e0ad3b0014a8fb4325745",
                    "sha": "2113acf3129bee44e68e0ad3b0014a8fb4325745",
                    "url": "https://api.github.com/repos/PrismarineJS/flying-squid/commits/2113acf3129bee44e68e0ad3b0014a8fb4325745"
                }
            ],
            "sha": "994399a4b2be097dee9b60a27e0fc73ed3288a6d",
            "url": "https://api.github.com/repos/PrismarineJS/flying-squid/commits/994399a4b2be097dee9b60a27e0fc73ed3288a6d"
        }
    ],
    "commits": 1,
    "commits_url": "https://api.github.com/repos/PrismarineJS/flying-squid/pulls/638/commits",
    "created_at": "2023-09-08T12:56:31Z",
    "deletions": 2,
    "diff_url": "https://github.com/PrismarineJS/flying-squid/pull/638.diff",
    "draft": false,
    "head": {
        "label": "zardoy:world-compatibility",
        "ref": "world-compatibility",
        "repo": {
            "allow_forking": true,
            "archive_url": "https://api.github.com/repos/zardoy/space-squid/{archive_format}{/ref}",
            "archived": false,
            "assignees_url": "https://api.github.com/repos/zardoy/space-squid/assignees{/user}",
            "blobs_url": "https://api.github.com/repos/zardoy/space-squid/git/blobs{/sha}",
            "branches_url": "https://api.github.com/repos/zardoy/space-squid/branches{/branch}",
            "clone_url": "https://github.com/zardoy/space-squid.git",
            "collaborators_url": "https://api.github.com/repos/zardoy/space-squid/collaborators{/collaborator}",
            "comments_url": "https://api.github.com/repos/zardoy/space-squid/comments{/number}",
            "commits_url": "https://api.github.com/repos/zardoy/space-squid/commits{/sha}",
            "compare_url": "https://api.github.com/repos/zardoy/space-squid/compare/{base}...{head}",
            "contents_url": "https://api.github.com/repos/zardoy/space-squid/contents/{+path}",
            "contributors_url": "https://api.github.com/repos/zardoy/space-squid/contributors",
            "created_at": "2023-08-16T21:15:23Z",
            "default_branch": "master",
            "deployments_url": "https://api.github.com/repos/zardoy/space-squid/deployments",
            "description": "Modern MC server runnable in any environment",
            "disabled": false,
            "downloads_url": "https://api.github.com/repos/zardoy/space-squid/downloads",
            "events_url": "https://api.github.com/repos/zardoy/space-squid/events",
            "fork": true,
            "forks": 0,
            "forks_count": 0,
            "forks_url": "https://api.github.com/repos/zardoy/space-squid/forks",
            "full_name": "zardoy/space-squid",
            "git_commits_url": "https://api.github.com/repos/zardoy/space-squid/git/commits{/sha}",
            "git_refs_url": "https://api.github.com/repos/zardoy/space-squid/git/refs{/sha}",
            "git_tags_url": "https://api.github.com/repos/zardoy/space-squid/git/tags{/sha}",
            "git_url": "git://github.com/zardoy/space-squid.git",
            "has_discussions": false,
            "has_downloads": true,
            "has_issues": true,
            "has_pages": false,
            "has_projects": true,
            "has_wiki": true,
            "homepage": "",
            "hooks_url": "https://api.github.com/repos/zardoy/space-squid/hooks",
            "html_url": "https://github.com/zardoy/space-squid",
            "id": 679440896,
            "is_template": false,
            "issue_comment_url": "https://api.github.com/repos/zardoy/space-squid/issues/comments{/number}",
            "issue_events_url": "https://api.github.com/repos/zardoy/space-squid/issues/events{/number}",
            "issues_url": "https://api.github.com/repos/zardoy/space-squid/issues{/number}",
            "keys_url": "https://api.github.com/repos/zardoy/space-squid/keys{/key_id}",
            "labels_url": "https://api.github.com/repos/zardoy/space-squid/labels{/name}",
            "language": "JavaScript",
            "languages_url": "https://api.github.com/repos/zardoy/space-squid/languages",
            "license": {
                "key": "mit",
                "name": "MIT License",
                "node_id": "MDc6TGljZW5zZTEz",
                "spdx_id": "MIT",
                "url": "https://api.github.com/licenses/mit"
            },
            "merges_url": "https://api.github.com/repos/zardoy/space-squid/merges",
            "milestones_url": "https://api.github.com/repos/zardoy/space-squid/milestones{/number}",
            "mirror_url": null,
            "name": "space-squid",
            "node_id": "R_kgDOKH9yAA",
            "notifications_url": "https://api.github.com/repos/zardoy/space-squid/notifications{?since,all,participating}",
            "open_issues": 2,
            "open_issues_count": 2,
            "owner": {
                "avatar_url": "https://avatars.githubusercontent.com/u/46503702?v=4",
                "events_url": "https://api.github.com/users/zardoy/events{/privacy}",
                "followers_url": "https://api.github.com/users/zardoy/followers",
                "following_url": "https://api.github.com/users/zardoy/following{/other_user}",
                "gists_url": "https://api.github.com/users/zardoy/gists{/gist_id}",
                "gravatar_id": "",
                "html_url": "https://github.com/zardoy",
                "id": 46503702,
                "login": "zardoy",
                "node_id": "MDQ6VXNlcjQ2NTAzNzAy",
                "organizations_url": "https://api.github.com/users/zardoy/orgs",
                "received_events_url": "https://api.github.com/users/zardoy/received_events",
                "repos_url": "https://api.github.com/users/zardoy/repos",
                "site_admin": false,
                "starred_url": "https://api.github.com/users/zardoy/starred{/owner}{/repo}",
                "subscriptions_url": "https://api.github.com/users/zardoy/subscriptions",
                "type": "User",
                "url": "https://api.github.com/users/zardoy"
            },
            "private": false,
            "pulls_url": "https://api.github.com/repos/zardoy/space-squid/pulls{/number}",
            "pushed_at": "2023-11-12T19:58:28Z",
            "releases_url": "https://api.github.com/repos/zardoy/space-squid/releases{/id}",
            "size": 1410,
            "ssh_url": "git@github.com:zardoy/space-squid.git",
            "stargazers_count": 0,
            "stargazers_url": "https://api.github.com/repos/zardoy/space-squid/stargazers",
            "statuses_url": "https://api.github.com/repos/zardoy/space-squid/statuses/{sha}",
            "subscribers_url": "https://api.github.com/repos/zardoy/space-squid/subscribers",
            "subscription_url": "https://api.github.com/repos/zardoy/space-squid/subscription",
            "svn_url": "https://github.com/zardoy/space-squid",
            "tags_url": "https://api.github.com/repos/zardoy/space-squid/tags",
            "teams_url": "https://api.github.com/repos/zardoy/space-squid/teams",
            "topics": [],
            "trees_url": "https://api.github.com/repos/zardoy/space-squid/git/trees{/sha}",
            "updated_at": "2023-11-19T17:11:58Z",
            "url": "https://api.github.com/repos/zardoy/space-squid",
            "visibility": "public",
            "watchers": 0,
            "watchers_count": 0,
            "web_commit_signoff_required": false
        },
        "sha": "994399a4b2be097dee9b60a27e0fc73ed3288a6d",
        "user": {
            "avatar_url": "https://avatars.githubusercontent.com/u/46503702?v=4",
            "events_url": "https://api.github.com/users/zardoy/events{/privacy}",
            "followers_url": "https://api.github.com/users/zardoy/followers",
            "following_url": "https://api.github.com/users/zardoy/following{/other_user}",
            "gists_url": "https://api.github.com/users/zardoy/gists{/gist_id}",
            "gravatar_id": "",
            "html_url": "https://github.com/zardoy",
            "id": 46503702,
            "login": "zardoy",
            "node_id": "MDQ6VXNlcjQ2NTAzNzAy",
            "organizations_url": "https://api.github.com/users/zardoy/orgs",
            "received_events_url": "https://api.github.com/users/zardoy/received_events",
            "repos_url": "https://api.github.com/users/zardoy/repos",
            "site_admin": false,
            "starred_url": "https://api.github.com/users/zardoy/starred{/owner}{/repo}",
            "subscriptions_url": "https://api.github.com/users/zardoy/subscriptions",
            "type": "User",
            "url": "https://api.github.com/users/zardoy"
        }
    },
    "html_url": "https://github.com/PrismarineJS/flying-squid/pull/638",
    "id": 1507858192,
    "issue_url": "https://api.github.com/repos/PrismarineJS/flying-squid/issues/638",
    "labels": [],
    "locked": false,
    "maintainer_can_modify": false,
    "merge_commit_sha": "37bb939fbabf4d81bca39a9a6a4ce2a67fddfd15",
    "mergeable": null,
    "mergeable_state": "unknown",
    "merged": true,
    "merged_at": "2023-12-17T16:44:25Z",
    "merged_by": {
        "avatar_url": "https://avatars.githubusercontent.com/u/2346494?v=4",
        "events_url": "https://api.github.com/users/rom1504/events{/privacy}",
        "followers_url": "https://api.github.com/users/rom1504/followers",
        "following_url": "https://api.github.com/users/rom1504/following{/other_user}",
        "gists_url": "https://api.github.com/users/rom1504/gists{/gist_id}",
        "gravatar_id": "",
        "html_url": "https://github.com/rom1504",
        "id": 2346494,
        "login": "rom1504",
        "node_id": "MDQ6VXNlcjIzNDY0OTQ=",
        "organizations_url": "https://api.github.com/users/rom1504/orgs",
        "received_events_url": "https://api.github.com/users/rom1504/received_events",
        "repos_url": "https://api.github.com/users/rom1504/repos",
        "site_admin": false,
        "starred_url": "https://api.github.com/users/rom1504/starred{/owner}{/repo}",
        "subscriptions_url": "https://api.github.com/users/rom1504/subscriptions",
        "type": "User",
        "url": "https://api.github.com/users/rom1504"
    },
    "milestone": null,
    "node_id": "PR_kwDOAnecDM5Z4BcQ",
    "number": 638,
    "patch_url": "https://github.com/PrismarineJS/flying-squid/pull/638.patch",
    "rebaseable": null,
    "requested_reviewers": [],
    "requested_teams": [],
    "review_comment_url": "https://api.github.com/repos/PrismarineJS/flying-squid/pulls/comments{/number}",
    "review_comments": 0,
    "review_comments_url": "https://api.github.com/repos/PrismarineJS/flying-squid/pulls/638/comments",
    "state": "closed",
    "statuses_url": "https://api.github.com/repos/PrismarineJS/flying-squid/statuses/994399a4b2be097dee9b60a27e0fc73ed3288a6d",
    "title": "Make created world loadable in singleplayer",
    "updated_at": "2023-12-17T16:44:25Z",
    "url": "https://api.github.com/repos/PrismarineJS/flying-squid/pulls/638",
    "user": {
        "avatar_url": "https://avatars.githubusercontent.com/u/46503702?v=4",
        "events_url": "https://api.github.com/users/zardoy/events{/privacy}",
        "followers_url": "https://api.github.com/users/zardoy/followers",
        "following_url": "https://api.github.com/users/zardoy/following{/other_user}",
        "gists_url": "https://api.github.com/users/zardoy/gists{/gist_id}",
        "gravatar_id": "",
        "html_url": "https://github.com/zardoy",
        "id": 46503702,
        "login": "zardoy",
        "node_id": "MDQ6VXNlcjQ2NTAzNzAy",
        "organizations_url": "https://api.github.com/users/zardoy/orgs",
        "received_events_url": "https://api.github.com/users/zardoy/received_events",
        "repos_url": "https://api.github.com/users/zardoy/repos",
        "site_admin": false,
        "starred_url": "https://api.github.com/users/zardoy/starred{/owner}{/repo}",
        "subscriptions_url": "https://api.github.com/users/zardoy/subscriptions",
        "type": "User",
        "url": "https://api.github.com/users/zardoy"
    }
}