{
    "_links": {
        "comments": {
            "href": "https://api.github.com/repos/PrismarineJS/flying-squid/issues/89/comments"
        },
        "commits": {
            "href": "https://api.github.com/repos/PrismarineJS/flying-squid/pulls/89/commits"
        },
        "html": {
            "href": "https://github.com/PrismarineJS/flying-squid/pull/89"
        },
        "issue": {
            "href": "https://api.github.com/repos/PrismarineJS/flying-squid/issues/89"
        },
        "review_comment": {
            "href": "https://api.github.com/repos/PrismarineJS/flying-squid/pulls/comments{/number}"
        },
        "review_comments": {
            "href": "https://api.github.com/repos/PrismarineJS/flying-squid/pulls/89/comments"
        },
        "self": {
            "href": "https://api.github.com/repos/PrismarineJS/flying-squid/pulls/89"
        },
        "statuses": {
            "href": "https://api.github.com/repos/PrismarineJS/flying-squid/statuses/17ad68dced771d9e3ea7d37291bb28b0c6cfd8b2"
        }
    },
    "active_lock_reason": null,
    "additions": 233,
    "assignee": null,
    "assignees": [],
    "author_association": "CONTRIBUTOR",
    "auto_merge": null,
    "base": {
        "label": "PrismarineJS:master",
        "ref": "master",
        "repo": {
            "allow_forking": true,
            "archive_url": "https://api.github.com/repos/PrismarineJS/flying-squid/{archive_format}{/ref}",
            "archived": false,
            "assignees_url": "https://api.github.com/repos/PrismarineJS/flying-squid/assignees{/user}",
            "blobs_url": "https://api.github.com/repos/PrismarineJS/flying-squid/git/blobs{/sha}",
            "branches_url": "https://api.github.com/repos/PrismarineJS/flying-squid/branches{/branch}",
            "clone_url": "https://github.com/PrismarineJS/flying-squid.git",
            "collaborators_url": "https://api.github.com/repos/PrismarineJS/flying-squid/collaborators{/collaborator}",
            "comments_url": "https://api.github.com/repos/PrismarineJS/flying-squid/comments{/number}",
            "commits_url": "https://api.github.com/repos/PrismarineJS/flying-squid/commits{/sha}",
            "compare_url": "https://api.github.com/repos/PrismarineJS/flying-squid/compare/{base}...{head}",
            "contents_url": "https://api.github.com/repos/PrismarineJS/flying-squid/contents/{+path}",
            "contributors_url": "https://api.github.com/repos/PrismarineJS/flying-squid/contributors",
            "created_at": "2015-08-25T23:30:19Z",
            "default_branch": "master",
            "deployments_url": "https://api.github.com/repos/PrismarineJS/flying-squid/deployments",
            "description": "Create Minecraft servers with a powerful, stable, and high level JavaScript API.",
            "disabled": false,
            "downloads_url": "https://api.github.com/repos/PrismarineJS/flying-squid/downloads",
            "events_url": "https://api.github.com/repos/PrismarineJS/flying-squid/events",
            "fork": false,
            "forks": 86,
            "forks_count": 86,
            "forks_url": "https://api.github.com/repos/PrismarineJS/flying-squid/forks",
            "full_name": "PrismarineJS/flying-squid",
            "git_commits_url": "https://api.github.com/repos/PrismarineJS/flying-squid/git/commits{/sha}",
            "git_refs_url": "https://api.github.com/repos/PrismarineJS/flying-squid/git/refs{/sha}",
            "git_tags_url": "https://api.github.com/repos/PrismarineJS/flying-squid/git/tags{/sha}",
            "git_url": "git://github.com/PrismarineJS/flying-squid.git",
            "has_discussions": false,
            "has_downloads": true,
            "has_issues": true,
            "has_pages": true,
            "has_projects": true,
            "has_wiki": true,
            "homepage": "https://prismarinejs.github.io/flying-squid/",
            "hooks_url": "https://api.github.com/repos/PrismarineJS/flying-squid/hooks",
            "html_url": "https://github.com/PrismarineJS/flying-squid",
            "id": 41393164,
            "is_template": false,
            "issue_comment_url": "https://api.github.com/repos/PrismarineJS/flying-squid/issues/comments{/number}",
            "issue_events_url": "https://api.github.com/repos/PrismarineJS/flying-squid/issues/events{/number}",
            "issues_url": "https://api.github.com/repos/PrismarineJS/flying-squid/issues{/number}",
            "keys_url": "https://api.github.com/repos/PrismarineJS/flying-squid/keys{/key_id}",
            "labels_url": "https://api.github.com/repos/PrismarineJS/flying-squid/labels{/name}",
            "language": "JavaScript",
            "languages_url": "https://api.github.com/repos/PrismarineJS/flying-squid/languages",
            "license": {
                "key": "mit",
                "name": "MIT License",
                "node_id": "MDc6TGljZW5zZTEz",
                "spdx_id": "MIT",
                "url": "https://api.github.com/licenses/mit"
            },
            "merges_url": "https://api.github.com/repos/PrismarineJS/flying-squid/merges",
            "milestones_url": "https://api.github.com/repos/PrismarineJS/flying-squid/milestones{/number}",
            "mirror_url": null,
            "name": "flying-squid",
            "node_id": "MDEwOlJlcG9zaXRvcnk0MTM5MzE2NA==",
            "notifications_url": "https://api.github.com/repos/PrismarineJS/flying-squid/notifications{?since,all,participating}",
            "open_issues": 105,
            "open_issues_count": 105,
            "owner": {
                "avatar_url": "https://avatars.githubusercontent.com/u/11053411?v=4",
                "events_url": "https://api.github.com/users/PrismarineJS/events{/privacy}",
                "followers_url": "https://api.github.com/users/PrismarineJS/followers",
                "following_url": "https://api.github.com/users/PrismarineJS/following{/other_user}",
                "gists_url": "https://api.github.com/users/PrismarineJS/gists{/gist_id}",
                "gravatar_id": "",
                "html_url": "https://github.com/PrismarineJS",
                "id": 11053411,
                "login": "PrismarineJS",
                "node_id": "MDEyOk9yZ2FuaXphdGlvbjExMDUzNDEx",
                "organizations_url": "https://api.github.com/users/PrismarineJS/orgs",
                "received_events_url": "https://api.github.com/users/PrismarineJS/received_events",
                "repos_url": "https://api.github.com/users/PrismarineJS/repos",
                "site_admin": false,
                "starred_url": "https://api.github.com/users/PrismarineJS/starred{/owner}{/repo}",
                "subscriptions_url": "https://api.github.com/users/PrismarineJS/subscriptions",
                "type": "Organization",
                "url": "https://api.github.com/users/PrismarineJS"
            },
            "private": false,
            "pulls_url": "https://api.github.com/repos/PrismarineJS/flying-squid/pulls{/number}",
            "pushed_at": "2023-04-25T07:58:15Z",
            "releases_url": "https://api.github.com/repos/PrismarineJS/flying-squid/releases{/id}",
            "size": 1044,
            "ssh_url": "git@github.com:PrismarineJS/flying-squid.git",
            "stargazers_count": 471,
            "stargazers_url": "https://api.github.com/repos/PrismarineJS/flying-squid/stargazers",
            "statuses_url": "https://api.github.com/repos/PrismarineJS/flying-squid/statuses/{sha}",
            "subscribers_url": "https://api.github.com/repos/PrismarineJS/flying-squid/subscribers",
            "subscription_url": "https://api.github.com/repos/PrismarineJS/flying-squid/subscription",
            "svn_url": "https://github.com/PrismarineJS/flying-squid",
            "tags_url": "https://api.github.com/repos/PrismarineJS/flying-squid/tags",
            "teams_url": "https://api.github.com/repos/PrismarineJS/flying-squid/teams",
            "topics": [
                "game",
                "minecraft",
                "minecraft-server",
                "protocol",
                "server",
                "voxel"
            ],
            "trees_url": "https://api.github.com/repos/PrismarineJS/flying-squid/git/trees{/sha}",
            "updated_at": "2023-04-20T15:15:59Z",
            "url": "https://api.github.com/repos/PrismarineJS/flying-squid",
            "visibility": "public",
            "watchers": 471,
            "watchers_count": 471,
            "web_commit_signoff_required": false
        },
        "sha": "84369016a1c0b1ee541e49026d26a580e34e9568",
        "user": {
            "avatar_url": "https://avatars.githubusercontent.com/u/11053411?v=4",
            "events_url": "https://api.github.com/users/PrismarineJS/events{/privacy}",
            "followers_url": "https://api.github.com/users/PrismarineJS/followers",
            "following_url": "https://api.github.com/users/PrismarineJS/following{/other_user}",
            "gists_url": "https://api.github.com/users/PrismarineJS/gists{/gist_id}",
            "gravatar_id": "",
            "html_url": "https://github.com/PrismarineJS",
            "id": 11053411,
            "login": "PrismarineJS",
            "node_id": "MDEyOk9yZ2FuaXphdGlvbjExMDUzNDEx",
            "organizations_url": "https://api.github.com/users/PrismarineJS/orgs",
            "received_events_url": "https://api.github.com/users/PrismarineJS/received_events",
            "repos_url": "https://api.github.com/users/PrismarineJS/repos",
            "site_admin": false,
            "starred_url": "https://api.github.com/users/PrismarineJS/starred{/owner}{/repo}",
            "subscriptions_url": "https://api.github.com/users/PrismarineJS/subscriptions",
            "type": "Organization",
            "url": "https://api.github.com/users/PrismarineJS"
        }
    },
    "body": "'nough said\n",
    "changed_files": 9,
    "closed_at": "2015-11-06T02:04:21Z",
    "comment_data": [],
    "comment_regular_data": [
        {
            "author_association": "MEMBER",
            "body": "hmm maybe add these 3 new serv. function in the api.md ?\n",
            "created_at": "2015-11-06T01:44:59Z",
            "html_url": "https://github.com/PrismarineJS/flying-squid/pull/89#issuecomment-154259539",
            "id": 154259539,
            "issue_url": "https://api.github.com/repos/PrismarineJS/flying-squid/issues/89",
            "node_id": "MDEyOklzc3VlQ29tbWVudDE1NDI1OTUzOQ==",
            "performed_via_github_app": null,
            "reactions": {
                "+1": 0,
                "-1": 0,
                "confused": 0,
                "eyes": 0,
                "heart": 0,
                "hooray": 0,
                "laugh": 0,
                "rocket": 0,
                "total_count": 0,
                "url": "https://api.github.com/repos/PrismarineJS/flying-squid/issues/comments/154259539/reactions"
            },
            "updated_at": "2015-11-06T01:44:59Z",
            "url": "https://api.github.com/repos/PrismarineJS/flying-squid/issues/comments/154259539",
            "user": {
                "avatar_url": "https://avatars.githubusercontent.com/u/2346494?v=4",
                "events_url": "https://api.github.com/users/rom1504/events{/privacy}",
                "followers_url": "https://api.github.com/users/rom1504/followers",
                "following_url": "https://api.github.com/users/rom1504/following{/other_user}",
                "gists_url": "https://api.github.com/users/rom1504/gists{/gist_id}",
                "gravatar_id": "",
                "html_url": "https://github.com/rom1504",
                "id": 2346494,
                "login": "rom1504",
                "node_id": "MDQ6VXNlcjIzNDY0OTQ=",
                "organizations_url": "https://api.github.com/users/rom1504/orgs",
                "received_events_url": "https://api.github.com/users/rom1504/received_events",
                "repos_url": "https://api.github.com/users/rom1504/repos",
                "site_admin": false,
                "starred_url": "https://api.github.com/users/rom1504/starred{/owner}{/repo}",
                "subscriptions_url": "https://api.github.com/users/rom1504/subscriptions",
                "type": "User",
                "url": "https://api.github.com/users/rom1504"
            }
        }
    ],
    "comments": 1,
    "comments_url": "https://api.github.com/repos/PrismarineJS/flying-squid/issues/89/comments",
    "commit_data": [
        {
            "author": {
                "avatar_url": "https://avatars.githubusercontent.com/u/7506359?v=4",
                "events_url": "https://api.github.com/users/demipixel/events{/privacy}",
                "followers_url": "https://api.github.com/users/demipixel/followers",
                "following_url": "https://api.github.com/users/demipixel/following{/other_user}",
                "gists_url": "https://api.github.com/users/demipixel/gists{/gist_id}",
                "gravatar_id": "",
                "html_url": "https://github.com/demipixel",
                "id": 7506359,
                "login": "demipixel",
                "node_id": "MDQ6VXNlcjc1MDYzNTk=",
                "organizations_url": "https://api.github.com/users/demipixel/orgs",
                "received_events_url": "https://api.github.com/users/demipixel/received_events",
                "repos_url": "https://api.github.com/users/demipixel/repos",
                "site_admin": false,
                "starred_url": "https://api.github.com/users/demipixel/starred{/owner}{/repo}",
                "subscriptions_url": "https://api.github.com/users/demipixel/subscriptions",
                "type": "User",
                "url": "https://api.github.com/users/demipixel"
            },
            "comments_url": "https://api.github.com/repos/PrismarineJS/flying-squid/commits/2955c5bcfd1a0214aedbf96db93bf922474b1909/comments",
            "commit": {
                "author": {
                    "date": "2015-11-03T03:04:09Z",
                    "email": "luke5227@gmail.com",
                    "name": "DemiPixel"
                },
                "comment_count": 0,
                "committer": {
                    "date": "2015-11-03T03:04:09Z",
                    "email": "luke5227@gmail.com",
                    "name": "DemiPixel"
                },
                "message": "Support sound basics",
                "tree": {
                    "sha": "960ed9121132a5c80f0aa1d26b6367be99cbec56",
                    "url": "https://api.github.com/repos/PrismarineJS/flying-squid/git/trees/960ed9121132a5c80f0aa1d26b6367be99cbec56"
                },
                "url": "https://api.github.com/repos/PrismarineJS/flying-squid/git/commits/2955c5bcfd1a0214aedbf96db93bf922474b1909",
                "verification": {
                    "payload": null,
                    "reason": "unsigned",
                    "signature": null,
                    "verified": false
                }
            },
            "committer": {
                "avatar_url": "https://avatars.githubusercontent.com/u/7506359?v=4",
                "events_url": "https://api.github.com/users/demipixel/events{/privacy}",
                "followers_url": "https://api.github.com/users/demipixel/followers",
                "following_url": "https://api.github.com/users/demipixel/following{/other_user}",
                "gists_url": "https://api.github.com/users/demipixel/gists{/gist_id}",
                "gravatar_id": "",
                "html_url": "https://github.com/demipixel",
                "id": 7506359,
                "login": "demipixel",
                "node_id": "MDQ6VXNlcjc1MDYzNTk=",
                "organizations_url": "https://api.github.com/users/demipixel/orgs",
                "received_events_url": "https://api.github.com/users/demipixel/received_events",
                "repos_url": "https://api.github.com/users/demipixel/repos",
                "site_admin": false,
                "starred_url": "https://api.github.com/users/demipixel/starred{/owner}{/repo}",
                "subscriptions_url": "https://api.github.com/users/demipixel/subscriptions",
                "type": "User",
                "url": "https://api.github.com/users/demipixel"
            },
            "html_url": "https://github.com/PrismarineJS/flying-squid/commit/2955c5bcfd1a0214aedbf96db93bf922474b1909",
            "node_id": "MDY6Q29tbWl0NDE5ODAwMjI6Mjk1NWM1YmNmZDFhMDIxNGFlZGJmOTZkYjkzYmY5MjI0NzRiMTkwOQ==",
            "parents": [
                {
                    "html_url": "https://github.com/PrismarineJS/flying-squid/commit/20ff77bc1d8bb5d1ff367017d58ce4a20083f238",
                    "sha": "20ff77bc1d8bb5d1ff367017d58ce4a20083f238",
                    "url": "https://api.github.com/repos/PrismarineJS/flying-squid/commits/20ff77bc1d8bb5d1ff367017d58ce4a20083f238"
                }
            ],
            "sha": "2955c5bcfd1a0214aedbf96db93bf922474b1909",
            "url": "https://api.github.com/repos/PrismarineJS/flying-squid/commits/2955c5bcfd1a0214aedbf96db93bf922474b1909"
        },
        {
            "author": {
                "avatar_url": "https://avatars.githubusercontent.com/u/7506359?v=4",
                "events_url": "https://api.github.com/users/demipixel/events{/privacy}",
                "followers_url": "https://api.github.com/users/demipixel/followers",
                "following_url": "https://api.github.com/users/demipixel/following{/other_user}",
                "gists_url": "https://api.github.com/users/demipixel/gists{/gist_id}",
                "gravatar_id": "",
                "html_url": "https://github.com/demipixel",
                "id": 7506359,
                "login": "demipixel",
                "node_id": "MDQ6VXNlcjc1MDYzNTk=",
                "organizations_url": "https://api.github.com/users/demipixel/orgs",
                "received_events_url": "https://api.github.com/users/demipixel/received_events",
                "repos_url": "https://api.github.com/users/demipixel/repos",
                "site_admin": false,
                "starred_url": "https://api.github.com/users/demipixel/starred{/owner}{/repo}",
                "subscriptions_url": "https://api.github.com/users/demipixel/subscriptions",
                "type": "User",
                "url": "https://api.github.com/users/demipixel"
            },
            "comments_url": "https://api.github.com/repos/PrismarineJS/flying-squid/commits/446dfa64d07d51557c8888abce6f44e0d9b0c8d4/comments",
            "commit": {
                "author": {
                    "date": "2015-11-06T01:41:16Z",
                    "email": "luke5227@gmail.com",
                    "name": "DemiPixel"
                },
                "comment_count": 0,
                "committer": {
                    "date": "2015-11-06T01:41:16Z",
                    "email": "luke5227@gmail.com",
                    "name": "DemiPixel"
                },
                "message": "Lots of stuff.",
                "tree": {
                    "sha": "4af5475e5c03ab13ff5f8578a99d3f0bb8620e71",
                    "url": "https://api.github.com/repos/PrismarineJS/flying-squid/git/trees/4af5475e5c03ab13ff5f8578a99d3f0bb8620e71"
                },
                "url": "https://api.github.com/repos/PrismarineJS/flying-squid/git/commits/446dfa64d07d51557c8888abce6f44e0d9b0c8d4",
                "verification": {
                    "payload": null,
                    "reason": "unsigned",
                    "signature": null,
                    "verified": false
                }
            },
            "committer": {
                "avatar_url": "https://avatars.githubusercontent.com/u/7506359?v=4",
                "events_url": "https://api.github.com/users/demipixel/events{/privacy}",
                "followers_url": "https://api.github.com/users/demipixel/followers",
                "following_url": "https://api.github.com/users/demipixel/following{/other_user}",
                "gists_url": "https://api.github.com/users/demipixel/gists{/gist_id}",
                "gravatar_id": "",
                "html_url": "https://github.com/demipixel",
                "id": 7506359,
                "login": "demipixel",
                "node_id": "MDQ6VXNlcjc1MDYzNTk=",
                "organizations_url": "https://api.github.com/users/demipixel/orgs",
                "received_events_url": "https://api.github.com/users/demipixel/received_events",
                "repos_url": "https://api.github.com/users/demipixel/repos",
                "site_admin": false,
                "starred_url": "https://api.github.com/users/demipixel/starred{/owner}{/repo}",
                "subscriptions_url": "https://api.github.com/users/demipixel/subscriptions",
                "type": "User",
                "url": "https://api.github.com/users/demipixel"
            },
            "html_url": "https://github.com/PrismarineJS/flying-squid/commit/446dfa64d07d51557c8888abce6f44e0d9b0c8d4",
            "node_id": "MDY6Q29tbWl0NDE5ODAwMjI6NDQ2ZGZhNjRkMDdkNTE1NTdjODg4OGFiY2U2ZjQ0ZTBkOWIwYzhkNA==",
            "parents": [
                {
                    "html_url": "https://github.com/PrismarineJS/flying-squid/commit/2955c5bcfd1a0214aedbf96db93bf922474b1909",
                    "sha": "2955c5bcfd1a0214aedbf96db93bf922474b1909",
                    "url": "https://api.github.com/repos/PrismarineJS/flying-squid/commits/2955c5bcfd1a0214aedbf96db93bf922474b1909"
                }
            ],
            "sha": "446dfa64d07d51557c8888abce6f44e0d9b0c8d4",
            "url": "https://api.github.com/repos/PrismarineJS/flying-squid/commits/446dfa64d07d51557c8888abce6f44e0d9b0c8d4"
        },
        {
            "author": {
                "avatar_url": "https://avatars.githubusercontent.com/u/7506359?v=4",
                "events_url": "https://api.github.com/users/demipixel/events{/privacy}",
                "followers_url": "https://api.github.com/users/demipixel/followers",
                "following_url": "https://api.github.com/users/demipixel/following{/other_user}",
                "gists_url": "https://api.github.com/users/demipixel/gists{/gist_id}",
                "gravatar_id": "",
                "html_url": "https://github.com/demipixel",
                "id": 7506359,
                "login": "demipixel",
                "node_id": "MDQ6VXNlcjc1MDYzNTk=",
                "organizations_url": "https://api.github.com/users/demipixel/orgs",
                "received_events_url": "https://api.github.com/users/demipixel/received_events",
                "repos_url": "https://api.github.com/users/demipixel/repos",
                "site_admin": false,
                "starred_url": "https://api.github.com/users/demipixel/starred{/owner}{/repo}",
                "subscriptions_url": "https://api.github.com/users/demipixel/subscriptions",
                "type": "User",
                "url": "https://api.github.com/users/demipixel"
            },
            "comments_url": "https://api.github.com/repos/PrismarineJS/flying-squid/commits/17ad68dced771d9e3ea7d37291bb28b0c6cfd8b2/comments",
            "commit": {
                "author": {
                    "date": "2015-11-06T01:58:49Z",
                    "email": "luke5227@gmail.com",
                    "name": "DemiPixel"
                },
                "comment_count": 0,
                "committer": {
                    "date": "2015-11-06T01:58:49Z",
                    "email": "luke5227@gmail.com",
                    "name": "DemiPixel"
                },
                "message": "I love my docs",
                "tree": {
                    "sha": "afc22b34e824d7dc1039dda89eebc40138e45c74",
                    "url": "https://api.github.com/repos/PrismarineJS/flying-squid/git/trees/afc22b34e824d7dc1039dda89eebc40138e45c74"
                },
                "url": "https://api.github.com/repos/PrismarineJS/flying-squid/git/commits/17ad68dced771d9e3ea7d37291bb28b0c6cfd8b2",
                "verification": {
                    "payload": null,
                    "reason": "unsigned",
                    "signature": null,
                    "verified": false
                }
            },
            "committer": {
                "avatar_url": "https://avatars.githubusercontent.com/u/7506359?v=4",
                "events_url": "https://api.github.com/users/demipixel/events{/privacy}",
                "followers_url": "https://api.github.com/users/demipixel/followers",
                "following_url": "https://api.github.com/users/demipixel/following{/other_user}",
                "gists_url": "https://api.github.com/users/demipixel/gists{/gist_id}",
                "gravatar_id": "",
                "html_url": "https://github.com/demipixel",
                "id": 7506359,
                "login": "demipixel",
                "node_id": "MDQ6VXNlcjc1MDYzNTk=",
                "organizations_url": "https://api.github.com/users/demipixel/orgs",
                "received_events_url": "https://api.github.com/users/demipixel/received_events",
                "repos_url": "https://api.github.com/users/demipixel/repos",
                "site_admin": false,
                "starred_url": "https://api.github.com/users/demipixel/starred{/owner}{/repo}",
                "subscriptions_url": "https://api.github.com/users/demipixel/subscriptions",
                "type": "User",
                "url": "https://api.github.com/users/demipixel"
            },
            "html_url": "https://github.com/PrismarineJS/flying-squid/commit/17ad68dced771d9e3ea7d37291bb28b0c6cfd8b2",
            "node_id": "MDY6Q29tbWl0NDE5ODAwMjI6MTdhZDY4ZGNlZDc3MWQ5ZTNlYTdkMzcyOTFiYjI4YjBjNmNmZDhiMg==",
            "parents": [
                {
                    "html_url": "https://github.com/PrismarineJS/flying-squid/commit/446dfa64d07d51557c8888abce6f44e0d9b0c8d4",
                    "sha": "446dfa64d07d51557c8888abce6f44e0d9b0c8d4",
                    "url": "https://api.github.com/repos/PrismarineJS/flying-squid/commits/446dfa64d07d51557c8888abce6f44e0d9b0c8d4"
                }
            ],
            "sha": "17ad68dced771d9e3ea7d37291bb28b0c6cfd8b2",
            "url": "https://api.github.com/repos/PrismarineJS/flying-squid/commits/17ad68dced771d9e3ea7d37291bb28b0c6cfd8b2"
        }
    ],
    "commits": 3,
    "commits_url": "https://api.github.com/repos/PrismarineJS/flying-squid/pulls/89/commits",
    "created_at": "2015-11-06T01:42:07Z",
    "deletions": 14,
    "diff_url": "https://github.com/PrismarineJS/flying-squid/pull/89.diff",
    "draft": false,
    "head": {
        "label": "demipixel:sound",
        "ref": "sound",
        "repo": {
            "allow_forking": true,
            "archive_url": "https://api.github.com/repos/demipixel/flying-squid/{archive_format}{/ref}",
            "archived": false,
            "assignees_url": "https://api.github.com/repos/demipixel/flying-squid/assignees{/user}",
            "blobs_url": "https://api.github.com/repos/demipixel/flying-squid/git/blobs{/sha}",
            "branches_url": "https://api.github.com/repos/demipixel/flying-squid/branches{/branch}",
            "clone_url": "https://github.com/demipixel/flying-squid.git",
            "collaborators_url": "https://api.github.com/repos/demipixel/flying-squid/collaborators{/collaborator}",
            "comments_url": "https://api.github.com/repos/demipixel/flying-squid/comments{/number}",
            "commits_url": "https://api.github.com/repos/demipixel/flying-squid/commits{/sha}",
            "compare_url": "https://api.github.com/repos/demipixel/flying-squid/compare/{base}...{head}",
            "contents_url": "https://api.github.com/repos/demipixel/flying-squid/contents/{+path}",
            "contributors_url": "https://api.github.com/repos/demipixel/flying-squid/contributors",
            "created_at": "2015-09-05T23:57:08Z",
            "default_branch": "master",
            "deployments_url": "https://api.github.com/repos/demipixel/flying-squid/deployments",
            "description": "A minecraft server written in node.js, modularized",
            "disabled": false,
            "downloads_url": "https://api.github.com/repos/demipixel/flying-squid/downloads",
            "events_url": "https://api.github.com/repos/demipixel/flying-squid/events",
            "fork": true,
            "forks": 0,
            "forks_count": 0,
            "forks_url": "https://api.github.com/repos/demipixel/flying-squid/forks",
            "full_name": "demipixel/flying-squid",
            "git_commits_url": "https://api.github.com/repos/demipixel/flying-squid/git/commits{/sha}",
            "git_refs_url": "https://api.github.com/repos/demipixel/flying-squid/git/refs{/sha}",
            "git_tags_url": "https://api.github.com/repos/demipixel/flying-squid/git/tags{/sha}",
            "git_url": "git://github.com/demipixel/flying-squid.git",
            "has_discussions": false,
            "has_downloads": true,
            "has_issues": false,
            "has_pages": false,
            "has_projects": true,
            "has_wiki": true,
            "homepage": "",
            "hooks_url": "https://api.github.com/repos/demipixel/flying-squid/hooks",
            "html_url": "https://github.com/demipixel/flying-squid",
            "id": 41980022,
            "is_template": false,
            "issue_comment_url": "https://api.github.com/repos/demipixel/flying-squid/issues/comments{/number}",
            "issue_events_url": "https://api.github.com/repos/demipixel/flying-squid/issues/events{/number}",
            "issues_url": "https://api.github.com/repos/demipixel/flying-squid/issues{/number}",
            "keys_url": "https://api.github.com/repos/demipixel/flying-squid/keys{/key_id}",
            "labels_url": "https://api.github.com/repos/demipixel/flying-squid/labels{/name}",
            "language": "JavaScript",
            "languages_url": "https://api.github.com/repos/demipixel/flying-squid/languages",
            "license": {
                "key": "mit",
                "name": "MIT License",
                "node_id": "MDc6TGljZW5zZTEz",
                "spdx_id": "MIT",
                "url": "https://api.github.com/licenses/mit"
            },
            "merges_url": "https://api.github.com/repos/demipixel/flying-squid/merges",
            "milestones_url": "https://api.github.com/repos/demipixel/flying-squid/milestones{/number}",
            "mirror_url": null,
            "name": "flying-squid",
            "node_id": "MDEwOlJlcG9zaXRvcnk0MTk4MDAyMg==",
            "notifications_url": "https://api.github.com/repos/demipixel/flying-squid/notifications{?since,all,participating}",
            "open_issues": 0,
            "open_issues_count": 0,
            "owner": {
                "avatar_url": "https://avatars.githubusercontent.com/u/7506359?v=4",
                "events_url": "https://api.github.com/users/demipixel/events{/privacy}",
                "followers_url": "https://api.github.com/users/demipixel/followers",
                "following_url": "https://api.github.com/users/demipixel/following{/other_user}",
                "gists_url": "https://api.github.com/users/demipixel/gists{/gist_id}",
                "gravatar_id": "",
                "html_url": "https://github.com/demipixel",
                "id": 7506359,
                "login": "demipixel",
                "node_id": "MDQ6VXNlcjc1MDYzNTk=",
                "organizations_url": "https://api.github.com/users/demipixel/orgs",
                "received_events_url": "https://api.github.com/users/demipixel/received_events",
                "repos_url": "https://api.github.com/users/demipixel/repos",
                "site_admin": false,
                "starred_url": "https://api.github.com/users/demipixel/starred{/owner}{/repo}",
                "subscriptions_url": "https://api.github.com/users/demipixel/subscriptions",
                "type": "User",
                "url": "https://api.github.com/users/demipixel"
            },
            "private": false,
            "pulls_url": "https://api.github.com/repos/demipixel/flying-squid/pulls{/number}",
            "pushed_at": "2020-10-24T22:37:13Z",
            "releases_url": "https://api.github.com/repos/demipixel/flying-squid/releases{/id}",
            "size": 946,
            "ssh_url": "git@github.com:demipixel/flying-squid.git",
            "stargazers_count": 0,
            "stargazers_url": "https://api.github.com/repos/demipixel/flying-squid/stargazers",
            "statuses_url": "https://api.github.com/repos/demipixel/flying-squid/statuses/{sha}",
            "subscribers_url": "https://api.github.com/repos/demipixel/flying-squid/subscribers",
            "subscription_url": "https://api.github.com/repos/demipixel/flying-squid/subscription",
            "svn_url": "https://github.com/demipixel/flying-squid",
            "tags_url": "https://api.github.com/repos/demipixel/flying-squid/tags",
            "teams_url": "https://api.github.com/repos/demipixel/flying-squid/teams",
            "topics": [],
            "trees_url": "https://api.github.com/repos/demipixel/flying-squid/git/trees{/sha}",
            "updated_at": "2020-10-24T22:37:33Z",
            "url": "https://api.github.com/repos/demipixel/flying-squid",
            "visibility": "public",
            "watchers": 0,
            "watchers_count": 0,
            "web_commit_signoff_required": false
        },
        "sha": "17ad68dced771d9e3ea7d37291bb28b0c6cfd8b2",
        "user": {
            "avatar_url": "https://avatars.githubusercontent.com/u/7506359?v=4",
            "events_url": "https://api.github.com/users/demipixel/events{/privacy}",
            "followers_url": "https://api.github.com/users/demipixel/followers",
            "following_url": "https://api.github.com/users/demipixel/following{/other_user}",
            "gists_url": "https://api.github.com/users/demipixel/gists{/gist_id}",
            "gravatar_id": "",
            "html_url": "https://github.com/demipixel",
            "id": 7506359,
            "login": "demipixel",
            "node_id": "MDQ6VXNlcjc1MDYzNTk=",
            "organizations_url": "https://api.github.com/users/demipixel/orgs",
            "received_events_url": "https://api.github.com/users/demipixel/received_events",
            "repos_url": "https://api.github.com/users/demipixel/repos",
            "site_admin": false,
            "starred_url": "https://api.github.com/users/demipixel/starred{/owner}{/repo}",
            "subscriptions_url": "https://api.github.com/users/demipixel/subscriptions",
            "type": "User",
            "url": "https://api.github.com/users/demipixel"
        }
    },
    "html_url": "https://github.com/PrismarineJS/flying-squid/pull/89",
    "id": 49906532,
    "issue_url": "https://api.github.com/repos/PrismarineJS/flying-squid/issues/89",
    "labels": [],
    "locked": false,
    "maintainer_can_modify": false,
    "merge_commit_sha": "b0978f3f821793d2419e1f84e855296c487287fd",
    "mergeable": null,
    "mergeable_state": "unknown",
    "merged": true,
    "merged_at": "2015-11-06T02:04:21Z",
    "merged_by": {
        "avatar_url": "https://avatars.githubusercontent.com/u/2346494?v=4",
        "events_url": "https://api.github.com/users/rom1504/events{/privacy}",
        "followers_url": "https://api.github.com/users/rom1504/followers",
        "following_url": "https://api.github.com/users/rom1504/following{/other_user}",
        "gists_url": "https://api.github.com/users/rom1504/gists{/gist_id}",
        "gravatar_id": "",
        "html_url": "https://github.com/rom1504",
        "id": 2346494,
        "login": "rom1504",
        "node_id": "MDQ6VXNlcjIzNDY0OTQ=",
        "organizations_url": "https://api.github.com/users/rom1504/orgs",
        "received_events_url": "https://api.github.com/users/rom1504/received_events",
        "repos_url": "https://api.github.com/users/rom1504/repos",
        "site_admin": false,
        "starred_url": "https://api.github.com/users/rom1504/starred{/owner}{/repo}",
        "subscriptions_url": "https://api.github.com/users/rom1504/subscriptions",
        "type": "User",
        "url": "https://api.github.com/users/rom1504"
    },
    "milestone": null,
    "node_id": "MDExOlB1bGxSZXF1ZXN0NDk5MDY1MzI=",
    "number": 89,
    "patch_url": "https://github.com/PrismarineJS/flying-squid/pull/89.patch",
    "rebaseable": null,
    "requested_reviewers": [],
    "requested_teams": [],
    "review_comment_url": "https://api.github.com/repos/PrismarineJS/flying-squid/pulls/comments{/number}",
    "review_comments": 0,
    "review_comments_url": "https://api.github.com/repos/PrismarineJS/flying-squid/pulls/89/comments",
    "state": "closed",
    "statuses_url": "https://api.github.com/repos/PrismarineJS/flying-squid/statuses/17ad68dced771d9e3ea7d37291bb28b0c6cfd8b2",
    "title": "Sound and Particles!",
    "updated_at": "2015-11-06T21:42:15Z",
    "url": "https://api.github.com/repos/PrismarineJS/flying-squid/pulls/89",
    "user": {
        "avatar_url": "https://avatars.githubusercontent.com/u/7506359?v=4",
        "events_url": "https://api.github.com/users/demipixel/events{/privacy}",
        "followers_url": "https://api.github.com/users/demipixel/followers",
        "following_url": "https://api.github.com/users/demipixel/following{/other_user}",
        "gists_url": "https://api.github.com/users/demipixel/gists{/gist_id}",
        "gravatar_id": "",
        "html_url": "https://github.com/demipixel",
        "id": 7506359,
        "login": "demipixel",
        "node_id": "MDQ6VXNlcjc1MDYzNTk=",
        "organizations_url": "https://api.github.com/users/demipixel/orgs",
        "received_events_url": "https://api.github.com/users/demipixel/received_events",
        "repos_url": "https://api.github.com/users/demipixel/repos",
        "site_admin": false,
        "starred_url": "https://api.github.com/users/demipixel/starred{/owner}{/repo}",
        "subscriptions_url": "https://api.github.com/users/demipixel/subscriptions",
        "type": "User",
        "url": "https://api.github.com/users/demipixel"
    }
}