{
    "_links": {
        "comments": {
            "href": "https://api.github.com/repos/PrismarineJS/MineflayerArmorManager/issues/235/comments"
        },
        "commits": {
            "href": "https://api.github.com/repos/PrismarineJS/MineflayerArmorManager/pulls/235/commits"
        },
        "html": {
            "href": "https://github.com/PrismarineJS/MineflayerArmorManager/pull/235"
        },
        "issue": {
            "href": "https://api.github.com/repos/PrismarineJS/MineflayerArmorManager/issues/235"
        },
        "review_comment": {
            "href": "https://api.github.com/repos/PrismarineJS/MineflayerArmorManager/pulls/comments{/number}"
        },
        "review_comments": {
            "href": "https://api.github.com/repos/PrismarineJS/MineflayerArmorManager/pulls/235/comments"
        },
        "self": {
            "href": "https://api.github.com/repos/PrismarineJS/MineflayerArmorManager/pulls/235"
        },
        "statuses": {
            "href": "https://api.github.com/repos/PrismarineJS/MineflayerArmorManager/statuses/6db61c09e25eb43d3673dc36adc97b8657bd4ca1"
        }
    },
    "active_lock_reason": null,
    "additions": 106,
    "assignee": null,
    "assignees": [],
    "author_association": "CONTRIBUTOR",
    "auto_merge": null,
    "base": {
        "label": "PrismarineJS:master",
        "ref": "master",
        "repo": {
            "allow_forking": true,
            "archive_url": "https://api.github.com/repos/PrismarineJS/MineflayerArmorManager/{archive_format}{/ref}",
            "archived": false,
            "assignees_url": "https://api.github.com/repos/PrismarineJS/MineflayerArmorManager/assignees{/user}",
            "blobs_url": "https://api.github.com/repos/PrismarineJS/MineflayerArmorManager/git/blobs{/sha}",
            "branches_url": "https://api.github.com/repos/PrismarineJS/MineflayerArmorManager/branches{/branch}",
            "clone_url": "https://github.com/PrismarineJS/MineflayerArmorManager.git",
            "collaborators_url": "https://api.github.com/repos/PrismarineJS/MineflayerArmorManager/collaborators{/collaborator}",
            "comments_url": "https://api.github.com/repos/PrismarineJS/MineflayerArmorManager/comments{/number}",
            "commits_url": "https://api.github.com/repos/PrismarineJS/MineflayerArmorManager/commits{/sha}",
            "compare_url": "https://api.github.com/repos/PrismarineJS/MineflayerArmorManager/compare/{base}...{head}",
            "contents_url": "https://api.github.com/repos/PrismarineJS/MineflayerArmorManager/contents/{+path}",
            "contributors_url": "https://api.github.com/repos/PrismarineJS/MineflayerArmorManager/contributors",
            "created_at": "2016-02-10T05:47:15Z",
            "default_branch": "master",
            "deployments_url": "https://api.github.com/repos/PrismarineJS/MineflayerArmorManager/deployments",
            "description": null,
            "disabled": false,
            "downloads_url": "https://api.github.com/repos/PrismarineJS/MineflayerArmorManager/downloads",
            "events_url": "https://api.github.com/repos/PrismarineJS/MineflayerArmorManager/events",
            "fork": false,
            "forks": 6,
            "forks_count": 6,
            "forks_url": "https://api.github.com/repos/PrismarineJS/MineflayerArmorManager/forks",
            "full_name": "PrismarineJS/MineflayerArmorManager",
            "git_commits_url": "https://api.github.com/repos/PrismarineJS/MineflayerArmorManager/git/commits{/sha}",
            "git_refs_url": "https://api.github.com/repos/PrismarineJS/MineflayerArmorManager/git/refs{/sha}",
            "git_tags_url": "https://api.github.com/repos/PrismarineJS/MineflayerArmorManager/git/tags{/sha}",
            "git_url": "git://github.com/PrismarineJS/MineflayerArmorManager.git",
            "has_discussions": false,
            "has_downloads": true,
            "has_issues": true,
            "has_pages": false,
            "has_projects": true,
            "has_wiki": false,
            "homepage": null,
            "hooks_url": "https://api.github.com/repos/PrismarineJS/MineflayerArmorManager/hooks",
            "html_url": "https://github.com/PrismarineJS/MineflayerArmorManager",
            "id": 51423400,
            "is_template": false,
            "issue_comment_url": "https://api.github.com/repos/PrismarineJS/MineflayerArmorManager/issues/comments{/number}",
            "issue_events_url": "https://api.github.com/repos/PrismarineJS/MineflayerArmorManager/issues/events{/number}",
            "issues_url": "https://api.github.com/repos/PrismarineJS/MineflayerArmorManager/issues{/number}",
            "keys_url": "https://api.github.com/repos/PrismarineJS/MineflayerArmorManager/keys{/key_id}",
            "labels_url": "https://api.github.com/repos/PrismarineJS/MineflayerArmorManager/labels{/name}",
            "language": "TypeScript",
            "languages_url": "https://api.github.com/repos/PrismarineJS/MineflayerArmorManager/languages",
            "license": {
                "key": "mit",
                "name": "MIT License",
                "node_id": "MDc6TGljZW5zZTEz",
                "spdx_id": "MIT",
                "url": "https://api.github.com/licenses/mit"
            },
            "merges_url": "https://api.github.com/repos/PrismarineJS/MineflayerArmorManager/merges",
            "milestones_url": "https://api.github.com/repos/PrismarineJS/MineflayerArmorManager/milestones{/number}",
            "mirror_url": null,
            "name": "MineflayerArmorManager",
            "node_id": "MDEwOlJlcG9zaXRvcnk1MTQyMzQwMA==",
            "notifications_url": "https://api.github.com/repos/PrismarineJS/MineflayerArmorManager/notifications{?since,all,participating}",
            "open_issues": 6,
            "open_issues_count": 6,
            "owner": {
                "avatar_url": "https://avatars.githubusercontent.com/u/11053411?v=4",
                "events_url": "https://api.github.com/users/PrismarineJS/events{/privacy}",
                "followers_url": "https://api.github.com/users/PrismarineJS/followers",
                "following_url": "https://api.github.com/users/PrismarineJS/following{/other_user}",
                "gists_url": "https://api.github.com/users/PrismarineJS/gists{/gist_id}",
                "gravatar_id": "",
                "html_url": "https://github.com/PrismarineJS",
                "id": 11053411,
                "login": "PrismarineJS",
                "node_id": "MDEyOk9yZ2FuaXphdGlvbjExMDUzNDEx",
                "organizations_url": "https://api.github.com/users/PrismarineJS/orgs",
                "received_events_url": "https://api.github.com/users/PrismarineJS/received_events",
                "repos_url": "https://api.github.com/users/PrismarineJS/repos",
                "site_admin": false,
                "starred_url": "https://api.github.com/users/PrismarineJS/starred{/owner}{/repo}",
                "subscriptions_url": "https://api.github.com/users/PrismarineJS/subscriptions",
                "type": "Organization",
                "url": "https://api.github.com/users/PrismarineJS"
            },
            "private": false,
            "pulls_url": "https://api.github.com/repos/PrismarineJS/MineflayerArmorManager/pulls{/number}",
            "pushed_at": "2024-04-30T09:40:16Z",
            "releases_url": "https://api.github.com/repos/PrismarineJS/MineflayerArmorManager/releases{/id}",
            "size": 2719,
            "ssh_url": "git@github.com:PrismarineJS/MineflayerArmorManager.git",
            "stargazers_count": 20,
            "stargazers_url": "https://api.github.com/repos/PrismarineJS/MineflayerArmorManager/stargazers",
            "statuses_url": "https://api.github.com/repos/PrismarineJS/MineflayerArmorManager/statuses/{sha}",
            "subscribers_url": "https://api.github.com/repos/PrismarineJS/MineflayerArmorManager/subscribers",
            "subscription_url": "https://api.github.com/repos/PrismarineJS/MineflayerArmorManager/subscription",
            "svn_url": "https://github.com/PrismarineJS/MineflayerArmorManager",
            "tags_url": "https://api.github.com/repos/PrismarineJS/MineflayerArmorManager/tags",
            "teams_url": "https://api.github.com/repos/PrismarineJS/MineflayerArmorManager/teams",
            "topics": [
                "bot",
                "minecraft",
                "mineflayer-bot"
            ],
            "trees_url": "https://api.github.com/repos/PrismarineJS/MineflayerArmorManager/git/trees{/sha}",
            "updated_at": "2024-04-30T09:40:13Z",
            "url": "https://api.github.com/repos/PrismarineJS/MineflayerArmorManager",
            "visibility": "public",
            "watchers": 20,
            "watchers_count": 20,
            "web_commit_signoff_required": false
        },
        "sha": "c0bf43500ba12619e12382ca974002170bf6f4e0",
        "user": {
            "avatar_url": "https://avatars.githubusercontent.com/u/11053411?v=4",
            "events_url": "https://api.github.com/users/PrismarineJS/events{/privacy}",
            "followers_url": "https://api.github.com/users/PrismarineJS/followers",
            "following_url": "https://api.github.com/users/PrismarineJS/following{/other_user}",
            "gists_url": "https://api.github.com/users/PrismarineJS/gists{/gist_id}",
            "gravatar_id": "",
            "html_url": "https://github.com/PrismarineJS",
            "id": 11053411,
            "login": "PrismarineJS",
            "node_id": "MDEyOk9yZ2FuaXphdGlvbjExMDUzNDEx",
            "organizations_url": "https://api.github.com/users/PrismarineJS/orgs",
            "received_events_url": "https://api.github.com/users/PrismarineJS/received_events",
            "repos_url": "https://api.github.com/users/PrismarineJS/repos",
            "site_admin": false,
            "starred_url": "https://api.github.com/users/PrismarineJS/starred{/owner}{/repo}",
            "subscriptions_url": "https://api.github.com/users/PrismarineJS/subscriptions",
            "type": "Organization",
            "url": "https://api.github.com/users/PrismarineJS"
        }
    },
    "body": "Bumps [@typescript-eslint/parser](https://github.com/typescript-eslint/typescript-eslint/tree/HEAD/packages/parser) from 7.7.1 to 7.8.0.\n<details>\n<summary>Release notes</summary>\n<p><em>Sourced from <a href=\"https://github.com/typescript-eslint/typescript-eslint/releases\"><code>@​typescript-eslint/parser</code>'s releases</a>.</em></p>\n<blockquote>\n<h2>v7.8.0</h2>\n<h2>7.8.0 (2024-04-29)</h2>\n<h3>🚀 Features</h3>\n<ul>\n<li><strong>rule-tester:</strong> assert suggestion messages are unique (<a href=\"https://redirect.github.com/typescript-eslint/typescript-eslint/pull/8995\">#8995</a>)</li>\n<li><strong>typescript-estree:</strong> add maximumDefaultProjectFileMatchCount and wide allowDefaultProjectForFiles glob restrictions (<a href=\"https://redirect.github.com/typescript-eslint/typescript-eslint/pull/8925\">#8925</a>)</li>\n</ul>\n<h3>🩹 Fixes</h3>\n<ul>\n<li><strong>eslint-plugin:</strong> [no-unsafe-argument] handle  tagged templates (<a href=\"https://redirect.github.com/typescript-eslint/typescript-eslint/pull/8746\">#8746</a>)</li>\n<li><strong>eslint-plugin:</strong> [prefer-optional-chain] suggests optional chaining during strict null equality check (<a href=\"https://redirect.github.com/typescript-eslint/typescript-eslint/pull/8717\">#8717</a>)</li>\n<li><strong>eslint-plugin:</strong> [consistent-type-assertions] handle tagged templates (<a href=\"https://redirect.github.com/typescript-eslint/typescript-eslint/pull/8993\">#8993</a>)</li>\n<li><strong>eslint-plugin:</strong> [no-unsafe-return] handle union types (<a href=\"https://redirect.github.com/typescript-eslint/typescript-eslint/pull/9001\">#9001</a>)</li>\n<li><strong>eslint-plugin:</strong> [no-unused-vars] clear error report range (<a href=\"https://redirect.github.com/typescript-eslint/typescript-eslint/pull/8640\">#8640</a>)</li>\n<li><strong>utils:</strong> export ESLint backwards-compat functions (<a href=\"https://redirect.github.com/typescript-eslint/typescript-eslint/pull/8976\">#8976</a>)</li>\n</ul>\n<h3>❤️  Thank You</h3>\n<ul>\n<li>auvred <a href=\"https://github.com/auvred\"><code>@​auvred</code></a></li>\n<li>Josh Goldberg ✨</li>\n<li>jsfm01 <a href=\"https://github.com/jsfm01\"><code>@​jsfm01</code></a></li>\n<li>Kim Sang Du <a href=\"https://github.com/developer-bandi\"><code>@​developer-bandi</code></a></li>\n<li>YeonJuan <a href=\"https://github.com/yeonjuan\"><code>@​yeonjuan</code></a></li>\n</ul>\n<p>You can read about our <a href=\"https://main--typescript-eslint.netlify.app/users/versioning\">versioning strategy</a> and <a href=\"https://main--typescript-eslint.netlify.app/users/releases\">releases</a> on our website.</p>\n</blockquote>\n</details>\n<details>\n<summary>Changelog</summary>\n<p><em>Sourced from <a href=\"https://github.com/typescript-eslint/typescript-eslint/blob/main/packages/parser/CHANGELOG.md\"><code>@​typescript-eslint/parser</code>'s changelog</a>.</em></p>\n<blockquote>\n<h2>7.8.0 (2024-04-29)</h2>\n<p>This was a version bump only for parser to align it with other projects, there were no code changes.</p>\n<p>You can read about our <a href=\"https://main--typescript-eslint.netlify.app/users/versioning\">versioning strategy</a> and <a href=\"https://main--typescript-eslint.netlify.app/users/releases\">releases</a> on our website.</p>\n</blockquote>\n</details>\n<details>\n<summary>Commits</summary>\n<ul>\n<li><a href=\"https://github.com/typescript-eslint/typescript-eslint/commit/ee677f6f67259f0081ad1a87b1fd9c89692eda21\"><code>ee677f6</code></a> chore(release): publish 7.8.0</li>\n<li>See full diff in <a href=\"https://github.com/typescript-eslint/typescript-eslint/commits/v7.8.0/packages/parser\">compare view</a></li>\n</ul>\n</details>\n<br />\n\n\n[![Dependabot compatibility score](https://dependabot-badges.githubapp.com/badges/compatibility_score?dependency-name=@typescript-eslint/parser&package-manager=npm_and_yarn&previous-version=7.7.1&new-version=7.8.0)](https://docs.github.com/en/github/managing-security-vulnerabilities/about-dependabot-security-updates#about-compatibility-scores)\n\nDependabot will resolve any conflicts with this PR as long as you don't alter it yourself. You can also trigger a rebase manually by commenting `@dependabot rebase`.\n\n[//]: # (dependabot-automerge-start)\n[//]: # (dependabot-automerge-end)\n\n---\n\n<details>\n<summary>Dependabot commands and options</summary>\n<br />\n\nYou can trigger Dependabot actions by commenting on this PR:\n- `@dependabot rebase` will rebase this PR\n- `@dependabot recreate` will recreate this PR, overwriting any edits that have been made to it\n- `@dependabot merge` will merge this PR after your CI passes on it\n- `@dependabot squash and merge` will squash and merge this PR after your CI passes on it\n- `@dependabot cancel merge` will cancel a previously requested merge and block automerging\n- `@dependabot reopen` will reopen this PR if it is closed\n- `@dependabot close` will close this PR and stop Dependabot recreating it. You can achieve the same result by closing it manually\n- `@dependabot show <dependency name> ignore conditions` will show all of the ignore conditions of the specified dependency\n- `@dependabot ignore this major version` will close this PR and stop Dependabot creating any more for this major version (unless you reopen the PR or upgrade to it yourself)\n- `@dependabot ignore this minor version` will close this PR and stop Dependabot creating any more for this minor version (unless you reopen the PR or upgrade to it yourself)\n- `@dependabot ignore this dependency` will close this PR and stop Dependabot creating any more for this dependency (unless you reopen the PR or upgrade to it yourself)\n\n\n</details>",
    "changed_files": 1,
    "closed_at": "2024-04-30T09:39:52Z",
    "comment_data": [],
    "comment_regular_data": [],
    "comments": 0,
    "comments_url": "https://api.github.com/repos/PrismarineJS/MineflayerArmorManager/issues/235/comments",
    "commit_data": [
        {
            "author": {
                "avatar_url": "https://avatars.githubusercontent.com/in/29110?v=4",
                "events_url": "https://api.github.com/users/dependabot%5Bbot%5D/events{/privacy}",
                "followers_url": "https://api.github.com/users/dependabot%5Bbot%5D/followers",
                "following_url": "https://api.github.com/users/dependabot%5Bbot%5D/following{/other_user}",
                "gists_url": "https://api.github.com/users/dependabot%5Bbot%5D/gists{/gist_id}",
                "gravatar_id": "",
                "html_url": "https://github.com/apps/dependabot",
                "id": 49699333,
                "login": "dependabot[bot]",
                "node_id": "MDM6Qm90NDk2OTkzMzM=",
                "organizations_url": "https://api.github.com/users/dependabot%5Bbot%5D/orgs",
                "received_events_url": "https://api.github.com/users/dependabot%5Bbot%5D/received_events",
                "repos_url": "https://api.github.com/users/dependabot%5Bbot%5D/repos",
                "site_admin": false,
                "starred_url": "https://api.github.com/users/dependabot%5Bbot%5D/starred{/owner}{/repo}",
                "subscriptions_url": "https://api.github.com/users/dependabot%5Bbot%5D/subscriptions",
                "type": "Bot",
                "url": "https://api.github.com/users/dependabot%5Bbot%5D"
            },
            "comments_url": "https://api.github.com/repos/PrismarineJS/MineflayerArmorManager/commits/6db61c09e25eb43d3673dc36adc97b8657bd4ca1/comments",
            "commit": {
                "author": {
                    "date": "2024-04-30T09:39:40Z",
                    "email": "49699333+dependabot[bot]@users.noreply.github.com",
                    "name": "dependabot[bot]"
                },
                "comment_count": 0,
                "committer": {
                    "date": "2024-04-30T09:39:40Z",
                    "email": "noreply@github.com",
                    "name": "GitHub"
                },
                "message": "chore(deps-dev): bump @typescript-eslint/parser from 7.7.1 to 7.8.0\n\nBumps [@typescript-eslint/parser](https://github.com/typescript-eslint/typescript-eslint/tree/HEAD/packages/parser) from 7.7.1 to 7.8.0.\n- [Release notes](https://github.com/typescript-eslint/typescript-eslint/releases)\n- [Changelog](https://github.com/typescript-eslint/typescript-eslint/blob/main/packages/parser/CHANGELOG.md)\n- [Commits](https://github.com/typescript-eslint/typescript-eslint/commits/v7.8.0/packages/parser)\n\n---\nupdated-dependencies:\n- dependency-name: \"@typescript-eslint/parser\"\n  dependency-type: direct:development\n  update-type: version-update:semver-minor\n...\n\nSigned-off-by: dependabot[bot] <support@github.com>",
                "tree": {
                    "sha": "4d2491dee05c374bcb7b1b15c0f0bd3c1f7cafb9",
                    "url": "https://api.github.com/repos/PrismarineJS/MineflayerArmorManager/git/trees/4d2491dee05c374bcb7b1b15c0f0bd3c1f7cafb9"
                },
                "url": "https://api.github.com/repos/PrismarineJS/MineflayerArmorManager/git/commits/6db61c09e25eb43d3673dc36adc97b8657bd4ca1",
                "verification": {
                    "payload": "tree 4d2491dee05c374bcb7b1b15c0f0bd3c1f7cafb9\nparent c0bf43500ba12619e12382ca974002170bf6f4e0\nauthor dependabot[bot] <49699333+dependabot[bot]@users.noreply.github.com> 1714469980 +0000\ncommitter GitHub <noreply@github.com> 1714469980 +0000\n\nchore(deps-dev): bump @typescript-eslint/parser from 7.7.1 to 7.8.0\n\nBumps [@typescript-eslint/parser](https://github.com/typescript-eslint/typescript-eslint/tree/HEAD/packages/parser) from 7.7.1 to 7.8.0.\n- [Release notes](https://github.com/typescript-eslint/typescript-eslint/releases)\n- [Changelog](https://github.com/typescript-eslint/typescript-eslint/blob/main/packages/parser/CHANGELOG.md)\n- [Commits](https://github.com/typescript-eslint/typescript-eslint/commits/v7.8.0/packages/parser)\n\n---\nupdated-dependencies:\n- dependency-name: \"@typescript-eslint/parser\"\n  dependency-type: direct:development\n  update-type: version-update:semver-minor\n...\n\nSigned-off-by: dependabot[bot] <support@github.com>",
                    "reason": "valid",
                    "signature": "-----BEGIN PGP SIGNATURE-----\n\nwsFcBAABCAAQBQJmMLxcCRC1aQ7uu5UhlAAATuAQAGLlxeoKY0bFxYhyPonSU3bC\nU61rxs1zMnaBq1aKrGLcjhH9Pv4oAn/UruLkPzKMYBDKUX63Y7OuMkYLq8rXP31d\nuFlPO75q3BVRxpy76ENPqu0cKjAsaA9lvR7cPhQ5qmDebA9P8S823+QExoCmKsas\nRr/cldefy4e7ZDqJKOcrsa2oHIBpgBwHxHrA9+UTz/Jw/d5+8Q8ukwI5v81YGDQj\nuOhxqyGHwNT8Nm1phY9vQoeVMDyi91AEmqddnmr9NZbFnMoRikMeKNyLCOHUcY8D\nwIWFtr9iVMwnUfXz9ZF55GIgrJnaExccO/h/Z3ai1eY5TiLifmWHtkuIXjpUtag2\nZgpa8XQLzx1s/TQHPXq+Kou6YNeB2eoMAyFLBotUqjUVPWeeUgMMmUMo/R7DhmUs\nID8TdKGzTQLNYtAgGqVuqGesm4cIsWEQe6Veawv+8/4PtQzeRURdv1LLFkYzQE/9\nY7KxO1HtYNhQ0+1lskImuOv0If7t7sp1QvxkocFG0UMqCtDplDkIfooLmi4/zWLI\nhHmpYbXT9l2ZWDx1xMdw9hH+I7cuviqb5K9Z9qzUB6RILwUM3iEEmz2s93KteDYn\nJtaE9W30SI/R7bnLkIqERESYRpMxlxot0ZWYciXqPvCa5ADLLakQrObLM1DXYZG0\nXCOXNXJPtFtrFS6x3h/z\n=sr9i\n-----END PGP SIGNATURE-----\n",
                    "verified": true
                }
            },
            "committer": {
                "avatar_url": "https://avatars.githubusercontent.com/u/19864447?v=4",
                "events_url": "https://api.github.com/users/web-flow/events{/privacy}",
                "followers_url": "https://api.github.com/users/web-flow/followers",
                "following_url": "https://api.github.com/users/web-flow/following{/other_user}",
                "gists_url": "https://api.github.com/users/web-flow/gists{/gist_id}",
                "gravatar_id": "",
                "html_url": "https://github.com/web-flow",
                "id": 19864447,
                "login": "web-flow",
                "node_id": "MDQ6VXNlcjE5ODY0NDQ3",
                "organizations_url": "https://api.github.com/users/web-flow/orgs",
                "received_events_url": "https://api.github.com/users/web-flow/received_events",
                "repos_url": "https://api.github.com/users/web-flow/repos",
                "site_admin": false,
                "starred_url": "https://api.github.com/users/web-flow/starred{/owner}{/repo}",
                "subscriptions_url": "https://api.github.com/users/web-flow/subscriptions",
                "type": "User",
                "url": "https://api.github.com/users/web-flow"
            },
            "html_url": "https://github.com/PrismarineJS/MineflayerArmorManager/commit/6db61c09e25eb43d3673dc36adc97b8657bd4ca1",
            "node_id": "C_kwDOAxCoqNoAKDZkYjYxYzA5ZTI1ZWI0M2QzNjczZGMzNmFkYzk3Yjg2NTdiZDRjYTE",
            "parents": [
                {
                    "html_url": "https://github.com/PrismarineJS/MineflayerArmorManager/commit/c0bf43500ba12619e12382ca974002170bf6f4e0",
                    "sha": "c0bf43500ba12619e12382ca974002170bf6f4e0",
                    "url": "https://api.github.com/repos/PrismarineJS/MineflayerArmorManager/commits/c0bf43500ba12619e12382ca974002170bf6f4e0"
                }
            ],
            "sha": "6db61c09e25eb43d3673dc36adc97b8657bd4ca1",
            "url": "https://api.github.com/repos/PrismarineJS/MineflayerArmorManager/commits/6db61c09e25eb43d3673dc36adc97b8657bd4ca1"
        }
    ],
    "commits": 1,
    "commits_url": "https://api.github.com/repos/PrismarineJS/MineflayerArmorManager/pulls/235/commits",
    "created_at": "2024-04-30T09:39:41Z",
    "deletions": 7,
    "diff_url": "https://github.com/PrismarineJS/MineflayerArmorManager/pull/235.diff",
    "draft": false,
    "head": {
        "label": "PrismarineJS:dependabot/npm_and_yarn/typescript-eslint/parser-7.8.0",
        "ref": "dependabot/npm_and_yarn/typescript-eslint/parser-7.8.0",
        "repo": {
            "allow_forking": true,
            "archive_url": "https://api.github.com/repos/PrismarineJS/MineflayerArmorManager/{archive_format}{/ref}",
            "archived": false,
            "assignees_url": "https://api.github.com/repos/PrismarineJS/MineflayerArmorManager/assignees{/user}",
            "blobs_url": "https://api.github.com/repos/PrismarineJS/MineflayerArmorManager/git/blobs{/sha}",
            "branches_url": "https://api.github.com/repos/PrismarineJS/MineflayerArmorManager/branches{/branch}",
            "clone_url": "https://github.com/PrismarineJS/MineflayerArmorManager.git",
            "collaborators_url": "https://api.github.com/repos/PrismarineJS/MineflayerArmorManager/collaborators{/collaborator}",
            "comments_url": "https://api.github.com/repos/PrismarineJS/MineflayerArmorManager/comments{/number}",
            "commits_url": "https://api.github.com/repos/PrismarineJS/MineflayerArmorManager/commits{/sha}",
            "compare_url": "https://api.github.com/repos/PrismarineJS/MineflayerArmorManager/compare/{base}...{head}",
            "contents_url": "https://api.github.com/repos/PrismarineJS/MineflayerArmorManager/contents/{+path}",
            "contributors_url": "https://api.github.com/repos/PrismarineJS/MineflayerArmorManager/contributors",
            "created_at": "2016-02-10T05:47:15Z",
            "default_branch": "master",
            "deployments_url": "https://api.github.com/repos/PrismarineJS/MineflayerArmorManager/deployments",
            "description": null,
            "disabled": false,
            "downloads_url": "https://api.github.com/repos/PrismarineJS/MineflayerArmorManager/downloads",
            "events_url": "https://api.github.com/repos/PrismarineJS/MineflayerArmorManager/events",
            "fork": false,
            "forks": 6,
            "forks_count": 6,
            "forks_url": "https://api.github.com/repos/PrismarineJS/MineflayerArmorManager/forks",
            "full_name": "PrismarineJS/MineflayerArmorManager",
            "git_commits_url": "https://api.github.com/repos/PrismarineJS/MineflayerArmorManager/git/commits{/sha}",
            "git_refs_url": "https://api.github.com/repos/PrismarineJS/MineflayerArmorManager/git/refs{/sha}",
            "git_tags_url": "https://api.github.com/repos/PrismarineJS/MineflayerArmorManager/git/tags{/sha}",
            "git_url": "git://github.com/PrismarineJS/MineflayerArmorManager.git",
            "has_discussions": false,
            "has_downloads": true,
            "has_issues": true,
            "has_pages": false,
            "has_projects": true,
            "has_wiki": false,
            "homepage": null,
            "hooks_url": "https://api.github.com/repos/PrismarineJS/MineflayerArmorManager/hooks",
            "html_url": "https://github.com/PrismarineJS/MineflayerArmorManager",
            "id": 51423400,
            "is_template": false,
            "issue_comment_url": "https://api.github.com/repos/PrismarineJS/MineflayerArmorManager/issues/comments{/number}",
            "issue_events_url": "https://api.github.com/repos/PrismarineJS/MineflayerArmorManager/issues/events{/number}",
            "issues_url": "https://api.github.com/repos/PrismarineJS/MineflayerArmorManager/issues{/number}",
            "keys_url": "https://api.github.com/repos/PrismarineJS/MineflayerArmorManager/keys{/key_id}",
            "labels_url": "https://api.github.com/repos/PrismarineJS/MineflayerArmorManager/labels{/name}",
            "language": "TypeScript",
            "languages_url": "https://api.github.com/repos/PrismarineJS/MineflayerArmorManager/languages",
            "license": {
                "key": "mit",
                "name": "MIT License",
                "node_id": "MDc6TGljZW5zZTEz",
                "spdx_id": "MIT",
                "url": "https://api.github.com/licenses/mit"
            },
            "merges_url": "https://api.github.com/repos/PrismarineJS/MineflayerArmorManager/merges",
            "milestones_url": "https://api.github.com/repos/PrismarineJS/MineflayerArmorManager/milestones{/number}",
            "mirror_url": null,
            "name": "MineflayerArmorManager",
            "node_id": "MDEwOlJlcG9zaXRvcnk1MTQyMzQwMA==",
            "notifications_url": "https://api.github.com/repos/PrismarineJS/MineflayerArmorManager/notifications{?since,all,participating}",
            "open_issues": 6,
            "open_issues_count": 6,
            "owner": {
                "avatar_url": "https://avatars.githubusercontent.com/u/11053411?v=4",
                "events_url": "https://api.github.com/users/PrismarineJS/events{/privacy}",
                "followers_url": "https://api.github.com/users/PrismarineJS/followers",
                "following_url": "https://api.github.com/users/PrismarineJS/following{/other_user}",
                "gists_url": "https://api.github.com/users/PrismarineJS/gists{/gist_id}",
                "gravatar_id": "",
                "html_url": "https://github.com/PrismarineJS",
                "id": 11053411,
                "login": "PrismarineJS",
                "node_id": "MDEyOk9yZ2FuaXphdGlvbjExMDUzNDEx",
                "organizations_url": "https://api.github.com/users/PrismarineJS/orgs",
                "received_events_url": "https://api.github.com/users/PrismarineJS/received_events",
                "repos_url": "https://api.github.com/users/PrismarineJS/repos",
                "site_admin": false,
                "starred_url": "https://api.github.com/users/PrismarineJS/starred{/owner}{/repo}",
                "subscriptions_url": "https://api.github.com/users/PrismarineJS/subscriptions",
                "type": "Organization",
                "url": "https://api.github.com/users/PrismarineJS"
            },
            "private": false,
            "pulls_url": "https://api.github.com/repos/PrismarineJS/MineflayerArmorManager/pulls{/number}",
            "pushed_at": "2024-04-30T09:40:16Z",
            "releases_url": "https://api.github.com/repos/PrismarineJS/MineflayerArmorManager/releases{/id}",
            "size": 2719,
            "ssh_url": "git@github.com:PrismarineJS/MineflayerArmorManager.git",
            "stargazers_count": 20,
            "stargazers_url": "https://api.github.com/repos/PrismarineJS/MineflayerArmorManager/stargazers",
            "statuses_url": "https://api.github.com/repos/PrismarineJS/MineflayerArmorManager/statuses/{sha}",
            "subscribers_url": "https://api.github.com/repos/PrismarineJS/MineflayerArmorManager/subscribers",
            "subscription_url": "https://api.github.com/repos/PrismarineJS/MineflayerArmorManager/subscription",
            "svn_url": "https://github.com/PrismarineJS/MineflayerArmorManager",
            "tags_url": "https://api.github.com/repos/PrismarineJS/MineflayerArmorManager/tags",
            "teams_url": "https://api.github.com/repos/PrismarineJS/MineflayerArmorManager/teams",
            "topics": [
                "bot",
                "minecraft",
                "mineflayer-bot"
            ],
            "trees_url": "https://api.github.com/repos/PrismarineJS/MineflayerArmorManager/git/trees{/sha}",
            "updated_at": "2024-04-30T09:40:13Z",
            "url": "https://api.github.com/repos/PrismarineJS/MineflayerArmorManager",
            "visibility": "public",
            "watchers": 20,
            "watchers_count": 20,
            "web_commit_signoff_required": false
        },
        "sha": "6db61c09e25eb43d3673dc36adc97b8657bd4ca1",
        "user": {
            "avatar_url": "https://avatars.githubusercontent.com/u/11053411?v=4",
            "events_url": "https://api.github.com/users/PrismarineJS/events{/privacy}",
            "followers_url": "https://api.github.com/users/PrismarineJS/followers",
            "following_url": "https://api.github.com/users/PrismarineJS/following{/other_user}",
            "gists_url": "https://api.github.com/users/PrismarineJS/gists{/gist_id}",
            "gravatar_id": "",
            "html_url": "https://github.com/PrismarineJS",
            "id": 11053411,
            "login": "PrismarineJS",
            "node_id": "MDEyOk9yZ2FuaXphdGlvbjExMDUzNDEx",
            "organizations_url": "https://api.github.com/users/PrismarineJS/orgs",
            "received_events_url": "https://api.github.com/users/PrismarineJS/received_events",
            "repos_url": "https://api.github.com/users/PrismarineJS/repos",
            "site_admin": false,
            "starred_url": "https://api.github.com/users/PrismarineJS/starred{/owner}{/repo}",
            "subscriptions_url": "https://api.github.com/users/PrismarineJS/subscriptions",
            "type": "Organization",
            "url": "https://api.github.com/users/PrismarineJS"
        }
    },
    "html_url": "https://github.com/PrismarineJS/MineflayerArmorManager/pull/235",
    "id": 1847489496,
    "issue_url": "https://api.github.com/repos/PrismarineJS/MineflayerArmorManager/issues/235",
    "labels": [
        {
            "color": "0366d6",
            "default": false,
            "description": "Pull requests that update a dependency file",
            "id": 2211501809,
            "name": "dependencies",
            "node_id": "MDU6TGFiZWwyMjExNTAxODA5",
            "url": "https://api.github.com/repos/PrismarineJS/MineflayerArmorManager/labels/dependencies"
        }
    ],
    "locked": false,
    "maintainer_can_modify": false,
    "merge_commit_sha": "8b853089d115175f9ba99be6e1380a9e5f9e6abf",
    "mergeable": null,
    "mergeable_state": "unknown",
    "merged": true,
    "merged_at": "2024-04-30T09:39:52Z",
    "merged_by": {
        "avatar_url": "https://avatars.githubusercontent.com/in/15368?v=4",
        "events_url": "https://api.github.com/users/github-actions%5Bbot%5D/events{/privacy}",
        "followers_url": "https://api.github.com/users/github-actions%5Bbot%5D/followers",
        "following_url": "https://api.github.com/users/github-actions%5Bbot%5D/following{/other_user}",
        "gists_url": "https://api.github.com/users/github-actions%5Bbot%5D/gists{/gist_id}",
        "gravatar_id": "",
        "html_url": "https://github.com/apps/github-actions",
        "id": 41898282,
        "login": "github-actions[bot]",
        "node_id": "MDM6Qm90NDE4OTgyODI=",
        "organizations_url": "https://api.github.com/users/github-actions%5Bbot%5D/orgs",
        "received_events_url": "https://api.github.com/users/github-actions%5Bbot%5D/received_events",
        "repos_url": "https://api.github.com/users/github-actions%5Bbot%5D/repos",
        "site_admin": false,
        "starred_url": "https://api.github.com/users/github-actions%5Bbot%5D/starred{/owner}{/repo}",
        "subscriptions_url": "https://api.github.com/users/github-actions%5Bbot%5D/subscriptions",
        "type": "Bot",
        "url": "https://api.github.com/users/github-actions%5Bbot%5D"
    },
    "milestone": null,
    "node_id": "PR_kwDOAxCoqM5uHnPY",
    "number": 235,
    "patch_url": "https://github.com/PrismarineJS/MineflayerArmorManager/pull/235.patch",
    "rebaseable": null,
    "requested_reviewers": [],
    "requested_teams": [],
    "review_comment_url": "https://api.github.com/repos/PrismarineJS/MineflayerArmorManager/pulls/comments{/number}",
    "review_comments": 0,
    "review_comments_url": "https://api.github.com/repos/PrismarineJS/MineflayerArmorManager/pulls/235/comments",
    "state": "closed",
    "statuses_url": "https://api.github.com/repos/PrismarineJS/MineflayerArmorManager/statuses/6db61c09e25eb43d3673dc36adc97b8657bd4ca1",
    "title": "chore(deps-dev): bump @typescript-eslint/parser from 7.7.1 to 7.8.0",
    "updated_at": "2024-04-30T09:39:59Z",
    "url": "https://api.github.com/repos/PrismarineJS/MineflayerArmorManager/pulls/235",
    "user": {
        "avatar_url": "https://avatars.githubusercontent.com/in/29110?v=4",
        "events_url": "https://api.github.com/users/dependabot%5Bbot%5D/events{/privacy}",
        "followers_url": "https://api.github.com/users/dependabot%5Bbot%5D/followers",
        "following_url": "https://api.github.com/users/dependabot%5Bbot%5D/following{/other_user}",
        "gists_url": "https://api.github.com/users/dependabot%5Bbot%5D/gists{/gist_id}",
        "gravatar_id": "",
        "html_url": "https://github.com/apps/dependabot",
        "id": 49699333,
        "login": "dependabot[bot]",
        "node_id": "MDM6Qm90NDk2OTkzMzM=",
        "organizations_url": "https://api.github.com/users/dependabot%5Bbot%5D/orgs",
        "received_events_url": "https://api.github.com/users/dependabot%5Bbot%5D/received_events",
        "repos_url": "https://api.github.com/users/dependabot%5Bbot%5D/repos",
        "site_admin": false,
        "starred_url": "https://api.github.com/users/dependabot%5Bbot%5D/starred{/owner}{/repo}",
        "subscriptions_url": "https://api.github.com/users/dependabot%5Bbot%5D/subscriptions",
        "type": "Bot",
        "url": "https://api.github.com/users/dependabot%5Bbot%5D"
    }
}