{
    "_links": {
        "comments": {
            "href": "https://api.github.com/repos/PrismarineJS/MineflayerArmorManager/issues/261/comments"
        },
        "commits": {
            "href": "https://api.github.com/repos/PrismarineJS/MineflayerArmorManager/pulls/261/commits"
        },
        "html": {
            "href": "https://github.com/PrismarineJS/MineflayerArmorManager/pull/261"
        },
        "issue": {
            "href": "https://api.github.com/repos/PrismarineJS/MineflayerArmorManager/issues/261"
        },
        "review_comment": {
            "href": "https://api.github.com/repos/PrismarineJS/MineflayerArmorManager/pulls/comments{/number}"
        },
        "review_comments": {
            "href": "https://api.github.com/repos/PrismarineJS/MineflayerArmorManager/pulls/261/comments"
        },
        "self": {
            "href": "https://api.github.com/repos/PrismarineJS/MineflayerArmorManager/pulls/261"
        },
        "statuses": {
            "href": "https://api.github.com/repos/PrismarineJS/MineflayerArmorManager/statuses/750f72ea88b1a639416418412644ad3e0976563e"
        }
    },
    "active_lock_reason": null,
    "additions": 106,
    "assignee": null,
    "assignees": [],
    "author_association": "CONTRIBUTOR",
    "auto_merge": null,
    "base": {
        "label": "PrismarineJS:master",
        "ref": "master",
        "repo": {
            "allow_forking": true,
            "archive_url": "https://api.github.com/repos/PrismarineJS/MineflayerArmorManager/{archive_format}{/ref}",
            "archived": false,
            "assignees_url": "https://api.github.com/repos/PrismarineJS/MineflayerArmorManager/assignees{/user}",
            "blobs_url": "https://api.github.com/repos/PrismarineJS/MineflayerArmorManager/git/blobs{/sha}",
            "branches_url": "https://api.github.com/repos/PrismarineJS/MineflayerArmorManager/branches{/branch}",
            "clone_url": "https://github.com/PrismarineJS/MineflayerArmorManager.git",
            "collaborators_url": "https://api.github.com/repos/PrismarineJS/MineflayerArmorManager/collaborators{/collaborator}",
            "comments_url": "https://api.github.com/repos/PrismarineJS/MineflayerArmorManager/comments{/number}",
            "commits_url": "https://api.github.com/repos/PrismarineJS/MineflayerArmorManager/commits{/sha}",
            "compare_url": "https://api.github.com/repos/PrismarineJS/MineflayerArmorManager/compare/{base}...{head}",
            "contents_url": "https://api.github.com/repos/PrismarineJS/MineflayerArmorManager/contents/{+path}",
            "contributors_url": "https://api.github.com/repos/PrismarineJS/MineflayerArmorManager/contributors",
            "created_at": "2016-02-10T05:47:15Z",
            "default_branch": "master",
            "deployments_url": "https://api.github.com/repos/PrismarineJS/MineflayerArmorManager/deployments",
            "description": null,
            "disabled": false,
            "downloads_url": "https://api.github.com/repos/PrismarineJS/MineflayerArmorManager/downloads",
            "events_url": "https://api.github.com/repos/PrismarineJS/MineflayerArmorManager/events",
            "fork": false,
            "forks": 7,
            "forks_count": 7,
            "forks_url": "https://api.github.com/repos/PrismarineJS/MineflayerArmorManager/forks",
            "full_name": "PrismarineJS/MineflayerArmorManager",
            "git_commits_url": "https://api.github.com/repos/PrismarineJS/MineflayerArmorManager/git/commits{/sha}",
            "git_refs_url": "https://api.github.com/repos/PrismarineJS/MineflayerArmorManager/git/refs{/sha}",
            "git_tags_url": "https://api.github.com/repos/PrismarineJS/MineflayerArmorManager/git/tags{/sha}",
            "git_url": "git://github.com/PrismarineJS/MineflayerArmorManager.git",
            "has_discussions": false,
            "has_downloads": true,
            "has_issues": true,
            "has_pages": false,
            "has_projects": true,
            "has_wiki": false,
            "homepage": null,
            "hooks_url": "https://api.github.com/repos/PrismarineJS/MineflayerArmorManager/hooks",
            "html_url": "https://github.com/PrismarineJS/MineflayerArmorManager",
            "id": 51423400,
            "is_template": false,
            "issue_comment_url": "https://api.github.com/repos/PrismarineJS/MineflayerArmorManager/issues/comments{/number}",
            "issue_events_url": "https://api.github.com/repos/PrismarineJS/MineflayerArmorManager/issues/events{/number}",
            "issues_url": "https://api.github.com/repos/PrismarineJS/MineflayerArmorManager/issues{/number}",
            "keys_url": "https://api.github.com/repos/PrismarineJS/MineflayerArmorManager/keys{/key_id}",
            "labels_url": "https://api.github.com/repos/PrismarineJS/MineflayerArmorManager/labels{/name}",
            "language": "TypeScript",
            "languages_url": "https://api.github.com/repos/PrismarineJS/MineflayerArmorManager/languages",
            "license": {
                "key": "mit",
                "name": "MIT License",
                "node_id": "MDc6TGljZW5zZTEz",
                "spdx_id": "MIT",
                "url": "https://api.github.com/licenses/mit"
            },
            "merges_url": "https://api.github.com/repos/PrismarineJS/MineflayerArmorManager/merges",
            "milestones_url": "https://api.github.com/repos/PrismarineJS/MineflayerArmorManager/milestones{/number}",
            "mirror_url": null,
            "name": "MineflayerArmorManager",
            "node_id": "MDEwOlJlcG9zaXRvcnk1MTQyMzQwMA==",
            "notifications_url": "https://api.github.com/repos/PrismarineJS/MineflayerArmorManager/notifications{?since,all,participating}",
            "open_issues": 6,
            "open_issues_count": 6,
            "owner": {
                "avatar_url": "https://avatars.githubusercontent.com/u/11053411?v=4",
                "events_url": "https://api.github.com/users/PrismarineJS/events{/privacy}",
                "followers_url": "https://api.github.com/users/PrismarineJS/followers",
                "following_url": "https://api.github.com/users/PrismarineJS/following{/other_user}",
                "gists_url": "https://api.github.com/users/PrismarineJS/gists{/gist_id}",
                "gravatar_id": "",
                "html_url": "https://github.com/PrismarineJS",
                "id": 11053411,
                "login": "PrismarineJS",
                "node_id": "MDEyOk9yZ2FuaXphdGlvbjExMDUzNDEx",
                "organizations_url": "https://api.github.com/users/PrismarineJS/orgs",
                "received_events_url": "https://api.github.com/users/PrismarineJS/received_events",
                "repos_url": "https://api.github.com/users/PrismarineJS/repos",
                "site_admin": false,
                "starred_url": "https://api.github.com/users/PrismarineJS/starred{/owner}{/repo}",
                "subscriptions_url": "https://api.github.com/users/PrismarineJS/subscriptions",
                "type": "Organization",
                "url": "https://api.github.com/users/PrismarineJS"
            },
            "private": false,
            "pulls_url": "https://api.github.com/repos/PrismarineJS/MineflayerArmorManager/pulls{/number}",
            "pushed_at": "2024-07-02T09:03:54Z",
            "releases_url": "https://api.github.com/repos/PrismarineJS/MineflayerArmorManager/releases{/id}",
            "size": 2352,
            "ssh_url": "git@github.com:PrismarineJS/MineflayerArmorManager.git",
            "stargazers_count": 21,
            "stargazers_url": "https://api.github.com/repos/PrismarineJS/MineflayerArmorManager/stargazers",
            "statuses_url": "https://api.github.com/repos/PrismarineJS/MineflayerArmorManager/statuses/{sha}",
            "subscribers_url": "https://api.github.com/repos/PrismarineJS/MineflayerArmorManager/subscribers",
            "subscription_url": "https://api.github.com/repos/PrismarineJS/MineflayerArmorManager/subscription",
            "svn_url": "https://github.com/PrismarineJS/MineflayerArmorManager",
            "tags_url": "https://api.github.com/repos/PrismarineJS/MineflayerArmorManager/tags",
            "teams_url": "https://api.github.com/repos/PrismarineJS/MineflayerArmorManager/teams",
            "topics": [
                "bot",
                "minecraft",
                "mineflayer-bot"
            ],
            "trees_url": "https://api.github.com/repos/PrismarineJS/MineflayerArmorManager/git/trees{/sha}",
            "updated_at": "2024-07-02T09:03:50Z",
            "url": "https://api.github.com/repos/PrismarineJS/MineflayerArmorManager",
            "visibility": "public",
            "watchers": 21,
            "watchers_count": 21,
            "web_commit_signoff_required": false
        },
        "sha": "ca590ee87715558e8c67d54433fed62d6c288abc",
        "user": {
            "avatar_url": "https://avatars.githubusercontent.com/u/11053411?v=4",
            "events_url": "https://api.github.com/users/PrismarineJS/events{/privacy}",
            "followers_url": "https://api.github.com/users/PrismarineJS/followers",
            "following_url": "https://api.github.com/users/PrismarineJS/following{/other_user}",
            "gists_url": "https://api.github.com/users/PrismarineJS/gists{/gist_id}",
            "gravatar_id": "",
            "html_url": "https://github.com/PrismarineJS",
            "id": 11053411,
            "login": "PrismarineJS",
            "node_id": "MDEyOk9yZ2FuaXphdGlvbjExMDUzNDEx",
            "organizations_url": "https://api.github.com/users/PrismarineJS/orgs",
            "received_events_url": "https://api.github.com/users/PrismarineJS/received_events",
            "repos_url": "https://api.github.com/users/PrismarineJS/repos",
            "site_admin": false,
            "starred_url": "https://api.github.com/users/PrismarineJS/starred{/owner}{/repo}",
            "subscriptions_url": "https://api.github.com/users/PrismarineJS/subscriptions",
            "type": "Organization",
            "url": "https://api.github.com/users/PrismarineJS"
        }
    },
    "body": "Bumps [@typescript-eslint/parser](https://github.com/typescript-eslint/typescript-eslint/tree/HEAD/packages/parser) from 7.14.1 to 7.15.0.\n<details>\n<summary>Release notes</summary>\n<p><em>Sourced from <a href=\"https://github.com/typescript-eslint/typescript-eslint/releases\"><code>@​typescript-eslint/parser</code>'s releases</a>.</em></p>\n<blockquote>\n<h2>v7.15.0</h2>\n<h2>7.15.0 (2024-07-01)</h2>\n<h3>🚀 Features</h3>\n<ul>\n<li><strong>eslint-plugin:</strong> [array-type] detect <code>Readonly&lt;string[]&gt;</code> case (<a href=\"https://redirect.github.com/typescript-eslint/typescript-eslint/pull/8752\">#8752</a>)</li>\n<li><strong>eslint-plugin:</strong> back-port new rules around empty object types from v8 (<a href=\"https://redirect.github.com/typescript-eslint/typescript-eslint/pull/9443\">#9443</a>)</li>\n</ul>\n<h3>🩹 Fixes</h3>\n<ul>\n<li>disable <code>EXPERIMENTAL_useProjectService</code> in <code>disabled-type-checked</code> shared config (<a href=\"https://redirect.github.com/typescript-eslint/typescript-eslint/pull/9459\">#9459</a>)</li>\n<li><strong>eslint-plugin:</strong> [no-unsafe-return] differentiate a types-error any from a true any (<a href=\"https://redirect.github.com/typescript-eslint/typescript-eslint/pull/9254\">#9254</a>)</li>\n<li><strong>eslint-plugin:</strong> [no-unsafe-call] differentiate a types-error any from a true any (<a href=\"https://redirect.github.com/typescript-eslint/typescript-eslint/pull/9304\">#9304</a>)</li>\n<li><strong>utils:</strong> clean outdated <code>RuleTester</code> export (<a href=\"https://redirect.github.com/typescript-eslint/typescript-eslint/pull/9322\">#9322</a>)</li>\n</ul>\n<h3>❤️  Thank You</h3>\n<ul>\n<li>auvred <a href=\"https://github.com/auvred\"><code>@​auvred</code></a></li>\n<li>Kim Sang Du <a href=\"https://github.com/developer-bandi\"><code>@​developer-bandi</code></a></li>\n<li>rgehbt <a href=\"https://github.com/Gehbt\"><code>@​Gehbt</code></a></li>\n<li>Vinccool96</li>\n</ul>\n<p>You can read about our <a href=\"https://main--typescript-eslint.netlify.app/users/versioning\">versioning strategy</a> and <a href=\"https://main--typescript-eslint.netlify.app/users/releases\">releases</a> on our website.</p>\n</blockquote>\n</details>\n<details>\n<summary>Changelog</summary>\n<p><em>Sourced from <a href=\"https://github.com/typescript-eslint/typescript-eslint/blob/main/packages/parser/CHANGELOG.md\"><code>@​typescript-eslint/parser</code>'s changelog</a>.</em></p>\n<blockquote>\n<h2>7.15.0 (2024-07-01)</h2>\n<p>This was a version bump only for parser to align it with other projects, there were no code changes.</p>\n<p>You can read about our <a href=\"https://main--typescript-eslint.netlify.app/users/versioning\">versioning strategy</a> and <a href=\"https://main--typescript-eslint.netlify.app/users/releases\">releases</a> on our website.</p>\n</blockquote>\n</details>\n<details>\n<summary>Commits</summary>\n<ul>\n<li><a href=\"https://github.com/typescript-eslint/typescript-eslint/commit/2865d31ec6048e42a4a8f05bc800420ade544faf\"><code>2865d31</code></a> chore(release): publish 7.15.0</li>\n<li>See full diff in <a href=\"https://github.com/typescript-eslint/typescript-eslint/commits/v7.15.0/packages/parser\">compare view</a></li>\n</ul>\n</details>\n<br />\n\n\n[![Dependabot compatibility score](https://dependabot-badges.githubapp.com/badges/compatibility_score?dependency-name=@typescript-eslint/parser&package-manager=npm_and_yarn&previous-version=7.14.1&new-version=7.15.0)](https://docs.github.com/en/github/managing-security-vulnerabilities/about-dependabot-security-updates#about-compatibility-scores)\n\nDependabot will resolve any conflicts with this PR as long as you don't alter it yourself. You can also trigger a rebase manually by commenting `@dependabot rebase`.\n\n[//]: # (dependabot-automerge-start)\n[//]: # (dependabot-automerge-end)\n\n---\n\n<details>\n<summary>Dependabot commands and options</summary>\n<br />\n\nYou can trigger Dependabot actions by commenting on this PR:\n- `@dependabot rebase` will rebase this PR\n- `@dependabot recreate` will recreate this PR, overwriting any edits that have been made to it\n- `@dependabot merge` will merge this PR after your CI passes on it\n- `@dependabot squash and merge` will squash and merge this PR after your CI passes on it\n- `@dependabot cancel merge` will cancel a previously requested merge and block automerging\n- `@dependabot reopen` will reopen this PR if it is closed\n- `@dependabot close` will close this PR and stop Dependabot recreating it. You can achieve the same result by closing it manually\n- `@dependabot show <dependency name> ignore conditions` will show all of the ignore conditions of the specified dependency\n- `@dependabot ignore this major version` will close this PR and stop Dependabot creating any more for this major version (unless you reopen the PR or upgrade to it yourself)\n- `@dependabot ignore this minor version` will close this PR and stop Dependabot creating any more for this minor version (unless you reopen the PR or upgrade to it yourself)\n- `@dependabot ignore this dependency` will close this PR and stop Dependabot creating any more for this dependency (unless you reopen the PR or upgrade to it yourself)\n\n\n</details>",
    "changed_files": 1,
    "closed_at": "2024-07-02T09:03:32Z",
    "comment_data": [],
    "comment_regular_data": [],
    "comments": 0,
    "comments_url": "https://api.github.com/repos/PrismarineJS/MineflayerArmorManager/issues/261/comments",
    "commit_data": [
        {
            "author": {
                "avatar_url": "https://avatars.githubusercontent.com/in/29110?v=4",
                "events_url": "https://api.github.com/users/dependabot%5Bbot%5D/events{/privacy}",
                "followers_url": "https://api.github.com/users/dependabot%5Bbot%5D/followers",
                "following_url": "https://api.github.com/users/dependabot%5Bbot%5D/following{/other_user}",
                "gists_url": "https://api.github.com/users/dependabot%5Bbot%5D/gists{/gist_id}",
                "gravatar_id": "",
                "html_url": "https://github.com/apps/dependabot",
                "id": 49699333,
                "login": "dependabot[bot]",
                "node_id": "MDM6Qm90NDk2OTkzMzM=",
                "organizations_url": "https://api.github.com/users/dependabot%5Bbot%5D/orgs",
                "received_events_url": "https://api.github.com/users/dependabot%5Bbot%5D/received_events",
                "repos_url": "https://api.github.com/users/dependabot%5Bbot%5D/repos",
                "site_admin": false,
                "starred_url": "https://api.github.com/users/dependabot%5Bbot%5D/starred{/owner}{/repo}",
                "subscriptions_url": "https://api.github.com/users/dependabot%5Bbot%5D/subscriptions",
                "type": "Bot",
                "url": "https://api.github.com/users/dependabot%5Bbot%5D"
            },
            "comments_url": "https://api.github.com/repos/PrismarineJS/MineflayerArmorManager/commits/750f72ea88b1a639416418412644ad3e0976563e/comments",
            "commit": {
                "author": {
                    "date": "2024-07-02T09:03:16Z",
                    "email": "49699333+dependabot[bot]@users.noreply.github.com",
                    "name": "dependabot[bot]"
                },
                "comment_count": 0,
                "committer": {
                    "date": "2024-07-02T09:03:16Z",
                    "email": "noreply@github.com",
                    "name": "GitHub"
                },
                "message": "build(deps-dev): bump @typescript-eslint/parser from 7.14.1 to 7.15.0\n\nBumps [@typescript-eslint/parser](https://github.com/typescript-eslint/typescript-eslint/tree/HEAD/packages/parser) from 7.14.1 to 7.15.0.\n- [Release notes](https://github.com/typescript-eslint/typescript-eslint/releases)\n- [Changelog](https://github.com/typescript-eslint/typescript-eslint/blob/main/packages/parser/CHANGELOG.md)\n- [Commits](https://github.com/typescript-eslint/typescript-eslint/commits/v7.15.0/packages/parser)\n\n---\nupdated-dependencies:\n- dependency-name: \"@typescript-eslint/parser\"\n  dependency-type: direct:development\n  update-type: version-update:semver-minor\n...\n\nSigned-off-by: dependabot[bot] <support@github.com>",
                "tree": {
                    "sha": "678045fdb7dcb99ea436f95cd0713d8d4dc2abb0",
                    "url": "https://api.github.com/repos/PrismarineJS/MineflayerArmorManager/git/trees/678045fdb7dcb99ea436f95cd0713d8d4dc2abb0"
                },
                "url": "https://api.github.com/repos/PrismarineJS/MineflayerArmorManager/git/commits/750f72ea88b1a639416418412644ad3e0976563e",
                "verification": {
                    "payload": "tree 678045fdb7dcb99ea436f95cd0713d8d4dc2abb0\nparent b3e5f58b073af0b45e701be9fc096427c4df9f78\nauthor dependabot[bot] <49699333+dependabot[bot]@users.noreply.github.com> 1719910996 +0000\ncommitter GitHub <noreply@github.com> 1719910996 +0000\n\nbuild(deps-dev): bump @typescript-eslint/parser from 7.14.1 to 7.15.0\n\nBumps [@typescript-eslint/parser](https://github.com/typescript-eslint/typescript-eslint/tree/HEAD/packages/parser) from 7.14.1 to 7.15.0.\n- [Release notes](https://github.com/typescript-eslint/typescript-eslint/releases)\n- [Changelog](https://github.com/typescript-eslint/typescript-eslint/blob/main/packages/parser/CHANGELOG.md)\n- [Commits](https://github.com/typescript-eslint/typescript-eslint/commits/v7.15.0/packages/parser)\n\n---\nupdated-dependencies:\n- dependency-name: \"@typescript-eslint/parser\"\n  dependency-type: direct:development\n  update-type: version-update:semver-minor\n...\n\nSigned-off-by: dependabot[bot] <support@github.com>",
                    "reason": "valid",
                    "signature": "-----BEGIN PGP SIGNATURE-----\n\nwsFcBAABCAAQBQJmg8JUCRC1aQ7uu5UhlAAAMkcQABAZui9a0x82//BPl6wz8jOf\nkvnszhKrUBCS9cy5RbBQqragda6TbuAIrtWPralVFIqN6f/J6cRs2i1LY/ccR7In\naJdezKwhxJDS0GEzF7TCfuDiAJO51izkHV3FP62eL1mYuJllE1rG9AISwby1E+VC\nl1ho322pPPos1+zQgcVBNNA5oYdjrznLulpw5G6O6fczuj2Diy8vNxMe6/IqxytZ\nKdtkYsl53XIV1ZJ3ARUvzHPvCX7YdML9Q14f/zJmwXEAC74ofXktgS0naAonfGWt\nn8LmVKlmA+SfrnR5qxAMhgpGl4OgWXcWdt+O1iZbAqdvhqfnh7i+ZZ6MRDqFDcYU\n76Dg85JumMPVi4qeNmHY8/seK9RKGlickwOTVuaicKby4JFrh2ojHqOJsg3LY4w+\nOWXsultigEgGDkFtyLlDqUoJfnXDnlq5BW5EiqH23weUg/kq8onurj3OkWXMC7Ac\nIdBLGCsTTIrqluCScNOCqhqmgZ/OkuTXPWsjMkKLs0RukoQom2LfRVulmPZAEK52\n4mgNsrp7mtblhcC/Rfcl2Q5VEs7Zwre6O+SjFOVxY+4KilnpvYXGUQpvf//C92pE\n5jqf1yjgK+285UMzKzTPZLOae76W7IdI8wQXsYonPaOFI/eSSTk8KvwzUvGji2UA\nUCJ1eQSzOfWlZ8ocONlz\n=ng2D\n-----END PGP SIGNATURE-----\n",
                    "verified": true
                }
            },
            "committer": {
                "avatar_url": "https://avatars.githubusercontent.com/u/19864447?v=4",
                "events_url": "https://api.github.com/users/web-flow/events{/privacy}",
                "followers_url": "https://api.github.com/users/web-flow/followers",
                "following_url": "https://api.github.com/users/web-flow/following{/other_user}",
                "gists_url": "https://api.github.com/users/web-flow/gists{/gist_id}",
                "gravatar_id": "",
                "html_url": "https://github.com/web-flow",
                "id": 19864447,
                "login": "web-flow",
                "node_id": "MDQ6VXNlcjE5ODY0NDQ3",
                "organizations_url": "https://api.github.com/users/web-flow/orgs",
                "received_events_url": "https://api.github.com/users/web-flow/received_events",
                "repos_url": "https://api.github.com/users/web-flow/repos",
                "site_admin": false,
                "starred_url": "https://api.github.com/users/web-flow/starred{/owner}{/repo}",
                "subscriptions_url": "https://api.github.com/users/web-flow/subscriptions",
                "type": "User",
                "url": "https://api.github.com/users/web-flow"
            },
            "html_url": "https://github.com/PrismarineJS/MineflayerArmorManager/commit/750f72ea88b1a639416418412644ad3e0976563e",
            "node_id": "C_kwDOAxCoqNoAKDc1MGY3MmVhODhiMWE2Mzk0MTY0MTg0MTI2NDRhZDNlMDk3NjU2M2U",
            "parents": [
                {
                    "html_url": "https://github.com/PrismarineJS/MineflayerArmorManager/commit/b3e5f58b073af0b45e701be9fc096427c4df9f78",
                    "sha": "b3e5f58b073af0b45e701be9fc096427c4df9f78",
                    "url": "https://api.github.com/repos/PrismarineJS/MineflayerArmorManager/commits/b3e5f58b073af0b45e701be9fc096427c4df9f78"
                }
            ],
            "sha": "750f72ea88b1a639416418412644ad3e0976563e",
            "url": "https://api.github.com/repos/PrismarineJS/MineflayerArmorManager/commits/750f72ea88b1a639416418412644ad3e0976563e"
        }
    ],
    "commits": 1,
    "commits_url": "https://api.github.com/repos/PrismarineJS/MineflayerArmorManager/pulls/261/commits",
    "created_at": "2024-07-02T09:03:18Z",
    "deletions": 7,
    "diff_url": "https://github.com/PrismarineJS/MineflayerArmorManager/pull/261.diff",
    "draft": false,
    "head": {
        "label": "PrismarineJS:dependabot/npm_and_yarn/typescript-eslint/parser-7.15.0",
        "ref": "dependabot/npm_and_yarn/typescript-eslint/parser-7.15.0",
        "repo": {
            "allow_forking": true,
            "archive_url": "https://api.github.com/repos/PrismarineJS/MineflayerArmorManager/{archive_format}{/ref}",
            "archived": false,
            "assignees_url": "https://api.github.com/repos/PrismarineJS/MineflayerArmorManager/assignees{/user}",
            "blobs_url": "https://api.github.com/repos/PrismarineJS/MineflayerArmorManager/git/blobs{/sha}",
            "branches_url": "https://api.github.com/repos/PrismarineJS/MineflayerArmorManager/branches{/branch}",
            "clone_url": "https://github.com/PrismarineJS/MineflayerArmorManager.git",
            "collaborators_url": "https://api.github.com/repos/PrismarineJS/MineflayerArmorManager/collaborators{/collaborator}",
            "comments_url": "https://api.github.com/repos/PrismarineJS/MineflayerArmorManager/comments{/number}",
            "commits_url": "https://api.github.com/repos/PrismarineJS/MineflayerArmorManager/commits{/sha}",
            "compare_url": "https://api.github.com/repos/PrismarineJS/MineflayerArmorManager/compare/{base}...{head}",
            "contents_url": "https://api.github.com/repos/PrismarineJS/MineflayerArmorManager/contents/{+path}",
            "contributors_url": "https://api.github.com/repos/PrismarineJS/MineflayerArmorManager/contributors",
            "created_at": "2016-02-10T05:47:15Z",
            "default_branch": "master",
            "deployments_url": "https://api.github.com/repos/PrismarineJS/MineflayerArmorManager/deployments",
            "description": null,
            "disabled": false,
            "downloads_url": "https://api.github.com/repos/PrismarineJS/MineflayerArmorManager/downloads",
            "events_url": "https://api.github.com/repos/PrismarineJS/MineflayerArmorManager/events",
            "fork": false,
            "forks": 7,
            "forks_count": 7,
            "forks_url": "https://api.github.com/repos/PrismarineJS/MineflayerArmorManager/forks",
            "full_name": "PrismarineJS/MineflayerArmorManager",
            "git_commits_url": "https://api.github.com/repos/PrismarineJS/MineflayerArmorManager/git/commits{/sha}",
            "git_refs_url": "https://api.github.com/repos/PrismarineJS/MineflayerArmorManager/git/refs{/sha}",
            "git_tags_url": "https://api.github.com/repos/PrismarineJS/MineflayerArmorManager/git/tags{/sha}",
            "git_url": "git://github.com/PrismarineJS/MineflayerArmorManager.git",
            "has_discussions": false,
            "has_downloads": true,
            "has_issues": true,
            "has_pages": false,
            "has_projects": true,
            "has_wiki": false,
            "homepage": null,
            "hooks_url": "https://api.github.com/repos/PrismarineJS/MineflayerArmorManager/hooks",
            "html_url": "https://github.com/PrismarineJS/MineflayerArmorManager",
            "id": 51423400,
            "is_template": false,
            "issue_comment_url": "https://api.github.com/repos/PrismarineJS/MineflayerArmorManager/issues/comments{/number}",
            "issue_events_url": "https://api.github.com/repos/PrismarineJS/MineflayerArmorManager/issues/events{/number}",
            "issues_url": "https://api.github.com/repos/PrismarineJS/MineflayerArmorManager/issues{/number}",
            "keys_url": "https://api.github.com/repos/PrismarineJS/MineflayerArmorManager/keys{/key_id}",
            "labels_url": "https://api.github.com/repos/PrismarineJS/MineflayerArmorManager/labels{/name}",
            "language": "TypeScript",
            "languages_url": "https://api.github.com/repos/PrismarineJS/MineflayerArmorManager/languages",
            "license": {
                "key": "mit",
                "name": "MIT License",
                "node_id": "MDc6TGljZW5zZTEz",
                "spdx_id": "MIT",
                "url": "https://api.github.com/licenses/mit"
            },
            "merges_url": "https://api.github.com/repos/PrismarineJS/MineflayerArmorManager/merges",
            "milestones_url": "https://api.github.com/repos/PrismarineJS/MineflayerArmorManager/milestones{/number}",
            "mirror_url": null,
            "name": "MineflayerArmorManager",
            "node_id": "MDEwOlJlcG9zaXRvcnk1MTQyMzQwMA==",
            "notifications_url": "https://api.github.com/repos/PrismarineJS/MineflayerArmorManager/notifications{?since,all,participating}",
            "open_issues": 6,
            "open_issues_count": 6,
            "owner": {
                "avatar_url": "https://avatars.githubusercontent.com/u/11053411?v=4",
                "events_url": "https://api.github.com/users/PrismarineJS/events{/privacy}",
                "followers_url": "https://api.github.com/users/PrismarineJS/followers",
                "following_url": "https://api.github.com/users/PrismarineJS/following{/other_user}",
                "gists_url": "https://api.github.com/users/PrismarineJS/gists{/gist_id}",
                "gravatar_id": "",
                "html_url": "https://github.com/PrismarineJS",
                "id": 11053411,
                "login": "PrismarineJS",
                "node_id": "MDEyOk9yZ2FuaXphdGlvbjExMDUzNDEx",
                "organizations_url": "https://api.github.com/users/PrismarineJS/orgs",
                "received_events_url": "https://api.github.com/users/PrismarineJS/received_events",
                "repos_url": "https://api.github.com/users/PrismarineJS/repos",
                "site_admin": false,
                "starred_url": "https://api.github.com/users/PrismarineJS/starred{/owner}{/repo}",
                "subscriptions_url": "https://api.github.com/users/PrismarineJS/subscriptions",
                "type": "Organization",
                "url": "https://api.github.com/users/PrismarineJS"
            },
            "private": false,
            "pulls_url": "https://api.github.com/repos/PrismarineJS/MineflayerArmorManager/pulls{/number}",
            "pushed_at": "2024-07-02T09:03:54Z",
            "releases_url": "https://api.github.com/repos/PrismarineJS/MineflayerArmorManager/releases{/id}",
            "size": 2352,
            "ssh_url": "git@github.com:PrismarineJS/MineflayerArmorManager.git",
            "stargazers_count": 21,
            "stargazers_url": "https://api.github.com/repos/PrismarineJS/MineflayerArmorManager/stargazers",
            "statuses_url": "https://api.github.com/repos/PrismarineJS/MineflayerArmorManager/statuses/{sha}",
            "subscribers_url": "https://api.github.com/repos/PrismarineJS/MineflayerArmorManager/subscribers",
            "subscription_url": "https://api.github.com/repos/PrismarineJS/MineflayerArmorManager/subscription",
            "svn_url": "https://github.com/PrismarineJS/MineflayerArmorManager",
            "tags_url": "https://api.github.com/repos/PrismarineJS/MineflayerArmorManager/tags",
            "teams_url": "https://api.github.com/repos/PrismarineJS/MineflayerArmorManager/teams",
            "topics": [
                "bot",
                "minecraft",
                "mineflayer-bot"
            ],
            "trees_url": "https://api.github.com/repos/PrismarineJS/MineflayerArmorManager/git/trees{/sha}",
            "updated_at": "2024-07-02T09:03:50Z",
            "url": "https://api.github.com/repos/PrismarineJS/MineflayerArmorManager",
            "visibility": "public",
            "watchers": 21,
            "watchers_count": 21,
            "web_commit_signoff_required": false
        },
        "sha": "750f72ea88b1a639416418412644ad3e0976563e",
        "user": {
            "avatar_url": "https://avatars.githubusercontent.com/u/11053411?v=4",
            "events_url": "https://api.github.com/users/PrismarineJS/events{/privacy}",
            "followers_url": "https://api.github.com/users/PrismarineJS/followers",
            "following_url": "https://api.github.com/users/PrismarineJS/following{/other_user}",
            "gists_url": "https://api.github.com/users/PrismarineJS/gists{/gist_id}",
            "gravatar_id": "",
            "html_url": "https://github.com/PrismarineJS",
            "id": 11053411,
            "login": "PrismarineJS",
            "node_id": "MDEyOk9yZ2FuaXphdGlvbjExMDUzNDEx",
            "organizations_url": "https://api.github.com/users/PrismarineJS/orgs",
            "received_events_url": "https://api.github.com/users/PrismarineJS/received_events",
            "repos_url": "https://api.github.com/users/PrismarineJS/repos",
            "site_admin": false,
            "starred_url": "https://api.github.com/users/PrismarineJS/starred{/owner}{/repo}",
            "subscriptions_url": "https://api.github.com/users/PrismarineJS/subscriptions",
            "type": "Organization",
            "url": "https://api.github.com/users/PrismarineJS"
        }
    },
    "html_url": "https://github.com/PrismarineJS/MineflayerArmorManager/pull/261",
    "id": 1948986638,
    "issue_url": "https://api.github.com/repos/PrismarineJS/MineflayerArmorManager/issues/261",
    "labels": [
        {
            "color": "0366d6",
            "default": false,
            "description": "Pull requests that update a dependency file",
            "id": 2211501809,
            "name": "dependencies",
            "node_id": "MDU6TGFiZWwyMjExNTAxODA5",
            "url": "https://api.github.com/repos/PrismarineJS/MineflayerArmorManager/labels/dependencies"
        }
    ],
    "locked": false,
    "maintainer_can_modify": false,
    "merge_commit_sha": "c4c6a9c4803c394550b8adee2e340f57b250ac05",
    "mergeable": null,
    "mergeable_state": "unknown",
    "merged": true,
    "merged_at": "2024-07-02T09:03:32Z",
    "merged_by": {
        "avatar_url": "https://avatars.githubusercontent.com/in/15368?v=4",
        "events_url": "https://api.github.com/users/github-actions%5Bbot%5D/events{/privacy}",
        "followers_url": "https://api.github.com/users/github-actions%5Bbot%5D/followers",
        "following_url": "https://api.github.com/users/github-actions%5Bbot%5D/following{/other_user}",
        "gists_url": "https://api.github.com/users/github-actions%5Bbot%5D/gists{/gist_id}",
        "gravatar_id": "",
        "html_url": "https://github.com/apps/github-actions",
        "id": 41898282,
        "login": "github-actions[bot]",
        "node_id": "MDM6Qm90NDE4OTgyODI=",
        "organizations_url": "https://api.github.com/users/github-actions%5Bbot%5D/orgs",
        "received_events_url": "https://api.github.com/users/github-actions%5Bbot%5D/received_events",
        "repos_url": "https://api.github.com/users/github-actions%5Bbot%5D/repos",
        "site_admin": false,
        "starred_url": "https://api.github.com/users/github-actions%5Bbot%5D/starred{/owner}{/repo}",
        "subscriptions_url": "https://api.github.com/users/github-actions%5Bbot%5D/subscriptions",
        "type": "Bot",
        "url": "https://api.github.com/users/github-actions%5Bbot%5D"
    },
    "milestone": null,
    "node_id": "PR_kwDOAxCoqM50Ky0O",
    "number": 261,
    "patch_url": "https://github.com/PrismarineJS/MineflayerArmorManager/pull/261.patch",
    "rebaseable": null,
    "requested_reviewers": [],
    "requested_teams": [],
    "review_comment_url": "https://api.github.com/repos/PrismarineJS/MineflayerArmorManager/pulls/comments{/number}",
    "review_comments": 0,
    "review_comments_url": "https://api.github.com/repos/PrismarineJS/MineflayerArmorManager/pulls/261/comments",
    "state": "closed",
    "statuses_url": "https://api.github.com/repos/PrismarineJS/MineflayerArmorManager/statuses/750f72ea88b1a639416418412644ad3e0976563e",
    "title": "build(deps-dev): bump @typescript-eslint/parser from 7.14.1 to 7.15.0",
    "updated_at": "2024-07-02T09:03:40Z",
    "url": "https://api.github.com/repos/PrismarineJS/MineflayerArmorManager/pulls/261",
    "user": {
        "avatar_url": "https://avatars.githubusercontent.com/in/29110?v=4",
        "events_url": "https://api.github.com/users/dependabot%5Bbot%5D/events{/privacy}",
        "followers_url": "https://api.github.com/users/dependabot%5Bbot%5D/followers",
        "following_url": "https://api.github.com/users/dependabot%5Bbot%5D/following{/other_user}",
        "gists_url": "https://api.github.com/users/dependabot%5Bbot%5D/gists{/gist_id}",
        "gravatar_id": "",
        "html_url": "https://github.com/apps/dependabot",
        "id": 49699333,
        "login": "dependabot[bot]",
        "node_id": "MDM6Qm90NDk2OTkzMzM=",
        "organizations_url": "https://api.github.com/users/dependabot%5Bbot%5D/orgs",
        "received_events_url": "https://api.github.com/users/dependabot%5Bbot%5D/received_events",
        "repos_url": "https://api.github.com/users/dependabot%5Bbot%5D/repos",
        "site_admin": false,
        "starred_url": "https://api.github.com/users/dependabot%5Bbot%5D/starred{/owner}{/repo}",
        "subscriptions_url": "https://api.github.com/users/dependabot%5Bbot%5D/subscriptions",
        "type": "Bot",
        "url": "https://api.github.com/users/dependabot%5Bbot%5D"
    }
}