{
    "active_lock_reason": null,
    "assignee": null,
    "assignees": [],
    "author_association": "MEMBER",
    "body": "tests timeout\r\n\r\ndisabling tests for it for now to unblock pc",
    "closed_at": null,
    "closed_by": null,
    "comment_data": [],
    "comments": 0,
    "comments_url": "https://api.github.com/repos/PrismarineJS/prismarine-registry/issues/43/comments",
    "created_at": "2024-10-26T18:55:42Z",
    "event_data": [
        {
            "actor": {
                "avatar_url": "https://avatars.githubusercontent.com/u/2346494?v=4",
                "events_url": "https://api.github.com/users/rom1504/events{/privacy}",
                "followers_url": "https://api.github.com/users/rom1504/followers",
                "following_url": "https://api.github.com/users/rom1504/following{/other_user}",
                "gists_url": "https://api.github.com/users/rom1504/gists{/gist_id}",
                "gravatar_id": "",
                "html_url": "https://github.com/rom1504",
                "id": 2346494,
                "login": "rom1504",
                "node_id": "MDQ6VXNlcjIzNDY0OTQ=",
                "organizations_url": "https://api.github.com/users/rom1504/orgs",
                "received_events_url": "https://api.github.com/users/rom1504/received_events",
                "repos_url": "https://api.github.com/users/rom1504/repos",
                "site_admin": false,
                "starred_url": "https://api.github.com/users/rom1504/starred{/owner}{/repo}",
                "subscriptions_url": "https://api.github.com/users/rom1504/subscriptions",
                "type": "User",
                "url": "https://api.github.com/users/rom1504",
                "user_view_type": "public"
            },
            "commit_id": "09e80105f354af3405f18c965370621f785136d5",
            "commit_url": "https://api.github.com/repos/PrismarineJS/prismarine-registry/commits/09e80105f354af3405f18c965370621f785136d5",
            "created_at": "2024-10-26T18:56:25Z",
            "event": "referenced",
            "id": 14910418560,
            "node_id": "REFE_lADOGnl0XM6b7gSQzwAAAAN4uu6A",
            "performed_via_github_app": null,
            "url": "https://api.github.com/repos/PrismarineJS/prismarine-registry/issues/events/14910418560"
        }
    ],
    "events_url": "https://api.github.com/repos/PrismarineJS/prismarine-registry/issues/43/events",
    "html_url": "https://github.com/PrismarineJS/prismarine-registry/issues/43",
    "id": 2616067216,
    "labels": [],
    "labels_url": "https://api.github.com/repos/PrismarineJS/prismarine-registry/issues/43/labels{/name}",
    "locked": false,
    "milestone": null,
    "node_id": "I_kwDOGnl0XM6b7gSQ",
    "number": 43,
    "performed_via_github_app": null,
    "reactions": {
        "+1": 0,
        "-1": 0,
        "confused": 0,
        "eyes": 0,
        "heart": 0,
        "hooray": 0,
        "laugh": 0,
        "rocket": 0,
        "total_count": 0,
        "url": "https://api.github.com/repos/PrismarineJS/prismarine-registry/issues/43/reactions"
    },
    "repository_url": "https://api.github.com/repos/PrismarineJS/prismarine-registry",
    "state": "open",
    "state_reason": null,
    "timeline_url": "https://api.github.com/repos/PrismarineJS/prismarine-registry/issues/43/timeline",
    "title": "Fix bedrock support",
    "updated_at": "2024-10-26T18:55:42Z",
    "url": "https://api.github.com/repos/PrismarineJS/prismarine-registry/issues/43",
    "user": {
        "avatar_url": "https://avatars.githubusercontent.com/u/2346494?v=4",
        "events_url": "https://api.github.com/users/rom1504/events{/privacy}",
        "followers_url": "https://api.github.com/users/rom1504/followers",
        "following_url": "https://api.github.com/users/rom1504/following{/other_user}",
        "gists_url": "https://api.github.com/users/rom1504/gists{/gist_id}",
        "gravatar_id": "",
        "html_url": "https://github.com/rom1504",
        "id": 2346494,
        "login": "rom1504",
        "node_id": "MDQ6VXNlcjIzNDY0OTQ=",
        "organizations_url": "https://api.github.com/users/rom1504/orgs",
        "received_events_url": "https://api.github.com/users/rom1504/received_events",
        "repos_url": "https://api.github.com/users/rom1504/repos",
        "site_admin": false,
        "starred_url": "https://api.github.com/users/rom1504/starred{/owner}{/repo}",
        "subscriptions_url": "https://api.github.com/users/rom1504/subscriptions",
        "type": "User",
        "url": "https://api.github.com/users/rom1504",
        "user_view_type": "public"
    }
}