{
    "active_lock_reason": null,
    "assignee": null,
    "assignees": [],
    "author_association": "NONE",
    "body": null,
    "closed_at": "2023-05-19T13:29:32Z",
    "comment_data": [],
    "comments": 0,
    "comments_url": "https://api.github.com/repos/PrismarineJS/node-minecraft-protocol/issues/1185/comments",
    "created_at": "2023-05-19T11:21:04Z",
    "event_data": [
        {
            "actor": {
                "avatar_url": "https://avatars.githubusercontent.com/u/2346494?v=4",
                "events_url": "https://api.github.com/users/rom1504/events{/privacy}",
                "followers_url": "https://api.github.com/users/rom1504/followers",
                "following_url": "https://api.github.com/users/rom1504/following{/other_user}",
                "gists_url": "https://api.github.com/users/rom1504/gists{/gist_id}",
                "gravatar_id": "",
                "html_url": "https://github.com/rom1504",
                "id": 2346494,
                "login": "rom1504",
                "node_id": "MDQ6VXNlcjIzNDY0OTQ=",
                "organizations_url": "https://api.github.com/users/rom1504/orgs",
                "received_events_url": "https://api.github.com/users/rom1504/received_events",
                "repos_url": "https://api.github.com/users/rom1504/repos",
                "site_admin": false,
                "starred_url": "https://api.github.com/users/rom1504/starred{/owner}{/repo}",
                "subscriptions_url": "https://api.github.com/users/rom1504/subscriptions",
                "type": "User",
                "url": "https://api.github.com/users/rom1504"
            },
            "commit_id": null,
            "commit_url": null,
            "created_at": "2023-05-19T13:29:32Z",
            "event": "closed",
            "id": 9289395789,
            "node_id": "CE_lADOAHDUK85mWK3nzwAAAAIpsO5N",
            "performed_via_github_app": null,
            "state_reason": null,
            "url": "https://api.github.com/repos/PrismarineJS/node-minecraft-protocol/issues/events/9289395789"
        }
    ],
    "events_url": "https://api.github.com/repos/PrismarineJS/node-minecraft-protocol/issues/1185/events",
    "html_url": "https://github.com/PrismarineJS/node-minecraft-protocol/issues/1185",
    "id": 1717087719,
    "labels": [],
    "labels_url": "https://api.github.com/repos/PrismarineJS/node-minecraft-protocol/issues/1185/labels{/name}",
    "locked": false,
    "milestone": null,
    "node_id": "I_kwDOAHDUK85mWK3n",
    "number": 1185,
    "performed_via_github_app": null,
    "reactions": {
        "+1": 0,
        "-1": 0,
        "confused": 0,
        "eyes": 0,
        "heart": 0,
        "hooray": 0,
        "laugh": 0,
        "rocket": 0,
        "total_count": 0,
        "url": "https://api.github.com/repos/PrismarineJS/node-minecraft-protocol/issues/1185/reactions"
    },
    "repository_url": "https://api.github.com/repos/PrismarineJS/node-minecraft-protocol",
    "state": "closed",
    "state_reason": "completed",
    "timeline_url": "https://api.github.com/repos/PrismarineJS/node-minecraft-protocol/issues/1185/timeline",
    "title": "IDOTS DAMNS 1 242 46  78 8",
    "updated_at": "2023-05-19T13:29:32Z",
    "url": "https://api.github.com/repos/PrismarineJS/node-minecraft-protocol/issues/1185",
    "user": {
        "avatar_url": "https://avatars.githubusercontent.com/u/70347130?v=4",
        "events_url": "https://api.github.com/users/Artem-xe/events{/privacy}",
        "followers_url": "https://api.github.com/users/Artem-xe/followers",
        "following_url": "https://api.github.com/users/Artem-xe/following{/other_user}",
        "gists_url": "https://api.github.com/users/Artem-xe/gists{/gist_id}",
        "gravatar_id": "",
        "html_url": "https://github.com/Artem-xe",
        "id": 70347130,
        "login": "Artem-xe",
        "node_id": "MDQ6VXNlcjcwMzQ3MTMw",
        "organizations_url": "https://api.github.com/users/Artem-xe/orgs",
        "received_events_url": "https://api.github.com/users/Artem-xe/received_events",
        "repos_url": "https://api.github.com/users/Artem-xe/repos",
        "site_admin": false,
        "starred_url": "https://api.github.com/users/Artem-xe/starred{/owner}{/repo}",
        "subscriptions_url": "https://api.github.com/users/Artem-xe/subscriptions",
        "type": "User",
        "url": "https://api.github.com/users/Artem-xe"
    }
}