{
    "active_lock_reason": null,
    "assignee": null,
    "assignees": [],
    "author_association": "MEMBER",
    "body": "  1) mc-server 1.12.2v\r\n       kicks clients when invalid credentials:\r\n     Uncaught RangeError [ERR_OUT_OF_RANGE]: The value of \"offset\" is out of range. It must be >= 0 and <= 45. Received -847077210\r\n      at new NodeError (node:internal/errors:405:5)\r\n      at boundsError (node:internal/buffer:88:9)\r\n      at Buffer.readUInt8 (node:internal/buffer:254:5)\r\n      at readVarInt (node_modules/protodef/src/datatypes/utils.js:68:22)\r\n      at Splitter._transform (src/transforms/framing.js:63:30)\r\n      at Transform._write (node_modules/readable-stream/lib/internal/streams/transform.js:153:8)\r\n\r\n",
    "closed_at": null,
    "closed_by": null,
    "comment_data": [
        {
            "author_association": "MEMBER",
            "body": "fyi @extremeheat ",
            "created_at": "2024-10-12T21:59:45Z",
            "html_url": "https://github.com/PrismarineJS/node-minecraft-protocol/issues/1337#issuecomment-2408711377",
            "id": 2408711377,
            "issue_url": "https://api.github.com/repos/PrismarineJS/node-minecraft-protocol/issues/1337",
            "node_id": "IC_kwDOAHDUK86PkgTR",
            "performed_via_github_app": null,
            "reactions": {
                "+1": 0,
                "-1": 0,
                "confused": 0,
                "eyes": 0,
                "heart": 0,
                "hooray": 0,
                "laugh": 0,
                "rocket": 0,
                "total_count": 0,
                "url": "https://api.github.com/repos/PrismarineJS/node-minecraft-protocol/issues/comments/2408711377/reactions"
            },
            "updated_at": "2024-10-12T21:59:45Z",
            "url": "https://api.github.com/repos/PrismarineJS/node-minecraft-protocol/issues/comments/2408711377",
            "user": {
                "avatar_url": "https://avatars.githubusercontent.com/u/2346494?v=4",
                "events_url": "https://api.github.com/users/rom1504/events{/privacy}",
                "followers_url": "https://api.github.com/users/rom1504/followers",
                "following_url": "https://api.github.com/users/rom1504/following{/other_user}",
                "gists_url": "https://api.github.com/users/rom1504/gists{/gist_id}",
                "gravatar_id": "",
                "html_url": "https://github.com/rom1504",
                "id": 2346494,
                "login": "rom1504",
                "node_id": "MDQ6VXNlcjIzNDY0OTQ=",
                "organizations_url": "https://api.github.com/users/rom1504/orgs",
                "received_events_url": "https://api.github.com/users/rom1504/received_events",
                "repos_url": "https://api.github.com/users/rom1504/repos",
                "site_admin": false,
                "starred_url": "https://api.github.com/users/rom1504/starred{/owner}{/repo}",
                "subscriptions_url": "https://api.github.com/users/rom1504/subscriptions",
                "type": "User",
                "url": "https://api.github.com/users/rom1504",
                "user_view_type": "public"
            }
        },
        {
            "author_association": "MEMBER",
            "body": "I think this is likely caused by recent node protodef changes https://github.com/ProtoDef-io/node-protodef/commits/master/",
            "created_at": "2024-11-02T10:41:54Z",
            "html_url": "https://github.com/PrismarineJS/node-minecraft-protocol/issues/1337#issuecomment-2452950024",
            "id": 2452950024,
            "issue_url": "https://api.github.com/repos/PrismarineJS/node-minecraft-protocol/issues/1337",
            "node_id": "IC_kwDOAHDUK86SNQwI",
            "performed_via_github_app": null,
            "reactions": {
                "+1": 0,
                "-1": 0,
                "confused": 0,
                "eyes": 0,
                "heart": 0,
                "hooray": 0,
                "laugh": 0,
                "rocket": 0,
                "total_count": 0,
                "url": "https://api.github.com/repos/PrismarineJS/node-minecraft-protocol/issues/comments/2452950024/reactions"
            },
            "updated_at": "2024-11-02T10:41:54Z",
            "url": "https://api.github.com/repos/PrismarineJS/node-minecraft-protocol/issues/comments/2452950024",
            "user": {
                "avatar_url": "https://avatars.githubusercontent.com/u/2346494?v=4",
                "events_url": "https://api.github.com/users/rom1504/events{/privacy}",
                "followers_url": "https://api.github.com/users/rom1504/followers",
                "following_url": "https://api.github.com/users/rom1504/following{/other_user}",
                "gists_url": "https://api.github.com/users/rom1504/gists{/gist_id}",
                "gravatar_id": "",
                "html_url": "https://github.com/rom1504",
                "id": 2346494,
                "login": "rom1504",
                "node_id": "MDQ6VXNlcjIzNDY0OTQ=",
                "organizations_url": "https://api.github.com/users/rom1504/orgs",
                "received_events_url": "https://api.github.com/users/rom1504/received_events",
                "repos_url": "https://api.github.com/users/rom1504/repos",
                "site_admin": false,
                "starred_url": "https://api.github.com/users/rom1504/starred{/owner}{/repo}",
                "subscriptions_url": "https://api.github.com/users/rom1504/subscriptions",
                "type": "User",
                "url": "https://api.github.com/users/rom1504",
                "user_view_type": "public"
            }
        },
        {
            "author_association": "MEMBER",
            "body": "Only change in ProtoDef was how the compiler inlined anonymous containers (treats them as normal containers then merges object into parent), so I don't think it would affect anything big. \n\nWould need to see what packet specifically is causing the error and the dumped buffer to reproduce (the stack trace here is limited to only a few lines it seems)",
            "created_at": "2024-11-02T10:53:43Z",
            "html_url": "https://github.com/PrismarineJS/node-minecraft-protocol/issues/1337#issuecomment-2452952450",
            "id": 2452952450,
            "issue_url": "https://api.github.com/repos/PrismarineJS/node-minecraft-protocol/issues/1337",
            "node_id": "IC_kwDOAHDUK86SNRWC",
            "performed_via_github_app": null,
            "reactions": {
                "+1": 0,
                "-1": 0,
                "confused": 0,
                "eyes": 0,
                "heart": 0,
                "hooray": 0,
                "laugh": 0,
                "rocket": 0,
                "total_count": 0,
                "url": "https://api.github.com/repos/PrismarineJS/node-minecraft-protocol/issues/comments/2452952450/reactions"
            },
            "updated_at": "2024-11-02T10:53:43Z",
            "url": "https://api.github.com/repos/PrismarineJS/node-minecraft-protocol/issues/comments/2452952450",
            "user": {
                "avatar_url": "https://avatars.githubusercontent.com/u/13713600?v=4",
                "events_url": "https://api.github.com/users/extremeheat/events{/privacy}",
                "followers_url": "https://api.github.com/users/extremeheat/followers",
                "following_url": "https://api.github.com/users/extremeheat/following{/other_user}",
                "gists_url": "https://api.github.com/users/extremeheat/gists{/gist_id}",
                "gravatar_id": "",
                "html_url": "https://github.com/extremeheat",
                "id": 13713600,
                "login": "extremeheat",
                "node_id": "MDQ6VXNlcjEzNzEzNjAw",
                "organizations_url": "https://api.github.com/users/extremeheat/orgs",
                "received_events_url": "https://api.github.com/users/extremeheat/received_events",
                "repos_url": "https://api.github.com/users/extremeheat/repos",
                "site_admin": false,
                "starred_url": "https://api.github.com/users/extremeheat/starred{/owner}{/repo}",
                "subscriptions_url": "https://api.github.com/users/extremeheat/subscriptions",
                "type": "User",
                "url": "https://api.github.com/users/extremeheat",
                "user_view_type": "public"
            }
        },
        {
            "author_association": "MEMBER",
            "body": "https://github.com/ProtoDef-io/node-protodef/commit/fcf3ca0568eb8cc0d0167c79db454572165da3f7 was also recently released ",
            "created_at": "2024-11-02T12:20:30Z",
            "html_url": "https://github.com/PrismarineJS/node-minecraft-protocol/issues/1337#issuecomment-2452973382",
            "id": 2452973382,
            "issue_url": "https://api.github.com/repos/PrismarineJS/node-minecraft-protocol/issues/1337",
            "node_id": "IC_kwDOAHDUK86SNWdG",
            "performed_via_github_app": null,
            "reactions": {
                "+1": 0,
                "-1": 0,
                "confused": 0,
                "eyes": 0,
                "heart": 0,
                "hooray": 0,
                "laugh": 0,
                "rocket": 0,
                "total_count": 0,
                "url": "https://api.github.com/repos/PrismarineJS/node-minecraft-protocol/issues/comments/2452973382/reactions"
            },
            "updated_at": "2024-11-02T12:20:30Z",
            "url": "https://api.github.com/repos/PrismarineJS/node-minecraft-protocol/issues/comments/2452973382",
            "user": {
                "avatar_url": "https://avatars.githubusercontent.com/u/2346494?v=4",
                "events_url": "https://api.github.com/users/rom1504/events{/privacy}",
                "followers_url": "https://api.github.com/users/rom1504/followers",
                "following_url": "https://api.github.com/users/rom1504/following{/other_user}",
                "gists_url": "https://api.github.com/users/rom1504/gists{/gist_id}",
                "gravatar_id": "",
                "html_url": "https://github.com/rom1504",
                "id": 2346494,
                "login": "rom1504",
                "node_id": "MDQ6VXNlcjIzNDY0OTQ=",
                "organizations_url": "https://api.github.com/users/rom1504/orgs",
                "received_events_url": "https://api.github.com/users/rom1504/received_events",
                "repos_url": "https://api.github.com/users/rom1504/repos",
                "site_admin": false,
                "starred_url": "https://api.github.com/users/rom1504/starred{/owner}{/repo}",
                "subscriptions_url": "https://api.github.com/users/rom1504/subscriptions",
                "type": "User",
                "url": "https://api.github.com/users/rom1504",
                "user_view_type": "public"
            }
        },
        {
            "author_association": "MEMBER",
            "body": "https://github.com/PrismarineJS/mineflayer/issues/3492 mentions packet advancement ",
            "created_at": "2024-11-02T12:23:08Z",
            "html_url": "https://github.com/PrismarineJS/node-minecraft-protocol/issues/1337#issuecomment-2452974085",
            "id": 2452974085,
            "issue_url": "https://api.github.com/repos/PrismarineJS/node-minecraft-protocol/issues/1337",
            "node_id": "IC_kwDOAHDUK86SNWoF",
            "performed_via_github_app": null,
            "reactions": {
                "+1": 0,
                "-1": 0,
                "confused": 0,
                "eyes": 0,
                "heart": 0,
                "hooray": 0,
                "laugh": 0,
                "rocket": 0,
                "total_count": 0,
                "url": "https://api.github.com/repos/PrismarineJS/node-minecraft-protocol/issues/comments/2452974085/reactions"
            },
            "updated_at": "2024-11-02T12:23:08Z",
            "url": "https://api.github.com/repos/PrismarineJS/node-minecraft-protocol/issues/comments/2452974085",
            "user": {
                "avatar_url": "https://avatars.githubusercontent.com/u/2346494?v=4",
                "events_url": "https://api.github.com/users/rom1504/events{/privacy}",
                "followers_url": "https://api.github.com/users/rom1504/followers",
                "following_url": "https://api.github.com/users/rom1504/following{/other_user}",
                "gists_url": "https://api.github.com/users/rom1504/gists{/gist_id}",
                "gravatar_id": "",
                "html_url": "https://github.com/rom1504",
                "id": 2346494,
                "login": "rom1504",
                "node_id": "MDQ6VXNlcjIzNDY0OTQ=",
                "organizations_url": "https://api.github.com/users/rom1504/orgs",
                "received_events_url": "https://api.github.com/users/rom1504/received_events",
                "repos_url": "https://api.github.com/users/rom1504/repos",
                "site_admin": false,
                "starred_url": "https://api.github.com/users/rom1504/starred{/owner}{/repo}",
                "subscriptions_url": "https://api.github.com/users/rom1504/subscriptions",
                "type": "User",
                "url": "https://api.github.com/users/rom1504",
                "user_view_type": "public"
            }
        },
        {
            "author_association": "MEMBER",
            "body": "For 1.21 wonder if it could be https://github.com/PrismarineJS/node-minecraft-protocol/blob/master/src/datatypes/compiler-minecraft.js#L44",
            "created_at": "2024-11-03T21:15:20Z",
            "html_url": "https://github.com/PrismarineJS/node-minecraft-protocol/issues/1337#issuecomment-2453579337",
            "id": 2453579337,
            "issue_url": "https://api.github.com/repos/PrismarineJS/node-minecraft-protocol/issues/1337",
            "node_id": "IC_kwDOAHDUK86SPqZJ",
            "performed_via_github_app": null,
            "reactions": {
                "+1": 0,
                "-1": 0,
                "confused": 0,
                "eyes": 0,
                "heart": 0,
                "hooray": 0,
                "laugh": 0,
                "rocket": 0,
                "total_count": 0,
                "url": "https://api.github.com/repos/PrismarineJS/node-minecraft-protocol/issues/comments/2453579337/reactions"
            },
            "updated_at": "2024-11-03T21:15:20Z",
            "url": "https://api.github.com/repos/PrismarineJS/node-minecraft-protocol/issues/comments/2453579337",
            "user": {
                "avatar_url": "https://avatars.githubusercontent.com/u/2346494?v=4",
                "events_url": "https://api.github.com/users/rom1504/events{/privacy}",
                "followers_url": "https://api.github.com/users/rom1504/followers",
                "following_url": "https://api.github.com/users/rom1504/following{/other_user}",
                "gists_url": "https://api.github.com/users/rom1504/gists{/gist_id}",
                "gravatar_id": "",
                "html_url": "https://github.com/rom1504",
                "id": 2346494,
                "login": "rom1504",
                "node_id": "MDQ6VXNlcjIzNDY0OTQ=",
                "organizations_url": "https://api.github.com/users/rom1504/orgs",
                "received_events_url": "https://api.github.com/users/rom1504/received_events",
                "repos_url": "https://api.github.com/users/rom1504/repos",
                "site_admin": false,
                "starred_url": "https://api.github.com/users/rom1504/starred{/owner}{/repo}",
                "subscriptions_url": "https://api.github.com/users/rom1504/subscriptions",
                "type": "User",
                "url": "https://api.github.com/users/rom1504",
                "user_view_type": "public"
            }
        },
        {
            "author_association": "MEMBER",
            "body": "Looks like the tests are flaky, might be a timing issue",
            "created_at": "2024-12-22T01:06:21Z",
            "html_url": "https://github.com/PrismarineJS/node-minecraft-protocol/issues/1337#issuecomment-2558288051",
            "id": 2558288051,
            "issue_url": "https://api.github.com/repos/PrismarineJS/node-minecraft-protocol/issues/1337",
            "node_id": "IC_kwDOAHDUK86YfGCz",
            "performed_via_github_app": null,
            "reactions": {
                "+1": 0,
                "-1": 0,
                "confused": 0,
                "eyes": 0,
                "heart": 0,
                "hooray": 0,
                "laugh": 0,
                "rocket": 0,
                "total_count": 0,
                "url": "https://api.github.com/repos/PrismarineJS/node-minecraft-protocol/issues/comments/2558288051/reactions"
            },
            "updated_at": "2024-12-22T01:06:21Z",
            "url": "https://api.github.com/repos/PrismarineJS/node-minecraft-protocol/issues/comments/2558288051",
            "user": {
                "avatar_url": "https://avatars.githubusercontent.com/u/13713600?v=4",
                "events_url": "https://api.github.com/users/extremeheat/events{/privacy}",
                "followers_url": "https://api.github.com/users/extremeheat/followers",
                "following_url": "https://api.github.com/users/extremeheat/following{/other_user}",
                "gists_url": "https://api.github.com/users/extremeheat/gists{/gist_id}",
                "gravatar_id": "",
                "html_url": "https://github.com/extremeheat",
                "id": 13713600,
                "login": "extremeheat",
                "node_id": "MDQ6VXNlcjEzNzEzNjAw",
                "organizations_url": "https://api.github.com/users/extremeheat/orgs",
                "received_events_url": "https://api.github.com/users/extremeheat/received_events",
                "repos_url": "https://api.github.com/users/extremeheat/repos",
                "site_admin": false,
                "starred_url": "https://api.github.com/users/extremeheat/starred{/owner}{/repo}",
                "subscriptions_url": "https://api.github.com/users/extremeheat/subscriptions",
                "type": "User",
                "url": "https://api.github.com/users/extremeheat",
                "user_view_type": "public"
            }
        }
    ],
    "comments": 7,
    "comments_url": "https://api.github.com/repos/PrismarineJS/node-minecraft-protocol/issues/1337/comments",
    "created_at": "2024-10-12T21:59:32Z",
    "event_data": [
        {
            "actor": {
                "avatar_url": "https://avatars.githubusercontent.com/u/2346494?v=4",
                "events_url": "https://api.github.com/users/rom1504/events{/privacy}",
                "followers_url": "https://api.github.com/users/rom1504/followers",
                "following_url": "https://api.github.com/users/rom1504/following{/other_user}",
                "gists_url": "https://api.github.com/users/rom1504/gists{/gist_id}",
                "gravatar_id": "",
                "html_url": "https://github.com/rom1504",
                "id": 2346494,
                "login": "rom1504",
                "node_id": "MDQ6VXNlcjIzNDY0OTQ=",
                "organizations_url": "https://api.github.com/users/rom1504/orgs",
                "received_events_url": "https://api.github.com/users/rom1504/received_events",
                "repos_url": "https://api.github.com/users/rom1504/repos",
                "site_admin": false,
                "starred_url": "https://api.github.com/users/rom1504/starred{/owner}{/repo}",
                "subscriptions_url": "https://api.github.com/users/rom1504/subscriptions",
                "type": "User",
                "url": "https://api.github.com/users/rom1504",
                "user_view_type": "public"
            },
            "commit_id": null,
            "commit_url": null,
            "created_at": "2024-10-12T21:59:32Z",
            "event": "labeled",
            "id": 14617878891,
            "label": {
                "color": "fc2929",
                "name": "bug"
            },
            "node_id": "LE_lADOAHDUK86Z_ErpzwAAAANnSyFr",
            "performed_via_github_app": null,
            "url": "https://api.github.com/repos/PrismarineJS/node-minecraft-protocol/issues/events/14617878891"
        },
        {
            "actor": {
                "avatar_url": "https://avatars.githubusercontent.com/u/2346494?v=4",
                "events_url": "https://api.github.com/users/rom1504/events{/privacy}",
                "followers_url": "https://api.github.com/users/rom1504/followers",
                "following_url": "https://api.github.com/users/rom1504/following{/other_user}",
                "gists_url": "https://api.github.com/users/rom1504/gists{/gist_id}",
                "gravatar_id": "",
                "html_url": "https://github.com/rom1504",
                "id": 2346494,
                "login": "rom1504",
                "node_id": "MDQ6VXNlcjIzNDY0OTQ=",
                "organizations_url": "https://api.github.com/users/rom1504/orgs",
                "received_events_url": "https://api.github.com/users/rom1504/received_events",
                "repos_url": "https://api.github.com/users/rom1504/repos",
                "site_admin": false,
                "starred_url": "https://api.github.com/users/rom1504/starred{/owner}{/repo}",
                "subscriptions_url": "https://api.github.com/users/rom1504/subscriptions",
                "type": "User",
                "url": "https://api.github.com/users/rom1504",
                "user_view_type": "public"
            },
            "commit_id": null,
            "commit_url": null,
            "created_at": "2024-10-12T21:59:35Z",
            "event": "pinned",
            "id": 14617878947,
            "node_id": "PE_lADOAHDUK86Z_ErpzwAAAANnSyGj",
            "performed_via_github_app": null,
            "url": "https://api.github.com/repos/PrismarineJS/node-minecraft-protocol/issues/events/14617878947"
        },
        {
            "actor": {
                "avatar_url": "https://avatars.githubusercontent.com/u/13713600?v=4",
                "events_url": "https://api.github.com/users/extremeheat/events{/privacy}",
                "followers_url": "https://api.github.com/users/extremeheat/followers",
                "following_url": "https://api.github.com/users/extremeheat/following{/other_user}",
                "gists_url": "https://api.github.com/users/extremeheat/gists{/gist_id}",
                "gravatar_id": "",
                "html_url": "https://github.com/extremeheat",
                "id": 13713600,
                "login": "extremeheat",
                "node_id": "MDQ6VXNlcjEzNzEzNjAw",
                "organizations_url": "https://api.github.com/users/extremeheat/orgs",
                "received_events_url": "https://api.github.com/users/extremeheat/received_events",
                "repos_url": "https://api.github.com/users/extremeheat/repos",
                "site_admin": false,
                "starred_url": "https://api.github.com/users/extremeheat/starred{/owner}{/repo}",
                "subscriptions_url": "https://api.github.com/users/extremeheat/subscriptions",
                "type": "User",
                "url": "https://api.github.com/users/extremeheat",
                "user_view_type": "public"
            },
            "commit_id": null,
            "commit_url": null,
            "created_at": "2024-10-12T21:59:46Z",
            "event": "mentioned",
            "id": 14617879264,
            "node_id": "MEE_lADOAHDUK86Z_ErpzwAAAANnSyLg",
            "performed_via_github_app": null,
            "url": "https://api.github.com/repos/PrismarineJS/node-minecraft-protocol/issues/events/14617879264"
        },
        {
            "actor": {
                "avatar_url": "https://avatars.githubusercontent.com/u/13713600?v=4",
                "events_url": "https://api.github.com/users/extremeheat/events{/privacy}",
                "followers_url": "https://api.github.com/users/extremeheat/followers",
                "following_url": "https://api.github.com/users/extremeheat/following{/other_user}",
                "gists_url": "https://api.github.com/users/extremeheat/gists{/gist_id}",
                "gravatar_id": "",
                "html_url": "https://github.com/extremeheat",
                "id": 13713600,
                "login": "extremeheat",
                "node_id": "MDQ6VXNlcjEzNzEzNjAw",
                "organizations_url": "https://api.github.com/users/extremeheat/orgs",
                "received_events_url": "https://api.github.com/users/extremeheat/received_events",
                "repos_url": "https://api.github.com/users/extremeheat/repos",
                "site_admin": false,
                "starred_url": "https://api.github.com/users/extremeheat/starred{/owner}{/repo}",
                "subscriptions_url": "https://api.github.com/users/extremeheat/subscriptions",
                "type": "User",
                "url": "https://api.github.com/users/extremeheat",
                "user_view_type": "public"
            },
            "commit_id": null,
            "commit_url": null,
            "created_at": "2024-10-12T21:59:46Z",
            "event": "subscribed",
            "id": 14617879267,
            "node_id": "SE_lADOAHDUK86Z_ErpzwAAAANnSyLj",
            "performed_via_github_app": null,
            "url": "https://api.github.com/repos/PrismarineJS/node-minecraft-protocol/issues/events/14617879267"
        },
        {
            "actor": {
                "avatar_url": "https://avatars.githubusercontent.com/u/13713600?v=4",
                "events_url": "https://api.github.com/users/extremeheat/events{/privacy}",
                "followers_url": "https://api.github.com/users/extremeheat/followers",
                "following_url": "https://api.github.com/users/extremeheat/following{/other_user}",
                "gists_url": "https://api.github.com/users/extremeheat/gists{/gist_id}",
                "gravatar_id": "",
                "html_url": "https://github.com/extremeheat",
                "id": 13713600,
                "login": "extremeheat",
                "node_id": "MDQ6VXNlcjEzNzEzNjAw",
                "organizations_url": "https://api.github.com/users/extremeheat/orgs",
                "received_events_url": "https://api.github.com/users/extremeheat/received_events",
                "repos_url": "https://api.github.com/users/extremeheat/repos",
                "site_admin": false,
                "starred_url": "https://api.github.com/users/extremeheat/starred{/owner}{/repo}",
                "subscriptions_url": "https://api.github.com/users/extremeheat/subscriptions",
                "type": "User",
                "url": "https://api.github.com/users/extremeheat",
                "user_view_type": "public"
            },
            "commit_id": null,
            "commit_url": null,
            "created_at": "2024-11-01T03:01:29Z",
            "event": "comment_deleted",
            "id": 15054907931,
            "node_id": "CDE_lADOAHDUK86Z_ErpzwAAAAOBV6ob",
            "performed_via_github_app": null,
            "url": "https://api.github.com/repos/PrismarineJS/node-minecraft-protocol/issues/events/15054907931"
        },
        {
            "actor": {
                "avatar_url": "https://avatars.githubusercontent.com/u/72852712?v=4",
                "events_url": "https://api.github.com/users/SheebSuka/events{/privacy}",
                "followers_url": "https://api.github.com/users/SheebSuka/followers",
                "following_url": "https://api.github.com/users/SheebSuka/following{/other_user}",
                "gists_url": "https://api.github.com/users/SheebSuka/gists{/gist_id}",
                "gravatar_id": "",
                "html_url": "https://github.com/SheebSuka",
                "id": 72852712,
                "login": "SheebSuka",
                "node_id": "MDQ6VXNlcjcyODUyNzEy",
                "organizations_url": "https://api.github.com/users/SheebSuka/orgs",
                "received_events_url": "https://api.github.com/users/SheebSuka/received_events",
                "repos_url": "https://api.github.com/users/SheebSuka/repos",
                "site_admin": false,
                "starred_url": "https://api.github.com/users/SheebSuka/starred{/owner}{/repo}",
                "subscriptions_url": "https://api.github.com/users/SheebSuka/subscriptions",
                "type": "User",
                "url": "https://api.github.com/users/SheebSuka",
                "user_view_type": "public"
            },
            "commit_id": null,
            "commit_url": null,
            "created_at": "2024-11-02T21:20:53Z",
            "event": "unsubscribed",
            "id": 15085154993,
            "node_id": "UE_lADOAHDUK86Z_ErpzwAAAAODJTKx",
            "performed_via_github_app": null,
            "url": "https://api.github.com/repos/PrismarineJS/node-minecraft-protocol/issues/events/15085154993"
        }
    ],
    "events_url": "https://api.github.com/repos/PrismarineJS/node-minecraft-protocol/issues/1337/events",
    "html_url": "https://github.com/PrismarineJS/node-minecraft-protocol/issues/1337",
    "id": 2583448297,
    "labels": [
        {
            "color": "fc2929",
            "default": true,
            "description": null,
            "id": 23544340,
            "name": "bug",
            "node_id": "MDU6TGFiZWwyMzU0NDM0MA==",
            "url": "https://api.github.com/repos/PrismarineJS/node-minecraft-protocol/labels/bug"
        }
    ],
    "labels_url": "https://api.github.com/repos/PrismarineJS/node-minecraft-protocol/issues/1337/labels{/name}",
    "locked": false,
    "milestone": null,
    "node_id": "I_kwDOAHDUK86Z_Erp",
    "number": 1337,
    "performed_via_github_app": null,
    "reactions": {
        "+1": 0,
        "-1": 0,
        "confused": 0,
        "eyes": 0,
        "heart": 0,
        "hooray": 0,
        "laugh": 0,
        "rocket": 0,
        "total_count": 0,
        "url": "https://api.github.com/repos/PrismarineJS/node-minecraft-protocol/issues/1337/reactions"
    },
    "repository_url": "https://api.github.com/repos/PrismarineJS/node-minecraft-protocol",
    "state": "open",
    "state_reason": null,
    "timeline_url": "https://api.github.com/repos/PrismarineJS/node-minecraft-protocol/issues/1337/timeline",
    "title": "Fix serialization issue in old version for mc server test",
    "updated_at": "2024-12-22T01:06:21Z",
    "url": "https://api.github.com/repos/PrismarineJS/node-minecraft-protocol/issues/1337",
    "user": {
        "avatar_url": "https://avatars.githubusercontent.com/u/2346494?v=4",
        "events_url": "https://api.github.com/users/rom1504/events{/privacy}",
        "followers_url": "https://api.github.com/users/rom1504/followers",
        "following_url": "https://api.github.com/users/rom1504/following{/other_user}",
        "gists_url": "https://api.github.com/users/rom1504/gists{/gist_id}",
        "gravatar_id": "",
        "html_url": "https://github.com/rom1504",
        "id": 2346494,
        "login": "rom1504",
        "node_id": "MDQ6VXNlcjIzNDY0OTQ=",
        "organizations_url": "https://api.github.com/users/rom1504/orgs",
        "received_events_url": "https://api.github.com/users/rom1504/received_events",
        "repos_url": "https://api.github.com/users/rom1504/repos",
        "site_admin": false,
        "starred_url": "https://api.github.com/users/rom1504/starred{/owner}{/repo}",
        "subscriptions_url": "https://api.github.com/users/rom1504/subscriptions",
        "type": "User",
        "url": "https://api.github.com/users/rom1504",
        "user_view_type": "public"
    }
}