{
    "active_lock_reason": null,
    "assignee": null,
    "assignees": [],
    "author_association": "MEMBER",
    "body": "For the people who have not yet migrated their account to mojang accounts, being able to login with username/password combo should be possible.\n",
    "closed_at": "2013-01-26T20:31:46Z",
    "comment_data": [
        {
            "author_association": "CONTRIBUTOR",
            "body": "I agree. Mojang never makes a distinction in any of their APIs, so neither should we.\n",
            "created_at": "2013-01-26T19:54:10Z",
            "html_url": "https://github.com/PrismarineJS/node-minecraft-protocol/issues/18#issuecomment-12741111",
            "id": 12741111,
            "issue_url": "https://api.github.com/repos/PrismarineJS/node-minecraft-protocol/issues/18",
            "node_id": "MDEyOklzc3VlQ29tbWVudDEyNzQxMTEx",
            "performed_via_github_app": null,
            "reactions": {
                "+1": 0,
                "-1": 0,
                "confused": 0,
                "eyes": 0,
                "heart": 0,
                "hooray": 0,
                "laugh": 0,
                "rocket": 0,
                "total_count": 0,
                "url": "https://api.github.com/repos/PrismarineJS/node-minecraft-protocol/issues/comments/12741111/reactions"
            },
            "updated_at": "2013-01-26T19:54:10Z",
            "url": "https://api.github.com/repos/PrismarineJS/node-minecraft-protocol/issues/comments/12741111",
            "user": {
                "avatar_url": "https://avatars.githubusercontent.com/u/398285?v=4",
                "events_url": "https://api.github.com/users/mappum/events{/privacy}",
                "followers_url": "https://api.github.com/users/mappum/followers",
                "following_url": "https://api.github.com/users/mappum/following{/other_user}",
                "gists_url": "https://api.github.com/users/mappum/gists{/gist_id}",
                "gravatar_id": "",
                "html_url": "https://github.com/mappum",
                "id": 398285,
                "login": "mappum",
                "node_id": "MDQ6VXNlcjM5ODI4NQ==",
                "organizations_url": "https://api.github.com/users/mappum/orgs",
                "received_events_url": "https://api.github.com/users/mappum/received_events",
                "repos_url": "https://api.github.com/users/mappum/repos",
                "site_admin": false,
                "starred_url": "https://api.github.com/users/mappum/starred{/owner}{/repo}",
                "subscriptions_url": "https://api.github.com/users/mappum/subscriptions",
                "type": "User",
                "url": "https://api.github.com/users/mappum"
            }
        }
    ],
    "comments": 1,
    "comments_url": "https://api.github.com/repos/PrismarineJS/node-minecraft-protocol/issues/18/comments",
    "created_at": "2013-01-26T19:33:36Z",
    "event_data": [
        {
            "actor": {
                "avatar_url": "https://avatars.githubusercontent.com/u/1069318?v=4",
                "events_url": "https://api.github.com/users/roblabla/events{/privacy}",
                "followers_url": "https://api.github.com/users/roblabla/followers",
                "following_url": "https://api.github.com/users/roblabla/following{/other_user}",
                "gists_url": "https://api.github.com/users/roblabla/gists{/gist_id}",
                "gravatar_id": "",
                "html_url": "https://github.com/roblabla",
                "id": 1069318,
                "login": "roblabla",
                "node_id": "MDQ6VXNlcjEwNjkzMTg=",
                "organizations_url": "https://api.github.com/users/roblabla/orgs",
                "received_events_url": "https://api.github.com/users/roblabla/received_events",
                "repos_url": "https://api.github.com/users/roblabla/repos",
                "site_admin": false,
                "starred_url": "https://api.github.com/users/roblabla/starred{/owner}{/repo}",
                "subscriptions_url": "https://api.github.com/users/roblabla/subscriptions",
                "type": "User",
                "url": "https://api.github.com/users/roblabla"
            },
            "commit_id": "68b478ce35ba25c02fe7b5fb33bc677598fb91fb",
            "commit_url": "https://api.github.com/repos/roblabla/node-minecraft-protocol/commits/68b478ce35ba25c02fe7b5fb33bc677598fb91fb",
            "created_at": "2013-01-26T20:00:38Z",
            "event": "referenced",
            "id": 35705575,
            "node_id": "MDE1OlJlZmVyZW5jZWRFdmVudDM1NzA1NTc1",
            "performed_via_github_app": null,
            "url": "https://api.github.com/repos/PrismarineJS/node-minecraft-protocol/issues/events/35705575"
        },
        {
            "actor": {
                "avatar_url": "https://avatars.githubusercontent.com/u/106511?v=4",
                "events_url": "https://api.github.com/users/andrewrk/events{/privacy}",
                "followers_url": "https://api.github.com/users/andrewrk/followers",
                "following_url": "https://api.github.com/users/andrewrk/following{/other_user}",
                "gists_url": "https://api.github.com/users/andrewrk/gists{/gist_id}",
                "gravatar_id": "",
                "html_url": "https://github.com/andrewrk",
                "id": 106511,
                "login": "andrewrk",
                "node_id": "MDQ6VXNlcjEwNjUxMQ==",
                "organizations_url": "https://api.github.com/users/andrewrk/orgs",
                "received_events_url": "https://api.github.com/users/andrewrk/received_events",
                "repos_url": "https://api.github.com/users/andrewrk/repos",
                "site_admin": false,
                "starred_url": "https://api.github.com/users/andrewrk/starred{/owner}{/repo}",
                "subscriptions_url": "https://api.github.com/users/andrewrk/subscriptions",
                "type": "User",
                "url": "https://api.github.com/users/andrewrk"
            },
            "commit_id": "68b478ce35ba25c02fe7b5fb33bc677598fb91fb",
            "commit_url": "https://api.github.com/repos/PrismarineJS/node-minecraft-protocol/commits/68b478ce35ba25c02fe7b5fb33bc677598fb91fb",
            "created_at": "2013-01-26T20:31:46Z",
            "event": "closed",
            "id": 35706724,
            "node_id": "MDExOkNsb3NlZEV2ZW50MzU3MDY3MjQ=",
            "performed_via_github_app": null,
            "state_reason": null,
            "url": "https://api.github.com/repos/PrismarineJS/node-minecraft-protocol/issues/events/35706724"
        }
    ],
    "events_url": "https://api.github.com/repos/PrismarineJS/node-minecraft-protocol/issues/18/events",
    "html_url": "https://github.com/PrismarineJS/node-minecraft-protocol/issues/18",
    "id": 10342050,
    "labels": [],
    "labels_url": "https://api.github.com/repos/PrismarineJS/node-minecraft-protocol/issues/18/labels{/name}",
    "locked": false,
    "milestone": null,
    "node_id": "MDU6SXNzdWUxMDM0MjA1MA==",
    "number": 18,
    "performed_via_github_app": null,
    "reactions": {
        "+1": 0,
        "-1": 0,
        "confused": 0,
        "eyes": 0,
        "heart": 0,
        "hooray": 0,
        "laugh": 0,
        "rocket": 0,
        "total_count": 0,
        "url": "https://api.github.com/repos/PrismarineJS/node-minecraft-protocol/issues/18/reactions"
    },
    "repository_url": "https://api.github.com/repos/PrismarineJS/node-minecraft-protocol",
    "state": "closed",
    "state_reason": "completed",
    "timeline_url": "https://api.github.com/repos/PrismarineJS/node-minecraft-protocol/issues/18/timeline",
    "title": "Login with username instead of email",
    "updated_at": "2013-01-26T20:31:46Z",
    "url": "https://api.github.com/repos/PrismarineJS/node-minecraft-protocol/issues/18",
    "user": {
        "avatar_url": "https://avatars.githubusercontent.com/u/1069318?v=4",
        "events_url": "https://api.github.com/users/roblabla/events{/privacy}",
        "followers_url": "https://api.github.com/users/roblabla/followers",
        "following_url": "https://api.github.com/users/roblabla/following{/other_user}",
        "gists_url": "https://api.github.com/users/roblabla/gists{/gist_id}",
        "gravatar_id": "",
        "html_url": "https://github.com/roblabla",
        "id": 1069318,
        "login": "roblabla",
        "node_id": "MDQ6VXNlcjEwNjkzMTg=",
        "organizations_url": "https://api.github.com/users/roblabla/orgs",
        "received_events_url": "https://api.github.com/users/roblabla/received_events",
        "repos_url": "https://api.github.com/users/roblabla/repos",
        "site_admin": false,
        "starred_url": "https://api.github.com/users/roblabla/starred{/owner}{/repo}",
        "subscriptions_url": "https://api.github.com/users/roblabla/subscriptions",
        "type": "User",
        "url": "https://api.github.com/users/roblabla"
    }
}