{
    "active_lock_reason": null,
    "assignee": null,
    "assignees": [],
    "author_association": "NONE",
    "body": "Hello! I found this module really useful for my project. Now I've managed to get a server where I can log in, talk and al, so now I'm going to try to send an initial world. I've been trying with this code to generate a world (which I found on a similar project):\n\n``` js\nvar generate_world = function(callback) {\n  var chunk = new Buffer(16 * 16 * 128 + 16384 * 3);\n    var index = 0;\n\n    for (var x = 0; x < 16; x++) {\n        for (var z = 0; z < 16; z++) {\n            for (var y = 0; y< 128; y++) {\n                index = y + (z * 128) + (x * 128 * 16);\n                if (y > 62) {\n                    chunk.writeUInt8(0, index);\n                } else {\n                    chunk.writeUInt8(1, index);\n                }\n                if (y <= 1) {\n                    chunk.writeUInt8(7, index);\n                }\n            }\n        }\n    }\n\n    chunk.fill(0, 32768, 32768+16384); // empty metadata\n    chunk.fill(255, 32768+16384, 32768+16384*2); // full brightness\n    chunk.fill(255, 32768 + 16384*2, 32768+16384*3); //full sky light\n\n  console.log('Uncompressed chunk size: ' + chunk.length);\n\n  var compressor = zlib.Deflate();\n\n  var data = [];\n  compressor.on('data', function(data_part) { \n    data.push(data_part);\n  });\n  compressor.on('end', function() {\n    var total_length = 0;\n    for (i in data) {\n      total_length = data[i].length;\n    }\n    console.log('Chunk size after compression: ' + total_length);\n    var out_data = new Buffer(total_length);\n    var pointer = 0;\n    for (i in data) {\n      data[i].copy(out_data, pointer, 0);\n      pointer += data[i].length;\n    }\n    callback(out_data);\n\n  });\n  compressor.write(chunk);\n  compressor.end();\n  if (!callback) {\n    return chunk;\n  }\n}\n\nworld = generate_world(function(table_chunk) {\n  console.log('Chunk size ' + table_chunk.length);\n  return table_chunk;\n\n});\n\nworld_length = generate_world(function(table_chunk) {\n\n    return table_chunk.length;\n});\n```\n\nAnd then using this for sending it:\n\n``` js\n\nclient.write(0x38, {\n    chunkColumnCount: 1,\n    dataLength: world_length,\n    skyLightSent: true,\n    compressedChunkData: world,\n    meta:null\n  });\n\n```\n\nBut this crashes the server with \n\n```\n/Volumes/Datos/Usuarios/pablo/Dropbox/Workspace/Experimentos/minecraft/node/node_modules/minecraft-protocol/lib/protocol.js:598\n  this.size = 7 + value.compressedChunkData.length + 12 * value.meta.length;\n\nTypeError: Cannot read property 'compressedChunkData' of undefined\n```\n\nI don't really know how can I achieve this. If any of you could help me with this, it'd be great (BTW, I know GH Issues is not the best place for this, but I've figured it'd be the place where I could get the most help).\nThanks!\n",
    "closed_at": "2013-04-06T15:19:25Z",
    "comment_data": [
        {
            "author_association": "MEMBER",
            "body": "There's a little bit of a gotcha with 0x38. If you look at [protocol.js](https://github.com/superjoe30/node-minecraft-protocol/blob/master/lib/protocol.js#L288) you can see that all those properties are namespaced under the \"data\" variable. Also those other length and count properties are implied from the meta array and the compressed chunk data buffer length. So if you're sending 0x38, you have to do something like this:\n\n``` js\nclient.write(0x38, {data: {\n    skyLightSent: true,\n    compressedChunkData: world,\n    meta: []\n  }});\n```\n",
            "created_at": "2013-03-29T15:22:03Z",
            "html_url": "https://github.com/PrismarineJS/node-minecraft-protocol/issues/49#issuecomment-15645459",
            "id": 15645459,
            "issue_url": "https://api.github.com/repos/PrismarineJS/node-minecraft-protocol/issues/49",
            "node_id": "MDEyOklzc3VlQ29tbWVudDE1NjQ1NDU5",
            "performed_via_github_app": null,
            "reactions": {
                "+1": 0,
                "-1": 0,
                "confused": 0,
                "eyes": 0,
                "heart": 0,
                "hooray": 0,
                "laugh": 0,
                "rocket": 0,
                "total_count": 0,
                "url": "https://api.github.com/repos/PrismarineJS/node-minecraft-protocol/issues/comments/15645459/reactions"
            },
            "updated_at": "2013-03-29T15:22:03Z",
            "url": "https://api.github.com/repos/PrismarineJS/node-minecraft-protocol/issues/comments/15645459",
            "user": {
                "avatar_url": "https://avatars.githubusercontent.com/u/106511?v=4",
                "events_url": "https://api.github.com/users/andrewrk/events{/privacy}",
                "followers_url": "https://api.github.com/users/andrewrk/followers",
                "following_url": "https://api.github.com/users/andrewrk/following{/other_user}",
                "gists_url": "https://api.github.com/users/andrewrk/gists{/gist_id}",
                "gravatar_id": "",
                "html_url": "https://github.com/andrewrk",
                "id": 106511,
                "login": "andrewrk",
                "node_id": "MDQ6VXNlcjEwNjUxMQ==",
                "organizations_url": "https://api.github.com/users/andrewrk/orgs",
                "received_events_url": "https://api.github.com/users/andrewrk/received_events",
                "repos_url": "https://api.github.com/users/andrewrk/repos",
                "site_admin": false,
                "starred_url": "https://api.github.com/users/andrewrk/starred{/owner}{/repo}",
                "subscriptions_url": "https://api.github.com/users/andrewrk/subscriptions",
                "type": "User",
                "url": "https://api.github.com/users/andrewrk"
            }
        },
        {
            "author_association": "NONE",
            "body": "Woah, didn't noticed! Still, it's failing with `TypeError: Cannot read property 'length' of undefined` on the same line, so I guess my code to create the world it's broken. Is there any specific way to create the data for a world? Or any guideline to code something that generates the world? I've been reading http://wiki.vg/SMP_Map_Format but I don't really understand how should I translate the parameters there to the code\n",
            "created_at": "2013-03-29T15:27:24Z",
            "html_url": "https://github.com/PrismarineJS/node-minecraft-protocol/issues/49#issuecomment-15645752",
            "id": 15645752,
            "issue_url": "https://api.github.com/repos/PrismarineJS/node-minecraft-protocol/issues/49",
            "node_id": "MDEyOklzc3VlQ29tbWVudDE1NjQ1NzUy",
            "performed_via_github_app": null,
            "reactions": {
                "+1": 0,
                "-1": 0,
                "confused": 0,
                "eyes": 0,
                "heart": 0,
                "hooray": 0,
                "laugh": 0,
                "rocket": 0,
                "total_count": 0,
                "url": "https://api.github.com/repos/PrismarineJS/node-minecraft-protocol/issues/comments/15645752/reactions"
            },
            "updated_at": "2013-03-29T15:30:07Z",
            "url": "https://api.github.com/repos/PrismarineJS/node-minecraft-protocol/issues/comments/15645752",
            "user": {
                "avatar_url": "https://avatars.githubusercontent.com/u/482747?v=4",
                "events_url": "https://api.github.com/users/Pablo-Merino/events{/privacy}",
                "followers_url": "https://api.github.com/users/Pablo-Merino/followers",
                "following_url": "https://api.github.com/users/Pablo-Merino/following{/other_user}",
                "gists_url": "https://api.github.com/users/Pablo-Merino/gists{/gist_id}",
                "gravatar_id": "",
                "html_url": "https://github.com/Pablo-Merino",
                "id": 482747,
                "login": "Pablo-Merino",
                "node_id": "MDQ6VXNlcjQ4Mjc0Nw==",
                "organizations_url": "https://api.github.com/users/Pablo-Merino/orgs",
                "received_events_url": "https://api.github.com/users/Pablo-Merino/received_events",
                "repos_url": "https://api.github.com/users/Pablo-Merino/repos",
                "site_admin": false,
                "starred_url": "https://api.github.com/users/Pablo-Merino/starred{/owner}{/repo}",
                "subscriptions_url": "https://api.github.com/users/Pablo-Merino/subscriptions",
                "type": "User",
                "url": "https://api.github.com/users/Pablo-Merino"
            }
        },
        {
            "author_association": "MEMBER",
            "body": "did you set `[]` for `meta` instead of `null`?\n",
            "created_at": "2013-03-29T15:32:03Z",
            "html_url": "https://github.com/PrismarineJS/node-minecraft-protocol/issues/49#issuecomment-15645998",
            "id": 15645998,
            "issue_url": "https://api.github.com/repos/PrismarineJS/node-minecraft-protocol/issues/49",
            "node_id": "MDEyOklzc3VlQ29tbWVudDE1NjQ1OTk4",
            "performed_via_github_app": null,
            "reactions": {
                "+1": 0,
                "-1": 0,
                "confused": 0,
                "eyes": 0,
                "heart": 0,
                "hooray": 0,
                "laugh": 0,
                "rocket": 0,
                "total_count": 0,
                "url": "https://api.github.com/repos/PrismarineJS/node-minecraft-protocol/issues/comments/15645998/reactions"
            },
            "updated_at": "2013-03-29T15:32:03Z",
            "url": "https://api.github.com/repos/PrismarineJS/node-minecraft-protocol/issues/comments/15645998",
            "user": {
                "avatar_url": "https://avatars.githubusercontent.com/u/106511?v=4",
                "events_url": "https://api.github.com/users/andrewrk/events{/privacy}",
                "followers_url": "https://api.github.com/users/andrewrk/followers",
                "following_url": "https://api.github.com/users/andrewrk/following{/other_user}",
                "gists_url": "https://api.github.com/users/andrewrk/gists{/gist_id}",
                "gravatar_id": "",
                "html_url": "https://github.com/andrewrk",
                "id": 106511,
                "login": "andrewrk",
                "node_id": "MDQ6VXNlcjEwNjUxMQ==",
                "organizations_url": "https://api.github.com/users/andrewrk/orgs",
                "received_events_url": "https://api.github.com/users/andrewrk/received_events",
                "repos_url": "https://api.github.com/users/andrewrk/repos",
                "site_admin": false,
                "starred_url": "https://api.github.com/users/andrewrk/starred{/owner}{/repo}",
                "subscriptions_url": "https://api.github.com/users/andrewrk/subscriptions",
                "type": "User",
                "url": "https://api.github.com/users/andrewrk"
            }
        },
        {
            "author_association": "NONE",
            "body": "Yes, I did. Basically I copied the code example, changing variables, of course\n",
            "created_at": "2013-03-29T15:32:47Z",
            "html_url": "https://github.com/PrismarineJS/node-minecraft-protocol/issues/49#issuecomment-15646034",
            "id": 15646034,
            "issue_url": "https://api.github.com/repos/PrismarineJS/node-minecraft-protocol/issues/49",
            "node_id": "MDEyOklzc3VlQ29tbWVudDE1NjQ2MDM0",
            "performed_via_github_app": null,
            "reactions": {
                "+1": 0,
                "-1": 0,
                "confused": 0,
                "eyes": 0,
                "heart": 0,
                "hooray": 0,
                "laugh": 0,
                "rocket": 0,
                "total_count": 0,
                "url": "https://api.github.com/repos/PrismarineJS/node-minecraft-protocol/issues/comments/15646034/reactions"
            },
            "updated_at": "2013-03-29T15:32:47Z",
            "url": "https://api.github.com/repos/PrismarineJS/node-minecraft-protocol/issues/comments/15646034",
            "user": {
                "avatar_url": "https://avatars.githubusercontent.com/u/482747?v=4",
                "events_url": "https://api.github.com/users/Pablo-Merino/events{/privacy}",
                "followers_url": "https://api.github.com/users/Pablo-Merino/followers",
                "following_url": "https://api.github.com/users/Pablo-Merino/following{/other_user}",
                "gists_url": "https://api.github.com/users/Pablo-Merino/gists{/gist_id}",
                "gravatar_id": "",
                "html_url": "https://github.com/Pablo-Merino",
                "id": 482747,
                "login": "Pablo-Merino",
                "node_id": "MDQ6VXNlcjQ4Mjc0Nw==",
                "organizations_url": "https://api.github.com/users/Pablo-Merino/orgs",
                "received_events_url": "https://api.github.com/users/Pablo-Merino/received_events",
                "repos_url": "https://api.github.com/users/Pablo-Merino/repos",
                "site_admin": false,
                "starred_url": "https://api.github.com/users/Pablo-Merino/starred{/owner}{/repo}",
                "subscriptions_url": "https://api.github.com/users/Pablo-Merino/subscriptions",
                "type": "User",
                "url": "https://api.github.com/users/Pablo-Merino"
            }
        },
        {
            "author_association": "MEMBER",
            "body": "@mappum might be willing to provide a code example. I know he has a server using this module.\n",
            "created_at": "2013-03-29T15:32:49Z",
            "html_url": "https://github.com/PrismarineJS/node-minecraft-protocol/issues/49#issuecomment-15646036",
            "id": 15646036,
            "issue_url": "https://api.github.com/repos/PrismarineJS/node-minecraft-protocol/issues/49",
            "node_id": "MDEyOklzc3VlQ29tbWVudDE1NjQ2MDM2",
            "performed_via_github_app": null,
            "reactions": {
                "+1": 0,
                "-1": 0,
                "confused": 0,
                "eyes": 0,
                "heart": 0,
                "hooray": 0,
                "laugh": 0,
                "rocket": 0,
                "total_count": 0,
                "url": "https://api.github.com/repos/PrismarineJS/node-minecraft-protocol/issues/comments/15646036/reactions"
            },
            "updated_at": "2013-03-29T15:32:49Z",
            "url": "https://api.github.com/repos/PrismarineJS/node-minecraft-protocol/issues/comments/15646036",
            "user": {
                "avatar_url": "https://avatars.githubusercontent.com/u/106511?v=4",
                "events_url": "https://api.github.com/users/andrewrk/events{/privacy}",
                "followers_url": "https://api.github.com/users/andrewrk/followers",
                "following_url": "https://api.github.com/users/andrewrk/following{/other_user}",
                "gists_url": "https://api.github.com/users/andrewrk/gists{/gist_id}",
                "gravatar_id": "",
                "html_url": "https://github.com/andrewrk",
                "id": 106511,
                "login": "andrewrk",
                "node_id": "MDQ6VXNlcjEwNjUxMQ==",
                "organizations_url": "https://api.github.com/users/andrewrk/orgs",
                "received_events_url": "https://api.github.com/users/andrewrk/received_events",
                "repos_url": "https://api.github.com/users/andrewrk/repos",
                "site_admin": false,
                "starred_url": "https://api.github.com/users/andrewrk/starred{/owner}{/repo}",
                "subscriptions_url": "https://api.github.com/users/andrewrk/subscriptions",
                "type": "User",
                "url": "https://api.github.com/users/andrewrk"
            }
        },
        {
            "author_association": "NONE",
            "body": "That'd be great! I've seen his redstone.io project and seems really promising!\n",
            "created_at": "2013-03-29T15:34:16Z",
            "html_url": "https://github.com/PrismarineJS/node-minecraft-protocol/issues/49#issuecomment-15646100",
            "id": 15646100,
            "issue_url": "https://api.github.com/repos/PrismarineJS/node-minecraft-protocol/issues/49",
            "node_id": "MDEyOklzc3VlQ29tbWVudDE1NjQ2MTAw",
            "performed_via_github_app": null,
            "reactions": {
                "+1": 0,
                "-1": 0,
                "confused": 0,
                "eyes": 0,
                "heart": 0,
                "hooray": 0,
                "laugh": 0,
                "rocket": 0,
                "total_count": 0,
                "url": "https://api.github.com/repos/PrismarineJS/node-minecraft-protocol/issues/comments/15646100/reactions"
            },
            "updated_at": "2013-03-29T15:34:16Z",
            "url": "https://api.github.com/repos/PrismarineJS/node-minecraft-protocol/issues/comments/15646100",
            "user": {
                "avatar_url": "https://avatars.githubusercontent.com/u/482747?v=4",
                "events_url": "https://api.github.com/users/Pablo-Merino/events{/privacy}",
                "followers_url": "https://api.github.com/users/Pablo-Merino/followers",
                "following_url": "https://api.github.com/users/Pablo-Merino/following{/other_user}",
                "gists_url": "https://api.github.com/users/Pablo-Merino/gists{/gist_id}",
                "gravatar_id": "",
                "html_url": "https://github.com/Pablo-Merino",
                "id": 482747,
                "login": "Pablo-Merino",
                "node_id": "MDQ6VXNlcjQ4Mjc0Nw==",
                "organizations_url": "https://api.github.com/users/Pablo-Merino/orgs",
                "received_events_url": "https://api.github.com/users/Pablo-Merino/received_events",
                "repos_url": "https://api.github.com/users/Pablo-Merino/repos",
                "site_admin": false,
                "starred_url": "https://api.github.com/users/Pablo-Merino/starred{/owner}{/repo}",
                "subscriptions_url": "https://api.github.com/users/Pablo-Merino/subscriptions",
                "type": "User",
                "url": "https://api.github.com/users/Pablo-Merino"
            }
        },
        {
            "author_association": "NONE",
            "body": "Update: after fiddling around the code and searching on GH, I've managed to put this 0x38 function which doesn't crashes the server. If I fly a little I finally find a grass block. This is what it looks currently: http://d.pr/i/UrAg. I guess it's now time to see how to make the map bigger and all.\n\nThis is the code:\n\n``` js\nvar buffer = new Buffer((4096 + 2048 + 2048 + 2048) * 4 + 256);\n  buffer.fill(0);\n  buffer.writeUInt8(2, 8192 + 273);\n  zlib.deflate(buffer, function(err, compressed) {\n\n    client.write(0x38, {data: {\n      skyLightSent: true,\n      compressedChunkData: compressed,\n      meta: [{\n        x: 0,\n        z: 0,\n        bitMap: parseInt('00111100', 2),\n        addBitMap: 0,\n      }]\n    }});\n\n  });\n```\n",
            "created_at": "2013-03-29T16:57:10Z",
            "html_url": "https://github.com/PrismarineJS/node-minecraft-protocol/issues/49#issuecomment-15649851",
            "id": 15649851,
            "issue_url": "https://api.github.com/repos/PrismarineJS/node-minecraft-protocol/issues/49",
            "node_id": "MDEyOklzc3VlQ29tbWVudDE1NjQ5ODUx",
            "performed_via_github_app": null,
            "reactions": {
                "+1": 0,
                "-1": 0,
                "confused": 0,
                "eyes": 0,
                "heart": 0,
                "hooray": 0,
                "laugh": 0,
                "rocket": 0,
                "total_count": 0,
                "url": "https://api.github.com/repos/PrismarineJS/node-minecraft-protocol/issues/comments/15649851/reactions"
            },
            "updated_at": "2013-03-29T17:02:32Z",
            "url": "https://api.github.com/repos/PrismarineJS/node-minecraft-protocol/issues/comments/15649851",
            "user": {
                "avatar_url": "https://avatars.githubusercontent.com/u/482747?v=4",
                "events_url": "https://api.github.com/users/Pablo-Merino/events{/privacy}",
                "followers_url": "https://api.github.com/users/Pablo-Merino/followers",
                "following_url": "https://api.github.com/users/Pablo-Merino/following{/other_user}",
                "gists_url": "https://api.github.com/users/Pablo-Merino/gists{/gist_id}",
                "gravatar_id": "",
                "html_url": "https://github.com/Pablo-Merino",
                "id": 482747,
                "login": "Pablo-Merino",
                "node_id": "MDQ6VXNlcjQ4Mjc0Nw==",
                "organizations_url": "https://api.github.com/users/Pablo-Merino/orgs",
                "received_events_url": "https://api.github.com/users/Pablo-Merino/received_events",
                "repos_url": "https://api.github.com/users/Pablo-Merino/repos",
                "site_admin": false,
                "starred_url": "https://api.github.com/users/Pablo-Merino/starred{/owner}{/repo}",
                "subscriptions_url": "https://api.github.com/users/Pablo-Merino/subscriptions",
                "type": "User",
                "url": "https://api.github.com/users/Pablo-Merino"
            }
        },
        {
            "author_association": "MEMBER",
            "body": "Do you still need help, or may I close this issue?\n",
            "created_at": "2013-04-06T15:13:07Z",
            "html_url": "https://github.com/PrismarineJS/node-minecraft-protocol/issues/49#issuecomment-15997748",
            "id": 15997748,
            "issue_url": "https://api.github.com/repos/PrismarineJS/node-minecraft-protocol/issues/49",
            "node_id": "MDEyOklzc3VlQ29tbWVudDE1OTk3NzQ4",
            "performed_via_github_app": null,
            "reactions": {
                "+1": 0,
                "-1": 0,
                "confused": 0,
                "eyes": 0,
                "heart": 0,
                "hooray": 0,
                "laugh": 0,
                "rocket": 0,
                "total_count": 0,
                "url": "https://api.github.com/repos/PrismarineJS/node-minecraft-protocol/issues/comments/15997748/reactions"
            },
            "updated_at": "2013-04-06T15:13:07Z",
            "url": "https://api.github.com/repos/PrismarineJS/node-minecraft-protocol/issues/comments/15997748",
            "user": {
                "avatar_url": "https://avatars.githubusercontent.com/u/106511?v=4",
                "events_url": "https://api.github.com/users/andrewrk/events{/privacy}",
                "followers_url": "https://api.github.com/users/andrewrk/followers",
                "following_url": "https://api.github.com/users/andrewrk/following{/other_user}",
                "gists_url": "https://api.github.com/users/andrewrk/gists{/gist_id}",
                "gravatar_id": "",
                "html_url": "https://github.com/andrewrk",
                "id": 106511,
                "login": "andrewrk",
                "node_id": "MDQ6VXNlcjEwNjUxMQ==",
                "organizations_url": "https://api.github.com/users/andrewrk/orgs",
                "received_events_url": "https://api.github.com/users/andrewrk/received_events",
                "repos_url": "https://api.github.com/users/andrewrk/repos",
                "site_admin": false,
                "starred_url": "https://api.github.com/users/andrewrk/starred{/owner}{/repo}",
                "subscriptions_url": "https://api.github.com/users/andrewrk/subscriptions",
                "type": "User",
                "url": "https://api.github.com/users/andrewrk"
            }
        },
        {
            "author_association": "NONE",
            "body": "Nope, it's already fixed :smile: \n",
            "created_at": "2013-04-06T15:19:25Z",
            "html_url": "https://github.com/PrismarineJS/node-minecraft-protocol/issues/49#issuecomment-15997856",
            "id": 15997856,
            "issue_url": "https://api.github.com/repos/PrismarineJS/node-minecraft-protocol/issues/49",
            "node_id": "MDEyOklzc3VlQ29tbWVudDE1OTk3ODU2",
            "performed_via_github_app": null,
            "reactions": {
                "+1": 0,
                "-1": 0,
                "confused": 0,
                "eyes": 0,
                "heart": 0,
                "hooray": 0,
                "laugh": 0,
                "rocket": 0,
                "total_count": 0,
                "url": "https://api.github.com/repos/PrismarineJS/node-minecraft-protocol/issues/comments/15997856/reactions"
            },
            "updated_at": "2013-04-06T15:19:25Z",
            "url": "https://api.github.com/repos/PrismarineJS/node-minecraft-protocol/issues/comments/15997856",
            "user": {
                "avatar_url": "https://avatars.githubusercontent.com/u/482747?v=4",
                "events_url": "https://api.github.com/users/Pablo-Merino/events{/privacy}",
                "followers_url": "https://api.github.com/users/Pablo-Merino/followers",
                "following_url": "https://api.github.com/users/Pablo-Merino/following{/other_user}",
                "gists_url": "https://api.github.com/users/Pablo-Merino/gists{/gist_id}",
                "gravatar_id": "",
                "html_url": "https://github.com/Pablo-Merino",
                "id": 482747,
                "login": "Pablo-Merino",
                "node_id": "MDQ6VXNlcjQ4Mjc0Nw==",
                "organizations_url": "https://api.github.com/users/Pablo-Merino/orgs",
                "received_events_url": "https://api.github.com/users/Pablo-Merino/received_events",
                "repos_url": "https://api.github.com/users/Pablo-Merino/repos",
                "site_admin": false,
                "starred_url": "https://api.github.com/users/Pablo-Merino/starred{/owner}{/repo}",
                "subscriptions_url": "https://api.github.com/users/Pablo-Merino/subscriptions",
                "type": "User",
                "url": "https://api.github.com/users/Pablo-Merino"
            }
        }
    ],
    "comments": 9,
    "comments_url": "https://api.github.com/repos/PrismarineJS/node-minecraft-protocol/issues/49/comments",
    "created_at": "2013-03-29T15:07:20Z",
    "event_data": [
        {
            "actor": {
                "avatar_url": "https://avatars.githubusercontent.com/u/398285?v=4",
                "events_url": "https://api.github.com/users/mappum/events{/privacy}",
                "followers_url": "https://api.github.com/users/mappum/followers",
                "following_url": "https://api.github.com/users/mappum/following{/other_user}",
                "gists_url": "https://api.github.com/users/mappum/gists{/gist_id}",
                "gravatar_id": "",
                "html_url": "https://github.com/mappum",
                "id": 398285,
                "login": "mappum",
                "node_id": "MDQ6VXNlcjM5ODI4NQ==",
                "organizations_url": "https://api.github.com/users/mappum/orgs",
                "received_events_url": "https://api.github.com/users/mappum/received_events",
                "repos_url": "https://api.github.com/users/mappum/repos",
                "site_admin": false,
                "starred_url": "https://api.github.com/users/mappum/starred{/owner}{/repo}",
                "subscriptions_url": "https://api.github.com/users/mappum/subscriptions",
                "type": "User",
                "url": "https://api.github.com/users/mappum"
            },
            "commit_id": null,
            "commit_url": null,
            "created_at": "2013-03-29T15:32:49Z",
            "event": "mentioned",
            "id": 43434414,
            "node_id": "MDE0Ok1lbnRpb25lZEV2ZW50NDM0MzQ0MTQ=",
            "performed_via_github_app": null,
            "url": "https://api.github.com/repos/PrismarineJS/node-minecraft-protocol/issues/events/43434414"
        },
        {
            "actor": {
                "avatar_url": "https://avatars.githubusercontent.com/u/398285?v=4",
                "events_url": "https://api.github.com/users/mappum/events{/privacy}",
                "followers_url": "https://api.github.com/users/mappum/followers",
                "following_url": "https://api.github.com/users/mappum/following{/other_user}",
                "gists_url": "https://api.github.com/users/mappum/gists{/gist_id}",
                "gravatar_id": "",
                "html_url": "https://github.com/mappum",
                "id": 398285,
                "login": "mappum",
                "node_id": "MDQ6VXNlcjM5ODI4NQ==",
                "organizations_url": "https://api.github.com/users/mappum/orgs",
                "received_events_url": "https://api.github.com/users/mappum/received_events",
                "repos_url": "https://api.github.com/users/mappum/repos",
                "site_admin": false,
                "starred_url": "https://api.github.com/users/mappum/starred{/owner}{/repo}",
                "subscriptions_url": "https://api.github.com/users/mappum/subscriptions",
                "type": "User",
                "url": "https://api.github.com/users/mappum"
            },
            "commit_id": null,
            "commit_url": null,
            "created_at": "2013-03-29T15:32:49Z",
            "event": "subscribed",
            "id": 43434415,
            "node_id": "MDE1OlN1YnNjcmliZWRFdmVudDQzNDM0NDE1",
            "performed_via_github_app": null,
            "url": "https://api.github.com/repos/PrismarineJS/node-minecraft-protocol/issues/events/43434415"
        },
        {
            "actor": {
                "avatar_url": "https://avatars.githubusercontent.com/u/482747?v=4",
                "events_url": "https://api.github.com/users/Pablo-Merino/events{/privacy}",
                "followers_url": "https://api.github.com/users/Pablo-Merino/followers",
                "following_url": "https://api.github.com/users/Pablo-Merino/following{/other_user}",
                "gists_url": "https://api.github.com/users/Pablo-Merino/gists{/gist_id}",
                "gravatar_id": "",
                "html_url": "https://github.com/Pablo-Merino",
                "id": 482747,
                "login": "Pablo-Merino",
                "node_id": "MDQ6VXNlcjQ4Mjc0Nw==",
                "organizations_url": "https://api.github.com/users/Pablo-Merino/orgs",
                "received_events_url": "https://api.github.com/users/Pablo-Merino/received_events",
                "repos_url": "https://api.github.com/users/Pablo-Merino/repos",
                "site_admin": false,
                "starred_url": "https://api.github.com/users/Pablo-Merino/starred{/owner}{/repo}",
                "subscriptions_url": "https://api.github.com/users/Pablo-Merino/subscriptions",
                "type": "User",
                "url": "https://api.github.com/users/Pablo-Merino"
            },
            "commit_id": null,
            "commit_url": null,
            "created_at": "2013-04-06T15:19:25Z",
            "event": "closed",
            "id": 44264630,
            "node_id": "MDExOkNsb3NlZEV2ZW50NDQyNjQ2MzA=",
            "performed_via_github_app": null,
            "state_reason": null,
            "url": "https://api.github.com/repos/PrismarineJS/node-minecraft-protocol/issues/events/44264630"
        }
    ],
    "events_url": "https://api.github.com/repos/PrismarineJS/node-minecraft-protocol/issues/49/events",
    "html_url": "https://github.com/PrismarineJS/node-minecraft-protocol/issues/49",
    "id": 12607438,
    "labels": [],
    "labels_url": "https://api.github.com/repos/PrismarineJS/node-minecraft-protocol/issues/49/labels{/name}",
    "locked": false,
    "milestone": null,
    "node_id": "MDU6SXNzdWUxMjYwNzQzOA==",
    "number": 49,
    "performed_via_github_app": null,
    "reactions": {
        "+1": 0,
        "-1": 0,
        "confused": 0,
        "eyes": 0,
        "heart": 0,
        "hooray": 0,
        "laugh": 0,
        "rocket": 0,
        "total_count": 0,
        "url": "https://api.github.com/repos/PrismarineJS/node-minecraft-protocol/issues/49/reactions"
    },
    "repository_url": "https://api.github.com/repos/PrismarineJS/node-minecraft-protocol",
    "state": "closed",
    "state_reason": "completed",
    "timeline_url": "https://api.github.com/repos/PrismarineJS/node-minecraft-protocol/issues/49/timeline",
    "title": "What would be the correct approach for sending the initial chunk?",
    "updated_at": "2013-04-06T15:19:25Z",
    "url": "https://api.github.com/repos/PrismarineJS/node-minecraft-protocol/issues/49",
    "user": {
        "avatar_url": "https://avatars.githubusercontent.com/u/482747?v=4",
        "events_url": "https://api.github.com/users/Pablo-Merino/events{/privacy}",
        "followers_url": "https://api.github.com/users/Pablo-Merino/followers",
        "following_url": "https://api.github.com/users/Pablo-Merino/following{/other_user}",
        "gists_url": "https://api.github.com/users/Pablo-Merino/gists{/gist_id}",
        "gravatar_id": "",
        "html_url": "https://github.com/Pablo-Merino",
        "id": 482747,
        "login": "Pablo-Merino",
        "node_id": "MDQ6VXNlcjQ4Mjc0Nw==",
        "organizations_url": "https://api.github.com/users/Pablo-Merino/orgs",
        "received_events_url": "https://api.github.com/users/Pablo-Merino/received_events",
        "repos_url": "https://api.github.com/users/Pablo-Merino/repos",
        "site_admin": false,
        "starred_url": "https://api.github.com/users/Pablo-Merino/starred{/owner}{/repo}",
        "subscriptions_url": "https://api.github.com/users/Pablo-Merino/subscriptions",
        "type": "User",
        "url": "https://api.github.com/users/Pablo-Merino"
    }
}