{
    "active_lock_reason": null,
    "assignee": null,
    "assignees": [],
    "author_association": "NONE",
    "body": "[ ] The [FAQ](https://github.com/PrismarineJS/node-minecraft-protocol/blob/master/docs/FAQ.md) doesn't contain a resolution to my issue \r\n\r\n## Versions\r\n - minecraft-protocol: 1.16.0\r\n - server: vanilla/spigot/paper: minecraft-protocol\r\n - node: 14.10.0\r\n\r\n## Detailed description of a problem\r\n\r\nWhen logging in I get ```Internal Exception: io.netty.handler.codec.DecoderException: java.io.IOException: Failed to decode: No key name in MapLike[{}] {dimension:[{}]}```\r\n\r\nReplacing\r\n ```dimensionCodec: { name: '', type: 'compound', value: { dimension: { type: 'list', value: { type: 'compound', value: [{ name: w }] } } } }``` \r\nwith \r\n```dimensionCodec: { name: '', type: 'compound', value: { dimension: { type: 'list', value: { type: 'compound', value: [w] } } } }``` \r\nsimply kicked me with the message \"Disconnected\".\r\n\r\nGame output doesn't show anything either.\r\n\r\n\r\n## Expected behavior\r\nTo log in on the server and see the chunk.\r\n\r\n",
    "closed_at": "2020-10-25T13:26:27Z",
    "comment_data": [
        {
            "author_association": "MEMBER",
            "body": "This example is only for 1.16.1\nYou can adapt it to 1.16.0 by dumping the packet using the example proxy\n(or debug mode with a nmp client)\n\nYou can also use flying-squid\n\nOn Mon, Sep 14, 2020, 19:50 Oreoezi <notifications@github.com> wrote:\n\n> [ ] The FAQ\n> <https://github.com/PrismarineJS/node-minecraft-protocol/blob/master/docs/FAQ.md>\n> doesn't contain a resolution to my issue\n> Versions\n>\n>    - minecraft-protocol: 1.16.0\n>    - server: vanilla/spigot/paper: minecraft-protocol\n>    - node: 14.10.0\n>\n> Detailed description of a problem\n>\n> When logging in I get Internal Exception:\n> io.netty.handler.codec.DecoderException: java.io.IOException: Failed to\n> decode: No key name in MapLike[{}] {dimension:[{}]}\n>\n> Replacing\n> dimensionCodec: { name: '', type: 'compound', value: { dimension: { type:\n> 'list', value: { type: 'compound', value: [{ name: w }] } } } }\n> with\n> dimensionCodec: { name: '', type: 'compound', value: { dimension: { type:\n> 'list', value: { type: 'compound', value: [w] } } } }\n> simply kicked me with the message \"Disconnected\".\n>\n> Game output doesn't show anything either.\n> Expected behavior\n>\n> To log in on the server and see the chunk.\n>\n> —\n> You are receiving this because you are subscribed to this thread.\n> Reply to this email directly, view it on GitHub\n> <https://github.com/PrismarineJS/node-minecraft-protocol/issues/761>, or\n> unsubscribe\n> <https://github.com/notifications/unsubscribe-auth/AAR437UHWHSHB3HPL3GSSVDSFZJYHANCNFSM4RL4LEQA>\n> .\n>\n",
            "created_at": "2020-09-14T19:14:58Z",
            "html_url": "https://github.com/PrismarineJS/node-minecraft-protocol/issues/761#issuecomment-692257814",
            "id": 692257814,
            "issue_url": "https://api.github.com/repos/PrismarineJS/node-minecraft-protocol/issues/761",
            "node_id": "MDEyOklzc3VlQ29tbWVudDY5MjI1NzgxNA==",
            "performed_via_github_app": null,
            "reactions": {
                "+1": 0,
                "-1": 0,
                "confused": 0,
                "eyes": 0,
                "heart": 0,
                "hooray": 0,
                "laugh": 0,
                "rocket": 0,
                "total_count": 0,
                "url": "https://api.github.com/repos/PrismarineJS/node-minecraft-protocol/issues/comments/692257814/reactions"
            },
            "updated_at": "2020-09-14T19:14:58Z",
            "url": "https://api.github.com/repos/PrismarineJS/node-minecraft-protocol/issues/comments/692257814",
            "user": {
                "avatar_url": "https://avatars.githubusercontent.com/u/2346494?v=4",
                "events_url": "https://api.github.com/users/rom1504/events{/privacy}",
                "followers_url": "https://api.github.com/users/rom1504/followers",
                "following_url": "https://api.github.com/users/rom1504/following{/other_user}",
                "gists_url": "https://api.github.com/users/rom1504/gists{/gist_id}",
                "gravatar_id": "",
                "html_url": "https://github.com/rom1504",
                "id": 2346494,
                "login": "rom1504",
                "node_id": "MDQ6VXNlcjIzNDY0OTQ=",
                "organizations_url": "https://api.github.com/users/rom1504/orgs",
                "received_events_url": "https://api.github.com/users/rom1504/received_events",
                "repos_url": "https://api.github.com/users/rom1504/repos",
                "site_admin": false,
                "starred_url": "https://api.github.com/users/rom1504/starred{/owner}{/repo}",
                "subscriptions_url": "https://api.github.com/users/rom1504/subscriptions",
                "type": "User",
                "url": "https://api.github.com/users/rom1504"
            }
        },
        {
            "author_association": "NONE",
            "body": "The example does not work in 1.16.x for me lol. ",
            "created_at": "2020-10-24T15:28:36Z",
            "html_url": "https://github.com/PrismarineJS/node-minecraft-protocol/issues/761#issuecomment-715936843",
            "id": 715936843,
            "issue_url": "https://api.github.com/repos/PrismarineJS/node-minecraft-protocol/issues/761",
            "node_id": "MDEyOklzc3VlQ29tbWVudDcxNTkzNjg0Mw==",
            "performed_via_github_app": null,
            "reactions": {
                "+1": 0,
                "-1": 0,
                "confused": 0,
                "eyes": 0,
                "heart": 0,
                "hooray": 0,
                "laugh": 0,
                "rocket": 0,
                "total_count": 0,
                "url": "https://api.github.com/repos/PrismarineJS/node-minecraft-protocol/issues/comments/715936843/reactions"
            },
            "updated_at": "2020-10-24T15:28:36Z",
            "url": "https://api.github.com/repos/PrismarineJS/node-minecraft-protocol/issues/comments/715936843",
            "user": {
                "avatar_url": "https://avatars.githubusercontent.com/u/44303652?v=4",
                "events_url": "https://api.github.com/users/IMarkoMC/events{/privacy}",
                "followers_url": "https://api.github.com/users/IMarkoMC/followers",
                "following_url": "https://api.github.com/users/IMarkoMC/following{/other_user}",
                "gists_url": "https://api.github.com/users/IMarkoMC/gists{/gist_id}",
                "gravatar_id": "",
                "html_url": "https://github.com/IMarkoMC",
                "id": 44303652,
                "login": "IMarkoMC",
                "node_id": "MDQ6VXNlcjQ0MzAzNjUy",
                "organizations_url": "https://api.github.com/users/IMarkoMC/orgs",
                "received_events_url": "https://api.github.com/users/IMarkoMC/received_events",
                "repos_url": "https://api.github.com/users/IMarkoMC/repos",
                "site_admin": false,
                "starred_url": "https://api.github.com/users/IMarkoMC/starred{/owner}{/repo}",
                "subscriptions_url": "https://api.github.com/users/IMarkoMC/subscriptions",
                "type": "User",
                "url": "https://api.github.com/users/IMarkoMC"
            }
        },
        {
            "author_association": "MEMBER",
            "body": "what code are you running?",
            "created_at": "2020-10-24T15:30:08Z",
            "html_url": "https://github.com/PrismarineJS/node-minecraft-protocol/issues/761#issuecomment-715937714",
            "id": 715937714,
            "issue_url": "https://api.github.com/repos/PrismarineJS/node-minecraft-protocol/issues/761",
            "node_id": "MDEyOklzc3VlQ29tbWVudDcxNTkzNzcxNA==",
            "performed_via_github_app": null,
            "reactions": {
                "+1": 0,
                "-1": 0,
                "confused": 0,
                "eyes": 0,
                "heart": 0,
                "hooray": 0,
                "laugh": 0,
                "rocket": 0,
                "total_count": 0,
                "url": "https://api.github.com/repos/PrismarineJS/node-minecraft-protocol/issues/comments/715937714/reactions"
            },
            "updated_at": "2020-10-24T15:30:08Z",
            "url": "https://api.github.com/repos/PrismarineJS/node-minecraft-protocol/issues/comments/715937714",
            "user": {
                "avatar_url": "https://avatars.githubusercontent.com/u/2346494?v=4",
                "events_url": "https://api.github.com/users/rom1504/events{/privacy}",
                "followers_url": "https://api.github.com/users/rom1504/followers",
                "following_url": "https://api.github.com/users/rom1504/following{/other_user}",
                "gists_url": "https://api.github.com/users/rom1504/gists{/gist_id}",
                "gravatar_id": "",
                "html_url": "https://github.com/rom1504",
                "id": 2346494,
                "login": "rom1504",
                "node_id": "MDQ6VXNlcjIzNDY0OTQ=",
                "organizations_url": "https://api.github.com/users/rom1504/orgs",
                "received_events_url": "https://api.github.com/users/rom1504/received_events",
                "repos_url": "https://api.github.com/users/rom1504/repos",
                "site_admin": false,
                "starred_url": "https://api.github.com/users/rom1504/starred{/owner}{/repo}",
                "subscriptions_url": "https://api.github.com/users/rom1504/subscriptions",
                "type": "User",
                "url": "https://api.github.com/users/rom1504"
            }
        },
        {
            "author_association": "CONTRIBUTOR",
            "body": "Ha yes it's my fault I missed something when I updated the examples",
            "created_at": "2020-10-24T16:20:25Z",
            "html_url": "https://github.com/PrismarineJS/node-minecraft-protocol/issues/761#issuecomment-715969130",
            "id": 715969130,
            "issue_url": "https://api.github.com/repos/PrismarineJS/node-minecraft-protocol/issues/761",
            "node_id": "MDEyOklzc3VlQ29tbWVudDcxNTk2OTEzMA==",
            "performed_via_github_app": null,
            "reactions": {
                "+1": 2,
                "-1": 0,
                "confused": 0,
                "eyes": 1,
                "heart": 0,
                "hooray": 0,
                "laugh": 0,
                "rocket": 0,
                "total_count": 3,
                "url": "https://api.github.com/repos/PrismarineJS/node-minecraft-protocol/issues/comments/715969130/reactions"
            },
            "updated_at": "2020-10-24T16:20:25Z",
            "url": "https://api.github.com/repos/PrismarineJS/node-minecraft-protocol/issues/comments/715969130",
            "user": {
                "avatar_url": "https://avatars.githubusercontent.com/u/50481621?v=4",
                "events_url": "https://api.github.com/users/GroobleDierne/events{/privacy}",
                "followers_url": "https://api.github.com/users/GroobleDierne/followers",
                "following_url": "https://api.github.com/users/GroobleDierne/following{/other_user}",
                "gists_url": "https://api.github.com/users/GroobleDierne/gists{/gist_id}",
                "gravatar_id": "",
                "html_url": "https://github.com/GroobleDierne",
                "id": 50481621,
                "login": "GroobleDierne",
                "node_id": "MDQ6VXNlcjUwNDgxNjIx",
                "organizations_url": "https://api.github.com/users/GroobleDierne/orgs",
                "received_events_url": "https://api.github.com/users/GroobleDierne/received_events",
                "repos_url": "https://api.github.com/users/GroobleDierne/repos",
                "site_admin": false,
                "starred_url": "https://api.github.com/users/GroobleDierne/starred{/owner}{/repo}",
                "subscriptions_url": "https://api.github.com/users/GroobleDierne/subscriptions",
                "type": "User",
                "url": "https://api.github.com/users/GroobleDierne"
            }
        },
        {
            "author_association": "CONTRIBUTOR",
            "body": "For the moment use this file if you want to test https://github.com/PrismarineJS/node-minecraft-protocol/blob/ff9774a5f3258933c17f0844ac0e663cbda57f9b/examples/server_world/mc.js",
            "created_at": "2020-10-24T16:44:17Z",
            "html_url": "https://github.com/PrismarineJS/node-minecraft-protocol/issues/761#issuecomment-715985256",
            "id": 715985256,
            "issue_url": "https://api.github.com/repos/PrismarineJS/node-minecraft-protocol/issues/761",
            "node_id": "MDEyOklzc3VlQ29tbWVudDcxNTk4NTI1Ng==",
            "performed_via_github_app": null,
            "reactions": {
                "+1": 1,
                "-1": 0,
                "confused": 0,
                "eyes": 0,
                "heart": 0,
                "hooray": 0,
                "laugh": 0,
                "rocket": 0,
                "total_count": 1,
                "url": "https://api.github.com/repos/PrismarineJS/node-minecraft-protocol/issues/comments/715985256/reactions"
            },
            "updated_at": "2020-10-24T16:44:17Z",
            "url": "https://api.github.com/repos/PrismarineJS/node-minecraft-protocol/issues/comments/715985256",
            "user": {
                "avatar_url": "https://avatars.githubusercontent.com/u/50481621?v=4",
                "events_url": "https://api.github.com/users/GroobleDierne/events{/privacy}",
                "followers_url": "https://api.github.com/users/GroobleDierne/followers",
                "following_url": "https://api.github.com/users/GroobleDierne/following{/other_user}",
                "gists_url": "https://api.github.com/users/GroobleDierne/gists{/gist_id}",
                "gravatar_id": "",
                "html_url": "https://github.com/GroobleDierne",
                "id": 50481621,
                "login": "GroobleDierne",
                "node_id": "MDQ6VXNlcjUwNDgxNjIx",
                "organizations_url": "https://api.github.com/users/GroobleDierne/orgs",
                "received_events_url": "https://api.github.com/users/GroobleDierne/received_events",
                "repos_url": "https://api.github.com/users/GroobleDierne/repos",
                "site_admin": false,
                "starred_url": "https://api.github.com/users/GroobleDierne/starred{/owner}{/repo}",
                "subscriptions_url": "https://api.github.com/users/GroobleDierne/subscriptions",
                "type": "User",
                "url": "https://api.github.com/users/GroobleDierne"
            }
        },
        {
            "author_association": "NONE",
            "body": "It's working now, nice",
            "created_at": "2020-10-24T17:25:16Z",
            "html_url": "https://github.com/PrismarineJS/node-minecraft-protocol/issues/761#issuecomment-716022664",
            "id": 716022664,
            "issue_url": "https://api.github.com/repos/PrismarineJS/node-minecraft-protocol/issues/761",
            "node_id": "MDEyOklzc3VlQ29tbWVudDcxNjAyMjY2NA==",
            "performed_via_github_app": null,
            "reactions": {
                "+1": 1,
                "-1": 0,
                "confused": 0,
                "eyes": 0,
                "heart": 0,
                "hooray": 0,
                "laugh": 0,
                "rocket": 0,
                "total_count": 1,
                "url": "https://api.github.com/repos/PrismarineJS/node-minecraft-protocol/issues/comments/716022664/reactions"
            },
            "updated_at": "2020-10-24T17:25:16Z",
            "url": "https://api.github.com/repos/PrismarineJS/node-minecraft-protocol/issues/comments/716022664",
            "user": {
                "avatar_url": "https://avatars.githubusercontent.com/u/44303652?v=4",
                "events_url": "https://api.github.com/users/IMarkoMC/events{/privacy}",
                "followers_url": "https://api.github.com/users/IMarkoMC/followers",
                "following_url": "https://api.github.com/users/IMarkoMC/following{/other_user}",
                "gists_url": "https://api.github.com/users/IMarkoMC/gists{/gist_id}",
                "gravatar_id": "",
                "html_url": "https://github.com/IMarkoMC",
                "id": 44303652,
                "login": "IMarkoMC",
                "node_id": "MDQ6VXNlcjQ0MzAzNjUy",
                "organizations_url": "https://api.github.com/users/IMarkoMC/orgs",
                "received_events_url": "https://api.github.com/users/IMarkoMC/received_events",
                "repos_url": "https://api.github.com/users/IMarkoMC/repos",
                "site_admin": false,
                "starred_url": "https://api.github.com/users/IMarkoMC/starred{/owner}{/repo}",
                "subscriptions_url": "https://api.github.com/users/IMarkoMC/subscriptions",
                "type": "User",
                "url": "https://api.github.com/users/IMarkoMC"
            }
        }
    ],
    "comments": 6,
    "comments_url": "https://api.github.com/repos/PrismarineJS/node-minecraft-protocol/issues/761/comments",
    "created_at": "2020-09-14T17:50:43Z",
    "event_data": [
        {
            "actor": {
                "avatar_url": "https://avatars.githubusercontent.com/u/2346494?v=4",
                "events_url": "https://api.github.com/users/rom1504/events{/privacy}",
                "followers_url": "https://api.github.com/users/rom1504/followers",
                "following_url": "https://api.github.com/users/rom1504/following{/other_user}",
                "gists_url": "https://api.github.com/users/rom1504/gists{/gist_id}",
                "gravatar_id": "",
                "html_url": "https://github.com/rom1504",
                "id": 2346494,
                "login": "rom1504",
                "node_id": "MDQ6VXNlcjIzNDY0OTQ=",
                "organizations_url": "https://api.github.com/users/rom1504/orgs",
                "received_events_url": "https://api.github.com/users/rom1504/received_events",
                "repos_url": "https://api.github.com/users/rom1504/repos",
                "site_admin": false,
                "starred_url": "https://api.github.com/users/rom1504/starred{/owner}{/repo}",
                "subscriptions_url": "https://api.github.com/users/rom1504/subscriptions",
                "type": "User",
                "url": "https://api.github.com/users/rom1504"
            },
            "commit_id": null,
            "commit_url": null,
            "created_at": "2020-10-25T13:26:27Z",
            "event": "closed",
            "id": 3917813590,
            "node_id": "MDExOkNsb3NlZEV2ZW50MzkxNzgxMzU5MA==",
            "performed_via_github_app": null,
            "state_reason": null,
            "url": "https://api.github.com/repos/PrismarineJS/node-minecraft-protocol/issues/events/3917813590"
        }
    ],
    "events_url": "https://api.github.com/repos/PrismarineJS/node-minecraft-protocol/issues/761/events",
    "html_url": "https://github.com/PrismarineJS/node-minecraft-protocol/issues/761",
    "id": 701303578,
    "labels": [],
    "labels_url": "https://api.github.com/repos/PrismarineJS/node-minecraft-protocol/issues/761/labels{/name}",
    "locked": false,
    "milestone": null,
    "node_id": "MDU6SXNzdWU3MDEzMDM1Nzg=",
    "number": 761,
    "performed_via_github_app": null,
    "reactions": {
        "+1": 0,
        "-1": 0,
        "confused": 0,
        "eyes": 0,
        "heart": 0,
        "hooray": 0,
        "laugh": 0,
        "rocket": 0,
        "total_count": 0,
        "url": "https://api.github.com/repos/PrismarineJS/node-minecraft-protocol/issues/761/reactions"
    },
    "repository_url": "https://api.github.com/repos/PrismarineJS/node-minecraft-protocol",
    "state": "closed",
    "state_reason": "completed",
    "timeline_url": "https://api.github.com/repos/PrismarineJS/node-minecraft-protocol/issues/761/timeline",
    "title": "server_world example doesn't work",
    "updated_at": "2020-10-25T13:26:27Z",
    "url": "https://api.github.com/repos/PrismarineJS/node-minecraft-protocol/issues/761",
    "user": {
        "avatar_url": "https://avatars.githubusercontent.com/u/37777619?v=4",
        "events_url": "https://api.github.com/users/Oreoezi/events{/privacy}",
        "followers_url": "https://api.github.com/users/Oreoezi/followers",
        "following_url": "https://api.github.com/users/Oreoezi/following{/other_user}",
        "gists_url": "https://api.github.com/users/Oreoezi/gists{/gist_id}",
        "gravatar_id": "",
        "html_url": "https://github.com/Oreoezi",
        "id": 37777619,
        "login": "Oreoezi",
        "node_id": "MDQ6VXNlcjM3Nzc3NjE5",
        "organizations_url": "https://api.github.com/users/Oreoezi/orgs",
        "received_events_url": "https://api.github.com/users/Oreoezi/received_events",
        "repos_url": "https://api.github.com/users/Oreoezi/repos",
        "site_admin": false,
        "starred_url": "https://api.github.com/users/Oreoezi/starred{/owner}{/repo}",
        "subscriptions_url": "https://api.github.com/users/Oreoezi/subscriptions",
        "type": "User",
        "url": "https://api.github.com/users/Oreoezi"
    }
}