{
    "active_lock_reason": null,
    "assignee": null,
    "assignees": [],
    "author_association": "NONE",
    "body": "- [x] The [FAQ](https://github.com/PrismarineJS/node-minecraft-protocol/blob/master/docs/FAQ.md) doesn't contain a resolution to my issue \r\n\r\n## Versions\r\n - minecraft-protocol: 1.30.0\r\n - node: 12.22.6\r\n\r\n## Detailed description of a problem\r\n```\r\n/home/runner/Prismarinejs-test/node_modules/prismarine-nbt/nbt.js:168\r\n    const type = value?.type ?? 'end'\r\n                       ^\r\n\r\nSyntaxError: Unexpected token '.'\r\n```\r\nSyntaxError when I require it\r\n\r\n## Current code\r\n```js\r\nvar mc = require('minecraft-protocol');\r\n```\r\n\r\n## Expected behavior\r\nThere shouldn't be an error\r\n\r\n## Additional context\r\nI'm using [Replit](https://replit.com) but I don't know if that matters\r\n",
    "closed_at": "2022-01-30T16:06:22Z",
    "comment_data": [
        {
            "author_association": "MEMBER",
            "body": "Node 6 is unsupported, minimum version is node 14. The real bug here is the package.json is out of date.",
            "created_at": "2022-01-27T15:14:37Z",
            "html_url": "https://github.com/PrismarineJS/node-minecraft-protocol/issues/954#issuecomment-1023317118",
            "id": 1023317118,
            "issue_url": "https://api.github.com/repos/PrismarineJS/node-minecraft-protocol/issues/954",
            "node_id": "IC_kwDOAHDUK848_pR-",
            "performed_via_github_app": null,
            "reactions": {
                "+1": 0,
                "-1": 0,
                "confused": 0,
                "eyes": 0,
                "heart": 0,
                "hooray": 0,
                "laugh": 0,
                "rocket": 0,
                "total_count": 0,
                "url": "https://api.github.com/repos/PrismarineJS/node-minecraft-protocol/issues/comments/1023317118/reactions"
            },
            "updated_at": "2022-01-27T15:14:37Z",
            "url": "https://api.github.com/repos/PrismarineJS/node-minecraft-protocol/issues/comments/1023317118",
            "user": {
                "avatar_url": "https://avatars.githubusercontent.com/u/1032552?v=4",
                "events_url": "https://api.github.com/users/nickelpro/events{/privacy}",
                "followers_url": "https://api.github.com/users/nickelpro/followers",
                "following_url": "https://api.github.com/users/nickelpro/following{/other_user}",
                "gists_url": "https://api.github.com/users/nickelpro/gists{/gist_id}",
                "gravatar_id": "",
                "html_url": "https://github.com/nickelpro",
                "id": 1032552,
                "login": "nickelpro",
                "node_id": "MDQ6VXNlcjEwMzI1NTI=",
                "organizations_url": "https://api.github.com/users/nickelpro/orgs",
                "received_events_url": "https://api.github.com/users/nickelpro/received_events",
                "repos_url": "https://api.github.com/users/nickelpro/repos",
                "site_admin": false,
                "starred_url": "https://api.github.com/users/nickelpro/starred{/owner}{/repo}",
                "subscriptions_url": "https://api.github.com/users/nickelpro/subscriptions",
                "type": "User",
                "url": "https://api.github.com/users/nickelpro"
            }
        },
        {
            "author_association": "NONE",
            "body": "k",
            "created_at": "2022-01-27T15:39:10Z",
            "html_url": "https://github.com/PrismarineJS/node-minecraft-protocol/issues/954#issuecomment-1023346049",
            "id": 1023346049,
            "issue_url": "https://api.github.com/repos/PrismarineJS/node-minecraft-protocol/issues/954",
            "node_id": "IC_kwDOAHDUK848_wWB",
            "performed_via_github_app": null,
            "reactions": {
                "+1": 0,
                "-1": 0,
                "confused": 0,
                "eyes": 0,
                "heart": 0,
                "hooray": 0,
                "laugh": 0,
                "rocket": 0,
                "total_count": 0,
                "url": "https://api.github.com/repos/PrismarineJS/node-minecraft-protocol/issues/comments/1023346049/reactions"
            },
            "updated_at": "2022-01-27T15:39:10Z",
            "url": "https://api.github.com/repos/PrismarineJS/node-minecraft-protocol/issues/comments/1023346049",
            "user": {
                "avatar_url": "https://avatars.githubusercontent.com/u/74213212?v=4",
                "events_url": "https://api.github.com/users/pikachub2005/events{/privacy}",
                "followers_url": "https://api.github.com/users/pikachub2005/followers",
                "following_url": "https://api.github.com/users/pikachub2005/following{/other_user}",
                "gists_url": "https://api.github.com/users/pikachub2005/gists{/gist_id}",
                "gravatar_id": "",
                "html_url": "https://github.com/pikachub2005",
                "id": 74213212,
                "login": "pikachub2005",
                "node_id": "MDQ6VXNlcjc0MjEzMjEy",
                "organizations_url": "https://api.github.com/users/pikachub2005/orgs",
                "received_events_url": "https://api.github.com/users/pikachub2005/received_events",
                "repos_url": "https://api.github.com/users/pikachub2005/repos",
                "site_admin": false,
                "starred_url": "https://api.github.com/users/pikachub2005/starred{/owner}{/repo}",
                "subscriptions_url": "https://api.github.com/users/pikachub2005/subscriptions",
                "type": "User",
                "url": "https://api.github.com/users/pikachub2005"
            }
        },
        {
            "author_association": "NONE",
            "body": "> Node 6 is unsupported, minimum version is node 14. The real bug here is the package.json is out of date.\r\n\r\nWhoops, I put my npm version. My node version is 12.22.6, but I guess that still doesn't work ;-;",
            "created_at": "2022-01-27T15:42:13Z",
            "html_url": "https://github.com/PrismarineJS/node-minecraft-protocol/issues/954#issuecomment-1023349736",
            "id": 1023349736,
            "issue_url": "https://api.github.com/repos/PrismarineJS/node-minecraft-protocol/issues/954",
            "node_id": "IC_kwDOAHDUK848_xPo",
            "performed_via_github_app": null,
            "reactions": {
                "+1": 0,
                "-1": 0,
                "confused": 0,
                "eyes": 0,
                "heart": 0,
                "hooray": 0,
                "laugh": 0,
                "rocket": 0,
                "total_count": 0,
                "url": "https://api.github.com/repos/PrismarineJS/node-minecraft-protocol/issues/comments/1023349736/reactions"
            },
            "updated_at": "2022-01-27T15:42:13Z",
            "url": "https://api.github.com/repos/PrismarineJS/node-minecraft-protocol/issues/comments/1023349736",
            "user": {
                "avatar_url": "https://avatars.githubusercontent.com/u/74213212?v=4",
                "events_url": "https://api.github.com/users/pikachub2005/events{/privacy}",
                "followers_url": "https://api.github.com/users/pikachub2005/followers",
                "following_url": "https://api.github.com/users/pikachub2005/following{/other_user}",
                "gists_url": "https://api.github.com/users/pikachub2005/gists{/gist_id}",
                "gravatar_id": "",
                "html_url": "https://github.com/pikachub2005",
                "id": 74213212,
                "login": "pikachub2005",
                "node_id": "MDQ6VXNlcjc0MjEzMjEy",
                "organizations_url": "https://api.github.com/users/pikachub2005/orgs",
                "received_events_url": "https://api.github.com/users/pikachub2005/received_events",
                "repos_url": "https://api.github.com/users/pikachub2005/repos",
                "site_admin": false,
                "starred_url": "https://api.github.com/users/pikachub2005/starred{/owner}{/repo}",
                "subscriptions_url": "https://api.github.com/users/pikachub2005/subscriptions",
                "type": "User",
                "url": "https://api.github.com/users/pikachub2005"
            }
        }
    ],
    "comments": 3,
    "comments_url": "https://api.github.com/repos/PrismarineJS/node-minecraft-protocol/issues/954/comments",
    "created_at": "2022-01-27T14:30:48Z",
    "event_data": [
        {
            "actor": {
                "avatar_url": "https://avatars.githubusercontent.com/u/56985400?v=4",
                "events_url": "https://api.github.com/users/U5B/events{/privacy}",
                "followers_url": "https://api.github.com/users/U5B/followers",
                "following_url": "https://api.github.com/users/U5B/following{/other_user}",
                "gists_url": "https://api.github.com/users/U5B/gists{/gist_id}",
                "gravatar_id": "",
                "html_url": "https://github.com/U5B",
                "id": 56985400,
                "login": "U5B",
                "node_id": "MDQ6VXNlcjU2OTg1NDAw",
                "organizations_url": "https://api.github.com/users/U5B/orgs",
                "received_events_url": "https://api.github.com/users/U5B/received_events",
                "repos_url": "https://api.github.com/users/U5B/repos",
                "site_admin": false,
                "starred_url": "https://api.github.com/users/U5B/starred{/owner}{/repo}",
                "subscriptions_url": "https://api.github.com/users/U5B/subscriptions",
                "type": "User",
                "url": "https://api.github.com/users/U5B"
            },
            "commit_id": "ebe7c848ae8cecca28a1597f3138fa02978d49da",
            "commit_url": "https://api.github.com/repos/U5B/node-minecraft-protocol/commits/ebe7c848ae8cecca28a1597f3138fa02978d49da",
            "created_at": "2022-01-27T15:18:32Z",
            "event": "referenced",
            "id": 5964554382,
            "node_id": "REFE_lADOAHDUK85CiS4GzwAAAAFjg-CO",
            "performed_via_github_app": null,
            "url": "https://api.github.com/repos/PrismarineJS/node-minecraft-protocol/issues/events/5964554382"
        },
        {
            "actor": {
                "avatar_url": "https://avatars.githubusercontent.com/u/2346494?v=4",
                "events_url": "https://api.github.com/users/rom1504/events{/privacy}",
                "followers_url": "https://api.github.com/users/rom1504/followers",
                "following_url": "https://api.github.com/users/rom1504/following{/other_user}",
                "gists_url": "https://api.github.com/users/rom1504/gists{/gist_id}",
                "gravatar_id": "",
                "html_url": "https://github.com/rom1504",
                "id": 2346494,
                "login": "rom1504",
                "node_id": "MDQ6VXNlcjIzNDY0OTQ=",
                "organizations_url": "https://api.github.com/users/rom1504/orgs",
                "received_events_url": "https://api.github.com/users/rom1504/received_events",
                "repos_url": "https://api.github.com/users/rom1504/repos",
                "site_admin": false,
                "starred_url": "https://api.github.com/users/rom1504/starred{/owner}{/repo}",
                "subscriptions_url": "https://api.github.com/users/rom1504/subscriptions",
                "type": "User",
                "url": "https://api.github.com/users/rom1504"
            },
            "commit_id": "ffeb7515e34fd9c53b8f76a885244d54e0cace3a",
            "commit_url": "https://api.github.com/repos/PrismarineJS/node-minecraft-protocol/commits/ffeb7515e34fd9c53b8f76a885244d54e0cace3a",
            "created_at": "2022-01-28T15:02:50Z",
            "event": "referenced",
            "id": 5971350465,
            "node_id": "REFE_lADOAHDUK85CiS4GzwAAAAFj65PB",
            "performed_via_github_app": null,
            "url": "https://api.github.com/repos/PrismarineJS/node-minecraft-protocol/issues/events/5971350465"
        },
        {
            "actor": {
                "avatar_url": "https://avatars.githubusercontent.com/u/2346494?v=4",
                "events_url": "https://api.github.com/users/rom1504/events{/privacy}",
                "followers_url": "https://api.github.com/users/rom1504/followers",
                "following_url": "https://api.github.com/users/rom1504/following{/other_user}",
                "gists_url": "https://api.github.com/users/rom1504/gists{/gist_id}",
                "gravatar_id": "",
                "html_url": "https://github.com/rom1504",
                "id": 2346494,
                "login": "rom1504",
                "node_id": "MDQ6VXNlcjIzNDY0OTQ=",
                "organizations_url": "https://api.github.com/users/rom1504/orgs",
                "received_events_url": "https://api.github.com/users/rom1504/received_events",
                "repos_url": "https://api.github.com/users/rom1504/repos",
                "site_admin": false,
                "starred_url": "https://api.github.com/users/rom1504/starred{/owner}{/repo}",
                "subscriptions_url": "https://api.github.com/users/rom1504/subscriptions",
                "type": "User",
                "url": "https://api.github.com/users/rom1504"
            },
            "commit_id": null,
            "commit_url": null,
            "created_at": "2022-01-30T16:06:23Z",
            "event": "closed",
            "id": 5976559599,
            "node_id": "CE_lADOAHDUK85CiS4GzwAAAAFkOw_v",
            "performed_via_github_app": null,
            "state_reason": null,
            "url": "https://api.github.com/repos/PrismarineJS/node-minecraft-protocol/issues/events/5976559599"
        }
    ],
    "events_url": "https://api.github.com/repos/PrismarineJS/node-minecraft-protocol/issues/954/events",
    "html_url": "https://github.com/PrismarineJS/node-minecraft-protocol/issues/954",
    "id": 1116286470,
    "labels": [],
    "labels_url": "https://api.github.com/repos/PrismarineJS/node-minecraft-protocol/issues/954/labels{/name}",
    "locked": false,
    "milestone": null,
    "node_id": "I_kwDOAHDUK85CiS4G",
    "number": 954,
    "performed_via_github_app": null,
    "reactions": {
        "+1": 0,
        "-1": 0,
        "confused": 0,
        "eyes": 0,
        "heart": 0,
        "hooray": 0,
        "laugh": 0,
        "rocket": 0,
        "total_count": 0,
        "url": "https://api.github.com/repos/PrismarineJS/node-minecraft-protocol/issues/954/reactions"
    },
    "repository_url": "https://api.github.com/repos/PrismarineJS/node-minecraft-protocol",
    "state": "closed",
    "state_reason": "completed",
    "timeline_url": "https://api.github.com/repos/PrismarineJS/node-minecraft-protocol/issues/954/timeline",
    "title": "Unexpected token '.' on require",
    "updated_at": "2022-01-30T16:06:22Z",
    "url": "https://api.github.com/repos/PrismarineJS/node-minecraft-protocol/issues/954",
    "user": {
        "avatar_url": "https://avatars.githubusercontent.com/u/74213212?v=4",
        "events_url": "https://api.github.com/users/pikachub2005/events{/privacy}",
        "followers_url": "https://api.github.com/users/pikachub2005/followers",
        "following_url": "https://api.github.com/users/pikachub2005/following{/other_user}",
        "gists_url": "https://api.github.com/users/pikachub2005/gists{/gist_id}",
        "gravatar_id": "",
        "html_url": "https://github.com/pikachub2005",
        "id": 74213212,
        "login": "pikachub2005",
        "node_id": "MDQ6VXNlcjc0MjEzMjEy",
        "organizations_url": "https://api.github.com/users/pikachub2005/orgs",
        "received_events_url": "https://api.github.com/users/pikachub2005/received_events",
        "repos_url": "https://api.github.com/users/pikachub2005/repos",
        "site_admin": false,
        "starred_url": "https://api.github.com/users/pikachub2005/starred{/owner}{/repo}",
        "subscriptions_url": "https://api.github.com/users/pikachub2005/subscriptions",
        "type": "User",
        "url": "https://api.github.com/users/pikachub2005"
    }
}