{
    "active_lock_reason": null,
    "assignee": null,
    "assignees": [],
    "author_association": "CONTRIBUTOR",
    "body": "[x] The [FAQ](https://github.com/PrismarineJS/node-minecraft-protocol/blob/master/docs/FAQ.md) doesn't contain a resolution to my issue \r\n\r\n## Versions\r\n - minecraft-protocol: 1.30.0\r\n - server: vanilla/spigot/paper n.a.\r\n - node: 16\r\n\r\n## Detailed description of a problem\r\nThe library includes a lot of dependencies, it increased the size of `/node_modules` by more than 200% and my docker image by about 50%. I believe this might be a bug (e.g. dev-dependencies included as prod-dependencies).\r\n\r\nSee also jojomatik/blockcluster#390. I've taken a look at the compressed sizes on dockerhub and have narrowed the range of commits down to the addition of this library to my project (even though the difference on dockerhub is pretty small in the compressed sizes).\r\n\r\nWould you be able to take a look at all dependencies? Which ones are strictly necessary? Which dependencies would suffice as dev-dependencies? Would it be possible to make some dependencies optional, based on the protocol used?\r\n\r\n## Current code\r\nn.a.\r\n\r\n## Expected behavior\r\n`/node_modules` and docker image don't increase dramatically.\r\n\r\n## Additional context\r\nBefore:\r\n![image](https://user-images.githubusercontent.com/66277921/162574289-74695db8-d78a-4855-b461-38e6e747b10f.png)\r\n\r\n![image](https://user-images.githubusercontent.com/66277921/162574320-9acc623e-e76c-47b2-a589-a33b17a85c54.png)\r\n\r\nAfter:\r\n![image](https://user-images.githubusercontent.com/66277921/162574276-b5b08a02-bb2f-4c59-bde6-c03436ba8da9.png)\r\n\r\n![image](https://user-images.githubusercontent.com/66277921/162574312-0e6cd3ac-7288-4efc-94e0-f150c3f39fad.png)\r\n",
    "closed_at": "2022-04-09T13:07:41Z",
    "comment_data": [
        {
            "author_association": "MEMBER",
            "body": "We have a single dependency that uses space: minecraft data. It uses 70MB when uncompressed, 4MB when compressed\r\n\r\nWhat problem are you trying to solve?",
            "created_at": "2022-04-09T12:51:12Z",
            "html_url": "https://github.com/PrismarineJS/node-minecraft-protocol/issues/978#issuecomment-1093995133",
            "id": 1093995133,
            "issue_url": "https://api.github.com/repos/PrismarineJS/node-minecraft-protocol/issues/978",
            "node_id": "IC_kwDOAHDUK85BNQp9",
            "performed_via_github_app": null,
            "reactions": {
                "+1": 0,
                "-1": 0,
                "confused": 0,
                "eyes": 0,
                "heart": 0,
                "hooray": 0,
                "laugh": 0,
                "rocket": 0,
                "total_count": 0,
                "url": "https://api.github.com/repos/PrismarineJS/node-minecraft-protocol/issues/comments/1093995133/reactions"
            },
            "updated_at": "2022-04-09T12:51:12Z",
            "url": "https://api.github.com/repos/PrismarineJS/node-minecraft-protocol/issues/comments/1093995133",
            "user": {
                "avatar_url": "https://avatars.githubusercontent.com/u/2346494?v=4",
                "events_url": "https://api.github.com/users/rom1504/events{/privacy}",
                "followers_url": "https://api.github.com/users/rom1504/followers",
                "following_url": "https://api.github.com/users/rom1504/following{/other_user}",
                "gists_url": "https://api.github.com/users/rom1504/gists{/gist_id}",
                "gravatar_id": "",
                "html_url": "https://github.com/rom1504",
                "id": 2346494,
                "login": "rom1504",
                "node_id": "MDQ6VXNlcjIzNDY0OTQ=",
                "organizations_url": "https://api.github.com/users/rom1504/orgs",
                "received_events_url": "https://api.github.com/users/rom1504/received_events",
                "repos_url": "https://api.github.com/users/rom1504/repos",
                "site_admin": false,
                "starred_url": "https://api.github.com/users/rom1504/starred{/owner}{/repo}",
                "subscriptions_url": "https://api.github.com/users/rom1504/subscriptions",
                "type": "User",
                "url": "https://api.github.com/users/rom1504"
            }
        },
        {
            "author_association": "CONTRIBUTOR",
            "body": "I only use a very small portion of this library: I create a mock server that listens for a connection and starts the \"real\" minecraft server as soon as a client tries to connect. \r\n\r\nIf `minecraft-data` really uses that much space, that is really unfortunate for my use-case, as I'd believe that I only use a very small part of that data. Would there be a possibility to only include the relevant parts?\r\n\r\nI've tried to decrease the docker image size in the past to fasten download times especially for automatic re-deployment to minimize the downtime. Adding this much data is really unfortunate in that case.",
            "created_at": "2022-04-09T12:59:39Z",
            "html_url": "https://github.com/PrismarineJS/node-minecraft-protocol/issues/978#issuecomment-1094001315",
            "id": 1094001315,
            "issue_url": "https://api.github.com/repos/PrismarineJS/node-minecraft-protocol/issues/978",
            "node_id": "IC_kwDOAHDUK85BNSKj",
            "performed_via_github_app": null,
            "reactions": {
                "+1": 0,
                "-1": 0,
                "confused": 0,
                "eyes": 0,
                "heart": 0,
                "hooray": 0,
                "laugh": 0,
                "rocket": 0,
                "total_count": 0,
                "url": "https://api.github.com/repos/PrismarineJS/node-minecraft-protocol/issues/comments/1094001315/reactions"
            },
            "updated_at": "2022-04-09T12:59:39Z",
            "url": "https://api.github.com/repos/PrismarineJS/node-minecraft-protocol/issues/comments/1094001315",
            "user": {
                "avatar_url": "https://avatars.githubusercontent.com/u/66277921?v=4",
                "events_url": "https://api.github.com/users/jojomatik/events{/privacy}",
                "followers_url": "https://api.github.com/users/jojomatik/followers",
                "following_url": "https://api.github.com/users/jojomatik/following{/other_user}",
                "gists_url": "https://api.github.com/users/jojomatik/gists{/gist_id}",
                "gravatar_id": "",
                "html_url": "https://github.com/jojomatik",
                "id": 66277921,
                "login": "jojomatik",
                "node_id": "MDQ6VXNlcjY2Mjc3OTIx",
                "organizations_url": "https://api.github.com/users/jojomatik/orgs",
                "received_events_url": "https://api.github.com/users/jojomatik/received_events",
                "repos_url": "https://api.github.com/users/jojomatik/repos",
                "site_admin": false,
                "starred_url": "https://api.github.com/users/jojomatik/starred{/owner}{/repo}",
                "subscriptions_url": "https://api.github.com/users/jojomatik/subscriptions",
                "type": "User",
                "url": "https://api.github.com/users/jojomatik"
            }
        },
        {
            "author_association": "MEMBER",
            "body": "docker images are compressed by default, so this shouldn't cause you any issue",
            "created_at": "2022-04-09T13:01:51Z",
            "html_url": "https://github.com/PrismarineJS/node-minecraft-protocol/issues/978#issuecomment-1094002965",
            "id": 1094002965,
            "issue_url": "https://api.github.com/repos/PrismarineJS/node-minecraft-protocol/issues/978",
            "node_id": "IC_kwDOAHDUK85BNSkV",
            "performed_via_github_app": null,
            "reactions": {
                "+1": 0,
                "-1": 0,
                "confused": 0,
                "eyes": 0,
                "heart": 0,
                "hooray": 0,
                "laugh": 0,
                "rocket": 0,
                "total_count": 0,
                "url": "https://api.github.com/repos/PrismarineJS/node-minecraft-protocol/issues/comments/1094002965/reactions"
            },
            "updated_at": "2022-04-09T13:01:51Z",
            "url": "https://api.github.com/repos/PrismarineJS/node-minecraft-protocol/issues/comments/1094002965",
            "user": {
                "avatar_url": "https://avatars.githubusercontent.com/u/2346494?v=4",
                "events_url": "https://api.github.com/users/rom1504/events{/privacy}",
                "followers_url": "https://api.github.com/users/rom1504/followers",
                "following_url": "https://api.github.com/users/rom1504/following{/other_user}",
                "gists_url": "https://api.github.com/users/rom1504/gists{/gist_id}",
                "gravatar_id": "",
                "html_url": "https://github.com/rom1504",
                "id": 2346494,
                "login": "rom1504",
                "node_id": "MDQ6VXNlcjIzNDY0OTQ=",
                "organizations_url": "https://api.github.com/users/rom1504/orgs",
                "received_events_url": "https://api.github.com/users/rom1504/received_events",
                "repos_url": "https://api.github.com/users/rom1504/repos",
                "site_admin": false,
                "starred_url": "https://api.github.com/users/rom1504/starred{/owner}{/repo}",
                "subscriptions_url": "https://api.github.com/users/rom1504/subscriptions",
                "type": "User",
                "url": "https://api.github.com/users/rom1504"
            }
        },
        {
            "author_association": "CONTRIBUTOR",
            "body": "Yeah, that seems to be true for download times. \r\n\r\nThey seem to get uncompressed as soon as they are downloaded, but that shouldn't be too much of an issue then the more I think about i. If I remove all unused/ old images and never have to run a lot of different versions of my software at the same time, those 70MB should not cause any issues.\r\n\r\nThanks for the fast response and clarification :)",
            "created_at": "2022-04-09T13:07:41Z",
            "html_url": "https://github.com/PrismarineJS/node-minecraft-protocol/issues/978#issuecomment-1094007301",
            "id": 1094007301,
            "issue_url": "https://api.github.com/repos/PrismarineJS/node-minecraft-protocol/issues/978",
            "node_id": "IC_kwDOAHDUK85BNToF",
            "performed_via_github_app": null,
            "reactions": {
                "+1": 0,
                "-1": 0,
                "confused": 0,
                "eyes": 0,
                "heart": 0,
                "hooray": 0,
                "laugh": 0,
                "rocket": 0,
                "total_count": 0,
                "url": "https://api.github.com/repos/PrismarineJS/node-minecraft-protocol/issues/comments/1094007301/reactions"
            },
            "updated_at": "2022-04-09T13:07:41Z",
            "url": "https://api.github.com/repos/PrismarineJS/node-minecraft-protocol/issues/comments/1094007301",
            "user": {
                "avatar_url": "https://avatars.githubusercontent.com/u/66277921?v=4",
                "events_url": "https://api.github.com/users/jojomatik/events{/privacy}",
                "followers_url": "https://api.github.com/users/jojomatik/followers",
                "following_url": "https://api.github.com/users/jojomatik/following{/other_user}",
                "gists_url": "https://api.github.com/users/jojomatik/gists{/gist_id}",
                "gravatar_id": "",
                "html_url": "https://github.com/jojomatik",
                "id": 66277921,
                "login": "jojomatik",
                "node_id": "MDQ6VXNlcjY2Mjc3OTIx",
                "organizations_url": "https://api.github.com/users/jojomatik/orgs",
                "received_events_url": "https://api.github.com/users/jojomatik/received_events",
                "repos_url": "https://api.github.com/users/jojomatik/repos",
                "site_admin": false,
                "starred_url": "https://api.github.com/users/jojomatik/starred{/owner}{/repo}",
                "subscriptions_url": "https://api.github.com/users/jojomatik/subscriptions",
                "type": "User",
                "url": "https://api.github.com/users/jojomatik"
            }
        },
        {
            "author_association": "MEMBER",
            "body": "yeah, you're not the first one to point this out though\r\nwe could consider keeping the files as compressed in the npm package and only uncompressing at run time \r\nhttps://github.com/PrismarineJS/node-minecraft-data/issues/185 here's an issue to track that idea",
            "created_at": "2022-04-09T13:12:52Z",
            "html_url": "https://github.com/PrismarineJS/node-minecraft-protocol/issues/978#issuecomment-1094011178",
            "id": 1094011178,
            "issue_url": "https://api.github.com/repos/PrismarineJS/node-minecraft-protocol/issues/978",
            "node_id": "IC_kwDOAHDUK85BNUkq",
            "performed_via_github_app": null,
            "reactions": {
                "+1": 1,
                "-1": 0,
                "confused": 0,
                "eyes": 0,
                "heart": 0,
                "hooray": 0,
                "laugh": 0,
                "rocket": 0,
                "total_count": 1,
                "url": "https://api.github.com/repos/PrismarineJS/node-minecraft-protocol/issues/comments/1094011178/reactions"
            },
            "updated_at": "2022-04-09T13:12:52Z",
            "url": "https://api.github.com/repos/PrismarineJS/node-minecraft-protocol/issues/comments/1094011178",
            "user": {
                "avatar_url": "https://avatars.githubusercontent.com/u/2346494?v=4",
                "events_url": "https://api.github.com/users/rom1504/events{/privacy}",
                "followers_url": "https://api.github.com/users/rom1504/followers",
                "following_url": "https://api.github.com/users/rom1504/following{/other_user}",
                "gists_url": "https://api.github.com/users/rom1504/gists{/gist_id}",
                "gravatar_id": "",
                "html_url": "https://github.com/rom1504",
                "id": 2346494,
                "login": "rom1504",
                "node_id": "MDQ6VXNlcjIzNDY0OTQ=",
                "organizations_url": "https://api.github.com/users/rom1504/orgs",
                "received_events_url": "https://api.github.com/users/rom1504/received_events",
                "repos_url": "https://api.github.com/users/rom1504/repos",
                "site_admin": false,
                "starred_url": "https://api.github.com/users/rom1504/starred{/owner}{/repo}",
                "subscriptions_url": "https://api.github.com/users/rom1504/subscriptions",
                "type": "User",
                "url": "https://api.github.com/users/rom1504"
            }
        }
    ],
    "comments": 5,
    "comments_url": "https://api.github.com/repos/PrismarineJS/node-minecraft-protocol/issues/978/comments",
    "created_at": "2022-04-09T12:38:05Z",
    "event_data": [
        {
            "actor": {
                "avatar_url": "https://avatars.githubusercontent.com/u/66277921?v=4",
                "events_url": "https://api.github.com/users/jojomatik/events{/privacy}",
                "followers_url": "https://api.github.com/users/jojomatik/followers",
                "following_url": "https://api.github.com/users/jojomatik/following{/other_user}",
                "gists_url": "https://api.github.com/users/jojomatik/gists{/gist_id}",
                "gravatar_id": "",
                "html_url": "https://github.com/jojomatik",
                "id": 66277921,
                "login": "jojomatik",
                "node_id": "MDQ6VXNlcjY2Mjc3OTIx",
                "organizations_url": "https://api.github.com/users/jojomatik/orgs",
                "received_events_url": "https://api.github.com/users/jojomatik/received_events",
                "repos_url": "https://api.github.com/users/jojomatik/repos",
                "site_admin": false,
                "starred_url": "https://api.github.com/users/jojomatik/starred{/owner}{/repo}",
                "subscriptions_url": "https://api.github.com/users/jojomatik/subscriptions",
                "type": "User",
                "url": "https://api.github.com/users/jojomatik"
            },
            "commit_id": null,
            "commit_url": null,
            "created_at": "2022-04-09T13:07:41Z",
            "event": "closed",
            "id": 6401422325,
            "node_id": "CE_lADOAHDUK85HcME8zwAAAAF9jfP1",
            "performed_via_github_app": null,
            "state_reason": null,
            "url": "https://api.github.com/repos/PrismarineJS/node-minecraft-protocol/issues/events/6401422325"
        }
    ],
    "events_url": "https://api.github.com/repos/PrismarineJS/node-minecraft-protocol/issues/978/events",
    "html_url": "https://github.com/PrismarineJS/node-minecraft-protocol/issues/978",
    "id": 1198571836,
    "labels": [],
    "labels_url": "https://api.github.com/repos/PrismarineJS/node-minecraft-protocol/issues/978/labels{/name}",
    "locked": false,
    "milestone": null,
    "node_id": "I_kwDOAHDUK85HcME8",
    "number": 978,
    "performed_via_github_app": null,
    "reactions": {
        "+1": 0,
        "-1": 0,
        "confused": 0,
        "eyes": 0,
        "heart": 0,
        "hooray": 0,
        "laugh": 0,
        "rocket": 0,
        "total_count": 0,
        "url": "https://api.github.com/repos/PrismarineJS/node-minecraft-protocol/issues/978/reactions"
    },
    "repository_url": "https://api.github.com/repos/PrismarineJS/node-minecraft-protocol",
    "state": "closed",
    "state_reason": "completed",
    "timeline_url": "https://api.github.com/repos/PrismarineJS/node-minecraft-protocol/issues/978/timeline",
    "title": "`minecraft-protocol` increases `node_modules` size by more than 200%",
    "updated_at": "2022-04-09T13:12:53Z",
    "url": "https://api.github.com/repos/PrismarineJS/node-minecraft-protocol/issues/978",
    "user": {
        "avatar_url": "https://avatars.githubusercontent.com/u/66277921?v=4",
        "events_url": "https://api.github.com/users/jojomatik/events{/privacy}",
        "followers_url": "https://api.github.com/users/jojomatik/followers",
        "following_url": "https://api.github.com/users/jojomatik/following{/other_user}",
        "gists_url": "https://api.github.com/users/jojomatik/gists{/gist_id}",
        "gravatar_id": "",
        "html_url": "https://github.com/jojomatik",
        "id": 66277921,
        "login": "jojomatik",
        "node_id": "MDQ6VXNlcjY2Mjc3OTIx",
        "organizations_url": "https://api.github.com/users/jojomatik/orgs",
        "received_events_url": "https://api.github.com/users/jojomatik/received_events",
        "repos_url": "https://api.github.com/users/jojomatik/repos",
        "site_admin": false,
        "starred_url": "https://api.github.com/users/jojomatik/starred{/owner}{/repo}",
        "subscriptions_url": "https://api.github.com/users/jojomatik/subscriptions",
        "type": "User",
        "url": "https://api.github.com/users/jojomatik"
    }
}