{
    "active_lock_reason": null,
    "assignee": null,
    "assignees": [],
    "author_association": "NONE",
    "body": "```json\r\n{\"errorCode\":403, \"errorMsg\":\"Not invited\"}\r\n```",
    "closed_at": "2022-06-24T08:24:32Z",
    "comment_data": [
        {
            "author_association": "CONTRIBUTOR",
            "body": "Just tested this and seems to be working (joining a Realm I'm not in via invite). Can you run `npm update` and try again.",
            "created_at": "2022-06-20T08:48:32Z",
            "html_url": "https://github.com/PrismarineJS/bedrock-protocol/issues/228#issuecomment-1160158493",
            "id": 1160158493,
            "issue_url": "https://api.github.com/repos/PrismarineJS/bedrock-protocol/issues/228",
            "node_id": "IC_kwDOAxQ-8c5FJp0d",
            "performed_via_github_app": null,
            "reactions": {
                "+1": 0,
                "-1": 0,
                "confused": 0,
                "eyes": 0,
                "heart": 0,
                "hooray": 0,
                "laugh": 0,
                "rocket": 0,
                "total_count": 0,
                "url": "https://api.github.com/repos/PrismarineJS/bedrock-protocol/issues/comments/1160158493/reactions"
            },
            "updated_at": "2022-06-20T08:48:32Z",
            "url": "https://api.github.com/repos/PrismarineJS/bedrock-protocol/issues/comments/1160158493",
            "user": {
                "avatar_url": "https://avatars.githubusercontent.com/u/66429271?v=4",
                "events_url": "https://api.github.com/users/LucienHH/events{/privacy}",
                "followers_url": "https://api.github.com/users/LucienHH/followers",
                "following_url": "https://api.github.com/users/LucienHH/following{/other_user}",
                "gists_url": "https://api.github.com/users/LucienHH/gists{/gist_id}",
                "gravatar_id": "",
                "html_url": "https://github.com/LucienHH",
                "id": 66429271,
                "login": "LucienHH",
                "node_id": "MDQ6VXNlcjY2NDI5Mjcx",
                "organizations_url": "https://api.github.com/users/LucienHH/orgs",
                "received_events_url": "https://api.github.com/users/LucienHH/received_events",
                "repos_url": "https://api.github.com/users/LucienHH/repos",
                "site_admin": false,
                "starred_url": "https://api.github.com/users/LucienHH/starred{/owner}{/repo}",
                "subscriptions_url": "https://api.github.com/users/LucienHH/subscriptions",
                "type": "User",
                "url": "https://api.github.com/users/LucienHH"
            }
        },
        {
            "author_association": "NONE",
            "body": "updated\r\n```\r\nnode_modules/bedrock-protocol/src/client/auth.js:28\r\n  if (!realms || !realms.length) throw Error('Couldn\\'t find any Realms for the authenticated account')\r\n                                       ^\r\n\r\nError: Couldn't find any Realms for the authenticated account\r\n```",
            "created_at": "2022-06-23T14:20:32Z",
            "html_url": "https://github.com/PrismarineJS/bedrock-protocol/issues/228#issuecomment-1164470952",
            "id": 1164470952,
            "issue_url": "https://api.github.com/repos/PrismarineJS/bedrock-protocol/issues/228",
            "node_id": "IC_kwDOAxQ-8c5FaGqo",
            "performed_via_github_app": null,
            "reactions": {
                "+1": 0,
                "-1": 0,
                "confused": 0,
                "eyes": 0,
                "heart": 0,
                "hooray": 0,
                "laugh": 0,
                "rocket": 0,
                "total_count": 0,
                "url": "https://api.github.com/repos/PrismarineJS/bedrock-protocol/issues/comments/1164470952/reactions"
            },
            "updated_at": "2022-06-23T14:20:32Z",
            "url": "https://api.github.com/repos/PrismarineJS/bedrock-protocol/issues/comments/1164470952",
            "user": {
                "avatar_url": "https://avatars.githubusercontent.com/u/94738411?v=4",
                "events_url": "https://api.github.com/users/anondiscord-noname/events{/privacy}",
                "followers_url": "https://api.github.com/users/anondiscord-noname/followers",
                "following_url": "https://api.github.com/users/anondiscord-noname/following{/other_user}",
                "gists_url": "https://api.github.com/users/anondiscord-noname/gists{/gist_id}",
                "gravatar_id": "",
                "html_url": "https://github.com/anondiscord-noname",
                "id": 94738411,
                "login": "anondiscord-noname",
                "node_id": "U_kgDOBaWX6w",
                "organizations_url": "https://api.github.com/users/anondiscord-noname/orgs",
                "received_events_url": "https://api.github.com/users/anondiscord-noname/received_events",
                "repos_url": "https://api.github.com/users/anondiscord-noname/repos",
                "site_admin": false,
                "starred_url": "https://api.github.com/users/anondiscord-noname/starred{/owner}{/repo}",
                "subscriptions_url": "https://api.github.com/users/anondiscord-noname/subscriptions",
                "type": "User",
                "url": "https://api.github.com/users/anondiscord-noname"
            }
        },
        {
            "author_association": "CONTRIBUTOR",
            "body": "Ah, I see the issue. I assume the account you're using hasn't joined any Realms before causing the initial fetch to throw an error as we don't receive any Realms however if you're joining via invite this fetch shouldn't be needed. \r\n",
            "created_at": "2022-06-23T15:07:28Z",
            "html_url": "https://github.com/PrismarineJS/bedrock-protocol/issues/228#issuecomment-1164531213",
            "id": 1164531213,
            "issue_url": "https://api.github.com/repos/PrismarineJS/bedrock-protocol/issues/228",
            "node_id": "IC_kwDOAxQ-8c5FaVYN",
            "performed_via_github_app": null,
            "reactions": {
                "+1": 0,
                "-1": 0,
                "confused": 0,
                "eyes": 0,
                "heart": 0,
                "hooray": 0,
                "laugh": 0,
                "rocket": 0,
                "total_count": 0,
                "url": "https://api.github.com/repos/PrismarineJS/bedrock-protocol/issues/comments/1164531213/reactions"
            },
            "updated_at": "2022-06-23T15:07:28Z",
            "url": "https://api.github.com/repos/PrismarineJS/bedrock-protocol/issues/comments/1164531213",
            "user": {
                "avatar_url": "https://avatars.githubusercontent.com/u/66429271?v=4",
                "events_url": "https://api.github.com/users/LucienHH/events{/privacy}",
                "followers_url": "https://api.github.com/users/LucienHH/followers",
                "following_url": "https://api.github.com/users/LucienHH/following{/other_user}",
                "gists_url": "https://api.github.com/users/LucienHH/gists{/gist_id}",
                "gravatar_id": "",
                "html_url": "https://github.com/LucienHH",
                "id": 66429271,
                "login": "LucienHH",
                "node_id": "MDQ6VXNlcjY2NDI5Mjcx",
                "organizations_url": "https://api.github.com/users/LucienHH/orgs",
                "received_events_url": "https://api.github.com/users/LucienHH/received_events",
                "repos_url": "https://api.github.com/users/LucienHH/repos",
                "site_admin": false,
                "starred_url": "https://api.github.com/users/LucienHH/starred{/owner}{/repo}",
                "subscriptions_url": "https://api.github.com/users/LucienHH/subscriptions",
                "type": "User",
                "url": "https://api.github.com/users/LucienHH"
            }
        },
        {
            "author_association": "NONE",
            "body": "Resolved, thank you!",
            "created_at": "2022-06-24T08:24:32Z",
            "html_url": "https://github.com/PrismarineJS/bedrock-protocol/issues/228#issuecomment-1165330715",
            "id": 1165330715,
            "issue_url": "https://api.github.com/repos/PrismarineJS/bedrock-protocol/issues/228",
            "node_id": "IC_kwDOAxQ-8c5FdYkb",
            "performed_via_github_app": null,
            "reactions": {
                "+1": 0,
                "-1": 0,
                "confused": 0,
                "eyes": 0,
                "heart": 0,
                "hooray": 0,
                "laugh": 0,
                "rocket": 0,
                "total_count": 0,
                "url": "https://api.github.com/repos/PrismarineJS/bedrock-protocol/issues/comments/1165330715/reactions"
            },
            "updated_at": "2022-06-24T08:24:32Z",
            "url": "https://api.github.com/repos/PrismarineJS/bedrock-protocol/issues/comments/1165330715",
            "user": {
                "avatar_url": "https://avatars.githubusercontent.com/u/94738411?v=4",
                "events_url": "https://api.github.com/users/anondiscord-noname/events{/privacy}",
                "followers_url": "https://api.github.com/users/anondiscord-noname/followers",
                "following_url": "https://api.github.com/users/anondiscord-noname/following{/other_user}",
                "gists_url": "https://api.github.com/users/anondiscord-noname/gists{/gist_id}",
                "gravatar_id": "",
                "html_url": "https://github.com/anondiscord-noname",
                "id": 94738411,
                "login": "anondiscord-noname",
                "node_id": "U_kgDOBaWX6w",
                "organizations_url": "https://api.github.com/users/anondiscord-noname/orgs",
                "received_events_url": "https://api.github.com/users/anondiscord-noname/received_events",
                "repos_url": "https://api.github.com/users/anondiscord-noname/repos",
                "site_admin": false,
                "starred_url": "https://api.github.com/users/anondiscord-noname/starred{/owner}{/repo}",
                "subscriptions_url": "https://api.github.com/users/anondiscord-noname/subscriptions",
                "type": "User",
                "url": "https://api.github.com/users/anondiscord-noname"
            }
        }
    ],
    "comments": 4,
    "comments_url": "https://api.github.com/repos/PrismarineJS/bedrock-protocol/issues/228/comments",
    "created_at": "2022-06-20T04:22:30Z",
    "event_data": [
        {
            "actor": {
                "avatar_url": "https://avatars.githubusercontent.com/u/94738411?v=4",
                "events_url": "https://api.github.com/users/anondiscord-noname/events{/privacy}",
                "followers_url": "https://api.github.com/users/anondiscord-noname/followers",
                "following_url": "https://api.github.com/users/anondiscord-noname/following{/other_user}",
                "gists_url": "https://api.github.com/users/anondiscord-noname/gists{/gist_id}",
                "gravatar_id": "",
                "html_url": "https://github.com/anondiscord-noname",
                "id": 94738411,
                "login": "anondiscord-noname",
                "node_id": "U_kgDOBaWX6w",
                "organizations_url": "https://api.github.com/users/anondiscord-noname/orgs",
                "received_events_url": "https://api.github.com/users/anondiscord-noname/received_events",
                "repos_url": "https://api.github.com/users/anondiscord-noname/repos",
                "site_admin": false,
                "starred_url": "https://api.github.com/users/anondiscord-noname/starred{/owner}{/repo}",
                "subscriptions_url": "https://api.github.com/users/anondiscord-noname/subscriptions",
                "type": "User",
                "url": "https://api.github.com/users/anondiscord-noname"
            },
            "commit_id": null,
            "commit_url": null,
            "created_at": "2022-06-24T08:24:32Z",
            "event": "closed",
            "id": 6872456852,
            "node_id": "CE_lADOAxQ-8c5ME3HmzwAAAAGZoV6U",
            "performed_via_github_app": null,
            "state_reason": null,
            "url": "https://api.github.com/repos/PrismarineJS/bedrock-protocol/issues/events/6872456852"
        }
    ],
    "events_url": "https://api.github.com/repos/PrismarineJS/bedrock-protocol/issues/228/events",
    "html_url": "https://github.com/PrismarineJS/bedrock-protocol/issues/228",
    "id": 1276342758,
    "labels": [],
    "labels_url": "https://api.github.com/repos/PrismarineJS/bedrock-protocol/issues/228/labels{/name}",
    "locked": false,
    "milestone": null,
    "node_id": "I_kwDOAxQ-8c5ME3Hm",
    "number": 228,
    "performed_via_github_app": null,
    "reactions": {
        "+1": 0,
        "-1": 0,
        "confused": 0,
        "eyes": 0,
        "heart": 0,
        "hooray": 0,
        "laugh": 0,
        "rocket": 0,
        "total_count": 0,
        "url": "https://api.github.com/repos/PrismarineJS/bedrock-protocol/issues/228/reactions"
    },
    "repository_url": "https://api.github.com/repos/PrismarineJS/bedrock-protocol",
    "state": "closed",
    "state_reason": "completed",
    "timeline_url": "https://api.github.com/repos/PrismarineJS/bedrock-protocol/issues/228/timeline",
    "title": "How to accept realms invite url?",
    "updated_at": "2022-06-24T08:24:32Z",
    "url": "https://api.github.com/repos/PrismarineJS/bedrock-protocol/issues/228",
    "user": {
        "avatar_url": "https://avatars.githubusercontent.com/u/94738411?v=4",
        "events_url": "https://api.github.com/users/anondiscord-noname/events{/privacy}",
        "followers_url": "https://api.github.com/users/anondiscord-noname/followers",
        "following_url": "https://api.github.com/users/anondiscord-noname/following{/other_user}",
        "gists_url": "https://api.github.com/users/anondiscord-noname/gists{/gist_id}",
        "gravatar_id": "",
        "html_url": "https://github.com/anondiscord-noname",
        "id": 94738411,
        "login": "anondiscord-noname",
        "node_id": "U_kgDOBaWX6w",
        "organizations_url": "https://api.github.com/users/anondiscord-noname/orgs",
        "received_events_url": "https://api.github.com/users/anondiscord-noname/received_events",
        "repos_url": "https://api.github.com/users/anondiscord-noname/repos",
        "site_admin": false,
        "starred_url": "https://api.github.com/users/anondiscord-noname/starred{/owner}{/repo}",
        "subscriptions_url": "https://api.github.com/users/anondiscord-noname/subscriptions",
        "type": "User",
        "url": "https://api.github.com/users/anondiscord-noname"
    }
}