{
    "active_lock_reason": null,
    "assignee": null,
    "assignees": [],
    "author_association": "NONE",
    "body": "My server is at 1.19.22 (same protocol as 1.19.21), but I can't connect to my server using bedrock-protocol\r\nIt occurs following error:\r\n```js\r\nConnecting to server §l§d牛牛§r的§l§a草原§r §l§c生存§r (undefined), version 1.19.22  (as 1.19.21)\r\nSupported versions {\r\n  '1.18.30': 503,\r\n  '1.18.11': 486,\r\n  '1.18.0': 475,\r\n  '1.17.40': 471,\r\n  '1.17.30': 465,\r\n  '1.17.10': 448,\r\n  '1.17.0': 440,\r\n  '1.16.220': 431,\r\n  '1.16.210': 428,\r\n  '1.16.201': 422\r\n}\r\nC:\\Users\\Charlie\\Desktop\\node_modules\\bedrock-protocol\\src\\options.js:30\r\n    throw Error(`Unsupported version ${options.version}`)\r\n          ^\r\n\r\nError: Unsupported version 1.19.21\r\n    at Object.validateOptions (C:\\Users\\Charlie\\Desktop\\node_modules\\bedrock-protocol\\src\\options.js:30:11)\r\n    at Client.validateOptions (C:\\Users\\Charlie\\Desktop\\node_modules\\bedrock-protocol\\src\\client.js:70:13)\r\n    at Client.init (C:\\Users\\Charlie\\Desktop\\node_modules\\bedrock-protocol\\src\\client.js:38:10)\r\n    at C:\\Users\\Charlie\\Desktop\\node_modules\\bedrock-protocol\\src\\createClient.js:23:16\r\nEmitted 'error' event on Client instance at:\r\n    at C:\\Users\\Charlie\\Desktop\\node_modules\\bedrock-protocol\\src\\createClient.js:24:28\r\n\r\nNode.js v18.5.0\r\n```\r\nAnd I checked the version number, I'm on the latest version.\r\n```powershell\r\nPS C:\\Users\\Charlie\\Desktop> npm list bedrock-protocol\r\nDesktop@ C:\\Users\\Charlie\\Desktop\r\n└── bedrock-protocol@3.18.0\r\n```",
    "closed_at": "2022-09-04T01:50:41Z",
    "comment_data": [
        {
            "author_association": "MEMBER",
            "body": "You need to update your dependencies. \r\n\r\nnpm update --depth 9999\r\n\r\n(in newer versions of node.js, `npm update` is enough. However, as explained in the doc [here](https://docs.npmjs.com/cli/v6/commands/npm-update#description), on older versions like npm v6 the `--depth 9999` argument is needed to actually update everything and not just first level dependencies).",
            "created_at": "2022-09-04T00:45:53Z",
            "html_url": "https://github.com/PrismarineJS/bedrock-protocol/issues/271#issuecomment-1236224714",
            "id": 1236224714,
            "issue_url": "https://api.github.com/repos/PrismarineJS/bedrock-protocol/issues/271",
            "node_id": "IC_kwDOAxQ-8c5Jr0rK",
            "performed_via_github_app": null,
            "reactions": {
                "+1": 0,
                "-1": 0,
                "confused": 0,
                "eyes": 0,
                "heart": 0,
                "hooray": 0,
                "laugh": 0,
                "rocket": 0,
                "total_count": 0,
                "url": "https://api.github.com/repos/PrismarineJS/bedrock-protocol/issues/comments/1236224714/reactions"
            },
            "updated_at": "2022-09-04T00:59:25Z",
            "url": "https://api.github.com/repos/PrismarineJS/bedrock-protocol/issues/comments/1236224714",
            "user": {
                "avatar_url": "https://avatars.githubusercontent.com/u/13713600?v=4",
                "events_url": "https://api.github.com/users/extremeheat/events{/privacy}",
                "followers_url": "https://api.github.com/users/extremeheat/followers",
                "following_url": "https://api.github.com/users/extremeheat/following{/other_user}",
                "gists_url": "https://api.github.com/users/extremeheat/gists{/gist_id}",
                "gravatar_id": "",
                "html_url": "https://github.com/extremeheat",
                "id": 13713600,
                "login": "extremeheat",
                "node_id": "MDQ6VXNlcjEzNzEzNjAw",
                "organizations_url": "https://api.github.com/users/extremeheat/orgs",
                "received_events_url": "https://api.github.com/users/extremeheat/received_events",
                "repos_url": "https://api.github.com/users/extremeheat/repos",
                "site_admin": false,
                "starred_url": "https://api.github.com/users/extremeheat/starred{/owner}{/repo}",
                "subscriptions_url": "https://api.github.com/users/extremeheat/subscriptions",
                "type": "User",
                "url": "https://api.github.com/users/extremeheat"
            }
        },
        {
            "author_association": "NONE",
            "body": "Thanks, it worked!",
            "created_at": "2022-09-04T01:50:41Z",
            "html_url": "https://github.com/PrismarineJS/bedrock-protocol/issues/271#issuecomment-1236231215",
            "id": 1236231215,
            "issue_url": "https://api.github.com/repos/PrismarineJS/bedrock-protocol/issues/271",
            "node_id": "IC_kwDOAxQ-8c5Jr2Qv",
            "performed_via_github_app": null,
            "reactions": {
                "+1": 0,
                "-1": 0,
                "confused": 0,
                "eyes": 0,
                "heart": 0,
                "hooray": 0,
                "laugh": 0,
                "rocket": 0,
                "total_count": 0,
                "url": "https://api.github.com/repos/PrismarineJS/bedrock-protocol/issues/comments/1236231215/reactions"
            },
            "updated_at": "2022-09-04T01:50:41Z",
            "url": "https://api.github.com/repos/PrismarineJS/bedrock-protocol/issues/comments/1236231215",
            "user": {
                "avatar_url": "https://avatars.githubusercontent.com/u/65603222?v=4",
                "events_url": "https://api.github.com/users/charlie-moomoo/events{/privacy}",
                "followers_url": "https://api.github.com/users/charlie-moomoo/followers",
                "following_url": "https://api.github.com/users/charlie-moomoo/following{/other_user}",
                "gists_url": "https://api.github.com/users/charlie-moomoo/gists{/gist_id}",
                "gravatar_id": "",
                "html_url": "https://github.com/charlie-moomoo",
                "id": 65603222,
                "login": "charlie-moomoo",
                "node_id": "MDQ6VXNlcjY1NjAzMjIy",
                "organizations_url": "https://api.github.com/users/charlie-moomoo/orgs",
                "received_events_url": "https://api.github.com/users/charlie-moomoo/received_events",
                "repos_url": "https://api.github.com/users/charlie-moomoo/repos",
                "site_admin": false,
                "starred_url": "https://api.github.com/users/charlie-moomoo/starred{/owner}{/repo}",
                "subscriptions_url": "https://api.github.com/users/charlie-moomoo/subscriptions",
                "type": "User",
                "url": "https://api.github.com/users/charlie-moomoo"
            }
        }
    ],
    "comments": 2,
    "comments_url": "https://api.github.com/repos/PrismarineJS/bedrock-protocol/issues/271/comments",
    "created_at": "2022-09-04T00:44:46Z",
    "event_data": [
        {
            "actor": {
                "avatar_url": "https://avatars.githubusercontent.com/u/65603222?v=4",
                "events_url": "https://api.github.com/users/charlie-moomoo/events{/privacy}",
                "followers_url": "https://api.github.com/users/charlie-moomoo/followers",
                "following_url": "https://api.github.com/users/charlie-moomoo/following{/other_user}",
                "gists_url": "https://api.github.com/users/charlie-moomoo/gists{/gist_id}",
                "gravatar_id": "",
                "html_url": "https://github.com/charlie-moomoo",
                "id": 65603222,
                "login": "charlie-moomoo",
                "node_id": "MDQ6VXNlcjY1NjAzMjIy",
                "organizations_url": "https://api.github.com/users/charlie-moomoo/orgs",
                "received_events_url": "https://api.github.com/users/charlie-moomoo/received_events",
                "repos_url": "https://api.github.com/users/charlie-moomoo/repos",
                "site_admin": false,
                "starred_url": "https://api.github.com/users/charlie-moomoo/starred{/owner}{/repo}",
                "subscriptions_url": "https://api.github.com/users/charlie-moomoo/subscriptions",
                "type": "User",
                "url": "https://api.github.com/users/charlie-moomoo"
            },
            "commit_id": null,
            "commit_url": null,
            "created_at": "2022-09-04T01:50:41Z",
            "event": "closed",
            "id": 7317777034,
            "node_id": "CE_lADOAxQ-8c5RHy6vzwAAAAG0LGqK",
            "performed_via_github_app": null,
            "state_reason": null,
            "url": "https://api.github.com/repos/PrismarineJS/bedrock-protocol/issues/events/7317777034"
        }
    ],
    "events_url": "https://api.github.com/repos/PrismarineJS/bedrock-protocol/issues/271/events",
    "html_url": "https://github.com/PrismarineJS/bedrock-protocol/issues/271",
    "id": 1360998063,
    "labels": [],
    "labels_url": "https://api.github.com/repos/PrismarineJS/bedrock-protocol/issues/271/labels{/name}",
    "locked": false,
    "milestone": null,
    "node_id": "I_kwDOAxQ-8c5RHy6v",
    "number": 271,
    "performed_via_github_app": null,
    "reactions": {
        "+1": 0,
        "-1": 0,
        "confused": 0,
        "eyes": 0,
        "heart": 0,
        "hooray": 0,
        "laugh": 0,
        "rocket": 0,
        "total_count": 0,
        "url": "https://api.github.com/repos/PrismarineJS/bedrock-protocol/issues/271/reactions"
    },
    "repository_url": "https://api.github.com/repos/PrismarineJS/bedrock-protocol",
    "state": "closed",
    "state_reason": "completed",
    "timeline_url": "https://api.github.com/repos/PrismarineJS/bedrock-protocol/issues/271/timeline",
    "title": "Can't connect to 1.19.21 server",
    "updated_at": "2022-09-04T01:50:41Z",
    "url": "https://api.github.com/repos/PrismarineJS/bedrock-protocol/issues/271",
    "user": {
        "avatar_url": "https://avatars.githubusercontent.com/u/65603222?v=4",
        "events_url": "https://api.github.com/users/charlie-moomoo/events{/privacy}",
        "followers_url": "https://api.github.com/users/charlie-moomoo/followers",
        "following_url": "https://api.github.com/users/charlie-moomoo/following{/other_user}",
        "gists_url": "https://api.github.com/users/charlie-moomoo/gists{/gist_id}",
        "gravatar_id": "",
        "html_url": "https://github.com/charlie-moomoo",
        "id": 65603222,
        "login": "charlie-moomoo",
        "node_id": "MDQ6VXNlcjY1NjAzMjIy",
        "organizations_url": "https://api.github.com/users/charlie-moomoo/orgs",
        "received_events_url": "https://api.github.com/users/charlie-moomoo/received_events",
        "repos_url": "https://api.github.com/users/charlie-moomoo/repos",
        "site_admin": false,
        "starred_url": "https://api.github.com/users/charlie-moomoo/starred{/owner}{/repo}",
        "subscriptions_url": "https://api.github.com/users/charlie-moomoo/subscriptions",
        "type": "User",
        "url": "https://api.github.com/users/charlie-moomoo"
    }
}