{
    "active_lock_reason": null,
    "assignee": null,
    "assignees": [],
    "author_association": "MEMBER",
    "body": null,
    "closed_at": null,
    "comment_data": [
        {
            "author_association": "CONTRIBUTOR",
            "body": "- bedrock-protocol - https://github.com/PrismarineJS/bedrock-protocol/pull/193\r\n- node-minecraft-protocol - https://github.com/PrismarineJS/node-minecraft-protocol/pull/1056\r\n- mineflayer - To do",
            "created_at": "2022-04-02T15:49:53Z",
            "html_url": "https://github.com/PrismarineJS/prismarine-realms/issues/3#issuecomment-1086666192",
            "id": 1086666192,
            "issue_url": "https://api.github.com/repos/PrismarineJS/prismarine-realms/issues/3",
            "node_id": "IC_kwDOG8wdAM5AxTXQ",
            "performed_via_github_app": null,
            "reactions": {
                "+1": 0,
                "-1": 0,
                "confused": 0,
                "eyes": 0,
                "heart": 0,
                "hooray": 0,
                "laugh": 0,
                "rocket": 0,
                "total_count": 0,
                "url": "https://api.github.com/repos/PrismarineJS/prismarine-realms/issues/comments/1086666192/reactions"
            },
            "updated_at": "2023-01-15T23:00:30Z",
            "url": "https://api.github.com/repos/PrismarineJS/prismarine-realms/issues/comments/1086666192",
            "user": {
                "avatar_url": "https://avatars.githubusercontent.com/u/66429271?v=4",
                "events_url": "https://api.github.com/users/LucienHH/events{/privacy}",
                "followers_url": "https://api.github.com/users/LucienHH/followers",
                "following_url": "https://api.github.com/users/LucienHH/following{/other_user}",
                "gists_url": "https://api.github.com/users/LucienHH/gists{/gist_id}",
                "gravatar_id": "",
                "html_url": "https://github.com/LucienHH",
                "id": 66429271,
                "login": "LucienHH",
                "node_id": "MDQ6VXNlcjY2NDI5Mjcx",
                "organizations_url": "https://api.github.com/users/LucienHH/orgs",
                "received_events_url": "https://api.github.com/users/LucienHH/received_events",
                "repos_url": "https://api.github.com/users/LucienHH/repos",
                "site_admin": false,
                "starred_url": "https://api.github.com/users/LucienHH/starred{/owner}{/repo}",
                "subscriptions_url": "https://api.github.com/users/LucienHH/subscriptions",
                "type": "User",
                "url": "https://api.github.com/users/LucienHH"
            }
        }
    ],
    "comments": 1,
    "comments_url": "https://api.github.com/repos/PrismarineJS/prismarine-realms/issues/3/comments",
    "created_at": "2022-04-02T13:26:34Z",
    "event_data": [],
    "events_url": "https://api.github.com/repos/PrismarineJS/prismarine-realms/issues/3/events",
    "html_url": "https://github.com/PrismarineJS/prismarine-realms/issues/3",
    "id": 1190633164,
    "labels": [],
    "labels_url": "https://api.github.com/repos/PrismarineJS/prismarine-realms/issues/3/labels{/name}",
    "locked": false,
    "milestone": null,
    "node_id": "I_kwDOG8wdAM5G957M",
    "number": 3,
    "performed_via_github_app": null,
    "reactions": {
        "+1": 0,
        "-1": 0,
        "confused": 0,
        "eyes": 0,
        "heart": 0,
        "hooray": 0,
        "laugh": 0,
        "rocket": 0,
        "total_count": 0,
        "url": "https://api.github.com/repos/PrismarineJS/prismarine-realms/issues/3/reactions"
    },
    "repository_url": "https://api.github.com/repos/PrismarineJS/prismarine-realms",
    "state": "open",
    "state_reason": null,
    "timeline_url": "https://api.github.com/repos/PrismarineJS/prismarine-realms/issues/3/timeline",
    "title": "check it works",
    "updated_at": "2023-01-15T23:00:30Z",
    "url": "https://api.github.com/repos/PrismarineJS/prismarine-realms/issues/3",
    "user": {
        "avatar_url": "https://avatars.githubusercontent.com/u/2346494?v=4",
        "events_url": "https://api.github.com/users/rom1504/events{/privacy}",
        "followers_url": "https://api.github.com/users/rom1504/followers",
        "following_url": "https://api.github.com/users/rom1504/following{/other_user}",
        "gists_url": "https://api.github.com/users/rom1504/gists{/gist_id}",
        "gravatar_id": "",
        "html_url": "https://github.com/rom1504",
        "id": 2346494,
        "login": "rom1504",
        "node_id": "MDQ6VXNlcjIzNDY0OTQ=",
        "organizations_url": "https://api.github.com/users/rom1504/orgs",
        "received_events_url": "https://api.github.com/users/rom1504/received_events",
        "repos_url": "https://api.github.com/users/rom1504/repos",
        "site_admin": false,
        "starred_url": "https://api.github.com/users/rom1504/starred{/owner}{/repo}",
        "subscriptions_url": "https://api.github.com/users/rom1504/subscriptions",
        "type": "User",
        "url": "https://api.github.com/users/rom1504"
    }
}