{
    "_links": {
        "comments": {
            "href": "https://api.github.com/repos/PrismarineJS/mineflayer-cmd/issues/19/comments"
        },
        "commits": {
            "href": "https://api.github.com/repos/PrismarineJS/mineflayer-cmd/pulls/19/commits"
        },
        "html": {
            "href": "https://github.com/PrismarineJS/mineflayer-cmd/pull/19"
        },
        "issue": {
            "href": "https://api.github.com/repos/PrismarineJS/mineflayer-cmd/issues/19"
        },
        "review_comment": {
            "href": "https://api.github.com/repos/PrismarineJS/mineflayer-cmd/pulls/comments{/number}"
        },
        "review_comments": {
            "href": "https://api.github.com/repos/PrismarineJS/mineflayer-cmd/pulls/19/comments"
        },
        "self": {
            "href": "https://api.github.com/repos/PrismarineJS/mineflayer-cmd/pulls/19"
        },
        "statuses": {
            "href": "https://api.github.com/repos/PrismarineJS/mineflayer-cmd/statuses/499771ffce551540ad4795925100c27c77e40cef"
        }
    },
    "active_lock_reason": null,
    "additions": 66,
    "assignee": null,
    "assignees": [],
    "author_association": "MEMBER",
    "auto_merge": null,
    "base": {
        "label": "PrismarineJS:master",
        "ref": "master",
        "repo": {
            "allow_forking": true,
            "archive_url": "https://api.github.com/repos/PrismarineJS/mineflayer-cmd/{archive_format}{/ref}",
            "archived": false,
            "assignees_url": "https://api.github.com/repos/PrismarineJS/mineflayer-cmd/assignees{/user}",
            "blobs_url": "https://api.github.com/repos/PrismarineJS/mineflayer-cmd/git/blobs{/sha}",
            "branches_url": "https://api.github.com/repos/PrismarineJS/mineflayer-cmd/branches{/branch}",
            "clone_url": "https://github.com/PrismarineJS/mineflayer-cmd.git",
            "collaborators_url": "https://api.github.com/repos/PrismarineJS/mineflayer-cmd/collaborators{/collaborator}",
            "comments_url": "https://api.github.com/repos/PrismarineJS/mineflayer-cmd/comments{/number}",
            "commits_url": "https://api.github.com/repos/PrismarineJS/mineflayer-cmd/commits{/sha}",
            "compare_url": "https://api.github.com/repos/PrismarineJS/mineflayer-cmd/compare/{base}...{head}",
            "contents_url": "https://api.github.com/repos/PrismarineJS/mineflayer-cmd/contents/{+path}",
            "contributors_url": "https://api.github.com/repos/PrismarineJS/mineflayer-cmd/contributors",
            "created_at": "2020-10-15T10:57:03Z",
            "default_branch": "master",
            "deployments_url": "https://api.github.com/repos/PrismarineJS/mineflayer-cmd/deployments",
            "description": "A command handler plugin for Mineflayer.",
            "disabled": false,
            "downloads_url": "https://api.github.com/repos/PrismarineJS/mineflayer-cmd/downloads",
            "events_url": "https://api.github.com/repos/PrismarineJS/mineflayer-cmd/events",
            "fork": false,
            "forks": 4,
            "forks_count": 4,
            "forks_url": "https://api.github.com/repos/PrismarineJS/mineflayer-cmd/forks",
            "full_name": "PrismarineJS/mineflayer-cmd",
            "git_commits_url": "https://api.github.com/repos/PrismarineJS/mineflayer-cmd/git/commits{/sha}",
            "git_refs_url": "https://api.github.com/repos/PrismarineJS/mineflayer-cmd/git/refs{/sha}",
            "git_tags_url": "https://api.github.com/repos/PrismarineJS/mineflayer-cmd/git/tags{/sha}",
            "git_url": "git://github.com/PrismarineJS/mineflayer-cmd.git",
            "has_discussions": false,
            "has_downloads": true,
            "has_issues": true,
            "has_pages": false,
            "has_projects": true,
            "has_wiki": true,
            "homepage": null,
            "hooks_url": "https://api.github.com/repos/PrismarineJS/mineflayer-cmd/hooks",
            "html_url": "https://github.com/PrismarineJS/mineflayer-cmd",
            "id": 304296970,
            "is_template": false,
            "issue_comment_url": "https://api.github.com/repos/PrismarineJS/mineflayer-cmd/issues/comments{/number}",
            "issue_events_url": "https://api.github.com/repos/PrismarineJS/mineflayer-cmd/issues/events{/number}",
            "issues_url": "https://api.github.com/repos/PrismarineJS/mineflayer-cmd/issues{/number}",
            "keys_url": "https://api.github.com/repos/PrismarineJS/mineflayer-cmd/keys{/key_id}",
            "labels_url": "https://api.github.com/repos/PrismarineJS/mineflayer-cmd/labels{/name}",
            "language": "TypeScript",
            "languages_url": "https://api.github.com/repos/PrismarineJS/mineflayer-cmd/languages",
            "license": {
                "key": "mit",
                "name": "MIT License",
                "node_id": "MDc6TGljZW5zZTEz",
                "spdx_id": "MIT",
                "url": "https://api.github.com/licenses/mit"
            },
            "merges_url": "https://api.github.com/repos/PrismarineJS/mineflayer-cmd/merges",
            "milestones_url": "https://api.github.com/repos/PrismarineJS/mineflayer-cmd/milestones{/number}",
            "mirror_url": null,
            "name": "mineflayer-cmd",
            "node_id": "MDEwOlJlcG9zaXRvcnkzMDQyOTY5NzA=",
            "notifications_url": "https://api.github.com/repos/PrismarineJS/mineflayer-cmd/notifications{?since,all,participating}",
            "open_issues": 7,
            "open_issues_count": 7,
            "owner": {
                "avatar_url": "https://avatars.githubusercontent.com/u/11053411?v=4",
                "events_url": "https://api.github.com/users/PrismarineJS/events{/privacy}",
                "followers_url": "https://api.github.com/users/PrismarineJS/followers",
                "following_url": "https://api.github.com/users/PrismarineJS/following{/other_user}",
                "gists_url": "https://api.github.com/users/PrismarineJS/gists{/gist_id}",
                "gravatar_id": "",
                "html_url": "https://github.com/PrismarineJS",
                "id": 11053411,
                "login": "PrismarineJS",
                "node_id": "MDEyOk9yZ2FuaXphdGlvbjExMDUzNDEx",
                "organizations_url": "https://api.github.com/users/PrismarineJS/orgs",
                "received_events_url": "https://api.github.com/users/PrismarineJS/received_events",
                "repos_url": "https://api.github.com/users/PrismarineJS/repos",
                "site_admin": false,
                "starred_url": "https://api.github.com/users/PrismarineJS/starred{/owner}{/repo}",
                "subscriptions_url": "https://api.github.com/users/PrismarineJS/subscriptions",
                "type": "Organization",
                "url": "https://api.github.com/users/PrismarineJS"
            },
            "private": false,
            "pulls_url": "https://api.github.com/repos/PrismarineJS/mineflayer-cmd/pulls{/number}",
            "pushed_at": "2023-04-10T11:58:13Z",
            "releases_url": "https://api.github.com/repos/PrismarineJS/mineflayer-cmd/releases{/id}",
            "size": 48,
            "ssh_url": "git@github.com:PrismarineJS/mineflayer-cmd.git",
            "stargazers_count": 6,
            "stargazers_url": "https://api.github.com/repos/PrismarineJS/mineflayer-cmd/stargazers",
            "statuses_url": "https://api.github.com/repos/PrismarineJS/mineflayer-cmd/statuses/{sha}",
            "subscribers_url": "https://api.github.com/repos/PrismarineJS/mineflayer-cmd/subscribers",
            "subscription_url": "https://api.github.com/repos/PrismarineJS/mineflayer-cmd/subscription",
            "svn_url": "https://github.com/PrismarineJS/mineflayer-cmd",
            "tags_url": "https://api.github.com/repos/PrismarineJS/mineflayer-cmd/tags",
            "teams_url": "https://api.github.com/repos/PrismarineJS/mineflayer-cmd/teams",
            "topics": [],
            "trees_url": "https://api.github.com/repos/PrismarineJS/mineflayer-cmd/git/trees{/sha}",
            "updated_at": "2023-03-09T07:44:30Z",
            "url": "https://api.github.com/repos/PrismarineJS/mineflayer-cmd",
            "visibility": "public",
            "watchers": 6,
            "watchers_count": 6,
            "web_commit_signoff_required": false
        },
        "sha": "9bfe63088eba5f82e4508a10b25b2a5c5ad7b910",
        "user": {
            "avatar_url": "https://avatars.githubusercontent.com/u/11053411?v=4",
            "events_url": "https://api.github.com/users/PrismarineJS/events{/privacy}",
            "followers_url": "https://api.github.com/users/PrismarineJS/followers",
            "following_url": "https://api.github.com/users/PrismarineJS/following{/other_user}",
            "gists_url": "https://api.github.com/users/PrismarineJS/gists{/gist_id}",
            "gravatar_id": "",
            "html_url": "https://github.com/PrismarineJS",
            "id": 11053411,
            "login": "PrismarineJS",
            "node_id": "MDEyOk9yZ2FuaXphdGlvbjExMDUzNDEx",
            "organizations_url": "https://api.github.com/users/PrismarineJS/orgs",
            "received_events_url": "https://api.github.com/users/PrismarineJS/received_events",
            "repos_url": "https://api.github.com/users/PrismarineJS/repos",
            "site_admin": false,
            "starred_url": "https://api.github.com/users/PrismarineJS/starred{/owner}{/repo}",
            "subscriptions_url": "https://api.github.com/users/PrismarineJS/subscriptions",
            "type": "Organization",
            "url": "https://api.github.com/users/PrismarineJS"
        }
    },
    "body": "",
    "changed_files": 4,
    "closed_at": "2021-02-17T09:44:35Z",
    "comment_data": [],
    "comment_regular_data": [
        {
            "author_association": "NONE",
            "body": "PR resolves issue https://github.com/PrismarineJS/mineflayer-cmd/issues/15\r\n\r\nThis comment is just for linking the issue to this PR.",
            "created_at": "2021-05-24T12:33:01Z",
            "html_url": "https://github.com/PrismarineJS/mineflayer-cmd/pull/19#issuecomment-847011517",
            "id": 847011517,
            "issue_url": "https://api.github.com/repos/PrismarineJS/mineflayer-cmd/issues/19",
            "node_id": "MDEyOklzc3VlQ29tbWVudDg0NzAxMTUxNw==",
            "performed_via_github_app": null,
            "reactions": {
                "+1": 0,
                "-1": 0,
                "confused": 0,
                "eyes": 0,
                "heart": 0,
                "hooray": 0,
                "laugh": 0,
                "rocket": 0,
                "total_count": 0,
                "url": "https://api.github.com/repos/PrismarineJS/mineflayer-cmd/issues/comments/847011517/reactions"
            },
            "updated_at": "2021-05-24T12:33:01Z",
            "url": "https://api.github.com/repos/PrismarineJS/mineflayer-cmd/issues/comments/847011517",
            "user": {
                "avatar_url": "https://avatars.githubusercontent.com/u/18744415?v=4",
                "events_url": "https://api.github.com/users/SeanMcCord/events{/privacy}",
                "followers_url": "https://api.github.com/users/SeanMcCord/followers",
                "following_url": "https://api.github.com/users/SeanMcCord/following{/other_user}",
                "gists_url": "https://api.github.com/users/SeanMcCord/gists{/gist_id}",
                "gravatar_id": "",
                "html_url": "https://github.com/SeanMcCord",
                "id": 18744415,
                "login": "SeanMcCord",
                "node_id": "MDQ6VXNlcjE4NzQ0NDE1",
                "organizations_url": "https://api.github.com/users/SeanMcCord/orgs",
                "received_events_url": "https://api.github.com/users/SeanMcCord/received_events",
                "repos_url": "https://api.github.com/users/SeanMcCord/repos",
                "site_admin": false,
                "starred_url": "https://api.github.com/users/SeanMcCord/starred{/owner}{/repo}",
                "subscriptions_url": "https://api.github.com/users/SeanMcCord/subscriptions",
                "type": "User",
                "url": "https://api.github.com/users/SeanMcCord"
            }
        }
    ],
    "comments": 1,
    "comments_url": "https://api.github.com/repos/PrismarineJS/mineflayer-cmd/issues/19/comments",
    "commit_data": [
        {
            "author": {
                "avatar_url": "https://avatars.githubusercontent.com/u/43508353?v=4",
                "events_url": "https://api.github.com/users/u9g/events{/privacy}",
                "followers_url": "https://api.github.com/users/u9g/followers",
                "following_url": "https://api.github.com/users/u9g/following{/other_user}",
                "gists_url": "https://api.github.com/users/u9g/gists{/gist_id}",
                "gravatar_id": "",
                "html_url": "https://github.com/u9g",
                "id": 43508353,
                "login": "u9g",
                "node_id": "MDQ6VXNlcjQzNTA4MzUz",
                "organizations_url": "https://api.github.com/users/u9g/orgs",
                "received_events_url": "https://api.github.com/users/u9g/received_events",
                "repos_url": "https://api.github.com/users/u9g/repos",
                "site_admin": false,
                "starred_url": "https://api.github.com/users/u9g/starred{/owner}{/repo}",
                "subscriptions_url": "https://api.github.com/users/u9g/subscriptions",
                "type": "User",
                "url": "https://api.github.com/users/u9g"
            },
            "comments_url": "https://api.github.com/repos/PrismarineJS/mineflayer-cmd/commits/ffe199d262e30f99aff267458b293f61221cc29c/comments",
            "commit": {
                "author": {
                    "date": "2021-02-17T04:14:22Z",
                    "email": "43508353+u9g@users.noreply.github.com",
                    "name": "u9g"
                },
                "comment_count": 0,
                "committer": {
                    "date": "2021-02-17T04:14:22Z",
                    "email": "noreply@github.com",
                    "name": "GitHub"
                },
                "message": "lint with standard + add promises/async",
                "tree": {
                    "sha": "acbeae87797f16795b5b479539c2b6dea92a61ec",
                    "url": "https://api.github.com/repos/PrismarineJS/mineflayer-cmd/git/trees/acbeae87797f16795b5b479539c2b6dea92a61ec"
                },
                "url": "https://api.github.com/repos/PrismarineJS/mineflayer-cmd/git/commits/ffe199d262e30f99aff267458b293f61221cc29c",
                "verification": {
                    "payload": "tree acbeae87797f16795b5b479539c2b6dea92a61ec\nparent 9bfe63088eba5f82e4508a10b25b2a5c5ad7b910\nauthor u9g <43508353+u9g@users.noreply.github.com> 1613535262 -0500\ncommitter GitHub <noreply@github.com> 1613535262 -0500\n\nlint with standard + add promises/async",
                    "reason": "valid",
                    "signature": "-----BEGIN PGP SIGNATURE-----\n\nwsBcBAABCAAQBQJgLJgeCRBK7hj4Ov3rIwAAdHIIALMQcd+ZoWHx7Y6E+v9IEoMW\nkAAlPpI6+IOrIA2+c9XN5Pf4mHXbczMCTW0whNpJ2czqiw2GM/DkuL8/uFUXt0FG\n7WmDROJJ/0BcBecMwGSpZnPnVMbVcKrUcx+L42m+LWd2AW7+G1n0QgINuoRtyGWr\nohVkRvWDYtoIqboi2sqgWGHlT4zEZxF3YaMXNUjyblvDqhtpwhCua2oVS3vLmAZW\n0+/TLt09uqlXnVf8NvBA6I4WuCSfNLSD0OZJwXmO02rPVD25UV+eoXRPD3z/etx6\n3n0P/cmvhJC7k1AvMbScylIRznUJauSJI/AsFEgeZom/lrdWy3LJwpi9Ttyyjt4=\n=gADR\n-----END PGP SIGNATURE-----\n",
                    "verified": true
                }
            },
            "committer": {
                "avatar_url": "https://avatars.githubusercontent.com/u/19864447?v=4",
                "events_url": "https://api.github.com/users/web-flow/events{/privacy}",
                "followers_url": "https://api.github.com/users/web-flow/followers",
                "following_url": "https://api.github.com/users/web-flow/following{/other_user}",
                "gists_url": "https://api.github.com/users/web-flow/gists{/gist_id}",
                "gravatar_id": "",
                "html_url": "https://github.com/web-flow",
                "id": 19864447,
                "login": "web-flow",
                "node_id": "MDQ6VXNlcjE5ODY0NDQ3",
                "organizations_url": "https://api.github.com/users/web-flow/orgs",
                "received_events_url": "https://api.github.com/users/web-flow/received_events",
                "repos_url": "https://api.github.com/users/web-flow/repos",
                "site_admin": false,
                "starred_url": "https://api.github.com/users/web-flow/starred{/owner}{/repo}",
                "subscriptions_url": "https://api.github.com/users/web-flow/subscriptions",
                "type": "User",
                "url": "https://api.github.com/users/web-flow"
            },
            "html_url": "https://github.com/PrismarineJS/mineflayer-cmd/commit/ffe199d262e30f99aff267458b293f61221cc29c",
            "node_id": "MDY6Q29tbWl0MzM5NjA4MDMwOmZmZTE5OWQyNjJlMzBmOTlhZmYyNjc0NThiMjkzZjYxMjIxY2MyOWM=",
            "parents": [
                {
                    "html_url": "https://github.com/PrismarineJS/mineflayer-cmd/commit/9bfe63088eba5f82e4508a10b25b2a5c5ad7b910",
                    "sha": "9bfe63088eba5f82e4508a10b25b2a5c5ad7b910",
                    "url": "https://api.github.com/repos/PrismarineJS/mineflayer-cmd/commits/9bfe63088eba5f82e4508a10b25b2a5c5ad7b910"
                }
            ],
            "sha": "ffe199d262e30f99aff267458b293f61221cc29c",
            "url": "https://api.github.com/repos/PrismarineJS/mineflayer-cmd/commits/ffe199d262e30f99aff267458b293f61221cc29c"
        },
        {
            "author": {
                "avatar_url": "https://avatars.githubusercontent.com/u/43508353?v=4",
                "events_url": "https://api.github.com/users/u9g/events{/privacy}",
                "followers_url": "https://api.github.com/users/u9g/followers",
                "following_url": "https://api.github.com/users/u9g/following{/other_user}",
                "gists_url": "https://api.github.com/users/u9g/gists{/gist_id}",
                "gravatar_id": "",
                "html_url": "https://github.com/u9g",
                "id": 43508353,
                "login": "u9g",
                "node_id": "MDQ6VXNlcjQzNTA4MzUz",
                "organizations_url": "https://api.github.com/users/u9g/orgs",
                "received_events_url": "https://api.github.com/users/u9g/received_events",
                "repos_url": "https://api.github.com/users/u9g/repos",
                "site_admin": false,
                "starred_url": "https://api.github.com/users/u9g/starred{/owner}{/repo}",
                "subscriptions_url": "https://api.github.com/users/u9g/subscriptions",
                "type": "User",
                "url": "https://api.github.com/users/u9g"
            },
            "comments_url": "https://api.github.com/repos/PrismarineJS/mineflayer-cmd/commits/76396b6590c52313f1a1c6c596d76d11543e9752/comments",
            "commit": {
                "author": {
                    "date": "2021-02-17T04:16:09Z",
                    "email": "43508353+u9g@users.noreply.github.com",
                    "name": "u9g"
                },
                "comment_count": 0,
                "committer": {
                    "date": "2021-02-17T04:16:09Z",
                    "email": "noreply@github.com",
                    "name": "GitHub"
                },
                "message": "fix readme",
                "tree": {
                    "sha": "598772c4c4b2c0ca7fd45dd9e59332e00c52f786",
                    "url": "https://api.github.com/repos/PrismarineJS/mineflayer-cmd/git/trees/598772c4c4b2c0ca7fd45dd9e59332e00c52f786"
                },
                "url": "https://api.github.com/repos/PrismarineJS/mineflayer-cmd/git/commits/76396b6590c52313f1a1c6c596d76d11543e9752",
                "verification": {
                    "payload": "tree 598772c4c4b2c0ca7fd45dd9e59332e00c52f786\nparent ffe199d262e30f99aff267458b293f61221cc29c\nauthor u9g <43508353+u9g@users.noreply.github.com> 1613535369 -0500\ncommitter GitHub <noreply@github.com> 1613535369 -0500\n\nfix readme",
                    "reason": "valid",
                    "signature": "-----BEGIN PGP SIGNATURE-----\n\nwsBcBAABCAAQBQJgLJiJCRBK7hj4Ov3rIwAAdHIIADFEC3Q2u3js3EKBBliWRFEP\n/Gdb9rbMA4inzLbXQ82uBF3pW/a69v1ApHmrA4iypkBSYQGXHlq4GUj0m3eKf7m+\nnFZXzs1pJRgiDPt+pxRVWm75a5NI+Dw5ibOrNrfAComtmfmq2z7niwPJ3xY+MQXb\nw7zjilE4zSgas6NzxkqBGb6zdskx71cuCAa5q4SntXcRvuZSDyf7fle3+iQShDf8\nNIGYiWUdA/aYSsBfEsQEZBPF1mngMHiprLu9iPAAH7iDa0P3U0Ynq6+CSx/+j81H\ncwgMx59gff5XqxWCrcTW/TldzxT78CjG2LAu2JjuW5tzUKVgZZg9kvzsfKhOIJQ=\n=KG8I\n-----END PGP SIGNATURE-----\n",
                    "verified": true
                }
            },
            "committer": {
                "avatar_url": "https://avatars.githubusercontent.com/u/19864447?v=4",
                "events_url": "https://api.github.com/users/web-flow/events{/privacy}",
                "followers_url": "https://api.github.com/users/web-flow/followers",
                "following_url": "https://api.github.com/users/web-flow/following{/other_user}",
                "gists_url": "https://api.github.com/users/web-flow/gists{/gist_id}",
                "gravatar_id": "",
                "html_url": "https://github.com/web-flow",
                "id": 19864447,
                "login": "web-flow",
                "node_id": "MDQ6VXNlcjE5ODY0NDQ3",
                "organizations_url": "https://api.github.com/users/web-flow/orgs",
                "received_events_url": "https://api.github.com/users/web-flow/received_events",
                "repos_url": "https://api.github.com/users/web-flow/repos",
                "site_admin": false,
                "starred_url": "https://api.github.com/users/web-flow/starred{/owner}{/repo}",
                "subscriptions_url": "https://api.github.com/users/web-flow/subscriptions",
                "type": "User",
                "url": "https://api.github.com/users/web-flow"
            },
            "html_url": "https://github.com/PrismarineJS/mineflayer-cmd/commit/76396b6590c52313f1a1c6c596d76d11543e9752",
            "node_id": "MDY6Q29tbWl0MzM5NjA4MDMwOjc2Mzk2YjY1OTBjNTIzMTNmMWExYzZjNTk2ZDc2ZDExNTQzZTk3NTI=",
            "parents": [
                {
                    "html_url": "https://github.com/PrismarineJS/mineflayer-cmd/commit/ffe199d262e30f99aff267458b293f61221cc29c",
                    "sha": "ffe199d262e30f99aff267458b293f61221cc29c",
                    "url": "https://api.github.com/repos/PrismarineJS/mineflayer-cmd/commits/ffe199d262e30f99aff267458b293f61221cc29c"
                }
            ],
            "sha": "76396b6590c52313f1a1c6c596d76d11543e9752",
            "url": "https://api.github.com/repos/PrismarineJS/mineflayer-cmd/commits/76396b6590c52313f1a1c6c596d76d11543e9752"
        },
        {
            "author": {
                "avatar_url": "https://avatars.githubusercontent.com/u/43508353?v=4",
                "events_url": "https://api.github.com/users/u9g/events{/privacy}",
                "followers_url": "https://api.github.com/users/u9g/followers",
                "following_url": "https://api.github.com/users/u9g/following{/other_user}",
                "gists_url": "https://api.github.com/users/u9g/gists{/gist_id}",
                "gravatar_id": "",
                "html_url": "https://github.com/u9g",
                "id": 43508353,
                "login": "u9g",
                "node_id": "MDQ6VXNlcjQzNTA4MzUz",
                "organizations_url": "https://api.github.com/users/u9g/orgs",
                "received_events_url": "https://api.github.com/users/u9g/received_events",
                "repos_url": "https://api.github.com/users/u9g/repos",
                "site_admin": false,
                "starred_url": "https://api.github.com/users/u9g/starred{/owner}{/repo}",
                "subscriptions_url": "https://api.github.com/users/u9g/subscriptions",
                "type": "User",
                "url": "https://api.github.com/users/u9g"
            },
            "comments_url": "https://api.github.com/repos/PrismarineJS/mineflayer-cmd/commits/13f1668daa9b23ccb194f237a03f58420c7d0ad9/comments",
            "commit": {
                "author": {
                    "date": "2021-02-17T04:19:28Z",
                    "email": "43508353+u9g@users.noreply.github.com",
                    "name": "u9g"
                },
                "comment_count": 0,
                "committer": {
                    "date": "2021-02-17T04:19:28Z",
                    "email": "noreply@github.com",
                    "name": "GitHub"
                },
                "message": "make commandmanager async\n\nreturn the command handler, that way the user can try catch it themselves",
                "tree": {
                    "sha": "821def18824ac8a2d7a1564c769645c474b19429",
                    "url": "https://api.github.com/repos/PrismarineJS/mineflayer-cmd/git/trees/821def18824ac8a2d7a1564c769645c474b19429"
                },
                "url": "https://api.github.com/repos/PrismarineJS/mineflayer-cmd/git/commits/13f1668daa9b23ccb194f237a03f58420c7d0ad9",
                "verification": {
                    "payload": "tree 821def18824ac8a2d7a1564c769645c474b19429\nparent 76396b6590c52313f1a1c6c596d76d11543e9752\nauthor u9g <43508353+u9g@users.noreply.github.com> 1613535568 -0500\ncommitter GitHub <noreply@github.com> 1613535568 -0500\n\nmake commandmanager async\n\nreturn the command handler, that way the user can try catch it themselves",
                    "reason": "valid",
                    "signature": "-----BEGIN PGP SIGNATURE-----\n\nwsBcBAABCAAQBQJgLJlQCRBK7hj4Ov3rIwAAdHIIAH9X4mf5/ZeMVXiSzkV4mPwE\nj5vlfTZ6wZaeIQRiCEGeLWkxkcEPAmQ9HJG2X3Jsl7FIGmcEB6RdDkBQqhGvVh09\naeQNrKmj6RgaVKtrdTtiQV2/Ex7Ix0k2FY85qXm+T/tinx8ySsjx5NUUqm8POLLk\nBIKgOVrjf2x37bRyGM/BJ8EDGC9ZkphiMQoPg5opmvYeI4X4iSBrdFe7iKhlyr38\nRpVE9U4kJlyr30e+s8LC0Ppx5W1fZV7BIq/59Hyn92jXWRkhMQHsnNNbdMcWHYct\nh2IY1Uo5JbBMuS8SM+CTjH6aBoMINdkNaUgygZGfm7fW457OwxbACzsiHFt2NCA=\n=p5TI\n-----END PGP SIGNATURE-----\n",
                    "verified": true
                }
            },
            "committer": {
                "avatar_url": "https://avatars.githubusercontent.com/u/19864447?v=4",
                "events_url": "https://api.github.com/users/web-flow/events{/privacy}",
                "followers_url": "https://api.github.com/users/web-flow/followers",
                "following_url": "https://api.github.com/users/web-flow/following{/other_user}",
                "gists_url": "https://api.github.com/users/web-flow/gists{/gist_id}",
                "gravatar_id": "",
                "html_url": "https://github.com/web-flow",
                "id": 19864447,
                "login": "web-flow",
                "node_id": "MDQ6VXNlcjE5ODY0NDQ3",
                "organizations_url": "https://api.github.com/users/web-flow/orgs",
                "received_events_url": "https://api.github.com/users/web-flow/received_events",
                "repos_url": "https://api.github.com/users/web-flow/repos",
                "site_admin": false,
                "starred_url": "https://api.github.com/users/web-flow/starred{/owner}{/repo}",
                "subscriptions_url": "https://api.github.com/users/web-flow/subscriptions",
                "type": "User",
                "url": "https://api.github.com/users/web-flow"
            },
            "html_url": "https://github.com/PrismarineJS/mineflayer-cmd/commit/13f1668daa9b23ccb194f237a03f58420c7d0ad9",
            "node_id": "MDY6Q29tbWl0MzM5NjA4MDMwOjEzZjE2NjhkYWE5YjIzY2NiMTk0ZjIzN2EwM2Y1ODQyMGM3ZDBhZDk=",
            "parents": [
                {
                    "html_url": "https://github.com/PrismarineJS/mineflayer-cmd/commit/76396b6590c52313f1a1c6c596d76d11543e9752",
                    "sha": "76396b6590c52313f1a1c6c596d76d11543e9752",
                    "url": "https://api.github.com/repos/PrismarineJS/mineflayer-cmd/commits/76396b6590c52313f1a1c6c596d76d11543e9752"
                }
            ],
            "sha": "13f1668daa9b23ccb194f237a03f58420c7d0ad9",
            "url": "https://api.github.com/repos/PrismarineJS/mineflayer-cmd/commits/13f1668daa9b23ccb194f237a03f58420c7d0ad9"
        },
        {
            "author": {
                "avatar_url": "https://avatars.githubusercontent.com/u/43508353?v=4",
                "events_url": "https://api.github.com/users/u9g/events{/privacy}",
                "followers_url": "https://api.github.com/users/u9g/followers",
                "following_url": "https://api.github.com/users/u9g/following{/other_user}",
                "gists_url": "https://api.github.com/users/u9g/gists{/gist_id}",
                "gravatar_id": "",
                "html_url": "https://github.com/u9g",
                "id": 43508353,
                "login": "u9g",
                "node_id": "MDQ6VXNlcjQzNTA4MzUz",
                "organizations_url": "https://api.github.com/users/u9g/orgs",
                "received_events_url": "https://api.github.com/users/u9g/received_events",
                "repos_url": "https://api.github.com/users/u9g/repos",
                "site_admin": false,
                "starred_url": "https://api.github.com/users/u9g/starred{/owner}{/repo}",
                "subscriptions_url": "https://api.github.com/users/u9g/subscriptions",
                "type": "User",
                "url": "https://api.github.com/users/u9g"
            },
            "comments_url": "https://api.github.com/repos/PrismarineJS/mineflayer-cmd/commits/1be3c484295b3ccf44e8e696720587d37ede70d9/comments",
            "commit": {
                "author": {
                    "date": "2021-02-17T04:22:51Z",
                    "email": "43508353+u9g@users.noreply.github.com",
                    "name": "u9g"
                },
                "comment_count": 0,
                "committer": {
                    "date": "2021-02-17T04:22:51Z",
                    "email": "noreply@github.com",
                    "name": "GitHub"
                },
                "message": "promisify",
                "tree": {
                    "sha": "1d592dadaf23a3f9ec90ad6e08b4ff32012208af",
                    "url": "https://api.github.com/repos/PrismarineJS/mineflayer-cmd/git/trees/1d592dadaf23a3f9ec90ad6e08b4ff32012208af"
                },
                "url": "https://api.github.com/repos/PrismarineJS/mineflayer-cmd/git/commits/1be3c484295b3ccf44e8e696720587d37ede70d9",
                "verification": {
                    "payload": "tree 1d592dadaf23a3f9ec90ad6e08b4ff32012208af\nparent 13f1668daa9b23ccb194f237a03f58420c7d0ad9\nauthor u9g <43508353+u9g@users.noreply.github.com> 1613535771 -0500\ncommitter GitHub <noreply@github.com> 1613535771 -0500\n\npromisify",
                    "reason": "valid",
                    "signature": "-----BEGIN PGP SIGNATURE-----\n\nwsBcBAABCAAQBQJgLJobCRBK7hj4Ov3rIwAAdHIIAAIbQJZkZ7X+3TiyF97xvH30\nOLVFBhGNJ422J3hYllaSBDFHXPMt5A4leeC9SyFb6wv+xRYVa+K3+O56IAqhyvpu\nn/hCAGvhUu3atJyUI+3l1MSOMTyTiJGmq5IeqjSMKk8wMuDmW2iiiP1AHSw4k2aM\nfkhHZiSr6j6MIAS74B3KcB6gqugUcOmUigUCjyk8uXihl7O2pQwNCKCCx4fyCBkB\n2pyqXnnrg83YPc8+fGUKEq2pMr3qugJ1c0is2+6yS/7jHMAjUAa2eNOFfCql2Kqk\nC7mWQluRMEJzzqFbpKzD1KLY9Leg8qyWEweRO6ivvyw98IWoGOz+bUBOt0zzdZ0=\n=8HhI\n-----END PGP SIGNATURE-----\n",
                    "verified": true
                }
            },
            "committer": {
                "avatar_url": "https://avatars.githubusercontent.com/u/19864447?v=4",
                "events_url": "https://api.github.com/users/web-flow/events{/privacy}",
                "followers_url": "https://api.github.com/users/web-flow/followers",
                "following_url": "https://api.github.com/users/web-flow/following{/other_user}",
                "gists_url": "https://api.github.com/users/web-flow/gists{/gist_id}",
                "gravatar_id": "",
                "html_url": "https://github.com/web-flow",
                "id": 19864447,
                "login": "web-flow",
                "node_id": "MDQ6VXNlcjE5ODY0NDQ3",
                "organizations_url": "https://api.github.com/users/web-flow/orgs",
                "received_events_url": "https://api.github.com/users/web-flow/received_events",
                "repos_url": "https://api.github.com/users/web-flow/repos",
                "site_admin": false,
                "starred_url": "https://api.github.com/users/web-flow/starred{/owner}{/repo}",
                "subscriptions_url": "https://api.github.com/users/web-flow/subscriptions",
                "type": "User",
                "url": "https://api.github.com/users/web-flow"
            },
            "html_url": "https://github.com/PrismarineJS/mineflayer-cmd/commit/1be3c484295b3ccf44e8e696720587d37ede70d9",
            "node_id": "MDY6Q29tbWl0MzM5NjA4MDMwOjFiZTNjNDg0Mjk1YjNjY2Y0NGU4ZTY5NjcyMDU4N2QzN2VkZTcwZDk=",
            "parents": [
                {
                    "html_url": "https://github.com/PrismarineJS/mineflayer-cmd/commit/13f1668daa9b23ccb194f237a03f58420c7d0ad9",
                    "sha": "13f1668daa9b23ccb194f237a03f58420c7d0ad9",
                    "url": "https://api.github.com/repos/PrismarineJS/mineflayer-cmd/commits/13f1668daa9b23ccb194f237a03f58420c7d0ad9"
                }
            ],
            "sha": "1be3c484295b3ccf44e8e696720587d37ede70d9",
            "url": "https://api.github.com/repos/PrismarineJS/mineflayer-cmd/commits/1be3c484295b3ccf44e8e696720587d37ede70d9"
        },
        {
            "author": {
                "avatar_url": "https://avatars.githubusercontent.com/u/43508353?v=4",
                "events_url": "https://api.github.com/users/u9g/events{/privacy}",
                "followers_url": "https://api.github.com/users/u9g/followers",
                "following_url": "https://api.github.com/users/u9g/following{/other_user}",
                "gists_url": "https://api.github.com/users/u9g/gists{/gist_id}",
                "gravatar_id": "",
                "html_url": "https://github.com/u9g",
                "id": 43508353,
                "login": "u9g",
                "node_id": "MDQ6VXNlcjQzNTA4MzUz",
                "organizations_url": "https://api.github.com/users/u9g/orgs",
                "received_events_url": "https://api.github.com/users/u9g/received_events",
                "repos_url": "https://api.github.com/users/u9g/repos",
                "site_admin": false,
                "starred_url": "https://api.github.com/users/u9g/starred{/owner}{/repo}",
                "subscriptions_url": "https://api.github.com/users/u9g/subscriptions",
                "type": "User",
                "url": "https://api.github.com/users/u9g"
            },
            "comments_url": "https://api.github.com/repos/PrismarineJS/mineflayer-cmd/commits/499771ffce551540ad4795925100c27c77e40cef/comments",
            "commit": {
                "author": {
                    "date": "2021-02-17T05:10:26Z",
                    "email": "43508353+u9g@users.noreply.github.com",
                    "name": "u9g"
                },
                "comment_count": 0,
                "committer": {
                    "date": "2021-02-17T05:10:26Z",
                    "email": "noreply@github.com",
                    "name": "GitHub"
                },
                "message": "accidentally imported a package",
                "tree": {
                    "sha": "4d4160f7ee0eef371a5ad0bee0711fc0e6e05e41",
                    "url": "https://api.github.com/repos/PrismarineJS/mineflayer-cmd/git/trees/4d4160f7ee0eef371a5ad0bee0711fc0e6e05e41"
                },
                "url": "https://api.github.com/repos/PrismarineJS/mineflayer-cmd/git/commits/499771ffce551540ad4795925100c27c77e40cef",
                "verification": {
                    "payload": "tree 4d4160f7ee0eef371a5ad0bee0711fc0e6e05e41\nparent 1be3c484295b3ccf44e8e696720587d37ede70d9\nauthor u9g <43508353+u9g@users.noreply.github.com> 1613538626 -0500\ncommitter GitHub <noreply@github.com> 1613538626 -0500\n\naccidentally imported a package",
                    "reason": "valid",
                    "signature": "-----BEGIN PGP SIGNATURE-----\n\nwsBcBAABCAAQBQJgLKVCCRBK7hj4Ov3rIwAAdHIIAEVHnH/5vHzjGvbuw5PQFo7Y\nRVd1UZMEtMg77fMIxf9sPC6Gzb+vpywTPhS1cF0Uk44+knz8iTVOMCE89p21DqAD\nVUylIBlGBAKniAQRf0Wo19qERLzzPTQX06zTNm5zZK5U7EhQAYjWbkkLYypY6wDo\nBdK9MJ6c4Erl9Tf4GfWfdz3bl7srT/e3OKxHNHSYsNnGClEzzV4Ka5Q5iHtjoSgU\nZJCD0jGQSzWTyBfPyUwInihSJlH2DLjFXihKbcR2ImvTJUn/pwzPSBPsGmH+98tx\ngP00glYZJMaDn2w41570JvnMhgriVT7gksemSd1SUxkUx+uL4vrW/gb1ECjyOPg=\n=LhZp\n-----END PGP SIGNATURE-----\n",
                    "verified": true
                }
            },
            "committer": {
                "avatar_url": "https://avatars.githubusercontent.com/u/19864447?v=4",
                "events_url": "https://api.github.com/users/web-flow/events{/privacy}",
                "followers_url": "https://api.github.com/users/web-flow/followers",
                "following_url": "https://api.github.com/users/web-flow/following{/other_user}",
                "gists_url": "https://api.github.com/users/web-flow/gists{/gist_id}",
                "gravatar_id": "",
                "html_url": "https://github.com/web-flow",
                "id": 19864447,
                "login": "web-flow",
                "node_id": "MDQ6VXNlcjE5ODY0NDQ3",
                "organizations_url": "https://api.github.com/users/web-flow/orgs",
                "received_events_url": "https://api.github.com/users/web-flow/received_events",
                "repos_url": "https://api.github.com/users/web-flow/repos",
                "site_admin": false,
                "starred_url": "https://api.github.com/users/web-flow/starred{/owner}{/repo}",
                "subscriptions_url": "https://api.github.com/users/web-flow/subscriptions",
                "type": "User",
                "url": "https://api.github.com/users/web-flow"
            },
            "html_url": "https://github.com/PrismarineJS/mineflayer-cmd/commit/499771ffce551540ad4795925100c27c77e40cef",
            "node_id": "MDY6Q29tbWl0MzM5NjA4MDMwOjQ5OTc3MWZmY2U1NTE1NDBhZDQ3OTU5MjUxMDBjMjdjNzdlNDBjZWY=",
            "parents": [
                {
                    "html_url": "https://github.com/PrismarineJS/mineflayer-cmd/commit/1be3c484295b3ccf44e8e696720587d37ede70d9",
                    "sha": "1be3c484295b3ccf44e8e696720587d37ede70d9",
                    "url": "https://api.github.com/repos/PrismarineJS/mineflayer-cmd/commits/1be3c484295b3ccf44e8e696720587d37ede70d9"
                }
            ],
            "sha": "499771ffce551540ad4795925100c27c77e40cef",
            "url": "https://api.github.com/repos/PrismarineJS/mineflayer-cmd/commits/499771ffce551540ad4795925100c27c77e40cef"
        }
    ],
    "commits": 5,
    "commits_url": "https://api.github.com/repos/PrismarineJS/mineflayer-cmd/pulls/19/commits",
    "created_at": "2021-02-17T04:14:27Z",
    "deletions": 75,
    "diff_url": "https://github.com/PrismarineJS/mineflayer-cmd/pull/19.diff",
    "draft": false,
    "head": {
        "label": "u9g:patch-1",
        "ref": "patch-1",
        "repo": {
            "allow_forking": true,
            "archive_url": "https://api.github.com/repos/u9g/mineflayer-cmd/{archive_format}{/ref}",
            "archived": false,
            "assignees_url": "https://api.github.com/repos/u9g/mineflayer-cmd/assignees{/user}",
            "blobs_url": "https://api.github.com/repos/u9g/mineflayer-cmd/git/blobs{/sha}",
            "branches_url": "https://api.github.com/repos/u9g/mineflayer-cmd/branches{/branch}",
            "clone_url": "https://github.com/u9g/mineflayer-cmd.git",
            "collaborators_url": "https://api.github.com/repos/u9g/mineflayer-cmd/collaborators{/collaborator}",
            "comments_url": "https://api.github.com/repos/u9g/mineflayer-cmd/comments{/number}",
            "commits_url": "https://api.github.com/repos/u9g/mineflayer-cmd/commits{/sha}",
            "compare_url": "https://api.github.com/repos/u9g/mineflayer-cmd/compare/{base}...{head}",
            "contents_url": "https://api.github.com/repos/u9g/mineflayer-cmd/contents/{+path}",
            "contributors_url": "https://api.github.com/repos/u9g/mineflayer-cmd/contributors",
            "created_at": "2021-02-17T04:12:07Z",
            "default_branch": "master",
            "deployments_url": "https://api.github.com/repos/u9g/mineflayer-cmd/deployments",
            "description": "A command handler plugin for Mineflayer.",
            "disabled": false,
            "downloads_url": "https://api.github.com/repos/u9g/mineflayer-cmd/downloads",
            "events_url": "https://api.github.com/repos/u9g/mineflayer-cmd/events",
            "fork": true,
            "forks": 0,
            "forks_count": 0,
            "forks_url": "https://api.github.com/repos/u9g/mineflayer-cmd/forks",
            "full_name": "u9g/mineflayer-cmd",
            "git_commits_url": "https://api.github.com/repos/u9g/mineflayer-cmd/git/commits{/sha}",
            "git_refs_url": "https://api.github.com/repos/u9g/mineflayer-cmd/git/refs{/sha}",
            "git_tags_url": "https://api.github.com/repos/u9g/mineflayer-cmd/git/tags{/sha}",
            "git_url": "git://github.com/u9g/mineflayer-cmd.git",
            "has_discussions": false,
            "has_downloads": true,
            "has_issues": false,
            "has_pages": false,
            "has_projects": true,
            "has_wiki": true,
            "homepage": null,
            "hooks_url": "https://api.github.com/repos/u9g/mineflayer-cmd/hooks",
            "html_url": "https://github.com/u9g/mineflayer-cmd",
            "id": 339608030,
            "is_template": false,
            "issue_comment_url": "https://api.github.com/repos/u9g/mineflayer-cmd/issues/comments{/number}",
            "issue_events_url": "https://api.github.com/repos/u9g/mineflayer-cmd/issues/events{/number}",
            "issues_url": "https://api.github.com/repos/u9g/mineflayer-cmd/issues{/number}",
            "keys_url": "https://api.github.com/repos/u9g/mineflayer-cmd/keys{/key_id}",
            "labels_url": "https://api.github.com/repos/u9g/mineflayer-cmd/labels{/name}",
            "language": "TypeScript",
            "languages_url": "https://api.github.com/repos/u9g/mineflayer-cmd/languages",
            "license": {
                "key": "mit",
                "name": "MIT License",
                "node_id": "MDc6TGljZW5zZTEz",
                "spdx_id": "MIT",
                "url": "https://api.github.com/licenses/mit"
            },
            "merges_url": "https://api.github.com/repos/u9g/mineflayer-cmd/merges",
            "milestones_url": "https://api.github.com/repos/u9g/mineflayer-cmd/milestones{/number}",
            "mirror_url": null,
            "name": "mineflayer-cmd",
            "node_id": "MDEwOlJlcG9zaXRvcnkzMzk2MDgwMzA=",
            "notifications_url": "https://api.github.com/repos/u9g/mineflayer-cmd/notifications{?since,all,participating}",
            "open_issues": 1,
            "open_issues_count": 1,
            "owner": {
                "avatar_url": "https://avatars.githubusercontent.com/u/43508353?v=4",
                "events_url": "https://api.github.com/users/u9g/events{/privacy}",
                "followers_url": "https://api.github.com/users/u9g/followers",
                "following_url": "https://api.github.com/users/u9g/following{/other_user}",
                "gists_url": "https://api.github.com/users/u9g/gists{/gist_id}",
                "gravatar_id": "",
                "html_url": "https://github.com/u9g",
                "id": 43508353,
                "login": "u9g",
                "node_id": "MDQ6VXNlcjQzNTA4MzUz",
                "organizations_url": "https://api.github.com/users/u9g/orgs",
                "received_events_url": "https://api.github.com/users/u9g/received_events",
                "repos_url": "https://api.github.com/users/u9g/repos",
                "site_admin": false,
                "starred_url": "https://api.github.com/users/u9g/starred{/owner}{/repo}",
                "subscriptions_url": "https://api.github.com/users/u9g/subscriptions",
                "type": "User",
                "url": "https://api.github.com/users/u9g"
            },
            "private": false,
            "pulls_url": "https://api.github.com/repos/u9g/mineflayer-cmd/pulls{/number}",
            "pushed_at": "2023-04-07T19:59:26Z",
            "releases_url": "https://api.github.com/repos/u9g/mineflayer-cmd/releases{/id}",
            "size": 47,
            "ssh_url": "git@github.com:u9g/mineflayer-cmd.git",
            "stargazers_count": 0,
            "stargazers_url": "https://api.github.com/repos/u9g/mineflayer-cmd/stargazers",
            "statuses_url": "https://api.github.com/repos/u9g/mineflayer-cmd/statuses/{sha}",
            "subscribers_url": "https://api.github.com/repos/u9g/mineflayer-cmd/subscribers",
            "subscription_url": "https://api.github.com/repos/u9g/mineflayer-cmd/subscription",
            "svn_url": "https://github.com/u9g/mineflayer-cmd",
            "tags_url": "https://api.github.com/repos/u9g/mineflayer-cmd/tags",
            "teams_url": "https://api.github.com/repos/u9g/mineflayer-cmd/teams",
            "topics": [],
            "trees_url": "https://api.github.com/repos/u9g/mineflayer-cmd/git/trees{/sha}",
            "updated_at": "2022-03-24T12:15:45Z",
            "url": "https://api.github.com/repos/u9g/mineflayer-cmd",
            "visibility": "public",
            "watchers": 0,
            "watchers_count": 0,
            "web_commit_signoff_required": false
        },
        "sha": "499771ffce551540ad4795925100c27c77e40cef",
        "user": {
            "avatar_url": "https://avatars.githubusercontent.com/u/43508353?v=4",
            "events_url": "https://api.github.com/users/u9g/events{/privacy}",
            "followers_url": "https://api.github.com/users/u9g/followers",
            "following_url": "https://api.github.com/users/u9g/following{/other_user}",
            "gists_url": "https://api.github.com/users/u9g/gists{/gist_id}",
            "gravatar_id": "",
            "html_url": "https://github.com/u9g",
            "id": 43508353,
            "login": "u9g",
            "node_id": "MDQ6VXNlcjQzNTA4MzUz",
            "organizations_url": "https://api.github.com/users/u9g/orgs",
            "received_events_url": "https://api.github.com/users/u9g/received_events",
            "repos_url": "https://api.github.com/users/u9g/repos",
            "site_admin": false,
            "starred_url": "https://api.github.com/users/u9g/starred{/owner}{/repo}",
            "subscriptions_url": "https://api.github.com/users/u9g/subscriptions",
            "type": "User",
            "url": "https://api.github.com/users/u9g"
        }
    },
    "html_url": "https://github.com/PrismarineJS/mineflayer-cmd/pull/19",
    "id": 574629061,
    "issue_url": "https://api.github.com/repos/PrismarineJS/mineflayer-cmd/issues/19",
    "labels": [],
    "locked": false,
    "maintainer_can_modify": false,
    "merge_commit_sha": "38c7b925e05681f18692bb2a9a876d0b7da8abfb",
    "mergeable": null,
    "mergeable_state": "unknown",
    "merged": true,
    "merged_at": "2021-02-17T09:44:35Z",
    "merged_by": {
        "avatar_url": "https://avatars.githubusercontent.com/u/3118172?v=4",
        "events_url": "https://api.github.com/users/TheDudeFromCI/events{/privacy}",
        "followers_url": "https://api.github.com/users/TheDudeFromCI/followers",
        "following_url": "https://api.github.com/users/TheDudeFromCI/following{/other_user}",
        "gists_url": "https://api.github.com/users/TheDudeFromCI/gists{/gist_id}",
        "gravatar_id": "",
        "html_url": "https://github.com/TheDudeFromCI",
        "id": 3118172,
        "login": "TheDudeFromCI",
        "node_id": "MDQ6VXNlcjMxMTgxNzI=",
        "organizations_url": "https://api.github.com/users/TheDudeFromCI/orgs",
        "received_events_url": "https://api.github.com/users/TheDudeFromCI/received_events",
        "repos_url": "https://api.github.com/users/TheDudeFromCI/repos",
        "site_admin": false,
        "starred_url": "https://api.github.com/users/TheDudeFromCI/starred{/owner}{/repo}",
        "subscriptions_url": "https://api.github.com/users/TheDudeFromCI/subscriptions",
        "type": "User",
        "url": "https://api.github.com/users/TheDudeFromCI"
    },
    "milestone": null,
    "node_id": "MDExOlB1bGxSZXF1ZXN0NTc0NjI5MDYx",
    "number": 19,
    "patch_url": "https://github.com/PrismarineJS/mineflayer-cmd/pull/19.patch",
    "rebaseable": null,
    "requested_reviewers": [],
    "requested_teams": [],
    "review_comment_url": "https://api.github.com/repos/PrismarineJS/mineflayer-cmd/pulls/comments{/number}",
    "review_comments": 0,
    "review_comments_url": "https://api.github.com/repos/PrismarineJS/mineflayer-cmd/pulls/19/comments",
    "state": "closed",
    "statuses_url": "https://api.github.com/repos/PrismarineJS/mineflayer-cmd/statuses/499771ffce551540ad4795925100c27c77e40cef",
    "title": "lint with standard + add promises/async",
    "updated_at": "2021-05-25T09:57:26Z",
    "url": "https://api.github.com/repos/PrismarineJS/mineflayer-cmd/pulls/19",
    "user": {
        "avatar_url": "https://avatars.githubusercontent.com/u/43508353?v=4",
        "events_url": "https://api.github.com/users/u9g/events{/privacy}",
        "followers_url": "https://api.github.com/users/u9g/followers",
        "following_url": "https://api.github.com/users/u9g/following{/other_user}",
        "gists_url": "https://api.github.com/users/u9g/gists{/gist_id}",
        "gravatar_id": "",
        "html_url": "https://github.com/u9g",
        "id": 43508353,
        "login": "u9g",
        "node_id": "MDQ6VXNlcjQzNTA4MzUz",
        "organizations_url": "https://api.github.com/users/u9g/orgs",
        "received_events_url": "https://api.github.com/users/u9g/received_events",
        "repos_url": "https://api.github.com/users/u9g/repos",
        "site_admin": false,
        "starred_url": "https://api.github.com/users/u9g/starred{/owner}{/repo}",
        "subscriptions_url": "https://api.github.com/users/u9g/subscriptions",
        "type": "User",
        "url": "https://api.github.com/users/u9g"
    }
}