{
    "_links": {
        "comments": {
            "href": "https://api.github.com/repos/PrismarineJS/mineflayer-cmd/issues/22/comments"
        },
        "commits": {
            "href": "https://api.github.com/repos/PrismarineJS/mineflayer-cmd/pulls/22/commits"
        },
        "html": {
            "href": "https://github.com/PrismarineJS/mineflayer-cmd/pull/22"
        },
        "issue": {
            "href": "https://api.github.com/repos/PrismarineJS/mineflayer-cmd/issues/22"
        },
        "review_comment": {
            "href": "https://api.github.com/repos/PrismarineJS/mineflayer-cmd/pulls/comments{/number}"
        },
        "review_comments": {
            "href": "https://api.github.com/repos/PrismarineJS/mineflayer-cmd/pulls/22/comments"
        },
        "self": {
            "href": "https://api.github.com/repos/PrismarineJS/mineflayer-cmd/pulls/22"
        },
        "statuses": {
            "href": "https://api.github.com/repos/PrismarineJS/mineflayer-cmd/statuses/8c65564ce404af187807c7a69c208b33bd6115ee"
        }
    },
    "active_lock_reason": null,
    "additions": 1,
    "assignee": null,
    "assignees": [],
    "author_association": "CONTRIBUTOR",
    "auto_merge": null,
    "base": {
        "label": "PrismarineJS:master",
        "ref": "master",
        "repo": {
            "allow_forking": true,
            "archive_url": "https://api.github.com/repos/PrismarineJS/mineflayer-cmd/{archive_format}{/ref}",
            "archived": false,
            "assignees_url": "https://api.github.com/repos/PrismarineJS/mineflayer-cmd/assignees{/user}",
            "blobs_url": "https://api.github.com/repos/PrismarineJS/mineflayer-cmd/git/blobs{/sha}",
            "branches_url": "https://api.github.com/repos/PrismarineJS/mineflayer-cmd/branches{/branch}",
            "clone_url": "https://github.com/PrismarineJS/mineflayer-cmd.git",
            "collaborators_url": "https://api.github.com/repos/PrismarineJS/mineflayer-cmd/collaborators{/collaborator}",
            "comments_url": "https://api.github.com/repos/PrismarineJS/mineflayer-cmd/comments{/number}",
            "commits_url": "https://api.github.com/repos/PrismarineJS/mineflayer-cmd/commits{/sha}",
            "compare_url": "https://api.github.com/repos/PrismarineJS/mineflayer-cmd/compare/{base}...{head}",
            "contents_url": "https://api.github.com/repos/PrismarineJS/mineflayer-cmd/contents/{+path}",
            "contributors_url": "https://api.github.com/repos/PrismarineJS/mineflayer-cmd/contributors",
            "created_at": "2020-10-15T10:57:03Z",
            "default_branch": "master",
            "deployments_url": "https://api.github.com/repos/PrismarineJS/mineflayer-cmd/deployments",
            "description": "A command handler plugin for Mineflayer.",
            "disabled": false,
            "downloads_url": "https://api.github.com/repos/PrismarineJS/mineflayer-cmd/downloads",
            "events_url": "https://api.github.com/repos/PrismarineJS/mineflayer-cmd/events",
            "fork": false,
            "forks": 4,
            "forks_count": 4,
            "forks_url": "https://api.github.com/repos/PrismarineJS/mineflayer-cmd/forks",
            "full_name": "PrismarineJS/mineflayer-cmd",
            "git_commits_url": "https://api.github.com/repos/PrismarineJS/mineflayer-cmd/git/commits{/sha}",
            "git_refs_url": "https://api.github.com/repos/PrismarineJS/mineflayer-cmd/git/refs{/sha}",
            "git_tags_url": "https://api.github.com/repos/PrismarineJS/mineflayer-cmd/git/tags{/sha}",
            "git_url": "git://github.com/PrismarineJS/mineflayer-cmd.git",
            "has_discussions": false,
            "has_downloads": true,
            "has_issues": true,
            "has_pages": false,
            "has_projects": true,
            "has_wiki": true,
            "homepage": null,
            "hooks_url": "https://api.github.com/repos/PrismarineJS/mineflayer-cmd/hooks",
            "html_url": "https://github.com/PrismarineJS/mineflayer-cmd",
            "id": 304296970,
            "is_template": false,
            "issue_comment_url": "https://api.github.com/repos/PrismarineJS/mineflayer-cmd/issues/comments{/number}",
            "issue_events_url": "https://api.github.com/repos/PrismarineJS/mineflayer-cmd/issues/events{/number}",
            "issues_url": "https://api.github.com/repos/PrismarineJS/mineflayer-cmd/issues{/number}",
            "keys_url": "https://api.github.com/repos/PrismarineJS/mineflayer-cmd/keys{/key_id}",
            "labels_url": "https://api.github.com/repos/PrismarineJS/mineflayer-cmd/labels{/name}",
            "language": "TypeScript",
            "languages_url": "https://api.github.com/repos/PrismarineJS/mineflayer-cmd/languages",
            "license": {
                "key": "mit",
                "name": "MIT License",
                "node_id": "MDc6TGljZW5zZTEz",
                "spdx_id": "MIT",
                "url": "https://api.github.com/licenses/mit"
            },
            "merges_url": "https://api.github.com/repos/PrismarineJS/mineflayer-cmd/merges",
            "milestones_url": "https://api.github.com/repos/PrismarineJS/mineflayer-cmd/milestones{/number}",
            "mirror_url": null,
            "name": "mineflayer-cmd",
            "node_id": "MDEwOlJlcG9zaXRvcnkzMDQyOTY5NzA=",
            "notifications_url": "https://api.github.com/repos/PrismarineJS/mineflayer-cmd/notifications{?since,all,participating}",
            "open_issues": 7,
            "open_issues_count": 7,
            "owner": {
                "avatar_url": "https://avatars.githubusercontent.com/u/11053411?v=4",
                "events_url": "https://api.github.com/users/PrismarineJS/events{/privacy}",
                "followers_url": "https://api.github.com/users/PrismarineJS/followers",
                "following_url": "https://api.github.com/users/PrismarineJS/following{/other_user}",
                "gists_url": "https://api.github.com/users/PrismarineJS/gists{/gist_id}",
                "gravatar_id": "",
                "html_url": "https://github.com/PrismarineJS",
                "id": 11053411,
                "login": "PrismarineJS",
                "node_id": "MDEyOk9yZ2FuaXphdGlvbjExMDUzNDEx",
                "organizations_url": "https://api.github.com/users/PrismarineJS/orgs",
                "received_events_url": "https://api.github.com/users/PrismarineJS/received_events",
                "repos_url": "https://api.github.com/users/PrismarineJS/repos",
                "site_admin": false,
                "starred_url": "https://api.github.com/users/PrismarineJS/starred{/owner}{/repo}",
                "subscriptions_url": "https://api.github.com/users/PrismarineJS/subscriptions",
                "type": "Organization",
                "url": "https://api.github.com/users/PrismarineJS"
            },
            "private": false,
            "pulls_url": "https://api.github.com/repos/PrismarineJS/mineflayer-cmd/pulls{/number}",
            "pushed_at": "2023-04-10T11:58:13Z",
            "releases_url": "https://api.github.com/repos/PrismarineJS/mineflayer-cmd/releases{/id}",
            "size": 48,
            "ssh_url": "git@github.com:PrismarineJS/mineflayer-cmd.git",
            "stargazers_count": 6,
            "stargazers_url": "https://api.github.com/repos/PrismarineJS/mineflayer-cmd/stargazers",
            "statuses_url": "https://api.github.com/repos/PrismarineJS/mineflayer-cmd/statuses/{sha}",
            "subscribers_url": "https://api.github.com/repos/PrismarineJS/mineflayer-cmd/subscribers",
            "subscription_url": "https://api.github.com/repos/PrismarineJS/mineflayer-cmd/subscription",
            "svn_url": "https://github.com/PrismarineJS/mineflayer-cmd",
            "tags_url": "https://api.github.com/repos/PrismarineJS/mineflayer-cmd/tags",
            "teams_url": "https://api.github.com/repos/PrismarineJS/mineflayer-cmd/teams",
            "topics": [],
            "trees_url": "https://api.github.com/repos/PrismarineJS/mineflayer-cmd/git/trees{/sha}",
            "updated_at": "2023-03-09T07:44:30Z",
            "url": "https://api.github.com/repos/PrismarineJS/mineflayer-cmd",
            "visibility": "public",
            "watchers": 6,
            "watchers_count": 6,
            "web_commit_signoff_required": false
        },
        "sha": "38c7b925e05681f18692bb2a9a876d0b7da8abfb",
        "user": {
            "avatar_url": "https://avatars.githubusercontent.com/u/11053411?v=4",
            "events_url": "https://api.github.com/users/PrismarineJS/events{/privacy}",
            "followers_url": "https://api.github.com/users/PrismarineJS/followers",
            "following_url": "https://api.github.com/users/PrismarineJS/following{/other_user}",
            "gists_url": "https://api.github.com/users/PrismarineJS/gists{/gist_id}",
            "gravatar_id": "",
            "html_url": "https://github.com/PrismarineJS",
            "id": 11053411,
            "login": "PrismarineJS",
            "node_id": "MDEyOk9yZ2FuaXphdGlvbjExMDUzNDEx",
            "organizations_url": "https://api.github.com/users/PrismarineJS/orgs",
            "received_events_url": "https://api.github.com/users/PrismarineJS/received_events",
            "repos_url": "https://api.github.com/users/PrismarineJS/repos",
            "site_admin": false,
            "starred_url": "https://api.github.com/users/PrismarineJS/starred{/owner}{/repo}",
            "subscriptions_url": "https://api.github.com/users/PrismarineJS/subscriptions",
            "type": "Organization",
            "url": "https://api.github.com/users/PrismarineJS"
        }
    },
    "body": "[//]: # (dependabot-start)\n⚠️  **Dependabot Preview has been deactivated** ⚠️\n\nThis pull request was created by Dependabot Preview, and you've upgraded to Dependabot. This means it won't respond to `dependabot` commands nor will it be automatically closed if a new version is found.\n\nIf you close this pull request, Dependabot will re-create it the next time it checks for updates and everything will work as expected.\n\n---\n\n[//]: # (dependabot-end)\nBumps [@types/node](https://github.com/DefinitelyTyped/DefinitelyTyped/tree/HEAD/types/node) from 14.14.43 to 15.0.1.\n<details>\n<summary>Commits</summary>\n<ul>\n<li>See full diff in <a href=\"https://github.com/DefinitelyTyped/DefinitelyTyped/commits/HEAD/types/node\">compare view</a></li>\n</ul>\n</details>\n<br />\n\n\n[![Dependabot compatibility score](https://api.dependabot.com/badges/compatibility_score?dependency-name=@types/node&package-manager=npm_and_yarn&previous-version=14.14.43&new-version=15.0.1)](https://dependabot.com/compatibility-score/?dependency-name=@types/node&package-manager=npm_and_yarn&previous-version=14.14.43&new-version=15.0.1)\n\nDependabot will resolve any conflicts with this PR as long as you don't alter it yourself. You can also trigger a rebase manually by commenting `@dependabot rebase`.\n\n[//]: # (dependabot-automerge-start)\n[//]: # (dependabot-automerge-end)\n\n---\n\n<details>\n<summary>Dependabot commands and options</summary>\n<br />\n\nYou can trigger Dependabot actions by commenting on this PR:\n- `@dependabot rebase` will rebase this PR\n- `@dependabot recreate` will recreate this PR, overwriting any edits that have been made to it\n- `@dependabot merge` will merge this PR after your CI passes on it\n- `@dependabot squash and merge` will squash and merge this PR after your CI passes on it\n- `@dependabot cancel merge` will cancel a previously requested merge and block automerging\n- `@dependabot reopen` will reopen this PR if it is closed\n- `@dependabot close` will close this PR and stop Dependabot recreating it. You can achieve the same result by closing it manually\n- `@dependabot ignore this major version` will close this PR and stop Dependabot creating any more for this major version (unless you reopen the PR or upgrade to it yourself)\n- `@dependabot ignore this minor version` will close this PR and stop Dependabot creating any more for this minor version (unless you reopen the PR or upgrade to it yourself)\n- `@dependabot ignore this dependency` will close this PR and stop Dependabot creating any more for this dependency (unless you reopen the PR or upgrade to it yourself)\n- `@dependabot use these labels` will set the current labels as the default for future PRs for this repo and language\n- `@dependabot use these reviewers` will set the current reviewers as the default for future PRs for this repo and language\n- `@dependabot use these assignees` will set the current assignees as the default for future PRs for this repo and language\n- `@dependabot use this milestone` will set the current milestone as the default for future PRs for this repo and language\n- `@dependabot badge me` will comment on this PR with code to add a \"Dependabot enabled\" badge to your readme\n\nAdditionally, you can set the following in your Dependabot [dashboard](https://app.dependabot.com):\n- Update frequency (including time of day and day of week)\n- Pull request limits (per update run and/or open at any time)\n- Out-of-range updates (receive only lockfile updates, if desired)\n- Security updates (receive only security updates, if desired)\n\n\n\n</details>",
    "changed_files": 1,
    "closed_at": "2021-05-01T23:06:31Z",
    "comment_data": [],
    "comment_regular_data": [],
    "comments": 0,
    "comments_url": "https://api.github.com/repos/PrismarineJS/mineflayer-cmd/issues/22/comments",
    "commit_data": [
        {
            "author": {
                "avatar_url": "https://avatars.githubusercontent.com/in/2141?v=4",
                "events_url": "https://api.github.com/users/dependabot-preview%5Bbot%5D/events{/privacy}",
                "followers_url": "https://api.github.com/users/dependabot-preview%5Bbot%5D/followers",
                "following_url": "https://api.github.com/users/dependabot-preview%5Bbot%5D/following{/other_user}",
                "gists_url": "https://api.github.com/users/dependabot-preview%5Bbot%5D/gists{/gist_id}",
                "gravatar_id": "",
                "html_url": "https://github.com/apps/dependabot-preview",
                "id": 27856297,
                "login": "dependabot-preview[bot]",
                "node_id": "MDM6Qm90Mjc4NTYyOTc=",
                "organizations_url": "https://api.github.com/users/dependabot-preview%5Bbot%5D/orgs",
                "received_events_url": "https://api.github.com/users/dependabot-preview%5Bbot%5D/received_events",
                "repos_url": "https://api.github.com/users/dependabot-preview%5Bbot%5D/repos",
                "site_admin": false,
                "starred_url": "https://api.github.com/users/dependabot-preview%5Bbot%5D/starred{/owner}{/repo}",
                "subscriptions_url": "https://api.github.com/users/dependabot-preview%5Bbot%5D/subscriptions",
                "type": "Bot",
                "url": "https://api.github.com/users/dependabot-preview%5Bbot%5D"
            },
            "comments_url": "https://api.github.com/repos/PrismarineJS/mineflayer-cmd/commits/8c65564ce404af187807c7a69c208b33bd6115ee/comments",
            "commit": {
                "author": {
                    "date": "2021-04-28T16:17:58Z",
                    "email": "27856297+dependabot-preview[bot]@users.noreply.github.com",
                    "name": "dependabot-preview[bot]"
                },
                "comment_count": 0,
                "committer": {
                    "date": "2021-04-28T16:17:58Z",
                    "email": "noreply@github.com",
                    "name": "GitHub"
                },
                "message": "Bump @types/node from 14.14.43 to 15.0.1\n\nBumps [@types/node](https://github.com/DefinitelyTyped/DefinitelyTyped/tree/HEAD/types/node) from 14.14.43 to 15.0.1.\n- [Release notes](https://github.com/DefinitelyTyped/DefinitelyTyped/releases)\n- [Commits](https://github.com/DefinitelyTyped/DefinitelyTyped/commits/HEAD/types/node)\n\nSigned-off-by: dependabot-preview[bot] <support@dependabot.com>",
                "tree": {
                    "sha": "30ac9b932a2f2cad35d59b0059e5d6d49f31ec95",
                    "url": "https://api.github.com/repos/PrismarineJS/mineflayer-cmd/git/trees/30ac9b932a2f2cad35d59b0059e5d6d49f31ec95"
                },
                "url": "https://api.github.com/repos/PrismarineJS/mineflayer-cmd/git/commits/8c65564ce404af187807c7a69c208b33bd6115ee",
                "verification": {
                    "payload": "tree 30ac9b932a2f2cad35d59b0059e5d6d49f31ec95\nparent 38c7b925e05681f18692bb2a9a876d0b7da8abfb\nauthor dependabot-preview[bot] <27856297+dependabot-preview[bot]@users.noreply.github.com> 1619626678 +0000\ncommitter GitHub <noreply@github.com> 1619626678 +0000\n\nBump @types/node from 14.14.43 to 15.0.1\n\nBumps [@types/node](https://github.com/DefinitelyTyped/DefinitelyTyped/tree/HEAD/types/node) from 14.14.43 to 15.0.1.\n- [Release notes](https://github.com/DefinitelyTyped/DefinitelyTyped/releases)\n- [Commits](https://github.com/DefinitelyTyped/DefinitelyTyped/commits/HEAD/types/node)\n\nSigned-off-by: dependabot-preview[bot] <support@dependabot.com>",
                    "reason": "valid",
                    "signature": "-----BEGIN PGP SIGNATURE-----\n\nwsBcBAABCAAQBQJgiYq2CRBK7hj4Ov3rIwAACf0IAGKoi2EEA+G6PGbwzMS2xYfl\njyE+CPAdkueJAiEPiIRreTqyIvTPFb4EG+NtVDadryLbDVrzRoipx4KlU0geYHkI\nMuH8V8i0o/EzcGtTVMob0H7Lz+vRaQBxlQbYeIj97dkptzh0r3crCv+CFLrQTKYu\nMxohnE9xnbQUu19hKtKYaedxDPso7+iO8I7ji6+SLHeqFYI5c2qk+0Muof/c5K1q\nxTujwVmkoWiY3T3a8s33oCu6lFBcaH/9enYmMKBgPE9xL6s6alU+Se0/s9QXibnH\nO/EDNa588h5Gf/p+QBMJny1wku2j8kFBg5C/+RltLBNQQ9y6xa91O61joeBRrRU=\n=Ye/S\n-----END PGP SIGNATURE-----\n",
                    "verified": true
                }
            },
            "committer": {
                "avatar_url": "https://avatars.githubusercontent.com/u/19864447?v=4",
                "events_url": "https://api.github.com/users/web-flow/events{/privacy}",
                "followers_url": "https://api.github.com/users/web-flow/followers",
                "following_url": "https://api.github.com/users/web-flow/following{/other_user}",
                "gists_url": "https://api.github.com/users/web-flow/gists{/gist_id}",
                "gravatar_id": "",
                "html_url": "https://github.com/web-flow",
                "id": 19864447,
                "login": "web-flow",
                "node_id": "MDQ6VXNlcjE5ODY0NDQ3",
                "organizations_url": "https://api.github.com/users/web-flow/orgs",
                "received_events_url": "https://api.github.com/users/web-flow/received_events",
                "repos_url": "https://api.github.com/users/web-flow/repos",
                "site_admin": false,
                "starred_url": "https://api.github.com/users/web-flow/starred{/owner}{/repo}",
                "subscriptions_url": "https://api.github.com/users/web-flow/subscriptions",
                "type": "User",
                "url": "https://api.github.com/users/web-flow"
            },
            "html_url": "https://github.com/PrismarineJS/mineflayer-cmd/commit/8c65564ce404af187807c7a69c208b33bd6115ee",
            "node_id": "MDY6Q29tbWl0MzA0Mjk2OTcwOjhjNjU1NjRjZTQwNGFmMTg3ODA3YzdhNjljMjA4YjMzYmQ2MTE1ZWU=",
            "parents": [
                {
                    "html_url": "https://github.com/PrismarineJS/mineflayer-cmd/commit/38c7b925e05681f18692bb2a9a876d0b7da8abfb",
                    "sha": "38c7b925e05681f18692bb2a9a876d0b7da8abfb",
                    "url": "https://api.github.com/repos/PrismarineJS/mineflayer-cmd/commits/38c7b925e05681f18692bb2a9a876d0b7da8abfb"
                }
            ],
            "sha": "8c65564ce404af187807c7a69c208b33bd6115ee",
            "url": "https://api.github.com/repos/PrismarineJS/mineflayer-cmd/commits/8c65564ce404af187807c7a69c208b33bd6115ee"
        }
    ],
    "commits": 1,
    "commits_url": "https://api.github.com/repos/PrismarineJS/mineflayer-cmd/pulls/22/commits",
    "created_at": "2021-04-28T16:17:59Z",
    "deletions": 1,
    "diff_url": "https://github.com/PrismarineJS/mineflayer-cmd/pull/22.diff",
    "draft": false,
    "head": {
        "label": "PrismarineJS:dependabot/npm_and_yarn/types/node-15.0.1",
        "ref": "dependabot/npm_and_yarn/types/node-15.0.1",
        "repo": {
            "allow_forking": true,
            "archive_url": "https://api.github.com/repos/PrismarineJS/mineflayer-cmd/{archive_format}{/ref}",
            "archived": false,
            "assignees_url": "https://api.github.com/repos/PrismarineJS/mineflayer-cmd/assignees{/user}",
            "blobs_url": "https://api.github.com/repos/PrismarineJS/mineflayer-cmd/git/blobs{/sha}",
            "branches_url": "https://api.github.com/repos/PrismarineJS/mineflayer-cmd/branches{/branch}",
            "clone_url": "https://github.com/PrismarineJS/mineflayer-cmd.git",
            "collaborators_url": "https://api.github.com/repos/PrismarineJS/mineflayer-cmd/collaborators{/collaborator}",
            "comments_url": "https://api.github.com/repos/PrismarineJS/mineflayer-cmd/comments{/number}",
            "commits_url": "https://api.github.com/repos/PrismarineJS/mineflayer-cmd/commits{/sha}",
            "compare_url": "https://api.github.com/repos/PrismarineJS/mineflayer-cmd/compare/{base}...{head}",
            "contents_url": "https://api.github.com/repos/PrismarineJS/mineflayer-cmd/contents/{+path}",
            "contributors_url": "https://api.github.com/repos/PrismarineJS/mineflayer-cmd/contributors",
            "created_at": "2020-10-15T10:57:03Z",
            "default_branch": "master",
            "deployments_url": "https://api.github.com/repos/PrismarineJS/mineflayer-cmd/deployments",
            "description": "A command handler plugin for Mineflayer.",
            "disabled": false,
            "downloads_url": "https://api.github.com/repos/PrismarineJS/mineflayer-cmd/downloads",
            "events_url": "https://api.github.com/repos/PrismarineJS/mineflayer-cmd/events",
            "fork": false,
            "forks": 4,
            "forks_count": 4,
            "forks_url": "https://api.github.com/repos/PrismarineJS/mineflayer-cmd/forks",
            "full_name": "PrismarineJS/mineflayer-cmd",
            "git_commits_url": "https://api.github.com/repos/PrismarineJS/mineflayer-cmd/git/commits{/sha}",
            "git_refs_url": "https://api.github.com/repos/PrismarineJS/mineflayer-cmd/git/refs{/sha}",
            "git_tags_url": "https://api.github.com/repos/PrismarineJS/mineflayer-cmd/git/tags{/sha}",
            "git_url": "git://github.com/PrismarineJS/mineflayer-cmd.git",
            "has_discussions": false,
            "has_downloads": true,
            "has_issues": true,
            "has_pages": false,
            "has_projects": true,
            "has_wiki": true,
            "homepage": null,
            "hooks_url": "https://api.github.com/repos/PrismarineJS/mineflayer-cmd/hooks",
            "html_url": "https://github.com/PrismarineJS/mineflayer-cmd",
            "id": 304296970,
            "is_template": false,
            "issue_comment_url": "https://api.github.com/repos/PrismarineJS/mineflayer-cmd/issues/comments{/number}",
            "issue_events_url": "https://api.github.com/repos/PrismarineJS/mineflayer-cmd/issues/events{/number}",
            "issues_url": "https://api.github.com/repos/PrismarineJS/mineflayer-cmd/issues{/number}",
            "keys_url": "https://api.github.com/repos/PrismarineJS/mineflayer-cmd/keys{/key_id}",
            "labels_url": "https://api.github.com/repos/PrismarineJS/mineflayer-cmd/labels{/name}",
            "language": "TypeScript",
            "languages_url": "https://api.github.com/repos/PrismarineJS/mineflayer-cmd/languages",
            "license": {
                "key": "mit",
                "name": "MIT License",
                "node_id": "MDc6TGljZW5zZTEz",
                "spdx_id": "MIT",
                "url": "https://api.github.com/licenses/mit"
            },
            "merges_url": "https://api.github.com/repos/PrismarineJS/mineflayer-cmd/merges",
            "milestones_url": "https://api.github.com/repos/PrismarineJS/mineflayer-cmd/milestones{/number}",
            "mirror_url": null,
            "name": "mineflayer-cmd",
            "node_id": "MDEwOlJlcG9zaXRvcnkzMDQyOTY5NzA=",
            "notifications_url": "https://api.github.com/repos/PrismarineJS/mineflayer-cmd/notifications{?since,all,participating}",
            "open_issues": 7,
            "open_issues_count": 7,
            "owner": {
                "avatar_url": "https://avatars.githubusercontent.com/u/11053411?v=4",
                "events_url": "https://api.github.com/users/PrismarineJS/events{/privacy}",
                "followers_url": "https://api.github.com/users/PrismarineJS/followers",
                "following_url": "https://api.github.com/users/PrismarineJS/following{/other_user}",
                "gists_url": "https://api.github.com/users/PrismarineJS/gists{/gist_id}",
                "gravatar_id": "",
                "html_url": "https://github.com/PrismarineJS",
                "id": 11053411,
                "login": "PrismarineJS",
                "node_id": "MDEyOk9yZ2FuaXphdGlvbjExMDUzNDEx",
                "organizations_url": "https://api.github.com/users/PrismarineJS/orgs",
                "received_events_url": "https://api.github.com/users/PrismarineJS/received_events",
                "repos_url": "https://api.github.com/users/PrismarineJS/repos",
                "site_admin": false,
                "starred_url": "https://api.github.com/users/PrismarineJS/starred{/owner}{/repo}",
                "subscriptions_url": "https://api.github.com/users/PrismarineJS/subscriptions",
                "type": "Organization",
                "url": "https://api.github.com/users/PrismarineJS"
            },
            "private": false,
            "pulls_url": "https://api.github.com/repos/PrismarineJS/mineflayer-cmd/pulls{/number}",
            "pushed_at": "2023-04-10T11:58:13Z",
            "releases_url": "https://api.github.com/repos/PrismarineJS/mineflayer-cmd/releases{/id}",
            "size": 48,
            "ssh_url": "git@github.com:PrismarineJS/mineflayer-cmd.git",
            "stargazers_count": 6,
            "stargazers_url": "https://api.github.com/repos/PrismarineJS/mineflayer-cmd/stargazers",
            "statuses_url": "https://api.github.com/repos/PrismarineJS/mineflayer-cmd/statuses/{sha}",
            "subscribers_url": "https://api.github.com/repos/PrismarineJS/mineflayer-cmd/subscribers",
            "subscription_url": "https://api.github.com/repos/PrismarineJS/mineflayer-cmd/subscription",
            "svn_url": "https://github.com/PrismarineJS/mineflayer-cmd",
            "tags_url": "https://api.github.com/repos/PrismarineJS/mineflayer-cmd/tags",
            "teams_url": "https://api.github.com/repos/PrismarineJS/mineflayer-cmd/teams",
            "topics": [],
            "trees_url": "https://api.github.com/repos/PrismarineJS/mineflayer-cmd/git/trees{/sha}",
            "updated_at": "2023-03-09T07:44:30Z",
            "url": "https://api.github.com/repos/PrismarineJS/mineflayer-cmd",
            "visibility": "public",
            "watchers": 6,
            "watchers_count": 6,
            "web_commit_signoff_required": false
        },
        "sha": "8c65564ce404af187807c7a69c208b33bd6115ee",
        "user": {
            "avatar_url": "https://avatars.githubusercontent.com/u/11053411?v=4",
            "events_url": "https://api.github.com/users/PrismarineJS/events{/privacy}",
            "followers_url": "https://api.github.com/users/PrismarineJS/followers",
            "following_url": "https://api.github.com/users/PrismarineJS/following{/other_user}",
            "gists_url": "https://api.github.com/users/PrismarineJS/gists{/gist_id}",
            "gravatar_id": "",
            "html_url": "https://github.com/PrismarineJS",
            "id": 11053411,
            "login": "PrismarineJS",
            "node_id": "MDEyOk9yZ2FuaXphdGlvbjExMDUzNDEx",
            "organizations_url": "https://api.github.com/users/PrismarineJS/orgs",
            "received_events_url": "https://api.github.com/users/PrismarineJS/received_events",
            "repos_url": "https://api.github.com/users/PrismarineJS/repos",
            "site_admin": false,
            "starred_url": "https://api.github.com/users/PrismarineJS/starred{/owner}{/repo}",
            "subscriptions_url": "https://api.github.com/users/PrismarineJS/subscriptions",
            "type": "Organization",
            "url": "https://api.github.com/users/PrismarineJS"
        }
    },
    "html_url": "https://github.com/PrismarineJS/mineflayer-cmd/pull/22",
    "id": 625371586,
    "issue_url": "https://api.github.com/repos/PrismarineJS/mineflayer-cmd/issues/22",
    "labels": [
        {
            "color": "0366d6",
            "default": false,
            "description": "Pull requests that update a dependency file",
            "id": 2493965276,
            "name": "dependencies",
            "node_id": "MDU6TGFiZWwyNDkzOTY1Mjc2",
            "url": "https://api.github.com/repos/PrismarineJS/mineflayer-cmd/labels/dependencies"
        }
    ],
    "locked": false,
    "maintainer_can_modify": false,
    "merge_commit_sha": "79ea0bd851c52bf1d5330214c045a49c0e98931d",
    "mergeable": null,
    "mergeable_state": "unknown",
    "merged": true,
    "merged_at": "2021-05-01T23:06:31Z",
    "merged_by": {
        "avatar_url": "https://avatars.githubusercontent.com/u/2346494?v=4",
        "events_url": "https://api.github.com/users/rom1504/events{/privacy}",
        "followers_url": "https://api.github.com/users/rom1504/followers",
        "following_url": "https://api.github.com/users/rom1504/following{/other_user}",
        "gists_url": "https://api.github.com/users/rom1504/gists{/gist_id}",
        "gravatar_id": "",
        "html_url": "https://github.com/rom1504",
        "id": 2346494,
        "login": "rom1504",
        "node_id": "MDQ6VXNlcjIzNDY0OTQ=",
        "organizations_url": "https://api.github.com/users/rom1504/orgs",
        "received_events_url": "https://api.github.com/users/rom1504/received_events",
        "repos_url": "https://api.github.com/users/rom1504/repos",
        "site_admin": false,
        "starred_url": "https://api.github.com/users/rom1504/starred{/owner}{/repo}",
        "subscriptions_url": "https://api.github.com/users/rom1504/subscriptions",
        "type": "User",
        "url": "https://api.github.com/users/rom1504"
    },
    "milestone": null,
    "node_id": "MDExOlB1bGxSZXF1ZXN0NjI1MzcxNTg2",
    "number": 22,
    "patch_url": "https://github.com/PrismarineJS/mineflayer-cmd/pull/22.patch",
    "rebaseable": null,
    "requested_reviewers": [],
    "requested_teams": [],
    "review_comment_url": "https://api.github.com/repos/PrismarineJS/mineflayer-cmd/pulls/comments{/number}",
    "review_comments": 0,
    "review_comments_url": "https://api.github.com/repos/PrismarineJS/mineflayer-cmd/pulls/22/comments",
    "state": "closed",
    "statuses_url": "https://api.github.com/repos/PrismarineJS/mineflayer-cmd/statuses/8c65564ce404af187807c7a69c208b33bd6115ee",
    "title": "Bump @types/node from 14.14.43 to 15.0.1",
    "updated_at": "2021-05-01T23:06:39Z",
    "url": "https://api.github.com/repos/PrismarineJS/mineflayer-cmd/pulls/22",
    "user": {
        "avatar_url": "https://avatars.githubusercontent.com/in/2141?v=4",
        "events_url": "https://api.github.com/users/dependabot-preview%5Bbot%5D/events{/privacy}",
        "followers_url": "https://api.github.com/users/dependabot-preview%5Bbot%5D/followers",
        "following_url": "https://api.github.com/users/dependabot-preview%5Bbot%5D/following{/other_user}",
        "gists_url": "https://api.github.com/users/dependabot-preview%5Bbot%5D/gists{/gist_id}",
        "gravatar_id": "",
        "html_url": "https://github.com/apps/dependabot-preview",
        "id": 27856297,
        "login": "dependabot-preview[bot]",
        "node_id": "MDM6Qm90Mjc4NTYyOTc=",
        "organizations_url": "https://api.github.com/users/dependabot-preview%5Bbot%5D/orgs",
        "received_events_url": "https://api.github.com/users/dependabot-preview%5Bbot%5D/received_events",
        "repos_url": "https://api.github.com/users/dependabot-preview%5Bbot%5D/repos",
        "site_admin": false,
        "starred_url": "https://api.github.com/users/dependabot-preview%5Bbot%5D/starred{/owner}{/repo}",
        "subscriptions_url": "https://api.github.com/users/dependabot-preview%5Bbot%5D/subscriptions",
        "type": "Bot",
        "url": "https://api.github.com/users/dependabot-preview%5Bbot%5D"
    }
}