{
    "assets": [],
    "assets_url": "https://api.github.com/repos/PrismarineJS/node-minecraft-data/releases/91830964/assets",
    "author": {
        "avatar_url": "https://avatars.githubusercontent.com/in/15368?v=4",
        "events_url": "https://api.github.com/users/github-actions%5Bbot%5D/events{/privacy}",
        "followers_url": "https://api.github.com/users/github-actions%5Bbot%5D/followers",
        "following_url": "https://api.github.com/users/github-actions%5Bbot%5D/following{/other_user}",
        "gists_url": "https://api.github.com/users/github-actions%5Bbot%5D/gists{/gist_id}",
        "gravatar_id": "",
        "html_url": "https://github.com/apps/github-actions",
        "id": 41898282,
        "login": "github-actions[bot]",
        "node_id": "MDM6Qm90NDE4OTgyODI=",
        "organizations_url": "https://api.github.com/users/github-actions%5Bbot%5D/orgs",
        "received_events_url": "https://api.github.com/users/github-actions%5Bbot%5D/received_events",
        "repos_url": "https://api.github.com/users/github-actions%5Bbot%5D/repos",
        "site_admin": false,
        "starred_url": "https://api.github.com/users/github-actions%5Bbot%5D/starred{/owner}{/repo}",
        "subscriptions_url": "https://api.github.com/users/github-actions%5Bbot%5D/subscriptions",
        "type": "Bot",
        "url": "https://api.github.com/users/github-actions%5Bbot%5D",
        "user_view_type": "public"
    },
    "body": "3.27.0",
    "created_at": "2023-02-09T02:29:40Z",
    "draft": false,
    "html_url": "https://github.com/PrismarineJS/node-minecraft-data/releases/tag/3.27.0",
    "id": 91830964,
    "name": "Release 3.27.0",
    "node_id": "RE_kwDOAhfwb84FeTq0",
    "prerelease": false,
    "published_at": "2023-02-09T02:30:28Z",
    "tag_name": "3.27.0",
    "tarball_url": "https://api.github.com/repos/PrismarineJS/node-minecraft-data/tarball/3.27.0",
    "target_commitish": "9d6fa481250428c89df03f7d9660b1c864c9354b",
    "upload_url": "https://uploads.github.com/repos/PrismarineJS/node-minecraft-data/releases/91830964/assets{?name,label}",
    "url": "https://api.github.com/repos/PrismarineJS/node-minecraft-data/releases/91830964",
    "zipball_url": "https://api.github.com/repos/PrismarineJS/node-minecraft-data/zipball/3.27.0"
}