{
    "_links": {
        "comments": {
            "href": "https://api.github.com/repos/PrismarineJS/prismarine-windows/issues/10/comments"
        },
        "commits": {
            "href": "https://api.github.com/repos/PrismarineJS/prismarine-windows/pulls/10/commits"
        },
        "html": {
            "href": "https://github.com/PrismarineJS/prismarine-windows/pull/10"
        },
        "issue": {
            "href": "https://api.github.com/repos/PrismarineJS/prismarine-windows/issues/10"
        },
        "review_comment": {
            "href": "https://api.github.com/repos/PrismarineJS/prismarine-windows/pulls/comments{/number}"
        },
        "review_comments": {
            "href": "https://api.github.com/repos/PrismarineJS/prismarine-windows/pulls/10/comments"
        },
        "self": {
            "href": "https://api.github.com/repos/PrismarineJS/prismarine-windows/pulls/10"
        },
        "statuses": {
            "href": "https://api.github.com/repos/PrismarineJS/prismarine-windows/statuses/7b3d3a77044ce290586e6d1b835be3c67febf72f"
        }
    },
    "active_lock_reason": null,
    "additions": 1,
    "assignee": null,
    "assignees": [],
    "author_association": "CONTRIBUTOR",
    "auto_merge": null,
    "base": {
        "label": "PrismarineJS:master",
        "ref": "master",
        "repo": {
            "allow_forking": true,
            "archive_url": "https://api.github.com/repos/PrismarineJS/prismarine-windows/{archive_format}{/ref}",
            "archived": false,
            "assignees_url": "https://api.github.com/repos/PrismarineJS/prismarine-windows/assignees{/user}",
            "blobs_url": "https://api.github.com/repos/PrismarineJS/prismarine-windows/git/blobs{/sha}",
            "branches_url": "https://api.github.com/repos/PrismarineJS/prismarine-windows/branches{/branch}",
            "clone_url": "https://github.com/PrismarineJS/prismarine-windows.git",
            "collaborators_url": "https://api.github.com/repos/PrismarineJS/prismarine-windows/collaborators{/collaborator}",
            "comments_url": "https://api.github.com/repos/PrismarineJS/prismarine-windows/comments{/number}",
            "commits_url": "https://api.github.com/repos/PrismarineJS/prismarine-windows/commits{/sha}",
            "compare_url": "https://api.github.com/repos/PrismarineJS/prismarine-windows/compare/{base}...{head}",
            "contents_url": "https://api.github.com/repos/PrismarineJS/prismarine-windows/contents/{+path}",
            "contributors_url": "https://api.github.com/repos/PrismarineJS/prismarine-windows/contributors",
            "created_at": "2015-11-22T16:54:19Z",
            "default_branch": "master",
            "deployments_url": "https://api.github.com/repos/PrismarineJS/prismarine-windows/deployments",
            "description": "Represent minecraft windows",
            "disabled": false,
            "downloads_url": "https://api.github.com/repos/PrismarineJS/prismarine-windows/downloads",
            "events_url": "https://api.github.com/repos/PrismarineJS/prismarine-windows/events",
            "fork": false,
            "forks": 22,
            "forks_count": 22,
            "forks_url": "https://api.github.com/repos/PrismarineJS/prismarine-windows/forks",
            "full_name": "PrismarineJS/prismarine-windows",
            "git_commits_url": "https://api.github.com/repos/PrismarineJS/prismarine-windows/git/commits{/sha}",
            "git_refs_url": "https://api.github.com/repos/PrismarineJS/prismarine-windows/git/refs{/sha}",
            "git_tags_url": "https://api.github.com/repos/PrismarineJS/prismarine-windows/git/tags{/sha}",
            "git_url": "git://github.com/PrismarineJS/prismarine-windows.git",
            "has_discussions": false,
            "has_downloads": true,
            "has_issues": true,
            "has_pages": false,
            "has_projects": true,
            "has_wiki": true,
            "homepage": null,
            "hooks_url": "https://api.github.com/repos/PrismarineJS/prismarine-windows/hooks",
            "html_url": "https://github.com/PrismarineJS/prismarine-windows",
            "id": 46670021,
            "is_template": false,
            "issue_comment_url": "https://api.github.com/repos/PrismarineJS/prismarine-windows/issues/comments{/number}",
            "issue_events_url": "https://api.github.com/repos/PrismarineJS/prismarine-windows/issues/events{/number}",
            "issues_url": "https://api.github.com/repos/PrismarineJS/prismarine-windows/issues{/number}",
            "keys_url": "https://api.github.com/repos/PrismarineJS/prismarine-windows/keys{/key_id}",
            "labels_url": "https://api.github.com/repos/PrismarineJS/prismarine-windows/labels{/name}",
            "language": "JavaScript",
            "languages_url": "https://api.github.com/repos/PrismarineJS/prismarine-windows/languages",
            "license": null,
            "merges_url": "https://api.github.com/repos/PrismarineJS/prismarine-windows/merges",
            "milestones_url": "https://api.github.com/repos/PrismarineJS/prismarine-windows/milestones{/number}",
            "mirror_url": null,
            "name": "prismarine-windows",
            "node_id": "MDEwOlJlcG9zaXRvcnk0NjY3MDAyMQ==",
            "notifications_url": "https://api.github.com/repos/PrismarineJS/prismarine-windows/notifications{?since,all,participating}",
            "open_issues": 11,
            "open_issues_count": 11,
            "owner": {
                "avatar_url": "https://avatars.githubusercontent.com/u/11053411?v=4",
                "events_url": "https://api.github.com/users/PrismarineJS/events{/privacy}",
                "followers_url": "https://api.github.com/users/PrismarineJS/followers",
                "following_url": "https://api.github.com/users/PrismarineJS/following{/other_user}",
                "gists_url": "https://api.github.com/users/PrismarineJS/gists{/gist_id}",
                "gravatar_id": "",
                "html_url": "https://github.com/PrismarineJS",
                "id": 11053411,
                "login": "PrismarineJS",
                "node_id": "MDEyOk9yZ2FuaXphdGlvbjExMDUzNDEx",
                "organizations_url": "https://api.github.com/users/PrismarineJS/orgs",
                "received_events_url": "https://api.github.com/users/PrismarineJS/received_events",
                "repos_url": "https://api.github.com/users/PrismarineJS/repos",
                "site_admin": false,
                "starred_url": "https://api.github.com/users/PrismarineJS/starred{/owner}{/repo}",
                "subscriptions_url": "https://api.github.com/users/PrismarineJS/subscriptions",
                "type": "Organization",
                "url": "https://api.github.com/users/PrismarineJS"
            },
            "private": false,
            "pulls_url": "https://api.github.com/repos/PrismarineJS/prismarine-windows/pulls{/number}",
            "pushed_at": "2023-04-08T15:30:23Z",
            "releases_url": "https://api.github.com/repos/PrismarineJS/prismarine-windows/releases{/id}",
            "size": 80,
            "ssh_url": "git@github.com:PrismarineJS/prismarine-windows.git",
            "stargazers_count": 28,
            "stargazers_url": "https://api.github.com/repos/PrismarineJS/prismarine-windows/stargazers",
            "statuses_url": "https://api.github.com/repos/PrismarineJS/prismarine-windows/statuses/{sha}",
            "subscribers_url": "https://api.github.com/repos/PrismarineJS/prismarine-windows/subscribers",
            "subscription_url": "https://api.github.com/repos/PrismarineJS/prismarine-windows/subscription",
            "svn_url": "https://github.com/PrismarineJS/prismarine-windows",
            "tags_url": "https://api.github.com/repos/PrismarineJS/prismarine-windows/tags",
            "teams_url": "https://api.github.com/repos/PrismarineJS/prismarine-windows/teams",
            "topics": [],
            "trees_url": "https://api.github.com/repos/PrismarineJS/prismarine-windows/git/trees{/sha}",
            "updated_at": "2023-04-05T14:48:35Z",
            "url": "https://api.github.com/repos/PrismarineJS/prismarine-windows",
            "visibility": "public",
            "watchers": 28,
            "watchers_count": 28,
            "web_commit_signoff_required": false
        },
        "sha": "69eb1182ab773a71d7a28431972c6f09c5dbb421",
        "user": {
            "avatar_url": "https://avatars.githubusercontent.com/u/11053411?v=4",
            "events_url": "https://api.github.com/users/PrismarineJS/events{/privacy}",
            "followers_url": "https://api.github.com/users/PrismarineJS/followers",
            "following_url": "https://api.github.com/users/PrismarineJS/following{/other_user}",
            "gists_url": "https://api.github.com/users/PrismarineJS/gists{/gist_id}",
            "gravatar_id": "",
            "html_url": "https://github.com/PrismarineJS",
            "id": 11053411,
            "login": "PrismarineJS",
            "node_id": "MDEyOk9yZ2FuaXphdGlvbjExMDUzNDEx",
            "organizations_url": "https://api.github.com/users/PrismarineJS/orgs",
            "received_events_url": "https://api.github.com/users/PrismarineJS/received_events",
            "repos_url": "https://api.github.com/users/PrismarineJS/repos",
            "site_admin": false,
            "starred_url": "https://api.github.com/users/PrismarineJS/starred{/owner}{/repo}",
            "subscriptions_url": "https://api.github.com/users/PrismarineJS/subscriptions",
            "type": "Organization",
            "url": "https://api.github.com/users/PrismarineJS"
        }
    },
    "body": "Added:\r\n || mcVersion.startsWith('1.16')\r\n\r\nReason:\r\n  This allows inventory to work with version Minecraft v1.16 in some form.",
    "changed_files": 1,
    "closed_at": "2020-07-06T19:34:14Z",
    "comment_data": [],
    "comment_regular_data": [
        {
            "author_association": "MEMBER",
            "body": "thanks",
            "created_at": "2020-07-06T19:34:18Z",
            "html_url": "https://github.com/PrismarineJS/prismarine-windows/pull/10#issuecomment-654425783",
            "id": 654425783,
            "issue_url": "https://api.github.com/repos/PrismarineJS/prismarine-windows/issues/10",
            "node_id": "MDEyOklzc3VlQ29tbWVudDY1NDQyNTc4Mw==",
            "performed_via_github_app": null,
            "reactions": {
                "+1": 0,
                "-1": 0,
                "confused": 0,
                "eyes": 0,
                "heart": 0,
                "hooray": 0,
                "laugh": 0,
                "rocket": 0,
                "total_count": 0,
                "url": "https://api.github.com/repos/PrismarineJS/prismarine-windows/issues/comments/654425783/reactions"
            },
            "updated_at": "2020-07-06T19:34:18Z",
            "url": "https://api.github.com/repos/PrismarineJS/prismarine-windows/issues/comments/654425783",
            "user": {
                "avatar_url": "https://avatars.githubusercontent.com/u/2346494?v=4",
                "events_url": "https://api.github.com/users/rom1504/events{/privacy}",
                "followers_url": "https://api.github.com/users/rom1504/followers",
                "following_url": "https://api.github.com/users/rom1504/following{/other_user}",
                "gists_url": "https://api.github.com/users/rom1504/gists{/gist_id}",
                "gravatar_id": "",
                "html_url": "https://github.com/rom1504",
                "id": 2346494,
                "login": "rom1504",
                "node_id": "MDQ6VXNlcjIzNDY0OTQ=",
                "organizations_url": "https://api.github.com/users/rom1504/orgs",
                "received_events_url": "https://api.github.com/users/rom1504/received_events",
                "repos_url": "https://api.github.com/users/rom1504/repos",
                "site_admin": false,
                "starred_url": "https://api.github.com/users/rom1504/starred{/owner}{/repo}",
                "subscriptions_url": "https://api.github.com/users/rom1504/subscriptions",
                "type": "User",
                "url": "https://api.github.com/users/rom1504"
            }
        }
    ],
    "comments": 1,
    "comments_url": "https://api.github.com/repos/PrismarineJS/prismarine-windows/issues/10/comments",
    "commit_data": [
        {
            "author": {
                "avatar_url": "https://avatars.githubusercontent.com/u/11282242?v=4",
                "events_url": "https://api.github.com/users/DrakoTrogdor/events{/privacy}",
                "followers_url": "https://api.github.com/users/DrakoTrogdor/followers",
                "following_url": "https://api.github.com/users/DrakoTrogdor/following{/other_user}",
                "gists_url": "https://api.github.com/users/DrakoTrogdor/gists{/gist_id}",
                "gravatar_id": "",
                "html_url": "https://github.com/DrakoTrogdor",
                "id": 11282242,
                "login": "DrakoTrogdor",
                "node_id": "MDQ6VXNlcjExMjgyMjQy",
                "organizations_url": "https://api.github.com/users/DrakoTrogdor/orgs",
                "received_events_url": "https://api.github.com/users/DrakoTrogdor/received_events",
                "repos_url": "https://api.github.com/users/DrakoTrogdor/repos",
                "site_admin": false,
                "starred_url": "https://api.github.com/users/DrakoTrogdor/starred{/owner}{/repo}",
                "subscriptions_url": "https://api.github.com/users/DrakoTrogdor/subscriptions",
                "type": "User",
                "url": "https://api.github.com/users/DrakoTrogdor"
            },
            "comments_url": "https://api.github.com/repos/PrismarineJS/prismarine-windows/commits/7b3d3a77044ce290586e6d1b835be3c67febf72f/comments",
            "commit": {
                "author": {
                    "date": "2020-07-06T05:10:02Z",
                    "email": "DrakoTrogdor@users.noreply.github.com",
                    "name": "Mr. Casey J Sullivan"
                },
                "comment_count": 0,
                "committer": {
                    "date": "2020-07-06T05:10:02Z",
                    "email": "noreply@github.com",
                    "name": "GitHub"
                },
                "message": "Version 1.16 compatibility\n\nAdded:\r\n || mcVersion.startsWith('1.16')\r\n\r\nReason:\r\n  This allows inventory to work with version Minecraft v1.16 in some form.",
                "tree": {
                    "sha": "c4a92bc76cba179d548a98b1183b660ca9acc529",
                    "url": "https://api.github.com/repos/PrismarineJS/prismarine-windows/git/trees/c4a92bc76cba179d548a98b1183b660ca9acc529"
                },
                "url": "https://api.github.com/repos/PrismarineJS/prismarine-windows/git/commits/7b3d3a77044ce290586e6d1b835be3c67febf72f",
                "verification": {
                    "payload": "tree c4a92bc76cba179d548a98b1183b660ca9acc529\nparent 69eb1182ab773a71d7a28431972c6f09c5dbb421\nauthor Mr. Casey J Sullivan <DrakoTrogdor@users.noreply.github.com> 1594012202 -0400\ncommitter GitHub <noreply@github.com> 1594012202 -0400\n\nVersion 1.16 compatibility\n\nAdded:\r\n || mcVersion.startsWith('1.16')\r\n\r\nReason:\r\n  This allows inventory to work with version Minecraft v1.16 in some form.",
                    "reason": "valid",
                    "signature": "-----BEGIN PGP SIGNATURE-----\n\nwsBcBAABCAAQBQJfArIqCRBK7hj4Ov3rIwAAdHIIAAxEMsKstRzBdLDqCMTtvg+N\nXjs8jGFYrLyMYYWiLeCquKJd1RPDGz5GXPqFnPSEmHgTnmwz6LxKoO3WwfVx8exC\nH6rXi/oxVTEobs3EFj33JFbW5ummqe8POjRc5ILVIbKrQZR33IG7QgZwYRYymhTA\ntr8jLW8MV9F4pd20oO4ossEpe8oXHnF2rWTop2tDwdBLIy2UMX+5NhEY5IJ0rQ9F\nVRJruFuA9yQpYHEjZc1ls0tbDPhfQjrLTkgREpxl+eudh98rAxVGuqX0Pzzn+7h2\nkJ5M0K0lIfxCyMlbP87El2x7ppILA2I0PAAGKgpKxli+312i9SJhYqfVnZM8ufw=\n=VFHq\n-----END PGP SIGNATURE-----\n",
                    "verified": true
                }
            },
            "committer": {
                "avatar_url": "https://avatars.githubusercontent.com/u/19864447?v=4",
                "events_url": "https://api.github.com/users/web-flow/events{/privacy}",
                "followers_url": "https://api.github.com/users/web-flow/followers",
                "following_url": "https://api.github.com/users/web-flow/following{/other_user}",
                "gists_url": "https://api.github.com/users/web-flow/gists{/gist_id}",
                "gravatar_id": "",
                "html_url": "https://github.com/web-flow",
                "id": 19864447,
                "login": "web-flow",
                "node_id": "MDQ6VXNlcjE5ODY0NDQ3",
                "organizations_url": "https://api.github.com/users/web-flow/orgs",
                "received_events_url": "https://api.github.com/users/web-flow/received_events",
                "repos_url": "https://api.github.com/users/web-flow/repos",
                "site_admin": false,
                "starred_url": "https://api.github.com/users/web-flow/starred{/owner}{/repo}",
                "subscriptions_url": "https://api.github.com/users/web-flow/subscriptions",
                "type": "User",
                "url": "https://api.github.com/users/web-flow"
            },
            "html_url": "https://github.com/PrismarineJS/prismarine-windows/commit/7b3d3a77044ce290586e6d1b835be3c67febf72f",
            "node_id": "MDY6Q29tbWl0Mjc3NDQ3NTQxOjdiM2QzYTc3MDQ0Y2UyOTA1ODZlNmQxYjgzNWJlM2M2N2ZlYmY3MmY=",
            "parents": [
                {
                    "html_url": "https://github.com/PrismarineJS/prismarine-windows/commit/69eb1182ab773a71d7a28431972c6f09c5dbb421",
                    "sha": "69eb1182ab773a71d7a28431972c6f09c5dbb421",
                    "url": "https://api.github.com/repos/PrismarineJS/prismarine-windows/commits/69eb1182ab773a71d7a28431972c6f09c5dbb421"
                }
            ],
            "sha": "7b3d3a77044ce290586e6d1b835be3c67febf72f",
            "url": "https://api.github.com/repos/PrismarineJS/prismarine-windows/commits/7b3d3a77044ce290586e6d1b835be3c67febf72f"
        }
    ],
    "commits": 1,
    "commits_url": "https://api.github.com/repos/PrismarineJS/prismarine-windows/pulls/10/commits",
    "created_at": "2020-07-06T05:10:16Z",
    "deletions": 1,
    "diff_url": "https://github.com/PrismarineJS/prismarine-windows/pull/10.diff",
    "draft": false,
    "head": {
        "label": "DrakoTrogdor:patch-1",
        "ref": "patch-1",
        "repo": {
            "allow_forking": true,
            "archive_url": "https://api.github.com/repos/DrakoTrogdor/prismarine-windows/{archive_format}{/ref}",
            "archived": false,
            "assignees_url": "https://api.github.com/repos/DrakoTrogdor/prismarine-windows/assignees{/user}",
            "blobs_url": "https://api.github.com/repos/DrakoTrogdor/prismarine-windows/git/blobs{/sha}",
            "branches_url": "https://api.github.com/repos/DrakoTrogdor/prismarine-windows/branches{/branch}",
            "clone_url": "https://github.com/DrakoTrogdor/prismarine-windows.git",
            "collaborators_url": "https://api.github.com/repos/DrakoTrogdor/prismarine-windows/collaborators{/collaborator}",
            "comments_url": "https://api.github.com/repos/DrakoTrogdor/prismarine-windows/comments{/number}",
            "commits_url": "https://api.github.com/repos/DrakoTrogdor/prismarine-windows/commits{/sha}",
            "compare_url": "https://api.github.com/repos/DrakoTrogdor/prismarine-windows/compare/{base}...{head}",
            "contents_url": "https://api.github.com/repos/DrakoTrogdor/prismarine-windows/contents/{+path}",
            "contributors_url": "https://api.github.com/repos/DrakoTrogdor/prismarine-windows/contributors",
            "created_at": "2020-07-06T05:07:54Z",
            "default_branch": "master",
            "deployments_url": "https://api.github.com/repos/DrakoTrogdor/prismarine-windows/deployments",
            "description": "Represent minecraft windows",
            "disabled": false,
            "downloads_url": "https://api.github.com/repos/DrakoTrogdor/prismarine-windows/downloads",
            "events_url": "https://api.github.com/repos/DrakoTrogdor/prismarine-windows/events",
            "fork": true,
            "forks": 0,
            "forks_count": 0,
            "forks_url": "https://api.github.com/repos/DrakoTrogdor/prismarine-windows/forks",
            "full_name": "DrakoTrogdor/prismarine-windows",
            "git_commits_url": "https://api.github.com/repos/DrakoTrogdor/prismarine-windows/git/commits{/sha}",
            "git_refs_url": "https://api.github.com/repos/DrakoTrogdor/prismarine-windows/git/refs{/sha}",
            "git_tags_url": "https://api.github.com/repos/DrakoTrogdor/prismarine-windows/git/tags{/sha}",
            "git_url": "git://github.com/DrakoTrogdor/prismarine-windows.git",
            "has_discussions": false,
            "has_downloads": true,
            "has_issues": false,
            "has_pages": false,
            "has_projects": true,
            "has_wiki": true,
            "homepage": null,
            "hooks_url": "https://api.github.com/repos/DrakoTrogdor/prismarine-windows/hooks",
            "html_url": "https://github.com/DrakoTrogdor/prismarine-windows",
            "id": 277447541,
            "is_template": false,
            "issue_comment_url": "https://api.github.com/repos/DrakoTrogdor/prismarine-windows/issues/comments{/number}",
            "issue_events_url": "https://api.github.com/repos/DrakoTrogdor/prismarine-windows/issues/events{/number}",
            "issues_url": "https://api.github.com/repos/DrakoTrogdor/prismarine-windows/issues{/number}",
            "keys_url": "https://api.github.com/repos/DrakoTrogdor/prismarine-windows/keys{/key_id}",
            "labels_url": "https://api.github.com/repos/DrakoTrogdor/prismarine-windows/labels{/name}",
            "language": "JavaScript",
            "languages_url": "https://api.github.com/repos/DrakoTrogdor/prismarine-windows/languages",
            "license": null,
            "merges_url": "https://api.github.com/repos/DrakoTrogdor/prismarine-windows/merges",
            "milestones_url": "https://api.github.com/repos/DrakoTrogdor/prismarine-windows/milestones{/number}",
            "mirror_url": null,
            "name": "prismarine-windows",
            "node_id": "MDEwOlJlcG9zaXRvcnkyNzc0NDc1NDE=",
            "notifications_url": "https://api.github.com/repos/DrakoTrogdor/prismarine-windows/notifications{?since,all,participating}",
            "open_issues": 1,
            "open_issues_count": 1,
            "owner": {
                "avatar_url": "https://avatars.githubusercontent.com/u/11282242?v=4",
                "events_url": "https://api.github.com/users/DrakoTrogdor/events{/privacy}",
                "followers_url": "https://api.github.com/users/DrakoTrogdor/followers",
                "following_url": "https://api.github.com/users/DrakoTrogdor/following{/other_user}",
                "gists_url": "https://api.github.com/users/DrakoTrogdor/gists{/gist_id}",
                "gravatar_id": "",
                "html_url": "https://github.com/DrakoTrogdor",
                "id": 11282242,
                "login": "DrakoTrogdor",
                "node_id": "MDQ6VXNlcjExMjgyMjQy",
                "organizations_url": "https://api.github.com/users/DrakoTrogdor/orgs",
                "received_events_url": "https://api.github.com/users/DrakoTrogdor/received_events",
                "repos_url": "https://api.github.com/users/DrakoTrogdor/repos",
                "site_admin": false,
                "starred_url": "https://api.github.com/users/DrakoTrogdor/starred{/owner}{/repo}",
                "subscriptions_url": "https://api.github.com/users/DrakoTrogdor/subscriptions",
                "type": "User",
                "url": "https://api.github.com/users/DrakoTrogdor"
            },
            "private": false,
            "pulls_url": "https://api.github.com/repos/DrakoTrogdor/prismarine-windows/pulls{/number}",
            "pushed_at": "2023-03-06T02:59:21Z",
            "releases_url": "https://api.github.com/repos/DrakoTrogdor/prismarine-windows/releases{/id}",
            "size": 61,
            "ssh_url": "git@github.com:DrakoTrogdor/prismarine-windows.git",
            "stargazers_count": 0,
            "stargazers_url": "https://api.github.com/repos/DrakoTrogdor/prismarine-windows/stargazers",
            "statuses_url": "https://api.github.com/repos/DrakoTrogdor/prismarine-windows/statuses/{sha}",
            "subscribers_url": "https://api.github.com/repos/DrakoTrogdor/prismarine-windows/subscribers",
            "subscription_url": "https://api.github.com/repos/DrakoTrogdor/prismarine-windows/subscription",
            "svn_url": "https://github.com/DrakoTrogdor/prismarine-windows",
            "tags_url": "https://api.github.com/repos/DrakoTrogdor/prismarine-windows/tags",
            "teams_url": "https://api.github.com/repos/DrakoTrogdor/prismarine-windows/teams",
            "topics": [],
            "trees_url": "https://api.github.com/repos/DrakoTrogdor/prismarine-windows/git/trees{/sha}",
            "updated_at": "2022-07-11T14:12:20Z",
            "url": "https://api.github.com/repos/DrakoTrogdor/prismarine-windows",
            "visibility": "public",
            "watchers": 0,
            "watchers_count": 0,
            "web_commit_signoff_required": false
        },
        "sha": "7b3d3a77044ce290586e6d1b835be3c67febf72f",
        "user": {
            "avatar_url": "https://avatars.githubusercontent.com/u/11282242?v=4",
            "events_url": "https://api.github.com/users/DrakoTrogdor/events{/privacy}",
            "followers_url": "https://api.github.com/users/DrakoTrogdor/followers",
            "following_url": "https://api.github.com/users/DrakoTrogdor/following{/other_user}",
            "gists_url": "https://api.github.com/users/DrakoTrogdor/gists{/gist_id}",
            "gravatar_id": "",
            "html_url": "https://github.com/DrakoTrogdor",
            "id": 11282242,
            "login": "DrakoTrogdor",
            "node_id": "MDQ6VXNlcjExMjgyMjQy",
            "organizations_url": "https://api.github.com/users/DrakoTrogdor/orgs",
            "received_events_url": "https://api.github.com/users/DrakoTrogdor/received_events",
            "repos_url": "https://api.github.com/users/DrakoTrogdor/repos",
            "site_admin": false,
            "starred_url": "https://api.github.com/users/DrakoTrogdor/starred{/owner}{/repo}",
            "subscriptions_url": "https://api.github.com/users/DrakoTrogdor/subscriptions",
            "type": "User",
            "url": "https://api.github.com/users/DrakoTrogdor"
        }
    },
    "html_url": "https://github.com/PrismarineJS/prismarine-windows/pull/10",
    "id": 444539667,
    "issue_url": "https://api.github.com/repos/PrismarineJS/prismarine-windows/issues/10",
    "labels": [],
    "locked": false,
    "maintainer_can_modify": false,
    "merge_commit_sha": "bde9f4a94b15d4aa78bee65edb1f5dc914306a09",
    "mergeable": null,
    "mergeable_state": "unknown",
    "merged": true,
    "merged_at": "2020-07-06T19:34:14Z",
    "merged_by": {
        "avatar_url": "https://avatars.githubusercontent.com/u/2346494?v=4",
        "events_url": "https://api.github.com/users/rom1504/events{/privacy}",
        "followers_url": "https://api.github.com/users/rom1504/followers",
        "following_url": "https://api.github.com/users/rom1504/following{/other_user}",
        "gists_url": "https://api.github.com/users/rom1504/gists{/gist_id}",
        "gravatar_id": "",
        "html_url": "https://github.com/rom1504",
        "id": 2346494,
        "login": "rom1504",
        "node_id": "MDQ6VXNlcjIzNDY0OTQ=",
        "organizations_url": "https://api.github.com/users/rom1504/orgs",
        "received_events_url": "https://api.github.com/users/rom1504/received_events",
        "repos_url": "https://api.github.com/users/rom1504/repos",
        "site_admin": false,
        "starred_url": "https://api.github.com/users/rom1504/starred{/owner}{/repo}",
        "subscriptions_url": "https://api.github.com/users/rom1504/subscriptions",
        "type": "User",
        "url": "https://api.github.com/users/rom1504"
    },
    "milestone": null,
    "node_id": "MDExOlB1bGxSZXF1ZXN0NDQ0NTM5NjY3",
    "number": 10,
    "patch_url": "https://github.com/PrismarineJS/prismarine-windows/pull/10.patch",
    "rebaseable": null,
    "requested_reviewers": [],
    "requested_teams": [],
    "review_comment_url": "https://api.github.com/repos/PrismarineJS/prismarine-windows/pulls/comments{/number}",
    "review_comments": 0,
    "review_comments_url": "https://api.github.com/repos/PrismarineJS/prismarine-windows/pulls/10/comments",
    "state": "closed",
    "statuses_url": "https://api.github.com/repos/PrismarineJS/prismarine-windows/statuses/7b3d3a77044ce290586e6d1b835be3c67febf72f",
    "title": "Version 1.16 compatibility",
    "updated_at": "2020-07-06T19:51:52Z",
    "url": "https://api.github.com/repos/PrismarineJS/prismarine-windows/pulls/10",
    "user": {
        "avatar_url": "https://avatars.githubusercontent.com/u/11282242?v=4",
        "events_url": "https://api.github.com/users/DrakoTrogdor/events{/privacy}",
        "followers_url": "https://api.github.com/users/DrakoTrogdor/followers",
        "following_url": "https://api.github.com/users/DrakoTrogdor/following{/other_user}",
        "gists_url": "https://api.github.com/users/DrakoTrogdor/gists{/gist_id}",
        "gravatar_id": "",
        "html_url": "https://github.com/DrakoTrogdor",
        "id": 11282242,
        "login": "DrakoTrogdor",
        "node_id": "MDQ6VXNlcjExMjgyMjQy",
        "organizations_url": "https://api.github.com/users/DrakoTrogdor/orgs",
        "received_events_url": "https://api.github.com/users/DrakoTrogdor/received_events",
        "repos_url": "https://api.github.com/users/DrakoTrogdor/repos",
        "site_admin": false,
        "starred_url": "https://api.github.com/users/DrakoTrogdor/starred{/owner}{/repo}",
        "subscriptions_url": "https://api.github.com/users/DrakoTrogdor/subscriptions",
        "type": "User",
        "url": "https://api.github.com/users/DrakoTrogdor"
    }
}