{
    "_links": {
        "comments": {
            "href": "https://api.github.com/repos/PrismarineJS/prismarine-windows/issues/15/comments"
        },
        "commits": {
            "href": "https://api.github.com/repos/PrismarineJS/prismarine-windows/pulls/15/commits"
        },
        "html": {
            "href": "https://github.com/PrismarineJS/prismarine-windows/pull/15"
        },
        "issue": {
            "href": "https://api.github.com/repos/PrismarineJS/prismarine-windows/issues/15"
        },
        "review_comment": {
            "href": "https://api.github.com/repos/PrismarineJS/prismarine-windows/pulls/comments{/number}"
        },
        "review_comments": {
            "href": "https://api.github.com/repos/PrismarineJS/prismarine-windows/pulls/15/comments"
        },
        "self": {
            "href": "https://api.github.com/repos/PrismarineJS/prismarine-windows/pulls/15"
        },
        "statuses": {
            "href": "https://api.github.com/repos/PrismarineJS/prismarine-windows/statuses/f1e5806564e14cac6b348cb0a79a2af1772b153a"
        }
    },
    "active_lock_reason": null,
    "additions": 1,
    "assignee": null,
    "assignees": [],
    "author_association": "CONTRIBUTOR",
    "auto_merge": null,
    "base": {
        "label": "PrismarineJS:master",
        "ref": "master",
        "repo": {
            "allow_forking": true,
            "archive_url": "https://api.github.com/repos/PrismarineJS/prismarine-windows/{archive_format}{/ref}",
            "archived": false,
            "assignees_url": "https://api.github.com/repos/PrismarineJS/prismarine-windows/assignees{/user}",
            "blobs_url": "https://api.github.com/repos/PrismarineJS/prismarine-windows/git/blobs{/sha}",
            "branches_url": "https://api.github.com/repos/PrismarineJS/prismarine-windows/branches{/branch}",
            "clone_url": "https://github.com/PrismarineJS/prismarine-windows.git",
            "collaborators_url": "https://api.github.com/repos/PrismarineJS/prismarine-windows/collaborators{/collaborator}",
            "comments_url": "https://api.github.com/repos/PrismarineJS/prismarine-windows/comments{/number}",
            "commits_url": "https://api.github.com/repos/PrismarineJS/prismarine-windows/commits{/sha}",
            "compare_url": "https://api.github.com/repos/PrismarineJS/prismarine-windows/compare/{base}...{head}",
            "contents_url": "https://api.github.com/repos/PrismarineJS/prismarine-windows/contents/{+path}",
            "contributors_url": "https://api.github.com/repos/PrismarineJS/prismarine-windows/contributors",
            "created_at": "2015-11-22T16:54:19Z",
            "default_branch": "master",
            "deployments_url": "https://api.github.com/repos/PrismarineJS/prismarine-windows/deployments",
            "description": "Represent minecraft windows",
            "disabled": false,
            "downloads_url": "https://api.github.com/repos/PrismarineJS/prismarine-windows/downloads",
            "events_url": "https://api.github.com/repos/PrismarineJS/prismarine-windows/events",
            "fork": false,
            "forks": 22,
            "forks_count": 22,
            "forks_url": "https://api.github.com/repos/PrismarineJS/prismarine-windows/forks",
            "full_name": "PrismarineJS/prismarine-windows",
            "git_commits_url": "https://api.github.com/repos/PrismarineJS/prismarine-windows/git/commits{/sha}",
            "git_refs_url": "https://api.github.com/repos/PrismarineJS/prismarine-windows/git/refs{/sha}",
            "git_tags_url": "https://api.github.com/repos/PrismarineJS/prismarine-windows/git/tags{/sha}",
            "git_url": "git://github.com/PrismarineJS/prismarine-windows.git",
            "has_discussions": false,
            "has_downloads": true,
            "has_issues": true,
            "has_pages": false,
            "has_projects": true,
            "has_wiki": true,
            "homepage": null,
            "hooks_url": "https://api.github.com/repos/PrismarineJS/prismarine-windows/hooks",
            "html_url": "https://github.com/PrismarineJS/prismarine-windows",
            "id": 46670021,
            "is_template": false,
            "issue_comment_url": "https://api.github.com/repos/PrismarineJS/prismarine-windows/issues/comments{/number}",
            "issue_events_url": "https://api.github.com/repos/PrismarineJS/prismarine-windows/issues/events{/number}",
            "issues_url": "https://api.github.com/repos/PrismarineJS/prismarine-windows/issues{/number}",
            "keys_url": "https://api.github.com/repos/PrismarineJS/prismarine-windows/keys{/key_id}",
            "labels_url": "https://api.github.com/repos/PrismarineJS/prismarine-windows/labels{/name}",
            "language": "JavaScript",
            "languages_url": "https://api.github.com/repos/PrismarineJS/prismarine-windows/languages",
            "license": null,
            "merges_url": "https://api.github.com/repos/PrismarineJS/prismarine-windows/merges",
            "milestones_url": "https://api.github.com/repos/PrismarineJS/prismarine-windows/milestones{/number}",
            "mirror_url": null,
            "name": "prismarine-windows",
            "node_id": "MDEwOlJlcG9zaXRvcnk0NjY3MDAyMQ==",
            "notifications_url": "https://api.github.com/repos/PrismarineJS/prismarine-windows/notifications{?since,all,participating}",
            "open_issues": 11,
            "open_issues_count": 11,
            "owner": {
                "avatar_url": "https://avatars.githubusercontent.com/u/11053411?v=4",
                "events_url": "https://api.github.com/users/PrismarineJS/events{/privacy}",
                "followers_url": "https://api.github.com/users/PrismarineJS/followers",
                "following_url": "https://api.github.com/users/PrismarineJS/following{/other_user}",
                "gists_url": "https://api.github.com/users/PrismarineJS/gists{/gist_id}",
                "gravatar_id": "",
                "html_url": "https://github.com/PrismarineJS",
                "id": 11053411,
                "login": "PrismarineJS",
                "node_id": "MDEyOk9yZ2FuaXphdGlvbjExMDUzNDEx",
                "organizations_url": "https://api.github.com/users/PrismarineJS/orgs",
                "received_events_url": "https://api.github.com/users/PrismarineJS/received_events",
                "repos_url": "https://api.github.com/users/PrismarineJS/repos",
                "site_admin": false,
                "starred_url": "https://api.github.com/users/PrismarineJS/starred{/owner}{/repo}",
                "subscriptions_url": "https://api.github.com/users/PrismarineJS/subscriptions",
                "type": "Organization",
                "url": "https://api.github.com/users/PrismarineJS"
            },
            "private": false,
            "pulls_url": "https://api.github.com/repos/PrismarineJS/prismarine-windows/pulls{/number}",
            "pushed_at": "2023-04-08T15:30:23Z",
            "releases_url": "https://api.github.com/repos/PrismarineJS/prismarine-windows/releases{/id}",
            "size": 80,
            "ssh_url": "git@github.com:PrismarineJS/prismarine-windows.git",
            "stargazers_count": 28,
            "stargazers_url": "https://api.github.com/repos/PrismarineJS/prismarine-windows/stargazers",
            "statuses_url": "https://api.github.com/repos/PrismarineJS/prismarine-windows/statuses/{sha}",
            "subscribers_url": "https://api.github.com/repos/PrismarineJS/prismarine-windows/subscribers",
            "subscription_url": "https://api.github.com/repos/PrismarineJS/prismarine-windows/subscription",
            "svn_url": "https://github.com/PrismarineJS/prismarine-windows",
            "tags_url": "https://api.github.com/repos/PrismarineJS/prismarine-windows/tags",
            "teams_url": "https://api.github.com/repos/PrismarineJS/prismarine-windows/teams",
            "topics": [],
            "trees_url": "https://api.github.com/repos/PrismarineJS/prismarine-windows/git/trees{/sha}",
            "updated_at": "2023-04-05T14:48:35Z",
            "url": "https://api.github.com/repos/PrismarineJS/prismarine-windows",
            "visibility": "public",
            "watchers": 28,
            "watchers_count": 28,
            "web_commit_signoff_required": false
        },
        "sha": "6912a7733eb91255d4c90eee50bf3bbfffce59a6",
        "user": {
            "avatar_url": "https://avatars.githubusercontent.com/u/11053411?v=4",
            "events_url": "https://api.github.com/users/PrismarineJS/events{/privacy}",
            "followers_url": "https://api.github.com/users/PrismarineJS/followers",
            "following_url": "https://api.github.com/users/PrismarineJS/following{/other_user}",
            "gists_url": "https://api.github.com/users/PrismarineJS/gists{/gist_id}",
            "gravatar_id": "",
            "html_url": "https://github.com/PrismarineJS",
            "id": 11053411,
            "login": "PrismarineJS",
            "node_id": "MDEyOk9yZ2FuaXphdGlvbjExMDUzNDEx",
            "organizations_url": "https://api.github.com/users/PrismarineJS/orgs",
            "received_events_url": "https://api.github.com/users/PrismarineJS/received_events",
            "repos_url": "https://api.github.com/users/PrismarineJS/repos",
            "site_admin": false,
            "starred_url": "https://api.github.com/users/PrismarineJS/starred{/owner}{/repo}",
            "subscriptions_url": "https://api.github.com/users/PrismarineJS/subscriptions",
            "type": "Organization",
            "url": "https://api.github.com/users/PrismarineJS"
        }
    },
    "body": "Bumps [standard](https://github.com/standard/standard) from 15.0.1 to 16.0.0.\n<details>\n<summary>Changelog</summary>\n<p><em>Sourced from <a href=\"https://github.com/standard/standard/blob/master/CHANGELOG.md\">standard's changelog</a>.</em></p>\n<blockquote>\n<h2>[16.0.0] - 2020-10-28</h2>\n<p>We're super excited to announce <code>standard</code> 16!</p>\n<p>As with every new major release, there are lots of new rules in 16.0.0 designed\nto help catch bugs and make programmer intent more explicit. This release brings\nbetter performance, tons of bug fixes, improved JSX, React ⚛️, and Next.js support!</p>\n<p>When you upgrade, consider running <code>standard --fix</code> to automatically format your\ncode to match the newly added rules.</p>\n<p>❤️ If you enjoy StandardJS and want to support future releases, please\n<a href=\"https://github.com/users/feross/sponsorship\">support Feross</a>!</p>\n<h3>New features</h3>\n<ul>\n<li>\n<p>🏎 Better performance: the filesystem doesn't need to be traversed multiple times! <a href=\"https://github-redirect.dependabot.com/standard/standard/issues/1023\">#1023</a></p>\n<ul>\n<li>Massive improvements (on the order of minutes!) for projects with huge folders which are are ignored with <code>.gitignore</code></li>\n</ul>\n</li>\n<li>\n<p>🌟 Support the <code>.gitignore</code> ignore syntax from the command line <a href=\"https://github-redirect.dependabot.com/standard/standard/issues/1117\">#1117</a></p>\n<ul>\n<li>In older versions, the command <code>standard src</code> would not lint the <code>src/</code> folder</li>\n<li>Instead, a glob pattern needed like <code>standard src/**/*.js</code> was required</li>\n<li>This is now fixed! You can run <code>standard src</code> to lint the <code>src/</code> folder!</li>\n</ul>\n</li>\n<li>\n<p>🌟 Support relative paths from the command line (e.g. <code>standard ../src/*.js</code>) <a href=\"https://github-redirect.dependabot.com/standard/standard/issues/1384\">#1384</a></p>\n</li>\n<li>\n<p>🌟 New <code>extensions</code> option for linting additional extensions besides <code>.js</code>, <code>.jsx</code>, <code>.mjs</code>, and <code>.cjs</code></p>\n<ul>\n<li>\n<p>Can be configured with the <code>--ext</code> command line flag or in <code>package.json</code>:</p>\n</li>\n<li>\n<p>Example:</p>\n<pre lang=\"bash\"><code>standard --ext .ts\n</code></pre>\n<pre lang=\"json\"><code>{\n  &quot;standard&quot;: {\n    &quot;extensions&quot;: [&quot;.ts&quot;]\n  }\n}\n</code></pre>\n</li>\n</ul>\n</li>\n</ul>\n<h3>Changed features</h3>\n<ul>\n<li>\n<p>Update <code>eslint</code> from <code>~7.11.0</code> to <code>~7.12.1</code></p>\n</li>\n<li>\n<p>Update <code>standard-engine</code> from <code>^12</code> to <code>^14</code></p>\n<ul>\n<li>Fix inaccurate <code>--help</code> command which indicates that <code>bundle.js</code> is automatically ignored when it is not [standard-engine/<a href=\"https://github-redirect.dependabot.com/standard/standard/issues/224\">#224</a>](<a href=\"https://github-redirect.dependabot.com/standard/standard-engine/pull/224\">standard/standard-engine#224</a>)</li>\n<li>New cache directory location, respecting <code>XDG_CACHE_HOME</code> preference, with fallback to <code>~/.cache/standard</code> [standard-engine/<a href=\"https://github-redirect.dependabot.com/standard/standard/issues/214\">#214</a>](<a href=\"https://github-redirect.dependabot.com/standard/standard-engine/pull/214\">standard/standard-engine#214</a>)</li>\n<li>Remove <code>deglob</code> package and use built-in ESLint folder-traversal support</li>\n</ul>\n</li>\n</ul>\n<!-- raw HTML omitted -->\n</blockquote>\n</details>\n<details>\n<summary>Commits</summary>\n<ul>\n<li><a href=\"https://github.com/standard/standard/commit/81de7190133debadcb8bd2629770318892096f75\"><code>81de719</code></a> 16.0.0</li>\n<li><a href=\"https://github.com/standard/standard/commit/9f94f98b62bb72ffd609ea3a773e3feacd283d02\"><code>9f94f98</code></a> prep changelog for 16.0.0</li>\n<li><a href=\"https://github.com/standard/standard/commit/f5b298a9b5e80260ac3f62516e696f05c5c4c9ef\"><code>f5b298a</code></a> standard-engine@14</li>\n<li><a href=\"https://github.com/standard/standard/commit/9f73bf29e3fbf648816462a50d26d4e2fb0dfb1a\"><code>9f73bf2</code></a> eslint-config-standard-jsx@10</li>\n<li><a href=\"https://github.com/standard/standard/commit/0ce671d406a8fc98b0f3a712a99b37991b8cdeae\"><code>0ce671d</code></a> eslint-config-standard@16</li>\n<li><a href=\"https://github.com/standard/standard/commit/dfea036bf783a225857598f15f965c384e8058e3\"><code>dfea036</code></a> changelog</li>\n<li><a href=\"https://github.com/standard/standard/commit/c167c0abd9fd529f041e12de54d44fe0909355ef\"><code>c167c0a</code></a> disable failing repos for 'no-var' rule</li>\n<li><a href=\"https://github.com/standard/standard/commit/24ddf3f28f3bf3b4734066357817c30876d09c13\"><code>24ddf3f</code></a> changelog</li>\n<li><a href=\"https://github.com/standard/standard/commit/258ee488e931ac266b95998c2262a9b9d131573e\"><code>258ee48</code></a> disable no-var rule for cmd since it needs to run on all node versions</li>\n<li><a href=\"https://github.com/standard/standard/commit/59dc70e09efded4a8995c099cc14be53d6a1653f\"><code>59dc70e</code></a> remove eslint-plugin-standard</li>\n<li>Additional commits viewable in <a href=\"https://github.com/standard/standard/compare/v15.0.1...v16.0.0\">compare view</a></li>\n</ul>\n</details>\n<br />\n\n\n[![Dependabot compatibility score](https://api.dependabot.com/badges/compatibility_score?dependency-name=standard&package-manager=npm_and_yarn&previous-version=15.0.1&new-version=16.0.0)](https://dependabot.com/compatibility-score/?dependency-name=standard&package-manager=npm_and_yarn&previous-version=15.0.1&new-version=16.0.0)\n\nDependabot will resolve any conflicts with this PR as long as you don't alter it yourself. You can also trigger a rebase manually by commenting `@dependabot rebase`.\n\n[//]: # (dependabot-automerge-start)\n[//]: # (dependabot-automerge-end)\n\n---\n\n<details>\n<summary>Dependabot commands and options</summary>\n<br />\n\nYou can trigger Dependabot actions by commenting on this PR:\n- `@dependabot rebase` will rebase this PR\n- `@dependabot recreate` will recreate this PR, overwriting any edits that have been made to it\n- `@dependabot merge` will merge this PR after your CI passes on it\n- `@dependabot squash and merge` will squash and merge this PR after your CI passes on it\n- `@dependabot cancel merge` will cancel a previously requested merge and block automerging\n- `@dependabot reopen` will reopen this PR if it is closed\n- `@dependabot close` will close this PR and stop Dependabot recreating it. You can achieve the same result by closing it manually\n- `@dependabot ignore this major version` will close this PR and stop Dependabot creating any more for this major version (unless you reopen the PR or upgrade to it yourself)\n- `@dependabot ignore this minor version` will close this PR and stop Dependabot creating any more for this minor version (unless you reopen the PR or upgrade to it yourself)\n- `@dependabot ignore this dependency` will close this PR and stop Dependabot creating any more for this dependency (unless you reopen the PR or upgrade to it yourself)\n- `@dependabot use these labels` will set the current labels as the default for future PRs for this repo and language\n- `@dependabot use these reviewers` will set the current reviewers as the default for future PRs for this repo and language\n- `@dependabot use these assignees` will set the current assignees as the default for future PRs for this repo and language\n- `@dependabot use this milestone` will set the current milestone as the default for future PRs for this repo and language\n- `@dependabot badge me` will comment on this PR with code to add a \"Dependabot enabled\" badge to your readme\n\nAdditionally, you can set the following in your Dependabot [dashboard](https://app.dependabot.com):\n- Update frequency (including time of day and day of week)\n- Pull request limits (per update run and/or open at any time)\n- Out-of-range updates (receive only lockfile updates, if desired)\n- Security updates (receive only security updates, if desired)\n\n\n\n</details>",
    "changed_files": 1,
    "closed_at": "2020-10-31T14:51:05Z",
    "comment_data": [],
    "comment_regular_data": [
        {
            "author_association": "CONTRIBUTOR",
            "body": "Looks like standard is up-to-date now, so this is no longer needed.",
            "created_at": "2020-10-31T14:51:03Z",
            "html_url": "https://github.com/PrismarineJS/prismarine-windows/pull/15#issuecomment-719944165",
            "id": 719944165,
            "issue_url": "https://api.github.com/repos/PrismarineJS/prismarine-windows/issues/15",
            "node_id": "MDEyOklzc3VlQ29tbWVudDcxOTk0NDE2NQ==",
            "performed_via_github_app": null,
            "reactions": {
                "+1": 0,
                "-1": 0,
                "confused": 0,
                "eyes": 0,
                "heart": 0,
                "hooray": 0,
                "laugh": 0,
                "rocket": 0,
                "total_count": 0,
                "url": "https://api.github.com/repos/PrismarineJS/prismarine-windows/issues/comments/719944165/reactions"
            },
            "updated_at": "2020-10-31T14:51:03Z",
            "url": "https://api.github.com/repos/PrismarineJS/prismarine-windows/issues/comments/719944165",
            "user": {
                "avatar_url": "https://avatars.githubusercontent.com/in/2141?v=4",
                "events_url": "https://api.github.com/users/dependabot-preview%5Bbot%5D/events{/privacy}",
                "followers_url": "https://api.github.com/users/dependabot-preview%5Bbot%5D/followers",
                "following_url": "https://api.github.com/users/dependabot-preview%5Bbot%5D/following{/other_user}",
                "gists_url": "https://api.github.com/users/dependabot-preview%5Bbot%5D/gists{/gist_id}",
                "gravatar_id": "",
                "html_url": "https://github.com/apps/dependabot-preview",
                "id": 27856297,
                "login": "dependabot-preview[bot]",
                "node_id": "MDM6Qm90Mjc4NTYyOTc=",
                "organizations_url": "https://api.github.com/users/dependabot-preview%5Bbot%5D/orgs",
                "received_events_url": "https://api.github.com/users/dependabot-preview%5Bbot%5D/received_events",
                "repos_url": "https://api.github.com/users/dependabot-preview%5Bbot%5D/repos",
                "site_admin": false,
                "starred_url": "https://api.github.com/users/dependabot-preview%5Bbot%5D/starred{/owner}{/repo}",
                "subscriptions_url": "https://api.github.com/users/dependabot-preview%5Bbot%5D/subscriptions",
                "type": "Bot",
                "url": "https://api.github.com/users/dependabot-preview%5Bbot%5D"
            }
        }
    ],
    "comments": 1,
    "comments_url": "https://api.github.com/repos/PrismarineJS/prismarine-windows/issues/15/comments",
    "commit_data": [
        {
            "author": {
                "avatar_url": "https://avatars.githubusercontent.com/in/2141?v=4",
                "events_url": "https://api.github.com/users/dependabot-preview%5Bbot%5D/events{/privacy}",
                "followers_url": "https://api.github.com/users/dependabot-preview%5Bbot%5D/followers",
                "following_url": "https://api.github.com/users/dependabot-preview%5Bbot%5D/following{/other_user}",
                "gists_url": "https://api.github.com/users/dependabot-preview%5Bbot%5D/gists{/gist_id}",
                "gravatar_id": "",
                "html_url": "https://github.com/apps/dependabot-preview",
                "id": 27856297,
                "login": "dependabot-preview[bot]",
                "node_id": "MDM6Qm90Mjc4NTYyOTc=",
                "organizations_url": "https://api.github.com/users/dependabot-preview%5Bbot%5D/orgs",
                "received_events_url": "https://api.github.com/users/dependabot-preview%5Bbot%5D/received_events",
                "repos_url": "https://api.github.com/users/dependabot-preview%5Bbot%5D/repos",
                "site_admin": false,
                "starred_url": "https://api.github.com/users/dependabot-preview%5Bbot%5D/starred{/owner}{/repo}",
                "subscriptions_url": "https://api.github.com/users/dependabot-preview%5Bbot%5D/subscriptions",
                "type": "Bot",
                "url": "https://api.github.com/users/dependabot-preview%5Bbot%5D"
            },
            "comments_url": "https://api.github.com/repos/PrismarineJS/prismarine-windows/commits/f1e5806564e14cac6b348cb0a79a2af1772b153a/comments",
            "commit": {
                "author": {
                    "date": "2020-10-29T21:58:09Z",
                    "email": "27856297+dependabot-preview[bot]@users.noreply.github.com",
                    "name": "dependabot-preview[bot]"
                },
                "comment_count": 0,
                "committer": {
                    "date": "2020-10-29T21:58:09Z",
                    "email": "noreply@github.com",
                    "name": "GitHub"
                },
                "message": "Bump standard from 15.0.1 to 16.0.0\n\nBumps [standard](https://github.com/standard/standard) from 15.0.1 to 16.0.0.\n- [Release notes](https://github.com/standard/standard/releases)\n- [Changelog](https://github.com/standard/standard/blob/master/CHANGELOG.md)\n- [Commits](https://github.com/standard/standard/compare/v15.0.1...v16.0.0)\n\nSigned-off-by: dependabot-preview[bot] <support@dependabot.com>",
                "tree": {
                    "sha": "5720c903804ae3c9446e70e66b6b06f0a012f0c9",
                    "url": "https://api.github.com/repos/PrismarineJS/prismarine-windows/git/trees/5720c903804ae3c9446e70e66b6b06f0a012f0c9"
                },
                "url": "https://api.github.com/repos/PrismarineJS/prismarine-windows/git/commits/f1e5806564e14cac6b348cb0a79a2af1772b153a",
                "verification": {
                    "payload": "tree 5720c903804ae3c9446e70e66b6b06f0a012f0c9\nparent 6912a7733eb91255d4c90eee50bf3bbfffce59a6\nauthor dependabot-preview[bot] <27856297+dependabot-preview[bot]@users.noreply.github.com> 1604008689 +0000\ncommitter GitHub <noreply@github.com> 1604008689 +0000\n\nBump standard from 15.0.1 to 16.0.0\n\nBumps [standard](https://github.com/standard/standard) from 15.0.1 to 16.0.0.\n- [Release notes](https://github.com/standard/standard/releases)\n- [Changelog](https://github.com/standard/standard/blob/master/CHANGELOG.md)\n- [Commits](https://github.com/standard/standard/compare/v15.0.1...v16.0.0)\n\nSigned-off-by: dependabot-preview[bot] <support@dependabot.com>",
                    "reason": "valid",
                    "signature": "-----BEGIN PGP SIGNATURE-----\n\nwsBcBAABCAAQBQJfmzrxCRBK7hj4Ov3rIwAAdHIIAGNHqqvmw+upKSuy3eJSGKMh\nvAgDvo+j8WLDVfCnvRxq+5gUO7T5ps6jWLX4jNzrCLEVXUjaimClMSpzgkR8Bd0P\ngcW+uudNt/ud1t4NqWND0nqkNUoz7pL2Aupz6Dg82Q58eD/tbRBu39yyIvgIXMUh\nYfdkCvSwRar5Z1z6kOVInm7qZ66m4OtV6j8Ryw9In6UpBryGoVO4rHJ46qHkkytI\nCDGeiTlaXzPmJs+Kc09DGA7iHG3xnx5VKyOFSb+Egd5D16TBEcls1+V0rGTxpbv1\nltdB/xGK0fBwJ25ek156ZD+XELG1OrlLzhT6bgSnfqs95j8LzFxOWG4yhNlwlrU=\n=fyja\n-----END PGP SIGNATURE-----\n",
                    "verified": true
                }
            },
            "committer": {
                "avatar_url": "https://avatars.githubusercontent.com/u/19864447?v=4",
                "events_url": "https://api.github.com/users/web-flow/events{/privacy}",
                "followers_url": "https://api.github.com/users/web-flow/followers",
                "following_url": "https://api.github.com/users/web-flow/following{/other_user}",
                "gists_url": "https://api.github.com/users/web-flow/gists{/gist_id}",
                "gravatar_id": "",
                "html_url": "https://github.com/web-flow",
                "id": 19864447,
                "login": "web-flow",
                "node_id": "MDQ6VXNlcjE5ODY0NDQ3",
                "organizations_url": "https://api.github.com/users/web-flow/orgs",
                "received_events_url": "https://api.github.com/users/web-flow/received_events",
                "repos_url": "https://api.github.com/users/web-flow/repos",
                "site_admin": false,
                "starred_url": "https://api.github.com/users/web-flow/starred{/owner}{/repo}",
                "subscriptions_url": "https://api.github.com/users/web-flow/subscriptions",
                "type": "User",
                "url": "https://api.github.com/users/web-flow"
            },
            "html_url": "https://github.com/PrismarineJS/prismarine-windows/commit/f1e5806564e14cac6b348cb0a79a2af1772b153a",
            "node_id": "MDY6Q29tbWl0NDY2NzAwMjE6ZjFlNTgwNjU2NGUxNGNhYzZiMzQ4Y2IwYTc5YTJhZjE3NzJiMTUzYQ==",
            "parents": [
                {
                    "html_url": "https://github.com/PrismarineJS/prismarine-windows/commit/6912a7733eb91255d4c90eee50bf3bbfffce59a6",
                    "sha": "6912a7733eb91255d4c90eee50bf3bbfffce59a6",
                    "url": "https://api.github.com/repos/PrismarineJS/prismarine-windows/commits/6912a7733eb91255d4c90eee50bf3bbfffce59a6"
                }
            ],
            "sha": "f1e5806564e14cac6b348cb0a79a2af1772b153a",
            "url": "https://api.github.com/repos/PrismarineJS/prismarine-windows/commits/f1e5806564e14cac6b348cb0a79a2af1772b153a"
        }
    ],
    "commits": 1,
    "commits_url": "https://api.github.com/repos/PrismarineJS/prismarine-windows/pulls/15/commits",
    "created_at": "2020-10-29T21:58:10Z",
    "deletions": 1,
    "diff_url": "https://github.com/PrismarineJS/prismarine-windows/pull/15.diff",
    "draft": false,
    "head": {
        "label": "PrismarineJS:dependabot/npm_and_yarn/standard-16.0.0",
        "ref": "dependabot/npm_and_yarn/standard-16.0.0",
        "repo": {
            "allow_forking": true,
            "archive_url": "https://api.github.com/repos/PrismarineJS/prismarine-windows/{archive_format}{/ref}",
            "archived": false,
            "assignees_url": "https://api.github.com/repos/PrismarineJS/prismarine-windows/assignees{/user}",
            "blobs_url": "https://api.github.com/repos/PrismarineJS/prismarine-windows/git/blobs{/sha}",
            "branches_url": "https://api.github.com/repos/PrismarineJS/prismarine-windows/branches{/branch}",
            "clone_url": "https://github.com/PrismarineJS/prismarine-windows.git",
            "collaborators_url": "https://api.github.com/repos/PrismarineJS/prismarine-windows/collaborators{/collaborator}",
            "comments_url": "https://api.github.com/repos/PrismarineJS/prismarine-windows/comments{/number}",
            "commits_url": "https://api.github.com/repos/PrismarineJS/prismarine-windows/commits{/sha}",
            "compare_url": "https://api.github.com/repos/PrismarineJS/prismarine-windows/compare/{base}...{head}",
            "contents_url": "https://api.github.com/repos/PrismarineJS/prismarine-windows/contents/{+path}",
            "contributors_url": "https://api.github.com/repos/PrismarineJS/prismarine-windows/contributors",
            "created_at": "2015-11-22T16:54:19Z",
            "default_branch": "master",
            "deployments_url": "https://api.github.com/repos/PrismarineJS/prismarine-windows/deployments",
            "description": "Represent minecraft windows",
            "disabled": false,
            "downloads_url": "https://api.github.com/repos/PrismarineJS/prismarine-windows/downloads",
            "events_url": "https://api.github.com/repos/PrismarineJS/prismarine-windows/events",
            "fork": false,
            "forks": 22,
            "forks_count": 22,
            "forks_url": "https://api.github.com/repos/PrismarineJS/prismarine-windows/forks",
            "full_name": "PrismarineJS/prismarine-windows",
            "git_commits_url": "https://api.github.com/repos/PrismarineJS/prismarine-windows/git/commits{/sha}",
            "git_refs_url": "https://api.github.com/repos/PrismarineJS/prismarine-windows/git/refs{/sha}",
            "git_tags_url": "https://api.github.com/repos/PrismarineJS/prismarine-windows/git/tags{/sha}",
            "git_url": "git://github.com/PrismarineJS/prismarine-windows.git",
            "has_discussions": false,
            "has_downloads": true,
            "has_issues": true,
            "has_pages": false,
            "has_projects": true,
            "has_wiki": true,
            "homepage": null,
            "hooks_url": "https://api.github.com/repos/PrismarineJS/prismarine-windows/hooks",
            "html_url": "https://github.com/PrismarineJS/prismarine-windows",
            "id": 46670021,
            "is_template": false,
            "issue_comment_url": "https://api.github.com/repos/PrismarineJS/prismarine-windows/issues/comments{/number}",
            "issue_events_url": "https://api.github.com/repos/PrismarineJS/prismarine-windows/issues/events{/number}",
            "issues_url": "https://api.github.com/repos/PrismarineJS/prismarine-windows/issues{/number}",
            "keys_url": "https://api.github.com/repos/PrismarineJS/prismarine-windows/keys{/key_id}",
            "labels_url": "https://api.github.com/repos/PrismarineJS/prismarine-windows/labels{/name}",
            "language": "JavaScript",
            "languages_url": "https://api.github.com/repos/PrismarineJS/prismarine-windows/languages",
            "license": null,
            "merges_url": "https://api.github.com/repos/PrismarineJS/prismarine-windows/merges",
            "milestones_url": "https://api.github.com/repos/PrismarineJS/prismarine-windows/milestones{/number}",
            "mirror_url": null,
            "name": "prismarine-windows",
            "node_id": "MDEwOlJlcG9zaXRvcnk0NjY3MDAyMQ==",
            "notifications_url": "https://api.github.com/repos/PrismarineJS/prismarine-windows/notifications{?since,all,participating}",
            "open_issues": 11,
            "open_issues_count": 11,
            "owner": {
                "avatar_url": "https://avatars.githubusercontent.com/u/11053411?v=4",
                "events_url": "https://api.github.com/users/PrismarineJS/events{/privacy}",
                "followers_url": "https://api.github.com/users/PrismarineJS/followers",
                "following_url": "https://api.github.com/users/PrismarineJS/following{/other_user}",
                "gists_url": "https://api.github.com/users/PrismarineJS/gists{/gist_id}",
                "gravatar_id": "",
                "html_url": "https://github.com/PrismarineJS",
                "id": 11053411,
                "login": "PrismarineJS",
                "node_id": "MDEyOk9yZ2FuaXphdGlvbjExMDUzNDEx",
                "organizations_url": "https://api.github.com/users/PrismarineJS/orgs",
                "received_events_url": "https://api.github.com/users/PrismarineJS/received_events",
                "repos_url": "https://api.github.com/users/PrismarineJS/repos",
                "site_admin": false,
                "starred_url": "https://api.github.com/users/PrismarineJS/starred{/owner}{/repo}",
                "subscriptions_url": "https://api.github.com/users/PrismarineJS/subscriptions",
                "type": "Organization",
                "url": "https://api.github.com/users/PrismarineJS"
            },
            "private": false,
            "pulls_url": "https://api.github.com/repos/PrismarineJS/prismarine-windows/pulls{/number}",
            "pushed_at": "2023-04-08T15:30:23Z",
            "releases_url": "https://api.github.com/repos/PrismarineJS/prismarine-windows/releases{/id}",
            "size": 80,
            "ssh_url": "git@github.com:PrismarineJS/prismarine-windows.git",
            "stargazers_count": 28,
            "stargazers_url": "https://api.github.com/repos/PrismarineJS/prismarine-windows/stargazers",
            "statuses_url": "https://api.github.com/repos/PrismarineJS/prismarine-windows/statuses/{sha}",
            "subscribers_url": "https://api.github.com/repos/PrismarineJS/prismarine-windows/subscribers",
            "subscription_url": "https://api.github.com/repos/PrismarineJS/prismarine-windows/subscription",
            "svn_url": "https://github.com/PrismarineJS/prismarine-windows",
            "tags_url": "https://api.github.com/repos/PrismarineJS/prismarine-windows/tags",
            "teams_url": "https://api.github.com/repos/PrismarineJS/prismarine-windows/teams",
            "topics": [],
            "trees_url": "https://api.github.com/repos/PrismarineJS/prismarine-windows/git/trees{/sha}",
            "updated_at": "2023-04-05T14:48:35Z",
            "url": "https://api.github.com/repos/PrismarineJS/prismarine-windows",
            "visibility": "public",
            "watchers": 28,
            "watchers_count": 28,
            "web_commit_signoff_required": false
        },
        "sha": "f1e5806564e14cac6b348cb0a79a2af1772b153a",
        "user": {
            "avatar_url": "https://avatars.githubusercontent.com/u/11053411?v=4",
            "events_url": "https://api.github.com/users/PrismarineJS/events{/privacy}",
            "followers_url": "https://api.github.com/users/PrismarineJS/followers",
            "following_url": "https://api.github.com/users/PrismarineJS/following{/other_user}",
            "gists_url": "https://api.github.com/users/PrismarineJS/gists{/gist_id}",
            "gravatar_id": "",
            "html_url": "https://github.com/PrismarineJS",
            "id": 11053411,
            "login": "PrismarineJS",
            "node_id": "MDEyOk9yZ2FuaXphdGlvbjExMDUzNDEx",
            "organizations_url": "https://api.github.com/users/PrismarineJS/orgs",
            "received_events_url": "https://api.github.com/users/PrismarineJS/received_events",
            "repos_url": "https://api.github.com/users/PrismarineJS/repos",
            "site_admin": false,
            "starred_url": "https://api.github.com/users/PrismarineJS/starred{/owner}{/repo}",
            "subscriptions_url": "https://api.github.com/users/PrismarineJS/subscriptions",
            "type": "Organization",
            "url": "https://api.github.com/users/PrismarineJS"
        }
    },
    "html_url": "https://github.com/PrismarineJS/prismarine-windows/pull/15",
    "id": 512593803,
    "issue_url": "https://api.github.com/repos/PrismarineJS/prismarine-windows/issues/15",
    "labels": [
        {
            "color": "0366d6",
            "default": false,
            "description": "Pull requests that update a dependency file",
            "id": 2448253254,
            "name": "dependencies",
            "node_id": "MDU6TGFiZWwyNDQ4MjUzMjU0",
            "url": "https://api.github.com/repos/PrismarineJS/prismarine-windows/labels/dependencies"
        }
    ],
    "locked": false,
    "maintainer_can_modify": false,
    "merge_commit_sha": "5bacdb16a194d75b17b0dea5134df7647a777a47",
    "mergeable": false,
    "mergeable_state": "dirty",
    "merged": false,
    "merged_at": null,
    "merged_by": null,
    "milestone": null,
    "node_id": "MDExOlB1bGxSZXF1ZXN0NTEyNTkzODAz",
    "number": 15,
    "patch_url": "https://github.com/PrismarineJS/prismarine-windows/pull/15.patch",
    "rebaseable": false,
    "requested_reviewers": [],
    "requested_teams": [],
    "review_comment_url": "https://api.github.com/repos/PrismarineJS/prismarine-windows/pulls/comments{/number}",
    "review_comments": 0,
    "review_comments_url": "https://api.github.com/repos/PrismarineJS/prismarine-windows/pulls/15/comments",
    "state": "closed",
    "statuses_url": "https://api.github.com/repos/PrismarineJS/prismarine-windows/statuses/f1e5806564e14cac6b348cb0a79a2af1772b153a",
    "title": "Bump standard from 15.0.1 to 16.0.0",
    "updated_at": "2020-10-31T14:51:07Z",
    "url": "https://api.github.com/repos/PrismarineJS/prismarine-windows/pulls/15",
    "user": {
        "avatar_url": "https://avatars.githubusercontent.com/in/2141?v=4",
        "events_url": "https://api.github.com/users/dependabot-preview%5Bbot%5D/events{/privacy}",
        "followers_url": "https://api.github.com/users/dependabot-preview%5Bbot%5D/followers",
        "following_url": "https://api.github.com/users/dependabot-preview%5Bbot%5D/following{/other_user}",
        "gists_url": "https://api.github.com/users/dependabot-preview%5Bbot%5D/gists{/gist_id}",
        "gravatar_id": "",
        "html_url": "https://github.com/apps/dependabot-preview",
        "id": 27856297,
        "login": "dependabot-preview[bot]",
        "node_id": "MDM6Qm90Mjc4NTYyOTc=",
        "organizations_url": "https://api.github.com/users/dependabot-preview%5Bbot%5D/orgs",
        "received_events_url": "https://api.github.com/users/dependabot-preview%5Bbot%5D/received_events",
        "repos_url": "https://api.github.com/users/dependabot-preview%5Bbot%5D/repos",
        "site_admin": false,
        "starred_url": "https://api.github.com/users/dependabot-preview%5Bbot%5D/starred{/owner}{/repo}",
        "subscriptions_url": "https://api.github.com/users/dependabot-preview%5Bbot%5D/subscriptions",
        "type": "Bot",
        "url": "https://api.github.com/users/dependabot-preview%5Bbot%5D"
    }
}