{
    "_links": {
        "comments": {
            "href": "https://api.github.com/repos/PrismarineJS/prismarine-windows/issues/77/comments"
        },
        "commits": {
            "href": "https://api.github.com/repos/PrismarineJS/prismarine-windows/pulls/77/commits"
        },
        "html": {
            "href": "https://github.com/PrismarineJS/prismarine-windows/pull/77"
        },
        "issue": {
            "href": "https://api.github.com/repos/PrismarineJS/prismarine-windows/issues/77"
        },
        "review_comment": {
            "href": "https://api.github.com/repos/PrismarineJS/prismarine-windows/pulls/comments{/number}"
        },
        "review_comments": {
            "href": "https://api.github.com/repos/PrismarineJS/prismarine-windows/pulls/77/comments"
        },
        "self": {
            "href": "https://api.github.com/repos/PrismarineJS/prismarine-windows/pulls/77"
        },
        "statuses": {
            "href": "https://api.github.com/repos/PrismarineJS/prismarine-windows/statuses/dc898e0b0aad7e54f7bf06d7e4c183bf4bce7e5a"
        }
    },
    "active_lock_reason": null,
    "additions": 11,
    "assignee": null,
    "assignees": [],
    "author_association": "CONTRIBUTOR",
    "auto_merge": null,
    "base": {
        "label": "PrismarineJS:master",
        "ref": "master",
        "repo": {
            "allow_forking": true,
            "archive_url": "https://api.github.com/repos/PrismarineJS/prismarine-windows/{archive_format}{/ref}",
            "archived": false,
            "assignees_url": "https://api.github.com/repos/PrismarineJS/prismarine-windows/assignees{/user}",
            "blobs_url": "https://api.github.com/repos/PrismarineJS/prismarine-windows/git/blobs{/sha}",
            "branches_url": "https://api.github.com/repos/PrismarineJS/prismarine-windows/branches{/branch}",
            "clone_url": "https://github.com/PrismarineJS/prismarine-windows.git",
            "collaborators_url": "https://api.github.com/repos/PrismarineJS/prismarine-windows/collaborators{/collaborator}",
            "comments_url": "https://api.github.com/repos/PrismarineJS/prismarine-windows/comments{/number}",
            "commits_url": "https://api.github.com/repos/PrismarineJS/prismarine-windows/commits{/sha}",
            "compare_url": "https://api.github.com/repos/PrismarineJS/prismarine-windows/compare/{base}...{head}",
            "contents_url": "https://api.github.com/repos/PrismarineJS/prismarine-windows/contents/{+path}",
            "contributors_url": "https://api.github.com/repos/PrismarineJS/prismarine-windows/contributors",
            "created_at": "2015-11-22T16:54:19Z",
            "default_branch": "master",
            "deployments_url": "https://api.github.com/repos/PrismarineJS/prismarine-windows/deployments",
            "description": "Represent minecraft windows",
            "disabled": false,
            "downloads_url": "https://api.github.com/repos/PrismarineJS/prismarine-windows/downloads",
            "events_url": "https://api.github.com/repos/PrismarineJS/prismarine-windows/events",
            "fork": false,
            "forks": 22,
            "forks_count": 22,
            "forks_url": "https://api.github.com/repos/PrismarineJS/prismarine-windows/forks",
            "full_name": "PrismarineJS/prismarine-windows",
            "git_commits_url": "https://api.github.com/repos/PrismarineJS/prismarine-windows/git/commits{/sha}",
            "git_refs_url": "https://api.github.com/repos/PrismarineJS/prismarine-windows/git/refs{/sha}",
            "git_tags_url": "https://api.github.com/repos/PrismarineJS/prismarine-windows/git/tags{/sha}",
            "git_url": "git://github.com/PrismarineJS/prismarine-windows.git",
            "has_discussions": false,
            "has_downloads": true,
            "has_issues": true,
            "has_pages": false,
            "has_projects": true,
            "has_wiki": true,
            "homepage": null,
            "hooks_url": "https://api.github.com/repos/PrismarineJS/prismarine-windows/hooks",
            "html_url": "https://github.com/PrismarineJS/prismarine-windows",
            "id": 46670021,
            "is_template": false,
            "issue_comment_url": "https://api.github.com/repos/PrismarineJS/prismarine-windows/issues/comments{/number}",
            "issue_events_url": "https://api.github.com/repos/PrismarineJS/prismarine-windows/issues/events{/number}",
            "issues_url": "https://api.github.com/repos/PrismarineJS/prismarine-windows/issues{/number}",
            "keys_url": "https://api.github.com/repos/PrismarineJS/prismarine-windows/keys{/key_id}",
            "labels_url": "https://api.github.com/repos/PrismarineJS/prismarine-windows/labels{/name}",
            "language": "JavaScript",
            "languages_url": "https://api.github.com/repos/PrismarineJS/prismarine-windows/languages",
            "license": null,
            "merges_url": "https://api.github.com/repos/PrismarineJS/prismarine-windows/merges",
            "milestones_url": "https://api.github.com/repos/PrismarineJS/prismarine-windows/milestones{/number}",
            "mirror_url": null,
            "name": "prismarine-windows",
            "node_id": "MDEwOlJlcG9zaXRvcnk0NjY3MDAyMQ==",
            "notifications_url": "https://api.github.com/repos/PrismarineJS/prismarine-windows/notifications{?since,all,participating}",
            "open_issues": 11,
            "open_issues_count": 11,
            "owner": {
                "avatar_url": "https://avatars.githubusercontent.com/u/11053411?v=4",
                "events_url": "https://api.github.com/users/PrismarineJS/events{/privacy}",
                "followers_url": "https://api.github.com/users/PrismarineJS/followers",
                "following_url": "https://api.github.com/users/PrismarineJS/following{/other_user}",
                "gists_url": "https://api.github.com/users/PrismarineJS/gists{/gist_id}",
                "gravatar_id": "",
                "html_url": "https://github.com/PrismarineJS",
                "id": 11053411,
                "login": "PrismarineJS",
                "node_id": "MDEyOk9yZ2FuaXphdGlvbjExMDUzNDEx",
                "organizations_url": "https://api.github.com/users/PrismarineJS/orgs",
                "received_events_url": "https://api.github.com/users/PrismarineJS/received_events",
                "repos_url": "https://api.github.com/users/PrismarineJS/repos",
                "site_admin": false,
                "starred_url": "https://api.github.com/users/PrismarineJS/starred{/owner}{/repo}",
                "subscriptions_url": "https://api.github.com/users/PrismarineJS/subscriptions",
                "type": "Organization",
                "url": "https://api.github.com/users/PrismarineJS"
            },
            "private": false,
            "pulls_url": "https://api.github.com/repos/PrismarineJS/prismarine-windows/pulls{/number}",
            "pushed_at": "2023-04-08T15:30:23Z",
            "releases_url": "https://api.github.com/repos/PrismarineJS/prismarine-windows/releases{/id}",
            "size": 80,
            "ssh_url": "git@github.com:PrismarineJS/prismarine-windows.git",
            "stargazers_count": 28,
            "stargazers_url": "https://api.github.com/repos/PrismarineJS/prismarine-windows/stargazers",
            "statuses_url": "https://api.github.com/repos/PrismarineJS/prismarine-windows/statuses/{sha}",
            "subscribers_url": "https://api.github.com/repos/PrismarineJS/prismarine-windows/subscribers",
            "subscription_url": "https://api.github.com/repos/PrismarineJS/prismarine-windows/subscription",
            "svn_url": "https://github.com/PrismarineJS/prismarine-windows",
            "tags_url": "https://api.github.com/repos/PrismarineJS/prismarine-windows/tags",
            "teams_url": "https://api.github.com/repos/PrismarineJS/prismarine-windows/teams",
            "topics": [],
            "trees_url": "https://api.github.com/repos/PrismarineJS/prismarine-windows/git/trees{/sha}",
            "updated_at": "2023-04-05T14:48:35Z",
            "url": "https://api.github.com/repos/PrismarineJS/prismarine-windows",
            "visibility": "public",
            "watchers": 28,
            "watchers_count": 28,
            "web_commit_signoff_required": false
        },
        "sha": "c4210892a439fe4ec23a350c18c5105808f0c2d8",
        "user": {
            "avatar_url": "https://avatars.githubusercontent.com/u/11053411?v=4",
            "events_url": "https://api.github.com/users/PrismarineJS/events{/privacy}",
            "followers_url": "https://api.github.com/users/PrismarineJS/followers",
            "following_url": "https://api.github.com/users/PrismarineJS/following{/other_user}",
            "gists_url": "https://api.github.com/users/PrismarineJS/gists{/gist_id}",
            "gravatar_id": "",
            "html_url": "https://github.com/PrismarineJS",
            "id": 11053411,
            "login": "PrismarineJS",
            "node_id": "MDEyOk9yZ2FuaXphdGlvbjExMDUzNDEx",
            "organizations_url": "https://api.github.com/users/PrismarineJS/orgs",
            "received_events_url": "https://api.github.com/users/PrismarineJS/received_events",
            "repos_url": "https://api.github.com/users/PrismarineJS/repos",
            "site_admin": false,
            "starred_url": "https://api.github.com/users/PrismarineJS/starred{/owner}{/repo}",
            "subscriptions_url": "https://api.github.com/users/PrismarineJS/subscriptions",
            "type": "Organization",
            "url": "https://api.github.com/users/PrismarineJS"
        }
    },
    "body": "https://github.com/PrismarineJS/mineflayer/issues/2450\r\n\r\ncomments in preparation to this:\r\nhttps://github.com/PrismarineJS/mineflayer/issues/1392",
    "changed_files": 2,
    "closed_at": "2022-10-12T21:46:42Z",
    "comment_data": [],
    "comment_regular_data": [],
    "comments": 0,
    "comments_url": "https://api.github.com/repos/PrismarineJS/prismarine-windows/issues/77/comments",
    "commit_data": [
        {
            "author": {
                "avatar_url": "https://avatars.githubusercontent.com/u/96730122?v=4",
                "events_url": "https://api.github.com/users/Epirito/events{/privacy}",
                "followers_url": "https://api.github.com/users/Epirito/followers",
                "following_url": "https://api.github.com/users/Epirito/following{/other_user}",
                "gists_url": "https://api.github.com/users/Epirito/gists{/gist_id}",
                "gravatar_id": "",
                "html_url": "https://github.com/Epirito",
                "id": 96730122,
                "login": "Epirito",
                "node_id": "U_kgDOBcP8Cg",
                "organizations_url": "https://api.github.com/users/Epirito/orgs",
                "received_events_url": "https://api.github.com/users/Epirito/received_events",
                "repos_url": "https://api.github.com/users/Epirito/repos",
                "site_admin": false,
                "starred_url": "https://api.github.com/users/Epirito/starred{/owner}{/repo}",
                "subscriptions_url": "https://api.github.com/users/Epirito/subscriptions",
                "type": "User",
                "url": "https://api.github.com/users/Epirito"
            },
            "comments_url": "https://api.github.com/repos/PrismarineJS/prismarine-windows/commits/8f78d173b35051ae9beb6f13c3bd0ef61df4a072/comments",
            "commit": {
                "author": {
                    "date": "2022-10-12T16:10:25Z",
                    "email": "96730122+Epirito@users.noreply.github.com",
                    "name": "Epirito"
                },
                "comment_count": 0,
                "committer": {
                    "date": "2022-10-12T16:10:25Z",
                    "email": "96730122+Epirito@users.noreply.github.com",
                    "name": "Epirito"
                },
                "message": "mcData to registry refactoring",
                "tree": {
                    "sha": "5862d0f3a2ca141a0b7b5725431d0fd8190338ae",
                    "url": "https://api.github.com/repos/PrismarineJS/prismarine-windows/git/trees/5862d0f3a2ca141a0b7b5725431d0fd8190338ae"
                },
                "url": "https://api.github.com/repos/PrismarineJS/prismarine-windows/git/commits/8f78d173b35051ae9beb6f13c3bd0ef61df4a072",
                "verification": {
                    "payload": null,
                    "reason": "unsigned",
                    "signature": null,
                    "verified": false
                }
            },
            "committer": {
                "avatar_url": "https://avatars.githubusercontent.com/u/96730122?v=4",
                "events_url": "https://api.github.com/users/Epirito/events{/privacy}",
                "followers_url": "https://api.github.com/users/Epirito/followers",
                "following_url": "https://api.github.com/users/Epirito/following{/other_user}",
                "gists_url": "https://api.github.com/users/Epirito/gists{/gist_id}",
                "gravatar_id": "",
                "html_url": "https://github.com/Epirito",
                "id": 96730122,
                "login": "Epirito",
                "node_id": "U_kgDOBcP8Cg",
                "organizations_url": "https://api.github.com/users/Epirito/orgs",
                "received_events_url": "https://api.github.com/users/Epirito/received_events",
                "repos_url": "https://api.github.com/users/Epirito/repos",
                "site_admin": false,
                "starred_url": "https://api.github.com/users/Epirito/starred{/owner}{/repo}",
                "subscriptions_url": "https://api.github.com/users/Epirito/subscriptions",
                "type": "User",
                "url": "https://api.github.com/users/Epirito"
            },
            "html_url": "https://github.com/PrismarineJS/prismarine-windows/commit/8f78d173b35051ae9beb6f13c3bd0ef61df4a072",
            "node_id": "C_kwDOAsggxdoAKDhmNzhkMTczYjM1MDUxYWU5YmViNmYxM2MzYmQwZWY2MWRmNGEwNzI",
            "parents": [
                {
                    "html_url": "https://github.com/PrismarineJS/prismarine-windows/commit/c4210892a439fe4ec23a350c18c5105808f0c2d8",
                    "sha": "c4210892a439fe4ec23a350c18c5105808f0c2d8",
                    "url": "https://api.github.com/repos/PrismarineJS/prismarine-windows/commits/c4210892a439fe4ec23a350c18c5105808f0c2d8"
                }
            ],
            "sha": "8f78d173b35051ae9beb6f13c3bd0ef61df4a072",
            "url": "https://api.github.com/repos/PrismarineJS/prismarine-windows/commits/8f78d173b35051ae9beb6f13c3bd0ef61df4a072"
        },
        {
            "author": {
                "avatar_url": "https://avatars.githubusercontent.com/u/96730122?v=4",
                "events_url": "https://api.github.com/users/Epirito/events{/privacy}",
                "followers_url": "https://api.github.com/users/Epirito/followers",
                "following_url": "https://api.github.com/users/Epirito/following{/other_user}",
                "gists_url": "https://api.github.com/users/Epirito/gists{/gist_id}",
                "gravatar_id": "",
                "html_url": "https://github.com/Epirito",
                "id": 96730122,
                "login": "Epirito",
                "node_id": "U_kgDOBcP8Cg",
                "organizations_url": "https://api.github.com/users/Epirito/orgs",
                "received_events_url": "https://api.github.com/users/Epirito/received_events",
                "repos_url": "https://api.github.com/users/Epirito/repos",
                "site_admin": false,
                "starred_url": "https://api.github.com/users/Epirito/starred{/owner}{/repo}",
                "subscriptions_url": "https://api.github.com/users/Epirito/subscriptions",
                "type": "User",
                "url": "https://api.github.com/users/Epirito"
            },
            "comments_url": "https://api.github.com/repos/PrismarineJS/prismarine-windows/commits/28c4a3cdbfedac316d2cf36d0a858f1a150d8299/comments",
            "commit": {
                "author": {
                    "date": "2022-10-12T16:26:51Z",
                    "email": "96730122+Epirito@users.noreply.github.com",
                    "name": "Epirito"
                },
                "comment_count": 0,
                "committer": {
                    "date": "2022-10-12T16:26:51Z",
                    "email": "96730122+Epirito@users.noreply.github.com",
                    "name": "Epirito"
                },
                "message": "comments anticipating the feature check implementation refactoring",
                "tree": {
                    "sha": "3daec847cbd9e74400e3be41439ff15c2d4b14fc",
                    "url": "https://api.github.com/repos/PrismarineJS/prismarine-windows/git/trees/3daec847cbd9e74400e3be41439ff15c2d4b14fc"
                },
                "url": "https://api.github.com/repos/PrismarineJS/prismarine-windows/git/commits/28c4a3cdbfedac316d2cf36d0a858f1a150d8299",
                "verification": {
                    "payload": null,
                    "reason": "unsigned",
                    "signature": null,
                    "verified": false
                }
            },
            "committer": {
                "avatar_url": "https://avatars.githubusercontent.com/u/96730122?v=4",
                "events_url": "https://api.github.com/users/Epirito/events{/privacy}",
                "followers_url": "https://api.github.com/users/Epirito/followers",
                "following_url": "https://api.github.com/users/Epirito/following{/other_user}",
                "gists_url": "https://api.github.com/users/Epirito/gists{/gist_id}",
                "gravatar_id": "",
                "html_url": "https://github.com/Epirito",
                "id": 96730122,
                "login": "Epirito",
                "node_id": "U_kgDOBcP8Cg",
                "organizations_url": "https://api.github.com/users/Epirito/orgs",
                "received_events_url": "https://api.github.com/users/Epirito/received_events",
                "repos_url": "https://api.github.com/users/Epirito/repos",
                "site_admin": false,
                "starred_url": "https://api.github.com/users/Epirito/starred{/owner}{/repo}",
                "subscriptions_url": "https://api.github.com/users/Epirito/subscriptions",
                "type": "User",
                "url": "https://api.github.com/users/Epirito"
            },
            "html_url": "https://github.com/PrismarineJS/prismarine-windows/commit/28c4a3cdbfedac316d2cf36d0a858f1a150d8299",
            "node_id": "C_kwDOAsggxdoAKDI4YzRhM2NkYmZlZGFjMzE2ZDJjZjM2ZDBhODU4ZjFhMTUwZDgyOTk",
            "parents": [
                {
                    "html_url": "https://github.com/PrismarineJS/prismarine-windows/commit/8f78d173b35051ae9beb6f13c3bd0ef61df4a072",
                    "sha": "8f78d173b35051ae9beb6f13c3bd0ef61df4a072",
                    "url": "https://api.github.com/repos/PrismarineJS/prismarine-windows/commits/8f78d173b35051ae9beb6f13c3bd0ef61df4a072"
                }
            ],
            "sha": "28c4a3cdbfedac316d2cf36d0a858f1a150d8299",
            "url": "https://api.github.com/repos/PrismarineJS/prismarine-windows/commits/28c4a3cdbfedac316d2cf36d0a858f1a150d8299"
        },
        {
            "author": {
                "avatar_url": "https://avatars.githubusercontent.com/u/96730122?v=4",
                "events_url": "https://api.github.com/users/Epirito/events{/privacy}",
                "followers_url": "https://api.github.com/users/Epirito/followers",
                "following_url": "https://api.github.com/users/Epirito/following{/other_user}",
                "gists_url": "https://api.github.com/users/Epirito/gists{/gist_id}",
                "gravatar_id": "",
                "html_url": "https://github.com/Epirito",
                "id": 96730122,
                "login": "Epirito",
                "node_id": "U_kgDOBcP8Cg",
                "organizations_url": "https://api.github.com/users/Epirito/orgs",
                "received_events_url": "https://api.github.com/users/Epirito/received_events",
                "repos_url": "https://api.github.com/users/Epirito/repos",
                "site_admin": false,
                "starred_url": "https://api.github.com/users/Epirito/starred{/owner}{/repo}",
                "subscriptions_url": "https://api.github.com/users/Epirito/subscriptions",
                "type": "User",
                "url": "https://api.github.com/users/Epirito"
            },
            "comments_url": "https://api.github.com/repos/PrismarineJS/prismarine-windows/commits/dc898e0b0aad7e54f7bf06d7e4c183bf4bce7e5a/comments",
            "commit": {
                "author": {
                    "date": "2022-10-12T16:33:33Z",
                    "email": "96730122+Epirito@users.noreply.github.com",
                    "name": "Epirito"
                },
                "comment_count": 0,
                "committer": {
                    "date": "2022-10-12T16:33:33Z",
                    "email": "96730122+Epirito@users.noreply.github.com",
                    "name": "Epirito"
                },
                "message": "lint fix",
                "tree": {
                    "sha": "7bb2c16e61e483c0df9003e29fd28802bb4d8e06",
                    "url": "https://api.github.com/repos/PrismarineJS/prismarine-windows/git/trees/7bb2c16e61e483c0df9003e29fd28802bb4d8e06"
                },
                "url": "https://api.github.com/repos/PrismarineJS/prismarine-windows/git/commits/dc898e0b0aad7e54f7bf06d7e4c183bf4bce7e5a",
                "verification": {
                    "payload": null,
                    "reason": "unsigned",
                    "signature": null,
                    "verified": false
                }
            },
            "committer": {
                "avatar_url": "https://avatars.githubusercontent.com/u/96730122?v=4",
                "events_url": "https://api.github.com/users/Epirito/events{/privacy}",
                "followers_url": "https://api.github.com/users/Epirito/followers",
                "following_url": "https://api.github.com/users/Epirito/following{/other_user}",
                "gists_url": "https://api.github.com/users/Epirito/gists{/gist_id}",
                "gravatar_id": "",
                "html_url": "https://github.com/Epirito",
                "id": 96730122,
                "login": "Epirito",
                "node_id": "U_kgDOBcP8Cg",
                "organizations_url": "https://api.github.com/users/Epirito/orgs",
                "received_events_url": "https://api.github.com/users/Epirito/received_events",
                "repos_url": "https://api.github.com/users/Epirito/repos",
                "site_admin": false,
                "starred_url": "https://api.github.com/users/Epirito/starred{/owner}{/repo}",
                "subscriptions_url": "https://api.github.com/users/Epirito/subscriptions",
                "type": "User",
                "url": "https://api.github.com/users/Epirito"
            },
            "html_url": "https://github.com/PrismarineJS/prismarine-windows/commit/dc898e0b0aad7e54f7bf06d7e4c183bf4bce7e5a",
            "node_id": "C_kwDOAsggxdoAKGRjODk4ZTBiMGFhZDdlNTRmN2JmMDZkN2U0YzE4M2JmNGJjZTdlNWE",
            "parents": [
                {
                    "html_url": "https://github.com/PrismarineJS/prismarine-windows/commit/28c4a3cdbfedac316d2cf36d0a858f1a150d8299",
                    "sha": "28c4a3cdbfedac316d2cf36d0a858f1a150d8299",
                    "url": "https://api.github.com/repos/PrismarineJS/prismarine-windows/commits/28c4a3cdbfedac316d2cf36d0a858f1a150d8299"
                }
            ],
            "sha": "dc898e0b0aad7e54f7bf06d7e4c183bf4bce7e5a",
            "url": "https://api.github.com/repos/PrismarineJS/prismarine-windows/commits/dc898e0b0aad7e54f7bf06d7e4c183bf4bce7e5a"
        }
    ],
    "commits": 3,
    "commits_url": "https://api.github.com/repos/PrismarineJS/prismarine-windows/pulls/77/commits",
    "created_at": "2022-10-12T16:30:21Z",
    "deletions": 7,
    "diff_url": "https://github.com/PrismarineJS/prismarine-windows/pull/77.diff",
    "draft": false,
    "head": {
        "label": "Epirito:master",
        "ref": "master",
        "repo": null,
        "sha": "dc898e0b0aad7e54f7bf06d7e4c183bf4bce7e5a",
        "user": {
            "avatar_url": "https://avatars.githubusercontent.com/u/96730122?v=4",
            "events_url": "https://api.github.com/users/Epirito/events{/privacy}",
            "followers_url": "https://api.github.com/users/Epirito/followers",
            "following_url": "https://api.github.com/users/Epirito/following{/other_user}",
            "gists_url": "https://api.github.com/users/Epirito/gists{/gist_id}",
            "gravatar_id": "",
            "html_url": "https://github.com/Epirito",
            "id": 96730122,
            "login": "Epirito",
            "node_id": "U_kgDOBcP8Cg",
            "organizations_url": "https://api.github.com/users/Epirito/orgs",
            "received_events_url": "https://api.github.com/users/Epirito/received_events",
            "repos_url": "https://api.github.com/users/Epirito/repos",
            "site_admin": false,
            "starred_url": "https://api.github.com/users/Epirito/starred{/owner}{/repo}",
            "subscriptions_url": "https://api.github.com/users/Epirito/subscriptions",
            "type": "User",
            "url": "https://api.github.com/users/Epirito"
        }
    },
    "html_url": "https://github.com/PrismarineJS/prismarine-windows/pull/77",
    "id": 1084944308,
    "issue_url": "https://api.github.com/repos/PrismarineJS/prismarine-windows/issues/77",
    "labels": [],
    "locked": false,
    "maintainer_can_modify": false,
    "merge_commit_sha": "840136b6bd22e9fbeae1fac06667af81242d0408",
    "mergeable": null,
    "mergeable_state": "unknown",
    "merged": true,
    "merged_at": "2022-10-12T21:46:42Z",
    "merged_by": {
        "avatar_url": "https://avatars.githubusercontent.com/u/2346494?v=4",
        "events_url": "https://api.github.com/users/rom1504/events{/privacy}",
        "followers_url": "https://api.github.com/users/rom1504/followers",
        "following_url": "https://api.github.com/users/rom1504/following{/other_user}",
        "gists_url": "https://api.github.com/users/rom1504/gists{/gist_id}",
        "gravatar_id": "",
        "html_url": "https://github.com/rom1504",
        "id": 2346494,
        "login": "rom1504",
        "node_id": "MDQ6VXNlcjIzNDY0OTQ=",
        "organizations_url": "https://api.github.com/users/rom1504/orgs",
        "received_events_url": "https://api.github.com/users/rom1504/received_events",
        "repos_url": "https://api.github.com/users/rom1504/repos",
        "site_admin": false,
        "starred_url": "https://api.github.com/users/rom1504/starred{/owner}{/repo}",
        "subscriptions_url": "https://api.github.com/users/rom1504/subscriptions",
        "type": "User",
        "url": "https://api.github.com/users/rom1504"
    },
    "milestone": null,
    "node_id": "PR_kwDOAsggxc5Aqu-0",
    "number": 77,
    "patch_url": "https://github.com/PrismarineJS/prismarine-windows/pull/77.patch",
    "rebaseable": null,
    "requested_reviewers": [],
    "requested_teams": [],
    "review_comment_url": "https://api.github.com/repos/PrismarineJS/prismarine-windows/pulls/comments{/number}",
    "review_comments": 0,
    "review_comments_url": "https://api.github.com/repos/PrismarineJS/prismarine-windows/pulls/77/comments",
    "state": "closed",
    "statuses_url": "https://api.github.com/repos/PrismarineJS/prismarine-windows/statuses/dc898e0b0aad7e54f7bf06d7e4c183bf4bce7e5a",
    "title": "mcData to registry refactoring + anticipation of feature check refactoring",
    "updated_at": "2022-10-12T21:46:42Z",
    "url": "https://api.github.com/repos/PrismarineJS/prismarine-windows/pulls/77",
    "user": {
        "avatar_url": "https://avatars.githubusercontent.com/u/96730122?v=4",
        "events_url": "https://api.github.com/users/Epirito/events{/privacy}",
        "followers_url": "https://api.github.com/users/Epirito/followers",
        "following_url": "https://api.github.com/users/Epirito/following{/other_user}",
        "gists_url": "https://api.github.com/users/Epirito/gists{/gist_id}",
        "gravatar_id": "",
        "html_url": "https://github.com/Epirito",
        "id": 96730122,
        "login": "Epirito",
        "node_id": "U_kgDOBcP8Cg",
        "organizations_url": "https://api.github.com/users/Epirito/orgs",
        "received_events_url": "https://api.github.com/users/Epirito/received_events",
        "repos_url": "https://api.github.com/users/Epirito/repos",
        "site_admin": false,
        "starred_url": "https://api.github.com/users/Epirito/starred{/owner}{/repo}",
        "subscriptions_url": "https://api.github.com/users/Epirito/subscriptions",
        "type": "User",
        "url": "https://api.github.com/users/Epirito"
    }
}