{
    "assets": [],
    "assets_url": "https://api.github.com/repos/PrismarineJS/prismarine-chunk/releases/105760562/assets",
    "author": {
        "avatar_url": "https://avatars.githubusercontent.com/in/15368?v=4",
        "events_url": "https://api.github.com/users/github-actions%5Bbot%5D/events{/privacy}",
        "followers_url": "https://api.github.com/users/github-actions%5Bbot%5D/followers",
        "following_url": "https://api.github.com/users/github-actions%5Bbot%5D/following{/other_user}",
        "gists_url": "https://api.github.com/users/github-actions%5Bbot%5D/gists{/gist_id}",
        "gravatar_id": "",
        "html_url": "https://github.com/apps/github-actions",
        "id": 41898282,
        "login": "github-actions[bot]",
        "node_id": "MDM6Qm90NDE4OTgyODI=",
        "organizations_url": "https://api.github.com/users/github-actions%5Bbot%5D/orgs",
        "received_events_url": "https://api.github.com/users/github-actions%5Bbot%5D/received_events",
        "repos_url": "https://api.github.com/users/github-actions%5Bbot%5D/repos",
        "site_admin": false,
        "starred_url": "https://api.github.com/users/github-actions%5Bbot%5D/starred{/owner}{/repo}",
        "subscriptions_url": "https://api.github.com/users/github-actions%5Bbot%5D/subscriptions",
        "type": "Bot",
        "url": "https://api.github.com/users/github-actions%5Bbot%5D",
        "user_view_type": "public"
    },
    "body": "1.33.1",
    "created_at": "2023-06-01T22:48:51Z",
    "draft": false,
    "html_url": "https://github.com/PrismarineJS/prismarine-chunk/releases/tag/1.33.1",
    "id": 105760562,
    "name": "Release 1.33.1",
    "node_id": "RE_kwDOAeJve84GTccy",
    "prerelease": false,
    "published_at": "2023-06-01T22:49:13Z",
    "tag_name": "1.33.1",
    "tarball_url": "https://api.github.com/repos/PrismarineJS/prismarine-chunk/tarball/1.33.1",
    "target_commitish": "a5d898860cdcd4cb8171b246d5126b7b725a66b2",
    "upload_url": "https://uploads.github.com/repos/PrismarineJS/prismarine-chunk/releases/105760562/assets{?name,label}",
    "url": "https://api.github.com/repos/PrismarineJS/prismarine-chunk/releases/105760562",
    "zipball_url": "https://api.github.com/repos/PrismarineJS/prismarine-chunk/zipball/1.33.1"
}