{
    "active_lock_reason": null,
    "assignee": null,
    "assignees": [],
    "author_association": "MEMBER",
    "body": "This one is a very clear NO\r\n\r\nThe reason why PrismarineJS has stayed maintained for many years is that splitting features in many packages makes it possible to separate concerns and let contributors focus on a small part of the features instead of having to change everything at once.\r\n\r\nIn general we follow this philosophy https://github.com/PrismarineJS/mineflayer#the-node-way",
    "closed_at": null,
    "comment_data": [
        {
            "author_association": "NONE",
            "body": "and what do you think about using mono repo / caching tools for gain time on CI?",
            "created_at": "2023-06-04T12:10:36Z",
            "html_url": "https://github.com/PrismarineJS/prismarine-contribute/issues/15#issuecomment-1575545153",
            "id": 1575545153,
            "issue_url": "https://api.github.com/repos/PrismarineJS/prismarine-contribute/issues/15",
            "node_id": "IC_kwDOCLUwH85d6OlB",
            "performed_via_github_app": null,
            "reactions": {
                "+1": 0,
                "-1": 0,
                "confused": 0,
                "eyes": 0,
                "heart": 0,
                "hooray": 0,
                "laugh": 0,
                "rocket": 0,
                "total_count": 0,
                "url": "https://api.github.com/repos/PrismarineJS/prismarine-contribute/issues/comments/1575545153/reactions"
            },
            "updated_at": "2023-06-04T12:10:36Z",
            "url": "https://api.github.com/repos/PrismarineJS/prismarine-contribute/issues/comments/1575545153",
            "user": {
                "avatar_url": "https://avatars.githubusercontent.com/u/97875033?v=4",
                "events_url": "https://api.github.com/users/AugustinMauroy/events{/privacy}",
                "followers_url": "https://api.github.com/users/AugustinMauroy/followers",
                "following_url": "https://api.github.com/users/AugustinMauroy/following{/other_user}",
                "gists_url": "https://api.github.com/users/AugustinMauroy/gists{/gist_id}",
                "gravatar_id": "",
                "html_url": "https://github.com/AugustinMauroy",
                "id": 97875033,
                "login": "AugustinMauroy",
                "node_id": "U_kgDOBdV0WQ",
                "organizations_url": "https://api.github.com/users/AugustinMauroy/orgs",
                "received_events_url": "https://api.github.com/users/AugustinMauroy/received_events",
                "repos_url": "https://api.github.com/users/AugustinMauroy/repos",
                "site_admin": false,
                "starred_url": "https://api.github.com/users/AugustinMauroy/starred{/owner}{/repo}",
                "subscriptions_url": "https://api.github.com/users/AugustinMauroy/subscriptions",
                "type": "User",
                "url": "https://api.github.com/users/AugustinMauroy"
            }
        },
        {
            "author_association": "MEMBER",
            "body": "Do you have specific suggestions?\n\nI found the tool in prismarine-meta helps a bit for some operations\n\nTrue monorepo are completely in opposition to the organization of\nPrismarineJs and would require very strong reasons\n\nOn Sun, Jun 4, 2023, 14:10 Augustin Mauroy ***@***.***> wrote:\n\n> and what do you think about using mono repo / caching tools for gain time\n> on CI?\n>\n> —\n> Reply to this email directly, view it on GitHub\n> <https://github.com/PrismarineJS/prismarine-contribute/issues/15#issuecomment-1575545153>,\n> or unsubscribe\n> <https://github.com/notifications/unsubscribe-auth/AAR437UUBQVJ7KMJAZRHZYTXJR3MRANCNFSM6AAAAAAYZQL4SA>\n> .\n> You are receiving this because you authored the thread.Message ID:\n> ***@***.***>\n>\n",
            "created_at": "2023-06-04T18:11:44Z",
            "html_url": "https://github.com/PrismarineJS/prismarine-contribute/issues/15#issuecomment-1575661657",
            "id": 1575661657,
            "issue_url": "https://api.github.com/repos/PrismarineJS/prismarine-contribute/issues/15",
            "node_id": "IC_kwDOCLUwH85d6rBZ",
            "performed_via_github_app": null,
            "reactions": {
                "+1": 0,
                "-1": 0,
                "confused": 0,
                "eyes": 0,
                "heart": 0,
                "hooray": 0,
                "laugh": 0,
                "rocket": 0,
                "total_count": 0,
                "url": "https://api.github.com/repos/PrismarineJS/prismarine-contribute/issues/comments/1575661657/reactions"
            },
            "updated_at": "2023-06-04T18:11:44Z",
            "url": "https://api.github.com/repos/PrismarineJS/prismarine-contribute/issues/comments/1575661657",
            "user": {
                "avatar_url": "https://avatars.githubusercontent.com/u/2346494?v=4",
                "events_url": "https://api.github.com/users/rom1504/events{/privacy}",
                "followers_url": "https://api.github.com/users/rom1504/followers",
                "following_url": "https://api.github.com/users/rom1504/following{/other_user}",
                "gists_url": "https://api.github.com/users/rom1504/gists{/gist_id}",
                "gravatar_id": "",
                "html_url": "https://github.com/rom1504",
                "id": 2346494,
                "login": "rom1504",
                "node_id": "MDQ6VXNlcjIzNDY0OTQ=",
                "organizations_url": "https://api.github.com/users/rom1504/orgs",
                "received_events_url": "https://api.github.com/users/rom1504/received_events",
                "repos_url": "https://api.github.com/users/rom1504/repos",
                "site_admin": false,
                "starred_url": "https://api.github.com/users/rom1504/starred{/owner}{/repo}",
                "subscriptions_url": "https://api.github.com/users/rom1504/subscriptions",
                "type": "User",
                "url": "https://api.github.com/users/rom1504"
            }
        },
        {
            "author_association": "NONE",
            "body": "I just propose to use turbo repo for protodef ",
            "created_at": "2023-06-04T19:08:19Z",
            "html_url": "https://github.com/PrismarineJS/prismarine-contribute/issues/15#issuecomment-1575677235",
            "id": 1575677235,
            "issue_url": "https://api.github.com/repos/PrismarineJS/prismarine-contribute/issues/15",
            "node_id": "IC_kwDOCLUwH85d6u0z",
            "performed_via_github_app": null,
            "reactions": {
                "+1": 0,
                "-1": 0,
                "confused": 0,
                "eyes": 0,
                "heart": 0,
                "hooray": 0,
                "laugh": 0,
                "rocket": 0,
                "total_count": 0,
                "url": "https://api.github.com/repos/PrismarineJS/prismarine-contribute/issues/comments/1575677235/reactions"
            },
            "updated_at": "2023-06-04T19:08:19Z",
            "url": "https://api.github.com/repos/PrismarineJS/prismarine-contribute/issues/comments/1575677235",
            "user": {
                "avatar_url": "https://avatars.githubusercontent.com/u/97875033?v=4",
                "events_url": "https://api.github.com/users/AugustinMauroy/events{/privacy}",
                "followers_url": "https://api.github.com/users/AugustinMauroy/followers",
                "following_url": "https://api.github.com/users/AugustinMauroy/following{/other_user}",
                "gists_url": "https://api.github.com/users/AugustinMauroy/gists{/gist_id}",
                "gravatar_id": "",
                "html_url": "https://github.com/AugustinMauroy",
                "id": 97875033,
                "login": "AugustinMauroy",
                "node_id": "U_kgDOBdV0WQ",
                "organizations_url": "https://api.github.com/users/AugustinMauroy/orgs",
                "received_events_url": "https://api.github.com/users/AugustinMauroy/received_events",
                "repos_url": "https://api.github.com/users/AugustinMauroy/repos",
                "site_admin": false,
                "starred_url": "https://api.github.com/users/AugustinMauroy/starred{/owner}{/repo}",
                "subscriptions_url": "https://api.github.com/users/AugustinMauroy/subscriptions",
                "type": "User",
                "url": "https://api.github.com/users/AugustinMauroy"
            }
        }
    ],
    "comments": 3,
    "comments_url": "https://api.github.com/repos/PrismarineJS/prismarine-contribute/issues/15/comments",
    "created_at": "2023-05-29T14:43:36Z",
    "event_data": [
        {
            "actor": {
                "avatar_url": "https://avatars.githubusercontent.com/u/2346494?v=4",
                "events_url": "https://api.github.com/users/rom1504/events{/privacy}",
                "followers_url": "https://api.github.com/users/rom1504/followers",
                "following_url": "https://api.github.com/users/rom1504/following{/other_user}",
                "gists_url": "https://api.github.com/users/rom1504/gists{/gist_id}",
                "gravatar_id": "",
                "html_url": "https://github.com/rom1504",
                "id": 2346494,
                "login": "rom1504",
                "node_id": "MDQ6VXNlcjIzNDY0OTQ=",
                "organizations_url": "https://api.github.com/users/rom1504/orgs",
                "received_events_url": "https://api.github.com/users/rom1504/received_events",
                "repos_url": "https://api.github.com/users/rom1504/repos",
                "site_admin": false,
                "starred_url": "https://api.github.com/users/rom1504/starred{/owner}{/repo}",
                "subscriptions_url": "https://api.github.com/users/rom1504/subscriptions",
                "type": "User",
                "url": "https://api.github.com/users/rom1504"
            },
            "commit_id": null,
            "commit_url": null,
            "created_at": "2023-06-03T21:23:06Z",
            "event": "transferred",
            "id": 9422715144,
            "node_id": "TRE_lADOCLUwH85ntRsazwAAAAIxozkI",
            "performed_via_github_app": null,
            "url": "https://api.github.com/repos/PrismarineJS/prismarine-contribute/issues/events/9422715144"
        }
    ],
    "events_url": "https://api.github.com/repos/PrismarineJS/prismarine-contribute/issues/15/events",
    "html_url": "https://github.com/PrismarineJS/prismarine-contribute/issues/15",
    "id": 1739922202,
    "labels": [],
    "labels_url": "https://api.github.com/repos/PrismarineJS/prismarine-contribute/issues/15/labels{/name}",
    "locked": false,
    "milestone": null,
    "node_id": "I_kwDOCLUwH85ntRsa",
    "number": 15,
    "performed_via_github_app": null,
    "reactions": {
        "+1": 0,
        "-1": 0,
        "confused": 0,
        "eyes": 0,
        "heart": 0,
        "hooray": 0,
        "laugh": 0,
        "rocket": 0,
        "total_count": 0,
        "url": "https://api.github.com/repos/PrismarineJS/prismarine-contribute/issues/15/reactions"
    },
    "repository_url": "https://api.github.com/repos/PrismarineJS/prismarine-contribute",
    "state": "open",
    "state_reason": null,
    "timeline_url": "https://api.github.com/repos/PrismarineJS/prismarine-contribute/issues/15/timeline",
    "title": "should we go from small packages to mono repo ?",
    "updated_at": "2023-06-04T19:08:19Z",
    "url": "https://api.github.com/repos/PrismarineJS/prismarine-contribute/issues/15",
    "user": {
        "avatar_url": "https://avatars.githubusercontent.com/u/2346494?v=4",
        "events_url": "https://api.github.com/users/rom1504/events{/privacy}",
        "followers_url": "https://api.github.com/users/rom1504/followers",
        "following_url": "https://api.github.com/users/rom1504/following{/other_user}",
        "gists_url": "https://api.github.com/users/rom1504/gists{/gist_id}",
        "gravatar_id": "",
        "html_url": "https://github.com/rom1504",
        "id": 2346494,
        "login": "rom1504",
        "node_id": "MDQ6VXNlcjIzNDY0OTQ=",
        "organizations_url": "https://api.github.com/users/rom1504/orgs",
        "received_events_url": "https://api.github.com/users/rom1504/received_events",
        "repos_url": "https://api.github.com/users/rom1504/repos",
        "site_admin": false,
        "starred_url": "https://api.github.com/users/rom1504/starred{/owner}{/repo}",
        "subscriptions_url": "https://api.github.com/users/rom1504/subscriptions",
        "type": "User",
        "url": "https://api.github.com/users/rom1504"
    }
}